mediciones/Mediciones filtradas (saque las feas)/6-3/-7.5/WaveData5357.csv

#timebase=2000000(ps)
,#voltbase=500000(mv/100)
#size=4000
-2.300E-06,0.300
-2.290E-06,0.340
-2.280E-06,0.300
-2.270E-06,0.380
-2.260E-06,0.440
-2.250E-06,0.460
-2.240E-06,0.500
-2.230E-06,0.500
-2.220E-06,0.520
-2.210E-06,0.520
-2.200E-06,0.520
-2.190E-06,0.500
-2.180E-06,0.480
-2.170E-06,0.480
-2.160E-06,0.480
-2.150E-06,0.400
-2.140E-06,0.360
-2.130E-06,0.280
-2.120E-06,0.200
-2.110E-06,0.180
-2.100E-06,0.160
-2.090E-06,0.100
-2.080E-06,0.040
-2.070E-06,0.000
-2.060E-06,-0.060
-2.050E-06,-0.100
-2.040E-06,-0.120
-2.030E-06,-0.140
-2.020E-06,-0.180
-2.010E-06,-0.180
-2.000E-06,-0.180
-1.990E-06,-0.220
-1.980E-06,-0.180
-1.970E-06,-0.220
-1.960E-06,-0.180
-1.950E-06,-0.180
-1.940E-06,-0.180
-1.930E-06,-0.160
-1.920E-06,-0.220
-1.910E-06,-0.260
-1.900E-06,-0.280
-1.890E-06,-0.360
-1.880E-06,-0.260
-1.870E-06,-0.160
-1.860E-06,-0.160
-1.850E-06,-0.060
-1.840E-06,-0.080
-1.830E-06,-0.060
-1.820E-06,-0.060
-1.810E-06,-0.040
-1.800E-06,-0.040
-1.790E-06,0.020
-1.780E-06,-0.060
-1.770E-06,-0.160
-1.760E-06,-0.600
-1.750E-06,0.140
-1.740E-06,0.140
-1.730E-06,0.380
-1.720E-06,1.060
-1.710E-06,0.760
-1.700E-06,0.700
-1.690E-06,0.560
-1.680E-06,0.760
-1.670E-06,0.740
-1.660E-06,0.880
-1.650E-06,1.100
-1.640E-06,1.200
-1.630E-06,1.080
-1.620E-06,1.120
-1.610E-06,1.080
-1.600E-06,0.760
-1.590E-06,0.720
-1.580E-06,0.660
-1.570E-06,0.600
-1.560E-06,0.420
-1.550E-06,0.500
-1.540E-06,0.360
-1.530E-06,0.000
-1.520E-06,-0.240
-1.510E-06,-0.620
-1.500E-06,-0.960
-1.490E-06,-1.180
-1.480E-06,-1.200
-1.470E-06,-1.080
-1.460E-06,-1.280
-1.450E-06,-1.120
-1.440E-06,-1.000
-1.430E-06,-1.160
-1.420E-06,-1.040
-1.410E-06,-0.880
-1.400E-06,-0.780
-1.390E-06,-0.540
-1.380E-06,-0.360
-1.370E-06,-0.280
-1.360E-06,-0.300
-1.350E-06,-0.220
-1.340E-06,-0.060
-1.330E-06,0.180
-1.320E-06,0.480
-1.310E-06,0.860
-1.300E-06,1.080
-1.290E-06,1.280
-1.280E-06,1.120
-1.270E-06,1.340
-1.260E-06,1.020
-1.250E-06,1.100
-1.240E-06,1.200
-1.230E-06,1.480
-1.220E-06,1.640
-1.210E-06,1.920
-1.200E-06,1.860
-1.190E-06,1.620
-1.180E-06,1.380
-1.170E-06,1.240
-1.160E-06,1.260
-1.150E-06,1.300
-1.140E-06,1.360
-1.130E-06,1.460
-1.120E-06,1.200
-1.110E-06,0.740
-1.100E-06,1.220
-1.090E-06,0.660
-1.080E-06,0.900
-1.070E-06,0.680
-1.060E-06,0.600
-1.050E-06,0.260
-1.040E-06,0.220
-1.030E-06,0.380
-1.020E-06,0.660
-1.010E-06,0.440
-1.000E-06,0.340
-9.900E-07,-0.020
-9.800E-07,-0.340
-9.700E-07,-0.560
-9.600E-07,-0.380
-9.500E-07,-0.320
-9.400E-07,-0.340
-9.300E-07,-0.460
-9.200E-07,-0.560
-9.100E-07,-0.860
-9.000E-07,-0.860
-8.900E-07,-0.920
-8.800E-07,-0.800
-8.700E-07,-0.680
-8.600E-07,-0.460
-8.500E-07,-0.280
-8.400E-07,-0.280
-8.300E-07,-0.320
-8.200E-07,-0.360
-8.100E-07,-0.300
-8.000E-07,-0.060
-7.900E-07,0.300
-7.800E-07,0.440
-7.700E-07,0.540
-7.600E-07,0.440
-7.500E-07,0.360
-7.400E-07,0.260
-7.300E-07,0.260
-7.200E-07,0.400
-7.100E-07,0.420
-7.000E-07,0.540
-6.900E-07,0.560
-6.800E-07,0.560
-6.700E-07,0.500
-6.600E-07,0.340
-6.500E-07,0.220
-6.400E-07,0.240
-6.300E-07,0.160
-6.200E-07,0.320
-6.100E-07,0.180
-6.000E-07,0.140
-5.900E-07,0.080
-5.800E-07,-0.020
-5.700E-07,-0.020
-5.600E-07,-0.180
-5.500E-07,-0.180
-5.400E-07,-0.420
-5.300E-07,-0.300
-5.200E-07,-0.260
-5.100E-07,-0.180
-5.000E-07,-0.120
-4.900E-07,-0.100
-4.800E-07,-0.040
-4.700E-07,-0.080
-4.600E-07,0.000
-4.500E-07,0.160
-4.400E-07,0.320
-4.300E-07,0.460
-4.200E-07,0.660
-4.100E-07,0.860
-4.000E-07,0.840
-3.900E-07,0.920
-3.800E-07,0.900
-3.700E-07,0.960
-3.600E-07,0.920
-3.500E-07,1.080
-3.400E-07,1.080
-3.300E-07,1.040
-3.200E-07,1.000
-3.100E-07,0.840
-3.000E-07,0.680
-2.900E-07,0.520
-2.800E-07,0.420
-2.700E-07,0.400
-2.600E-07,0.360
-2.500E-07,0.400
-2.400E-07,0.340
-2.300E-07,0.240
-2.200E-07,0.220
-2.100E-07,0.080
-2.000E-07,0.100
-1.900E-07,0.120
-1.800E-07,0.360
-1.700E-07,0.420
-1.600E-07,0.520
-1.500E-07,0.420
-1.400E-07,0.420
-1.300E-07,0.340
-1.200E-07,0.500
-1.100E-07,0.620
-1.000E-07,0.800
-9.000E-08,0.980
-8.000E-08,0.920
-7.000E-08,1.140
-6.000E-08,0.580
-5.000E-08,0.340
-4.000E-08,1.860
-3.000E-08,-1.580
-2.000E-08,0.080
-1.000E-08,-2.660
0.000E+00,0.780
1.000E-08,-1.880
2.000E-08,2.760
3.000E-08,2.780
4.000E-08,2.760
5.000E-08,0.720
6.000E-08,-0.940
7.000E-08,-0.160
8.000E-08,0.420
9.000E-08,2.000
1.000E-07,2.760
1.100E-07,2.040
1.200E-07,-0.040
1.300E-07,-0.840
1.400E-07,-0.200
1.500E-07,-0.860
1.600E-07,-0.260
1.700E-07,0.800
1.800E-07,0.160
1.900E-07,-1.140
2.000E-07,-0.660
2.100E-07,-0.100
2.200E-07,-0.820
2.300E-07,-1.600
2.400E-07,-1.540
2.500E-07,-2.260
2.600E-07,-2.600
2.700E-07,-1.620
2.800E-07,-1.300
2.900E-07,-2.160
3.000E-07,-2.120
3.100E-07,-1.740
3.200E-07,-0.960
3.300E-07,-0.760
3.400E-07,0.160
3.500E-07,-0.020
3.600E-07,-0.100
3.700E-07,-0.060
3.800E-07,0.560
3.900E-07,0.220
4.000E-07,-0.220
4.100E-07,0.160
4.200E-07,-0.360
4.300E-07,-0.620
4.400E-07,-1.400
4.500E-07,-1.860
4.600E-07,-2.360
4.700E-07,-1.540
4.800E-07,0.740
4.900E-07,2.200
5.000E-07,2.780
5.100E-07,2.760
5.200E-07,2.340
5.300E-07,1.160
5.400E-07,1.180
5.500E-07,1.520
5.600E-07,1.760
5.700E-07,1.840
5.800E-07,2.100
5.900E-07,1.340
6.000E-07,0.680
6.100E-07,0.180
6.200E-07,0.060
6.300E-07,-0.200
6.400E-07,0.020
6.500E-07,-0.080
6.600E-07,-0.300
6.700E-07,-0.580
6.800E-07,-0.680
6.900E-07,-0.880
7.000E-07,-1.460
7.100E-07,-2.080
7.200E-07,-2.280
7.300E-07,-2.300
7.400E-07,-1.760
7.500E-07,-0.600
7.600E-07,-0.060
7.700E-07,0.100
7.800E-07,-0.160
7.900E-07,-0.280
8.000E-07,-0.600
8.100E-07,-0.620
8.200E-07,-0.400
8.300E-07,-0.320
8.400E-07,-0.240
8.500E-07,-0.400
8.600E-07,-0.560
8.700E-07,-0.740
8.800E-07,-1.180
8.900E-07,-1.300
9.000E-07,-1.400
9.100E-07,-1.500
9.200E-07,-1.360
9.300E-07,-1.300
9.400E-07,-1.380
9.500E-07,-1.100
9.600E-07,-1.300
9.700E-07,-1.200
9.800E-07,-1.260
9.900E-07,-1.100
1.000E-06,-0.820
1.010E-06,-0.540
1.020E-06,-0.340
1.030E-06,-0.200
1.040E-06,-0.240
1.050E-06,-0.300
1.060E-06,-0.240
1.070E-06,-0.360
1.080E-06,-0.500
1.090E-06,-0.240
1.100E-06,-0.440
1.110E-06,-0.600
1.120E-06,-0.800
1.130E-06,-1.220
1.140E-06,-1.020
1.150E-06,-1.200
1.160E-06,-1.060
1.170E-06,-1.040
1.180E-06,-1.000
1.190E-06,-1.020
1.200E-06,-0.820
1.210E-06,-0.480
1.220E-06,-0.140
1.230E-06,0.000
1.240E-06,0.260
1.250E-06,0.500
1.260E-06,0.660
1.270E-06,0.680
1.280E-06,0.800
1.290E-06,0.760
1.300E-06,0.700
1.310E-06,0.480
1.320E-06,0.480
1.330E-06,0.460
1.340E-06,0.320
1.350E-06,0.260
1.360E-06,-0.120
1.370E-06,-0.140
1.380E-06,-0.320
1.390E-06,-0.420
1.400E-06,-0.340
1.410E-06,-0.240
1.420E-06,-0.400
1.430E-06,-0.240
1.440E-06,-0.300
1.450E-06,-0.940
1.460E-06,-0.080
1.470E-06,-0.380
1.480E-06,-2.660
1.490E-06,-2.080
1.500E-06,-2.660
1.510E-06,-1.320
1.520E-06,-2.560
1.530E-06,2.760
1.540E-06,0.160
1.550E-06,1.180
1.560E-06,-1.260
1.570E-06,0.420
1.580E-06,-2.640
1.590E-06,-1.200
1.600E-06,0.960
1.610E-06,1.940
1.620E-06,-0.180
1.630E-06,1.140
1.640E-06,-0.020
1.650E-06,-1.260
1.660E-06,-1.540
1.670E-06,0.240
1.680E-06,-0.880
1.690E-06,-0.840
1.700E-06,0.040
1.710E-06,0.300
1.720E-06,-1.380
1.730E-06,-1.180
1.740E-06,-1.220
1.750E-06,-2.020
1.760E-06,-2.480
1.770E-06,-1.500
1.780E-06,-1.540
1.790E-06,-2.100
1.800E-06,-1.800
1.810E-06,-1.720
1.820E-06,-2.340
1.830E-06,-2.340
1.840E-06,-1.720
1.850E-06,-1.720
1.860E-06,-1.900
1.870E-06,-1.380
1.880E-06,-1.540
1.890E-06,-1.780
1.900E-06,-1.780
1.910E-06,-1.620
1.920E-06,-1.700
1.930E-06,-1.600
1.940E-06,-1.140
1.950E-06,-0.900
1.960E-06,-0.840
1.970E-06,-0.620
1.980E-06,-0.580
1.990E-06,-0.680
2.000E-06,-0.900
2.010E-06,-0.680
2.020E-06,-0.880
2.030E-06,-0.880
2.040E-06,-0.660
2.050E-06,-0.640
2.060E-06,-0.680
2.070E-06,-0.420
2.080E-06,-0.460
2.090E-06,-0.500
2.100E-06,-0.580
2.110E-06,-0.440
2.120E-06,-0.420
2.130E-06,-0.500
2.140E-06,-0.700
2.150E-06,-1.040
2.160E-06,-1.560
2.170E-06,-1.780
2.180E-06,-2.080
2.190E-06,-2.180
2.200E-06,-2.020
2.210E-06,-1.880
2.220E-06,-1.640
2.230E-06,-2.120
2.240E-06,-2.020
2.250E-06,-2.020
2.260E-06,-2.240
2.270E-06,-1.840
2.280E-06,-1.700
2.290E-06,-1.480
2.300E-06,-1.680
2.310E-06,-1.600
2.320E-06,-1.620
2.330E-06,-1.780
2.340E-06,-1.520
2.350E-06,-1.320
2.360E-06,-1.100
2.370E-06,-1.260
2.380E-06,-1.280
2.390E-06,-1.460
2.400E-06,-1.840
2.410E-06,-2.000
2.420E-06,-2.300
2.430E-06,-2.660
2.440E-06,-2.660
2.450E-06,-2.660
2.460E-06,-2.660
2.470E-06,-2.660
2.480E-06,-2.660
2.490E-06,-2.660
2.500E-06,-2.660
2.510E-06,-2.660
2.520E-06,-2.660
2.530E-06,-2.660
2.540E-06,-2.640
2.550E-06,-2.640
2.560E-06,-2.640
2.570E-06,-2.640
2.580E-06,-2.640
2.590E-06,-2.660
2.600E-06,-2.660
2.610E-06,-2.660
2.620E-06,-2.660
2.630E-06,-2.660
2.640E-06,-2.660
2.650E-06,-2.660
2.660E-06,-2.660
2.670E-06,-2.680
2.680E-06,-2.660
2.690E-06,-2.660
2.700E-06,-2.660
2.710E-06,-2.660
2.720E-06,-2.660
2.730E-06,-2.660
2.740E-06,-2.660
2.750E-06,-2.640
2.760E-06,-2.640
2.770E-06,-2.660
2.780E-06,-2.660
2.790E-06,-2.660
2.800E-06,-2.660
2.810E-06,-2.660
2.820E-06,-2.660
2.830E-06,-2.680
2.840E-06,-2.680
2.850E-06,-2.680
2.860E-06,-2.660
2.870E-06,-2.660
2.880E-06,-2.640
2.890E-06,-2.660
2.900E-06,-2.660
2.910E-06,-2.620
2.920E-06,-1.860
2.930E-06,0.520
2.940E-06,-1.300
2.950E-06,-2.220
2.960E-06,-2.680
2.970E-06,-2.600
2.980E-06,-1.100
2.990E-06,-0.020
3.000E-06,0.300
3.010E-06,0.500
3.020E-06,-0.160
3.030E-06,-0.640
3.040E-06,-0.560
3.050E-06,-0.400
3.060E-06,-0.760
3.070E-06,-0.860
3.080E-06,-1.080
3.090E-06,-1.200
3.100E-06,-1.500
3.110E-06,-1.660
3.120E-06,-2.260
3.130E-06,-2.660
3.140E-06,-2.660
3.150E-06,-2.660
3.160E-06,-2.660
3.170E-06,-2.660
3.180E-06,-2.660
3.190E-06,-2.660
3.200E-06,-2.660
3.210E-06,-2.660
3.220E-06,-2.660
3.230E-06,-2.660
3.240E-06,-2.660
3.250E-06,-2.660
3.260E-06,-2.680
3.270E-06,-2.560
3.280E-06,-2.260
3.290E-06,-2.060
3.300E-06,-2.160
3.310E-06,-1.940
3.320E-06,-1.800
3.330E-06,-1.520
3.340E-06,-1.460
3.350E-06,-1.340
3.360E-06,-1.440
3.370E-06,-1.600
3.380E-06,-1.760
3.390E-06,-2.240
3.400E-06,-2.480
3.410E-06,-2.640
3.420E-06,-2.660
3.430E-06,-2.660
3.440E-06,-2.660
3.450E-06,-2.640
3.460E-06,-2.640
3.470E-06,-2.580
3.480E-06,-2.540
3.490E-06,-2.520
3.500E-06,-2.580
3.510E-06,-2.660
3.520E-06,-2.660
3.530E-06,-2.660
3.540E-06,-2.660
3.550E-06,-2.660
3.560E-06,-2.660
3.570E-06,-2.660
3.580E-06,-2.660
3.590E-06,-2.660
3.600E-06,-2.660
3.610E-06,-2.320
3.620E-06,-1.380
3.630E-06,-1.580
3.640E-06,-1.780
3.650E-06,-1.780
3.660E-06,-0.320
3.670E-06,1.500
3.680E-06,2.580
3.690E-06,2.740
3.700E-06,2.760
3.710E-06,2.260
3.720E-06,1.380
3.730E-06,0.780
3.740E-06,0.700
3.750E-06,0.620
3.760E-06,1.120
3.770E-06,1.020
3.780E-06,0.660
3.790E-06,0.340
3.800E-06,0.120
3.810E-06,-0.540
3.820E-06,-0.880
3.830E-06,-1.040
3.840E-06,-0.980
3.850E-06,-0.940
3.860E-06,-0.640
3.870E-06,-0.600
3.880E-06,-0.840
3.890E-06,-0.940
3.900E-06,-0.880
3.910E-06,-0.860
3.920E-06,-0.840
3.930E-06,-0.880
3.940E-06,-0.860
3.950E-06,-1.060
3.960E-06,-1.280
3.970E-06,-1.600
3.980E-06,-2.120
3.990E-06,-2.620
4.000E-06,-2.660
4.010E-06,-2.640
4.020E-06,-2.660
4.030E-06,-2.660
4.040E-06,-2.660
4.050E-06,-2.660
4.060E-06,-2.660
4.070E-06,-2.660
4.080E-06,-2.660
4.090E-06,-2.640
4.100E-06,-2.660
4.110E-06,-2.660
4.120E-06,-2.680
4.130E-06,-2.540
4.140E-06,-2.140
4.150E-06,-1.680
4.160E-06,-1.140
4.170E-06,-0.680
4.180E-06,-0.320
4.190E-06,-0.020
4.200E-06,0.100
4.210E-06,0.160
4.220E-06,0.040
4.230E-06,-0.140
4.240E-06,-0.560
4.250E-06,-0.960
4.260E-06,-1.240
4.270E-06,-1.340
4.280E-06,-1.400
4.290E-06,-1.400
4.300E-06,-1.440
4.310E-06,-1.540
4.320E-06,-1.480
4.330E-06,-1.380
4.340E-06,-1.220
4.350E-06,-1.100
4.360E-06,-1.000
4.370E-06,-0.840
4.380E-06,-0.760
4.390E-06,-0.600
4.400E-06,-0.460
4.410E-06,-0.420
4.420E-06,-0.480
4.430E-06,-0.500
4.440E-06,-0.560
4.450E-06,-0.620
4.460E-06,-0.760
4.470E-06,-0.960
4.480E-06,-1.180
4.490E-06,-1.420
4.500E-06,-1.620
4.510E-06,-1.800
4.520E-06,-2.000
4.530E-06,-2.240
4.540E-06,-2.420
4.550E-06,-2.600
4.560E-06,-2.660
4.570E-06,-2.660
4.580E-06,-2.640
4.590E-06,-2.620
4.600E-06,-2.600
4.610E-06,-2.540
4.620E-06,-2.520
4.630E-06,-2.460
4.640E-06,-2.380
4.650E-06,-2.380
4.660E-06,-2.360
4.670E-06,-2.380
4.680E-06,-2.340
4.690E-06,-2.340
4.700E-06,-2.300
4.710E-06,-2.280
4.720E-06,-2.220
4.730E-06,-2.200
4.740E-06,-2.180
4.750E-06,-2.120
4.760E-06,-2.100
4.770E-06,-2.040
4.780E-06,-1.980
4.790E-06,-1.960
4.800E-06,-1.880
4.810E-06,-1.860
4.820E-06,-1.780
4.830E-06,-1.700
4.840E-06,-1.620
4.850E-06,-1.520
4.860E-06,-1.440
4.870E-06,-1.360
4.880E-06,-1.260
4.890E-06,-1.140
4.900E-06,-1.000
4.910E-06,-0.940
4.920E-06,-0.860
4.930E-06,-0.800
4.940E-06,-0.720
4.950E-06,-0.700
4.960E-06,-0.660
4.970E-06,-0.680
4.980E-06,-0.680
4.990E-06,-0.660
5.000E-06,-0.740
5.010E-06,-0.780
5.020E-06,-0.820
5.030E-06,-0.920
5.040E-06,-1.040
5.050E-06,-1.140
5.060E-06,-1.260
5.070E-06,-1.360
5.080E-06,-1.420
5.090E-06,-1.460
5.100E-06,-1.520
5.110E-06,-1.580
5.120E-06,-1.600
5.130E-06,-1.680
5.140E-06,-1.700
5.150E-06,-1.720
5.160E-06,-1.720
5.170E-06,-1.680
5.180E-06,-1.600
5.190E-06,-1.600
5.200E-06,-1.540
5.210E-06,-1.500
5.220E-06,-1.420
5.230E-06,-1.360
5.240E-06,-1.320
5.250E-06,-1.240
5.260E-06,-1.220
5.270E-06,-1.200
5.280E-06,-1.200
5.290E-06,-1.260
5.300E-06,-1.300
5.310E-06,-1.380
5.320E-06,-1.420
5.330E-06,-1.500
5.340E-06,-1.540
5.350E-06,-1.640
5.360E-06,-1.700
5.370E-06,-1.780
5.380E-06,-1.840
5.390E-06,-1.920
5.400E-06,-1.960
5.410E-06,-1.960
5.420E-06,-1.940
5.430E-06,-1.880
5.440E-06,-1.760
5.450E-06,-1.660
5.460E-06,-1.480
5.470E-06,-1.360
5.480E-06,-1.200
5.490E-06,-1.040
5.500E-06,-0.880
5.510E-06,-0.760
5.520E-06,-0.660
5.530E-06,-0.560
5.540E-06,-0.480
5.550E-06,-0.420
5.560E-06,-0.400
5.570E-06,-0.400
5.580E-06,-0.460
5.590E-06,-0.560
5.600E-06,-0.620
5.610E-06,-0.720
5.620E-06,-0.800
5.630E-06,-0.860
5.640E-06,-0.980
5.650E-06,-1.080
5.660E-06,-1.140
5.670E-06,-1.200
5.680E-06,-1.320
5.690E-06,-1.340
5.700E-06,-1.360
5.710E-06,-1.360
5.720E-06,-1.320
5.730E-06,-1.280
5.740E-06,-1.180
5.750E-06,-1.100
5.760E-06,-1.040
5.770E-06,-0.940
5.780E-06,-0.860
5.790E-06,-0.800
5.800E-06,-0.760
5.810E-06,-0.720
5.820E-06,-0.720
5.830E-06,-0.740
5.840E-06,-0.760
5.850E-06,-0.700
5.860E-06,-0.740
5.870E-06,-0.740
5.880E-06,-0.780
5.890E-06,-0.800
5.900E-06,-0.840
5.910E-06,-0.880
5.920E-06,-0.880
5.930E-06,-0.860
5.940E-06,-0.840
5.950E-06,-0.860
5.960E-06,-0.880
5.970E-06,-0.880
5.980E-06,-0.900
5.990E-06,-0.900
6.000E-06,-0.860
6.010E-06,-0.760
6.020E-06,-0.700
6.030E-06,-0.660
6.040E-06,-0.600
6.050E-06,-0.560
6.060E-06,-0.500
6.070E-06,-0.480
6.080E-06,-0.460
6.090E-06,-0.460
6.100E-06,-0.500
6.110E-06,-0.540
6.120E-06,-0.580
6.130E-06,-0.640
6.140E-06,-0.720
6.150E-06,-0.780
6.160E-06,-0.820
6.170E-06,-0.840
6.180E-06,-0.880
6.190E-06,-0.880
6.200E-06,-0.840
6.210E-06,-0.840
6.220E-06,-0.840
6.230E-06,-0.820
6.240E-06,-0.780
6.250E-06,-0.700
6.260E-06,-0.600
6.270E-06,-0.480
6.280E-06,-0.380
6.290E-06,-0.340
6.300E-06,-0.320
6.310E-06,-0.340
6.320E-06,-0.320
6.330E-06,-0.340
6.340E-06,-0.360
6.350E-06,-0.360
6.360E-06,-0.340
6.370E-06,-0.320
6.380E-06,-0.340
6.390E-06,-0.400
6.400E-06,-0.400
6.410E-06,-0.420
6.420E-06,-0.380
6.430E-06,-0.360
6.440E-06,-0.360
6.450E-06,-0.340
6.460E-06,-0.280
6.470E-06,-0.260
6.480E-06,-0.220
6.490E-06,-0.140
6.500E-06,-0.080
6.510E-06,-0.020
6.520E-06,0.020
6.530E-06,0.100
6.540E-06,0.120
6.550E-06,0.120
6.560E-06,0.080
6.570E-06,0.060
6.580E-06,0.060
6.590E-06,0.040
6.600E-06,0.060
6.610E-06,0.140
6.620E-06,0.200
6.630E-06,0.240
6.640E-06,0.240
6.650E-06,0.260
6.660E-06,0.220
6.670E-06,0.120
6.680E-06,0.060
6.690E-06,-0.020
6.700E-06,-0.160
6.710E-06,-0.180
6.720E-06,-0.200
6.730E-06,-0.240
6.740E-06,-0.200
6.750E-06,-0.240
6.760E-06,-0.280
6.770E-06,-0.360
6.780E-06,-0.400
6.790E-06,-0.500
6.800E-06,-0.640
6.810E-06,-0.720
6.820E-06,-0.820
6.830E-06,-0.840
6.840E-06,-0.820
6.850E-06,-0.720
6.860E-06,-0.560
6.870E-06,-0.420
6.880E-06,-0.240
6.890E-06,-0.140
6.900E-06,-0.060
6.910E-06,0.000
6.920E-06,0.040
6.930E-06,0.180
6.940E-06,0.260
6.950E-06,0.280
6.960E-06,0.340
6.970E-06,0.380
6.980E-06,0.420
6.990E-06,0.480
7.000E-06,0.520
7.010E-06,0.500
7.020E-06,0.480
7.030E-06,0.400
7.040E-06,0.340
7.050E-06,0.300
7.060E-06,0.240
7.070E-06,0.220
7.080E-06,0.220
7.090E-06,0.220
7.100E-06,0.220
7.110E-06,0.260
7.120E-06,0.300
7.130E-06,0.340
7.140E-06,0.380
7.150E-06,0.400
7.160E-06,0.420
7.170E-06,0.380
7.180E-06,0.380
7.190E-06,0.400
7.200E-06,0.420
7.210E-06,0.440
7.220E-06,0.400
7.230E-06,0.420
7.240E-06,0.400
7.250E-06,0.320
7.260E-06,0.260
7.270E-06,0.220
7.280E-06,0.200
7.290E-06,0.160
7.300E-06,0.140
7.310E-06,0.120
7.320E-06,0.080
7.330E-06,0.080
7.340E-06,0.000
7.350E-06,0.000
7.360E-06,0.000
7.370E-06,0.020
7.380E-06,0.000
7.390E-06,-0.040
7.400E-06,-0.020
7.410E-06,-0.020
7.420E-06,-0.040
7.430E-06,-0.020
7.440E-06,-0.040
7.450E-06,-0.120
7.460E-06,-0.120
7.470E-06,-0.140
7.480E-06,-0.140
7.490E-06,-0.100
7.500E-06,-0.080
7.510E-06,-0.060
7.520E-06,-0.040
7.530E-06,0.000
7.540E-06,0.000
7.550E-06,0.000
7.560E-06,0.020
7.570E-06,0.020
7.580E-06,0.020
7.590E-06,-0.020
7.600E-06,-0.040
7.610E-06,-0.080
7.620E-06,-0.100
7.630E-06,-0.120
7.640E-06,-0.120
7.650E-06,-0.120
7.660E-06,-0.100
7.670E-06,-0.140
7.680E-06,-0.100
7.690E-06,-0.100
7.700E-06,-0.100
7.710E-06,-0.080
7.720E-06,-0.060
7.730E-06,-0.020
7.740E-06,0.020
7.750E-06,0.120
7.760E-06,0.220
7.770E-06,0.340
7.780E-06,0.440
7.790E-06,0.560
7.800E-06,0.660
7.810E-06,0.780
7.820E-06,0.840
7.830E-06,0.880
7.840E-06,0.920
7.850E-06,0.940
7.860E-06,0.920
7.870E-06,0.920
7.880E-06,0.880
7.890E-06,0.860
7.900E-06,0.820
7.910E-06,0.760
7.920E-06,0.720
7.930E-06,0.680
7.940E-06,0.580
7.950E-06,0.540
7.960E-06,0.500
7.970E-06,0.500
7.980E-06,0.520
7.990E-06,0.520
8.000E-06,0.520
8.010E-06,0.540
8.020E-06,0.600
8.030E-06,0.620
8.040E-06,0.660
8.050E-06,0.660
8.060E-06,0.660
8.070E-06,0.700
8.080E-06,0.720
8.090E-06,0.720
8.100E-06,0.660
8.110E-06,0.580
8.120E-06,0.560
8.130E-06,0.600
8.140E-06,0.660
8.150E-06,0.700
8.160E-06,0.700
8.170E-06,0.660
8.180E-06,0.680
8.190E-06,0.660
8.200E-06,0.720
8.210E-06,0.760
8.220E-06,0.880
8.230E-06,0.940
8.240E-06,0.920
8.250E-06,0.960
8.260E-06,0.960
8.270E-06,0.920
8.280E-06,0.920
8.290E-06,1.020
8.300E-06,1.080
8.310E-06,1.120
8.320E-06,1.200
8.330E-06,1.300
8.340E-06,1.320
8.350E-06,1.340
8.360E-06,1.300
8.370E-06,1.280
8.380E-06,1.180
8.390E-06,1.160
8.400E-06,1.100
8.410E-06,1.060
8.420E-06,1.020
8.430E-06,1.000
8.440E-06,1.020
8.450E-06,1.080
8.460E-06,1.080
8.470E-06,1.100
8.480E-06,1.120
8.490E-06,1.160
8.500E-06,1.240
8.510E-06,1.260
8.520E-06,1.320
8.530E-06,1.400
8.540E-06,1.440
8.550E-06,1.460
8.560E-06,1.480
8.570E-06,1.480
8.580E-06,1.480
8.590E-06,1.460
8.600E-06,1.460
8.610E-06,1.480
8.620E-06,1.420
8.630E-06,1.420
8.640E-06,1.400
8.650E-06,1.340
8.660E-06,1.320
8.670E-06,1.280
8.680E-06,1.220
8.690E-06,1.180
8.700E-06,1.160
8.710E-06,1.140
8.720E-06,1.120
8.730E-06,1.140
8.740E-06,1.140
8.750E-06,1.200
8.760E-06,1.200
8.770E-06,1.240
8.780E-06,1.320
8.790E-06,1.420
8.800E-06,1.480
8.810E-06,1.520
8.820E-06,1.620
8.830E-06,1.660
8.840E-06,1.740
8.850E-06,1.780
8.860E-06,1.880
8.870E-06,1.860
8.880E-06,1.900
8.890E-06,1.920
8.900E-06,1.880
8.910E-06,1.860
8.920E-06,1.820
8.930E-06,1.780
8.940E-06,1.700
8.950E-06,1.700
8.960E-06,1.640
8.970E-06,1.600
8.980E-06,1.620
8.990E-06,1.620
9.000E-06,1.640
9.010E-06,1.680
9.020E-06,1.700
9.030E-06,1.740
9.040E-06,1.800
9.050E-06,1.860
9.060E-06,1.980
9.070E-06,2.100
9.080E-06,2.240
9.090E-06,2.460
9.100E-06,2.680
9.110E-06,2.760
9.120E-06,2.740
9.130E-06,2.760
9.140E-06,2.760
9.150E-06,2.780
9.160E-06,2.780
9.170E-06,2.760
9.180E-06,2.760
9.190E-06,2.740
9.200E-06,2.760
9.210E-06,2.780
9.220E-06,2.760
9.230E-06,2.760
9.240E-06,2.760
9.250E-06,2.780
9.260E-06,2.780
9.270E-06,2.760
9.280E-06,2.780
9.290E-06,2.760
9.300E-06,2.780
9.310E-06,2.780
9.320E-06,2.760
9.330E-06,2.780
9.340E-06,2.760
9.350E-06,2.760
9.360E-06,2.760
9.370E-06,2.760
9.380E-06,2.760
9.390E-06,2.780
9.400E-06,2.760
9.410E-06,2.760
9.420E-06,2.740
9.430E-06,2.760
9.440E-06,2.760
9.450E-06,2.760
9.460E-06,2.740
9.470E-06,2.760
9.480E-06,2.780
9.490E-06,2.780
9.500E-06,2.760
9.510E-06,2.760
9.520E-06,2.740
9.530E-06,2.760
9.540E-06,2.780
9.550E-06,2.760
9.560E-06,2.760
