mediciones/Mediciones filtradas (saque las feas)/6-3/-7.5/WaveData5377.csv

#timebase=2000000(ps)
,#voltbase=500000(mv/100)
#size=4000
-2.300E-06,-0.860
-2.290E-06,-0.860
-2.280E-06,-0.760
-2.270E-06,-0.700
-2.260E-06,-0.580
-2.250E-06,-0.460
-2.240E-06,-0.360
-2.230E-06,-0.300
-2.220E-06,-0.340
-2.210E-06,-0.400
-2.200E-06,-0.420
-2.190E-06,-0.420
-2.180E-06,-0.380
-2.170E-06,-0.320
-2.160E-06,-0.300
-2.150E-06,-0.300
-2.140E-06,-0.360
-2.130E-06,-0.300
-2.120E-06,-0.260
-2.110E-06,-0.240
-2.100E-06,-0.180
-2.090E-06,-0.160
-2.080E-06,-0.180
-2.070E-06,-0.340
-2.060E-06,-0.340
-2.050E-06,-0.460
-2.040E-06,-0.440
-2.030E-06,-0.500
-2.020E-06,-0.380
-2.010E-06,-0.360
-2.000E-06,-0.400
-1.990E-06,-0.380
-1.980E-06,-0.400
-1.970E-06,-0.400
-1.960E-06,-0.380
-1.950E-06,-0.400
-1.940E-06,-0.360
-1.930E-06,-0.400
-1.920E-06,-0.400
-1.910E-06,-0.400
-1.900E-06,-0.400
-1.890E-06,-0.280
-1.880E-06,-0.340
-1.870E-06,-0.420
-1.860E-06,-0.480
-1.850E-06,-0.500
-1.840E-06,-0.360
-1.830E-06,-0.360
-1.820E-06,-0.260
-1.810E-06,-0.260
-1.800E-06,-0.220
-1.790E-06,-0.140
-1.780E-06,-0.140
-1.770E-06,-0.020
-1.760E-06,-0.020
-1.750E-06,0.080
-1.740E-06,0.040
-1.730E-06,0.100
-1.720E-06,0.100
-1.710E-06,0.100
-1.700E-06,0.220
-1.690E-06,0.320
-1.680E-06,0.320
-1.670E-06,0.400
-1.660E-06,0.560
-1.650E-06,0.540
-1.640E-06,0.580
-1.630E-06,0.640
-1.620E-06,0.640
-1.610E-06,0.700
-1.600E-06,0.700
-1.590E-06,0.680
-1.580E-06,0.640
-1.570E-06,0.580
-1.560E-06,0.480
-1.550E-06,0.520
-1.540E-06,0.420
-1.530E-06,0.440
-1.520E-06,0.260
-1.510E-06,0.060
-1.500E-06,-0.100
-1.490E-06,-0.580
-1.480E-06,-0.640
-1.470E-06,-0.880
-1.460E-06,-0.740
-1.450E-06,-0.260
-1.440E-06,-0.100
-1.430E-06,0.120
-1.420E-06,0.080
-1.410E-06,0.000
-1.400E-06,0.000
-1.390E-06,0.080
-1.380E-06,0.360
-1.370E-06,0.540
-1.360E-06,0.920
-1.350E-06,0.440
-1.340E-06,0.200
-1.330E-06,-0.300
-1.320E-06,-1.280
-1.310E-06,-1.020
-1.300E-06,-1.280
-1.290E-06,-0.720
-1.280E-06,-0.580
-1.270E-06,0.180
-1.260E-06,-0.160
-1.250E-06,-0.420
-1.240E-06,-0.840
-1.230E-06,-1.120
-1.220E-06,-0.840
-1.210E-06,-1.480
-1.200E-06,-0.820
-1.190E-06,-1.140
-1.180E-06,-1.040
-1.170E-06,-1.260
-1.160E-06,-1.140
-1.150E-06,-1.260
-1.140E-06,-1.460
-1.130E-06,-1.560
-1.120E-06,-1.560
-1.110E-06,-1.620
-1.100E-06,-1.700
-1.090E-06,-1.780
-1.080E-06,-2.080
-1.070E-06,-2.380
-1.060E-06,-2.660
-1.050E-06,-2.640
-1.040E-06,-2.640
-1.030E-06,-2.660
-1.020E-06,-2.660
-1.010E-06,-2.660
-1.000E-06,-2.660
-9.900E-07,-2.660
-9.800E-07,-2.680
-9.700E-07,-2.680
-9.600E-07,-2.680
-9.500E-07,-2.680
-9.400E-07,-2.680
-9.300E-07,-2.660
-9.200E-07,-2.660
-9.100E-07,-2.640
-9.000E-07,-2.660
-8.900E-07,-2.660
-8.800E-07,-2.660
-8.700E-07,-2.660
-8.600E-07,-2.680
-8.500E-07,-2.680
-8.400E-07,-2.660
-8.300E-07,-2.660
-8.200E-07,-2.660
-8.100E-07,-2.660
-8.000E-07,-2.660
-7.900E-07,-2.660
-7.800E-07,-2.660
-7.700E-07,-2.660
-7.600E-07,-2.660
-7.500E-07,-2.640
-7.400E-07,-2.640
-7.300E-07,-2.640
-7.200E-07,-2.660
-7.100E-07,-2.660
-7.000E-07,-2.660
-6.900E-07,-2.660
-6.800E-07,-2.640
-6.700E-07,-2.640
-6.600E-07,-2.660
-6.500E-07,-2.660
-6.400E-07,-2.660
-6.300E-07,-2.660
-6.200E-07,-2.660
-6.100E-07,-2.660
-6.000E-07,-2.680
-5.900E-07,-2.680
-5.800E-07,-2.660
-5.700E-07,-2.660
-5.600E-07,-2.660
-5.500E-07,-2.660
-5.400E-07,-2.660
-5.300E-07,-2.640
-5.200E-07,-2.660
-5.100E-07,-2.660
-5.000E-07,-2.660
-4.900E-07,-2.660
-4.800E-07,-2.660
-4.700E-07,-2.640
-4.600E-07,-2.640
-4.500E-07,-2.660
-4.400E-07,-2.300
-4.300E-07,-2.380
-4.200E-07,-2.520
-4.100E-07,-2.260
-4.000E-07,-1.980
-3.900E-07,-1.800
-3.800E-07,-1.640
-3.700E-07,-1.400
-3.600E-07,-1.240
-3.500E-07,-1.560
-3.400E-07,-1.200
-3.300E-07,-0.980
-3.200E-07,-0.760
-3.100E-07,-0.600
-3.000E-07,-0.300
-2.900E-07,-0.340
-2.800E-07,-0.420
-2.700E-07,-0.180
-2.600E-07,-0.120
-2.500E-07,0.420
-2.400E-07,0.420
-2.300E-07,0.840
-2.200E-07,1.040
-2.100E-07,0.940
-2.000E-07,1.000
-1.900E-07,0.660
-1.800E-07,0.340
-1.700E-07,0.240
-1.600E-07,0.100
-1.500E-07,0.420
-1.400E-07,0.500
-1.300E-07,0.420
-1.200E-07,0.480
-1.100E-07,0.040
-1.000E-07,-0.060
-9.000E-08,-0.200
-8.000E-08,-0.380
-7.000E-08,-0.080
-6.000E-08,-0.340
-5.000E-08,-0.120
-4.000E-08,-0.240
-3.000E-08,-0.400
-2.000E-08,-0.500
-1.000E-08,-0.400
0.000E+00,0.080
1.000E-08,0.280
2.000E-08,0.820
3.000E-08,0.720
4.000E-08,0.580
5.000E-08,0.260
6.000E-08,0.160
7.000E-08,0.280
8.000E-08,0.400
9.000E-08,0.680
1.000E-07,0.820
1.100E-07,0.860
1.200E-07,0.660
1.300E-07,0.180
1.400E-07,0.260
1.500E-07,-0.520
1.600E-07,-0.780
1.700E-07,-0.380
1.800E-07,-0.600
1.900E-07,-0.420
2.000E-07,-0.420
2.100E-07,-0.200
2.200E-07,-0.280
2.300E-07,-0.500
2.400E-07,-0.640
2.500E-07,-0.860
2.600E-07,-0.680
2.700E-07,-0.540
2.800E-07,-0.320
2.900E-07,-0.200
3.000E-07,-0.240
3.100E-07,-0.240
3.200E-07,-0.220
3.300E-07,-0.140
3.400E-07,-0.120
3.500E-07,-0.180
3.600E-07,-0.200
3.700E-07,-0.280
3.800E-07,-0.300
3.900E-07,-0.540
4.000E-07,-0.700
4.100E-07,-1.200
4.200E-07,-1.760
4.300E-07,-2.000
4.400E-07,-2.560
4.500E-07,-2.660
4.600E-07,-2.660
4.700E-07,-2.660
4.800E-07,-2.660
4.900E-07,-2.660
5.000E-07,-2.660
5.100E-07,-2.660
5.200E-07,-2.660
5.300E-07,-2.660
5.400E-07,-2.660
5.500E-07,-2.680
5.600E-07,-2.660
5.700E-07,-2.660
5.800E-07,-2.660
5.900E-07,-2.680
6.000E-07,-2.660
6.100E-07,-2.660
6.200E-07,-2.640
6.300E-07,-2.660
6.400E-07,-2.660
6.500E-07,-2.680
6.600E-07,-2.680
6.700E-07,-2.660
6.800E-07,-2.660
6.900E-07,-2.660
7.000E-07,-2.680
7.100E-07,-2.680
7.200E-07,-2.660
7.300E-07,-2.660
7.400E-07,-2.640
7.500E-07,-2.640
7.600E-07,-2.640
7.700E-07,-2.660
7.800E-07,-2.660
7.900E-07,-2.660
8.000E-07,-2.660
8.100E-07,-2.660
8.200E-07,-2.660
8.300E-07,-2.660
8.400E-07,-2.660
8.500E-07,-2.660
8.600E-07,-2.660
8.700E-07,-2.660
8.800E-07,-2.680
8.900E-07,-2.660
9.000E-07,-2.660
9.100E-07,-2.660
9.200E-07,-2.660
9.300E-07,-2.660
9.400E-07,-2.660
9.500E-07,-2.640
9.600E-07,-2.660
9.700E-07,-2.660
9.800E-07,-2.660
9.900E-07,-2.660
1.000E-06,-2.660
1.010E-06,-2.660
1.020E-06,-2.660
1.030E-06,-2.660
1.040E-06,-2.660
1.050E-06,-2.660
1.060E-06,-2.660
1.070E-06,-2.660
1.080E-06,-2.660
1.090E-06,-2.660
1.100E-06,-2.660
1.110E-06,-2.660
1.120E-06,-2.640
1.130E-06,-2.640
1.140E-06,-2.660
1.150E-06,-2.660
1.160E-06,-2.680
1.170E-06,-2.660
1.180E-06,-2.660
1.190E-06,-2.640
1.200E-06,-2.640
1.210E-06,-2.640
1.220E-06,-2.660
1.230E-06,-2.660
1.240E-06,-2.620
1.250E-06,-2.040
1.260E-06,-1.660
1.270E-06,-1.160
1.280E-06,-0.720
1.290E-06,-0.380
1.300E-06,-0.160
1.310E-06,-0.080
1.320E-06,0.080
1.330E-06,0.080
1.340E-06,0.160
1.350E-06,0.080
1.360E-06,0.000
1.370E-06,-0.120
1.380E-06,-0.400
1.390E-06,-0.660
1.400E-06,-0.820
1.410E-06,-1.040
1.420E-06,-1.300
1.430E-06,-1.480
1.440E-06,-1.640
1.450E-06,-1.840
1.460E-06,-2.040
1.470E-06,-2.180
1.480E-06,-2.260
1.490E-06,-2.360
1.500E-06,-2.460
1.510E-06,-2.560
1.520E-06,-2.560
1.530E-06,-2.640
1.540E-06,-2.600
1.550E-06,-2.620
1.560E-06,-2.620
1.570E-06,-2.620
1.580E-06,-2.640
1.590E-06,-2.660
1.600E-06,-2.660
1.610E-06,-2.660
1.620E-06,-2.660
1.630E-06,-2.660
1.640E-06,-2.660
1.650E-06,-2.660
1.660E-06,-2.660
1.670E-06,-2.640
1.680E-06,-2.660
1.690E-06,-2.320
1.700E-06,-1.940
1.710E-06,-1.680
1.720E-06,-1.400
1.730E-06,-1.160
1.740E-06,-0.880
1.750E-06,-0.580
1.760E-06,-0.320
1.770E-06,-0.100
1.780E-06,0.080
1.790E-06,0.200
1.800E-06,0.320
1.810E-06,0.400
1.820E-06,0.360
1.830E-06,0.380
1.840E-06,0.300
1.850E-06,0.260
1.860E-06,0.180
1.870E-06,0.040
1.880E-06,-0.160
1.890E-06,-0.340
1.900E-06,-0.500
1.910E-06,-0.620
1.920E-06,-0.740
1.930E-06,-0.760
1.940E-06,-0.800
1.950E-06,-0.820
1.960E-06,-0.820
1.970E-06,-0.720
1.980E-06,-0.680
1.990E-06,-0.680
2.000E-06,-0.680
2.010E-06,-0.660
2.020E-06,-0.660
2.030E-06,-0.680
2.040E-06,-0.760
2.050E-06,-0.900
2.060E-06,-1.040
2.070E-06,-1.200
2.080E-06,-1.340
2.090E-06,-1.500
2.100E-06,-1.640
2.110E-06,-1.760
2.120E-06,-1.820
2.130E-06,-1.820
2.140E-06,-1.820
2.150E-06,-1.820
2.160E-06,-1.800
2.170E-06,-1.700
2.180E-06,-1.640
2.190E-06,-1.500
2.200E-06,-1.340
2.210E-06,-1.180
2.220E-06,-1.060
2.230E-06,-0.960
2.240E-06,-0.880
2.250E-06,-0.800
2.260E-06,-0.780
2.270E-06,-0.740
2.280E-06,-0.700
2.290E-06,-0.740
2.300E-06,-0.760
2.310E-06,-0.720
2.320E-06,-0.740
2.330E-06,-0.780
2.340E-06,-0.780
2.350E-06,-0.780
2.360E-06,-0.800
2.370E-06,-0.740
2.380E-06,-0.680
2.390E-06,-0.620
2.400E-06,-0.580
2.410E-06,-0.560
2.420E-06,-0.540
2.430E-06,-0.480
2.440E-06,-0.420
2.450E-06,-0.360
2.460E-06,-0.340
2.470E-06,-0.240
2.480E-06,-0.240
2.490E-06,-0.240
2.500E-06,-0.220
2.510E-06,-0.300
2.520E-06,-0.340
2.530E-06,-0.340
2.540E-06,-0.460
2.550E-06,-0.540
2.560E-06,-0.580
2.570E-06,-0.660
2.580E-06,-0.780
2.590E-06,-0.920
2.600E-06,-0.980
2.610E-06,-1.060
2.620E-06,-1.140
2.630E-06,-1.240
2.640E-06,-1.180
2.650E-06,-1.220
2.660E-06,-1.240
2.670E-06,-1.240
2.680E-06,-1.200
2.690E-06,-1.220
2.700E-06,-1.240
2.710E-06,-1.200
2.720E-06,-1.220
2.730E-06,-1.280
2.740E-06,-1.320
2.750E-06,-1.340
2.760E-06,-1.360
2.770E-06,-1.420
2.780E-06,-1.420
2.790E-06,-1.340
2.800E-06,-1.320
2.810E-06,-1.220
2.820E-06,-1.140
2.830E-06,-1.040
2.840E-06,-0.980
2.850E-06,-0.900
2.860E-06,-0.800
2.870E-06,-0.740
2.880E-06,-0.660
2.890E-06,-0.600
2.900E-06,-0.520
2.910E-06,-0.520
2.920E-06,-0.480
2.930E-06,-0.440
2.940E-06,-0.420
2.950E-06,-0.380
2.960E-06,-0.420
2.970E-06,-0.380
2.980E-06,-0.360
2.990E-06,-0.400
3.000E-06,-0.340
3.010E-06,-0.320
3.020E-06,-0.320
3.030E-06,-0.280
3.040E-06,-0.260
3.050E-06,-0.240
3.060E-06,-0.160
3.070E-06,-0.080
3.080E-06,-0.040
3.090E-06,0.060
3.100E-06,0.060
3.110E-06,0.120
3.120E-06,0.160
3.130E-06,0.140
3.140E-06,0.100
3.150E-06,0.100
3.160E-06,0.060
3.170E-06,0.080
3.180E-06,0.060
3.190E-06,0.060
3.200E-06,0.020
3.210E-06,0.000
3.220E-06,-0.080
3.230E-06,-0.140
3.240E-06,-0.220
3.250E-06,-0.260
3.260E-06,-0.360
3.270E-06,-0.480
3.280E-06,-0.620
3.290E-06,-0.680
3.300E-06,-0.740
3.310E-06,-0.800
3.320E-06,-0.840
3.330E-06,-0.860
3.340E-06,-0.880
3.350E-06,-0.940
3.360E-06,-0.960
3.370E-06,-0.920
3.380E-06,-0.940
3.390E-06,-0.960
3.400E-06,-0.900
3.410E-06,-0.880
3.420E-06,-0.880
3.430E-06,-0.840
3.440E-06,-0.760
3.450E-06,-0.720
3.460E-06,-0.680
3.470E-06,-0.660
3.480E-06,-0.660
3.490E-06,-0.580
3.500E-06,-0.560
3.510E-06,-0.560
3.520E-06,-0.520
3.530E-06,-0.480
3.540E-06,-0.440
3.550E-06,-0.380
3.560E-06,-0.340
3.570E-06,-0.280
3.580E-06,-0.200
3.590E-06,-0.140
3.600E-06,-0.100
3.610E-06,-0.060
3.620E-06,-0.020
3.630E-06,0.000
3.640E-06,0.000
3.650E-06,0.040
3.660E-06,-0.020
3.670E-06,-0.020
3.680E-06,-0.020
3.690E-06,-0.040
3.700E-06,-0.060
3.710E-06,-0.100
3.720E-06,-0.160
3.730E-06,-0.200
3.740E-06,-0.280
3.750E-06,-0.320
3.760E-06,-0.360
3.770E-06,-0.360
3.780E-06,-0.380
3.790E-06,-0.340
3.800E-06,-0.300
3.810E-06,-0.300
3.820E-06,-0.260
3.830E-06,-0.240
3.840E-06,-0.240
3.850E-06,-0.220
3.860E-06,-0.220
3.870E-06,-0.260
3.880E-06,-0.260
3.890E-06,-0.280
3.900E-06,-0.240
3.910E-06,-0.280
3.920E-06,-0.260
3.930E-06,-0.260
3.940E-06,-0.280
3.950E-06,-0.260
3.960E-06,-0.240
3.970E-06,-0.180
3.980E-06,-0.080
3.990E-06,-0.040
4.000E-06,0.040
4.010E-06,0.080
4.020E-06,0.180
4.030E-06,0.200
4.040E-06,0.200
4.050E-06,0.260
4.060E-06,0.280
4.070E-06,0.340
4.080E-06,0.440
4.090E-06,0.500
4.100E-06,0.580
4.110E-06,0.700
4.120E-06,0.780
4.130E-06,0.860
4.140E-06,0.860
4.150E-06,0.900
4.160E-06,0.900
4.170E-06,0.860
4.180E-06,0.800
4.190E-06,0.660
4.200E-06,0.580
4.210E-06,0.420
4.220E-06,0.320
4.230E-06,0.160
4.240E-06,0.060
4.250E-06,0.020
4.260E-06,-0.080
4.270E-06,-0.060
4.280E-06,0.000
4.290E-06,-0.020
4.300E-06,0.100
4.310E-06,0.200
4.320E-06,0.320
4.330E-06,0.440
4.340E-06,0.500
4.350E-06,0.560
4.360E-06,0.560
4.370E-06,0.540
4.380E-06,0.500
4.390E-06,0.480
4.400E-06,0.440
4.410E-06,0.360
4.420E-06,0.320
4.430E-06,0.300
4.440E-06,0.320
4.450E-06,0.360
4.460E-06,0.420
4.470E-06,0.500
4.480E-06,0.620
4.490E-06,0.740
4.500E-06,0.780
4.510E-06,0.820
4.520E-06,0.840
4.530E-06,0.860
4.540E-06,0.860
4.550E-06,0.840
4.560E-06,0.860
4.570E-06,0.900
4.580E-06,0.960
4.590E-06,1.000
4.600E-06,1.040
4.610E-06,1.160
4.620E-06,1.240
4.630E-06,1.340
4.640E-06,1.380
4.650E-06,1.420
4.660E-06,1.400
4.670E-06,1.380
4.680E-06,1.360
4.690E-06,1.320
4.700E-06,1.240
4.710E-06,1.160
4.720E-06,1.020
4.730E-06,1.000
4.740E-06,0.940
4.750E-06,0.920
4.760E-06,0.860
4.770E-06,0.840
4.780E-06,0.820
4.790E-06,0.720
4.800E-06,0.660
4.810E-06,0.600
4.820E-06,0.560
4.830E-06,0.540
4.840E-06,0.620
4.850E-06,0.660
4.860E-06,0.760
4.870E-06,0.860
4.880E-06,0.900
4.890E-06,0.920
4.900E-06,0.960
4.910E-06,1.000
4.920E-06,0.980
4.930E-06,0.960
4.940E-06,0.900
4.950E-06,0.860
4.960E-06,0.760
4.970E-06,0.700
4.980E-06,0.680
4.990E-06,0.680
5.000E-06,0.680
5.010E-06,0.740
5.020E-06,0.760
5.030E-06,0.800
5.040E-06,0.840
5.050E-06,0.860
5.060E-06,0.880
5.070E-06,0.880
5.080E-06,0.840
5.090E-06,0.840
5.100E-06,0.760
5.110E-06,0.760
5.120E-06,0.780
5.130E-06,0.720
5.140E-06,0.720
5.150E-06,0.680
5.160E-06,0.640
5.170E-06,0.640
5.180E-06,0.620
5.190E-06,0.660
5.200E-06,0.660
5.210E-06,0.660
5.220E-06,0.720
5.230E-06,0.720
5.240E-06,0.700
5.250E-06,0.680
5.260E-06,0.640
5.270E-06,0.580
5.280E-06,0.560
5.290E-06,0.520
5.300E-06,0.520
5.310E-06,0.500
5.320E-06,0.540
5.330E-06,0.520
5.340E-06,0.500
5.350E-06,0.500
5.360E-06,0.500
5.370E-06,0.520
5.380E-06,0.500
5.390E-06,0.560
5.400E-06,0.600
5.410E-06,0.660
5.420E-06,0.760
5.430E-06,0.820
5.440E-06,0.900
5.450E-06,0.960
5.460E-06,1.000
5.470E-06,1.020
5.480E-06,1.040
5.490E-06,1.060
5.500E-06,1.080
5.510E-06,1.120
5.520E-06,1.160
5.530E-06,1.240
5.540E-06,1.320
5.550E-06,1.380
5.560E-06,1.440
5.570E-06,1.540
5.580E-06,1.600
5.590E-06,1.660
5.600E-06,1.800
5.610E-06,1.880
5.620E-06,1.980
5.630E-06,2.020
5.640E-06,2.140
5.650E-06,2.180
5.660E-06,2.240
5.670E-06,2.220
5.680E-06,2.220
5.690E-06,2.140
5.700E-06,2.060
5.710E-06,1.940
5.720E-06,1.840
5.730E-06,1.720
5.740E-06,1.660
5.750E-06,1.640
5.760E-06,1.580
5.770E-06,1.640
5.780E-06,1.680
5.790E-06,1.720
5.800E-06,1.760
5.810E-06,1.820
5.820E-06,1.880
5.830E-06,1.920
5.840E-06,1.920
5.850E-06,1.940
5.860E-06,1.980
5.870E-06,2.000
5.880E-06,2.080
5.890E-06,2.200
5.900E-06,2.360
5.910E-06,2.580
5.920E-06,2.740
5.930E-06,2.760
5.940E-06,2.780
5.950E-06,2.760
5.960E-06,2.760
5.970E-06,2.740
5.980E-06,2.760
5.990E-06,2.780
6.000E-06,2.760
6.010E-06,2.780
6.020E-06,2.760
6.030E-06,2.780
6.040E-06,2.780
6.050E-06,2.760
6.060E-06,2.760
6.070E-06,2.780
6.080E-06,2.780
6.090E-06,2.760
6.100E-06,2.780
6.110E-06,2.760
6.120E-06,2.780
6.130E-06,2.760
6.140E-06,2.760
6.150E-06,2.740
6.160E-06,2.760
6.170E-06,2.780
6.180E-06,2.760
6.190E-06,2.760
6.200E-06,2.740
6.210E-06,2.760
6.220E-06,2.780
6.230E-06,2.760
6.240E-06,2.760
6.250E-06,2.780
6.260E-06,2.760
6.270E-06,-0.200
6.280E-06,-2.660
6.290E-06,-2.660
6.300E-06,-2.660
6.310E-06,-2.660
6.320E-06,-2.660
6.330E-06,-2.660
6.340E-06,-2.660
6.350E-06,-2.640
6.360E-06,-2.660
6.370E-06,-2.660
6.380E-06,-2.660
6.390E-06,-2.640
6.400E-06,-2.640
6.410E-06,-2.640
6.420E-06,-1.780
6.430E-06,-1.080
6.440E-06,-0.820
6.450E-06,-0.740
6.460E-06,-0.020
6.470E-06,0.960
6.480E-06,1.880
6.490E-06,2.440
6.500E-06,2.760
6.510E-06,2.740
6.520E-06,2.760
6.530E-06,2.780
6.540E-06,2.780
6.550E-06,2.760
6.560E-06,2.760
6.570E-06,2.340
6.580E-06,2.060
6.590E-06,1.860
6.600E-06,1.640
6.610E-06,1.460
6.620E-06,1.600
6.630E-06,1.820
6.640E-06,2.080
6.650E-06,2.200
6.660E-06,2.280
6.670E-06,2.340
6.680E-06,2.360
6.690E-06,2.380
6.700E-06,2.320
6.710E-06,2.160
6.720E-06,1.980
6.730E-06,1.820
6.740E-06,1.720
6.750E-06,1.660
6.760E-06,1.540
6.770E-06,1.420
6.780E-06,1.340
6.790E-06,1.340
6.800E-06,1.440
6.810E-06,1.520
6.820E-06,1.540
6.830E-06,1.540
6.840E-06,1.520
6.850E-06,1.540
6.860E-06,1.580
6.870E-06,1.500
6.880E-06,1.340
6.890E-06,1.200
6.900E-06,1.060
6.910E-06,1.020
6.920E-06,0.940
6.930E-06,0.820
6.940E-06,0.740
6.950E-06,0.680
6.960E-06,0.720
6.970E-06,0.780
6.980E-06,0.840
6.990E-06,0.780
7.000E-06,0.800
7.010E-06,0.820
7.020E-06,0.860
7.030E-06,0.840
7.040E-06,0.760
7.050E-06,0.740
7.060E-06,0.660
7.070E-06,0.660
7.080E-06,0.640
7.090E-06,0.600
7.100E-06,0.520
7.110E-06,0.520
7.120E-06,0.500
7.130E-06,0.520
7.140E-06,0.500
7.150E-06,0.440
7.160E-06,0.440
7.170E-06,0.380
7.180E-06,0.400
7.190E-06,0.380
7.200E-06,0.360
7.210E-06,0.340
7.220E-06,0.300
7.230E-06,0.300
7.240E-06,0.320
7.250E-06,0.260
7.260E-06,0.220
7.270E-06,0.160
7.280E-06,0.180
7.290E-06,0.180
7.300E-06,0.160
7.310E-06,0.160
7.320E-06,0.140
7.330E-06,0.180
7.340E-06,0.180
7.350E-06,0.220
7.360E-06,0.220
7.370E-06,0.180
7.380E-06,0.160
7.390E-06,0.140
7.400E-06,0.160
7.410E-06,0.100
7.420E-06,0.040
7.430E-06,0.000
7.440E-06,0.000
7.450E-06,-0.020
7.460E-06,0.000
7.470E-06,0.000
7.480E-06,-0.040
7.490E-06,-0.040
7.500E-06,-0.060
7.510E-06,-0.040
7.520E-06,-0.040
7.530E-06,-0.080
7.540E-06,-0.100
7.550E-06,-0.100
7.560E-06,-0.120
7.570E-06,-0.140
7.580E-06,-0.120
7.590E-06,-0.160
7.600E-06,-0.160
7.610E-06,-0.160
7.620E-06,-0.160
7.630E-06,-0.160
7.640E-06,-0.180
7.650E-06,-0.180
7.660E-06,-0.220
7.670E-06,-0.220
7.680E-06,-0.220
7.690E-06,-0.200
7.700E-06,-0.240
7.710E-06,-0.220
7.720E-06,-0.220
7.730E-06,-0.220
7.740E-06,-0.260
7.750E-06,-0.260
7.760E-06,-0.280
7.770E-06,-0.280
7.780E-06,-0.320
7.790E-06,-0.320
7.800E-06,-0.320
7.810E-06,-0.340
7.820E-06,-0.340
7.830E-06,-0.380
7.840E-06,-0.380
7.850E-06,-0.400
7.860E-06,-0.360
7.870E-06,-0.400
7.880E-06,-0.360
7.890E-06,-0.380
7.900E-06,-0.360
7.910E-06,-0.400
7.920E-06,-0.420
7.930E-06,-0.400
7.940E-06,-0.440
7.950E-06,-0.480
7.960E-06,-0.460
7.970E-06,-0.500
7.980E-06,-0.520
7.990E-06,-0.460
8.000E-06,-0.480
8.010E-06,-0.500
8.020E-06,-0.520
8.030E-06,-0.480
8.040E-06,-0.520
8.050E-06,-0.500
8.060E-06,-0.480
8.070E-06,-0.480
8.080E-06,-0.480
8.090E-06,-0.480
8.100E-06,-0.480
8.110E-06,-0.480
8.120E-06,-0.520
8.130E-06,-0.500
8.140E-06,-0.520
8.150E-06,-0.520
8.160E-06,-0.540
8.170E-06,-0.560
8.180E-06,-0.520
8.190E-06,-0.560
8.200E-06,-0.540
8.210E-06,-0.580
8.220E-06,-0.560
8.230E-06,-0.520
8.240E-06,-0.540
8.250E-06,-0.540
8.260E-06,-0.560
8.270E-06,-0.540
8.280E-06,-0.540
8.290E-06,-0.560
8.300E-06,-0.580
8.310E-06,-0.580
8.320E-06,-0.580
8.330E-06,-0.600
8.340E-06,-0.580
8.350E-06,-0.560
8.360E-06,-0.580
8.370E-06,-0.560
8.380E-06,-0.600
8.390E-06,-0.600
8.400E-06,-0.580
8.410E-06,-0.600
8.420E-06,-0.600
8.430E-06,-0.560
8.440E-06,-0.580
8.450E-06,-0.580
8.460E-06,-0.600
8.470E-06,-0.580
8.480E-06,-0.560
8.490E-06,-0.600
8.500E-06,-0.600
8.510E-06,-0.600
8.520E-06,-0.600
8.530E-06,-0.600
8.540E-06,-0.640
8.550E-06,-0.600
8.560E-06,-0.620
8.570E-06,-0.640
8.580E-06,-0.640
8.590E-06,-0.660
8.600E-06,-0.660
8.610E-06,-0.660
8.620E-06,-0.660
8.630E-06,-0.660
8.640E-06,-0.660
8.650E-06,-0.660
8.660E-06,-0.660
8.670E-06,-0.660
8.680E-06,-0.680
8.690E-06,-0.680
8.700E-06,-0.680
8.710E-06,-0.700
8.720E-06,-0.700
8.730E-06,-0.700
8.740E-06,-0.700
8.750E-06,-0.680
8.760E-06,-0.720
8.770E-06,-0.700
8.780E-06,-0.720
8.790E-06,-0.740
8.800E-06,-0.760
8.810E-06,-0.780
8.820E-06,-0.760
8.830E-06,-0.740
8.840E-06,-0.760
8.850E-06,-0.760
8.860E-06,-0.740
8.870E-06,-0.760
8.880E-06,-0.780
8.890E-06,-0.780
8.900E-06,-0.760
8.910E-06,-0.780
8.920E-06,-0.780
8.930E-06,-0.760
8.940E-06,-0.760
8.950E-06,-0.760
8.960E-06,-0.760
8.970E-06,-0.740
8.980E-06,-0.760
8.990E-06,-0.740
9.000E-06,-0.740
9.010E-06,-0.760
9.020E-06,-0.780
9.030E-06,-0.740
9.040E-06,-0.760
9.050E-06,-0.740
9.060E-06,-0.720
9.070E-06,-0.720
9.080E-06,-0.740
9.090E-06,-0.740
9.100E-06,-0.740
9.110E-06,-0.740
9.120E-06,-0.720
9.130E-06,-0.740
9.140E-06,-0.740
9.150E-06,-0.700
9.160E-06,-0.700
9.170E-06,-0.720
9.180E-06,-0.740
9.190E-06,-0.720
9.200E-06,-0.700
9.210E-06,-0.720
9.220E-06,-0.700
9.230E-06,-0.740
9.240E-06,-0.720
9.250E-06,-0.740
9.260E-06,-0.720
9.270E-06,-0.740
9.280E-06,-0.740
9.290E-06,-0.700
9.300E-06,-0.740
9.310E-06,-0.740
9.320E-06,-0.760
9.330E-06,-0.720
9.340E-06,-0.700
9.350E-06,-0.720
9.360E-06,-0.700
9.370E-06,-0.720
9.380E-06,-0.720
9.390E-06,-0.720
9.400E-06,-0.700
9.410E-06,-0.740
9.420E-06,-0.720
9.430E-06,-0.720
9.440E-06,-0.760
9.450E-06,-0.740
9.460E-06,-0.740
9.470E-06,-0.760
9.480E-06,-0.740
9.490E-06,-0.720
9.500E-06,-0.740
9.510E-06,-0.720
9.520E-06,-0.740
9.530E-06,-0.760
