mediciones/Mediciones filtradas (saque las feas)/6-3/-7.5/WaveData5379.csv

#timebase=2000000(ps)
,#voltbase=500000(mv/100)
#size=4000
-2.300E-06,0.360
-2.290E-06,0.320
-2.280E-06,0.300
-2.270E-06,0.240
-2.260E-06,0.180
-2.250E-06,0.260
-2.240E-06,0.340
-2.230E-06,0.420
-2.220E-06,0.420
-2.210E-06,0.360
-2.200E-06,0.320
-2.190E-06,0.220
-2.180E-06,0.260
-2.170E-06,0.340
-2.160E-06,0.320
-2.150E-06,0.320
-2.140E-06,0.280
-2.130E-06,0.260
-2.120E-06,0.260
-2.110E-06,0.320
-2.100E-06,0.380
-2.090E-06,0.260
-2.080E-06,0.300
-2.070E-06,0.240
-2.060E-06,0.300
-2.050E-06,0.200
-2.040E-06,0.240
-2.030E-06,0.140
-2.020E-06,0.180
-2.010E-06,0.160
-2.000E-06,0.000
-1.990E-06,0.060
-1.980E-06,-0.060
-1.970E-06,0.020
-1.960E-06,0.140
-1.950E-06,0.260
-1.940E-06,0.220
-1.930E-06,0.120
-1.920E-06,0.020
-1.910E-06,0.000
-1.900E-06,0.060
-1.890E-06,0.180
-1.880E-06,0.260
-1.870E-06,0.240
-1.860E-06,0.100
-1.850E-06,0.100
-1.840E-06,0.080
-1.830E-06,0.140
-1.820E-06,0.200
-1.810E-06,0.220
-1.800E-06,0.160
-1.790E-06,0.180
-1.780E-06,0.140
-1.770E-06,0.120
-1.760E-06,0.180
-1.750E-06,0.220
-1.740E-06,0.220
-1.730E-06,0.160
-1.720E-06,0.200
-1.710E-06,0.260
-1.700E-06,0.320
-1.690E-06,0.340
-1.680E-06,0.320
-1.670E-06,0.300
-1.660E-06,0.260
-1.650E-06,0.240
-1.640E-06,0.280
-1.630E-06,0.300
-1.620E-06,0.280
-1.610E-06,0.240
-1.600E-06,0.240
-1.590E-06,0.220
-1.580E-06,0.220
-1.570E-06,0.200
-1.560E-06,0.200
-1.550E-06,0.220
-1.540E-06,0.260
-1.530E-06,0.360
-1.520E-06,0.400
-1.510E-06,0.420
-1.500E-06,0.420
-1.490E-06,0.440
-1.480E-06,0.440
-1.470E-06,0.480
-1.460E-06,0.460
-1.450E-06,0.500
-1.440E-06,0.460
-1.430E-06,0.440
-1.420E-06,0.440
-1.410E-06,0.380
-1.400E-06,0.360
-1.390E-06,0.340
-1.380E-06,0.360
-1.370E-06,0.380
-1.360E-06,0.400
-1.350E-06,0.380
-1.340E-06,0.420
-1.330E-06,0.420
-1.320E-06,0.460
-1.310E-06,0.500
-1.300E-06,0.500
-1.290E-06,0.520
-1.280E-06,0.540
-1.270E-06,0.560
-1.260E-06,0.580
-1.250E-06,0.520
-1.240E-06,0.540
-1.230E-06,0.520
-1.220E-06,0.560
-1.210E-06,0.600
-1.200E-06,0.540
-1.190E-06,0.600
-1.180E-06,0.540
-1.170E-06,0.500
-1.160E-06,0.460
-1.150E-06,0.420
-1.140E-06,0.320
-1.130E-06,0.260
-1.120E-06,0.240
-1.110E-06,0.220
-1.100E-06,0.320
-1.090E-06,0.340
-1.080E-06,0.460
-1.070E-06,0.480
-1.060E-06,0.440
-1.050E-06,0.500
-1.040E-06,0.520
-1.030E-06,0.580
-1.020E-06,0.640
-1.010E-06,0.640
-1.000E-06,0.680
-9.900E-07,0.680
-9.800E-07,0.700
-9.700E-07,0.760
-9.600E-07,0.680
-9.500E-07,0.720
-9.400E-07,0.760
-9.300E-07,0.580
-9.200E-07,0.560
-9.100E-07,0.480
-9.000E-07,0.500
-8.900E-07,0.560
-8.800E-07,0.600
-8.700E-07,0.680
-8.600E-07,0.620
-8.500E-07,0.540
-8.400E-07,0.540
-8.300E-07,0.500
-8.200E-07,0.460
-8.100E-07,0.420
-8.000E-07,0.420
-7.900E-07,0.340
-7.800E-07,0.320
-7.700E-07,0.320
-7.600E-07,0.320
-7.500E-07,0.300
-7.400E-07,0.340
-7.300E-07,0.340
-7.200E-07,0.280
-7.100E-07,0.260
-7.000E-07,0.220
-6.900E-07,0.220
-6.800E-07,0.240
-6.700E-07,0.240
-6.600E-07,0.240
-6.500E-07,0.220
-6.400E-07,0.220
-6.300E-07,0.240
-6.200E-07,0.240
-6.100E-07,0.240
-6.000E-07,0.360
-5.900E-07,0.420
-5.800E-07,0.480
-5.700E-07,0.560
-5.600E-07,0.480
-5.500E-07,0.460
-5.400E-07,0.420
-5.300E-07,0.400
-5.200E-07,0.440
-5.100E-07,0.380
-5.000E-07,0.500
-4.900E-07,0.500
-4.800E-07,0.560
-4.700E-07,0.500
-4.600E-07,0.480
-4.500E-07,0.440
-4.400E-07,0.500
-4.300E-07,0.540
-4.200E-07,0.620
-4.100E-07,0.680
-4.000E-07,0.680
-3.900E-07,0.560
-3.800E-07,0.520
-3.700E-07,0.420
-3.600E-07,0.480
-3.500E-07,0.420
-3.400E-07,0.560
-3.300E-07,0.560
-3.200E-07,0.540
-3.100E-07,0.600
-3.000E-07,0.540
-2.900E-07,0.660
-2.800E-07,0.740
-2.700E-07,0.820
-2.600E-07,0.860
-2.500E-07,0.880
-2.400E-07,0.780
-2.300E-07,0.900
-2.200E-07,1.040
-2.100E-07,0.980
-2.000E-07,1.060
-1.900E-07,1.060
-1.800E-07,1.040
-1.700E-07,1.140
-1.600E-07,1.180
-1.500E-07,1.400
-1.400E-07,1.400
-1.300E-07,1.340
-1.200E-07,1.420
-1.100E-07,1.420
-1.000E-07,1.380
-9.000E-08,1.560
-8.000E-08,0.900
-7.000E-08,1.560
-6.000E-08,0.700
-5.000E-08,0.980
-4.000E-08,0.440
-3.000E-08,1.400
-2.000E-08,-0.440
-1.000E-08,1.200
0.000E+00,-0.020
1.000E-08,1.280
2.000E-08,-0.080
3.000E-08,0.940
4.000E-08,2.060
5.000E-08,0.240
6.000E-08,1.320
7.000E-08,-0.840
8.000E-08,2.000
9.000E-08,-0.380
1.000E-07,1.380
1.100E-07,0.820
1.200E-07,0.700
1.300E-07,0.240
1.400E-07,-0.500
1.500E-07,1.320
1.600E-07,1.160
1.700E-07,1.320
1.800E-07,1.320
1.900E-07,1.040
2.000E-07,0.320
2.100E-07,0.240
2.200E-07,0.220
2.300E-07,1.020
2.400E-07,0.520
2.500E-07,0.480
2.600E-07,0.400
2.700E-07,-0.040
2.800E-07,-0.440
2.900E-07,-0.120
3.000E-07,0.440
3.100E-07,0.540
3.200E-07,0.580
3.300E-07,0.460
3.400E-07,0.180
3.500E-07,-0.080
3.600E-07,-0.080
3.700E-07,0.500
3.800E-07,0.520
3.900E-07,0.360
4.000E-07,0.440
4.100E-07,-0.020
4.200E-07,0.300
4.300E-07,0.040
4.400E-07,0.260
4.500E-07,0.600
4.600E-07,0.360
4.700E-07,0.320
4.800E-07,0.320
4.900E-07,0.320
5.000E-07,0.420
5.100E-07,0.560
5.200E-07,0.580
5.300E-07,0.520
5.400E-07,0.360
5.500E-07,0.460
5.600E-07,0.560
5.700E-07,0.820
5.800E-07,0.980
5.900E-07,1.360
6.000E-07,1.480
6.100E-07,1.300
6.200E-07,1.160
6.300E-07,1.200
6.400E-07,1.000
6.500E-07,1.220
6.600E-07,1.300
6.700E-07,1.540
6.800E-07,1.540
6.900E-07,1.580
7.000E-07,1.360
7.100E-07,1.400
7.200E-07,1.420
7.300E-07,1.580
7.400E-07,1.400
7.500E-07,1.200
7.600E-07,1.020
7.700E-07,0.820
7.800E-07,0.920
7.900E-07,0.380
8.000E-07,0.460
8.100E-07,0.100
8.200E-07,0.280
8.300E-07,0.180
8.400E-07,0.320
8.500E-07,0.120
8.600E-07,0.020
8.700E-07,-0.040
8.800E-07,0.180
8.900E-07,0.340
9.000E-07,0.080
9.100E-07,-0.040
9.200E-07,-0.080
9.300E-07,0.000
9.400E-07,0.200
9.500E-07,0.440
9.600E-07,0.700
9.700E-07,0.800
9.800E-07,0.740
9.900E-07,0.740
1.000E-06,0.580
1.010E-06,0.460
1.020E-06,0.400
1.030E-06,0.560
1.040E-06,0.660
1.050E-06,0.760
1.060E-06,0.740
1.070E-06,0.800
1.080E-06,0.580
1.090E-06,0.560
1.100E-06,0.420
1.110E-06,0.400
1.120E-06,0.420
1.130E-06,0.380
1.140E-06,0.440
1.150E-06,0.260
1.160E-06,0.140
1.170E-06,-0.120
1.180E-06,-0.180
1.190E-06,-0.020
1.200E-06,0.080
1.210E-06,0.060
1.220E-06,0.060
1.230E-06,-0.020
1.240E-06,-0.140
1.250E-06,-0.180
1.260E-06,-0.100
1.270E-06,-0.060
1.280E-06,-0.060
1.290E-06,0.020
1.300E-06,0.020
1.310E-06,0.000
1.320E-06,0.000
1.330E-06,0.080
1.340E-06,0.080
1.350E-06,0.000
1.360E-06,0.000
1.370E-06,-0.100
1.380E-06,-0.060
1.390E-06,0.000
1.400E-06,0.000
1.410E-06,0.100
1.420E-06,-0.080
1.430E-06,-0.180
1.440E-06,-0.160
1.450E-06,-0.260
1.460E-06,-0.140
1.470E-06,-0.240
1.480E-06,-0.280
1.490E-06,-0.280
1.500E-06,-0.840
1.510E-06,-0.560
1.520E-06,-1.080
1.530E-06,-0.380
1.540E-06,-0.520
1.550E-06,-0.140
1.560E-06,0.300
1.570E-06,0.240
1.580E-06,0.340
1.590E-06,0.420
1.600E-06,0.560
1.610E-06,0.940
1.620E-06,1.060
1.630E-06,1.240
1.640E-06,1.020
1.650E-06,0.720
1.660E-06,0.260
1.670E-06,0.120
1.680E-06,0.420
1.690E-06,-0.220
1.700E-06,0.060
1.710E-06,-0.500
1.720E-06,-0.160
1.730E-06,-0.160
1.740E-06,0.020
1.750E-06,0.300
1.760E-06,0.300
1.770E-06,0.400
1.780E-06,0.320
1.790E-06,0.260
1.800E-06,0.460
1.810E-06,0.680
1.820E-06,0.820
1.830E-06,0.660
1.840E-06,0.640
1.850E-06,0.620
1.860E-06,0.560
1.870E-06,0.600
1.880E-06,0.420
1.890E-06,0.400
1.900E-06,0.120
1.910E-06,-0.040
1.920E-06,-0.320
1.930E-06,-0.580
1.940E-06,-0.560
1.950E-06,-0.580
1.960E-06,-0.520
1.970E-06,-0.280
1.980E-06,-0.500
1.990E-06,-0.420
2.000E-06,-0.640
2.010E-06,-0.840
2.020E-06,-0.820
2.030E-06,-1.540
2.040E-06,-1.520
2.050E-06,-1.960
2.060E-06,-1.500
2.070E-06,-1.000
2.080E-06,-0.740
2.090E-06,-0.140
2.100E-06,-0.120
2.110E-06,-0.240
2.120E-06,-0.160
2.130E-06,0.100
2.140E-06,0.400
2.150E-06,0.380
2.160E-06,0.200
2.170E-06,0.080
2.180E-06,-0.340
2.190E-06,-0.320
2.200E-06,-0.120
2.210E-06,0.120
2.220E-06,0.260
2.230E-06,0.140
2.240E-06,-0.060
2.250E-06,-0.280
2.260E-06,-0.380
2.270E-06,-0.180
2.280E-06,-0.160
2.290E-06,-0.080
2.300E-06,-0.140
2.310E-06,-0.140
2.320E-06,-0.080
2.330E-06,-0.060
2.340E-06,-0.040
2.350E-06,-0.020
2.360E-06,-0.020
2.370E-06,-0.080
2.380E-06,-0.180
2.390E-06,-0.220
2.400E-06,-0.300
2.410E-06,-0.440
2.420E-06,-0.640
2.430E-06,-0.680
2.440E-06,-1.000
2.450E-06,-0.980
2.460E-06,-1.520
2.470E-06,-1.520
2.480E-06,-1.760
2.490E-06,-1.960
2.500E-06,-1.260
2.510E-06,-1.120
2.520E-06,-0.680
2.530E-06,-0.920
2.540E-06,-0.960
2.550E-06,-1.180
2.560E-06,-1.340
2.570E-06,-1.260
2.580E-06,-0.920
2.590E-06,-0.780
2.600E-06,-0.800
2.610E-06,-0.820
2.620E-06,-0.900
2.630E-06,-0.840
2.640E-06,-0.760
2.650E-06,-0.460
2.660E-06,-0.220
2.670E-06,-0.160
2.680E-06,-0.220
2.690E-06,-0.420
2.700E-06,-0.600
2.710E-06,-0.580
2.720E-06,-0.540
2.730E-06,-0.400
2.740E-06,-0.140
2.750E-06,-0.020
2.760E-06,0.060
2.770E-06,0.060
2.780E-06,0.040
2.790E-06,-0.020
2.800E-06,0.020
2.810E-06,-0.040
2.820E-06,-0.160
2.830E-06,-0.460
2.840E-06,-0.520
2.850E-06,-0.680
2.860E-06,-0.720
2.870E-06,-0.920
2.880E-06,-1.340
2.890E-06,-1.520
2.900E-06,-1.780
2.910E-06,-2.140
2.920E-06,-2.320
2.930E-06,-2.540
2.940E-06,-2.660
2.950E-06,-2.660
2.960E-06,-2.640
2.970E-06,-2.280
2.980E-06,-2.040
2.990E-06,-2.060
3.000E-06,-2.080
3.010E-06,-2.080
3.020E-06,-2.020
3.030E-06,-1.660
3.040E-06,-1.260
3.050E-06,-1.100
3.060E-06,-1.080
3.070E-06,-1.180
3.080E-06,-1.560
3.090E-06,-1.860
3.100E-06,-2.220
3.110E-06,-2.360
3.120E-06,-2.380
3.130E-06,-2.200
3.140E-06,-1.840
3.150E-06,-1.300
3.160E-06,-0.960
3.170E-06,-0.560
3.180E-06,-0.520
3.190E-06,-0.600
3.200E-06,-0.640
3.210E-06,-1.000
3.220E-06,-0.820
3.230E-06,-1.040
3.240E-06,-0.900
3.250E-06,-0.840
3.260E-06,-0.720
3.270E-06,-0.860
3.280E-06,-1.060
3.290E-06,-1.640
3.300E-06,-1.540
3.310E-06,-1.900
3.320E-06,-2.060
3.330E-06,-2.280
3.340E-06,-2.660
3.350E-06,-2.660
3.360E-06,-2.660
3.370E-06,-2.660
3.380E-06,-2.660
3.390E-06,-2.660
3.400E-06,-2.660
3.410E-06,-2.660
3.420E-06,-2.660
3.430E-06,-2.660
3.440E-06,-2.560
3.450E-06,-2.440
3.460E-06,-2.440
3.470E-06,-2.660
3.480E-06,-2.660
3.490E-06,-2.660
3.500E-06,-2.680
3.510E-06,-2.660
3.520E-06,-2.660
3.530E-06,-2.640
3.540E-06,-2.640
3.550E-06,-2.640
3.560E-06,-2.660
3.570E-06,-2.660
3.580E-06,-2.660
3.590E-06,-2.660
3.600E-06,-2.660
3.610E-06,-2.660
3.620E-06,-2.660
3.630E-06,-2.660
3.640E-06,-2.640
3.650E-06,-2.660
3.660E-06,-2.660
3.670E-06,-2.680
3.680E-06,-2.680
3.690E-06,-2.680
3.700E-06,-2.680
3.710E-06,-2.680
3.720E-06,-2.680
3.730E-06,-2.660
3.740E-06,-2.660
3.750E-06,-2.660
3.760E-06,-2.660
3.770E-06,-2.660
3.780E-06,-2.660
3.790E-06,-2.660
3.800E-06,-2.660
3.810E-06,-2.660
3.820E-06,-2.660
3.830E-06,-2.640
3.840E-06,-2.660
3.850E-06,-2.660
3.860E-06,-2.660
3.870E-06,-2.660
3.880E-06,-2.660
3.890E-06,-2.660
3.900E-06,-2.660
3.910E-06,-2.680
3.920E-06,-2.660
3.930E-06,-2.660
3.940E-06,-2.660
3.950E-06,-2.660
3.960E-06,-2.360
3.970E-06,-2.660
3.980E-06,-2.200
3.990E-06,-2.280
4.000E-06,-1.320
4.010E-06,-1.180
4.020E-06,-0.600
4.030E-06,-0.260
4.040E-06,-0.560
4.050E-06,-0.660
4.060E-06,-0.960
4.070E-06,-0.840
4.080E-06,-1.660
4.090E-06,-2.540
4.100E-06,-2.660
4.110E-06,-2.600
4.120E-06,-2.060
4.130E-06,-1.160
4.140E-06,-0.600
4.150E-06,-0.480
4.160E-06,-2.240
4.170E-06,-2.640
4.180E-06,-2.660
4.190E-06,-2.380
4.200E-06,-1.700
4.210E-06,-1.280
4.220E-06,-0.740
4.230E-06,-1.240
4.240E-06,-1.040
4.250E-06,-0.840
4.260E-06,-0.560
4.270E-06,-0.940
4.280E-06,-1.080
4.290E-06,-0.840
4.300E-06,-0.740
4.310E-06,-0.860
4.320E-06,-1.020
4.330E-06,-1.280
4.340E-06,-1.700
4.350E-06,-2.000
4.360E-06,-1.980
4.370E-06,-1.980
4.380E-06,-2.360
4.390E-06,-2.500
4.400E-06,-2.580
4.410E-06,-2.500
4.420E-06,-2.660
4.430E-06,-2.560
4.440E-06,-2.580
4.450E-06,-2.660
4.460E-06,-2.660
4.470E-06,-2.580
4.480E-06,-2.300
4.490E-06,-2.160
4.500E-06,-1.980
4.510E-06,-1.720
4.520E-06,-1.440
4.530E-06,-1.420
4.540E-06,-1.120
4.550E-06,-1.020
4.560E-06,-0.960
4.570E-06,-1.020
4.580E-06,-0.800
4.590E-06,-0.760
4.600E-06,-0.840
4.610E-06,-0.900
4.620E-06,-0.920
4.630E-06,-0.860
4.640E-06,-1.020
4.650E-06,-1.080
4.660E-06,-1.000
4.670E-06,-1.420
4.680E-06,-1.520
4.690E-06,-1.660
4.700E-06,-1.900
4.710E-06,-2.400
4.720E-06,-2.600
4.730E-06,-2.680
4.740E-06,-2.680
4.750E-06,-2.660
4.760E-06,-2.660
4.770E-06,-2.660
4.780E-06,-2.660
4.790E-06,-2.460
4.800E-06,-1.960
4.810E-06,-1.540
4.820E-06,-1.620
4.830E-06,-1.700
4.840E-06,-1.760
4.850E-06,-1.740
4.860E-06,-1.320
4.870E-06,-0.820
4.880E-06,-0.340
4.890E-06,0.040
4.900E-06,0.220
4.910E-06,0.100
4.920E-06,0.020
4.930E-06,-0.080
4.940E-06,0.020
4.950E-06,0.100
4.960E-06,-0.020
4.970E-06,-0.240
4.980E-06,-0.780
4.990E-06,-1.180
5.000E-06,-1.680
5.010E-06,-1.820
5.020E-06,-1.760
5.030E-06,-1.580
5.040E-06,-1.400
5.050E-06,-1.240
5.060E-06,-1.440
5.070E-06,-1.820
5.080E-06,-2.140
5.090E-06,-2.260
5.100E-06,-2.180
5.110E-06,-1.880
5.120E-06,-1.680
5.130E-06,-1.520
5.140E-06,-1.660
5.150E-06,-1.800
5.160E-06,-1.740
5.170E-06,-1.700
5.180E-06,-1.360
5.190E-06,-1.180
5.200E-06,-0.880
5.210E-06,-0.660
5.220E-06,-0.960
5.230E-06,-1.400
5.240E-06,-1.720
5.250E-06,-1.860
5.260E-06,-2.560
5.270E-06,-2.660
5.280E-06,-2.660
5.290E-06,-2.660
5.300E-06,-2.600
5.310E-06,-0.960
5.320E-06,-0.700
5.330E-06,1.100
5.340E-06,-2.660
5.350E-06,-2.660
5.360E-06,-2.660
5.370E-06,-2.660
5.380E-06,-2.660
5.390E-06,-2.000
5.400E-06,0.200
5.410E-06,2.780
5.420E-06,-1.520
5.430E-06,1.260
5.440E-06,-2.660
5.450E-06,0.440
5.460E-06,0.160
5.470E-06,2.500
5.480E-06,2.740
5.490E-06,2.760
5.500E-06,2.780
5.510E-06,2.760
5.520E-06,2.600
5.530E-06,2.740
5.540E-06,2.260
5.550E-06,2.780
5.560E-06,2.460
5.570E-06,1.320
5.580E-06,0.660
5.590E-06,-1.180
5.600E-06,-2.080
5.610E-06,-2.640
5.620E-06,-2.660
5.630E-06,-2.660
5.640E-06,-2.680
5.650E-06,-2.680
5.660E-06,-2.660
5.670E-06,-2.660
5.680E-06,-2.660
5.690E-06,-2.660
5.700E-06,-2.640
5.710E-06,-2.640
5.720E-06,-2.660
5.730E-06,-2.280
5.740E-06,-1.920
5.750E-06,-1.740
5.760E-06,-1.520
5.770E-06,-1.120
5.780E-06,-0.740
5.790E-06,-0.540
5.800E-06,-0.400
5.810E-06,-0.500
5.820E-06,-0.940
5.830E-06,-1.180
5.840E-06,-1.140
5.850E-06,-1.240
5.860E-06,-1.480
5.870E-06,-1.780
5.880E-06,-2.040
5.890E-06,-2.200
5.900E-06,-2.320
5.910E-06,-2.180
5.920E-06,-1.800
5.930E-06,-1.380
5.940E-06,-0.820
5.950E-06,-0.420
5.960E-06,-0.180
5.970E-06,-0.240
5.980E-06,-0.320
5.990E-06,-0.280
6.000E-06,-0.200
6.010E-06,-0.200
6.020E-06,-0.420
6.030E-06,-0.720
6.040E-06,-1.020
6.050E-06,-1.280
6.060E-06,-1.280
6.070E-06,-1.540
6.080E-06,-1.760
6.090E-06,-1.520
6.100E-06,-1.240
6.110E-06,-0.840
6.120E-06,-0.720
6.130E-06,-0.940
6.140E-06,-1.340
6.150E-06,-1.920
6.160E-06,-2.180
6.170E-06,-2.640
6.180E-06,-2.440
6.190E-06,-2.660
6.200E-06,-2.660
6.210E-06,-2.660
6.220E-06,-2.660
6.230E-06,-2.680
6.240E-06,-2.680
6.250E-06,-2.680
6.260E-06,-2.680
6.270E-06,-2.060
6.280E-06,-0.940
6.290E-06,0.660
6.300E-06,1.020
6.310E-06,0.000
6.320E-06,1.880
6.330E-06,1.320
6.340E-06,2.600
6.350E-06,2.780
6.360E-06,2.760
6.370E-06,2.780
6.380E-06,1.180
6.390E-06,2.100
6.400E-06,0.620
6.410E-06,0.840
6.420E-06,-0.580
6.430E-06,-0.280
6.440E-06,-1.340
6.450E-06,-2.160
6.460E-06,-2.400
6.470E-06,-2.580
6.480E-06,-2.660
6.490E-06,-2.680
6.500E-06,-2.680
6.510E-06,-2.660
6.520E-06,-2.660
6.530E-06,-2.640
6.540E-06,-1.900
6.550E-06,-1.740
6.560E-06,-1.320
6.570E-06,-0.960
6.580E-06,-0.240
6.590E-06,0.160
6.600E-06,0.060
6.610E-06,-0.120
6.620E-06,-0.500
6.630E-06,-0.960
6.640E-06,-1.540
6.650E-06,-1.820
6.660E-06,-2.400
6.670E-06,-2.660
6.680E-06,-2.640
6.690E-06,-2.660
6.700E-06,-2.660
6.710E-06,-2.680
6.720E-06,-2.660
6.730E-06,-2.660
6.740E-06,-2.640
6.750E-06,-2.640
6.760E-06,-2.500
6.770E-06,-2.000
6.780E-06,-1.420
6.790E-06,-0.840
6.800E-06,-0.020
6.810E-06,0.560
6.820E-06,0.800
6.830E-06,0.900
6.840E-06,0.920
6.850E-06,0.780
6.860E-06,0.580
6.870E-06,0.360
6.880E-06,-0.020
6.890E-06,-0.560
6.900E-06,-1.040
6.910E-06,-1.480
6.920E-06,-1.900
6.930E-06,-2.400
6.940E-06,-2.640
6.950E-06,-2.640
6.960E-06,-2.660
6.970E-06,-2.660
6.980E-06,-2.660
6.990E-06,-2.660
7.000E-06,-2.660
7.010E-06,-2.660
7.020E-06,-2.680
7.030E-06,-2.660
7.040E-06,-2.480
7.050E-06,-2.040
7.060E-06,-1.600
7.070E-06,-1.380
7.080E-06,-1.460
7.090E-06,-1.780
7.100E-06,-1.760
7.110E-06,-2.020
7.120E-06,-1.840
7.130E-06,-1.960
7.140E-06,-2.120
7.150E-06,-2.340
7.160E-06,-2.580
7.170E-06,-2.560
7.180E-06,-2.660
7.190E-06,-2.660
7.200E-06,-2.660
7.210E-06,-2.660
7.220E-06,-2.660
7.230E-06,-2.660
7.240E-06,-2.660
7.250E-06,-2.660
7.260E-06,-2.660
7.270E-06,-2.660
7.280E-06,-2.660
7.290E-06,-2.620
7.300E-06,-2.400
7.310E-06,-2.240
7.320E-06,-2.040
7.330E-06,-1.940
7.340E-06,-1.860
7.350E-06,-1.860
7.360E-06,-1.880
7.370E-06,-1.980
7.380E-06,-2.060
7.390E-06,-2.220
7.400E-06,-2.320
7.410E-06,-2.400
7.420E-06,-2.460
7.430E-06,-2.580
7.440E-06,-2.660
7.450E-06,-2.680
7.460E-06,-2.680
7.470E-06,-2.680
7.480E-06,-2.680
7.490E-06,-2.660
7.500E-06,-2.660
7.510E-06,-2.660
7.520E-06,-2.660
7.530E-06,-2.660
7.540E-06,-2.660
7.550E-06,-2.680
7.560E-06,-2.680
7.570E-06,-2.680
7.580E-06,-2.680
7.590E-06,-2.540
7.600E-06,-2.460
7.610E-06,-2.360
7.620E-06,-2.280
7.630E-06,-2.160
7.640E-06,-2.100
7.650E-06,-2.040
7.660E-06,-2.020
7.670E-06,-2.000
7.680E-06,-1.940
7.690E-06,-1.900
7.700E-06,-1.860
7.710E-06,-1.860
7.720E-06,-1.820
7.730E-06,-1.900
7.740E-06,-2.020
7.750E-06,-2.140
7.760E-06,-2.180
7.770E-06,-2.200
7.780E-06,-2.220
7.790E-06,-2.160
7.800E-06,-2.100
7.810E-06,-2.020
7.820E-06,-1.960
7.830E-06,-1.820
7.840E-06,-1.760
7.850E-06,-1.600
7.860E-06,-1.480
7.870E-06,-1.320
7.880E-06,-1.200
7.890E-06,-1.040
7.900E-06,-0.940
7.910E-06,-0.820
7.920E-06,-0.720
7.930E-06,-0.700
7.940E-06,-0.680
7.950E-06,-0.740
7.960E-06,-0.780
7.970E-06,-0.900
7.980E-06,-1.080
7.990E-06,-1.280
8.000E-06,-1.500
8.010E-06,-1.700
8.020E-06,-1.860
8.030E-06,-2.040
8.040E-06,-2.220
8.050E-06,-2.340
8.060E-06,-2.360
8.070E-06,-2.400
8.080E-06,-2.440
8.090E-06,-2.360
8.100E-06,-2.300
8.110E-06,-2.220
8.120E-06,-2.160
8.130E-06,-2.020
8.140E-06,-1.960
8.150E-06,-1.800
8.160E-06,-1.660
8.170E-06,-1.500
8.180E-06,-1.380
8.190E-06,-1.300
8.200E-06,-1.200
8.210E-06,-1.160
8.220E-06,-1.100
8.230E-06,-1.120
8.240E-06,-1.140
8.250E-06,-1.120
8.260E-06,-1.160
8.270E-06,-1.200
8.280E-06,-1.220
8.290E-06,-1.260
8.300E-06,-1.320
8.310E-06,-1.340
8.320E-06,-1.340
8.330E-06,-1.340
8.340E-06,-1.340
8.350E-06,-1.360
8.360E-06,-1.320
8.370E-06,-1.300
8.380E-06,-1.260
8.390E-06,-1.220
8.400E-06,-1.180
8.410E-06,-1.160
8.420E-06,-1.160
8.430E-06,-1.120
8.440E-06,-1.060
8.450E-06,-1.040
8.460E-06,-1.020
8.470E-06,-1.000
8.480E-06,-1.000
8.490E-06,-1.060
8.500E-06,-1.120
8.510E-06,-1.180
8.520E-06,-1.260
8.530E-06,-1.320
8.540E-06,-1.340
8.550E-06,-1.400
8.560E-06,-1.420
8.570E-06,-1.460
8.580E-06,-1.420
8.590E-06,-1.400
8.600E-06,-1.360
8.610E-06,-1.360
8.620E-06,-1.280
8.630E-06,-1.240
8.640E-06,-1.180
8.650E-06,-1.060
8.660E-06,-1.000
8.670E-06,-0.860
8.680E-06,-0.760
8.690E-06,-0.620
8.700E-06,-0.560
8.710E-06,-0.560
8.720E-06,-0.580
8.730E-06,-0.580
8.740E-06,-0.580
8.750E-06,-0.560
8.760E-06,-0.580
8.770E-06,-0.600
8.780E-06,-0.700
8.790E-06,-0.760
8.800E-06,-0.780
8.810E-06,-0.840
8.820E-06,-0.900
8.830E-06,-0.900
8.840E-06,-0.920
8.850E-06,-0.940
8.860E-06,-1.040
8.870E-06,-1.000
8.880E-06,-1.000
8.890E-06,-1.020
8.900E-06,-1.000
8.910E-06,-0.980
8.920E-06,-1.020
8.930E-06,-1.020
8.940E-06,-1.040
8.950E-06,-1.060
8.960E-06,-1.080
8.970E-06,-1.080
8.980E-06,-1.040
8.990E-06,-1.020
9.000E-06,-1.020
9.010E-06,-1.020
9.020E-06,-1.020
9.030E-06,-1.020
9.040E-06,-1.120
9.050E-06,-1.180
9.060E-06,-1.240
9.070E-06,-1.300
9.080E-06,-1.380
9.090E-06,-1.420
9.100E-06,-1.400
9.110E-06,-1.360
9.120E-06,-1.320
9.130E-06,-1.180
9.140E-06,-1.020
9.150E-06,-0.840
9.160E-06,-0.680
9.170E-06,-0.420
9.180E-06,-0.240
9.190E-06,-0.100
9.200E-06,0.080
9.210E-06,0.220
9.220E-06,0.340
9.230E-06,0.480
9.240E-06,0.500
9.250E-06,0.560
9.260E-06,0.600
9.270E-06,0.580
9.280E-06,0.560
9.290E-06,0.520
9.300E-06,0.460
9.310E-06,0.460
9.320E-06,0.420
9.330E-06,0.400
9.340E-06,0.380
9.350E-06,0.400
9.360E-06,0.380
9.370E-06,0.400
9.380E-06,0.340
9.390E-06,0.320
9.400E-06,0.240
9.410E-06,0.180
9.420E-06,0.040
9.430E-06,-0.060
9.440E-06,-0.100
9.450E-06,-0.140
9.460E-06,-0.160
9.470E-06,-0.160
9.480E-06,-0.160
9.490E-06,-0.140
9.500E-06,-0.080
9.510E-06,0.000
9.520E-06,0.000
9.530E-06,0.100
9.540E-06,0.120
9.550E-06,0.160
