mediciones/Mediciones filtradas (saque las feas)/6-3/-7.5/WaveData5367.csv

#timebase=2000000(ps)
,#voltbase=500000(mv/100)
#size=4000
-2.300E-06,0.320
-2.290E-06,0.240
-2.280E-06,0.320
-2.270E-06,0.280
-2.260E-06,0.240
-2.250E-06,0.260
-2.240E-06,0.240
-2.230E-06,0.120
-2.220E-06,0.140
-2.210E-06,0.080
-2.200E-06,-0.740
-2.190E-06,-0.560
-2.180E-06,-0.620
-2.170E-06,-0.880
-2.160E-06,-0.540
-2.150E-06,-0.940
-2.140E-06,-0.500
-2.130E-06,-0.400
-2.120E-06,0.120
-2.110E-06,-0.400
-2.100E-06,0.100
-2.090E-06,-0.440
-2.080E-06,-0.300
-2.070E-06,0.320
-2.060E-06,-0.080
-2.050E-06,0.340
-2.040E-06,-0.220
-2.030E-06,-0.400
-2.020E-06,-0.360
-2.010E-06,0.300
-2.000E-06,0.440
-1.990E-06,1.460
-1.980E-06,1.220
-1.970E-06,0.900
-1.960E-06,0.740
-1.950E-06,0.000
-1.940E-06,0.340
-1.930E-06,0.400
-1.920E-06,0.420
-1.910E-06,0.380
-1.900E-06,-0.100
-1.890E-06,-0.380
-1.880E-06,-0.420
-1.870E-06,-0.360
-1.860E-06,0.000
-1.850E-06,0.120
-1.840E-06,0.320
-1.830E-06,0.360
-1.820E-06,0.360
-1.810E-06,0.180
-1.800E-06,0.080
-1.790E-06,0.080
-1.780E-06,0.080
-1.770E-06,0.340
-1.760E-06,0.580
-1.750E-06,0.680
-1.740E-06,0.600
-1.730E-06,0.420
-1.720E-06,0.400
-1.710E-06,0.340
-1.700E-06,0.440
-1.690E-06,0.540
-1.680E-06,0.720
-1.670E-06,0.660
-1.660E-06,0.460
-1.650E-06,0.340
-1.640E-06,0.100
-1.630E-06,0.060
-1.620E-06,0.000
-1.610E-06,0.220
-1.600E-06,0.420
-1.590E-06,0.300
-1.580E-06,0.300
-1.570E-06,0.200
-1.560E-06,0.160
-1.550E-06,0.080
-1.540E-06,0.060
-1.530E-06,0.000
-1.520E-06,-0.080
-1.510E-06,-0.200
-1.500E-06,-0.160
-1.490E-06,-0.120
-1.480E-06,-0.280
-1.470E-06,-0.380
-1.460E-06,-0.500
-1.450E-06,-0.520
-1.440E-06,-0.580
-1.430E-06,-0.520
-1.420E-06,-0.500
-1.410E-06,-0.540
-1.400E-06,-0.580
-1.390E-06,-0.600
-1.380E-06,-0.500
-1.370E-06,-0.340
-1.360E-06,-0.500
-1.350E-06,-0.700
-1.340E-06,-0.500
-1.330E-06,-0.480
-1.320E-06,-0.520
-1.310E-06,-0.180
-1.300E-06,-0.080
-1.290E-06,-0.480
-1.280E-06,-0.560
-1.270E-06,-0.700
-1.260E-06,-0.380
-1.250E-06,-0.200
-1.240E-06,-0.020
-1.230E-06,-0.220
-1.220E-06,-0.140
-1.210E-06,-0.580
-1.200E-06,-0.880
-1.190E-06,-0.700
-1.180E-06,-1.080
-1.170E-06,-0.960
-1.160E-06,-1.320
-1.150E-06,-1.000
-1.140E-06,-0.980
-1.130E-06,-1.360
-1.120E-06,-0.680
-1.110E-06,-0.500
-1.100E-06,-0.320
-1.090E-06,0.000
-1.080E-06,0.120
-1.070E-06,0.040
-1.060E-06,0.060
-1.050E-06,0.220
-1.040E-06,0.960
-1.030E-06,0.880
-1.020E-06,0.880
-1.010E-06,0.900
-1.000E-06,1.020
-9.900E-07,0.980
-9.800E-07,1.180
-9.700E-07,1.440
-9.600E-07,1.120
-9.500E-07,0.860
-9.400E-07,0.600
-9.300E-07,0.800
-9.200E-07,0.600
-9.100E-07,0.520
-9.000E-07,0.580
-8.900E-07,0.400
-8.800E-07,0.140
-8.700E-07,-0.320
-8.600E-07,-0.020
-8.500E-07,-0.340
-8.400E-07,-0.220
-8.300E-07,-0.320
-8.200E-07,-0.260
-8.100E-07,-0.240
-8.000E-07,-0.400
-7.900E-07,-0.260
-7.800E-07,-0.600
-7.700E-07,-0.660
-7.600E-07,-0.840
-7.500E-07,-0.700
-7.400E-07,-0.540
-7.300E-07,-0.580
-7.200E-07,-0.360
-7.100E-07,-0.400
-7.000E-07,-0.500
-6.900E-07,-0.480
-6.800E-07,-0.420
-6.700E-07,-0.380
-6.600E-07,-0.420
-6.500E-07,-0.340
-6.400E-07,-0.360
-6.300E-07,-0.380
-6.200E-07,-0.540
-6.100E-07,-0.660
-6.000E-07,-0.720
-5.900E-07,-0.820
-5.800E-07,-0.900
-5.700E-07,-0.980
-5.600E-07,-1.120
-5.500E-07,-1.360
-5.400E-07,-1.360
-5.300E-07,-1.400
-5.200E-07,-1.540
-5.100E-07,-1.500
-5.000E-07,-1.740
-4.900E-07,-1.820
-4.800E-07,-1.940
-4.700E-07,-2.160
-4.600E-07,-2.340
-4.500E-07,-2.520
-4.400E-07,-2.620
-4.300E-07,-2.660
-4.200E-07,-2.660
-4.100E-07,-2.660
-4.000E-07,-2.640
-3.900E-07,-2.660
-3.800E-07,-2.660
-3.700E-07,-2.660
-3.600E-07,-2.660
-3.500E-07,-2.660
-3.400E-07,-2.660
-3.300E-07,-2.640
-3.200E-07,-2.660
-3.100E-07,-2.660
-3.000E-07,-2.660
-2.900E-07,-2.660
-2.800E-07,-2.660
-2.700E-07,-2.660
-2.600E-07,-2.660
-2.500E-07,-2.660
-2.400E-07,-2.680
-2.300E-07,-2.660
-2.200E-07,-2.660
-2.100E-07,-2.660
-2.000E-07,-2.660
-1.900E-07,-2.660
-1.800E-07,-2.660
-1.700E-07,-2.660
-1.600E-07,-2.660
-1.500E-07,-2.640
-1.400E-07,-2.660
-1.300E-07,-2.660
-1.200E-07,-2.660
-1.100E-07,-2.660
-1.000E-07,-2.660
-9.000E-08,-2.660
-8.000E-08,-2.660
-7.000E-08,-2.660
-6.000E-08,-2.660
-5.000E-08,-2.660
-4.000E-08,-2.660
-3.000E-08,-2.660
-2.000E-08,-2.660
-1.000E-08,-2.660
0.000E+00,-2.660
1.000E-08,-2.660
2.000E-08,-2.660
3.000E-08,-2.660
4.000E-08,-1.700
5.000E-08,-2.680
6.000E-08,-2.400
7.000E-08,-2.660
8.000E-08,-2.640
9.000E-08,-2.640
1.000E-07,-2.640
1.100E-07,-2.660
1.200E-07,-2.660
1.300E-07,-2.660
1.400E-07,-2.660
1.500E-07,-2.660
1.600E-07,-2.540
1.700E-07,-1.680
1.800E-07,-1.600
1.900E-07,-0.780
2.000E-07,-0.680
2.100E-07,0.080
2.200E-07,-0.120
2.300E-07,0.080
2.400E-07,-0.500
2.500E-07,-0.720
2.600E-07,-1.420
2.700E-07,-1.680
2.800E-07,-2.080
2.900E-07,-2.420
3.000E-07,-2.660
3.100E-07,-2.640
3.200E-07,-2.640
3.300E-07,-2.640
3.400E-07,-2.660
3.500E-07,-2.660
3.600E-07,-2.660
3.700E-07,-2.660
3.800E-07,-2.660
3.900E-07,-2.660
4.000E-07,-2.660
4.100E-07,-2.660
4.200E-07,-2.660
4.300E-07,-2.680
4.400E-07,-2.680
4.500E-07,-2.680
4.600E-07,-2.680
4.700E-07,-2.680
4.800E-07,-2.680
4.900E-07,-2.680
5.000E-07,-2.680
5.100E-07,-2.660
5.200E-07,-2.660
5.300E-07,-2.500
5.400E-07,-2.280
5.500E-07,-2.120
5.600E-07,-2.120
5.700E-07,-2.020
5.800E-07,-2.060
5.900E-07,-2.120
6.000E-07,-2.180
6.100E-07,-2.200
6.200E-07,-2.260
6.300E-07,-2.320
6.400E-07,-2.440
6.500E-07,-2.540
6.600E-07,-2.660
6.700E-07,-2.660
6.800E-07,-2.640
6.900E-07,-2.640
7.000E-07,-2.660
7.100E-07,-2.660
7.200E-07,-2.660
7.300E-07,-2.660
7.400E-07,-2.600
7.500E-07,-2.440
7.600E-07,-2.240
7.700E-07,-1.980
7.800E-07,-1.680
7.900E-07,-1.400
8.000E-07,-1.100
8.100E-07,-0.880
8.200E-07,-0.620
8.300E-07,-0.380
8.400E-07,-0.260
8.500E-07,-0.200
8.600E-07,-0.280
8.700E-07,-0.400
8.800E-07,-0.660
8.900E-07,-0.960
9.000E-07,-1.260
9.100E-07,-1.580
9.200E-07,-1.820
9.300E-07,-2.120
9.400E-07,-2.300
9.500E-07,-2.460
9.600E-07,-2.600
9.700E-07,-2.660
9.800E-07,-2.680
9.900E-07,-2.580
1.000E-06,-2.440
1.010E-06,-2.260
1.020E-06,-2.040
1.030E-06,-1.840
1.040E-06,-1.620
1.050E-06,-1.420
1.060E-06,-1.240
1.070E-06,-1.040
1.080E-06,-0.880
1.090E-06,-0.720
1.100E-06,-0.600
1.110E-06,-0.540
1.120E-06,-0.500
1.130E-06,-0.500
1.140E-06,-0.520
1.150E-06,-0.560
1.160E-06,-0.600
1.170E-06,-0.660
1.180E-06,-0.720
1.190E-06,-0.800
1.200E-06,-0.920
1.210E-06,-1.000
1.220E-06,-1.040
1.230E-06,-1.120
1.240E-06,-1.140
1.250E-06,-1.160
1.260E-06,-1.160
1.270E-06,-1.080
1.280E-06,-1.020
1.290E-06,-0.900
1.300E-06,-0.780
1.310E-06,-0.680
1.320E-06,-0.520
1.330E-06,-0.420
1.340E-06,-0.320
1.350E-06,-0.240
1.360E-06,-0.180
1.370E-06,-0.140
1.380E-06,-0.180
1.390E-06,-0.240
1.400E-06,-0.300
1.410E-06,-0.360
1.420E-06,-0.440
1.430E-06,-0.520
1.440E-06,-0.600
1.450E-06,-0.620
1.460E-06,-0.660
1.470E-06,-0.680
1.480E-06,-0.700
1.490E-06,-0.680
1.500E-06,-0.640
1.510E-06,-0.560
1.520E-06,-0.500
1.530E-06,-0.400
1.540E-06,-0.340
1.550E-06,-0.260
1.560E-06,-0.200
1.570E-06,-0.180
1.580E-06,-0.240
1.590E-06,-0.340
1.600E-06,-0.400
1.610E-06,-0.520
1.620E-06,-0.640
1.630E-06,-0.760
1.640E-06,-0.900
1.650E-06,-1.060
1.660E-06,-1.240
1.670E-06,-1.300
1.680E-06,-1.420
1.690E-06,-1.500
1.700E-06,-1.520
1.710E-06,-1.580
1.720E-06,-1.600
1.730E-06,-1.580
1.740E-06,-1.580
1.750E-06,-1.620
1.760E-06,-1.600
1.770E-06,-1.600
1.780E-06,-1.620
1.790E-06,-1.560
1.800E-06,-1.540
1.810E-06,-1.480
1.820E-06,-1.380
1.830E-06,-1.280
1.840E-06,-1.180
1.850E-06,-1.080
1.860E-06,-1.020
1.870E-06,-0.920
1.880E-06,-0.840
1.890E-06,-0.720
1.900E-06,-0.720
1.910E-06,-0.700
1.920E-06,-0.760
1.930E-06,-0.900
1.940E-06,-1.100
1.950E-06,-1.180
1.960E-06,-1.220
1.970E-06,-1.140
1.980E-06,-0.940
1.990E-06,-0.620
2.000E-06,-0.300
2.010E-06,-0.040
2.020E-06,0.120
2.030E-06,0.180
2.040E-06,0.120
2.050E-06,0.100
2.060E-06,0.060
2.070E-06,0.060
2.080E-06,0.000
2.090E-06,-0.120
2.100E-06,-0.260
2.110E-06,-0.360
2.120E-06,-0.560
2.130E-06,-0.660
2.140E-06,-0.820
2.150E-06,-0.880
2.160E-06,-0.980
2.170E-06,-1.020
2.180E-06,-1.160
2.190E-06,-1.220
2.200E-06,-1.320
2.210E-06,-1.360
2.220E-06,-1.420
2.230E-06,-1.460
2.240E-06,-1.380
2.250E-06,-1.320
2.260E-06,-1.260
2.270E-06,-1.160
2.280E-06,-1.040
2.290E-06,-0.920
2.300E-06,-0.800
2.310E-06,-0.660
2.320E-06,-0.520
2.330E-06,-0.420
2.340E-06,-0.320
2.350E-06,-0.280
2.360E-06,-0.260
2.370E-06,-0.260
2.380E-06,-0.280
2.390E-06,-0.280
2.400E-06,-0.260
2.410E-06,-0.280
2.420E-06,-0.260
2.430E-06,-0.220
2.440E-06,-0.180
2.450E-06,-0.120
2.460E-06,-0.080
2.470E-06,0.040
2.480E-06,0.120
2.490E-06,0.260
2.500E-06,0.400
2.510E-06,0.520
2.520E-06,0.640
2.530E-06,0.780
2.540E-06,0.800
2.550E-06,0.860
2.560E-06,0.840
2.570E-06,0.840
2.580E-06,0.800
2.590E-06,0.760
2.600E-06,0.700
2.610E-06,0.660
2.620E-06,0.560
2.630E-06,0.500
2.640E-06,0.460
2.650E-06,0.400
2.660E-06,0.360
2.670E-06,0.340
2.680E-06,0.300
2.690E-06,0.260
2.700E-06,0.320
2.710E-06,0.300
2.720E-06,0.260
2.730E-06,0.300
2.740E-06,0.300
2.750E-06,0.320
2.760E-06,0.340
2.770E-06,0.340
2.780E-06,0.340
2.790E-06,0.340
2.800E-06,0.380
2.810E-06,0.360
2.820E-06,0.360
2.830E-06,0.320
2.840E-06,0.280
2.850E-06,0.200
2.860E-06,0.160
2.870E-06,0.080
2.880E-06,0.020
2.890E-06,-0.040
2.900E-06,-0.120
2.910E-06,-0.200
2.920E-06,-0.280
2.930E-06,-0.400
2.940E-06,-0.460
2.950E-06,-0.560
2.960E-06,-0.580
2.970E-06,-0.600
2.980E-06,-0.600
2.990E-06,-0.660
3.000E-06,-0.680
3.010E-06,-0.700
3.020E-06,-0.740
3.030E-06,-0.760
3.040E-06,-0.760
3.050E-06,-0.760
3.060E-06,-0.740
3.070E-06,-0.680
3.080E-06,-0.620
3.090E-06,-0.580
3.100E-06,-0.560
3.110E-06,-0.500
3.120E-06,-0.400
3.130E-06,-0.400
3.140E-06,-0.340
3.150E-06,-0.300
3.160E-06,-0.240
3.170E-06,-0.200
3.180E-06,-0.200
3.190E-06,-0.200
3.200E-06,-0.180
3.210E-06,-0.140
3.220E-06,-0.060
3.230E-06,0.000
3.240E-06,0.100
3.250E-06,0.180
3.260E-06,0.200
3.270E-06,0.280
3.280E-06,0.340
3.290E-06,0.440
3.300E-06,0.560
3.310E-06,0.720
3.320E-06,0.820
3.330E-06,0.920
3.340E-06,1.000
3.350E-06,1.040
3.360E-06,1.080
3.370E-06,1.080
3.380E-06,1.120
3.390E-06,1.240
3.400E-06,1.420
3.410E-06,1.500
3.420E-06,1.500
3.430E-06,1.440
3.440E-06,1.200
3.450E-06,0.940
3.460E-06,0.680
3.470E-06,0.380
3.480E-06,0.260
3.490E-06,0.180
3.500E-06,0.240
3.510E-06,0.420
3.520E-06,0.660
3.530E-06,0.940
3.540E-06,1.240
3.550E-06,1.440
3.560E-06,1.600
3.570E-06,1.640
3.580E-06,1.580
3.590E-06,1.380
3.600E-06,1.180
3.610E-06,0.980
3.620E-06,0.760
3.630E-06,0.600
3.640E-06,0.540
3.650E-06,0.560
3.660E-06,0.640
3.670E-06,0.720
3.680E-06,0.780
3.690E-06,0.860
3.700E-06,0.860
3.710E-06,0.760
3.720E-06,0.720
3.730E-06,0.540
3.740E-06,0.440
3.750E-06,0.340
3.760E-06,0.260
3.770E-06,0.180
3.780E-06,0.180
3.790E-06,0.260
3.800E-06,0.420
3.810E-06,0.700
3.820E-06,1.000
3.830E-06,1.340
3.840E-06,1.640
3.850E-06,1.920
3.860E-06,2.080
3.870E-06,2.200
3.880E-06,2.280
3.890E-06,2.240
3.900E-06,2.180
3.910E-06,2.080
3.920E-06,1.940
3.930E-06,1.860
3.940E-06,1.800
3.950E-06,1.720
3.960E-06,1.720
3.970E-06,1.700
3.980E-06,1.700
3.990E-06,1.700
4.000E-06,1.680
4.010E-06,1.660
4.020E-06,1.660
4.030E-06,1.660
4.040E-06,1.580
4.050E-06,1.560
4.060E-06,1.520
4.070E-06,1.440
4.080E-06,1.400
4.090E-06,1.340
4.100E-06,1.260
4.110E-06,1.140
4.120E-06,1.060
4.130E-06,1.020
4.140E-06,0.940
4.150E-06,0.900
4.160E-06,0.840
4.170E-06,0.860
4.180E-06,0.820
4.190E-06,0.760
4.200E-06,0.720
4.210E-06,0.640
4.220E-06,0.540
4.230E-06,0.420
4.240E-06,0.380
4.250E-06,0.340
4.260E-06,0.320
4.270E-06,0.340
4.280E-06,0.440
4.290E-06,0.540
4.300E-06,0.660
4.310E-06,0.760
4.320E-06,0.880
4.330E-06,1.000
4.340E-06,1.140
4.350E-06,1.260
4.360E-06,1.360
4.370E-06,1.400
4.380E-06,1.400
4.390E-06,1.360
4.400E-06,1.340
4.410E-06,1.320
4.420E-06,1.240
4.430E-06,1.200
4.440E-06,1.220
4.450E-06,1.260
4.460E-06,1.300
4.470E-06,1.360
4.480E-06,1.480
4.490E-06,1.600
4.500E-06,1.800
4.510E-06,2.020
4.520E-06,2.220
4.530E-06,2.480
4.540E-06,2.760
4.550E-06,2.780
4.560E-06,2.760
4.570E-06,2.740
4.580E-06,2.760
4.590E-06,2.760
4.600E-06,2.780
4.610E-06,2.780
4.620E-06,2.760
4.630E-06,2.760
4.640E-06,2.780
4.650E-06,2.760
4.660E-06,2.740
4.670E-06,2.760
4.680E-06,2.780
4.690E-06,2.780
4.700E-06,2.760
4.710E-06,2.780
4.720E-06,2.760
4.730E-06,2.760
4.740E-06,2.760
4.750E-06,2.760
4.760E-06,2.740
4.770E-06,2.760
4.780E-06,2.780
4.790E-06,2.760
4.800E-06,2.780
4.810E-06,2.760
4.820E-06,2.760
4.830E-06,2.740
4.840E-06,2.760
4.850E-06,2.780
4.860E-06,2.760
4.870E-06,2.760
4.880E-06,2.760
4.890E-06,2.760
4.900E-06,2.760
4.910E-06,2.780
4.920E-06,2.760
4.930E-06,-0.220
4.940E-06,-2.660
4.950E-06,-2.660
4.960E-06,-2.660
4.970E-06,-2.660
4.980E-06,-2.640
4.990E-06,-2.640
5.000E-06,-2.660
5.010E-06,-2.660
5.020E-06,-2.660
5.030E-06,-2.660
5.040E-06,-2.660
5.050E-06,-2.660
5.060E-06,-2.660
5.070E-06,-2.660
5.080E-06,-2.660
5.090E-06,-2.640
5.100E-06,-2.640
5.110E-06,-2.380
5.120E-06,-1.300
5.130E-06,-0.180
5.140E-06,0.580
5.150E-06,1.240
5.160E-06,1.700
5.170E-06,2.200
5.180E-06,2.720
5.190E-06,2.780
5.200E-06,2.760
5.210E-06,2.780
5.220E-06,2.640
5.230E-06,2.280
5.240E-06,2.000
5.250E-06,1.760
5.260E-06,1.640
5.270E-06,1.700
5.280E-06,1.880
5.290E-06,2.060
5.300E-06,2.120
5.310E-06,2.140
5.320E-06,2.140
5.330E-06,2.080
5.340E-06,1.980
5.350E-06,1.920
5.360E-06,1.920
5.370E-06,1.860
5.380E-06,1.860
5.390E-06,1.860
5.400E-06,1.840
5.410E-06,1.820
5.420E-06,1.820
5.430E-06,1.820
5.440E-06,1.760
5.450E-06,1.680
5.460E-06,1.660
5.470E-06,1.660
5.480E-06,1.620
5.490E-06,1.500
5.500E-06,1.420
5.510E-06,1.440
5.520E-06,1.440
5.530E-06,1.400
5.540E-06,1.360
5.550E-06,1.300
5.560E-06,1.180
5.570E-06,1.180
5.580E-06,1.120
5.590E-06,1.000
5.600E-06,0.900
5.610E-06,0.800
5.620E-06,0.800
5.630E-06,0.840
5.640E-06,0.820
5.650E-06,0.840
5.660E-06,0.800
5.670E-06,0.840
5.680E-06,0.880
5.690E-06,0.920
5.700E-06,0.840
5.710E-06,0.820
5.720E-06,0.800
5.730E-06,0.860
5.740E-06,0.880
5.750E-06,0.880
5.760E-06,0.880
5.770E-06,0.900
5.780E-06,0.980
5.790E-06,1.020
5.800E-06,1.040
5.810E-06,1.020
5.820E-06,0.980
5.830E-06,1.000
5.840E-06,1.000
5.850E-06,1.020
5.860E-06,0.980
5.870E-06,0.940
5.880E-06,0.940
5.890E-06,0.920
5.900E-06,0.940
5.910E-06,0.940
5.920E-06,0.900
5.930E-06,0.900
5.940E-06,0.860
5.950E-06,0.900
5.960E-06,0.860
5.970E-06,0.800
5.980E-06,0.780
5.990E-06,0.800
6.000E-06,0.820
6.010E-06,0.840
6.020E-06,0.820
6.030E-06,0.800
6.040E-06,0.800
6.050E-06,0.820
6.060E-06,0.800
6.070E-06,0.740
6.080E-06,0.640
6.090E-06,0.580
6.100E-06,0.520
6.110E-06,0.480
6.120E-06,0.420
6.130E-06,0.400
6.140E-06,0.380
6.150E-06,0.380
6.160E-06,0.440
6.170E-06,0.420
6.180E-06,0.400
6.190E-06,0.420
6.200E-06,0.440
6.210E-06,0.420
6.220E-06,0.480
6.230E-06,0.420
6.240E-06,0.420
6.250E-06,0.440
6.260E-06,0.440
6.270E-06,0.480
6.280E-06,0.500
6.290E-06,0.500
6.300E-06,0.520
6.310E-06,0.560
6.320E-06,0.560
6.330E-06,0.580
6.340E-06,0.580
6.350E-06,0.560
6.360E-06,0.600
6.370E-06,0.600
6.380E-06,0.600
6.390E-06,0.600
6.400E-06,0.600
6.410E-06,0.560
6.420E-06,0.540
6.430E-06,0.540
6.440E-06,0.500
6.450E-06,0.500
6.460E-06,0.500
6.470E-06,0.480
6.480E-06,0.460
6.490E-06,0.460
6.500E-06,0.420
6.510E-06,0.420
6.520E-06,0.420
6.530E-06,0.380
6.540E-06,0.420
6.550E-06,0.440
6.560E-06,0.440
6.570E-06,0.420
6.580E-06,0.420
6.590E-06,0.400
6.600E-06,0.420
6.610E-06,0.440
6.620E-06,0.400
6.630E-06,0.420
6.640E-06,0.420
6.650E-06,0.420
6.660E-06,0.420
6.670E-06,0.420
6.680E-06,0.400
6.690E-06,0.340
6.700E-06,0.340
6.710E-06,0.340
6.720E-06,0.360
6.730E-06,0.300
6.740E-06,0.340
6.750E-06,0.340
6.760E-06,0.340
6.770E-06,0.340
6.780E-06,0.340
6.790E-06,0.400
6.800E-06,0.400
6.810E-06,0.340
6.820E-06,0.380
6.830E-06,0.360
6.840E-06,0.340
6.850E-06,0.340
6.860E-06,0.340
6.870E-06,0.360
6.880E-06,0.320
6.890E-06,0.300
6.900E-06,0.320
6.910E-06,0.340
6.920E-06,0.320
6.930E-06,0.320
6.940E-06,0.360
6.950E-06,0.360
6.960E-06,0.380
6.970E-06,0.360
6.980E-06,0.400
6.990E-06,0.420
7.000E-06,0.440
7.010E-06,0.420
7.020E-06,0.420
7.030E-06,0.420
7.040E-06,0.420
7.050E-06,0.380
7.060E-06,0.360
7.070E-06,0.400
7.080E-06,0.400
7.090E-06,0.340
7.100E-06,0.400
7.110E-06,0.400
7.120E-06,0.400
7.130E-06,0.400
7.140E-06,0.420
7.150E-06,0.420
7.160E-06,0.420
7.170E-06,0.400
7.180E-06,0.380
7.190E-06,0.380
7.200E-06,0.380
7.210E-06,0.360
7.220E-06,0.340
7.230E-06,0.340
7.240E-06,0.320
7.250E-06,0.300
7.260E-06,0.320
7.270E-06,0.300
7.280E-06,0.280
7.290E-06,0.280
7.300E-06,0.260
7.310E-06,0.280
7.320E-06,0.280
7.330E-06,0.280
7.340E-06,0.280
7.350E-06,0.260
7.360E-06,0.260
7.370E-06,0.260
7.380E-06,0.220
7.390E-06,0.200
7.400E-06,0.200
7.410E-06,0.200
7.420E-06,0.200
7.430E-06,0.200
7.440E-06,0.160
7.450E-06,0.160
7.460E-06,0.160
7.470E-06,0.160
7.480E-06,0.180
7.490E-06,0.160
7.500E-06,0.160
7.510E-06,0.160
7.520E-06,0.180
7.530E-06,0.180
7.540E-06,0.160
7.550E-06,0.180
7.560E-06,0.160
7.570E-06,0.120
7.580E-06,0.140
7.590E-06,0.140
7.600E-06,0.120
7.610E-06,0.120
7.620E-06,0.120
7.630E-06,0.120
7.640E-06,0.120
7.650E-06,0.100
7.660E-06,0.100
7.670E-06,0.100
7.680E-06,0.060
7.690E-06,0.080
7.700E-06,0.080
7.710E-06,0.080
7.720E-06,0.060
7.730E-06,0.060
7.740E-06,0.020
7.750E-06,0.020
7.760E-06,0.020
7.770E-06,0.000
7.780E-06,-0.020
7.790E-06,0.000
7.800E-06,-0.020
7.810E-06,0.000
7.820E-06,-0.020
7.830E-06,-0.060
7.840E-06,-0.040
7.850E-06,0.000
7.860E-06,-0.040
7.870E-06,-0.020
7.880E-06,-0.040
7.890E-06,-0.040
7.900E-06,-0.020
7.910E-06,-0.060
7.920E-06,-0.060
7.930E-06,-0.020
7.940E-06,-0.020
7.950E-06,-0.060
7.960E-06,-0.080
7.970E-06,-0.100
7.980E-06,-0.080
7.990E-06,-0.080
8.000E-06,-0.080
8.010E-06,-0.100
8.020E-06,-0.100
8.030E-06,-0.080
8.040E-06,-0.080
8.050E-06,-0.140
8.060E-06,-0.140
8.070E-06,-0.120
8.080E-06,-0.140
8.090E-06,-0.140
8.100E-06,-0.160
8.110E-06,-0.160
8.120E-06,-0.140
8.130E-06,-0.180
8.140E-06,-0.180
8.150E-06,-0.160
8.160E-06,-0.160
8.170E-06,-0.160
8.180E-06,-0.160
8.190E-06,-0.160
8.200E-06,-0.160
8.210E-06,-0.120
8.220E-06,-0.160
8.230E-06,-0.160
8.240E-06,-0.140
8.250E-06,-0.160
8.260E-06,-0.180
8.270E-06,-0.160
8.280E-06,-0.160
8.290E-06,-0.160
8.300E-06,-0.180
8.310E-06,-0.160
8.320E-06,-0.180
8.330E-06,-0.200
8.340E-06,-0.200
8.350E-06,-0.200
8.360E-06,-0.220
8.370E-06,-0.200
8.380E-06,-0.180
8.390E-06,-0.200
8.400E-06,-0.180
8.410E-06,-0.180
8.420E-06,-0.180
8.430E-06,-0.180
8.440E-06,-0.180
8.450E-06,-0.160
8.460E-06,-0.220
8.470E-06,-0.180
8.480E-06,-0.160
8.490E-06,-0.220
8.500E-06,-0.200
8.510E-06,-0.220
8.520E-06,-0.180
8.530E-06,-0.240
8.540E-06,-0.220
8.550E-06,-0.220
8.560E-06,-0.220
8.570E-06,-0.240
8.580E-06,-0.220
8.590E-06,-0.220
8.600E-06,-0.260
8.610E-06,-0.220
8.620E-06,-0.240
8.630E-06,-0.260
8.640E-06,-0.220
8.650E-06,-0.260
8.660E-06,-0.260
8.670E-06,-0.240
8.680E-06,-0.240
8.690E-06,-0.240
8.700E-06,-0.260
8.710E-06,-0.260
8.720E-06,-0.260
8.730E-06,-0.260
8.740E-06,-0.260
8.750E-06,-0.260
8.760E-06,-0.260
8.770E-06,-0.240
8.780E-06,-0.260
8.790E-06,-0.260
8.800E-06,-0.260
8.810E-06,-0.240
8.820E-06,-0.240
8.830E-06,-0.260
8.840E-06,-0.240
8.850E-06,-0.220
8.860E-06,-0.240
8.870E-06,-0.240
8.880E-06,-0.220
8.890E-06,-0.220
8.900E-06,-0.220
8.910E-06,-0.220
8.920E-06,-0.240
8.930E-06,-0.220
8.940E-06,-0.220
8.950E-06,-0.220
8.960E-06,-0.240
8.970E-06,-0.220
8.980E-06,-0.220
8.990E-06,-0.220
9.000E-06,-0.220
9.010E-06,-0.200
9.020E-06,-0.200
9.030E-06,-0.200
9.040E-06,-0.200
9.050E-06,-0.180
9.060E-06,-0.180
9.070E-06,-0.180
9.080E-06,-0.180
9.090E-06,-0.180
9.100E-06,-0.200
9.110E-06,-0.200
9.120E-06,-0.160
9.130E-06,-0.160
9.140E-06,-0.180
9.150E-06,-0.180
9.160E-06,-0.160
9.170E-06,-0.120
9.180E-06,-0.120
9.190E-06,-0.140
9.200E-06,-0.120
9.210E-06,-0.120
9.220E-06,-0.100
9.230E-06,-0.120
9.240E-06,-0.120
9.250E-06,-0.100
9.260E-06,-0.080
9.270E-06,-0.100
9.280E-06,-0.100
9.290E-06,-0.080
9.300E-06,-0.100
9.310E-06,-0.060
9.320E-06,-0.060
9.330E-06,-0.040
9.340E-06,-0.080
9.350E-06,-0.080
9.360E-06,-0.080
9.370E-06,-0.080
9.380E-06,-0.080
9.390E-06,-0.080
9.400E-06,-0.080
9.410E-06,-0.040
9.420E-06,-0.080
9.430E-06,-0.100
9.440E-06,-0.080
9.450E-06,-0.060
9.460E-06,-0.080
9.470E-06,-0.060
9.480E-06,-0.080
9.490E-06,-0.100
9.500E-06,-0.080
9.510E-06,-0.080
9.520E-06,-0.120
9.530E-06,-0.120
9.540E-06,-0.100
9.550E-06,-0.120
9.560E-06,-0.100
9.570E-06,-0.080
9.580E-06,-0.080
9.590E-06,-0.080
9.600E-06,-0.080
9.610E-06,-0.100
