mediciones/Mediciones filtradas (saque las feas)/6-3/-7.5/WaveData5349.csv

#timebase=2000000(ps)
,#voltbase=500000(mv/100)
#size=4000
-2.300E-06,0.400
-2.290E-06,-0.020
-2.280E-06,-0.340
-2.270E-06,-0.420
-2.260E-06,-0.160
-2.250E-06,0.060
-2.240E-06,0.080
-2.230E-06,0.000
-2.220E-06,0.020
-2.210E-06,-0.040
-2.200E-06,0.080
-2.190E-06,0.340
-2.180E-06,0.480
-2.170E-06,0.500
-2.160E-06,0.680
-2.150E-06,0.720
-2.140E-06,0.680
-2.130E-06,0.840
-2.120E-06,0.980
-2.110E-06,0.940
-2.100E-06,0.840
-2.090E-06,0.780
-2.080E-06,0.660
-2.070E-06,0.600
-2.060E-06,0.560
-2.050E-06,0.460
-2.040E-06,0.320
-2.030E-06,0.120
-2.020E-06,0.060
-2.010E-06,-0.020
-2.000E-06,-0.100
-1.990E-06,-0.100
-1.980E-06,-0.140
-1.970E-06,-0.120
-1.960E-06,-0.120
-1.950E-06,-0.140
-1.940E-06,-0.100
-1.930E-06,-0.040
-1.920E-06,0.040
-1.910E-06,0.160
-1.900E-06,0.280
-1.890E-06,0.380
-1.880E-06,0.460
-1.870E-06,0.400
-1.860E-06,0.360
-1.850E-06,0.320
-1.840E-06,0.320
-1.830E-06,0.300
-1.820E-06,0.260
-1.810E-06,0.220
-1.800E-06,0.100
-1.790E-06,0.020
-1.780E-06,-0.060
-1.770E-06,-0.080
-1.760E-06,-0.120
-1.750E-06,-0.140
-1.740E-06,-0.160
-1.730E-06,-0.220
-1.720E-06,-0.300
-1.710E-06,-0.460
-1.700E-06,-0.660
-1.690E-06,-0.720
-1.680E-06,-0.600
-1.670E-06,-0.540
-1.660E-06,-0.380
-1.650E-06,-0.340
-1.640E-06,-0.340
-1.630E-06,-0.480
-1.620E-06,-0.500
-1.610E-06,-0.420
-1.600E-06,-0.420
-1.590E-06,-0.300
-1.580E-06,-0.200
-1.570E-06,-0.220
-1.560E-06,-0.260
-1.550E-06,-0.240
-1.540E-06,-0.280
-1.530E-06,-0.160
-1.520E-06,-0.120
-1.510E-06,-0.040
-1.500E-06,-0.080
-1.490E-06,-0.120
-1.480E-06,-0.140
-1.470E-06,-0.180
-1.460E-06,-0.300
-1.450E-06,-0.400
-1.440E-06,-0.280
-1.430E-06,-0.420
-1.420E-06,-0.180
-1.410E-06,-0.200
-1.400E-06,-0.240
-1.390E-06,-0.340
-1.380E-06,-0.640
-1.370E-06,-0.600
-1.360E-06,-0.440
-1.350E-06,-0.260
-1.340E-06,0.020
-1.330E-06,0.220
-1.320E-06,0.300
-1.310E-06,0.260
-1.300E-06,0.320
-1.290E-06,0.400
-1.280E-06,0.360
-1.270E-06,0.600
-1.260E-06,0.640
-1.250E-06,0.740
-1.240E-06,0.860
-1.230E-06,0.920
-1.220E-06,0.840
-1.210E-06,0.780
-1.200E-06,0.620
-1.190E-06,0.540
-1.180E-06,0.460
-1.170E-06,0.520
-1.160E-06,0.560
-1.150E-06,0.480
-1.140E-06,0.420
-1.130E-06,0.240
-1.120E-06,0.080
-1.110E-06,-0.020
-1.100E-06,-0.100
-1.090E-06,-0.100
-1.080E-06,-0.160
-1.070E-06,0.020
-1.060E-06,-0.040
-1.050E-06,-0.100
-1.040E-06,-0.240
-1.030E-06,-0.340
-1.020E-06,-0.260
-1.010E-06,-0.320
-1.000E-06,-0.380
-9.900E-07,-0.220
-9.800E-07,-0.400
-9.700E-07,-0.360
-9.600E-07,-0.340
-9.500E-07,-0.400
-9.400E-07,-0.360
-9.300E-07,-0.360
-9.200E-07,-0.340
-9.100E-07,-0.160
-9.000E-07,-0.060
-8.900E-07,-0.040
-8.800E-07,0.000
-8.700E-07,-0.020
-8.600E-07,-0.060
-8.500E-07,-0.100
-8.400E-07,-0.140
-8.300E-07,-0.100
-8.200E-07,-0.220
-8.100E-07,-0.420
-8.000E-07,-0.420
-7.900E-07,-0.360
-7.800E-07,-0.280
-7.700E-07,-0.260
-7.600E-07,-0.260
-7.500E-07,-0.360
-7.400E-07,-0.540
-7.300E-07,-0.700
-7.200E-07,-0.620
-7.100E-07,-0.540
-7.000E-07,-0.360
-6.900E-07,-0.300
-6.800E-07,-0.260
-6.700E-07,-0.320
-6.600E-07,-0.320
-6.500E-07,-0.360
-6.400E-07,-0.420
-6.300E-07,-0.480
-6.200E-07,-0.460
-6.100E-07,-0.580
-6.000E-07,-0.640
-5.900E-07,-0.680
-5.800E-07,-0.660
-5.700E-07,-0.640
-5.600E-07,-0.600
-5.500E-07,-0.640
-5.400E-07,-0.640
-5.300E-07,-0.660
-5.200E-07,-0.600
-5.100E-07,-0.540
-5.000E-07,-0.620
-4.900E-07,-0.680
-4.800E-07,-0.860
-4.700E-07,-0.960
-4.600E-07,-1.100
-4.500E-07,-1.180
-4.400E-07,-1.220
-4.300E-07,-1.440
-4.200E-07,-1.400
-4.100E-07,-1.140
-4.000E-07,-1.220
-3.900E-07,-1.100
-3.800E-07,-1.360
-3.700E-07,-1.360
-3.600E-07,-1.340
-3.500E-07,-1.220
-3.400E-07,-1.260
-3.300E-07,-1.480
-3.200E-07,-1.540
-3.100E-07,-1.480
-3.000E-07,-1.780
-2.900E-07,-1.700
-2.800E-07,-1.700
-2.700E-07,-1.740
-2.600E-07,-1.940
-2.500E-07,-1.580
-2.400E-07,-1.660
-2.300E-07,-1.300
-2.200E-07,-1.980
-2.100E-07,-1.940
-2.000E-07,-2.040
-1.900E-07,-1.840
-1.800E-07,-1.660
-1.700E-07,-1.820
-1.600E-07,-1.240
-1.500E-07,-2.220
-1.400E-07,-1.660
-1.300E-07,-1.700
-1.200E-07,-1.480
-1.100E-07,-1.020
-1.000E-07,-1.140
-9.000E-08,-1.160
-8.000E-08,-1.420
-7.000E-08,-1.500
-6.000E-08,-1.000
-5.000E-08,-1.940
-4.000E-08,-1.460
-3.000E-08,-2.640
-2.000E-08,-2.640
-1.000E-08,-2.640
0.000E+00,-2.640
1.000E-08,-2.660
2.000E-08,-2.660
3.000E-08,-2.660
4.000E-08,-2.640
5.000E-08,-2.640
6.000E-08,-2.640
7.000E-08,-2.660
8.000E-08,-2.660
9.000E-08,-2.660
1.000E-07,-2.660
1.100E-07,-2.660
1.200E-07,-2.660
1.300E-07,-2.660
1.400E-07,-2.660
1.500E-07,-2.660
1.600E-07,-2.660
1.700E-07,-2.660
1.800E-07,-2.660
1.900E-07,-2.680
2.000E-07,-2.680
2.100E-07,-2.660
2.200E-07,-2.660
2.300E-07,-2.640
2.400E-07,-2.640
2.500E-07,-2.660
2.600E-07,-2.660
2.700E-07,-2.660
2.800E-07,-2.640
2.900E-07,-2.640
3.000E-07,-2.660
3.100E-07,-2.660
3.200E-07,-2.660
3.300E-07,-2.660
3.400E-07,-2.660
3.500E-07,-2.660
3.600E-07,-2.660
3.700E-07,-2.660
3.800E-07,-2.660
3.900E-07,-2.660
4.000E-07,-2.660
4.100E-07,-2.660
4.200E-07,-2.640
4.300E-07,-2.660
4.400E-07,-2.660
4.500E-07,-2.660
4.600E-07,-2.660
4.700E-07,-2.660
4.800E-07,-2.680
4.900E-07,-2.680
5.000E-07,-2.680
5.100E-07,-2.660
5.200E-07,-2.660
5.300E-07,-2.660
5.400E-07,-2.660
5.500E-07,-2.660
5.600E-07,-2.660
5.700E-07,-2.660
5.800E-07,-2.660
5.900E-07,-2.660
6.000E-07,-2.680
6.100E-07,-2.680
6.200E-07,-2.680
6.300E-07,-2.680
6.400E-07,-2.680
6.500E-07,-2.680
6.600E-07,-2.680
6.700E-07,-2.660
6.800E-07,-2.640
6.900E-07,-2.520
7.000E-07,-2.300
7.100E-07,-1.960
7.200E-07,-1.660
7.300E-07,-1.220
7.400E-07,-1.200
7.500E-07,-1.000
7.600E-07,-1.100
7.700E-07,-1.060
7.800E-07,-1.180
7.900E-07,-1.140
8.000E-07,-0.980
8.100E-07,-0.940
8.200E-07,-0.940
8.300E-07,-1.020
8.400E-07,-1.160
8.500E-07,-1.280
8.600E-07,-1.340
8.700E-07,-1.320
8.800E-07,-1.320
8.900E-07,-1.260
9.000E-07,-1.220
9.100E-07,-1.200
9.200E-07,-1.240
9.300E-07,-1.100
9.400E-07,-1.040
9.500E-07,-0.980
9.600E-07,-0.820
9.700E-07,-0.940
9.800E-07,-0.760
9.900E-07,-1.380
1.000E-06,-2.060
1.010E-06,-1.200
1.020E-06,-2.660
1.030E-06,-2.460
1.040E-06,-2.660
1.050E-06,-2.660
1.060E-06,-2.660
1.070E-06,-2.040
1.080E-06,-0.620
1.090E-06,1.640
1.100E-06,-2.660
1.110E-06,-2.660
1.120E-06,-2.660
1.130E-06,-2.660
1.140E-06,-1.840
1.150E-06,2.340
1.160E-06,2.740
1.170E-06,2.760
1.180E-06,2.100
1.190E-06,-0.740
1.200E-06,-1.540
1.210E-06,0.020
1.220E-06,2.400
1.230E-06,2.740
1.240E-06,2.760
1.250E-06,2.760
1.260E-06,1.920
1.270E-06,1.240
1.280E-06,0.560
1.290E-06,0.200
1.300E-06,0.100
1.310E-06,-0.260
1.320E-06,-0.220
1.330E-06,-0.640
1.340E-06,-0.840
1.350E-06,-1.740
1.360E-06,-2.640
1.370E-06,-2.660
1.380E-06,-2.660
1.390E-06,-2.660
1.400E-06,-2.660
1.410E-06,-2.660
1.420E-06,-2.680
1.430E-06,-2.680
1.440E-06,-2.680
1.450E-06,-2.660
1.460E-06,-2.660
1.470E-06,-2.640
1.480E-06,-2.640
1.490E-06,-2.660
1.500E-06,-2.040
1.510E-06,-1.420
1.520E-06,-0.880
1.530E-06,-0.840
1.540E-06,-0.440
1.550E-06,-0.320
1.560E-06,0.180
1.570E-06,0.540
1.580E-06,0.980
1.590E-06,1.220
1.600E-06,1.380
1.610E-06,1.520
1.620E-06,1.500
1.630E-06,1.460
1.640E-06,1.460
1.650E-06,1.400
1.660E-06,1.220
1.670E-06,1.060
1.680E-06,0.840
1.690E-06,0.620
1.700E-06,0.500
1.710E-06,0.160
1.720E-06,-0.040
1.730E-06,-0.360
1.740E-06,-0.500
1.750E-06,-0.700
1.760E-06,-1.000
1.770E-06,-1.280
1.780E-06,-1.800
1.790E-06,-2.020
1.800E-06,-2.020
1.810E-06,-2.040
1.820E-06,-1.880
1.830E-06,-1.780
1.840E-06,-2.220
1.850E-06,-2.300
1.860E-06,-2.680
1.870E-06,-2.680
1.880E-06,-2.660
1.890E-06,-2.660
1.900E-06,-2.660
1.910E-06,-1.880
1.920E-06,-1.300
1.930E-06,-0.740
1.940E-06,-0.840
1.950E-06,-0.840
1.960E-06,-0.960
1.970E-06,-1.200
1.980E-06,-0.880
1.990E-06,-0.600
2.000E-06,-0.260
2.010E-06,-0.120
2.020E-06,0.020
2.030E-06,-0.100
2.040E-06,-0.260
2.050E-06,-0.220
2.060E-06,-0.240
2.070E-06,-0.080
2.080E-06,0.000
2.090E-06,-0.120
2.100E-06,-0.220
2.110E-06,-0.240
2.120E-06,-0.240
2.130E-06,-0.200
2.140E-06,-0.280
2.150E-06,-0.440
2.160E-06,-0.600
2.170E-06,-0.840
2.180E-06,-0.860
2.190E-06,-1.560
2.200E-06,-1.540
2.210E-06,-1.860
2.220E-06,-1.620
2.230E-06,-1.280
2.240E-06,-1.360
2.250E-06,-0.800
2.260E-06,-1.280
2.270E-06,-1.240
2.280E-06,-1.560
2.290E-06,-1.840
2.300E-06,-1.960
2.310E-06,-2.040
2.320E-06,-1.920
2.330E-06,-1.920
2.340E-06,-1.840
2.350E-06,-1.620
2.360E-06,-1.540
2.370E-06,-1.160
2.380E-06,-0.920
2.390E-06,-0.500
2.400E-06,-0.120
2.410E-06,0.060
2.420E-06,0.140
2.430E-06,0.040
2.440E-06,0.040
2.450E-06,-0.040
2.460E-06,0.120
2.470E-06,0.200
2.480E-06,0.280
2.490E-06,0.260
2.500E-06,0.160
2.510E-06,-0.060
2.520E-06,-0.260
2.530E-06,-0.380
2.540E-06,-0.440
2.550E-06,-0.420
2.560E-06,-0.420
2.570E-06,-0.440
2.580E-06,-0.540
2.590E-06,-0.680
2.600E-06,-0.820
2.610E-06,-0.920
2.620E-06,-0.900
2.630E-06,-0.940
2.640E-06,-0.820
2.650E-06,-0.840
2.660E-06,-0.900
2.670E-06,-0.960
2.680E-06,-1.460
2.690E-06,-1.720
2.700E-06,-2.060
2.710E-06,-2.640
2.720E-06,-2.660
2.730E-06,-2.660
2.740E-06,-2.660
2.750E-06,-2.660
2.760E-06,-2.660
2.770E-06,-2.660
2.780E-06,-2.640
2.790E-06,-2.660
2.800E-06,-2.660
2.810E-06,-1.920
2.820E-06,0.080
2.830E-06,0.800
2.840E-06,-0.040
2.850E-06,-1.320
2.860E-06,-1.600
2.870E-06,-0.940
2.880E-06,0.480
2.890E-06,1.600
2.900E-06,1.520
2.910E-06,1.960
2.920E-06,1.560
2.930E-06,1.320
2.940E-06,1.120
2.950E-06,1.520
2.960E-06,1.340
2.970E-06,1.220
2.980E-06,1.180
2.990E-06,1.440
3.000E-06,1.140
3.010E-06,0.960
3.020E-06,0.360
3.030E-06,-0.680
3.040E-06,-1.040
3.050E-06,-0.980
3.060E-06,-0.600
3.070E-06,-0.620
3.080E-06,-0.800
3.090E-06,-1.040
3.100E-06,-1.500
3.110E-06,-1.480
3.120E-06,-1.440
3.130E-06,-1.460
3.140E-06,-1.600
3.150E-06,-1.640
3.160E-06,-1.620
3.170E-06,-1.740
3.180E-06,-1.920
3.190E-06,-2.220
3.200E-06,-2.580
3.210E-06,-2.660
3.220E-06,-2.660
3.230E-06,-2.680
3.240E-06,-2.680
3.250E-06,-2.660
3.260E-06,-2.640
3.270E-06,-2.660
3.280E-06,-2.620
3.290E-06,-2.540
3.300E-06,-2.380
3.310E-06,-2.220
3.320E-06,-1.780
3.330E-06,-1.680
3.340E-06,-1.680
3.350E-06,-1.780
3.360E-06,-2.400
3.370E-06,-2.640
3.380E-06,-2.660
3.390E-06,-2.660
3.400E-06,-2.680
3.410E-06,-2.680
3.420E-06,-2.000
3.430E-06,-1.180
3.440E-06,-1.040
3.450E-06,-1.480
3.460E-06,-2.680
3.470E-06,-2.680
3.480E-06,-2.680
3.490E-06,-2.660
3.500E-06,-2.660
3.510E-06,-2.660
3.520E-06,-2.400
3.530E-06,0.200
3.540E-06,1.260
3.550E-06,1.420
3.560E-06,1.020
3.570E-06,-1.380
3.580E-06,-2.200
3.590E-06,-2.660
3.600E-06,-1.700
3.610E-06,-0.140
3.620E-06,0.940
3.630E-06,2.080
3.640E-06,1.360
3.650E-06,0.680
3.660E-06,0.760
3.670E-06,1.040
3.680E-06,1.660
3.690E-06,2.000
3.700E-06,1.620
3.710E-06,1.080
3.720E-06,0.220
3.730E-06,-0.020
3.740E-06,-0.100
3.750E-06,-0.160
3.760E-06,-0.140
3.770E-06,-0.660
3.780E-06,-1.380
3.790E-06,-1.960
3.800E-06,-2.420
3.810E-06,-2.680
3.820E-06,-2.680
3.830E-06,-2.680
3.840E-06,-2.680
3.850E-06,-2.680
3.860E-06,-2.660
3.870E-06,-2.660
3.880E-06,-2.660
3.890E-06,-2.660
3.900E-06,-2.660
3.910E-06,-2.660
3.920E-06,-2.680
3.930E-06,-2.680
3.940E-06,-2.680
3.950E-06,-2.660
3.960E-06,-2.660
3.970E-06,-2.660
3.980E-06,-2.660
3.990E-06,-2.680
4.000E-06,-2.680
4.010E-06,-2.680
4.020E-06,-2.660
4.030E-06,-2.660
4.040E-06,-2.640
4.050E-06,-2.660
4.060E-06,-2.660
4.070E-06,-2.680
4.080E-06,-2.680
4.090E-06,-2.660
4.100E-06,-2.660
4.110E-06,-2.660
4.120E-06,-2.680
4.130E-06,-2.680
4.140E-06,-2.680
4.150E-06,-2.660
4.160E-06,-2.660
4.170E-06,-2.640
4.180E-06,-2.640
4.190E-06,-2.660
4.200E-06,-2.660
4.210E-06,-2.660
4.220E-06,-2.660
4.230E-06,-2.660
4.240E-06,-2.660
4.250E-06,-2.660
4.260E-06,-2.660
4.270E-06,-2.680
4.280E-06,-2.660
4.290E-06,-2.660
4.300E-06,-2.660
4.310E-06,-2.660
4.320E-06,-2.660
4.330E-06,-2.660
4.340E-06,-2.660
4.350E-06,-2.660
4.360E-06,-2.660
4.370E-06,-2.660
4.380E-06,-2.660
4.390E-06,-2.660
4.400E-06,-2.680
4.410E-06,-2.660
4.420E-06,-2.660
4.430E-06,-2.660
4.440E-06,-2.660
4.450E-06,-2.660
4.460E-06,-2.660
4.470E-06,-2.660
4.480E-06,-2.660
4.490E-06,-2.640
4.500E-06,-2.660
4.510E-06,-2.660
4.520E-06,-2.660
4.530E-06,-2.660
4.540E-06,-2.660
4.550E-06,-2.660
4.560E-06,-2.680
4.570E-06,-2.660
4.580E-06,-2.660
4.590E-06,-2.660
4.600E-06,-2.680
4.610E-06,-2.660
4.620E-06,-2.660
4.630E-06,-2.660
4.640E-06,-2.660
4.650E-06,-2.660
4.660E-06,-2.660
4.670E-06,-2.660
4.680E-06,-2.660
4.690E-06,-2.380
4.700E-06,-1.760
4.710E-06,-1.200
4.720E-06,-0.800
4.730E-06,-0.760
4.740E-06,-0.660
4.750E-06,-0.660
4.760E-06,-0.520
4.770E-06,-0.380
4.780E-06,-0.120
4.790E-06,0.020
4.800E-06,0.080
4.810E-06,0.100
4.820E-06,0.100
4.830E-06,0.000
4.840E-06,-0.140
4.850E-06,-0.280
4.860E-06,-0.480
4.870E-06,-0.620
4.880E-06,-0.740
4.890E-06,-0.860
4.900E-06,-0.980
4.910E-06,-1.240
4.920E-06,-1.460
4.930E-06,-1.620
4.940E-06,-1.780
4.950E-06,-1.860
4.960E-06,-1.960
4.970E-06,-2.060
4.980E-06,-2.160
4.990E-06,-2.240
5.000E-06,-2.300
5.010E-06,-2.380
5.020E-06,-2.400
5.030E-06,-2.380
5.040E-06,-2.300
5.050E-06,-2.220
5.060E-06,-2.020
5.070E-06,-1.960
5.080E-06,-1.940
5.090E-06,-1.860
5.100E-06,-1.760
5.110E-06,-1.700
5.120E-06,-1.600
5.130E-06,-1.520
5.140E-06,-1.380
5.150E-06,-1.320
5.160E-06,-1.240
5.170E-06,-1.200
5.180E-06,-1.200
5.190E-06,-1.160
5.200E-06,-1.120
5.210E-06,-1.120
5.220E-06,-1.120
5.230E-06,-1.100
5.240E-06,-1.140
5.250E-06,-1.160
5.260E-06,-1.180
5.270E-06,-1.260
5.280E-06,-1.320
5.290E-06,-1.340
5.300E-06,-1.320
5.310E-06,-1.320
5.320E-06,-1.240
5.330E-06,-1.220
5.340E-06,-1.180
5.350E-06,-1.140
5.360E-06,-1.100
5.370E-06,-1.040
5.380E-06,-0.980
5.390E-06,-0.920
5.400E-06,-0.840
5.410E-06,-0.740
5.420E-06,-0.700
5.430E-06,-0.680
5.440E-06,-0.660
5.450E-06,-0.680
5.460E-06,-0.700
5.470E-06,-0.680
5.480E-06,-0.680
5.490E-06,-0.660
5.500E-06,-0.660
5.510E-06,-0.640
5.520E-06,-0.620
5.530E-06,-0.660
5.540E-06,-0.640
5.550E-06,-0.600
5.560E-06,-0.640
5.570E-06,-0.640
5.580E-06,-0.660
5.590E-06,-0.660
5.600E-06,-0.660
5.610E-06,-0.720
5.620E-06,-0.760
5.630E-06,-0.800
5.640E-06,-0.820
5.650E-06,-0.840
5.660E-06,-0.800
5.670E-06,-0.860
5.680E-06,-0.840
5.690E-06,-0.840
5.700E-06,-0.840
5.710E-06,-0.860
5.720E-06,-0.860
5.730E-06,-0.840
5.740E-06,-0.860
5.750E-06,-0.840
5.760E-06,-0.880
5.770E-06,-0.900
5.780E-06,-0.940
5.790E-06,-0.960
5.800E-06,-0.980
5.810E-06,-1.020
5.820E-06,-1.040
5.830E-06,-1.080
5.840E-06,-1.100
5.850E-06,-1.120
5.860E-06,-1.140
5.870E-06,-1.180
5.880E-06,-1.200
5.890E-06,-1.180
5.900E-06,-1.160
5.910E-06,-1.160
5.920E-06,-1.140
5.930E-06,-1.160
5.940E-06,-1.140
5.950E-06,-1.180
5.960E-06,-1.140
5.970E-06,-1.060
5.980E-06,-0.980
5.990E-06,-0.940
6.000E-06,-0.920
6.010E-06,-0.940
6.020E-06,-1.000
6.030E-06,-1.000
6.040E-06,-0.920
6.050E-06,-0.900
6.060E-06,-0.860
6.070E-06,-0.820
6.080E-06,-0.840
6.090E-06,-0.840
6.100E-06,-0.860
6.110E-06,-0.840
6.120E-06,-0.800
6.130E-06,-0.760
6.140E-06,-0.700
6.150E-06,-0.660
6.160E-06,-0.660
6.170E-06,-0.620
6.180E-06,-0.580
6.190E-06,-0.500
6.200E-06,-0.420
6.210E-06,-0.360
6.220E-06,-0.340
6.230E-06,-0.340
6.240E-06,-0.340
6.250E-06,-0.360
6.260E-06,-0.400
6.270E-06,-0.400
6.280E-06,-0.480
6.290E-06,-0.480
6.300E-06,-0.400
6.310E-06,-0.320
6.320E-06,-0.260
6.330E-06,-0.180
6.340E-06,-0.180
6.350E-06,-0.240
6.360E-06,-0.320
6.370E-06,-0.420
6.380E-06,-0.460
6.390E-06,-0.500
6.400E-06,-0.520
6.410E-06,-0.540
6.420E-06,-0.580
6.430E-06,-0.660
6.440E-06,-0.720
6.450E-06,-0.780
6.460E-06,-0.760
6.470E-06,-0.760
6.480E-06,-0.760
6.490E-06,-0.700
6.500E-06,-0.660
6.510E-06,-0.620
6.520E-06,-0.600
6.530E-06,-0.560
6.540E-06,-0.520
6.550E-06,-0.420
6.560E-06,-0.380
6.570E-06,-0.360
6.580E-06,-0.320
6.590E-06,-0.340
6.600E-06,-0.440
6.610E-06,-0.500
6.620E-06,-0.580
6.630E-06,-0.600
6.640E-06,-0.580
6.650E-06,-0.540
6.660E-06,-0.500
6.670E-06,-0.560
6.680E-06,-0.560
6.690E-06,-0.520
6.700E-06,-0.580
6.710E-06,-0.580
6.720E-06,-0.580
6.730E-06,-0.560
6.740E-06,-0.520
6.750E-06,-0.500
6.760E-06,-0.460
6.770E-06,-0.440
6.780E-06,-0.440
6.790E-06,-0.380
6.800E-06,-0.340
6.810E-06,-0.260
6.820E-06,-0.200
6.830E-06,-0.180
6.840E-06,-0.080
6.850E-06,-0.060
6.860E-06,0.000
6.870E-06,0.000
6.880E-06,0.000
6.890E-06,0.020
6.900E-06,0.000
6.910E-06,0.020
6.920E-06,0.040
6.930E-06,0.080
6.940E-06,0.100
6.950E-06,0.160
6.960E-06,0.160
6.970E-06,0.200
6.980E-06,0.220
6.990E-06,0.260
7.000E-06,0.260
7.010E-06,0.260
7.020E-06,0.260
7.030E-06,0.280
7.040E-06,0.240
7.050E-06,0.260
7.060E-06,0.220
7.070E-06,0.200
7.080E-06,0.220
7.090E-06,0.260
7.100E-06,0.240
7.110E-06,0.260
7.120E-06,0.260
7.130E-06,0.260
7.140E-06,0.240
7.150E-06,0.160
7.160E-06,0.180
7.170E-06,0.140
7.180E-06,0.080
7.190E-06,0.080
7.200E-06,0.060
7.210E-06,0.020
7.220E-06,-0.020
7.230E-06,-0.100
7.240E-06,-0.080
7.250E-06,-0.060
7.260E-06,-0.060
7.270E-06,-0.020
7.280E-06,-0.020
7.290E-06,-0.060
7.300E-06,-0.100
7.310E-06,-0.160
7.320E-06,-0.160
7.330E-06,-0.180
7.340E-06,-0.200
7.350E-06,-0.260
7.360E-06,-0.260
7.370E-06,-0.300
7.380E-06,-0.320
7.390E-06,-0.280
7.400E-06,-0.260
7.410E-06,-0.200
7.420E-06,-0.120
7.430E-06,-0.040
7.440E-06,-0.020
7.450E-06,0.000
7.460E-06,0.000
7.470E-06,0.020
7.480E-06,0.020
7.490E-06,0.020
7.500E-06,0.060
7.510E-06,0.080
7.520E-06,0.100
7.530E-06,0.120
7.540E-06,0.160
7.550E-06,0.220
7.560E-06,0.240
7.570E-06,0.260
7.580E-06,0.320
7.590E-06,0.340
7.600E-06,0.440
7.610E-06,0.500
7.620E-06,0.560
7.630E-06,0.620
7.640E-06,0.640
7.650E-06,0.680
7.660E-06,0.720
7.670E-06,0.800
7.680E-06,0.840
7.690E-06,0.860
7.700E-06,0.900
7.710E-06,0.900
7.720E-06,0.860
7.730E-06,0.840
7.740E-06,0.720
7.750E-06,0.660
7.760E-06,0.580
7.770E-06,0.500
7.780E-06,0.440
7.790E-06,0.380
7.800E-06,0.400
7.810E-06,0.420
7.820E-06,0.380
7.830E-06,0.400
7.840E-06,0.380
7.850E-06,0.380
7.860E-06,0.340
7.870E-06,0.340
7.880E-06,0.300
7.890E-06,0.280
7.900E-06,0.280
7.910E-06,0.280
7.920E-06,0.300
7.930E-06,0.340
7.940E-06,0.380
7.950E-06,0.460
7.960E-06,0.520
7.970E-06,0.540
7.980E-06,0.560
7.990E-06,0.580
8.000E-06,0.580
8.010E-06,0.600
8.020E-06,0.580
8.030E-06,0.600
8.040E-06,0.640
8.050E-06,0.700
8.060E-06,0.700
8.070E-06,0.700
8.080E-06,0.700
8.090E-06,0.640
8.100E-06,0.560
8.110E-06,0.420
8.120E-06,0.380
8.130E-06,0.340
8.140E-06,0.280
8.150E-06,0.280
8.160E-06,0.260
8.170E-06,0.240
8.180E-06,0.280
8.190E-06,0.280
8.200E-06,0.240
8.210E-06,0.220
8.220E-06,0.240
8.230E-06,0.200
8.240E-06,0.220
8.250E-06,0.260
8.260E-06,0.320
8.270E-06,0.360
8.280E-06,0.420
8.290E-06,0.500
8.300E-06,0.540
8.310E-06,0.620
8.320E-06,0.640
8.330E-06,0.720
8.340E-06,0.800
8.350E-06,0.860
8.360E-06,0.860
8.370E-06,0.900
8.380E-06,0.920
8.390E-06,0.860
8.400E-06,0.840
8.410E-06,0.760
8.420E-06,0.680
8.430E-06,0.580
8.440E-06,0.440
8.450E-06,0.320
8.460E-06,0.220
8.470E-06,0.180
8.480E-06,0.080
8.490E-06,0.020
8.500E-06,0.040
8.510E-06,0.040
8.520E-06,0.060
8.530E-06,0.120
8.540E-06,0.140
8.550E-06,0.160
8.560E-06,0.220
8.570E-06,0.260
8.580E-06,0.300
8.590E-06,0.360
8.600E-06,0.360
8.610E-06,0.420
8.620E-06,0.400
8.630E-06,0.340
8.640E-06,0.340
8.650E-06,0.300
8.660E-06,0.260
8.670E-06,0.220
8.680E-06,0.160
8.690E-06,0.180
8.700E-06,0.120
8.710E-06,0.100
8.720E-06,0.080
8.730E-06,0.060
8.740E-06,0.020
8.750E-06,0.040
8.760E-06,0.060
8.770E-06,0.060
8.780E-06,0.080
8.790E-06,0.100
8.800E-06,0.120
8.810E-06,0.200
8.820E-06,0.260
8.830E-06,0.360
8.840E-06,0.460
8.850E-06,0.580
8.860E-06,0.660
8.870E-06,0.760
8.880E-06,0.860
8.890E-06,0.920
8.900E-06,0.960
8.910E-06,1.020
8.920E-06,1.020
8.930E-06,1.000
8.940E-06,0.980
8.950E-06,0.980
8.960E-06,1.000
8.970E-06,1.020
8.980E-06,1.040
8.990E-06,1.020
9.000E-06,1.080
9.010E-06,1.100
9.020E-06,1.140
9.030E-06,1.160
9.040E-06,1.180
9.050E-06,1.200
9.060E-06,1.280
9.070E-06,1.340
9.080E-06,1.380
9.090E-06,1.420
9.100E-06,1.420
9.110E-06,1.440
9.120E-06,1.480
9.130E-06,1.500
9.140E-06,1.560
9.150E-06,1.580
9.160E-06,1.620
9.170E-06,1.660
9.180E-06,1.700
9.190E-06,1.680
9.200E-06,1.660
9.210E-06,1.680
9.220E-06,1.660
9.230E-06,1.680
9.240E-06,1.700
9.250E-06,1.760
9.260E-06,1.840
9.270E-06,1.860
9.280E-06,1.920
9.290E-06,1.960
9.300E-06,1.960
9.310E-06,2.040
9.320E-06,2.080
9.330E-06,2.140
9.340E-06,2.180
9.350E-06,2.240
9.360E-06,2.280
9.370E-06,2.280
9.380E-06,2.320
9.390E-06,2.300
9.400E-06,2.360
9.410E-06,2.380
9.420E-06,2.400
9.430E-06,2.560
9.440E-06,2.680
9.450E-06,2.760
9.460E-06,2.760
9.470E-06,2.740
9.480E-06,2.760
9.490E-06,2.780
9.500E-06,2.760
9.510E-06,2.780
