mediciones/Mediciones filtradas (saque las feas)/6-3/-7.5/WaveData5387.csv

#timebase=2000000(ps)
,#voltbase=500000(mv/100)
#size=4000
-2.300E-06,0.440
-2.290E-06,0.400
-2.280E-06,0.400
-2.270E-06,0.400
-2.260E-06,0.420
-2.250E-06,0.500
-2.240E-06,0.480
-2.230E-06,0.520
-2.220E-06,0.500
-2.210E-06,0.440
-2.200E-06,0.400
-2.190E-06,0.280
-2.180E-06,0.300
-2.170E-06,0.260
-2.160E-06,0.320
-2.150E-06,0.360
-2.140E-06,0.320
-2.130E-06,0.300
-2.120E-06,0.160
-2.110E-06,0.240
-2.100E-06,0.260
-2.090E-06,0.340
-2.080E-06,0.380
-2.070E-06,0.380
-2.060E-06,0.340
-2.050E-06,0.300
-2.040E-06,0.300
-2.030E-06,0.300
-2.020E-06,0.340
-2.010E-06,0.360
-2.000E-06,0.340
-1.990E-06,0.300
-1.980E-06,0.280
-1.970E-06,0.240
-1.960E-06,0.260
-1.950E-06,0.240
-1.940E-06,0.220
-1.930E-06,0.220
-1.920E-06,0.260
-1.910E-06,0.320
-1.900E-06,0.340
-1.890E-06,0.380
-1.880E-06,0.340
-1.870E-06,0.240
-1.860E-06,0.200
-1.850E-06,0.200
-1.840E-06,0.260
-1.830E-06,0.320
-1.820E-06,0.400
-1.810E-06,0.420
-1.800E-06,0.200
-1.790E-06,0.280
-1.780E-06,0.080
-1.770E-06,0.100
-1.760E-06,0.020
-1.750E-06,0.160
-1.740E-06,0.480
-1.730E-06,0.560
-1.720E-06,0.660
-1.710E-06,0.380
-1.700E-06,0.200
-1.690E-06,0.080
-1.680E-06,0.180
-1.670E-06,0.580
-1.660E-06,0.780
-1.650E-06,0.800
-1.640E-06,0.760
-1.630E-06,0.380
-1.620E-06,0.120
-1.610E-06,0.040
-1.600E-06,0.080
-1.590E-06,0.260
-1.580E-06,0.320
-1.570E-06,0.360
-1.560E-06,0.260
-1.550E-06,-0.120
-1.540E-06,-0.140
-1.530E-06,-0.100
-1.520E-06,0.160
-1.510E-06,0.340
-1.500E-06,0.420
-1.490E-06,0.320
-1.480E-06,0.220
-1.470E-06,0.100
-1.460E-06,0.160
-1.450E-06,0.380
-1.440E-06,0.520
-1.430E-06,0.820
-1.420E-06,0.740
-1.410E-06,0.720
-1.400E-06,0.560
-1.390E-06,0.620
-1.380E-06,0.600
-1.370E-06,0.900
-1.360E-06,0.820
-1.350E-06,0.820
-1.340E-06,0.820
-1.330E-06,0.680
-1.320E-06,0.720
-1.310E-06,0.640
-1.300E-06,0.640
-1.290E-06,0.680
-1.280E-06,0.780
-1.270E-06,0.960
-1.260E-06,1.080
-1.250E-06,1.080
-1.240E-06,0.960
-1.230E-06,0.880
-1.220E-06,0.660
-1.210E-06,0.580
-1.200E-06,0.600
-1.190E-06,0.500
-1.180E-06,0.560
-1.170E-06,0.560
-1.160E-06,0.520
-1.150E-06,0.520
-1.140E-06,0.500
-1.130E-06,0.520
-1.120E-06,0.560
-1.110E-06,0.520
-1.100E-06,0.480
-1.090E-06,0.420
-1.080E-06,0.480
-1.070E-06,0.540
-1.060E-06,0.660
-1.050E-06,0.760
-1.040E-06,0.840
-1.030E-06,0.760
-1.020E-06,0.800
-1.010E-06,0.860
-1.000E-06,0.880
-9.900E-07,0.920
-9.800E-07,0.920
-9.700E-07,0.860
-9.600E-07,0.660
-9.500E-07,0.640
-9.400E-07,0.500
-9.300E-07,0.420
-9.200E-07,0.320
-9.100E-07,0.540
-9.000E-07,0.560
-8.900E-07,0.820
-8.800E-07,0.800
-8.700E-07,0.760
-8.600E-07,0.580
-8.500E-07,0.260
-8.400E-07,0.220
-8.300E-07,0.160
-8.200E-07,0.220
-8.100E-07,0.260
-8.000E-07,0.260
-7.900E-07,-0.060
-7.800E-07,-0.400
-7.700E-07,-0.420
-7.600E-07,-0.320
-7.500E-07,0.020
-7.400E-07,0.240
-7.300E-07,0.600
-7.200E-07,0.480
-7.100E-07,0.580
-7.000E-07,0.380
-6.900E-07,0.520
-6.800E-07,0.800
-6.700E-07,1.020
-6.600E-07,1.200
-6.500E-07,1.100
-6.400E-07,1.060
-6.300E-07,0.900
-6.200E-07,1.000
-6.100E-07,0.980
-6.000E-07,1.120
-5.900E-07,1.160
-5.800E-07,1.200
-5.700E-07,1.200
-5.600E-07,1.020
-5.500E-07,1.060
-5.400E-07,0.940
-5.300E-07,1.080
-5.200E-07,0.920
-5.100E-07,0.940
-5.000E-07,0.640
-4.900E-07,0.340
-4.800E-07,0.260
-4.700E-07,0.280
-4.600E-07,0.140
-4.500E-07,0.480
-4.400E-07,0.520
-4.300E-07,0.360
-4.200E-07,0.340
-4.100E-07,0.300
-4.000E-07,0.440
-3.900E-07,0.680
-3.800E-07,0.860
-3.700E-07,0.880
-3.600E-07,1.020
-3.500E-07,0.860
-3.400E-07,0.860
-3.300E-07,0.840
-3.200E-07,0.940
-3.100E-07,0.920
-3.000E-07,0.860
-2.900E-07,0.840
-2.800E-07,0.760
-2.700E-07,0.800
-2.600E-07,0.760
-2.500E-07,0.920
-2.400E-07,0.880
-2.300E-07,0.840
-2.200E-07,0.840
-2.100E-07,0.900
-2.000E-07,0.980
-1.900E-07,0.980
-1.800E-07,1.100
-1.700E-07,1.020
-1.600E-07,0.920
-1.500E-07,0.920
-1.400E-07,0.860
-1.300E-07,0.920
-1.200E-07,0.880
-1.100E-07,0.700
-1.000E-07,0.700
-9.000E-08,0.220
-8.000E-08,0.420
-7.000E-08,0.220
-6.000E-08,-0.160
-5.000E-08,-0.380
-4.000E-08,-0.280
-3.000E-08,-0.280
-2.000E-08,-0.680
-1.000E-08,-1.280
0.000E+00,-1.140
1.000E-08,-0.520
2.000E-08,-0.180
3.000E-08,1.560
4.000E-08,0.840
5.000E-08,0.700
6.000E-08,-0.880
7.000E-08,-0.720
8.000E-08,-0.420
9.000E-08,0.440
1.000E-07,1.300
1.100E-07,1.220
1.200E-07,0.780
1.300E-07,-0.260
1.400E-07,-0.320
1.500E-07,0.260
1.600E-07,0.720
1.700E-07,1.240
1.800E-07,1.220
1.900E-07,0.500
2.000E-07,0.220
2.100E-07,-0.120
2.200E-07,0.880
2.300E-07,1.040
2.400E-07,0.760
2.500E-07,0.220
2.600E-07,-0.060
2.700E-07,-0.340
2.800E-07,0.100
2.900E-07,0.760
3.000E-07,0.920
3.100E-07,1.020
3.200E-07,0.640
3.300E-07,1.020
3.400E-07,0.980
3.500E-07,0.740
3.600E-07,0.340
3.700E-07,0.320
3.800E-07,0.080
3.900E-07,0.100
4.000E-07,0.440
4.100E-07,0.440
4.200E-07,0.200
4.300E-07,-0.180
4.400E-07,-0.560
4.500E-07,-0.680
4.600E-07,-0.800
4.700E-07,-0.700
4.800E-07,-0.400
4.900E-07,-0.600
5.000E-07,-0.740
5.100E-07,-0.980
5.200E-07,-0.820
5.300E-07,-0.840
5.400E-07,-0.700
5.500E-07,-0.540
5.600E-07,-0.480
5.700E-07,-0.540
5.800E-07,-0.320
5.900E-07,-0.080
6.000E-07,0.120
6.100E-07,0.100
6.200E-07,0.220
6.300E-07,0.240
6.400E-07,0.160
6.500E-07,0.180
6.600E-07,0.280
6.700E-07,0.500
6.800E-07,0.300
6.900E-07,0.400
7.000E-07,0.440
7.100E-07,0.300
7.200E-07,0.120
7.300E-07,0.080
7.400E-07,0.240
7.500E-07,0.300
7.600E-07,0.340
7.700E-07,0.440
7.800E-07,0.500
7.900E-07,0.380
8.000E-07,0.500
8.100E-07,0.420
8.200E-07,0.500
8.300E-07,0.540
8.400E-07,0.520
8.500E-07,0.560
8.600E-07,0.380
8.700E-07,0.280
8.800E-07,0.140
8.900E-07,0.020
9.000E-07,-0.020
9.100E-07,-0.120
9.200E-07,-0.100
9.300E-07,-0.140
9.400E-07,-0.200
9.500E-07,-0.260
9.600E-07,-0.340
9.700E-07,-0.360
9.800E-07,-0.500
9.900E-07,-0.340
1.000E-06,-0.360
1.010E-06,-0.340
1.020E-06,-0.360
1.030E-06,-0.360
1.040E-06,-0.340
1.050E-06,-0.300
1.060E-06,-0.180
1.070E-06,-0.160
1.080E-06,-0.200
1.090E-06,-0.260
1.100E-06,-0.280
1.110E-06,-0.240
1.120E-06,-0.200
1.130E-06,-0.120
1.140E-06,-0.040
1.150E-06,-0.040
1.160E-06,0.000
1.170E-06,-0.040
1.180E-06,0.060
1.190E-06,0.040
1.200E-06,0.080
1.210E-06,0.100
1.220E-06,0.040
1.230E-06,0.080
1.240E-06,0.000
1.250E-06,-0.040
1.260E-06,-0.140
1.270E-06,-0.260
1.280E-06,-0.240
1.290E-06,-0.300
1.300E-06,-0.300
1.310E-06,-0.320
1.320E-06,-0.380
1.330E-06,-0.460
1.340E-06,-0.600
1.350E-06,-0.700
1.360E-06,-0.860
1.370E-06,-0.900
1.380E-06,-1.000
1.390E-06,-1.020
1.400E-06,-1.060
1.410E-06,-1.160
1.420E-06,-1.200
1.430E-06,-1.200
1.440E-06,-1.140
1.450E-06,-1.120
1.460E-06,-1.100
1.470E-06,-1.080
1.480E-06,-1.040
1.490E-06,-1.020
1.500E-06,-0.960
1.510E-06,-1.000
1.520E-06,-1.080
1.530E-06,-0.980
1.540E-06,-0.860
1.550E-06,-1.040
1.560E-06,-0.960
1.570E-06,-0.660
1.580E-06,-0.680
1.590E-06,-0.420
1.600E-06,-0.460
1.610E-06,-0.340
1.620E-06,-0.320
1.630E-06,-0.520
1.640E-06,-0.380
1.650E-06,-0.480
1.660E-06,-0.400
1.670E-06,-0.340
1.680E-06,-0.220
1.690E-06,-0.040
1.700E-06,-0.020
1.710E-06,0.000
1.720E-06,-0.020
1.730E-06,-0.080
1.740E-06,-0.140
1.750E-06,-0.160
1.760E-06,-0.180
1.770E-06,-0.280
1.780E-06,-0.460
1.790E-06,-0.580
1.800E-06,-0.760
1.810E-06,-0.960
1.820E-06,-1.160
1.830E-06,-1.360
1.840E-06,-1.560
1.850E-06,-1.740
1.860E-06,-1.920
1.870E-06,-2.040
1.880E-06,-2.140
1.890E-06,-2.260
1.900E-06,-2.340
1.910E-06,-2.380
1.920E-06,-2.440
1.930E-06,-2.420
1.940E-06,-2.380
1.950E-06,-2.360
1.960E-06,-2.300
1.970E-06,-2.240
1.980E-06,-2.080
1.990E-06,-1.960
2.000E-06,-1.800
2.010E-06,-1.740
2.020E-06,-1.680
2.030E-06,-1.660
2.040E-06,-1.640
2.050E-06,-1.600
2.060E-06,-1.640
2.070E-06,-1.660
2.080E-06,-1.700
2.090E-06,-1.740
2.100E-06,-1.740
2.110E-06,-1.760
2.120E-06,-1.740
2.130E-06,-1.820
2.140E-06,-1.900
2.150E-06,-1.880
2.160E-06,-1.900
2.170E-06,-1.860
2.180E-06,-1.920
2.190E-06,-2.040
2.200E-06,-2.080
2.210E-06,-2.140
2.220E-06,-2.180
2.230E-06,-2.280
2.240E-06,-2.340
2.250E-06,-2.580
2.260E-06,-2.660
2.270E-06,-2.660
2.280E-06,-2.640
2.290E-06,-2.660
2.300E-06,-2.660
2.310E-06,-2.620
2.320E-06,-2.460
2.330E-06,-2.260
2.340E-06,-2.180
2.350E-06,-2.040
2.360E-06,-2.040
2.370E-06,-1.960
2.380E-06,-1.860
2.390E-06,-1.820
2.400E-06,-1.720
2.410E-06,-1.700
2.420E-06,-1.720
2.430E-06,-1.920
2.440E-06,-1.980
2.450E-06,-2.120
2.460E-06,-2.240
2.470E-06,-2.360
2.480E-06,-2.480
2.490E-06,-2.600
2.500E-06,-2.640
2.510E-06,-2.600
2.520E-06,-2.540
2.530E-06,-2.540
2.540E-06,-2.540
2.550E-06,-2.640
2.560E-06,-2.660
2.570E-06,-2.660
2.580E-06,-2.660
2.590E-06,-2.660
2.600E-06,-2.660
2.610E-06,-2.660
2.620E-06,-2.660
2.630E-06,-2.660
2.640E-06,-2.660
2.650E-06,-2.660
2.660E-06,-2.660
2.670E-06,-2.660
2.680E-06,-2.660
2.690E-06,-2.660
2.700E-06,-2.660
2.710E-06,-2.640
2.720E-06,-2.640
2.730E-06,-2.660
2.740E-06,-2.660
2.750E-06,-2.680
2.760E-06,-2.680
2.770E-06,-2.680
2.780E-06,-2.660
2.790E-06,-2.660
2.800E-06,-2.640
2.810E-06,-2.660
2.820E-06,-2.660
2.830E-06,-2.680
2.840E-06,-2.660
2.850E-06,-2.660
2.860E-06,-2.660
2.870E-06,-2.660
2.880E-06,-2.660
2.890E-06,-2.680
2.900E-06,-2.680
2.910E-06,-2.660
2.920E-06,-2.660
2.930E-06,-2.640
2.940E-06,-2.640
2.950E-06,-2.640
2.960E-06,-2.660
2.970E-06,-2.660
2.980E-06,-2.660
2.990E-06,-2.660
3.000E-06,-2.660
3.010E-06,-2.660
3.020E-06,-2.640
3.030E-06,-2.660
3.040E-06,-2.660
3.050E-06,-2.660
3.060E-06,-2.660
3.070E-06,-2.680
3.080E-06,-2.660
3.090E-06,-2.660
3.100E-06,-2.640
3.110E-06,-2.660
3.120E-06,-2.560
3.130E-06,-2.440
3.140E-06,-2.280
3.150E-06,-2.180
3.160E-06,-2.060
3.170E-06,-2.020
3.180E-06,-1.960
3.190E-06,-2.000
3.200E-06,-2.000
3.210E-06,-2.020
3.220E-06,-2.060
3.230E-06,-2.220
3.240E-06,-2.360
3.250E-06,-2.480
3.260E-06,-2.560
3.270E-06,-2.560
3.280E-06,-2.580
3.290E-06,-2.560
3.300E-06,-2.640
3.310E-06,-2.660
3.320E-06,-2.620
3.330E-06,-2.540
3.340E-06,-2.440
3.350E-06,-2.400
3.360E-06,-2.380
3.370E-06,-2.340
3.380E-06,-2.300
3.390E-06,-2.220
3.400E-06,-2.160
3.410E-06,-2.100
3.420E-06,-2.000
3.430E-06,-1.920
3.440E-06,-1.820
3.450E-06,-1.720
3.460E-06,-1.620
3.470E-06,-1.440
3.480E-06,-1.360
3.490E-06,-1.280
3.500E-06,-1.160
3.510E-06,-1.100
3.520E-06,-0.980
3.530E-06,-0.880
3.540E-06,-0.860
3.550E-06,-0.800
3.560E-06,-0.760
3.570E-06,-0.680
3.580E-06,-0.660
3.590E-06,-0.680
3.600E-06,-0.700
3.610E-06,-0.720
3.620E-06,-0.680
3.630E-06,-0.680
3.640E-06,-0.680
3.650E-06,-0.620
3.660E-06,-0.560
3.670E-06,-0.500
3.680E-06,-0.500
3.690E-06,-0.500
3.700E-06,-0.460
3.710E-06,-0.500
3.720E-06,-0.540
3.730E-06,-0.560
3.740E-06,-0.580
3.750E-06,-0.640
3.760E-06,-0.660
3.770E-06,-0.700
3.780E-06,-0.760
3.790E-06,-0.780
3.800E-06,-0.760
3.810E-06,-0.780
3.820E-06,-0.780
3.830E-06,-0.720
3.840E-06,-0.740
3.850E-06,-0.720
3.860E-06,-0.780
3.870E-06,-0.820
3.880E-06,-0.840
3.890E-06,-0.900
3.900E-06,-0.920
3.910E-06,-0.940
3.920E-06,-0.920
3.930E-06,-0.880
3.940E-06,-0.860
3.950E-06,-0.860
3.960E-06,-0.880
3.970E-06,-0.900
3.980E-06,-0.900
3.990E-06,-0.860
4.000E-06,-0.860
4.010E-06,-0.880
4.020E-06,-0.900
4.030E-06,-0.940
4.040E-06,-1.040
4.050E-06,-1.100
4.060E-06,-1.160
4.070E-06,-1.180
4.080E-06,-1.240
4.090E-06,-1.240
4.100E-06,-1.180
4.110E-06,-1.100
4.120E-06,-1.000
4.130E-06,-0.980
4.140E-06,-0.900
4.150E-06,-0.820
4.160E-06,-0.760
4.170E-06,-0.680
4.180E-06,-0.640
4.190E-06,-0.500
4.200E-06,-0.420
4.210E-06,-0.360
4.220E-06,-0.260
4.230E-06,-0.220
4.240E-06,-0.200
4.250E-06,-0.160
4.260E-06,-0.140
4.270E-06,-0.080
4.280E-06,-0.060
4.290E-06,-0.040
4.300E-06,-0.060
4.310E-06,-0.040
4.320E-06,-0.120
4.330E-06,-0.200
4.340E-06,-0.220
4.350E-06,-0.300
4.360E-06,-0.340
4.370E-06,-0.360
4.380E-06,-0.380
4.390E-06,-0.420
4.400E-06,-0.440
4.410E-06,-0.480
4.420E-06,-0.560
4.430E-06,-0.640
4.440E-06,-0.760
4.450E-06,-0.840
4.460E-06,-0.940
4.470E-06,-1.020
4.480E-06,-1.080
4.490E-06,-1.180
4.500E-06,-1.180
4.510E-06,-1.200
4.520E-06,-1.120
4.530E-06,-1.020
4.540E-06,-0.900
4.550E-06,-0.800
4.560E-06,-0.660
4.570E-06,-0.520
4.580E-06,-0.340
4.590E-06,-0.180
4.600E-06,-0.060
4.610E-06,0.080
4.620E-06,0.220
4.630E-06,0.340
4.640E-06,0.480
4.650E-06,0.600
4.660E-06,0.760
4.670E-06,0.840
4.680E-06,0.900
4.690E-06,0.940
4.700E-06,0.940
4.710E-06,0.880
4.720E-06,0.800
4.730E-06,0.740
4.740E-06,0.580
4.750E-06,0.480
4.760E-06,0.360
4.770E-06,0.320
4.780E-06,0.340
4.790E-06,0.320
4.800E-06,0.340
4.810E-06,0.360
4.820E-06,0.320
4.830E-06,0.280
4.840E-06,0.240
4.850E-06,0.120
4.860E-06,0.020
4.870E-06,-0.180
4.880E-06,-0.380
4.890E-06,-0.600
4.900E-06,-0.760
4.910E-06,-0.880
4.920E-06,-0.900
4.930E-06,-0.900
4.940E-06,-0.860
4.950E-06,-0.760
4.960E-06,-0.740
4.970E-06,-0.680
4.980E-06,-0.640
4.990E-06,-0.560
5.000E-06,-0.440
5.010E-06,-0.340
5.020E-06,-0.220
5.030E-06,-0.100
5.040E-06,0.020
5.050E-06,0.160
5.060E-06,0.280
5.070E-06,0.420
5.080E-06,0.480
5.090E-06,0.500
5.100E-06,0.580
5.110E-06,0.580
5.120E-06,0.640
5.130E-06,0.680
5.140E-06,0.780
5.150E-06,0.840
5.160E-06,0.940
5.170E-06,1.040
5.180E-06,1.180
5.190E-06,1.240
5.200E-06,1.340
5.210E-06,1.440
5.220E-06,1.520
5.230E-06,1.540
5.240E-06,1.520
5.250E-06,1.480
5.260E-06,1.420
5.270E-06,1.340
5.280E-06,1.260
5.290E-06,1.160
5.300E-06,1.060
5.310E-06,1.000
5.320E-06,0.940
5.330E-06,0.900
5.340E-06,0.860
5.350E-06,0.760
5.360E-06,0.680
5.370E-06,0.580
5.380E-06,0.480
5.390E-06,0.320
5.400E-06,0.240
5.410E-06,0.180
5.420E-06,0.160
5.430E-06,0.120
5.440E-06,0.140
5.450E-06,0.160
5.460E-06,0.220
5.470E-06,0.240
5.480E-06,0.280
5.490E-06,0.300
5.500E-06,0.320
5.510E-06,0.320
5.520E-06,0.320
5.530E-06,0.320
5.540E-06,0.320
5.550E-06,0.340
5.560E-06,0.340
5.570E-06,0.340
5.580E-06,0.360
5.590E-06,0.400
5.600E-06,0.420
5.610E-06,0.480
5.620E-06,0.520
5.630E-06,0.520
5.640E-06,0.600
5.650E-06,0.660
5.660E-06,0.780
5.670E-06,0.840
5.680E-06,0.920
5.690E-06,0.960
5.700E-06,1.000
5.710E-06,1.060
5.720E-06,1.100
5.730E-06,1.160
5.740E-06,1.140
5.750E-06,1.140
5.760E-06,1.120
5.770E-06,1.080
5.780E-06,1.020
5.790E-06,0.980
5.800E-06,0.840
5.810E-06,0.780
5.820E-06,0.680
5.830E-06,0.600
5.840E-06,0.560
5.850E-06,0.500
5.860E-06,0.520
5.870E-06,0.540
5.880E-06,0.580
5.890E-06,0.580
5.900E-06,0.620
5.910E-06,0.600
5.920E-06,0.620
5.930E-06,0.640
5.940E-06,0.640
5.950E-06,0.620
5.960E-06,0.620
5.970E-06,0.600
5.980E-06,0.600
5.990E-06,0.620
6.000E-06,0.700
6.010E-06,0.780
6.020E-06,0.820
6.030E-06,0.860
6.040E-06,0.900
6.050E-06,0.940
6.060E-06,1.020
6.070E-06,1.020
6.080E-06,1.100
6.090E-06,1.180
6.100E-06,1.240
6.110E-06,1.280
6.120E-06,1.320
6.130E-06,1.380
6.140E-06,1.460
6.150E-06,1.480
6.160E-06,1.480
6.170E-06,1.540
6.180E-06,1.480
6.190E-06,1.480
6.200E-06,1.420
6.210E-06,1.360
6.220E-06,1.260
6.230E-06,1.240
6.240E-06,1.200
6.250E-06,1.180
6.260E-06,1.140
6.270E-06,1.140
6.280E-06,1.160
6.290E-06,1.180
6.300E-06,1.180
6.310E-06,1.200
6.320E-06,1.240
6.330E-06,1.240
6.340E-06,1.260
6.350E-06,1.300
6.360E-06,1.320
6.370E-06,1.340
6.380E-06,1.360
6.390E-06,1.360
6.400E-06,1.360
6.410E-06,1.340
6.420E-06,1.340
6.430E-06,1.360
6.440E-06,1.280
6.450E-06,1.300
6.460E-06,1.300
6.470E-06,1.280
6.480E-06,1.280
6.490E-06,1.340
6.500E-06,1.360
6.510E-06,1.360
6.520E-06,1.420
6.530E-06,1.440
6.540E-06,1.480
6.550E-06,1.520
6.560E-06,1.540
6.570E-06,1.540
6.580E-06,1.540
6.590E-06,1.520
6.600E-06,1.520
6.610E-06,1.480
6.620E-06,1.500
6.630E-06,1.480
6.640E-06,1.480
6.650E-06,1.500
6.660E-06,1.520
6.670E-06,1.540
6.680E-06,1.540
6.690E-06,1.540
6.700E-06,1.560
6.710E-06,1.560
6.720E-06,1.560
6.730E-06,1.600
6.740E-06,1.620
6.750E-06,1.660
6.760E-06,1.660
6.770E-06,1.740
6.780E-06,1.820
6.790E-06,1.880
6.800E-06,1.920
6.810E-06,1.960
6.820E-06,2.040
6.830E-06,2.080
6.840E-06,2.120
6.850E-06,2.180
6.860E-06,2.200
6.870E-06,2.280
6.880E-06,2.400
6.890E-06,2.500
6.900E-06,2.660
6.910E-06,2.780
6.920E-06,2.760
6.930E-06,2.760
6.940E-06,2.760
6.950E-06,2.740
6.960E-06,2.760
6.970E-06,2.760
6.980E-06,2.760
6.990E-06,2.780
7.000E-06,2.760
7.010E-06,2.740
7.020E-06,2.760
7.030E-06,2.780
7.040E-06,2.760
7.050E-06,2.740
7.060E-06,2.760
7.070E-06,2.780
7.080E-06,2.760
7.090E-06,2.780
7.100E-06,2.780
7.110E-06,2.760
7.120E-06,2.760
7.130E-06,2.740
7.140E-06,2.760
7.150E-06,2.760
7.160E-06,2.760
7.170E-06,2.780
7.180E-06,2.760
7.190E-06,2.740
7.200E-06,2.760
7.210E-06,2.780
7.220E-06,2.760
7.230E-06,2.780
7.240E-06,2.760
7.250E-06,2.760
7.260E-06,2.760
7.270E-06,2.760
7.280E-06,2.740
7.290E-06,2.760
7.300E-06,2.760
7.310E-06,2.760
7.320E-06,2.760
7.330E-06,2.760
7.340E-06,2.740
7.350E-06,2.760
7.360E-06,2.780
7.370E-06,2.780
7.380E-06,2.760
7.390E-06,2.760
7.400E-06,2.760
7.410E-06,2.780
7.420E-06,2.760
7.430E-06,2.740
7.440E-06,2.760
7.450E-06,2.760
7.460E-06,2.760
7.470E-06,2.760
7.480E-06,2.760
7.490E-06,2.740
7.500E-06,2.760
7.510E-06,2.780
7.520E-06,2.760
7.530E-06,2.780
7.540E-06,2.760
7.550E-06,2.760
7.560E-06,2.740
7.570E-06,2.700
7.580E-06,2.700
7.590E-06,2.660
7.600E-06,2.640
7.610E-06,2.600
7.620E-06,2.580
7.630E-06,2.540
7.640E-06,2.520
7.650E-06,2.460
7.660E-06,2.420
7.670E-06,2.340
7.680E-06,2.280
7.690E-06,2.220
7.700E-06,2.160
7.710E-06,2.100
7.720E-06,2.080
7.730E-06,2.020
7.740E-06,2.000
7.750E-06,1.940
7.760E-06,1.860
7.770E-06,1.840
7.780E-06,1.780
7.790E-06,1.780
7.800E-06,1.700
7.810E-06,1.660
7.820E-06,1.620
7.830E-06,1.540
7.840E-06,1.520
7.850E-06,1.500
7.860E-06,1.480
7.870E-06,1.440
7.880E-06,1.400
7.890E-06,1.380
7.900E-06,1.380
7.910E-06,1.380
7.920E-06,1.380
7.930E-06,1.380
7.940E-06,1.420
7.950E-06,1.400
7.960E-06,1.380
7.970E-06,1.400
7.980E-06,1.400
7.990E-06,1.400
8.000E-06,1.360
8.010E-06,1.360
8.020E-06,1.340
8.030E-06,1.320
8.040E-06,1.280
8.050E-06,1.260
8.060E-06,1.260
8.070E-06,1.240
8.080E-06,1.200
8.090E-06,1.180
8.100E-06,1.200
8.110E-06,1.180
8.120E-06,1.140
8.130E-06,1.120
8.140E-06,1.140
8.150E-06,1.120
8.160E-06,1.120
8.170E-06,1.100
8.180E-06,1.100
8.190E-06,1.080
8.200E-06,1.060
8.210E-06,1.060
8.220E-06,1.060
8.230E-06,1.120
8.240E-06,1.100
8.250E-06,1.100
8.260E-06,1.140
8.270E-06,1.160
8.280E-06,1.140
8.290E-06,1.160
8.300E-06,1.120
8.310E-06,1.040
8.320E-06,1.000
8.330E-06,0.940
8.340E-06,0.900
8.350E-06,0.840
8.360E-06,0.800
8.370E-06,0.740
8.380E-06,0.700
8.390E-06,0.680
8.400E-06,0.640
8.410E-06,0.620
8.420E-06,0.620
8.430E-06,0.580
8.440E-06,0.600
8.450E-06,0.580
8.460E-06,0.520
8.470E-06,0.520
8.480E-06,0.500
8.490E-06,0.460
8.500E-06,0.440
8.510E-06,0.380
8.520E-06,0.380
8.530E-06,0.380
8.540E-06,0.320
8.550E-06,0.320
8.560E-06,0.320
8.570E-06,0.320
8.580E-06,0.340
8.590E-06,0.340
8.600E-06,0.340
8.610E-06,0.380
8.620E-06,0.400
8.630E-06,0.420
8.640E-06,0.460
8.650E-06,0.420
8.660E-06,0.400
8.670E-06,0.360
8.680E-06,0.360
8.690E-06,0.360
8.700E-06,0.320
8.710E-06,0.320
8.720E-06,0.320
8.730E-06,0.300
8.740E-06,0.300
8.750E-06,0.280
8.760E-06,0.260
8.770E-06,0.260
8.780E-06,0.260
8.790E-06,0.260
8.800E-06,0.220
8.810E-06,0.240
8.820E-06,0.180
8.830E-06,0.160
8.840E-06,0.120
8.850E-06,0.100
8.860E-06,0.100
8.870E-06,0.080
8.880E-06,0.000
8.890E-06,0.000
8.900E-06,0.000
8.910E-06,-0.020
8.920E-06,-0.020
8.930E-06,0.000
8.940E-06,0.040
8.950E-06,0.020
8.960E-06,0.020
8.970E-06,0.040
8.980E-06,0.000
8.990E-06,0.020
9.000E-06,0.040
9.010E-06,0.020
9.020E-06,0.000
9.030E-06,0.020
9.040E-06,0.040
9.050E-06,0.000
9.060E-06,0.000
9.070E-06,-0.020
9.080E-06,-0.060
9.090E-06,-0.040
9.100E-06,-0.100
9.110E-06,-0.120
9.120E-06,-0.160
9.130E-06,-0.220
9.140E-06,-0.260
9.150E-06,-0.260
9.160E-06,-0.340
9.170E-06,-0.340
9.180E-06,-0.320
9.190E-06,-0.300
9.200E-06,-0.320
9.210E-06,-0.280
9.220E-06,-0.280
9.230E-06,-0.260
9.240E-06,-0.260
9.250E-06,-0.260
9.260E-06,-0.280
9.270E-06,-0.280
9.280E-06,-0.320
9.290E-06,-0.260
9.300E-06,-0.300
9.310E-06,-0.320
9.320E-06,-0.320
9.330E-06,-0.320
9.340E-06,-0.320
9.350E-06,-0.320
9.360E-06,-0.320
9.370E-06,-0.300
9.380E-06,-0.300
9.390E-06,-0.280
9.400E-06,-0.280
9.410E-06,-0.260
9.420E-06,-0.280
9.430E-06,-0.280
9.440E-06,-0.300
9.450E-06,-0.340
9.460E-06,-0.340
9.470E-06,-0.340
9.480E-06,-0.360
9.490E-06,-0.360
9.500E-06,-0.360
9.510E-06,-0.400
9.520E-06,-0.380
9.530E-06,-0.360
9.540E-06,-0.380
9.550E-06,-0.380
9.560E-06,-0.420
9.570E-06,-0.400
9.580E-06,-0.420
9.590E-06,-0.480
9.600E-06,-0.440
9.610E-06,-0.460
9.620E-06,-0.500
9.630E-06,-0.480
9.640E-06,-0.440
9.650E-06,-0.460
9.660E-06,-0.480
9.670E-06,-0.480
9.680E-06,-0.460
9.690E-06,-0.500
9.700E-06,-0.500
