mediciones/Mediciones filtradas (saque las feas)/6-3/-7.5/WaveData5366.csv

#timebase=2000000(ps)
,#voltbase=100000(mv/100)
#size=4000
-2.300E-06,0.032
-2.290E-06,0.044
-2.280E-06,0.076
-2.270E-06,0.124
-2.260E-06,0.112
-2.250E-06,0.120
-2.240E-06,0.020
-2.230E-06,-0.064
-2.220E-06,-0.096
-2.210E-06,-0.060
-2.200E-06,-0.060
-2.190E-06,0.020
-2.180E-06,0.048
-2.170E-06,0.096
-2.160E-06,-0.068
-2.150E-06,-0.068
-2.140E-06,-0.260
-2.130E-06,-0.188
-2.120E-06,-0.152
-2.110E-06,-0.132
-2.100E-06,-0.028
-2.090E-06,0.060
-2.080E-06,0.044
-2.070E-06,-0.296
-2.060E-06,-0.272
-2.050E-06,-0.276
-2.040E-06,0.012
-2.030E-06,0.132
-2.020E-06,0.272
-2.010E-06,0.180
-2.000E-06,-0.008
-1.990E-06,-0.144
-1.980E-06,-0.244
-1.970E-06,-0.140
-1.960E-06,-0.148
-1.950E-06,-0.004
-1.940E-06,0.004
-1.930E-06,0.092
-1.920E-06,0.000
-1.910E-06,-0.092
-1.900E-06,-0.068
-1.890E-06,-0.036
-1.880E-06,0.040
-1.870E-06,0.052
-1.860E-06,0.052
-1.850E-06,0.012
-1.840E-06,-0.004
-1.830E-06,-0.024
-1.820E-06,-0.024
-1.810E-06,-0.020
-1.800E-06,0.024
-1.790E-06,0.052
-1.780E-06,0.060
-1.770E-06,0.036
-1.760E-06,0.008
-1.750E-06,-0.004
-1.740E-06,-0.004
-1.730E-06,0.044
-1.720E-06,0.068
-1.710E-06,0.096
-1.700E-06,0.052
-1.690E-06,0.036
-1.680E-06,0.008
-1.670E-06,0.000
-1.660E-06,0.008
-1.650E-06,0.032
-1.640E-06,0.076
-1.630E-06,0.072
-1.620E-06,0.084
-1.610E-06,0.096
-1.600E-06,0.100
-1.590E-06,0.092
-1.580E-06,0.108
-1.570E-06,0.140
-1.560E-06,0.156
-1.550E-06,0.144
-1.540E-06,0.124
-1.530E-06,0.128
-1.520E-06,0.100
-1.510E-06,0.080
-1.500E-06,0.084
-1.490E-06,0.080
-1.480E-06,0.072
-1.470E-06,0.096
-1.460E-06,0.124
-1.450E-06,0.128
-1.440E-06,0.088
-1.430E-06,0.072
-1.420E-06,0.072
-1.410E-06,0.088
-1.400E-06,0.096
-1.390E-06,0.024
-1.380E-06,0.044
-1.370E-06,0.180
-1.360E-06,0.208
-1.350E-06,0.232
-1.340E-06,0.144
-1.330E-06,0.036
-1.320E-06,0.044
-1.310E-06,-0.056
-1.300E-06,-0.120
-1.290E-06,-0.140
-1.280E-06,-0.272
-1.270E-06,-0.064
-1.260E-06,-0.396
-1.250E-06,-0.268
-1.240E-06,-0.336
-1.230E-06,0.040
-1.220E-06,-0.188
-1.210E-06,-0.272
-1.200E-06,-0.464
-1.190E-06,-0.036
-1.180E-06,-0.044
-1.170E-06,-0.268
-1.160E-06,0.028
-1.150E-06,0.020
-1.140E-06,0.120
-1.130E-06,0.008
-1.120E-06,0.052
-1.110E-06,-0.028
-1.100E-06,-0.108
-1.090E-06,0.004
-1.080E-06,0.048
-1.070E-06,0.084
-1.060E-06,0.020
-1.050E-06,-0.028
-1.040E-06,-0.124
-1.030E-06,-0.060
-1.020E-06,-0.056
-1.010E-06,0.076
-1.000E-06,0.072
-9.900E-07,0.064
-9.800E-07,0.060
-9.700E-07,0.040
-9.600E-07,0.024
-9.500E-07,-0.016
-9.400E-07,0.024
-9.300E-07,0.020
-9.200E-07,0.068
-9.100E-07,-0.004
-9.000E-07,0.044
-8.900E-07,0.012
-8.800E-07,0.008
-8.700E-07,0.064
-8.600E-07,0.084
-8.500E-07,0.112
-8.400E-07,0.128
-8.300E-07,0.172
-8.200E-07,0.172
-8.100E-07,0.124
-8.000E-07,0.056
-7.900E-07,0.068
-7.800E-07,0.064
-7.700E-07,0.100
-7.600E-07,0.136
-7.500E-07,0.160
-7.400E-07,0.156
-7.300E-07,0.144
-7.200E-07,0.116
-7.100E-07,0.104
-7.000E-07,0.112
-6.900E-07,0.136
-6.800E-07,0.160
-6.700E-07,0.156
-6.600E-07,0.140
-6.500E-07,0.132
-6.400E-07,0.128
-6.300E-07,0.100
-6.200E-07,0.100
-6.100E-07,0.092
-6.000E-07,0.096
-5.900E-07,0.064
-5.800E-07,0.064
-5.700E-07,0.044
-5.600E-07,0.064
-5.500E-07,0.076
-5.400E-07,0.092
-5.300E-07,0.096
-5.200E-07,0.076
-5.100E-07,0.092
-5.000E-07,0.100
-4.900E-07,0.136
-4.800E-07,0.148
-4.700E-07,0.136
-4.600E-07,0.176
-4.500E-07,0.176
-4.400E-07,0.156
-4.300E-07,0.136
-4.200E-07,0.140
-4.100E-07,0.092
-4.000E-07,0.132
-3.900E-07,0.124
-3.800E-07,0.144
-3.700E-07,0.128
-3.600E-07,0.128
-3.500E-07,0.148
-3.400E-07,0.124
-3.300E-07,0.128
-3.200E-07,0.104
-3.100E-07,0.112
-3.000E-07,0.128
-2.900E-07,0.164
-2.800E-07,0.160
-2.700E-07,0.164
-2.600E-07,0.152
-2.500E-07,0.140
-2.400E-07,0.112
-2.300E-07,0.120
-2.200E-07,0.096
-2.100E-07,0.084
-2.000E-07,0.060
-1.900E-07,0.056
-1.800E-07,0.108
-1.700E-07,0.132
-1.600E-07,0.220
-1.500E-07,0.208
-1.400E-07,0.228
-1.300E-07,0.160
-1.200E-07,0.108
-1.100E-07,0.108
-1.000E-07,0.096
-9.000E-08,0.108
-8.000E-08,-0.056
-7.000E-08,-0.232
-6.000E-08,-0.480
-5.000E-08,-0.512
-4.000E-08,-0.512
-3.000E-08,-0.512
-2.000E-08,-0.508
-1.000E-08,-0.324
0.000E+00,0.320
1.000E-08,0.384
2.000E-08,0.368
3.000E-08,0.084
4.000E-08,-0.032
5.000E-08,-0.204
6.000E-08,-0.040
7.000E-08,0.296
8.000E-08,0.272
9.000E-08,0.392
1.000E-07,0.308
1.100E-07,0.200
1.200E-07,0.012
1.300E-07,0.048
1.400E-07,-0.020
1.500E-07,0.220
1.600E-07,0.244
1.700E-07,0.316
1.800E-07,0.220
1.900E-07,0.172
2.000E-07,0.072
2.100E-07,0.044
2.200E-07,0.076
2.300E-07,0.108
2.400E-07,0.240
2.500E-07,0.256
2.600E-07,0.280
2.700E-07,0.208
2.800E-07,0.160
2.900E-07,0.076
3.000E-07,0.104
3.100E-07,0.140
3.200E-07,0.196
3.300E-07,0.224
3.400E-07,0.208
3.500E-07,0.188
3.600E-07,0.136
3.700E-07,0.120
3.800E-07,0.108
3.900E-07,0.156
4.000E-07,0.184
4.100E-07,0.220
4.200E-07,0.216
4.300E-07,0.196
4.400E-07,0.152
4.500E-07,0.120
4.600E-07,0.108
4.700E-07,0.120
4.800E-07,0.140
4.900E-07,0.176
5.000E-07,0.200
5.100E-07,0.196
5.200E-07,0.168
5.300E-07,0.144
5.400E-07,0.128
5.500E-07,0.132
5.600E-07,0.144
5.700E-07,0.180
5.800E-07,0.188
5.900E-07,0.196
6.000E-07,0.172
6.100E-07,0.160
6.200E-07,0.148
6.300E-07,0.148
6.400E-07,0.164
6.500E-07,0.184
6.600E-07,0.192
6.700E-07,0.184
6.800E-07,0.176
6.900E-07,0.156
7.000E-07,0.144
7.100E-07,0.144
7.200E-07,0.156
7.300E-07,0.164
7.400E-07,0.176
7.500E-07,0.188
7.600E-07,0.176
7.700E-07,0.172
7.800E-07,0.164
7.900E-07,0.172
8.000E-07,0.168
8.100E-07,0.176
8.200E-07,0.176
8.300E-07,0.176
8.400E-07,0.168
8.500E-07,0.160
8.600E-07,0.156
8.700E-07,0.148
8.800E-07,0.156
8.900E-07,0.160
9.000E-07,0.168
9.100E-07,0.168
9.200E-07,0.164
9.300E-07,0.160
9.400E-07,0.156
9.500E-07,0.160
9.600E-07,0.168
9.700E-07,0.176
9.800E-07,0.176
9.900E-07,0.172
1.000E-06,0.164
1.010E-06,0.156
1.020E-06,0.160
1.030E-06,0.152
1.040E-06,0.160
1.050E-06,0.160
1.060E-06,0.164
1.070E-06,0.168
1.080E-06,0.160
1.090E-06,0.156
1.100E-06,0.156
1.110E-06,0.160
1.120E-06,0.156
1.130E-06,0.160
1.140E-06,0.164
1.150E-06,0.168
1.160E-06,0.160
1.170E-06,0.164
1.180E-06,0.152
1.190E-06,0.156
1.200E-06,0.160
1.210E-06,0.156
1.220E-06,0.164
1.230E-06,0.160
1.240E-06,0.160
1.250E-06,0.160
1.260E-06,0.160
1.270E-06,0.152
1.280E-06,0.156
1.290E-06,0.156
1.300E-06,0.160
1.310E-06,0.160
1.320E-06,0.156
1.330E-06,0.152
1.340E-06,0.156
1.350E-06,0.156
1.360E-06,0.144
1.370E-06,0.152
1.380E-06,0.152
1.390E-06,0.152
1.400E-06,0.148
1.410E-06,0.152
1.420E-06,0.152
1.430E-06,0.152
1.440E-06,0.152
1.450E-06,0.152
1.460E-06,0.152
1.470E-06,0.152
1.480E-06,0.152
1.490E-06,0.148
1.500E-06,0.152
1.510E-06,0.148
1.520E-06,0.148
1.530E-06,0.144
1.540E-06,0.140
1.550E-06,0.144
1.560E-06,0.144
1.570E-06,0.144
1.580E-06,0.144
1.590E-06,0.140
1.600E-06,0.144
1.610E-06,0.144
1.620E-06,0.140
1.630E-06,0.148
1.640E-06,0.152
1.650E-06,0.144
1.660E-06,0.152
1.670E-06,0.152
1.680E-06,0.148
1.690E-06,0.144
1.700E-06,0.144
1.710E-06,0.144
1.720E-06,0.148
1.730E-06,0.144
1.740E-06,0.144
1.750E-06,0.140
1.760E-06,0.136
1.770E-06,0.136
1.780E-06,0.144
1.790E-06,0.148
1.800E-06,0.140
1.810E-06,0.140
1.820E-06,0.140
1.830E-06,0.140
1.840E-06,0.140
1.850E-06,0.140
1.860E-06,0.136
1.870E-06,0.136
1.880E-06,0.140
1.890E-06,0.136
1.900E-06,0.132
1.910E-06,0.136
1.920E-06,0.136
1.930E-06,0.144
1.940E-06,0.148
1.950E-06,0.152
1.960E-06,0.144
1.970E-06,0.144
1.980E-06,0.144
1.990E-06,0.136
2.000E-06,0.132
2.010E-06,0.128
2.020E-06,0.140
2.030E-06,0.144
2.040E-06,0.140
2.050E-06,0.132
2.060E-06,0.128
2.070E-06,0.124
2.080E-06,0.124
2.090E-06,0.128
2.100E-06,0.136
2.110E-06,0.140
2.120E-06,0.140
2.130E-06,0.136
2.140E-06,0.132
2.150E-06,0.132
2.160E-06,0.124
2.170E-06,0.128
2.180E-06,0.124
2.190E-06,0.132
2.200E-06,0.132
2.210E-06,0.136
2.220E-06,0.128
2.230E-06,0.128
2.240E-06,0.128
2.250E-06,0.128
2.260E-06,0.128
2.270E-06,0.132
2.280E-06,0.136
2.290E-06,0.132
2.300E-06,0.128
2.310E-06,0.124
2.320E-06,0.124
2.330E-06,0.120
2.340E-06,0.128
2.350E-06,0.124
2.360E-06,0.124
2.370E-06,0.124
2.380E-06,0.124
2.390E-06,0.124
2.400E-06,0.120
2.410E-06,0.120
2.420E-06,0.124
2.430E-06,0.128
2.440E-06,0.128
2.450E-06,0.120
2.460E-06,0.124
2.470E-06,0.124
2.480E-06,0.124
2.490E-06,0.112
2.500E-06,0.120
2.510E-06,0.112
2.520E-06,0.112
2.530E-06,0.112
2.540E-06,0.112
2.550E-06,0.108
2.560E-06,0.108
2.570E-06,0.108
2.580E-06,0.108
2.590E-06,0.108
2.600E-06,0.108
2.610E-06,0.108
2.620E-06,0.112
2.630E-06,0.108
2.640E-06,0.112
2.650E-06,0.112
2.660E-06,0.104
2.670E-06,0.108
2.680E-06,0.104
2.690E-06,0.104
2.700E-06,0.108
2.710E-06,0.108
2.720E-06,0.104
2.730E-06,0.104
2.740E-06,0.108
2.750E-06,0.108
2.760E-06,0.108
2.770E-06,0.108
2.780E-06,0.108
2.790E-06,0.108
2.800E-06,0.104
2.810E-06,0.096
2.820E-06,0.096
2.830E-06,0.104
2.840E-06,0.100
2.850E-06,0.096
2.860E-06,0.104
2.870E-06,0.104
2.880E-06,0.096
2.890E-06,0.096
2.900E-06,0.100
2.910E-06,0.104
2.920E-06,0.104
2.930E-06,0.100
2.940E-06,0.104
2.950E-06,0.100
2.960E-06,0.104
2.970E-06,0.096
2.980E-06,0.096
2.990E-06,0.096
3.000E-06,0.096
3.010E-06,0.100
3.020E-06,0.092
3.030E-06,0.100
3.040E-06,0.096
3.050E-06,0.092
3.060E-06,0.096
3.070E-06,0.096
3.080E-06,0.096
3.090E-06,0.096
3.100E-06,0.096
3.110E-06,0.096
3.120E-06,0.096
3.130E-06,0.092
3.140E-06,0.096
3.150E-06,0.092
3.160E-06,0.092
3.170E-06,0.088
3.180E-06,0.096
3.190E-06,0.092
3.200E-06,0.092
3.210E-06,0.092
3.220E-06,0.092
3.230E-06,0.088
3.240E-06,0.088
3.250E-06,0.088
3.260E-06,0.088
3.270E-06,0.092
3.280E-06,0.088
3.290E-06,0.092
3.300E-06,0.092
3.310E-06,0.088
3.320E-06,0.092
3.330E-06,0.092
3.340E-06,0.092
3.350E-06,0.092
3.360E-06,0.092
3.370E-06,0.088
3.380E-06,0.080
3.390E-06,0.072
3.400E-06,0.068
3.410E-06,0.068
3.420E-06,0.068
3.430E-06,0.076
3.440E-06,0.088
3.450E-06,0.092
3.460E-06,0.088
3.470E-06,0.088
3.480E-06,0.076
3.490E-06,0.084
3.500E-06,0.088
3.510E-06,0.092
3.520E-06,0.092
3.530E-06,0.088
3.540E-06,0.080
3.550E-06,0.076
3.560E-06,0.068
3.570E-06,0.072
3.580E-06,0.068
3.590E-06,0.072
3.600E-06,0.080
3.610E-06,0.080
3.620E-06,0.088
3.630E-06,0.080
3.640E-06,0.084
3.650E-06,0.080
3.660E-06,0.080
3.670E-06,0.076
3.680E-06,0.076
3.690E-06,0.080
3.700E-06,0.076
3.710E-06,0.072
3.720E-06,0.072
3.730E-06,0.064
3.740E-06,0.064
3.750E-06,0.064
3.760E-06,0.068
3.770E-06,0.072
3.780E-06,0.076
3.790E-06,0.084
3.800E-06,0.084
3.810E-06,0.076
3.820E-06,0.072
3.830E-06,0.072
3.840E-06,0.068
3.850E-06,0.064
3.860E-06,0.072
3.870E-06,0.068
3.880E-06,0.064
3.890E-06,0.060
3.900E-06,0.060
3.910E-06,0.064
3.920E-06,0.064
3.930E-06,0.060
3.940E-06,0.064
3.950E-06,0.068
3.960E-06,0.068
3.970E-06,0.064
3.980E-06,0.068
3.990E-06,0.060
4.000E-06,0.060
4.010E-06,0.064
4.020E-06,0.064
4.030E-06,0.068
4.040E-06,0.060
4.050E-06,0.064
4.060E-06,0.060
4.070E-06,0.060
4.080E-06,0.056
4.090E-06,0.060
4.100E-06,0.056
4.110E-06,0.060
4.120E-06,0.060
4.130E-06,0.056
4.140E-06,0.056
4.150E-06,0.064
4.160E-06,0.060
4.170E-06,0.060
4.180E-06,0.056
4.190E-06,0.056
4.200E-06,0.060
4.210E-06,0.060
4.220E-06,0.056
4.230E-06,0.060
4.240E-06,0.060
4.250E-06,0.056
4.260E-06,0.056
4.270E-06,0.060
4.280E-06,0.060
4.290E-06,0.052
4.300E-06,0.060
4.310E-06,0.056
4.320E-06,0.060
4.330E-06,0.056
4.340E-06,0.056
4.350E-06,0.052
4.360E-06,0.052
4.370E-06,0.048
4.380E-06,0.048
4.390E-06,0.056
4.400E-06,0.056
4.410E-06,0.052
4.420E-06,0.052
4.430E-06,0.052
4.440E-06,0.052
4.450E-06,0.048
4.460E-06,0.056
4.470E-06,0.052
4.480E-06,0.052
4.490E-06,0.052
4.500E-06,0.056
4.510E-06,0.056
4.520E-06,0.048
4.530E-06,0.052
4.540E-06,0.056
4.550E-06,0.056
4.560E-06,0.056
4.570E-06,0.060
4.580E-06,0.056
4.590E-06,0.056
4.600E-06,0.052
4.610E-06,0.052
4.620E-06,0.052
4.630E-06,0.056
4.640E-06,0.056
4.650E-06,0.056
4.660E-06,0.052
4.670E-06,0.052
4.680E-06,0.044
4.690E-06,0.048
4.700E-06,0.044
4.710E-06,0.052
4.720E-06,0.044
4.730E-06,0.040
4.740E-06,0.044
4.750E-06,0.044
4.760E-06,0.040
4.770E-06,0.040
4.780E-06,0.044
4.790E-06,0.040
4.800E-06,0.036
4.810E-06,0.036
4.820E-06,0.032
4.830E-06,0.028
4.840E-06,0.036
4.850E-06,0.036
4.860E-06,0.032
4.870E-06,0.036
4.880E-06,0.036
4.890E-06,0.032
4.900E-06,0.028
4.910E-06,-0.004
4.920E-06,-0.052
4.930E-06,-0.096
4.940E-06,-0.108
4.950E-06,-0.076
4.960E-06,0.004
4.970E-06,0.112
4.980E-06,0.168
4.990E-06,0.152
5.000E-06,0.076
5.010E-06,0.008
5.020E-06,-0.028
5.030E-06,-0.008
5.040E-06,0.056
5.050E-06,0.128
5.060E-06,0.144
5.070E-06,0.108
5.080E-06,0.036
5.090E-06,-0.032
5.100E-06,-0.064
5.110E-06,-0.040
5.120E-06,0.020
5.130E-06,0.088
5.140E-06,0.136
5.150E-06,0.136
5.160E-06,0.088
5.170E-06,0.004
5.180E-06,-0.060
5.190E-06,-0.080
5.200E-06,-0.040
5.210E-06,0.028
5.220E-06,0.092
5.230E-06,0.128
5.240E-06,0.100
5.250E-06,0.044
5.260E-06,-0.012
5.270E-06,-0.036
5.280E-06,-0.032
5.290E-06,0.008
5.300E-06,0.044
5.310E-06,0.072
5.320E-06,0.068
5.330E-06,0.040
5.340E-06,0.008
5.350E-06,-0.012
5.360E-06,-0.008
5.370E-06,0.008
5.380E-06,0.036
5.390E-06,0.060
5.400E-06,0.060
5.410E-06,0.040
5.420E-06,0.012
5.430E-06,-0.004
5.440E-06,-0.008
5.450E-06,-0.004
5.460E-06,0.020
5.470E-06,0.036
5.480E-06,0.040
5.490E-06,0.040
5.500E-06,0.028
5.510E-06,0.008
5.520E-06,0.004
5.530E-06,0.004
5.540E-06,0.012
5.550E-06,0.020
5.560E-06,0.024
5.570E-06,0.024
5.580E-06,0.024
5.590E-06,0.016
5.600E-06,0.008
5.610E-06,0.012
5.620E-06,0.012
5.630E-06,0.020
5.640E-06,0.028
5.650E-06,0.028
5.660E-06,0.024
5.670E-06,0.016
5.680E-06,0.012
5.690E-06,0.000
5.700E-06,0.008
5.710E-06,0.012
5.720E-06,0.016
5.730E-06,0.024
5.740E-06,0.024
5.750E-06,0.020
5.760E-06,0.016
5.770E-06,0.012
5.780E-06,0.012
5.790E-06,0.012
5.800E-06,0.012
5.810E-06,0.012
5.820E-06,0.016
5.830E-06,0.016
5.840E-06,0.008
5.850E-06,0.008
5.860E-06,0.012
5.870E-06,0.008
5.880E-06,0.012
5.890E-06,0.008
5.900E-06,0.012
5.910E-06,0.012
5.920E-06,0.008
5.930E-06,0.008
5.940E-06,0.012
5.950E-06,0.004
5.960E-06,0.012
5.970E-06,0.012
5.980E-06,0.012
5.990E-06,0.012
6.000E-06,0.016
6.010E-06,0.008
6.020E-06,0.008
6.030E-06,0.008
6.040E-06,0.012
6.050E-06,0.004
6.060E-06,0.004
6.070E-06,0.008
6.080E-06,0.008
6.090E-06,0.008
6.100E-06,0.008
6.110E-06,0.012
6.120E-06,0.008
6.130E-06,0.012
6.140E-06,0.008
6.150E-06,0.012
6.160E-06,0.012
6.170E-06,0.012
6.180E-06,0.004
6.190E-06,0.008
6.200E-06,0.004
6.210E-06,0.008
6.220E-06,0.008
6.230E-06,0.008
6.240E-06,0.004
6.250E-06,0.004
6.260E-06,0.004
6.270E-06,0.004
6.280E-06,0.008
6.290E-06,0.008
6.300E-06,0.008
6.310E-06,-0.004
6.320E-06,0.000
6.330E-06,0.004
6.340E-06,0.004
6.350E-06,0.004
6.360E-06,0.000
6.370E-06,0.004
6.380E-06,0.004
6.390E-06,0.004
6.400E-06,0.000
6.410E-06,0.004
6.420E-06,0.000
6.430E-06,0.000
6.440E-06,0.000
6.450E-06,0.000
6.460E-06,0.000
6.470E-06,0.000
6.480E-06,0.000
6.490E-06,0.000
6.500E-06,0.000
6.510E-06,0.000
6.520E-06,0.000
6.530E-06,0.000
6.540E-06,0.000
6.550E-06,0.000
6.560E-06,0.000
6.570E-06,-0.004
6.580E-06,0.000
6.590E-06,-0.004
6.600E-06,-0.004
6.610E-06,-0.004
6.620E-06,-0.004
6.630E-06,0.000
6.640E-06,-0.004
6.650E-06,-0.008
6.660E-06,-0.008
6.670E-06,0.000
6.680E-06,0.000
6.690E-06,-0.004
6.700E-06,0.000
6.710E-06,-0.004
6.720E-06,-0.004
6.730E-06,-0.004
6.740E-06,-0.004
6.750E-06,-0.004
6.760E-06,-0.004
6.770E-06,-0.004
6.780E-06,-0.004
6.790E-06,-0.008
6.800E-06,-0.004
6.810E-06,-0.008
6.820E-06,0.000
6.830E-06,-0.004
6.840E-06,-0.012
6.850E-06,-0.008
6.860E-06,-0.004
6.870E-06,-0.008
6.880E-06,-0.008
6.890E-06,-0.008
6.900E-06,-0.008
6.910E-06,-0.008
6.920E-06,-0.008
6.930E-06,-0.008
6.940E-06,-0.008
6.950E-06,-0.012
6.960E-06,-0.008
6.970E-06,-0.008
6.980E-06,-0.008
6.990E-06,-0.008
7.000E-06,-0.004
7.010E-06,-0.008
7.020E-06,-0.012
7.030E-06,-0.004
7.040E-06,-0.004
7.050E-06,-0.008
7.060E-06,-0.004
7.070E-06,-0.004
7.080E-06,-0.008
7.090E-06,-0.004
7.100E-06,-0.008
7.110E-06,-0.008
7.120E-06,-0.012
7.130E-06,-0.012
7.140E-06,-0.008
7.150E-06,-0.012
7.160E-06,-0.016
7.170E-06,-0.008
7.180E-06,-0.012
7.190E-06,-0.012
7.200E-06,-0.012
7.210E-06,-0.008
7.220E-06,-0.008
7.230E-06,-0.012
7.240E-06,-0.012
7.250E-06,-0.012
7.260E-06,-0.012
7.270E-06,-0.012
7.280E-06,-0.012
7.290E-06,-0.012
7.300E-06,-0.012
7.310E-06,-0.012
7.320E-06,-0.012
7.330E-06,-0.016
7.340E-06,-0.020
7.350E-06,-0.012
7.360E-06,-0.020
7.370E-06,-0.024
7.380E-06,-0.020
7.390E-06,-0.024
7.400E-06,-0.024
7.410E-06,-0.020
7.420E-06,-0.020
7.430E-06,-0.024
7.440E-06,-0.016
7.450E-06,-0.016
7.460E-06,-0.016
7.470E-06,-0.016
7.480E-06,-0.016
7.490E-06,-0.020
7.500E-06,-0.024
7.510E-06,-0.020
7.520E-06,-0.024
7.530E-06,-0.016
7.540E-06,-0.020
7.550E-06,-0.024
7.560E-06,-0.020
7.570E-06,-0.020
7.580E-06,-0.020
7.590E-06,-0.020
7.600E-06,-0.020
7.610E-06,-0.020
7.620E-06,-0.024
7.630E-06,-0.020
7.640E-06,-0.020
7.650E-06,-0.020
7.660E-06,-0.024
7.670E-06,-0.020
7.680E-06,-0.020
7.690E-06,-0.020
7.700E-06,-0.020
7.710E-06,-0.016
7.720E-06,-0.024
7.730E-06,-0.020
7.740E-06,-0.020
7.750E-06,-0.016
7.760E-06,-0.024
7.770E-06,-0.028
7.780E-06,-0.020
7.790E-06,-0.020
7.800E-06,-0.024
7.810E-06,-0.028
7.820E-06,-0.028
7.830E-06,-0.020
7.840E-06,-0.024
7.850E-06,-0.024
7.860E-06,-0.024
7.870E-06,-0.028
7.880E-06,-0.024
7.890E-06,-0.020
7.900E-06,-0.024
7.910E-06,-0.028
7.920E-06,-0.032
7.930E-06,-0.020
7.940E-06,-0.024
7.950E-06,-0.032
7.960E-06,-0.028
7.970E-06,-0.020
7.980E-06,-0.024
7.990E-06,-0.028
8.000E-06,-0.028
8.010E-06,-0.028
8.020E-06,-0.028
8.030E-06,-0.028
8.040E-06,-0.028
8.050E-06,-0.032
8.060E-06,-0.028
8.070E-06,-0.032
8.080E-06,-0.032
8.090E-06,-0.032
8.100E-06,-0.032
8.110E-06,-0.024
8.120E-06,-0.032
8.130E-06,-0.036
8.140E-06,-0.028
8.150E-06,-0.028
8.160E-06,-0.032
8.170E-06,-0.028
8.180E-06,-0.024
8.190E-06,-0.024
8.200E-06,-0.032
8.210E-06,-0.028
8.220E-06,-0.024
8.230E-06,-0.032
8.240E-06,-0.032
8.250E-06,-0.036
8.260E-06,-0.028
8.270E-06,-0.032
8.280E-06,-0.036
8.290E-06,-0.032
8.300E-06,-0.028
8.310E-06,-0.032
8.320E-06,-0.032
8.330E-06,-0.032
8.340E-06,-0.032
8.350E-06,-0.036
8.360E-06,-0.032
8.370E-06,-0.036
8.380E-06,-0.036
8.390E-06,-0.032
8.400E-06,-0.036
8.410E-06,-0.036
8.420E-06,-0.036
8.430E-06,-0.036
8.440E-06,-0.032
8.450E-06,-0.036
8.460E-06,-0.036
8.470E-06,-0.036
8.480E-06,-0.036
8.490E-06,-0.040
8.500E-06,-0.036
8.510E-06,-0.036
8.520E-06,-0.036
8.530E-06,-0.036
8.540E-06,-0.032
8.550E-06,-0.036
8.560E-06,-0.036
8.570E-06,-0.032
8.580E-06,-0.036
8.590E-06,-0.040
8.600E-06,-0.036
8.610E-06,-0.036
8.620E-06,-0.036
8.630E-06,-0.036
8.640E-06,-0.036
8.650E-06,-0.036
8.660E-06,-0.036
8.670E-06,-0.040
8.680E-06,-0.040
8.690E-06,-0.036
8.700E-06,-0.040
8.710E-06,-0.040
8.720E-06,-0.036
8.730E-06,-0.040
8.740E-06,-0.040
8.750E-06,-0.044
8.760E-06,-0.040
8.770E-06,-0.040
8.780E-06,-0.040
8.790E-06,-0.040
8.800E-06,-0.036
8.810E-06,-0.044
8.820E-06,-0.040
8.830E-06,-0.040
8.840E-06,-0.044
8.850E-06,-0.036
8.860E-06,-0.040
8.870E-06,-0.036
8.880E-06,-0.040
8.890E-06,-0.040
8.900E-06,-0.040
8.910E-06,-0.036
8.920E-06,-0.040
8.930E-06,-0.036
8.940E-06,-0.036
8.950E-06,-0.040
8.960E-06,-0.044
8.970E-06,-0.040
8.980E-06,-0.044
8.990E-06,-0.040
9.000E-06,-0.036
9.010E-06,-0.040
9.020E-06,-0.044
9.030E-06,-0.044
9.040E-06,-0.040
9.050E-06,-0.044
9.060E-06,-0.040
9.070E-06,-0.044
9.080E-06,-0.044
9.090E-06,-0.040
9.100E-06,-0.036
9.110E-06,-0.036
9.120E-06,-0.040
9.130E-06,-0.040
9.140E-06,-0.044
9.150E-06,-0.040
9.160E-06,-0.040
9.170E-06,-0.040
9.180E-06,-0.040
9.190E-06,-0.036
9.200E-06,-0.040
9.210E-06,-0.044
9.220E-06,-0.040
9.230E-06,-0.040
9.240E-06,-0.040
9.250E-06,-0.036
9.260E-06,-0.040
9.270E-06,-0.040
9.280E-06,-0.048
9.290E-06,-0.044
9.300E-06,-0.044
9.310E-06,-0.036
9.320E-06,-0.044
9.330E-06,-0.048
9.340E-06,-0.044
9.350E-06,-0.040
9.360E-06,-0.044
9.370E-06,-0.048
9.380E-06,-0.040
9.390E-06,-0.040
9.400E-06,-0.044
9.410E-06,-0.044
9.420E-06,-0.044
9.430E-06,-0.044
9.440E-06,-0.048
9.450E-06,-0.048
9.460E-06,-0.044
9.470E-06,-0.048
9.480E-06,-0.044
9.490E-06,-0.040
9.500E-06,-0.044
9.510E-06,-0.044
9.520E-06,-0.052
9.530E-06,-0.048
9.540E-06,-0.044
9.550E-06,-0.048
9.560E-06,-0.052
9.570E-06,-0.048
9.580E-06,-0.048
9.590E-06,-0.044
9.600E-06,-0.052
9.610E-06,-0.048
9.620E-06,-0.052
9.630E-06,-0.052
9.640E-06,-0.052
9.650E-06,-0.044
9.660E-06,-0.044
9.670E-06,-0.044
9.680E-06,-0.052
9.690E-06,-0.056
9.700E-06,-0.044
9.710E-06,-0.048
9.720E-06,-0.056
9.730E-06,-0.048
9.740E-06,-0.044
9.750E-06,-0.052
9.760E-06,-0.056
