mediciones/Mediciones filtradas (saque las feas)/6-3/-7.5/WaveData5392.csv

#timebase=2000000(ps)
,#voltbase=100000(mv/100)
#size=4000
-2.300E-06,0.028
-2.290E-06,-0.020
-2.280E-06,-0.040
-2.270E-06,-0.084
-2.260E-06,-0.064
-2.250E-06,-0.020
-2.240E-06,0.024
-2.230E-06,0.056
-2.220E-06,0.060
-2.210E-06,0.020
-2.200E-06,-0.028
-2.190E-06,-0.028
-2.180E-06,-0.020
-2.170E-06,-0.016
-2.160E-06,0.008
-2.150E-06,0.024
-2.140E-06,0.028
-2.130E-06,0.028
-2.120E-06,0.016
-2.110E-06,0.024
-2.100E-06,0.056
-2.090E-06,0.036
-2.080E-06,0.020
-2.070E-06,0.044
-2.060E-06,-0.052
-2.050E-06,-0.084
-2.040E-06,-0.088
-2.030E-06,-0.052
-2.020E-06,0.016
-2.010E-06,0.056
-2.000E-06,0.068
-1.990E-06,0.048
-1.980E-06,0.000
-1.970E-06,-0.036
-1.960E-06,-0.052
-1.950E-06,-0.048
-1.940E-06,0.004
-1.930E-06,0.032
-1.920E-06,0.048
-1.910E-06,0.028
-1.900E-06,0.008
-1.890E-06,0.008
-1.880E-06,-0.004
-1.870E-06,0.016
-1.860E-06,0.024
-1.850E-06,0.056
-1.840E-06,0.084
-1.830E-06,0.080
-1.820E-06,0.004
-1.810E-06,-0.040
-1.800E-06,-0.104
-1.790E-06,-0.120
-1.780E-06,-0.060
-1.770E-06,0.008
-1.760E-06,0.060
-1.750E-06,0.052
-1.740E-06,0.024
-1.730E-06,0.000
-1.720E-06,-0.048
-1.710E-06,-0.040
-1.700E-06,-0.020
-1.690E-06,0.012
-1.680E-06,0.020
-1.670E-06,0.020
-1.660E-06,0.016
-1.650E-06,0.012
-1.640E-06,-0.012
-1.630E-06,0.000
-1.620E-06,-0.008
-1.610E-06,-0.008
-1.600E-06,0.004
-1.590E-06,0.020
-1.580E-06,0.036
-1.570E-06,0.028
-1.560E-06,0.040
-1.550E-06,0.024
-1.540E-06,0.016
-1.530E-06,0.028
-1.520E-06,0.032
-1.510E-06,0.076
-1.500E-06,0.064
-1.490E-06,-0.004
-1.480E-06,-0.088
-1.470E-06,-0.108
-1.460E-06,-0.088
-1.450E-06,-0.052
-1.440E-06,0.036
-1.430E-06,0.080
-1.420E-06,0.076
-1.410E-06,0.036
-1.400E-06,-0.012
-1.390E-06,-0.036
-1.380E-06,-0.048
-1.370E-06,-0.012
-1.360E-06,0.012
-1.350E-06,0.016
-1.340E-06,0.012
-1.330E-06,0.004
-1.320E-06,-0.004
-1.310E-06,-0.004
-1.300E-06,-0.008
-1.290E-06,0.008
-1.280E-06,0.008
-1.270E-06,-0.004
-1.260E-06,-0.004
-1.250E-06,-0.004
-1.240E-06,-0.004
-1.230E-06,0.012
-1.220E-06,0.012
-1.210E-06,0.016
-1.200E-06,0.012
-1.190E-06,0.008
-1.180E-06,0.024
-1.170E-06,0.028
-1.160E-06,0.012
-1.150E-06,0.004
-1.140E-06,0.016
-1.130E-06,0.020
-1.120E-06,0.028
-1.110E-06,0.044
-1.100E-06,0.032
-1.090E-06,0.008
-1.080E-06,-0.008
-1.070E-06,-0.024
-1.060E-06,-0.028
-1.050E-06,-0.008
-1.040E-06,0.028
-1.030E-06,0.036
-1.020E-06,0.028
-1.010E-06,0.016
-1.000E-06,-0.008
-9.900E-07,-0.008
-9.800E-07,0.000
-9.700E-07,0.016
-9.600E-07,0.044
-9.500E-07,0.060
-9.400E-07,0.076
-9.300E-07,0.068
-9.200E-07,0.064
-9.100E-07,0.056
-9.000E-07,0.056
-8.900E-07,0.076
-8.800E-07,0.048
-8.700E-07,0.040
-8.600E-07,0.008
-8.500E-07,-0.036
-8.400E-07,-0.120
-8.300E-07,-0.176
-8.200E-07,-0.164
-8.100E-07,-0.100
-8.000E-07,0.016
-7.900E-07,0.048
-7.800E-07,0.072
-7.700E-07,0.048
-7.600E-07,-0.020
-7.500E-07,-0.060
-7.400E-07,-0.072
-7.300E-07,-0.020
-7.200E-07,0.020
-7.100E-07,0.056
-7.000E-07,0.072
-6.900E-07,0.040
-6.800E-07,-0.008
-6.700E-07,-0.036
-6.600E-07,-0.040
-6.500E-07,-0.040
-6.400E-07,-0.024
-6.300E-07,-0.004
-6.200E-07,0.008
-6.100E-07,0.004
-6.000E-07,0.008
-5.900E-07,0.000
-5.800E-07,-0.008
-5.700E-07,-0.012
-5.600E-07,-0.004
-5.500E-07,-0.004
-5.400E-07,-0.008
-5.300E-07,-0.004
-5.200E-07,0.004
-5.100E-07,0.020
-5.000E-07,0.012
-4.900E-07,0.004
-4.800E-07,0.008
-4.700E-07,0.004
-4.600E-07,0.012
-4.500E-07,0.024
-4.400E-07,0.028
-4.300E-07,0.012
-4.200E-07,0.008
-4.100E-07,-0.004
-4.000E-07,-0.004
-3.900E-07,-0.012
-3.800E-07,0.012
-3.700E-07,0.028
-3.600E-07,0.044
-3.500E-07,0.044
-3.400E-07,0.048
-3.300E-07,0.044
-3.200E-07,0.048
-3.100E-07,0.032
-3.000E-07,0.008
-2.900E-07,-0.004
-2.800E-07,0.016
-2.700E-07,0.060
-2.600E-07,0.060
-2.500E-07,0.100
-2.400E-07,0.096
-2.300E-07,0.088
-2.200E-07,0.084
-2.100E-07,0.052
-2.000E-07,0.064
-1.900E-07,0.068
-1.800E-07,0.064
-1.700E-07,0.076
-1.600E-07,0.020
-1.500E-07,0.020
-1.400E-07,-0.032
-1.300E-07,-0.024
-1.200E-07,0.024
-1.100E-07,0.044
-1.000E-07,0.092
-9.000E-08,0.148
-8.000E-08,0.092
-7.000E-08,0.180
-6.000E-08,-0.184
-5.000E-08,-0.316
-4.000E-08,-0.448
-3.000E-08,-0.300
-2.000E-08,0.020
-1.000E-08,0.272
0.000E+00,0.360
1.000E-08,0.220
2.000E-08,-0.004
3.000E-08,-0.204
4.000E-08,-0.272
5.000E-08,-0.240
6.000E-08,-0.044
7.000E-08,-0.036
8.000E-08,-0.036
9.000E-08,-0.112
1.000E-07,-0.096
1.100E-07,-0.028
1.200E-07,-0.032
1.300E-07,0.012
1.400E-07,0.068
1.500E-07,-0.012
1.600E-07,-0.056
1.700E-07,-0.056
1.800E-07,0.052
1.900E-07,0.036
2.000E-07,0.044
2.100E-07,0.008
2.200E-07,-0.032
2.300E-07,-0.064
2.400E-07,-0.048
2.500E-07,0.032
2.600E-07,0.020
2.700E-07,0.060
2.800E-07,0.056
2.900E-07,0.052
3.000E-07,-0.012
3.100E-07,-0.008
3.200E-07,0.000
3.300E-07,0.016
3.400E-07,0.020
3.500E-07,0.000
3.600E-07,-0.004
3.700E-07,-0.028
3.800E-07,-0.008
3.900E-07,-0.016
4.000E-07,0.008
4.100E-07,0.024
4.200E-07,-0.008
4.300E-07,-0.016
4.400E-07,-0.004
4.500E-07,0.012
4.600E-07,0.040
4.700E-07,0.028
4.800E-07,0.008
4.900E-07,0.016
5.000E-07,0.004
5.100E-07,0.016
5.200E-07,0.024
5.300E-07,0.040
5.400E-07,0.044
5.500E-07,0.012
5.600E-07,0.012
5.700E-07,0.004
5.800E-07,0.024
5.900E-07,0.024
6.000E-07,0.004
6.100E-07,0.000
6.200E-07,-0.008
6.300E-07,0.004
6.400E-07,0.024
6.500E-07,0.068
6.600E-07,0.100
6.700E-07,0.132
6.800E-07,0.140
6.900E-07,0.108
7.000E-07,0.084
7.100E-07,0.068
7.200E-07,0.072
7.300E-07,0.092
7.400E-07,0.080
7.500E-07,0.064
7.600E-07,0.056
7.700E-07,0.048
7.800E-07,-0.064
7.900E-07,-0.104
8.000E-07,-0.268
8.100E-07,-0.316
8.200E-07,-0.304
8.300E-07,-0.136
8.400E-07,-0.040
8.500E-07,0.056
8.600E-07,0.108
8.700E-07,0.048
8.800E-07,0.012
8.900E-07,-0.076
9.000E-07,-0.056
9.100E-07,-0.056
9.200E-07,0.008
9.300E-07,0.072
9.400E-07,0.088
9.500E-07,0.080
9.600E-07,0.028
9.700E-07,0.016
9.800E-07,0.004
9.900E-07,0.068
1.000E-06,0.064
1.010E-06,0.108
1.020E-06,0.048
1.030E-06,-0.044
1.040E-06,-0.188
1.050E-06,-0.188
1.060E-06,-0.124
1.070E-06,-0.012
1.080E-06,0.024
1.090E-06,0.124
1.100E-06,0.072
1.110E-06,0.024
1.120E-06,-0.044
1.130E-06,-0.100
1.140E-06,-0.032
1.150E-06,-0.028
1.160E-06,0.048
1.170E-06,0.032
1.180E-06,0.056
1.190E-06,0.036
1.200E-06,0.048
1.210E-06,0.020
1.220E-06,0.004
1.230E-06,0.032
1.240E-06,0.056
1.250E-06,0.108
1.260E-06,0.164
1.270E-06,0.196
1.280E-06,0.124
1.290E-06,0.000
1.300E-06,-0.100
1.310E-06,-0.244
1.320E-06,-0.216
1.330E-06,-0.160
1.340E-06,0.044
1.350E-06,0.024
1.360E-06,0.088
1.370E-06,0.000
1.380E-06,-0.056
1.390E-06,-0.112
1.400E-06,-0.136
1.410E-06,0.004
1.420E-06,0.052
1.430E-06,0.092
1.440E-06,0.008
1.450E-06,0.000
1.460E-06,-0.004
1.470E-06,0.016
1.480E-06,-0.004
1.490E-06,-0.040
1.500E-06,-0.008
1.510E-06,0.016
1.520E-06,0.088
1.530E-06,0.056
1.540E-06,0.028
1.550E-06,0.008
1.560E-06,0.004
1.570E-06,0.004
1.580E-06,0.064
1.590E-06,0.076
1.600E-06,0.120
1.610E-06,0.128
1.620E-06,0.092
1.630E-06,0.024
1.640E-06,-0.080
1.650E-06,-0.164
1.660E-06,-0.252
1.670E-06,-0.164
1.680E-06,-0.084
1.690E-06,0.068
1.700E-06,0.124
1.710E-06,0.100
1.720E-06,0.000
1.730E-06,-0.072
1.740E-06,-0.100
1.750E-06,-0.068
1.760E-06,0.020
1.770E-06,0.096
1.780E-06,0.088
1.790E-06,0.032
1.800E-06,-0.024
1.810E-06,-0.064
1.820E-06,-0.044
1.830E-06,-0.024
1.840E-06,0.040
1.850E-06,0.068
1.860E-06,0.044
1.870E-06,0.012
1.880E-06,-0.012
1.890E-06,-0.008
1.900E-06,-0.028
1.910E-06,-0.004
1.920E-06,0.020
1.930E-06,0.060
1.940E-06,0.072
1.950E-06,0.064
1.960E-06,0.032
1.970E-06,0.000
1.980E-06,0.028
1.990E-06,0.068
2.000E-06,0.140
2.010E-06,0.132
2.020E-06,0.116
2.030E-06,0.096
2.040E-06,0.092
2.050E-06,0.072
2.060E-06,0.000
2.070E-06,0.012
2.080E-06,0.000
2.090E-06,-0.020
2.100E-06,-0.104
2.110E-06,-0.112
2.120E-06,-0.144
2.130E-06,-0.144
2.140E-06,-0.064
2.150E-06,0.000
2.160E-06,0.072
2.170E-06,0.048
2.180E-06,0.012
2.190E-06,-0.028
2.200E-06,-0.056
2.210E-06,-0.056
2.220E-06,-0.048
2.230E-06,-0.020
2.240E-06,0.000
2.250E-06,0.028
2.260E-06,0.036
2.270E-06,0.020
2.280E-06,0.004
2.290E-06,-0.012
2.300E-06,-0.008
2.310E-06,-0.024
2.320E-06,-0.004
2.330E-06,0.000
2.340E-06,0.032
2.350E-06,0.040
2.360E-06,0.028
2.370E-06,0.024
2.380E-06,0.012
2.390E-06,0.028
2.400E-06,0.044
2.410E-06,0.052
2.420E-06,0.032
2.430E-06,0.060
2.440E-06,0.060
2.450E-06,0.040
2.460E-06,0.044
2.470E-06,0.076
2.480E-06,0.128
2.490E-06,0.132
2.500E-06,0.132
2.510E-06,0.124
2.520E-06,0.092
2.530E-06,0.048
2.540E-06,0.004
2.550E-06,-0.052
2.560E-06,-0.072
2.570E-06,-0.108
2.580E-06,-0.076
2.590E-06,-0.080
2.600E-06,-0.080
2.610E-06,-0.052
2.620E-06,-0.084
2.630E-06,-0.036
2.640E-06,-0.036
2.650E-06,-0.048
2.660E-06,-0.040
2.670E-06,-0.016
2.680E-06,-0.020
2.690E-06,-0.004
2.700E-06,-0.008
2.710E-06,-0.008
2.720E-06,-0.008
2.730E-06,0.000
2.740E-06,0.012
2.750E-06,0.028
2.760E-06,0.020
2.770E-06,0.020
2.780E-06,0.020
2.790E-06,0.028
2.800E-06,0.024
2.810E-06,0.016
2.820E-06,0.020
2.830E-06,0.028
2.840E-06,0.044
2.850E-06,0.044
2.860E-06,0.048
2.870E-06,0.080
2.880E-06,0.104
2.890E-06,0.124
2.900E-06,0.136
2.910E-06,0.140
2.920E-06,0.124
2.930E-06,0.092
2.940E-06,0.108
2.950E-06,0.104
2.960E-06,0.092
2.970E-06,0.120
2.980E-06,0.092
2.990E-06,0.088
3.000E-06,0.012
3.010E-06,0.012
3.020E-06,-0.024
3.030E-06,-0.060
3.040E-06,-0.076
3.050E-06,-0.080
3.060E-06,-0.088
3.070E-06,-0.080
3.080E-06,-0.080
3.090E-06,-0.052
3.100E-06,-0.092
3.110E-06,-0.064
3.120E-06,-0.044
3.130E-06,0.008
3.140E-06,0.056
3.150E-06,-0.004
3.160E-06,0.036
3.170E-06,0.092
3.180E-06,0.148
3.190E-06,0.136
3.200E-06,0.168
3.210E-06,0.204
3.220E-06,0.180
3.230E-06,0.208
3.240E-06,0.108
3.250E-06,0.092
3.260E-06,0.076
3.270E-06,0.128
3.280E-06,0.140
3.290E-06,0.156
3.300E-06,0.156
3.310E-06,0.144
3.320E-06,0.132
3.330E-06,0.108
3.340E-06,0.140
3.350E-06,0.144
3.360E-06,0.160
3.370E-06,0.160
3.380E-06,0.164
3.390E-06,0.128
3.400E-06,0.112
3.410E-06,0.120
3.420E-06,0.128
3.430E-06,0.156
3.440E-06,0.152
3.450E-06,0.164
3.460E-06,0.128
3.470E-06,0.128
3.480E-06,0.104
3.490E-06,0.080
3.500E-06,0.088
3.510E-06,0.068
3.520E-06,-0.028
3.530E-06,-0.140
3.540E-06,-0.352
3.550E-06,-0.508
3.560E-06,-0.508
3.570E-06,-0.348
3.580E-06,-0.020
3.590E-06,0.348
3.600E-06,0.524
3.610E-06,0.288
3.620E-06,0.028
3.630E-06,-0.500
3.640E-06,-0.512
3.650E-06,-0.460
3.660E-06,-0.336
3.670E-06,0.164
3.680E-06,0.360
3.690E-06,0.012
3.700E-06,-0.092
3.710E-06,-0.264
3.720E-06,-0.152
3.730E-06,-0.308
3.740E-06,-0.132
3.750E-06,0.144
3.760E-06,0.244
3.770E-06,0.212
3.780E-06,-0.012
3.790E-06,-0.004
3.800E-06,-0.200
3.810E-06,-0.080
3.820E-06,0.068
3.830E-06,0.232
3.840E-06,0.236
3.850E-06,0.160
3.860E-06,0.160
3.870E-06,0.008
3.880E-06,-0.024
3.890E-06,-0.044
3.900E-06,0.128
3.910E-06,0.148
3.920E-06,0.224
3.930E-06,0.220
3.940E-06,0.196
3.950E-06,0.088
3.960E-06,0.056
3.970E-06,0.092
3.980E-06,0.128
3.990E-06,0.156
4.000E-06,0.168
4.010E-06,0.220
4.020E-06,0.164
4.030E-06,0.128
4.040E-06,0.108
4.050E-06,0.132
4.060E-06,0.136
4.070E-06,0.144
4.080E-06,0.192
4.090E-06,0.184
4.100E-06,0.164
4.110E-06,0.136
4.120E-06,0.140
4.130E-06,0.132
4.140E-06,0.140
4.150E-06,0.164
4.160E-06,0.188
4.170E-06,0.184
4.180E-06,0.168
4.190E-06,0.160
4.200E-06,0.140
4.210E-06,0.124
4.220E-06,0.128
4.230E-06,0.164
4.240E-06,0.176
4.250E-06,0.176
4.260E-06,0.180
4.270E-06,0.164
4.280E-06,0.148
4.290E-06,0.140
4.300E-06,0.148
4.310E-06,0.160
4.320E-06,0.168
4.330E-06,0.168
4.340E-06,0.168
4.350E-06,0.152
4.360E-06,0.136
4.370E-06,0.144
4.380E-06,0.164
4.390E-06,0.172
4.400E-06,0.176
4.410E-06,0.172
4.420E-06,0.172
4.430E-06,0.160
4.440E-06,0.156
4.450E-06,0.160
4.460E-06,0.156
4.470E-06,0.148
4.480E-06,0.160
4.490E-06,0.168
4.500E-06,0.164
4.510E-06,0.168
4.520E-06,0.164
4.530E-06,0.168
4.540E-06,0.164
4.550E-06,0.164
4.560E-06,0.164
4.570E-06,0.160
4.580E-06,0.164
4.590E-06,0.156
4.600E-06,0.156
4.610E-06,0.160
4.620E-06,0.156
4.630E-06,0.164
4.640E-06,0.172
4.650E-06,0.172
4.660E-06,0.172
4.670E-06,0.172
4.680E-06,0.156
4.690E-06,0.156
4.700E-06,0.160
4.710E-06,0.160
4.720E-06,0.160
4.730E-06,0.160
4.740E-06,0.168
4.750E-06,0.164
4.760E-06,0.164
4.770E-06,0.168
4.780E-06,0.164
4.790E-06,0.160
4.800E-06,0.156
4.810E-06,0.160
4.820E-06,0.164
4.830E-06,0.152
4.840E-06,0.152
4.850E-06,0.160
4.860E-06,0.164
4.870E-06,0.160
4.880E-06,0.152
4.890E-06,0.156
4.900E-06,0.160
4.910E-06,0.152
4.920E-06,0.160
4.930E-06,0.152
4.940E-06,0.156
4.950E-06,0.160
4.960E-06,0.160
4.970E-06,0.160
4.980E-06,0.152
4.990E-06,0.152
5.000E-06,0.160
5.010E-06,0.164
5.020E-06,0.164
5.030E-06,0.160
5.040E-06,0.156
5.050E-06,0.160
5.060E-06,0.156
5.070E-06,0.156
5.080E-06,0.160
5.090E-06,0.156
5.100E-06,0.160
5.110E-06,0.152
5.120E-06,0.152
5.130E-06,0.156
5.140E-06,0.156
5.150E-06,0.160
5.160E-06,0.152
5.170E-06,0.148
5.180E-06,0.144
5.190E-06,0.152
5.200E-06,0.160
5.210E-06,0.156
5.220E-06,0.156
5.230E-06,0.156
5.240E-06,0.156
5.250E-06,0.152
5.260E-06,0.148
5.270E-06,0.144
5.280E-06,0.148
5.290E-06,0.144
5.300E-06,0.152
5.310E-06,0.152
5.320E-06,0.152
5.330E-06,0.148
5.340E-06,0.152
5.350E-06,0.148
5.360E-06,0.140
5.370E-06,0.140
5.380E-06,0.144
5.390E-06,0.144
5.400E-06,0.144
5.410E-06,0.144
5.420E-06,0.144
5.430E-06,0.144
5.440E-06,0.144
5.450E-06,0.144
5.460E-06,0.148
5.470E-06,0.140
5.480E-06,0.144
5.490E-06,0.148
5.500E-06,0.144
5.510E-06,0.140
5.520E-06,0.132
5.530E-06,0.132
5.540E-06,0.136
5.550E-06,0.136
5.560E-06,0.140
5.570E-06,0.136
5.580E-06,0.140
5.590E-06,0.132
5.600E-06,0.128
5.610E-06,0.132
5.620E-06,0.136
5.630E-06,0.136
5.640E-06,0.136
5.650E-06,0.144
5.660E-06,0.140
5.670E-06,0.140
5.680E-06,0.136
5.690E-06,0.136
5.700E-06,0.144
5.710E-06,0.144
5.720E-06,0.136
5.730E-06,0.136
5.740E-06,0.140
5.750E-06,0.144
5.760E-06,0.144
5.770E-06,0.136
5.780E-06,0.136
5.790E-06,0.136
5.800E-06,0.136
5.810E-06,0.140
5.820E-06,0.136
5.830E-06,0.136
5.840E-06,0.136
5.850E-06,0.136
5.860E-06,0.136
5.870E-06,0.136
5.880E-06,0.132
5.890E-06,0.132
5.900E-06,0.132
5.910E-06,0.136
5.920E-06,0.132
5.930E-06,0.136
5.940E-06,0.128
5.950E-06,0.124
5.960E-06,0.124
5.970E-06,0.128
5.980E-06,0.128
5.990E-06,0.132
6.000E-06,0.132
6.010E-06,0.128
6.020E-06,0.128
6.030E-06,0.128
6.040E-06,0.128
6.050E-06,0.120
6.060E-06,0.124
6.070E-06,0.128
6.080E-06,0.132
6.090E-06,0.132
6.100E-06,0.132
6.110E-06,0.128
6.120E-06,0.128
6.130E-06,0.128
6.140E-06,0.120
6.150E-06,0.124
6.160E-06,0.120
6.170E-06,0.128
6.180E-06,0.124
6.190E-06,0.124
6.200E-06,0.120
6.210E-06,0.124
6.220E-06,0.120
6.230E-06,0.108
6.240E-06,0.120
6.250E-06,0.120
6.260E-06,0.128
6.270E-06,0.128
6.280E-06,0.124
6.290E-06,0.120
6.300E-06,0.120
6.310E-06,0.116
6.320E-06,0.120
6.330E-06,0.120
6.340E-06,0.124
6.350E-06,0.124
6.360E-06,0.124
6.370E-06,0.124
6.380E-06,0.120
6.390E-06,0.112
6.400E-06,0.108
6.410E-06,0.112
6.420E-06,0.108
6.430E-06,0.112
6.440E-06,0.108
6.450E-06,0.120
6.460E-06,0.120
6.470E-06,0.108
6.480E-06,0.108
6.490E-06,0.112
6.500E-06,0.104
6.510E-06,0.108
6.520E-06,0.108
6.530E-06,0.104
6.540E-06,0.112
6.550E-06,0.108
6.560E-06,0.108
6.570E-06,0.104
6.580E-06,0.104
6.590E-06,0.104
6.600E-06,0.104
6.610E-06,0.108
6.620E-06,0.108
6.630E-06,0.108
6.640E-06,0.108
6.650E-06,0.108
6.660E-06,0.100
6.670E-06,0.104
6.680E-06,0.100
6.690E-06,0.104
6.700E-06,0.108
6.710E-06,0.108
6.720E-06,0.104
6.730E-06,0.096
6.740E-06,0.096
6.750E-06,0.100
6.760E-06,0.100
6.770E-06,0.096
6.780E-06,0.104
6.790E-06,0.096
6.800E-06,0.096
6.810E-06,0.096
6.820E-06,0.104
6.830E-06,0.104
6.840E-06,0.100
6.850E-06,0.100
6.860E-06,0.104
6.870E-06,0.096
6.880E-06,0.096
6.890E-06,0.092
6.900E-06,0.104
6.910E-06,0.100
6.920E-06,0.096
6.930E-06,0.096
6.940E-06,0.096
6.950E-06,0.092
6.960E-06,0.096
6.970E-06,0.096
6.980E-06,0.100
6.990E-06,0.100
7.000E-06,0.096
7.010E-06,0.096
7.020E-06,0.096
7.030E-06,0.092
7.040E-06,0.096
7.050E-06,0.092
7.060E-06,0.096
7.070E-06,0.092
7.080E-06,0.092
7.090E-06,0.096
7.100E-06,0.096
7.110E-06,0.096
7.120E-06,0.092
7.130E-06,0.096
7.140E-06,0.092
7.150E-06,0.092
7.160E-06,0.088
7.170E-06,0.088
7.180E-06,0.092
7.190E-06,0.088
7.200E-06,0.092
7.210E-06,0.088
7.220E-06,0.092
7.230E-06,0.092
7.240E-06,0.084
7.250E-06,0.088
7.260E-06,0.088
7.270E-06,0.088
7.280E-06,0.092
7.290E-06,0.092
7.300E-06,0.084
7.310E-06,0.084
7.320E-06,0.088
7.330E-06,0.084
7.340E-06,0.088
7.350E-06,0.084
7.360E-06,0.076
7.370E-06,0.084
7.380E-06,0.084
7.390E-06,0.084
7.400E-06,0.088
7.410E-06,0.084
7.420E-06,0.088
7.430E-06,0.084
7.440E-06,0.084
7.450E-06,0.084
7.460E-06,0.088
7.470E-06,0.084
7.480E-06,0.080
7.490E-06,0.076
7.500E-06,0.080
7.510E-06,0.080
7.520E-06,0.080
7.530E-06,0.080
7.540E-06,0.080
7.550E-06,0.084
7.560E-06,0.084
7.570E-06,0.076
7.580E-06,0.076
7.590E-06,0.076
7.600E-06,0.076
7.610E-06,0.072
7.620E-06,0.080
7.630E-06,0.080
7.640E-06,0.076
7.650E-06,0.076
7.660E-06,0.076
7.670E-06,0.076
7.680E-06,0.076
7.690E-06,0.076
7.700E-06,0.076
7.710E-06,0.080
7.720E-06,0.080
7.730E-06,0.076
7.740E-06,0.076
7.750E-06,0.072
7.760E-06,0.072
7.770E-06,0.076
7.780E-06,0.076
7.790E-06,0.072
7.800E-06,0.076
7.810E-06,0.072
7.820E-06,0.072
7.830E-06,0.068
7.840E-06,0.068
7.850E-06,0.068
7.860E-06,0.072
7.870E-06,0.072
7.880E-06,0.068
7.890E-06,0.072
7.900E-06,0.072
7.910E-06,0.068
7.920E-06,0.068
7.930E-06,0.068
7.940E-06,0.068
7.950E-06,0.068
7.960E-06,0.072
7.970E-06,0.068
7.980E-06,0.068
7.990E-06,0.060
8.000E-06,0.060
8.010E-06,0.068
8.020E-06,0.064
8.030E-06,0.068
8.040E-06,0.068
8.050E-06,0.068
8.060E-06,0.068
8.070E-06,0.064
8.080E-06,0.064
8.090E-06,0.064
8.100E-06,0.068
8.110E-06,0.068
8.120E-06,0.060
8.130E-06,0.064
8.140E-06,0.064
8.150E-06,0.060
8.160E-06,0.064
8.170E-06,0.060
8.180E-06,0.060
8.190E-06,0.064
8.200E-06,0.064
8.210E-06,0.060
8.220E-06,0.064
8.230E-06,0.064
8.240E-06,0.060
8.250E-06,0.064
8.260E-06,0.060
8.270E-06,0.056
8.280E-06,0.060
8.290E-06,0.064
8.300E-06,0.060
8.310E-06,0.056
8.320E-06,0.060
8.330E-06,0.064
8.340E-06,0.056
8.350E-06,0.056
8.360E-06,0.056
8.370E-06,0.056
8.380E-06,0.060
8.390E-06,0.060
8.400E-06,0.056
8.410E-06,0.056
8.420E-06,0.060
8.430E-06,0.056
8.440E-06,0.056
8.450E-06,0.056
8.460E-06,0.056
8.470E-06,0.056
8.480E-06,0.056
8.490E-06,0.056
8.500E-06,0.056
8.510E-06,0.056
8.520E-06,0.056
8.530E-06,0.052
8.540E-06,0.052
8.550E-06,0.056
8.560E-06,0.044
8.570E-06,0.048
8.580E-06,0.056
8.590E-06,0.048
8.600E-06,0.044
8.610E-06,0.048
8.620E-06,0.052
8.630E-06,0.048
8.640E-06,0.044
8.650E-06,0.048
8.660E-06,0.044
8.670E-06,0.044
8.680E-06,0.048
8.690E-06,0.048
8.700E-06,0.040
8.710E-06,0.040
8.720E-06,0.044
8.730E-06,0.044
8.740E-06,0.044
8.750E-06,0.048
8.760E-06,0.040
8.770E-06,0.040
8.780E-06,0.044
8.790E-06,0.040
8.800E-06,0.040
8.810E-06,0.036
8.820E-06,0.040
8.830E-06,0.044
8.840E-06,0.040
8.850E-06,0.044
8.860E-06,0.040
8.870E-06,0.036
8.880E-06,0.040
8.890E-06,0.040
8.900E-06,0.036
8.910E-06,0.040
8.920E-06,0.040
8.930E-06,0.036
8.940E-06,0.036
8.950E-06,0.036
8.960E-06,0.044
8.970E-06,0.036
8.980E-06,0.040
8.990E-06,0.040
9.000E-06,0.036
9.010E-06,0.036
9.020E-06,0.036
9.030E-06,0.036
9.040E-06,0.036
9.050E-06,0.036
9.060E-06,0.036
9.070E-06,0.028
9.080E-06,0.032
9.090E-06,0.036
9.100E-06,0.040
9.110E-06,0.032
9.120E-06,0.036
9.130E-06,0.032
9.140E-06,0.032
9.150E-06,0.036
9.160E-06,0.032
9.170E-06,0.028
9.180E-06,0.032
9.190E-06,0.028
9.200E-06,0.028
9.210E-06,0.032
9.220E-06,0.024
9.230E-06,0.028
9.240E-06,0.028
9.250E-06,0.032
9.260E-06,0.032
9.270E-06,0.028
9.280E-06,0.032
9.290E-06,0.028
9.300E-06,0.024
9.310E-06,0.024
9.320E-06,0.028
9.330E-06,0.024
9.340E-06,0.028
9.350E-06,0.028
9.360E-06,0.032
9.370E-06,0.024
9.380E-06,0.020
9.390E-06,0.024
9.400E-06,0.028
9.410E-06,0.032
9.420E-06,0.032
9.430E-06,0.032
9.440E-06,0.032
9.450E-06,0.020
9.460E-06,0.020
9.470E-06,0.024
9.480E-06,0.028
9.490E-06,0.024
9.500E-06,0.020
9.510E-06,0.024
9.520E-06,0.020
9.530E-06,0.024
9.540E-06,0.020
9.550E-06,0.024
9.560E-06,0.020
9.570E-06,0.024
9.580E-06,0.020
9.590E-06,0.024
9.600E-06,0.028
9.610E-06,0.024
9.620E-06,0.016
9.630E-06,0.016
9.640E-06,0.024
9.650E-06,0.024
9.660E-06,0.020
9.670E-06,0.020
9.680E-06,0.024
9.690E-06,0.024
9.700E-06,0.024
9.710E-06,0.020
9.720E-06,0.020
9.730E-06,0.016
9.740E-06,0.020
9.750E-06,0.020
9.760E-06,0.020
9.770E-06,0.020
9.780E-06,0.020
9.790E-06,0.024
9.800E-06,0.016
9.810E-06,0.012
9.820E-06,0.020
9.830E-06,0.012
9.840E-06,0.020
9.850E-06,0.012
9.860E-06,0.012
9.870E-06,0.016
