mediciones/Mediciones filtradas (saque las feas)/6-3/-7.5/WaveData5394.csv

#timebase=2000000(ps)
,#voltbase=100000(mv/100)
#size=4000
-2.300E-06,0.056
-2.290E-06,0.024
-2.280E-06,-0.092
-2.270E-06,-0.140
-2.260E-06,-0.124
-2.250E-06,-0.060
-2.240E-06,0.028
-2.230E-06,0.144
-2.220E-06,0.192
-2.210E-06,0.080
-2.200E-06,-0.044
-2.190E-06,-0.152
-2.180E-06,-0.132
-2.170E-06,-0.124
-2.160E-06,-0.004
-2.150E-06,0.120
-2.140E-06,0.060
-2.130E-06,0.076
-2.120E-06,-0.024
-2.110E-06,-0.048
-2.100E-06,-0.068
-2.090E-06,-0.024
-2.080E-06,0.008
-2.070E-06,0.040
-2.060E-06,0.036
-2.050E-06,0.000
-2.040E-06,0.008
-2.030E-06,-0.008
-2.020E-06,0.004
-2.010E-06,-0.008
-2.000E-06,0.012
-1.990E-06,-0.008
-1.980E-06,0.008
-1.970E-06,0.024
-1.960E-06,0.028
-1.950E-06,0.028
-1.940E-06,0.012
-1.930E-06,0.012
-1.920E-06,-0.012
-1.910E-06,0.020
-1.900E-06,0.008
-1.890E-06,0.040
-1.880E-06,0.060
-1.870E-06,0.060
-1.860E-06,0.056
-1.850E-06,0.068
-1.840E-06,0.068
-1.830E-06,0.048
-1.820E-06,0.024
-1.810E-06,-0.028
-1.800E-06,-0.096
-1.790E-06,-0.044
-1.780E-06,-0.004
-1.770E-06,0.092
-1.760E-06,0.112
-1.750E-06,0.100
-1.740E-06,0.032
-1.730E-06,-0.152
-1.720E-06,-0.288
-1.710E-06,-0.284
-1.700E-06,-0.044
-1.690E-06,0.092
-1.680E-06,0.184
-1.670E-06,0.096
-1.660E-06,-0.008
-1.650E-06,-0.064
-1.640E-06,-0.076
-1.630E-06,-0.072
-1.620E-06,-0.024
-1.610E-06,0.024
-1.600E-06,0.072
-1.590E-06,0.076
-1.580E-06,0.048
-1.570E-06,-0.008
-1.560E-06,-0.052
-1.550E-06,-0.056
-1.540E-06,-0.040
-1.530E-06,0.000
-1.520E-06,0.012
-1.510E-06,0.028
-1.500E-06,0.040
-1.490E-06,0.040
-1.480E-06,0.012
-1.470E-06,0.000
-1.460E-06,-0.020
-1.450E-06,-0.016
-1.440E-06,0.008
-1.430E-06,0.052
-1.420E-06,0.084
-1.410E-06,0.100
-1.400E-06,0.092
-1.390E-06,0.064
-1.380E-06,0.056
-1.370E-06,0.056
-1.360E-06,0.064
-1.350E-06,0.092
-1.340E-06,0.136
-1.330E-06,-0.036
-1.320E-06,0.008
-1.310E-06,-0.284
-1.300E-06,-0.204
-1.290E-06,-0.008
-1.280E-06,-0.100
-1.270E-06,0.032
-1.260E-06,0.004
-1.250E-06,-0.016
-1.240E-06,-0.036
-1.230E-06,0.060
-1.220E-06,0.028
-1.210E-06,-0.100
-1.200E-06,-0.040
-1.190E-06,0.060
-1.180E-06,0.028
-1.170E-06,0.020
-1.160E-06,0.032
-1.150E-06,-0.004
-1.140E-06,-0.024
-1.130E-06,-0.020
-1.120E-06,-0.004
-1.110E-06,-0.032
-1.100E-06,-0.020
-1.090E-06,0.040
-1.080E-06,0.064
-1.070E-06,0.012
-1.060E-06,-0.044
-1.050E-06,-0.028
-1.040E-06,-0.024
-1.030E-06,0.000
-1.020E-06,0.028
-1.010E-06,0.060
-1.000E-06,0.024
-9.900E-07,-0.004
-9.800E-07,-0.008
-9.700E-07,0.012
-9.600E-07,0.012
-9.500E-07,0.024
-9.400E-07,0.064
-9.300E-07,0.064
-9.200E-07,0.036
-9.100E-07,0.040
-9.000E-07,0.068
-8.900E-07,0.072
-8.800E-07,0.072
-8.700E-07,0.096
-8.600E-07,0.092
-8.500E-07,0.068
-8.400E-07,0.048
-8.300E-07,0.056
-8.200E-07,0.012
-8.100E-07,-0.020
-8.000E-07,-0.028
-7.900E-07,0.016
-7.800E-07,0.060
-7.700E-07,0.100
-7.600E-07,0.076
-7.500E-07,0.032
-7.400E-07,-0.072
-7.300E-07,-0.072
-7.200E-07,-0.104
-7.100E-07,-0.096
-7.000E-07,-0.104
-6.900E-07,-0.020
-6.800E-07,-0.064
-6.700E-07,-0.032
-6.600E-07,-0.264
-6.500E-07,-0.088
-6.400E-07,-0.068
-6.300E-07,0.024
-6.200E-07,0.140
-6.100E-07,0.128
-6.000E-07,0.056
-5.900E-07,-0.056
-5.800E-07,-0.012
-5.700E-07,-0.044
-5.600E-07,-0.004
-5.500E-07,-0.020
-5.400E-07,0.028
-5.300E-07,-0.020
-5.200E-07,-0.004
-5.100E-07,0.004
-5.000E-07,0.016
-4.900E-07,0.016
-4.800E-07,0.000
-4.700E-07,0.000
-4.600E-07,-0.036
-4.500E-07,-0.032
-4.400E-07,-0.020
-4.300E-07,0.012
-4.200E-07,0.008
-4.100E-07,0.024
-4.000E-07,0.012
-3.900E-07,0.000
-3.800E-07,-0.020
-3.700E-07,-0.020
-3.600E-07,0.000
-3.500E-07,0.008
-3.400E-07,0.024
-3.300E-07,0.028
-3.200E-07,0.024
-3.100E-07,-0.004
-3.000E-07,-0.008
-2.900E-07,-0.012
-2.800E-07,0.000
-2.700E-07,0.008
-2.600E-07,0.032
-2.500E-07,0.048
-2.400E-07,0.036
-2.300E-07,0.028
-2.200E-07,0.016
-2.100E-07,0.008
-2.000E-07,0.020
-1.900E-07,0.048
-1.800E-07,0.072
-1.700E-07,0.096
-1.600E-07,0.100
-1.500E-07,0.108
-1.400E-07,0.092
-1.300E-07,0.120
-1.200E-07,0.096
-1.100E-07,0.108
-1.000E-07,0.140
-9.000E-08,0.108
-8.000E-08,0.148
-7.000E-08,0.072
-6.000E-08,-0.056
-5.000E-08,-0.272
-4.000E-08,-0.504
-3.000E-08,-0.508
-2.000E-08,-0.256
-1.000E-08,0.060
0.000E+00,0.340
1.000E-08,0.392
2.000E-08,0.256
3.000E-08,-0.024
4.000E-08,-0.300
5.000E-08,-0.300
6.000E-08,-0.144
7.000E-08,0.064
8.000E-08,0.256
9.000E-08,0.256
1.000E-07,0.096
1.100E-07,-0.088
1.200E-07,-0.200
1.300E-07,-0.160
1.400E-07,-0.060
1.500E-07,0.056
1.600E-07,0.080
1.700E-07,0.068
1.800E-07,0.012
1.900E-07,-0.032
2.000E-07,-0.056
2.100E-07,-0.060
2.200E-07,-0.028
2.300E-07,0.000
2.400E-07,0.032
2.500E-07,0.048
2.600E-07,0.040
2.700E-07,0.016
2.800E-07,-0.008
2.900E-07,-0.020
3.000E-07,-0.032
3.100E-07,-0.004
3.200E-07,0.028
3.300E-07,0.032
3.400E-07,0.024
3.500E-07,0.008
3.600E-07,-0.008
3.700E-07,-0.024
3.800E-07,-0.004
3.900E-07,0.024
4.000E-07,0.048
4.100E-07,0.056
4.200E-07,0.032
4.300E-07,0.024
4.400E-07,0.012
4.500E-07,0.016
4.600E-07,0.032
4.700E-07,0.060
4.800E-07,0.092
4.900E-07,0.112
5.000E-07,0.124
5.100E-07,0.140
5.200E-07,0.136
5.300E-07,0.108
5.400E-07,0.060
5.500E-07,-0.068
5.600E-07,-0.096
5.700E-07,-0.148
5.800E-07,-0.068
5.900E-07,0.052
6.000E-07,0.204
6.100E-07,0.240
6.200E-07,0.204
6.300E-07,0.088
6.400E-07,0.008
6.500E-07,-0.308
6.600E-07,-0.424
6.700E-07,-0.508
6.800E-07,-0.508
6.900E-07,-0.204
7.000E-07,0.144
7.100E-07,0.464
7.200E-07,0.372
7.300E-07,0.208
7.400E-07,-0.144
7.500E-07,-0.356
7.600E-07,-0.336
7.700E-07,-0.108
7.800E-07,0.160
7.900E-07,0.340
8.000E-07,0.260
8.100E-07,0.012
8.200E-07,-0.176
8.300E-07,-0.256
8.400E-07,-0.140
8.500E-07,0.008
8.600E-07,0.152
8.700E-07,0.164
8.800E-07,0.088
8.900E-07,-0.024
9.000E-07,-0.124
9.100E-07,-0.104
9.200E-07,-0.032
9.300E-07,0.060
9.400E-07,0.096
9.500E-07,0.064
9.600E-07,0.004
9.700E-07,-0.048
9.800E-07,-0.064
9.900E-07,-0.040
1.000E-06,-0.004
1.010E-06,0.056
1.020E-06,0.064
1.030E-06,0.052
1.040E-06,0.012
1.050E-06,-0.036
1.060E-06,-0.052
1.070E-06,-0.044
1.080E-06,0.000
1.090E-06,0.032
1.100E-06,0.056
1.110E-06,0.052
1.120E-06,0.024
1.130E-06,-0.008
1.140E-06,-0.028
1.150E-06,-0.028
1.160E-06,-0.004
1.170E-06,0.024
1.180E-06,0.028
1.190E-06,0.032
1.200E-06,0.008
1.210E-06,-0.016
1.220E-06,-0.028
1.230E-06,-0.020
1.240E-06,0.000
1.250E-06,0.024
1.260E-06,0.048
1.270E-06,0.048
1.280E-06,0.040
1.290E-06,0.012
1.300E-06,0.008
1.310E-06,0.008
1.320E-06,0.024
1.330E-06,0.040
1.340E-06,0.052
1.350E-06,0.060
1.360E-06,0.056
1.370E-06,0.060
1.380E-06,0.060
1.390E-06,0.056
1.400E-06,0.060
1.410E-06,0.080
1.420E-06,0.088
1.430E-06,0.100
1.440E-06,0.124
1.450E-06,0.108
1.460E-06,0.108
1.470E-06,0.128
1.480E-06,0.104
1.490E-06,0.120
1.500E-06,0.140
1.510E-06,0.096
1.520E-06,0.112
1.530E-06,0.108
1.540E-06,0.096
1.550E-06,0.044
1.560E-06,0.012
1.570E-06,-0.008
1.580E-06,-0.028
1.590E-06,0.028
1.600E-06,0.056
1.610E-06,0.076
1.620E-06,0.072
1.630E-06,0.016
1.640E-06,0.004
1.650E-06,-0.124
1.660E-06,-0.172
1.670E-06,-0.208
1.680E-06,-0.156
1.690E-06,-0.100
1.700E-06,-0.028
1.710E-06,0.012
1.720E-06,-0.036
1.730E-06,-0.056
1.740E-06,-0.068
1.750E-06,-0.088
1.760E-06,-0.060
1.770E-06,-0.040
1.780E-06,0.040
1.790E-06,0.044
1.800E-06,0.048
1.810E-06,0.004
1.820E-06,0.012
1.830E-06,0.044
1.840E-06,0.044
1.850E-06,0.108
1.860E-06,0.104
1.870E-06,0.132
1.880E-06,0.108
1.890E-06,0.108
1.900E-06,0.084
1.910E-06,0.068
1.920E-06,0.068
1.930E-06,0.080
1.940E-06,0.092
1.950E-06,0.060
1.960E-06,-0.008
1.970E-06,-0.076
1.980E-06,-0.140
1.990E-06,-0.168
2.000E-06,-0.132
2.010E-06,-0.080
2.020E-06,-0.032
2.030E-06,-0.028
2.040E-06,0.000
2.050E-06,-0.040
2.060E-06,-0.072
2.070E-06,-0.088
2.080E-06,-0.032
2.090E-06,0.000
2.100E-06,0.056
2.110E-06,0.068
2.120E-06,0.092
2.130E-06,0.088
2.140E-06,0.064
2.150E-06,0.056
2.160E-06,0.012
2.170E-06,0.024
2.180E-06,-0.024
2.190E-06,-0.016
2.200E-06,-0.024
2.210E-06,-0.028
2.220E-06,0.008
2.230E-06,0.028
2.240E-06,0.020
2.250E-06,0.028
2.260E-06,0.024
2.270E-06,0.076
2.280E-06,0.056
2.290E-06,0.064
2.300E-06,0.048
2.310E-06,0.008
2.320E-06,-0.004
2.330E-06,-0.020
2.340E-06,-0.004
2.350E-06,0.024
2.360E-06,0.028
2.370E-06,0.020
2.380E-06,0.000
2.390E-06,0.000
2.400E-06,0.032
2.410E-06,0.060
2.420E-06,0.144
2.430E-06,0.132
2.440E-06,0.112
2.450E-06,0.068
2.460E-06,0.000
2.470E-06,-0.036
2.480E-06,-0.024
2.490E-06,0.020
2.500E-06,0.076
2.510E-06,0.092
2.520E-06,0.088
2.530E-06,0.040
2.540E-06,-0.020
2.550E-06,-0.032
2.560E-06,0.000
2.570E-06,0.028
2.580E-06,0.092
2.590E-06,0.076
2.600E-06,0.028
2.610E-06,-0.020
2.620E-06,-0.100
2.630E-06,-0.136
2.640E-06,-0.136
2.650E-06,-0.100
2.660E-06,-0.024
2.670E-06,0.016
2.680E-06,0.032
2.690E-06,0.008
2.700E-06,0.000
2.710E-06,0.004
2.720E-06,0.028
2.730E-06,0.056
2.740E-06,0.104
2.750E-06,0.144
2.760E-06,0.152
2.770E-06,0.148
2.780E-06,0.128
2.790E-06,0.128
2.800E-06,0.132
2.810E-06,0.140
2.820E-06,0.140
2.830E-06,0.140
2.840E-06,0.140
2.850E-06,0.092
2.860E-06,0.056
2.870E-06,0.020
2.880E-06,0.000
2.890E-06,-0.016
2.900E-06,-0.056
2.910E-06,-0.100
2.920E-06,-0.124
2.930E-06,-0.164
2.940E-06,-0.160
2.950E-06,-0.156
2.960E-06,-0.200
2.970E-06,-0.156
2.980E-06,-0.176
2.990E-06,-0.176
3.000E-06,-0.104
3.010E-06,-0.128
3.020E-06,-0.060
3.030E-06,-0.072
3.040E-06,-0.108
3.050E-06,-0.040
3.060E-06,-0.012
3.070E-06,-0.052
3.080E-06,0.012
3.090E-06,-0.064
3.100E-06,-0.092
3.110E-06,-0.012
3.120E-06,-0.076
3.130E-06,-0.024
3.140E-06,-0.024
3.150E-06,0.036
3.160E-06,0.044
3.170E-06,0.032
3.180E-06,0.028
3.190E-06,0.008
3.200E-06,0.036
3.210E-06,0.052
3.220E-06,0.044
3.230E-06,0.076
3.240E-06,0.028
3.250E-06,0.056
3.260E-06,0.036
3.270E-06,0.072
3.280E-06,0.080
3.290E-06,0.068
3.300E-06,0.076
3.310E-06,0.060
3.320E-06,0.068
3.330E-06,0.056
3.340E-06,0.088
3.350E-06,0.088
3.360E-06,0.092
3.370E-06,0.104
3.380E-06,0.108
3.390E-06,0.116
3.400E-06,0.120
3.410E-06,0.124
3.420E-06,0.132
3.430E-06,0.148
3.440E-06,0.148
3.450E-06,0.152
3.460E-06,0.140
3.470E-06,0.140
3.480E-06,0.128
3.490E-06,0.132
3.500E-06,0.128
3.510E-06,0.140
3.520E-06,0.152
3.530E-06,0.144
3.540E-06,0.136
3.550E-06,0.128
3.560E-06,0.124
3.570E-06,0.120
3.580E-06,0.124
3.590E-06,0.144
3.600E-06,0.156
3.610E-06,0.164
3.620E-06,0.156
3.630E-06,0.156
3.640E-06,0.136
3.650E-06,0.128
3.660E-06,0.108
3.670E-06,0.108
3.680E-06,0.104
3.690E-06,0.112
3.700E-06,0.096
3.710E-06,0.068
3.720E-06,0.020
3.730E-06,-0.028
3.740E-06,-0.036
3.750E-06,-0.008
3.760E-06,0.024
3.770E-06,0.012
3.780E-06,-0.084
3.790E-06,-0.220
3.800E-06,-0.404
3.810E-06,-0.264
3.820E-06,-0.416
3.830E-06,-0.108
3.840E-06,-0.204
3.850E-06,-0.084
3.860E-06,-0.204
3.870E-06,-0.284
3.880E-06,-0.328
3.890E-06,-0.416
3.900E-06,-0.204
3.910E-06,-0.212
3.920E-06,0.088
3.930E-06,0.020
3.940E-06,-0.044
3.950E-06,-0.100
3.960E-06,-0.184
3.970E-06,-0.164
3.980E-06,-0.124
3.990E-06,-0.068
4.000E-06,0.032
4.010E-06,0.096
4.020E-06,0.116
4.030E-06,0.052
4.040E-06,-0.032
4.050E-06,-0.048
4.060E-06,-0.020
4.070E-06,0.044
4.080E-06,0.108
4.090E-06,0.172
4.100E-06,0.172
4.110E-06,0.140
4.120E-06,0.124
4.130E-06,0.096
4.140E-06,0.100
4.150E-06,0.132
4.160E-06,0.164
4.170E-06,0.200
4.180E-06,0.192
4.190E-06,0.176
4.200E-06,0.144
4.210E-06,0.116
4.220E-06,0.112
4.230E-06,0.132
4.240E-06,0.160
4.250E-06,0.176
4.260E-06,0.180
4.270E-06,0.176
4.280E-06,0.156
4.290E-06,0.136
4.300E-06,0.132
4.310E-06,0.148
4.320E-06,0.164
4.330E-06,0.176
4.340E-06,0.188
4.350E-06,0.180
4.360E-06,0.172
4.370E-06,0.152
4.380E-06,0.148
4.390E-06,0.152
4.400E-06,0.156
4.410E-06,0.160
4.420E-06,0.168
4.430E-06,0.168
4.440E-06,0.160
4.450E-06,0.152
4.460E-06,0.140
4.470E-06,0.140
4.480E-06,0.144
4.490E-06,0.148
4.500E-06,0.160
4.510E-06,0.140
4.520E-06,0.132
4.530E-06,0.108
4.540E-06,0.092
4.550E-06,0.080
4.560E-06,0.088
4.570E-06,0.112
4.580E-06,0.112
4.590E-06,0.108
4.600E-06,0.080
4.610E-06,0.088
4.620E-06,0.088
4.630E-06,0.104
4.640E-06,0.124
4.650E-06,0.120
4.660E-06,0.100
4.670E-06,0.060
4.680E-06,0.036
4.690E-06,0.060
4.700E-06,0.088
4.710E-06,0.108
4.720E-06,0.136
4.730E-06,0.136
4.740E-06,0.084
4.750E-06,0.060
4.760E-06,0.060
4.770E-06,0.108
4.780E-06,0.152
4.790E-06,0.176
4.800E-06,0.192
4.810E-06,0.164
4.820E-06,0.112
4.830E-06,0.080
4.840E-06,0.076
4.850E-06,0.096
4.860E-06,0.124
4.870E-06,0.168
4.880E-06,0.192
4.890E-06,0.180
4.900E-06,0.156
4.910E-06,0.144
4.920E-06,0.128
4.930E-06,0.132
4.940E-06,0.152
4.950E-06,0.176
4.960E-06,0.192
4.970E-06,0.184
4.980E-06,0.160
4.990E-06,0.140
5.000E-06,0.140
5.010E-06,0.140
5.020E-06,0.160
5.030E-06,0.176
5.040E-06,0.184
5.050E-06,0.188
5.060E-06,0.168
5.070E-06,0.156
5.080E-06,0.144
5.090E-06,0.148
5.100E-06,0.160
5.110E-06,0.172
5.120E-06,0.172
5.130E-06,0.176
5.140E-06,0.168
5.150E-06,0.160
5.160E-06,0.156
5.170E-06,0.148
5.180E-06,0.152
5.190E-06,0.164
5.200E-06,0.172
5.210E-06,0.168
5.220E-06,0.164
5.230E-06,0.160
5.240E-06,0.156
5.250E-06,0.156
5.260E-06,0.156
5.270E-06,0.160
5.280E-06,0.164
5.290E-06,0.164
5.300E-06,0.156
5.310E-06,0.156
5.320E-06,0.156
5.330E-06,0.152
5.340E-06,0.156
5.350E-06,0.164
5.360E-06,0.160
5.370E-06,0.156
5.380E-06,0.160
5.390E-06,0.164
5.400E-06,0.156
5.410E-06,0.160
5.420E-06,0.160
5.430E-06,0.152
5.440E-06,0.156
5.450E-06,0.160
5.460E-06,0.160
5.470E-06,0.156
5.480E-06,0.156
5.490E-06,0.152
5.500E-06,0.152
5.510E-06,0.152
5.520E-06,0.152
5.530E-06,0.152
5.540E-06,0.152
5.550E-06,0.148
5.560E-06,0.148
5.570E-06,0.156
5.580E-06,0.148
5.590E-06,0.148
5.600E-06,0.152
5.610E-06,0.144
5.620E-06,0.148
5.630E-06,0.144
5.640E-06,0.148
5.650E-06,0.152
5.660E-06,0.152
5.670E-06,0.140
5.680E-06,0.144
5.690E-06,0.152
5.700E-06,0.156
5.710E-06,0.148
5.720E-06,0.144
5.730E-06,0.148
5.740E-06,0.152
5.750E-06,0.152
5.760E-06,0.144
5.770E-06,0.144
5.780E-06,0.148
5.790E-06,0.152
5.800E-06,0.148
5.810E-06,0.148
5.820E-06,0.152
5.830E-06,0.148
5.840E-06,0.140
5.850E-06,0.144
5.860E-06,0.148
5.870E-06,0.148
5.880E-06,0.144
5.890E-06,0.148
5.900E-06,0.144
5.910E-06,0.148
5.920E-06,0.144
5.930E-06,0.144
5.940E-06,0.140
5.950E-06,0.144
5.960E-06,0.140
5.970E-06,0.144
5.980E-06,0.148
5.990E-06,0.140
6.000E-06,0.144
6.010E-06,0.140
6.020E-06,0.144
6.030E-06,0.144
6.040E-06,0.144
6.050E-06,0.144
6.060E-06,0.144
6.070E-06,0.140
6.080E-06,0.140
6.090E-06,0.144
6.100E-06,0.140
6.110E-06,0.140
6.120E-06,0.140
6.130E-06,0.140
6.140E-06,0.140
6.150E-06,0.140
6.160E-06,0.136
6.170E-06,0.140
6.180E-06,0.144
6.190E-06,0.144
6.200E-06,0.144
6.210E-06,0.144
6.220E-06,0.136
6.230E-06,0.136
6.240E-06,0.136
6.250E-06,0.140
6.260E-06,0.136
6.270E-06,0.136
6.280E-06,0.132
6.290E-06,0.132
6.300E-06,0.132
6.310E-06,0.132
6.320E-06,0.136
6.330E-06,0.132
6.340E-06,0.136
6.350E-06,0.132
6.360E-06,0.128
6.370E-06,0.136
6.380E-06,0.136
6.390E-06,0.132
6.400E-06,0.132
6.410E-06,0.136
6.420E-06,0.132
6.430E-06,0.132
6.440E-06,0.128
6.450E-06,0.128
6.460E-06,0.124
6.470E-06,0.132
6.480E-06,0.128
6.490E-06,0.128
6.500E-06,0.124
6.510E-06,0.124
6.520E-06,0.124
6.530E-06,0.128
6.540E-06,0.124
6.550E-06,0.128
6.560E-06,0.128
6.570E-06,0.124
6.580E-06,0.128
6.590E-06,0.124
6.600E-06,0.124
6.610E-06,0.124
6.620E-06,0.124
6.630E-06,0.120
6.640E-06,0.124
6.650E-06,0.124
6.660E-06,0.120
6.670E-06,0.124
6.680E-06,0.124
6.690E-06,0.120
6.700E-06,0.124
6.710E-06,0.124
6.720E-06,0.124
6.730E-06,0.124
6.740E-06,0.124
6.750E-06,0.120
6.760E-06,0.120
6.770E-06,0.120
6.780E-06,0.120
6.790E-06,0.120
6.800E-06,0.124
6.810E-06,0.120
6.820E-06,0.116
6.830E-06,0.116
6.840E-06,0.112
6.850E-06,0.112
6.860E-06,0.116
6.870E-06,0.120
6.880E-06,0.120
6.890E-06,0.112
6.900E-06,0.112
6.910E-06,0.108
6.920E-06,0.108
6.930E-06,0.112
6.940E-06,0.120
6.950E-06,0.120
6.960E-06,0.112
6.970E-06,0.108
6.980E-06,0.108
6.990E-06,0.112
7.000E-06,0.108
7.010E-06,0.112
7.020E-06,0.112
7.030E-06,0.112
7.040E-06,0.112
7.050E-06,0.112
7.060E-06,0.112
7.070E-06,0.112
7.080E-06,0.108
7.090E-06,0.104
7.100E-06,0.112
7.110E-06,0.108
7.120E-06,0.108
7.130E-06,0.108
7.140E-06,0.108
7.150E-06,0.108
7.160E-06,0.108
7.170E-06,0.108
7.180E-06,0.104
7.190E-06,0.108
7.200E-06,0.108
7.210E-06,0.104
7.220E-06,0.108
7.230E-06,0.108
7.240E-06,0.108
7.250E-06,0.108
7.260E-06,0.108
7.270E-06,0.108
7.280E-06,0.104
7.290E-06,0.104
7.300E-06,0.108
7.310E-06,0.104
7.320E-06,0.104
7.330E-06,0.104
7.340E-06,0.100
7.350E-06,0.100
7.360E-06,0.100
7.370E-06,0.104
7.380E-06,0.100
7.390E-06,0.100
7.400E-06,0.096
7.410E-06,0.100
7.420E-06,0.096
7.430E-06,0.096
7.440E-06,0.100
7.450E-06,0.096
7.460E-06,0.104
7.470E-06,0.096
7.480E-06,0.100
7.490E-06,0.096
7.500E-06,0.092
7.510E-06,0.092
7.520E-06,0.092
7.530E-06,0.092
7.540E-06,0.096
7.550E-06,0.096
7.560E-06,0.088
7.570E-06,0.096
7.580E-06,0.092
7.590E-06,0.092
7.600E-06,0.092
7.610E-06,0.092
7.620E-06,0.096
7.630E-06,0.096
7.640E-06,0.096
7.650E-06,0.092
7.660E-06,0.088
7.670E-06,0.092
7.680E-06,0.096
7.690E-06,0.092
7.700E-06,0.088
7.710E-06,0.092
7.720E-06,0.088
7.730E-06,0.092
7.740E-06,0.088
7.750E-06,0.092
7.760E-06,0.088
7.770E-06,0.088
7.780E-06,0.088
7.790E-06,0.092
7.800E-06,0.084
7.810E-06,0.088
7.820E-06,0.088
7.830E-06,0.088
7.840E-06,0.092
7.850E-06,0.084
7.860E-06,0.092
7.870E-06,0.088
7.880E-06,0.084
7.890E-06,0.088
7.900E-06,0.084
7.910E-06,0.084
7.920E-06,0.080
7.930E-06,0.088
7.940E-06,0.084
7.950E-06,0.088
7.960E-06,0.080
7.970E-06,0.084
7.980E-06,0.076
7.990E-06,0.076
8.000E-06,0.076
8.010E-06,0.076
8.020E-06,0.084
8.030E-06,0.080
8.040E-06,0.076
8.050E-06,0.076
8.060E-06,0.076
8.070E-06,0.072
8.080E-06,0.080
8.090E-06,0.080
8.100E-06,0.076
8.110E-06,0.080
8.120E-06,0.076
8.130E-06,0.076
8.140E-06,0.072
8.150E-06,0.076
8.160E-06,0.076
8.170E-06,0.072
8.180E-06,0.072
8.190E-06,0.072
8.200E-06,0.080
8.210E-06,0.072
8.220E-06,0.076
8.230E-06,0.068
8.240E-06,0.068
8.250E-06,0.072
8.260E-06,0.072
8.270E-06,0.076
8.280E-06,0.072
8.290E-06,0.072
8.300E-06,0.076
8.310E-06,0.072
8.320E-06,0.068
8.330E-06,0.072
8.340E-06,0.068
8.350E-06,0.072
8.360E-06,0.076
8.370E-06,0.072
8.380E-06,0.068
8.390E-06,0.072
8.400E-06,0.068
8.410E-06,0.060
8.420E-06,0.064
8.430E-06,0.068
8.440E-06,0.068
8.450E-06,0.064
8.460E-06,0.068
8.470E-06,0.064
8.480E-06,0.064
8.490E-06,0.060
8.500E-06,0.068
8.510E-06,0.068
8.520E-06,0.064
8.530E-06,0.064
8.540E-06,0.064
8.550E-06,0.068
8.560E-06,0.064
8.570E-06,0.060
8.580E-06,0.060
8.590E-06,0.060
8.600E-06,0.060
8.610E-06,0.060
8.620E-06,0.060
8.630E-06,0.056
8.640E-06,0.064
8.650E-06,0.060
8.660E-06,0.060
8.670E-06,0.056
8.680E-06,0.056
8.690E-06,0.056
8.700E-06,0.056
8.710E-06,0.060
8.720E-06,0.060
8.730E-06,0.056
8.740E-06,0.060
8.750E-06,0.060
8.760E-06,0.056
8.770E-06,0.060
8.780E-06,0.056
8.790E-06,0.060
8.800E-06,0.056
8.810E-06,0.060
8.820E-06,0.052
8.830E-06,0.056
8.840E-06,0.056
8.850E-06,0.056
8.860E-06,0.056
8.870E-06,0.056
8.880E-06,0.048
8.890E-06,0.044
8.900E-06,0.052
8.910E-06,0.048
8.920E-06,0.052
8.930E-06,0.056
8.940E-06,0.052
8.950E-06,0.052
8.960E-06,0.052
8.970E-06,0.052
8.980E-06,0.048
8.990E-06,0.048
9.000E-06,0.056
9.010E-06,0.056
9.020E-06,0.052
9.030E-06,0.056
9.040E-06,0.048
9.050E-06,0.044
9.060E-06,0.044
9.070E-06,0.044
9.080E-06,0.044
9.090E-06,0.048
9.100E-06,0.048
9.110E-06,0.044
9.120E-06,0.044
9.130E-06,0.040
9.140E-06,0.044
9.150E-06,0.048
9.160E-06,0.044
9.170E-06,0.048
9.180E-06,0.044
9.190E-06,0.048
9.200E-06,0.048
9.210E-06,0.044
9.220E-06,0.040
9.230E-06,0.044
9.240E-06,0.048
9.250E-06,0.048
9.260E-06,0.044
9.270E-06,0.048
9.280E-06,0.048
9.290E-06,0.040
9.300E-06,0.040
9.310E-06,0.040
9.320E-06,0.044
9.330E-06,0.048
9.340E-06,0.048
9.350E-06,0.044
9.360E-06,0.044
9.370E-06,0.044
9.380E-06,0.044
9.390E-06,0.040
9.400E-06,0.044
9.410E-06,0.044
9.420E-06,0.040
9.430E-06,0.040
9.440E-06,0.032
9.450E-06,0.036
9.460E-06,0.040
9.470E-06,0.028
9.480E-06,0.036
9.490E-06,0.036
9.500E-06,0.036
9.510E-06,0.032
9.520E-06,0.036
9.530E-06,0.040
9.540E-06,0.040
9.550E-06,0.028
9.560E-06,0.032
9.570E-06,0.028
9.580E-06,0.032
9.590E-06,0.036
9.600E-06,0.028
9.610E-06,0.028
9.620E-06,0.028
9.630E-06,0.032
9.640E-06,0.028
9.650E-06,0.032
9.660E-06,0.032
9.670E-06,0.032
9.680E-06,0.024
9.690E-06,0.024
9.700E-06,0.028
9.710E-06,0.024
9.720E-06,0.028
9.730E-06,0.028
9.740E-06,0.028
9.750E-06,0.028
9.760E-06,0.028
9.770E-06,0.032
9.780E-06,0.032
9.790E-06,0.036
9.800E-06,0.028
9.810E-06,0.032
9.820E-06,0.032
9.830E-06,0.028
9.840E-06,0.024
9.850E-06,0.028
9.860E-06,0.028
