mediciones/Mediciones filtradas (saque las feas)/6-3/-7.5/WaveData5356.csv

#timebase=2000000(ps)
,#voltbase=100000(mv/100)
#size=4000
-2.300E-06,0.000
-2.290E-06,0.000
-2.280E-06,-0.008
-2.270E-06,-0.008
-2.260E-06,-0.004
-2.250E-06,0.004
-2.240E-06,0.004
-2.230E-06,0.004
-2.220E-06,0.004
-2.210E-06,-0.004
-2.200E-06,0.004
-2.190E-06,-0.004
-2.180E-06,-0.004
-2.170E-06,0.008
-2.160E-06,0.012
-2.150E-06,0.012
-2.140E-06,0.024
-2.130E-06,0.020
-2.120E-06,0.012
-2.110E-06,0.012
-2.100E-06,0.008
-2.090E-06,0.012
-2.080E-06,0.024
-2.070E-06,0.024
-2.060E-06,0.024
-2.050E-06,0.028
-2.040E-06,0.024
-2.030E-06,0.024
-2.020E-06,0.024
-2.010E-06,0.020
-2.000E-06,0.028
-1.990E-06,0.044
-1.980E-06,0.048
-1.970E-06,0.060
-1.960E-06,0.052
-1.950E-06,0.036
-1.940E-06,0.008
-1.930E-06,0.008
-1.920E-06,0.008
-1.910E-06,0.028
-1.900E-06,0.020
-1.890E-06,0.044
-1.880E-06,0.060
-1.870E-06,0.028
-1.860E-06,0.028
-1.850E-06,0.024
-1.840E-06,0.052
-1.830E-06,0.020
-1.820E-06,-0.036
-1.810E-06,-0.084
-1.800E-06,-0.240
-1.790E-06,-0.184
-1.780E-06,-0.136
-1.770E-06,-0.028
-1.760E-06,0.136
-1.750E-06,0.104
-1.740E-06,0.024
-1.730E-06,-0.028
-1.720E-06,-0.104
-1.710E-06,-0.044
-1.700E-06,-0.104
-1.690E-06,0.012
-1.680E-06,0.048
-1.670E-06,0.068
-1.660E-06,0.024
-1.650E-06,0.008
-1.640E-06,-0.004
-1.630E-06,-0.084
-1.620E-06,0.004
-1.610E-06,-0.016
-1.600E-06,0.040
-1.590E-06,0.040
-1.580E-06,0.084
-1.570E-06,0.000
-1.560E-06,0.008
-1.550E-06,0.008
-1.540E-06,-0.012
-1.530E-06,0.000
-1.520E-06,0.044
-1.510E-06,0.056
-1.500E-06,0.056
-1.490E-06,0.052
-1.480E-06,0.044
-1.470E-06,0.028
-1.460E-06,0.036
-1.450E-06,0.064
-1.440E-06,0.032
-1.430E-06,0.044
-1.420E-06,0.020
-1.410E-06,0.024
-1.400E-06,-0.040
-1.390E-06,-0.072
-1.380E-06,-0.024
-1.370E-06,-0.060
-1.360E-06,0.044
-1.350E-06,0.080
-1.340E-06,0.060
-1.330E-06,0.144
-1.320E-06,0.024
-1.310E-06,0.036
-1.300E-06,-0.064
-1.290E-06,-0.072
-1.280E-06,-0.136
-1.270E-06,-0.072
-1.260E-06,-0.012
-1.250E-06,0.024
-1.240E-06,0.080
-1.230E-06,0.072
-1.220E-06,-0.004
-1.210E-06,-0.060
-1.200E-06,-0.060
-1.190E-06,-0.012
-1.180E-06,0.008
-1.170E-06,0.100
-1.160E-06,0.088
-1.150E-06,-0.024
-1.140E-06,0.056
-1.130E-06,-0.148
-1.120E-06,-0.136
-1.110E-06,-0.100
-1.100E-06,-0.068
-1.090E-06,0.004
-1.080E-06,0.140
-1.070E-06,0.076
-1.060E-06,0.032
-1.050E-06,0.000
-1.040E-06,-0.044
-1.030E-06,-0.068
-1.020E-06,-0.064
-1.010E-06,-0.008
-1.000E-06,0.040
-9.900E-07,0.124
-9.800E-07,0.080
-9.700E-07,0.040
-9.600E-07,-0.016
-9.500E-07,-0.112
-9.400E-07,-0.112
-9.300E-07,-0.076
-9.200E-07,-0.008
-9.100E-07,0.032
-9.000E-07,0.124
-8.900E-07,0.096
-8.800E-07,0.052
-8.700E-07,-0.016
-8.600E-07,-0.012
-8.500E-07,-0.008
-8.400E-07,0.024
-8.300E-07,0.072
-8.200E-07,0.096
-8.100E-07,0.104
-8.000E-07,0.076
-7.900E-07,0.024
-7.800E-07,-0.024
-7.700E-07,-0.048
-7.600E-07,-0.036
-7.500E-07,0.004
-7.400E-07,0.036
-7.300E-07,0.080
-7.200E-07,0.076
-7.100E-07,0.060
-7.000E-07,0.040
-6.900E-07,0.016
-6.800E-07,0.028
-6.700E-07,0.020
-6.600E-07,0.048
-6.500E-07,0.060
-6.400E-07,0.036
-6.300E-07,0.028
-6.200E-07,0.012
-6.100E-07,-0.020
-6.000E-07,-0.028
-5.900E-07,-0.008
-5.800E-07,-0.044
-5.700E-07,-0.028
-5.600E-07,-0.016
-5.500E-07,-0.024
-5.400E-07,0.000
-5.300E-07,-0.012
-5.200E-07,-0.004
-5.100E-07,-0.016
-5.000E-07,0.004
-4.900E-07,0.024
-4.800E-07,0.036
-4.700E-07,0.064
-4.600E-07,0.060
-4.500E-07,0.092
-4.400E-07,0.084
-4.300E-07,0.080
-4.200E-07,0.084
-4.100E-07,0.068
-4.000E-07,0.072
-3.900E-07,0.068
-3.800E-07,0.072
-3.700E-07,0.056
-3.600E-07,0.060
-3.500E-07,0.024
-3.400E-07,0.032
-3.300E-07,0.040
-3.200E-07,0.032
-3.100E-07,0.048
-3.000E-07,0.052
-2.900E-07,0.080
-2.800E-07,0.068
-2.700E-07,0.088
-2.600E-07,0.112
-2.500E-07,0.108
-2.400E-07,0.064
-2.300E-07,0.076
-2.200E-07,0.080
-2.100E-07,0.068
-2.000E-07,0.080
-1.900E-07,0.076
-1.800E-07,0.060
-1.700E-07,0.052
-1.600E-07,0.064
-1.500E-07,0.044
-1.400E-07,0.084
-1.300E-07,0.088
-1.200E-07,0.092
-1.100E-07,0.088
-1.000E-07,0.084
-9.000E-08,0.072
-8.000E-08,-0.004
-7.000E-08,-0.088
-6.000E-08,-0.120
-5.000E-08,-0.512
-4.000E-08,-0.508
-3.000E-08,-0.512
-2.000E-08,-0.408
-1.000E-08,0.260
0.000E+00,0.540
1.000E-08,0.540
2.000E-08,0.372
3.000E-08,-0.408
4.000E-08,-0.512
5.000E-08,-0.512
6.000E-08,-0.076
7.000E-08,0.364
8.000E-08,0.368
9.000E-08,0.316
1.000E-07,0.156
1.100E-07,0.040
1.200E-07,-0.240
1.300E-07,-0.136
1.400E-07,-0.172
1.500E-07,-0.180
1.600E-07,0.084
1.700E-07,0.264
1.800E-07,0.152
1.900E-07,0.068
2.000E-07,0.124
2.100E-07,-0.008
2.200E-07,-0.124
2.300E-07,-0.044
2.400E-07,0.024
2.500E-07,-0.044
2.600E-07,0.008
2.700E-07,0.104
2.800E-07,0.120
2.900E-07,0.096
3.000E-07,0.184
3.100E-07,0.228
3.200E-07,0.128
3.300E-07,0.064
3.400E-07,0.112
3.500E-07,0.076
3.600E-07,0.044
3.700E-07,0.136
3.800E-07,0.044
3.900E-07,-0.128
4.000E-07,-0.348
4.100E-07,-0.512
4.200E-07,-0.408
4.300E-07,-0.508
4.400E-07,-0.144
4.500E-07,0.028
4.600E-07,0.316
4.700E-07,0.300
4.800E-07,0.164
4.900E-07,-0.104
5.000E-07,-0.252
5.100E-07,-0.144
5.200E-07,-0.052
5.300E-07,0.076
5.400E-07,0.192
5.500E-07,0.192
5.600E-07,0.000
5.700E-07,-0.008
5.800E-07,-0.068
5.900E-07,-0.028
6.000E-07,-0.028
6.100E-07,0.124
6.200E-07,0.164
6.300E-07,0.136
6.400E-07,0.132
6.500E-07,0.032
6.600E-07,-0.032
6.700E-07,-0.160
6.800E-07,-0.128
6.900E-07,-0.124
7.000E-07,-0.072
7.100E-07,0.004
7.200E-07,0.028
7.300E-07,0.060
7.400E-07,0.012
7.500E-07,-0.016
7.600E-07,-0.056
7.700E-07,-0.020
7.800E-07,0.020
7.900E-07,0.048
8.000E-07,0.052
8.100E-07,0.024
8.200E-07,0.028
8.300E-07,-0.024
8.400E-07,-0.016
8.500E-07,-0.024
8.600E-07,0.028
8.700E-07,0.020
8.800E-07,0.072
8.900E-07,0.076
9.000E-07,0.068
9.100E-07,0.076
9.200E-07,0.000
9.300E-07,0.000
9.400E-07,0.024
9.500E-07,0.056
9.600E-07,0.076
9.700E-07,0.088
9.800E-07,0.148
9.900E-07,0.160
1.000E-06,0.124
1.010E-06,0.076
1.020E-06,0.020
1.030E-06,0.028
1.040E-06,0.024
1.050E-06,0.044
1.060E-06,0.012
1.070E-06,0.012
1.080E-06,-0.024
1.090E-06,-0.068
1.100E-06,-0.072
1.110E-06,-0.088
1.120E-06,-0.088
1.130E-06,-0.052
1.140E-06,-0.024
1.150E-06,0.004
1.160E-06,-0.012
1.170E-06,0.000
1.180E-06,0.024
1.190E-06,0.020
1.200E-06,0.044
1.210E-06,0.036
1.220E-06,0.060
1.230E-06,0.072
1.240E-06,0.096
1.250E-06,0.100
1.260E-06,0.092
1.270E-06,0.072
1.280E-06,0.080
1.290E-06,0.084
1.300E-06,0.096
1.310E-06,0.116
1.320E-06,0.124
1.330E-06,0.136
1.340E-06,0.128
1.350E-06,0.116
1.360E-06,0.088
1.370E-06,0.096
1.380E-06,0.060
1.390E-06,0.092
1.400E-06,0.120
1.410E-06,0.112
1.420E-06,0.160
1.430E-06,0.024
1.440E-06,-0.200
1.450E-06,-0.512
1.460E-06,-0.508
1.470E-06,-0.512
1.480E-06,-0.512
1.490E-06,0.540
1.500E-06,0.232
1.510E-06,0.352
1.520E-06,-0.040
1.530E-06,0.176
1.540E-06,-0.364
1.550E-06,-0.436
1.560E-06,-0.044
1.570E-06,0.152
1.580E-06,0.136
1.590E-06,0.308
1.600E-06,0.284
1.610E-06,-0.316
1.620E-06,-0.308
1.630E-06,-0.140
1.640E-06,0.088
1.650E-06,0.000
1.660E-06,0.288
1.670E-06,0.144
1.680E-06,-0.004
1.690E-06,-0.108
1.700E-06,-0.020
1.710E-06,-0.096
1.720E-06,-0.132
1.730E-06,0.128
1.740E-06,0.144
1.750E-06,0.076
1.760E-06,0.004
1.770E-06,0.088
1.780E-06,-0.096
1.790E-06,-0.092
1.800E-06,0.036
1.810E-06,0.096
1.820E-06,0.080
1.830E-06,0.108
1.840E-06,0.156
1.850E-06,-0.024
1.860E-06,-0.036
1.870E-06,0.028
1.880E-06,0.076
1.890E-06,0.064
1.900E-06,0.136
1.910E-06,0.168
1.920E-06,0.120
1.930E-06,0.096
1.940E-06,0.076
1.950E-06,0.068
1.960E-06,0.044
1.970E-06,0.100
1.980E-06,0.084
1.990E-06,0.064
2.000E-06,0.060
2.010E-06,0.056
2.020E-06,0.016
2.030E-06,0.024
2.040E-06,0.092
2.050E-06,0.112
2.060E-06,0.124
2.070E-06,0.132
2.080E-06,0.132
2.090E-06,0.104
2.100E-06,0.036
2.110E-06,0.024
2.120E-06,-0.056
2.130E-06,-0.144
2.140E-06,-0.216
2.150E-06,-0.264
2.160E-06,-0.244
2.170E-06,-0.232
2.180E-06,-0.108
2.190E-06,-0.096
2.200E-06,-0.012
2.210E-06,-0.004
2.220E-06,0.024
2.230E-06,0.028
2.240E-06,0.056
2.250E-06,0.056
2.260E-06,0.044
2.270E-06,0.036
2.280E-06,0.028
2.290E-06,0.032
2.300E-06,0.076
2.310E-06,0.112
2.320E-06,0.084
2.330E-06,0.104
2.340E-06,0.124
2.350E-06,0.128
2.360E-06,0.088
2.370E-06,0.084
2.380E-06,0.092
2.390E-06,0.100
2.400E-06,0.096
2.410E-06,0.096
2.420E-06,0.076
2.430E-06,0.068
2.440E-06,0.084
2.450E-06,0.108
2.460E-06,0.136
2.470E-06,0.140
2.480E-06,0.156
2.490E-06,0.152
2.500E-06,0.148
2.510E-06,0.128
2.520E-06,0.124
2.530E-06,0.112
2.540E-06,0.120
2.550E-06,0.140
2.560E-06,0.136
2.570E-06,0.140
2.580E-06,0.132
2.590E-06,0.132
2.600E-06,0.124
2.610E-06,0.116
2.620E-06,0.132
2.630E-06,0.132
2.640E-06,0.152
2.650E-06,0.140
2.660E-06,0.144
2.670E-06,0.092
2.680E-06,0.096
2.690E-06,0.080
2.700E-06,0.128
2.710E-06,0.144
2.720E-06,0.120
2.730E-06,0.024
2.740E-06,-0.152
2.750E-06,-0.368
2.760E-06,-0.508
2.770E-06,-0.512
2.780E-06,-0.384
2.790E-06,-0.504
2.800E-06,0.072
2.810E-06,-0.020
2.820E-06,0.544
2.830E-06,-0.336
2.840E-06,-0.512
2.850E-06,-0.512
2.860E-06,-0.512
2.870E-06,-0.116
2.880E-06,0.540
2.890E-06,0.540
2.900E-06,0.408
2.910E-06,0.228
2.920E-06,-0.340
2.930E-06,-0.512
2.940E-06,-0.292
2.950E-06,-0.084
2.960E-06,0.188
2.970E-06,0.416
2.980E-06,0.392
2.990E-06,0.120
3.000E-06,-0.004
3.010E-06,-0.132
3.020E-06,-0.044
3.030E-06,0.044
3.040E-06,0.232
3.050E-06,0.300
3.060E-06,0.272
3.070E-06,0.164
3.080E-06,0.100
3.090E-06,0.008
3.100E-06,0.000
3.110E-06,0.112
3.120E-06,0.180
3.130E-06,0.264
3.140E-06,0.272
3.150E-06,0.220
3.160E-06,0.124
3.170E-06,0.088
3.180E-06,0.092
3.190E-06,0.124
3.200E-06,0.188
3.210E-06,0.220
3.220E-06,0.236
3.230E-06,0.192
3.240E-06,0.160
3.250E-06,0.124
3.260E-06,0.116
3.270E-06,0.124
3.280E-06,0.156
3.290E-06,0.164
3.300E-06,0.208
3.310E-06,0.176
3.320E-06,0.152
3.330E-06,0.108
3.340E-06,0.076
3.350E-06,0.096
3.360E-06,0.072
3.370E-06,0.080
3.380E-06,0.060
3.390E-06,0.028
3.400E-06,0.012
3.410E-06,0.088
3.420E-06,0.096
3.430E-06,0.164
3.440E-06,0.204
3.450E-06,0.196
3.460E-06,0.144
3.470E-06,0.072
3.480E-06,0.096
3.490E-06,-0.036
3.500E-06,-0.064
3.510E-06,-0.276
3.520E-06,-0.440
3.530E-06,-0.512
3.540E-06,-0.512
3.550E-06,-0.348
3.560E-06,-0.100
3.570E-06,0.028
3.580E-06,-0.084
3.590E-06,-0.060
3.600E-06,-0.308
3.610E-06,-0.384
3.620E-06,-0.408
3.630E-06,-0.184
3.640E-06,0.032
3.650E-06,0.332
3.660E-06,0.280
3.670E-06,0.056
3.680E-06,-0.020
3.690E-06,-0.092
3.700E-06,-0.176
3.710E-06,-0.068
3.720E-06,0.232
3.730E-06,0.244
3.740E-06,0.208
3.750E-06,0.148
3.760E-06,0.072
3.770E-06,-0.052
3.780E-06,-0.040
3.790E-06,0.076
3.800E-06,0.200
3.810E-06,0.240
3.820E-06,0.260
3.830E-06,0.244
3.840E-06,0.124
3.850E-06,0.072
3.860E-06,0.068
3.870E-06,0.112
3.880E-06,0.160
3.890E-06,0.224
3.900E-06,0.252
3.910E-06,0.212
3.920E-06,0.164
3.930E-06,0.128
3.940E-06,0.100
3.950E-06,0.108
3.960E-06,0.152
3.970E-06,0.192
3.980E-06,0.196
3.990E-06,0.188
4.000E-06,0.172
4.010E-06,0.136
4.020E-06,0.112
4.030E-06,0.120
4.040E-06,0.136
4.050E-06,0.152
4.060E-06,0.164
4.070E-06,0.148
4.080E-06,0.100
4.090E-06,0.060
4.100E-06,0.060
4.110E-06,0.060
4.120E-06,0.092
4.130E-06,0.124
4.140E-06,0.136
4.150E-06,0.144
4.160E-06,0.156
4.170E-06,0.152
4.180E-06,0.160
4.190E-06,0.156
4.200E-06,0.156
4.210E-06,0.140
4.220E-06,0.140
4.230E-06,0.136
4.240E-06,0.132
4.250E-06,0.124
4.260E-06,0.124
4.270E-06,0.116
4.280E-06,0.140
4.290E-06,0.144
4.300E-06,0.144
4.310E-06,0.148
4.320E-06,0.140
4.330E-06,0.140
4.340E-06,0.132
4.350E-06,0.136
4.360E-06,0.140
4.370E-06,0.148
4.380E-06,0.140
4.390E-06,0.140
4.400E-06,0.136
4.410E-06,0.128
4.420E-06,0.128
4.430E-06,0.140
4.440E-06,0.140
4.450E-06,0.140
4.460E-06,0.156
4.470E-06,0.168
4.480E-06,0.160
4.490E-06,0.156
4.500E-06,0.148
4.510E-06,0.144
4.520E-06,0.144
4.530E-06,0.148
4.540E-06,0.160
4.550E-06,0.168
4.560E-06,0.160
4.570E-06,0.156
4.580E-06,0.148
4.590E-06,0.144
4.600E-06,0.140
4.610E-06,0.144
4.620E-06,0.144
4.630E-06,0.136
4.640E-06,0.132
4.650E-06,0.124
4.660E-06,0.128
4.670E-06,0.128
4.680E-06,0.128
4.690E-06,0.128
4.700E-06,0.140
4.710E-06,0.144
4.720E-06,0.148
4.730E-06,0.152
4.740E-06,0.152
4.750E-06,0.148
4.760E-06,0.144
4.770E-06,0.152
4.780E-06,0.144
4.790E-06,0.156
4.800E-06,0.156
4.810E-06,0.156
4.820E-06,0.152
4.830E-06,0.144
4.840E-06,0.144
4.850E-06,0.144
4.860E-06,0.144
4.870E-06,0.152
4.880E-06,0.152
4.890E-06,0.148
4.900E-06,0.148
4.910E-06,0.144
4.920E-06,0.144
4.930E-06,0.140
4.940E-06,0.148
4.950E-06,0.140
4.960E-06,0.136
4.970E-06,0.140
4.980E-06,0.144
4.990E-06,0.140
5.000E-06,0.136
5.010E-06,0.136
5.020E-06,0.136
5.030E-06,0.140
5.040E-06,0.140
5.050E-06,0.140
5.060E-06,0.144
5.070E-06,0.140
5.080E-06,0.140
5.090E-06,0.144
5.100E-06,0.140
5.110E-06,0.144
5.120E-06,0.136
5.130E-06,0.136
5.140E-06,0.136
5.150E-06,0.136
5.160E-06,0.136
5.170E-06,0.132
5.180E-06,0.128
5.190E-06,0.136
5.200E-06,0.136
5.210E-06,0.132
5.220E-06,0.136
5.230E-06,0.144
5.240E-06,0.132
5.250E-06,0.132
5.260E-06,0.128
5.270E-06,0.128
5.280E-06,0.132
5.290E-06,0.132
5.300E-06,0.132
5.310E-06,0.132
5.320E-06,0.132
5.330E-06,0.132
5.340E-06,0.128
5.350E-06,0.132
5.360E-06,0.128
5.370E-06,0.132
5.380E-06,0.128
5.390E-06,0.136
5.400E-06,0.136
5.410E-06,0.128
5.420E-06,0.128
5.430E-06,0.132
5.440E-06,0.136
5.450E-06,0.132
5.460E-06,0.128
5.470E-06,0.128
5.480E-06,0.128
5.490E-06,0.128
5.500E-06,0.124
5.510E-06,0.124
5.520E-06,0.120
5.530E-06,0.120
5.540E-06,0.128
5.550E-06,0.128
5.560E-06,0.128
5.570E-06,0.128
5.580E-06,0.124
5.590E-06,0.124
5.600E-06,0.124
5.610E-06,0.124
5.620E-06,0.120
5.630E-06,0.124
5.640E-06,0.124
5.650E-06,0.124
5.660E-06,0.124
5.670E-06,0.128
5.680E-06,0.124
5.690E-06,0.124
5.700E-06,0.124
5.710E-06,0.128
5.720E-06,0.124
5.730E-06,0.124
5.740E-06,0.124
5.750E-06,0.124
5.760E-06,0.124
5.770E-06,0.120
5.780E-06,0.120
5.790E-06,0.124
5.800E-06,0.124
5.810E-06,0.124
5.820E-06,0.128
5.830E-06,0.128
5.840E-06,0.124
5.850E-06,0.124
5.860E-06,0.124
5.870E-06,0.124
5.880E-06,0.124
5.890E-06,0.124
5.900E-06,0.124
5.910E-06,0.124
5.920E-06,0.124
5.930E-06,0.124
5.940E-06,0.120
5.950E-06,0.128
5.960E-06,0.120
5.970E-06,0.120
5.980E-06,0.120
5.990E-06,0.120
6.000E-06,0.116
6.010E-06,0.112
6.020E-06,0.112
6.030E-06,0.112
6.040E-06,0.116
6.050E-06,0.112
6.060E-06,0.112
6.070E-06,0.112
6.080E-06,0.112
6.090E-06,0.108
6.100E-06,0.112
6.110E-06,0.112
6.120E-06,0.112
6.130E-06,0.112
6.140E-06,0.112
6.150E-06,0.108
6.160E-06,0.112
6.170E-06,0.112
6.180E-06,0.112
6.190E-06,0.108
6.200E-06,0.104
6.210E-06,0.108
6.220E-06,0.104
6.230E-06,0.108
6.240E-06,0.112
6.250E-06,0.104
6.260E-06,0.108
6.270E-06,0.104
6.280E-06,0.104
6.290E-06,0.108
6.300E-06,0.108
6.310E-06,0.112
6.320E-06,0.112
6.330E-06,0.104
6.340E-06,0.104
6.350E-06,0.104
6.360E-06,0.108
6.370E-06,0.108
6.380E-06,0.104
6.390E-06,0.112
6.400E-06,0.108
6.410E-06,0.108
6.420E-06,0.104
6.430E-06,0.100
6.440E-06,0.096
6.450E-06,0.100
6.460E-06,0.104
6.470E-06,0.108
6.480E-06,0.104
6.490E-06,0.096
6.500E-06,0.096
6.510E-06,0.100
6.520E-06,0.096
6.530E-06,0.096
6.540E-06,0.092
6.550E-06,0.100
6.560E-06,0.100
6.570E-06,0.096
6.580E-06,0.100
6.590E-06,0.096
6.600E-06,0.096
6.610E-06,0.088
6.620E-06,0.096
6.630E-06,0.096
6.640E-06,0.092
6.650E-06,0.096
6.660E-06,0.096
6.670E-06,0.096
6.680E-06,0.092
6.690E-06,0.088
6.700E-06,0.096
6.710E-06,0.100
6.720E-06,0.092
6.730E-06,0.096
6.740E-06,0.092
6.750E-06,0.092
6.760E-06,0.096
6.770E-06,0.088
6.780E-06,0.092
6.790E-06,0.092
6.800E-06,0.088
6.810E-06,0.088
6.820E-06,0.096
6.830E-06,0.092
6.840E-06,0.088
6.850E-06,0.092
6.860E-06,0.092
6.870E-06,0.092
6.880E-06,0.092
6.890E-06,0.088
6.900E-06,0.088
6.910E-06,0.092
6.920E-06,0.088
6.930E-06,0.088
6.940E-06,0.088
6.950E-06,0.084
6.960E-06,0.088
6.970E-06,0.092
6.980E-06,0.088
6.990E-06,0.088
7.000E-06,0.084
7.010E-06,0.080
7.020E-06,0.076
7.030E-06,0.080
7.040E-06,0.088
7.050E-06,0.084
7.060E-06,0.088
7.070E-06,0.092
7.080E-06,0.084
7.090E-06,0.088
7.100E-06,0.088
7.110E-06,0.088
7.120E-06,0.080
7.130E-06,0.084
7.140E-06,0.084
7.150E-06,0.084
7.160E-06,0.088
7.170E-06,0.080
7.180E-06,0.080
7.190E-06,0.080
7.200E-06,0.080
7.210E-06,0.080
7.220E-06,0.076
7.230E-06,0.084
7.240E-06,0.080
7.250E-06,0.076
7.260E-06,0.072
7.270E-06,0.076
7.280E-06,0.076
7.290E-06,0.076
7.300E-06,0.076
7.310E-06,0.076
7.320E-06,0.076
7.330E-06,0.072
7.340E-06,0.072
7.350E-06,0.076
7.360E-06,0.076
7.370E-06,0.072
7.380E-06,0.076
7.390E-06,0.072
7.400E-06,0.072
7.410E-06,0.076
7.420E-06,0.076
7.430E-06,0.072
7.440E-06,0.072
7.450E-06,0.076
7.460E-06,0.072
7.470E-06,0.072
7.480E-06,0.076
7.490E-06,0.072
7.500E-06,0.076
7.510E-06,0.072
7.520E-06,0.076
7.530E-06,0.072
7.540E-06,0.072
7.550E-06,0.076
7.560E-06,0.072
7.570E-06,0.068
7.580E-06,0.072
7.590E-06,0.068
7.600E-06,0.068
7.610E-06,0.068
7.620E-06,0.068
7.630E-06,0.072
7.640E-06,0.064
7.650E-06,0.064
7.660E-06,0.064
7.670E-06,0.064
7.680E-06,0.068
7.690E-06,0.064
7.700E-06,0.064
7.710E-06,0.064
7.720E-06,0.064
7.730E-06,0.064
7.740E-06,0.072
7.750E-06,0.068
7.760E-06,0.064
7.770E-06,0.068
7.780E-06,0.060
7.790E-06,0.068
7.800E-06,0.068
7.810E-06,0.060
7.820E-06,0.064
7.830E-06,0.064
7.840E-06,0.064
7.850E-06,0.060
7.860E-06,0.064
7.870E-06,0.064
7.880E-06,0.060
7.890E-06,0.064
7.900E-06,0.060
7.910E-06,0.060
7.920E-06,0.060
7.930E-06,0.056
7.940E-06,0.056
7.950E-06,0.060
7.960E-06,0.060
7.970E-06,0.060
7.980E-06,0.056
7.990E-06,0.060
8.000E-06,0.060
8.010E-06,0.056
8.020E-06,0.060
8.030E-06,0.056
8.040E-06,0.060
8.050E-06,0.060
8.060E-06,0.056
8.070E-06,0.060
8.080E-06,0.060
8.090E-06,0.056
8.100E-06,0.056
8.110E-06,0.056
8.120E-06,0.056
8.130E-06,0.056
8.140E-06,0.056
8.150E-06,0.052
8.160E-06,0.052
8.170E-06,0.056
8.180E-06,0.056
8.190E-06,0.056
8.200E-06,0.060
8.210E-06,0.048
8.220E-06,0.048
8.230E-06,0.044
8.240E-06,0.044
8.250E-06,0.052
8.260E-06,0.048
8.270E-06,0.052
8.280E-06,0.052
8.290E-06,0.056
8.300E-06,0.056
8.310E-06,0.048
8.320E-06,0.048
8.330E-06,0.048
8.340E-06,0.048
8.350E-06,0.052
8.360E-06,0.048
8.370E-06,0.040
8.380E-06,0.048
8.390E-06,0.044
8.400E-06,0.044
8.410E-06,0.048
8.420E-06,0.052
8.430E-06,0.048
8.440E-06,0.052
8.450E-06,0.044
8.460E-06,0.044
8.470E-06,0.044
8.480E-06,0.044
8.490E-06,0.040
8.500E-06,0.044
8.510E-06,0.044
8.520E-06,0.036
8.530E-06,0.040
8.540E-06,0.044
8.550E-06,0.048
8.560E-06,0.044
8.570E-06,0.040
8.580E-06,0.048
8.590E-06,0.040
8.600E-06,0.036
8.610E-06,0.040
8.620E-06,0.044
8.630E-06,0.040
8.640E-06,0.040
8.650E-06,0.040
8.660E-06,0.036
8.670E-06,0.040
8.680E-06,0.040
8.690E-06,0.036
8.700E-06,0.036
8.710E-06,0.036
8.720E-06,0.040
8.730E-06,0.036
8.740E-06,0.036
8.750E-06,0.040
8.760E-06,0.040
8.770E-06,0.040
8.780E-06,0.040
8.790E-06,0.036
8.800E-06,0.032
8.810E-06,0.036
8.820E-06,0.036
8.830E-06,0.040
8.840E-06,0.036
8.850E-06,0.036
8.860E-06,0.036
8.870E-06,0.028
8.880E-06,0.028
8.890E-06,0.028
8.900E-06,0.032
8.910E-06,0.032
8.920E-06,0.032
8.930E-06,0.032
8.940E-06,0.036
8.950E-06,0.028
8.960E-06,0.028
8.970E-06,0.028
8.980E-06,0.032
8.990E-06,0.032
9.000E-06,0.028
9.010E-06,0.032
9.020E-06,0.032
9.030E-06,0.028
9.040E-06,0.036
9.050E-06,0.032
9.060E-06,0.028
9.070E-06,0.028
9.080E-06,0.032
9.090E-06,0.036
9.100E-06,0.036
9.110E-06,0.036
9.120E-06,0.036
9.130E-06,0.028
9.140E-06,0.036
9.150E-06,0.032
9.160E-06,0.036
9.170E-06,0.036
9.180E-06,0.036
9.190E-06,0.028
9.200E-06,0.028
9.210E-06,0.032
9.220E-06,0.028
9.230E-06,0.028
9.240E-06,0.024
9.250E-06,0.028
9.260E-06,0.024
9.270E-06,0.028
9.280E-06,0.024
9.290E-06,0.024
9.300E-06,0.024
9.310E-06,0.024
9.320E-06,0.028
9.330E-06,0.032
9.340E-06,0.028
9.350E-06,0.024
9.360E-06,0.024
9.370E-06,0.024
9.380E-06,0.028
9.390E-06,0.024
9.400E-06,0.024
9.410E-06,0.024
9.420E-06,0.024
9.430E-06,0.028
9.440E-06,0.024
9.450E-06,0.020
9.460E-06,0.020
9.470E-06,0.020
9.480E-06,0.024
9.490E-06,0.024
9.500E-06,0.028
9.510E-06,0.024
9.520E-06,0.016
9.530E-06,0.016
9.540E-06,0.020
9.550E-06,0.016
9.560E-06,0.020
9.570E-06,0.016
9.580E-06,0.020
9.590E-06,0.020
9.600E-06,0.024
9.610E-06,0.016
9.620E-06,0.020
9.630E-06,0.016
9.640E-06,0.008
9.650E-06,0.020
9.660E-06,0.024
9.670E-06,0.016
9.680E-06,0.016
9.690E-06,0.016
9.700E-06,0.016
9.710E-06,0.016
9.720E-06,0.016
9.730E-06,0.016
9.740E-06,0.008
9.750E-06,0.008
9.760E-06,0.012
9.770E-06,0.016
9.780E-06,0.016
9.790E-06,0.008
9.800E-06,0.012
9.810E-06,0.012
9.820E-06,0.012
9.830E-06,0.012
9.840E-06,0.012
9.850E-06,0.012
9.860E-06,0.012
9.870E-06,0.012
9.880E-06,0.012
9.890E-06,0.004
