mediciones/Mediciones filtradas (saque las feas)/6-3/-7.5/WaveData5380.csv

#timebase=2000000(ps)
,#voltbase=100000(mv/100)
#size=4000
-2.300E-06,-0.084
-2.290E-06,-0.152
-2.280E-06,-0.068
-2.270E-06,-0.016
-2.260E-06,0.032
-2.250E-06,0.060
-2.240E-06,0.044
-2.230E-06,0.004
-2.220E-06,-0.056
-2.210E-06,-0.064
-2.200E-06,-0.044
-2.190E-06,-0.012
-2.180E-06,0.008
-2.170E-06,0.056
-2.160E-06,0.060
-2.150E-06,0.044
-2.140E-06,0.004
-2.130E-06,-0.016
-2.120E-06,-0.024
-2.110E-06,-0.012
-2.100E-06,0.028
-2.090E-06,0.052
-2.080E-06,0.056
-2.070E-06,0.044
-2.060E-06,0.016
-2.050E-06,0.000
-2.040E-06,-0.012
-2.030E-06,0.012
-2.020E-06,0.028
-2.010E-06,0.056
-2.000E-06,0.072
-1.990E-06,0.088
-1.980E-06,0.088
-1.970E-06,0.100
-1.960E-06,0.036
-1.950E-06,0.044
-1.940E-06,0.040
-1.930E-06,-0.004
-1.920E-06,-0.108
-1.910E-06,-0.140
-1.900E-06,-0.116
-1.890E-06,-0.080
-1.880E-06,-0.004
-1.870E-06,0.048
-1.860E-06,0.024
-1.850E-06,0.008
-1.840E-06,-0.008
-1.830E-06,-0.028
-1.820E-06,-0.072
-1.810E-06,-0.088
-1.800E-06,-0.016
-1.790E-06,0.000
-1.780E-06,0.032
-1.770E-06,0.036
-1.760E-06,0.032
-1.750E-06,0.000
-1.740E-06,-0.016
-1.730E-06,-0.012
-1.720E-06,-0.012
-1.710E-06,-0.008
-1.700E-06,0.016
-1.690E-06,0.028
-1.680E-06,0.020
-1.670E-06,0.008
-1.660E-06,0.004
-1.650E-06,0.012
-1.640E-06,0.016
-1.630E-06,0.032
-1.620E-06,0.068
-1.610E-06,0.084
-1.600E-06,0.092
-1.590E-06,0.084
-1.580E-06,0.092
-1.570E-06,0.072
-1.560E-06,0.056
-1.550E-06,0.056
-1.540E-06,0.060
-1.530E-06,0.028
-1.520E-06,-0.008
-1.510E-06,-0.028
-1.500E-06,-0.008
-1.490E-06,-0.048
-1.480E-06,0.040
-1.470E-06,-0.036
-1.460E-06,-0.004
-1.450E-06,-0.044
-1.440E-06,0.040
-1.430E-06,-0.052
-1.420E-06,-0.124
-1.410E-06,-0.068
-1.400E-06,-0.024
-1.390E-06,0.016
-1.380E-06,0.048
-1.370E-06,0.048
-1.360E-06,0.004
-1.350E-06,-0.024
-1.340E-06,-0.048
-1.330E-06,-0.052
-1.320E-06,-0.032
-1.310E-06,-0.008
-1.300E-06,0.044
-1.290E-06,0.076
-1.280E-06,0.080
-1.270E-06,0.076
-1.260E-06,0.076
-1.250E-06,0.080
-1.240E-06,0.092
-1.230E-06,0.108
-1.220E-06,0.124
-1.210E-06,0.136
-1.200E-06,0.124
-1.190E-06,0.084
-1.180E-06,0.072
-1.170E-06,0.052
-1.160E-06,0.040
-1.150E-06,0.028
-1.140E-06,0.048
-1.130E-06,0.020
-1.120E-06,-0.008
-1.110E-06,0.036
-1.100E-06,-0.004
-1.090E-06,-0.012
-1.080E-06,-0.036
-1.070E-06,-0.052
-1.060E-06,-0.008
-1.050E-06,-0.016
-1.040E-06,0.032
-1.030E-06,0.044
-1.020E-06,0.096
-1.010E-06,0.108
-1.000E-06,0.100
-9.900E-07,0.044
-9.800E-07,0.040
-9.700E-07,0.024
-9.600E-07,0.036
-9.500E-07,0.088
-9.400E-07,-0.132
-9.300E-07,-0.244
-9.200E-07,-0.440
-9.100E-07,-0.432
-9.000E-07,-0.328
-8.900E-07,-0.096
-8.800E-07,0.116
-8.700E-07,0.240
-8.600E-07,0.236
-8.500E-07,0.024
-8.400E-07,-0.108
-8.300E-07,-0.320
-8.200E-07,-0.120
-8.100E-07,-0.140
-8.000E-07,0.036
-7.900E-07,0.128
-7.800E-07,0.056
-7.700E-07,0.048
-7.600E-07,-0.096
-7.500E-07,-0.092
-7.400E-07,-0.144
-7.300E-07,0.000
-7.200E-07,0.068
-7.100E-07,0.144
-7.000E-07,0.084
-6.900E-07,0.004
-6.800E-07,-0.036
-6.700E-07,-0.064
-6.600E-07,-0.056
-6.500E-07,-0.044
-6.400E-07,0.024
-6.300E-07,0.044
-6.200E-07,0.064
-6.100E-07,0.012
-6.000E-07,-0.012
-5.900E-07,-0.032
-5.800E-07,-0.020
-5.700E-07,-0.004
-5.600E-07,0.012
-5.500E-07,0.028
-5.400E-07,0.016
-5.300E-07,0.016
-5.200E-07,-0.004
-5.100E-07,-0.012
-5.000E-07,-0.004
-4.900E-07,0.024
-4.800E-07,0.036
-4.700E-07,0.036
-4.600E-07,0.036
-4.500E-07,0.024
-4.400E-07,0.020
-4.300E-07,0.012
-4.200E-07,0.020
-4.100E-07,0.036
-4.000E-07,0.064
-3.900E-07,0.080
-3.800E-07,0.088
-3.700E-07,0.060
-3.600E-07,0.084
-3.500E-07,0.080
-3.400E-07,0.100
-3.300E-07,0.120
-3.200E-07,0.160
-3.100E-07,0.164
-3.000E-07,0.152
-2.900E-07,0.132
-2.800E-07,0.136
-2.700E-07,0.132
-2.600E-07,0.124
-2.500E-07,0.144
-2.400E-07,0.148
-2.300E-07,0.176
-2.200E-07,0.160
-2.100E-07,0.156
-2.000E-07,0.136
-1.900E-07,0.132
-1.800E-07,0.128
-1.700E-07,0.136
-1.600E-07,0.148
-1.500E-07,0.144
-1.400E-07,0.156
-1.300E-07,0.136
-1.200E-07,0.112
-1.100E-07,0.056
-1.000E-07,0.008
-9.000E-08,-0.060
-8.000E-08,0.024
-7.000E-08,0.012
-6.000E-08,-0.072
-5.000E-08,-0.264
-4.000E-08,-0.388
-3.000E-08,-0.492
-2.000E-08,-0.368
-1.000E-08,0.204
0.000E+00,0.316
1.000E-08,0.540
2.000E-08,0.332
3.000E-08,0.088
4.000E-08,-0.492
5.000E-08,-0.508
6.000E-08,-0.508
7.000E-08,-0.384
8.000E-08,-0.136
9.000E-08,0.160
1.000E-07,0.308
1.100E-07,0.008
1.200E-07,-0.176
1.300E-07,-0.428
1.400E-07,-0.328
1.500E-07,-0.352
1.600E-07,-0.076
1.700E-07,0.100
1.800E-07,0.160
1.900E-07,0.060
2.000E-07,0.028
2.100E-07,-0.020
2.200E-07,-0.084
2.300E-07,-0.052
2.400E-07,-0.012
2.500E-07,0.124
2.600E-07,0.076
2.700E-07,0.080
2.800E-07,0.024
2.900E-07,-0.024
3.000E-07,-0.060
3.100E-07,-0.056
3.200E-07,0.036
3.300E-07,0.032
3.400E-07,0.044
3.500E-07,0.008
3.600E-07,0.036
3.700E-07,-0.024
3.800E-07,-0.020
3.900E-07,-0.028
4.000E-07,0.032
4.100E-07,0.040
4.200E-07,0.024
4.300E-07,0.092
4.400E-07,0.020
4.500E-07,0.016
4.600E-07,-0.008
4.700E-07,0.044
4.800E-07,0.024
4.900E-07,0.048
5.000E-07,0.064
5.100E-07,0.052
5.200E-07,0.064
5.300E-07,0.068
5.400E-07,0.092
5.500E-07,0.032
5.600E-07,0.068
5.700E-07,0.088
5.800E-07,0.120
5.900E-07,0.124
6.000E-07,0.104
6.100E-07,0.136
6.200E-07,0.124
6.300E-07,0.124
6.400E-07,0.132
6.500E-07,0.124
6.600E-07,0.140
6.700E-07,0.140
6.800E-07,0.152
6.900E-07,0.164
7.000E-07,0.144
7.100E-07,0.112
7.200E-07,0.072
7.300E-07,0.036
7.400E-07,0.028
7.500E-07,0.020
7.600E-07,0.044
7.700E-07,0.060
7.800E-07,0.088
7.900E-07,0.136
8.000E-07,0.188
8.100E-07,0.188
8.200E-07,0.156
8.300E-07,0.088
8.400E-07,0.028
8.500E-07,-0.064
8.600E-07,-0.088
8.700E-07,-0.108
8.800E-07,-0.100
8.900E-07,-0.108
9.000E-07,-0.088
9.100E-07,-0.052
9.200E-07,-0.004
9.300E-07,-0.056
9.400E-07,-0.096
9.500E-07,-0.124
9.600E-07,-0.240
9.700E-07,-0.152
9.800E-07,-0.132
9.900E-07,-0.020
1.000E-06,0.040
1.010E-06,0.036
1.020E-06,0.024
1.030E-06,-0.072
1.040E-06,-0.008
1.050E-06,0.008
1.060E-06,0.172
1.070E-06,0.204
1.080E-06,0.248
1.090E-06,0.164
1.100E-06,0.004
1.110E-06,-0.028
1.120E-06,-0.052
1.130E-06,0.012
1.140E-06,0.048
1.150E-06,0.076
1.160E-06,0.108
1.170E-06,0.068
1.180E-06,-0.040
1.190E-06,-0.124
1.200E-06,-0.104
1.210E-06,-0.140
1.220E-06,-0.088
1.230E-06,-0.044
1.240E-06,-0.044
1.250E-06,-0.020
1.260E-06,-0.016
1.270E-06,-0.036
1.280E-06,-0.068
1.290E-06,-0.036
1.300E-06,-0.012
1.310E-06,0.032
1.320E-06,0.072
1.330E-06,0.056
1.340E-06,0.052
1.350E-06,0.072
1.360E-06,0.056
1.370E-06,0.096
1.380E-06,0.124
1.390E-06,0.116
1.400E-06,0.108
1.410E-06,0.092
1.420E-06,0.112
1.430E-06,0.100
1.440E-06,0.112
1.450E-06,0.120
1.460E-06,0.156
1.470E-06,0.160
1.480E-06,0.168
1.490E-06,0.168
1.500E-06,0.160
1.510E-06,0.152
1.520E-06,0.144
1.530E-06,0.160
1.540E-06,0.168
1.550E-06,0.176
1.560E-06,0.180
1.570E-06,0.176
1.580E-06,0.172
1.590E-06,0.164
1.600E-06,0.164
1.610E-06,0.160
1.620E-06,0.160
1.630E-06,0.164
1.640E-06,0.164
1.650E-06,0.160
1.660E-06,0.156
1.670E-06,0.160
1.680E-06,0.164
1.690E-06,0.164
1.700E-06,0.164
1.710E-06,0.160
1.720E-06,0.172
1.730E-06,0.164
1.740E-06,0.160
1.750E-06,0.164
1.760E-06,0.160
1.770E-06,0.160
1.780E-06,0.152
1.790E-06,0.156
1.800E-06,0.156
1.810E-06,0.156
1.820E-06,0.144
1.830E-06,0.132
1.840E-06,0.124
1.850E-06,0.112
1.860E-06,0.108
1.870E-06,0.112
1.880E-06,0.108
1.890E-06,0.112
1.900E-06,0.100
1.910E-06,0.088
1.920E-06,0.072
1.930E-06,0.064
1.940E-06,0.068
1.950E-06,0.080
1.960E-06,0.080
1.970E-06,0.096
1.980E-06,0.100
1.990E-06,0.128
2.000E-06,0.132
2.010E-06,0.144
2.020E-06,0.156
2.030E-06,0.184
2.040E-06,0.196
2.050E-06,0.192
2.060E-06,0.180
2.070E-06,0.156
2.080E-06,0.144
2.090E-06,0.152
2.100E-06,0.156
2.110E-06,0.176
2.120E-06,0.180
2.130E-06,0.180
2.140E-06,0.164
2.150E-06,0.156
2.160E-06,0.152
2.170E-06,0.152
2.180E-06,0.156
2.190E-06,0.160
2.200E-06,0.172
2.210E-06,0.176
2.220E-06,0.168
2.230E-06,0.156
2.240E-06,0.152
2.250E-06,0.152
2.260E-06,0.152
2.270E-06,0.156
2.280E-06,0.164
2.290E-06,0.176
2.300E-06,0.172
2.310E-06,0.172
2.320E-06,0.164
2.330E-06,0.160
2.340E-06,0.156
2.350E-06,0.160
2.360E-06,0.160
2.370E-06,0.156
2.380E-06,0.160
2.390E-06,0.160
2.400E-06,0.156
2.410E-06,0.152
2.420E-06,0.148
2.430E-06,0.148
2.440E-06,0.156
2.450E-06,0.160
2.460E-06,0.160
2.470E-06,0.160
2.480E-06,0.160
2.490E-06,0.148
2.500E-06,0.148
2.510E-06,0.144
2.520E-06,0.148
2.530E-06,0.148
2.540E-06,0.156
2.550E-06,0.148
2.560E-06,0.152
2.570E-06,0.156
2.580E-06,0.148
2.590E-06,0.148
2.600E-06,0.152
2.610E-06,0.156
2.620E-06,0.152
2.630E-06,0.156
2.640E-06,0.148
2.650E-06,0.152
2.660E-06,0.152
2.670E-06,0.144
2.680E-06,0.140
2.690E-06,0.148
2.700E-06,0.140
2.710E-06,0.148
2.720E-06,0.140
2.730E-06,0.148
2.740E-06,0.144
2.750E-06,0.140
2.760E-06,0.144
2.770E-06,0.148
2.780E-06,0.148
2.790E-06,0.144
2.800E-06,0.148
2.810E-06,0.144
2.820E-06,0.144
2.830E-06,0.144
2.840E-06,0.144
2.850E-06,0.144
2.860E-06,0.136
2.870E-06,0.136
2.880E-06,0.140
2.890E-06,0.140
2.900E-06,0.132
2.910E-06,0.140
2.920E-06,0.136
2.930E-06,0.136
2.940E-06,0.136
2.950E-06,0.136
2.960E-06,0.140
2.970E-06,0.144
2.980E-06,0.144
2.990E-06,0.144
3.000E-06,0.140
3.010E-06,0.140
3.020E-06,0.140
3.030E-06,0.140
3.040E-06,0.140
3.050E-06,0.140
3.060E-06,0.136
3.070E-06,0.136
3.080E-06,0.140
3.090E-06,0.136
3.100E-06,0.136
3.110E-06,0.136
3.120E-06,0.136
3.130E-06,0.136
3.140E-06,0.140
3.150E-06,0.136
3.160E-06,0.136
3.170E-06,0.140
3.180E-06,0.132
3.190E-06,0.128
3.200E-06,0.124
3.210E-06,0.124
3.220E-06,0.120
3.230E-06,0.120
3.240E-06,0.124
3.250E-06,0.132
3.260E-06,0.128
3.270E-06,0.128
3.280E-06,0.124
3.290E-06,0.128
3.300E-06,0.124
3.310E-06,0.128
3.320E-06,0.132
3.330E-06,0.132
3.340E-06,0.128
3.350E-06,0.128
3.360E-06,0.124
3.370E-06,0.120
3.380E-06,0.116
3.390E-06,0.116
3.400E-06,0.124
3.410E-06,0.128
3.420E-06,0.132
3.430E-06,0.128
3.440E-06,0.124
3.450E-06,0.120
3.460E-06,0.120
3.470E-06,0.124
3.480E-06,0.128
3.490E-06,0.124
3.500E-06,0.132
3.510E-06,0.132
3.520E-06,0.128
3.530E-06,0.128
3.540E-06,0.124
3.550E-06,0.116
3.560E-06,0.108
3.570E-06,0.124
3.580E-06,0.124
3.590E-06,0.132
3.600E-06,0.132
3.610E-06,0.128
3.620E-06,0.124
3.630E-06,0.108
3.640E-06,0.092
3.650E-06,0.096
3.660E-06,0.096
3.670E-06,0.112
3.680E-06,0.120
3.690E-06,0.128
3.700E-06,0.128
3.710E-06,0.128
3.720E-06,0.120
3.730E-06,0.112
3.740E-06,0.112
3.750E-06,0.120
3.760E-06,0.124
3.770E-06,0.124
3.780E-06,0.124
3.790E-06,0.120
3.800E-06,0.112
3.810E-06,0.100
3.820E-06,0.092
3.830E-06,0.088
3.840E-06,0.100
3.850E-06,0.124
3.860E-06,0.140
3.870E-06,0.136
3.880E-06,0.132
3.890E-06,0.124
3.900E-06,0.120
3.910E-06,0.104
3.920E-06,0.108
3.930E-06,0.120
3.940E-06,0.124
3.950E-06,0.124
3.960E-06,0.108
3.970E-06,0.108
3.980E-06,0.092
3.990E-06,0.088
4.000E-06,0.096
4.010E-06,0.104
4.020E-06,0.112
4.030E-06,0.112
4.040E-06,0.116
4.050E-06,0.116
4.060E-06,0.112
4.070E-06,0.108
4.080E-06,0.108
4.090E-06,0.100
4.100E-06,0.100
4.110E-06,0.100
4.120E-06,0.100
4.130E-06,0.100
4.140E-06,0.100
4.150E-06,0.100
4.160E-06,0.104
4.170E-06,0.100
4.180E-06,0.092
4.190E-06,0.096
4.200E-06,0.100
4.210E-06,0.104
4.220E-06,0.104
4.230E-06,0.104
4.240E-06,0.104
4.250E-06,0.104
4.260E-06,0.104
4.270E-06,0.104
4.280E-06,0.108
4.290E-06,0.108
4.300E-06,0.104
4.310E-06,0.100
4.320E-06,0.096
4.330E-06,0.092
4.340E-06,0.088
4.350E-06,0.092
4.360E-06,0.096
4.370E-06,0.104
4.380E-06,0.104
4.390E-06,0.104
4.400E-06,0.096
4.410E-06,0.100
4.420E-06,0.100
4.430E-06,0.100
4.440E-06,0.096
4.450E-06,0.096
4.460E-06,0.092
4.470E-06,0.092
4.480E-06,0.092
4.490E-06,0.088
4.500E-06,0.092
4.510E-06,0.096
4.520E-06,0.088
4.530E-06,0.088
4.540E-06,0.088
4.550E-06,0.092
4.560E-06,0.092
4.570E-06,0.096
4.580E-06,0.088
4.590E-06,0.092
4.600E-06,0.088
4.610E-06,0.088
4.620E-06,0.088
4.630E-06,0.088
4.640E-06,0.096
4.650E-06,0.092
4.660E-06,0.092
4.670E-06,0.088
4.680E-06,0.084
4.690E-06,0.084
4.700E-06,0.084
4.710E-06,0.092
4.720E-06,0.084
4.730E-06,0.084
4.740E-06,0.088
4.750E-06,0.080
4.760E-06,0.084
4.770E-06,0.092
4.780E-06,0.092
4.790E-06,0.088
4.800E-06,0.088
4.810E-06,0.088
4.820E-06,0.084
4.830E-06,0.080
4.840E-06,0.080
4.850E-06,0.088
4.860E-06,0.084
4.870E-06,0.092
4.880E-06,0.092
4.890E-06,0.088
4.900E-06,0.084
4.910E-06,0.084
4.920E-06,0.088
4.930E-06,0.080
4.940E-06,0.084
4.950E-06,0.080
4.960E-06,0.088
4.970E-06,0.080
4.980E-06,0.076
4.990E-06,0.072
5.000E-06,0.072
5.010E-06,0.072
5.020E-06,0.076
5.030E-06,0.076
5.040E-06,0.072
5.050E-06,0.076
5.060E-06,0.076
5.070E-06,0.076
5.080E-06,0.076
5.090E-06,0.076
5.100E-06,0.076
5.110E-06,0.072
5.120E-06,0.076
5.130E-06,0.072
5.140E-06,0.072
5.150E-06,0.076
5.160E-06,0.076
5.170E-06,0.072
5.180E-06,0.076
5.190E-06,0.076
5.200E-06,0.076
5.210E-06,0.076
5.220E-06,0.076
5.230E-06,0.072
5.240E-06,0.064
5.250E-06,0.072
5.260E-06,0.072
5.270E-06,0.076
5.280E-06,0.076
5.290E-06,0.072
5.300E-06,0.072
5.310E-06,0.068
5.320E-06,0.072
5.330E-06,0.072
5.340E-06,0.068
5.350E-06,0.072
5.360E-06,0.068
5.370E-06,0.072
5.380E-06,0.076
5.390E-06,0.068
5.400E-06,0.064
5.410E-06,0.068
5.420E-06,0.064
5.430E-06,0.064
5.440E-06,0.068
5.450E-06,0.076
5.460E-06,0.072
5.470E-06,0.064
5.480E-06,0.068
5.490E-06,0.064
5.500E-06,0.064
5.510E-06,0.072
5.520E-06,0.068
5.530E-06,0.068
5.540E-06,0.068
5.550E-06,0.060
5.560E-06,0.064
5.570E-06,0.060
5.580E-06,0.060
5.590E-06,0.064
5.600E-06,0.064
5.610E-06,0.060
5.620E-06,0.060
5.630E-06,0.060
5.640E-06,0.056
5.650E-06,0.056
5.660E-06,0.060
5.670E-06,0.056
5.680E-06,0.060
5.690E-06,0.060
5.700E-06,0.060
5.710E-06,0.064
5.720E-06,0.060
5.730E-06,0.060
5.740E-06,0.056
5.750E-06,0.056
5.760E-06,0.056
5.770E-06,0.064
5.780E-06,0.060
5.790E-06,0.056
5.800E-06,0.060
5.810E-06,0.056
5.820E-06,0.056
5.830E-06,0.056
5.840E-06,0.056
5.850E-06,0.060
5.860E-06,0.056
5.870E-06,0.052
5.880E-06,0.056
5.890E-06,0.056
5.900E-06,0.060
5.910E-06,0.052
5.920E-06,0.056
5.930E-06,0.056
5.940E-06,0.056
5.950E-06,0.056
5.960E-06,0.052
5.970E-06,0.056
5.980E-06,0.056
5.990E-06,0.052
6.000E-06,0.052
6.010E-06,0.048
6.020E-06,0.052
6.030E-06,0.056
6.040E-06,0.048
6.050E-06,0.052
6.060E-06,0.048
6.070E-06,0.044
6.080E-06,0.040
6.090E-06,0.044
6.100E-06,0.048
6.110E-06,0.044
6.120E-06,0.048
6.130E-06,0.044
6.140E-06,0.044
6.150E-06,0.048
6.160E-06,0.048
6.170E-06,0.044
6.180E-06,0.044
6.190E-06,0.040
6.200E-06,0.044
6.210E-06,0.048
6.220E-06,0.044
6.230E-06,0.044
6.240E-06,0.044
6.250E-06,0.048
6.260E-06,0.044
6.270E-06,0.040
6.280E-06,0.036
6.290E-06,0.040
6.300E-06,0.044
6.310E-06,0.044
6.320E-06,0.040
6.330E-06,0.040
6.340E-06,0.036
6.350E-06,0.036
6.360E-06,0.040
6.370E-06,0.040
6.380E-06,0.040
6.390E-06,0.036
6.400E-06,0.040
6.410E-06,0.036
6.420E-06,0.036
6.430E-06,0.036
6.440E-06,0.032
6.450E-06,0.040
6.460E-06,0.036
6.470E-06,0.036
6.480E-06,0.036
6.490E-06,0.036
6.500E-06,0.036
6.510E-06,0.032
6.520E-06,0.032
6.530E-06,0.036
6.540E-06,0.032
6.550E-06,0.028
6.560E-06,0.032
6.570E-06,0.032
6.580E-06,0.036
6.590E-06,0.028
6.600E-06,0.028
6.610E-06,0.028
6.620E-06,0.028
6.630E-06,0.032
6.640E-06,0.036
6.650E-06,0.032
6.660E-06,0.024
6.670E-06,0.028
6.680E-06,0.032
6.690E-06,0.028
6.700E-06,0.024
6.710E-06,0.032
6.720E-06,0.036
6.730E-06,0.028
6.740E-06,0.028
6.750E-06,0.028
6.760E-06,0.032
6.770E-06,0.032
6.780E-06,0.024
6.790E-06,0.028
6.800E-06,0.036
6.810E-06,0.032
6.820E-06,0.024
6.830E-06,0.028
6.840E-06,0.032
6.850E-06,0.028
6.860E-06,0.028
6.870E-06,0.032
6.880E-06,0.024
6.890E-06,0.032
6.900E-06,0.032
6.910E-06,0.028
6.920E-06,0.020
6.930E-06,0.028
6.940E-06,0.024
6.950E-06,0.024
6.960E-06,0.028
6.970E-06,0.032
6.980E-06,0.028
6.990E-06,0.024
7.000E-06,0.020
7.010E-06,0.024
7.020E-06,0.020
7.030E-06,0.024
7.040E-06,0.024
7.050E-06,0.032
7.060E-06,0.024
7.070E-06,0.028
7.080E-06,0.028
7.090E-06,0.028
7.100E-06,0.028
7.110E-06,0.028
7.120E-06,0.020
7.130E-06,0.024
7.140E-06,0.028
7.150E-06,0.024
7.160E-06,0.020
7.170E-06,0.024
7.180E-06,0.024
7.190E-06,0.028
7.200E-06,0.024
7.210E-06,0.020
7.220E-06,0.020
7.230E-06,0.024
7.240E-06,0.020
7.250E-06,0.028
7.260E-06,0.020
7.270E-06,0.024
7.280E-06,0.024
7.290E-06,0.024
7.300E-06,0.020
7.310E-06,0.020
7.320E-06,0.024
7.330E-06,0.020
7.340E-06,0.020
7.350E-06,0.016
7.360E-06,0.024
7.370E-06,0.024
7.380E-06,0.020
7.390E-06,0.020
7.400E-06,0.020
7.410E-06,0.024
7.420E-06,0.020
7.430E-06,0.016
7.440E-06,0.020
7.450E-06,0.016
7.460E-06,0.016
7.470E-06,0.012
7.480E-06,0.020
7.490E-06,0.020
7.500E-06,0.020
7.510E-06,0.008
7.520E-06,0.016
7.530E-06,0.024
7.540E-06,0.012
7.550E-06,0.012
7.560E-06,0.016
7.570E-06,0.016
7.580E-06,0.016
7.590E-06,0.016
7.600E-06,0.016
7.610E-06,0.020
7.620E-06,0.020
7.630E-06,0.016
7.640E-06,0.020
7.650E-06,0.008
7.660E-06,0.016
7.670E-06,0.016
7.680E-06,0.012
7.690E-06,0.008
7.700E-06,0.008
7.710E-06,0.008
7.720E-06,0.008
7.730E-06,0.012
7.740E-06,0.008
7.750E-06,0.008
7.760E-06,0.012
7.770E-06,0.008
7.780E-06,0.008
7.790E-06,0.000
7.800E-06,0.008
7.810E-06,0.008
7.820E-06,0.008
7.830E-06,0.008
7.840E-06,0.004
7.850E-06,0.008
7.860E-06,0.004
7.870E-06,0.004
7.880E-06,0.008
7.890E-06,0.012
7.900E-06,0.008
7.910E-06,0.012
7.920E-06,0.000
7.930E-06,0.000
7.940E-06,0.004
7.950E-06,0.004
7.960E-06,0.004
7.970E-06,0.004
7.980E-06,0.004
7.990E-06,0.004
8.000E-06,0.012
8.010E-06,0.008
8.020E-06,0.000
8.030E-06,0.000
8.040E-06,0.004
8.050E-06,0.004
8.060E-06,0.004
8.070E-06,0.008
8.080E-06,0.004
8.090E-06,0.000
8.100E-06,0.000
8.110E-06,0.004
8.120E-06,0.000
8.130E-06,0.004
8.140E-06,0.004
8.150E-06,0.004
8.160E-06,0.004
8.170E-06,0.004
8.180E-06,0.000
8.190E-06,0.000
8.200E-06,-0.004
8.210E-06,-0.004
8.220E-06,0.000
8.230E-06,-0.004
8.240E-06,0.000
8.250E-06,0.000
8.260E-06,0.000
8.270E-06,-0.004
8.280E-06,0.000
8.290E-06,0.000
8.300E-06,0.000
8.310E-06,-0.008
8.320E-06,0.004
8.330E-06,-0.004
8.340E-06,0.000
8.350E-06,-0.004
8.360E-06,0.000
8.370E-06,0.000
8.380E-06,0.000
8.390E-06,0.000
8.400E-06,-0.004
8.410E-06,0.000
8.420E-06,-0.004
8.430E-06,-0.004
8.440E-06,-0.004
8.450E-06,0.000
8.460E-06,-0.004
8.470E-06,-0.008
8.480E-06,-0.008
8.490E-06,-0.008
8.500E-06,0.000
8.510E-06,0.000
8.520E-06,-0.004
8.530E-06,-0.008
8.540E-06,0.000
8.550E-06,-0.004
8.560E-06,-0.004
8.570E-06,0.000
8.580E-06,-0.004
8.590E-06,-0.004
8.600E-06,-0.004
8.610E-06,-0.008
8.620E-06,0.000
8.630E-06,-0.004
8.640E-06,-0.008
8.650E-06,-0.008
8.660E-06,-0.008
8.670E-06,-0.012
8.680E-06,0.000
8.690E-06,0.000
8.700E-06,-0.008
8.710E-06,-0.004
8.720E-06,-0.008
8.730E-06,-0.008
8.740E-06,-0.008
8.750E-06,0.000
8.760E-06,-0.004
8.770E-06,-0.008
8.780E-06,-0.004
8.790E-06,-0.008
8.800E-06,-0.004
8.810E-06,-0.004
8.820E-06,-0.008
8.830E-06,-0.004
8.840E-06,-0.008
8.850E-06,-0.008
8.860E-06,-0.008
8.870E-06,-0.008
8.880E-06,-0.008
8.890E-06,-0.012
8.900E-06,-0.012
8.910E-06,-0.012
8.920E-06,-0.004
8.930E-06,-0.004
8.940E-06,-0.008
8.950E-06,-0.008
8.960E-06,-0.008
8.970E-06,-0.012
8.980E-06,-0.004
8.990E-06,-0.012
9.000E-06,-0.012
9.010E-06,-0.012
9.020E-06,-0.012
9.030E-06,-0.016
9.040E-06,-0.008
9.050E-06,-0.008
9.060E-06,-0.012
9.070E-06,-0.012
9.080E-06,-0.012
9.090E-06,-0.012
9.100E-06,-0.008
9.110E-06,-0.008
9.120E-06,-0.012
9.130E-06,-0.020
9.140E-06,-0.016
9.150E-06,-0.012
9.160E-06,-0.008
9.170E-06,-0.012
9.180E-06,-0.016
9.190E-06,-0.016
9.200E-06,-0.012
9.210E-06,-0.008
9.220E-06,-0.012
9.230E-06,-0.016
9.240E-06,-0.012
9.250E-06,-0.020
9.260E-06,-0.020
9.270E-06,-0.016
9.280E-06,-0.016
9.290E-06,-0.020
9.300E-06,-0.024
9.310E-06,-0.020
9.320E-06,-0.012
9.330E-06,-0.016
9.340E-06,-0.020
9.350E-06,-0.024
9.360E-06,-0.016
9.370E-06,-0.016
9.380E-06,-0.020
9.390E-06,-0.020
9.400E-06,-0.024
9.410E-06,-0.020
9.420E-06,-0.024
9.430E-06,-0.024
9.440E-06,-0.024
9.450E-06,-0.016
9.460E-06,-0.016
9.470E-06,-0.024
9.480E-06,-0.024
9.490E-06,-0.016
9.500E-06,-0.024
9.510E-06,-0.024
9.520E-06,-0.020
9.530E-06,-0.024
9.540E-06,-0.028
9.550E-06,-0.028
9.560E-06,-0.024
9.570E-06,-0.020
9.580E-06,-0.016
9.590E-06,-0.024
9.600E-06,-0.024
9.610E-06,-0.020
9.620E-06,-0.020
9.630E-06,-0.024
9.640E-06,-0.020
9.650E-06,-0.020
9.660E-06,-0.028
9.670E-06,-0.020
9.680E-06,-0.020
9.690E-06,-0.024
9.700E-06,-0.020
9.710E-06,-0.024
9.720E-06,-0.028
9.730E-06,-0.028
9.740E-06,-0.016
9.750E-06,-0.020
9.760E-06,-0.024
9.770E-06,-0.020
9.780E-06,-0.020
9.790E-06,-0.024
9.800E-06,-0.020
9.810E-06,-0.020
9.820E-06,-0.024
9.830E-06,-0.020
