mediciones/Mediciones filtradas (saque las feas)/6-3/-7.5/WaveData5373.csv

#timebase=2000000(ps)
,#voltbase=500000(mv/100)
#size=4000
-2.300E-06,-0.140
-2.290E-06,1.020
-2.280E-06,-0.020
-2.270E-06,-0.500
-2.260E-06,-0.460
-2.250E-06,-0.720
-2.240E-06,0.180
-2.230E-06,0.240
-2.220E-06,1.000
-2.210E-06,-0.100
-2.200E-06,-0.820
-2.190E-06,-0.840
-2.180E-06,0.020
-2.170E-06,-0.380
-2.160E-06,-0.220
-2.150E-06,-0.100
-2.140E-06,-0.660
-2.130E-06,-0.360
-2.120E-06,0.180
-2.110E-06,0.940
-2.100E-06,0.560
-2.090E-06,0.140
-2.080E-06,-0.060
-2.070E-06,0.120
-2.060E-06,0.020
-2.050E-06,0.100
-2.040E-06,0.540
-2.030E-06,0.260
-2.020E-06,0.000
-2.010E-06,-0.120
-2.000E-06,0.040
-1.990E-06,0.200
-1.980E-06,-0.020
-1.970E-06,-0.160
-1.960E-06,-0.200
-1.950E-06,-0.460
-1.940E-06,-0.360
-1.930E-06,0.080
-1.920E-06,0.160
-1.910E-06,-0.080
-1.900E-06,-0.500
-1.890E-06,-0.620
-1.880E-06,-0.700
-1.870E-06,-0.620
-1.860E-06,-0.400
-1.850E-06,-0.240
-1.840E-06,-0.320
-1.830E-06,-0.460
-1.820E-06,-0.440
-1.810E-06,-0.400
-1.800E-06,-0.520
-1.790E-06,-0.500
-1.780E-06,-0.400
-1.770E-06,-0.400
-1.760E-06,-0.520
-1.750E-06,-0.480
-1.740E-06,-0.420
-1.730E-06,-0.520
-1.720E-06,-0.580
-1.710E-06,-0.600
-1.700E-06,-0.640
-1.690E-06,-0.680
-1.680E-06,-0.520
-1.670E-06,-0.400
-1.660E-06,-0.320
-1.650E-06,-0.500
-1.640E-06,-0.460
-1.630E-06,-0.400
-1.620E-06,-0.320
-1.610E-06,-0.160
-1.600E-06,0.020
-1.590E-06,0.020
-1.580E-06,-0.020
-1.570E-06,-0.080
-1.560E-06,0.040
-1.550E-06,0.120
-1.540E-06,-0.180
-1.530E-06,0.300
-1.520E-06,0.320
-1.510E-06,-0.960
-1.500E-06,0.020
-1.490E-06,0.320
-1.480E-06,0.720
-1.470E-06,1.820
-1.460E-06,1.480
-1.450E-06,1.800
-1.440E-06,0.260
-1.430E-06,0.320
-1.420E-06,0.840
-1.410E-06,1.160
-1.400E-06,0.980
-1.390E-06,1.000
-1.380E-06,0.460
-1.370E-06,-0.220
-1.360E-06,-0.760
-1.350E-06,-0.680
-1.340E-06,-0.600
-1.330E-06,-1.080
-1.320E-06,-0.920
-1.310E-06,-1.300
-1.300E-06,-1.760
-1.290E-06,-2.020
-1.280E-06,-2.120
-1.270E-06,-2.160
-1.260E-06,-2.480
-1.250E-06,-2.620
-1.240E-06,-2.260
-1.230E-06,-2.000
-1.220E-06,-1.640
-1.210E-06,-1.460
-1.200E-06,-1.260
-1.190E-06,-1.240
-1.180E-06,-1.100
-1.170E-06,-0.720
-1.160E-06,-0.300
-1.150E-06,-0.080
-1.140E-06,0.000
-1.130E-06,0.200
-1.120E-06,0.220
-1.110E-06,0.180
-1.100E-06,0.200
-1.090E-06,0.420
-1.080E-06,0.520
-1.070E-06,0.640
-1.060E-06,0.720
-1.050E-06,0.740
-1.040E-06,0.680
-1.030E-06,0.560
-1.020E-06,0.700
-1.010E-06,0.560
-1.000E-06,0.380
-9.900E-07,0.000
-9.800E-07,-0.160
-9.700E-07,-0.940
-9.600E-07,-0.480
-9.500E-07,-0.960
-9.400E-07,-1.120
-9.300E-07,-0.880
-9.200E-07,-0.720
-9.100E-07,0.000
-9.000E-07,0.440
-8.900E-07,0.360
-8.800E-07,0.080
-8.700E-07,-0.500
-8.600E-07,-0.600
-8.500E-07,0.040
-8.400E-07,0.540
-8.300E-07,0.900
-8.200E-07,0.740
-8.100E-07,0.420
-8.000E-07,0.100
-7.900E-07,-0.140
-7.800E-07,-0.140
-7.700E-07,0.100
-7.600E-07,0.180
-7.500E-07,0.240
-7.400E-07,0.000
-7.300E-07,-0.140
-7.200E-07,-0.380
-7.100E-07,-0.380
-7.000E-07,-0.500
-6.900E-07,-0.620
-6.800E-07,-0.980
-6.700E-07,-1.260
-6.600E-07,-1.360
-6.500E-07,-1.540
-6.400E-07,-1.640
-6.300E-07,-1.860
-6.200E-07,-1.760
-6.100E-07,-1.840
-6.000E-07,-1.760
-5.900E-07,-1.980
-5.800E-07,-2.020
-5.700E-07,-2.140
-5.600E-07,-2.040
-5.500E-07,-1.700
-5.400E-07,-1.420
-5.300E-07,-1.260
-5.200E-07,-1.240
-5.100E-07,-1.280
-5.000E-07,-0.940
-4.900E-07,-0.680
-4.800E-07,-0.100
-4.700E-07,0.220
-4.600E-07,0.500
-4.500E-07,0.820
-4.400E-07,0.880
-4.300E-07,1.060
-4.200E-07,0.900
-4.100E-07,1.040
-4.000E-07,0.980
-3.900E-07,1.020
-3.800E-07,1.100
-3.700E-07,1.000
-3.600E-07,0.960
-3.500E-07,0.860
-3.400E-07,0.780
-3.300E-07,0.860
-3.200E-07,0.740
-3.100E-07,0.720
-3.000E-07,0.520
-2.900E-07,0.420
-2.800E-07,0.120
-2.700E-07,0.000
-2.600E-07,-0.160
-2.500E-07,-0.200
-2.400E-07,-0.220
-2.300E-07,-0.280
-2.200E-07,-0.520
-2.100E-07,-0.780
-2.000E-07,-0.900
-1.900E-07,-0.980
-1.800E-07,-0.780
-1.700E-07,-0.680
-1.600E-07,-0.540
-1.500E-07,-0.700
-1.400E-07,-0.760
-1.300E-07,-0.920
-1.200E-07,-0.800
-1.100E-07,-0.740
-1.000E-07,-0.600
-9.000E-08,-0.540
-8.000E-08,-0.660
-7.000E-08,-0.640
-6.000E-08,-0.640
-5.000E-08,-0.840
-4.000E-08,-0.580
-3.000E-08,-1.280
-2.000E-08,-0.960
-1.000E-08,-1.080
0.000E+00,-2.160
1.000E-08,-0.860
2.000E-08,-1.320
3.000E-08,1.460
4.000E-08,0.780
5.000E-08,0.000
6.000E-08,0.060
7.000E-08,0.100
8.000E-08,0.440
9.000E-08,2.740
1.000E-07,2.760
1.100E-07,2.780
1.200E-07,1.820
1.300E-07,0.440
1.400E-07,1.700
1.500E-07,1.800
1.600E-07,2.000
1.700E-07,2.540
1.800E-07,1.620
1.900E-07,0.440
2.000E-07,-0.340
2.100E-07,-0.260
2.200E-07,0.040
2.300E-07,-0.360
2.400E-07,-0.160
2.500E-07,-0.540
2.600E-07,-1.340
2.700E-07,-1.620
2.800E-07,-1.340
2.900E-07,-1.200
3.000E-07,-1.860
3.100E-07,-2.380
3.200E-07,-2.360
3.300E-07,-2.300
3.400E-07,-2.300
3.500E-07,-2.040
3.600E-07,-2.000
3.700E-07,-2.220
3.800E-07,-2.180
3.900E-07,-1.780
4.000E-07,-1.420
4.100E-07,-1.640
4.200E-07,-1.620
4.300E-07,-1.420
4.400E-07,-1.240
4.500E-07,-1.160
4.600E-07,-1.000
4.700E-07,-0.840
4.800E-07,-0.920
4.900E-07,-0.820
5.000E-07,-0.520
5.100E-07,-0.340
5.200E-07,-0.500
5.300E-07,-0.560
5.400E-07,-0.320
5.500E-07,-0.100
5.600E-07,-0.060
5.700E-07,-0.080
5.800E-07,-0.140
5.900E-07,-0.280
6.000E-07,-0.300
6.100E-07,-0.200
6.200E-07,-0.120
6.300E-07,-0.240
6.400E-07,-0.320
6.500E-07,-0.300
6.600E-07,-0.340
6.700E-07,-0.460
6.800E-07,-0.540
6.900E-07,-0.560
7.000E-07,-0.500
7.100E-07,-0.460
7.200E-07,-0.360
7.300E-07,-0.360
7.400E-07,-0.480
7.500E-07,-0.500
7.600E-07,-0.380
7.700E-07,-0.220
7.800E-07,-0.320
7.900E-07,-0.400
8.000E-07,-0.420
8.100E-07,-0.380
8.200E-07,-0.400
8.300E-07,-0.300
8.400E-07,-0.380
8.500E-07,-0.400
8.600E-07,-0.540
8.700E-07,-0.560
8.800E-07,-0.680
8.900E-07,-0.880
9.000E-07,-0.920
9.100E-07,-1.060
9.200E-07,-1.040
9.300E-07,-1.160
9.400E-07,-1.140
9.500E-07,-1.400
9.600E-07,-1.540
9.700E-07,-1.480
9.800E-07,-1.320
9.900E-07,-1.200
1.000E-06,-1.120
1.010E-06,-1.220
1.020E-06,-1.300
1.030E-06,-1.680
1.040E-06,-1.700
1.050E-06,-2.040
1.060E-06,-1.700
1.070E-06,-1.520
1.080E-06,-0.840
1.090E-06,-0.440
1.100E-06,-0.280
1.110E-06,-0.220
1.120E-06,-0.440
1.130E-06,-0.340
1.140E-06,-0.180
1.150E-06,0.220
1.160E-06,0.240
1.170E-06,0.320
1.180E-06,0.160
1.190E-06,-0.020
1.200E-06,-0.040
1.210E-06,0.000
1.220E-06,0.020
1.230E-06,0.180
1.240E-06,0.060
1.250E-06,0.080
1.260E-06,0.120
1.270E-06,0.000
1.280E-06,-0.020
1.290E-06,-0.060
1.300E-06,-0.120
1.310E-06,-0.460
1.320E-06,-0.720
1.330E-06,-1.120
1.340E-06,-1.420
1.350E-06,-1.820
1.360E-06,-2.140
1.370E-06,-2.000
1.380E-06,-1.440
1.390E-06,-1.420
1.400E-06,-1.320
1.410E-06,-1.360
1.420E-06,-1.660
1.430E-06,-1.700
1.440E-06,-1.660
1.450E-06,-1.140
1.460E-06,-1.080
1.470E-06,-1.160
1.480E-06,-1.180
1.490E-06,-1.280
1.500E-06,-1.180
1.510E-06,-0.920
1.520E-06,-0.520
1.530E-06,-0.200
1.540E-06,0.060
1.550E-06,0.200
1.560E-06,0.180
1.570E-06,-0.040
1.580E-06,-0.620
1.590E-06,-0.820
1.600E-06,-1.240
1.610E-06,-1.400
1.620E-06,-1.780
1.630E-06,-1.980
1.640E-06,-2.180
1.650E-06,-2.300
1.660E-06,-2.100
1.670E-06,-1.720
1.680E-06,-1.260
1.690E-06,-0.900
1.700E-06,-0.320
1.710E-06,-0.340
1.720E-06,-0.300
1.730E-06,-0.480
1.740E-06,-0.780
1.750E-06,-0.860
1.760E-06,-0.960
1.770E-06,-0.740
1.780E-06,-0.600
1.790E-06,-0.500
1.800E-06,-0.500
1.810E-06,-0.560
1.820E-06,-0.700
1.830E-06,-0.580
1.840E-06,-0.660
1.850E-06,-0.720
1.860E-06,-0.920
1.870E-06,-1.060
1.880E-06,-1.180
1.890E-06,-1.040
1.900E-06,-0.920
1.910E-06,-0.880
1.920E-06,-0.700
1.930E-06,-0.600
1.940E-06,-0.540
1.950E-06,-0.340
1.960E-06,-0.160
1.970E-06,0.200
1.980E-06,0.660
1.990E-06,0.760
2.000E-06,1.000
2.010E-06,0.860
2.020E-06,0.580
2.030E-06,0.420
2.040E-06,0.260
2.050E-06,0.260
2.060E-06,0.140
2.070E-06,-0.020
2.080E-06,-0.180
2.090E-06,-0.360
2.100E-06,-0.580
2.110E-06,-0.660
2.120E-06,-0.840
2.130E-06,-0.960
2.140E-06,-0.960
2.150E-06,-1.000
2.160E-06,-0.980
2.170E-06,-0.880
2.180E-06,-0.860
2.190E-06,-1.060
2.200E-06,-0.880
2.210E-06,-0.860
2.220E-06,-0.960
2.230E-06,-0.880
2.240E-06,-1.120
2.250E-06,-1.300
2.260E-06,-1.680
2.270E-06,-2.180
2.280E-06,-2.300
2.290E-06,-2.680
2.300E-06,-2.680
2.310E-06,-2.680
2.320E-06,-2.660
2.330E-06,-2.660
2.340E-06,-2.660
2.350E-06,-2.660
2.360E-06,-2.680
2.370E-06,-2.660
2.380E-06,-2.660
2.390E-06,-1.300
2.400E-06,-1.520
2.410E-06,0.180
2.420E-06,-2.580
2.430E-06,0.220
2.440E-06,0.460
2.450E-06,2.760
2.460E-06,2.740
2.470E-06,2.760
2.480E-06,2.780
2.490E-06,2.760
2.500E-06,1.980
2.510E-06,1.880
2.520E-06,1.860
2.530E-06,1.820
2.540E-06,1.200
2.550E-06,-0.120
2.560E-06,-0.980
2.570E-06,-2.660
2.580E-06,-2.660
2.590E-06,-2.640
2.600E-06,-2.640
2.610E-06,-2.640
2.620E-06,-2.660
2.630E-06,-2.660
2.640E-06,-2.660
2.650E-06,-2.660
2.660E-06,-2.660
2.670E-06,-2.660
2.680E-06,-2.640
2.690E-06,-2.640
2.700E-06,-2.640
2.710E-06,-2.640
2.720E-06,-2.660
2.730E-06,-2.660
2.740E-06,-2.660
2.750E-06,-2.660
2.760E-06,-2.660
2.770E-06,-2.660
2.780E-06,-2.640
2.790E-06,-2.660
2.800E-06,-2.660
2.810E-06,-2.660
2.820E-06,-2.660
2.830E-06,-2.660
2.840E-06,-2.660
2.850E-06,-2.680
2.860E-06,-2.680
2.870E-06,-2.680
2.880E-06,-2.660
2.890E-06,-2.660
2.900E-06,-2.660
2.910E-06,-2.660
2.920E-06,-2.660
2.930E-06,-2.660
2.940E-06,-2.660
2.950E-06,-2.660
2.960E-06,-2.660
2.970E-06,-2.660
2.980E-06,-2.660
2.990E-06,-2.660
3.000E-06,-2.680
3.010E-06,-2.680
3.020E-06,-2.660
3.030E-06,-2.660
3.040E-06,-2.660
3.050E-06,-2.660
3.060E-06,-2.680
3.070E-06,-2.660
3.080E-06,-2.660
3.090E-06,-2.660
3.100E-06,-2.680
3.110E-06,-2.680
3.120E-06,-2.680
3.130E-06,-2.660
3.140E-06,-2.660
3.150E-06,-2.660
3.160E-06,-2.660
3.170E-06,-2.340
3.180E-06,-2.160
3.190E-06,-2.040
3.200E-06,-2.100
3.210E-06,-2.580
3.220E-06,-2.660
3.230E-06,-2.660
3.240E-06,-2.660
3.250E-06,-2.660
3.260E-06,-2.660
3.270E-06,-2.660
3.280E-06,-2.660
3.290E-06,-2.660
3.300E-06,-2.660
3.310E-06,-2.600
3.320E-06,-2.520
3.330E-06,-2.660
3.340E-06,-2.660
3.350E-06,-2.680
3.360E-06,-2.660
3.370E-06,-2.660
3.380E-06,-2.480
3.390E-06,-1.820
3.400E-06,-1.520
3.410E-06,-1.100
3.420E-06,-0.700
3.430E-06,-0.240
3.440E-06,-0.080
3.450E-06,-0.020
3.460E-06,0.080
3.470E-06,-0.040
3.480E-06,-0.060
3.490E-06,-0.260
3.500E-06,-0.420
3.510E-06,-0.760
3.520E-06,-0.900
3.530E-06,-1.040
3.540E-06,-1.080
3.550E-06,-1.080
3.560E-06,-1.180
3.570E-06,-1.360
3.580E-06,-1.520
3.590E-06,-1.780
3.600E-06,-2.080
3.610E-06,-2.380
3.620E-06,-2.640
3.630E-06,-2.680
3.640E-06,-2.660
3.650E-06,-2.660
3.660E-06,-2.660
3.670E-06,-2.660
3.680E-06,-2.660
3.690E-06,-2.660
3.700E-06,-2.660
3.710E-06,-2.660
3.720E-06,-2.660
3.730E-06,-2.640
3.740E-06,-2.620
3.750E-06,-2.560
3.760E-06,-2.340
3.770E-06,-2.300
3.780E-06,-2.100
3.790E-06,-1.840
3.800E-06,-1.600
3.810E-06,-1.380
3.820E-06,-1.500
3.830E-06,-1.640
3.840E-06,-1.760
3.850E-06,-1.860
3.860E-06,-1.880
3.870E-06,-2.000
3.880E-06,-1.940
3.890E-06,-2.100
3.900E-06,-2.140
3.910E-06,-2.040
3.920E-06,-2.120
3.930E-06,-2.200
3.940E-06,-2.160
3.950E-06,-2.100
3.960E-06,-2.160
3.970E-06,-2.040
3.980E-06,-2.220
3.990E-06,-2.460
4.000E-06,-2.660
4.010E-06,-2.660
4.020E-06,-2.640
4.030E-06,-2.360
4.040E-06,-2.160
4.050E-06,-1.880
4.060E-06,-1.740
4.070E-06,-1.900
4.080E-06,-1.880
4.090E-06,-2.040
4.100E-06,-2.060
4.110E-06,-2.060
4.120E-06,-1.920
4.130E-06,-1.660
4.140E-06,-1.720
4.150E-06,-1.760
4.160E-06,-1.940
4.170E-06,-2.220
4.180E-06,-2.640
4.190E-06,-2.660
4.200E-06,-2.660
4.210E-06,-2.660
4.220E-06,-2.660
4.230E-06,-2.640
4.240E-06,-2.640
4.250E-06,-2.420
4.260E-06,-1.880
4.270E-06,-1.140
4.280E-06,-1.440
4.290E-06,-1.840
4.300E-06,-2.060
4.310E-06,-1.960
4.320E-06,-1.840
4.330E-06,-1.700
4.340E-06,-1.420
4.350E-06,-1.200
4.360E-06,-1.060
4.370E-06,-1.220
4.380E-06,-1.400
4.390E-06,-1.520
4.400E-06,-1.620
4.410E-06,-1.520
4.420E-06,-1.240
4.430E-06,-1.120
4.440E-06,-1.200
4.450E-06,-1.480
4.460E-06,-1.760
4.470E-06,-1.960
4.480E-06,-1.960
4.490E-06,-1.880
4.500E-06,-1.700
4.510E-06,-1.660
4.520E-06,-1.660
4.530E-06,-1.680
4.540E-06,-1.840
4.550E-06,-1.860
4.560E-06,-1.700
4.570E-06,-1.520
4.580E-06,-1.400
4.590E-06,-1.460
4.600E-06,-1.600
4.610E-06,-1.800
4.620E-06,-2.040
4.630E-06,-2.200
4.640E-06,-2.220
4.650E-06,-2.080
4.660E-06,-1.900
4.670E-06,-1.720
4.680E-06,-1.600
4.690E-06,-1.520
4.700E-06,-1.460
4.710E-06,-1.340
4.720E-06,-1.180
4.730E-06,-1.000
4.740E-06,-0.880
4.750E-06,-0.820
4.760E-06,-0.820
4.770E-06,-0.820
4.780E-06,-0.840
4.790E-06,-0.780
4.800E-06,-0.700
4.810E-06,-0.660
4.820E-06,-0.520
4.830E-06,-0.480
4.840E-06,-0.500
4.850E-06,-0.640
4.860E-06,-0.780
4.870E-06,-0.900
4.880E-06,-1.000
4.890E-06,-1.000
4.900E-06,-1.100
4.910E-06,-1.200
4.920E-06,-1.280
4.930E-06,-1.340
4.940E-06,-1.360
4.950E-06,-1.360
4.960E-06,-1.360
4.970E-06,-1.300
4.980E-06,-1.240
4.990E-06,-1.220
5.000E-06,-1.120
5.010E-06,-1.060
5.020E-06,-0.960
5.030E-06,-0.820
5.040E-06,-0.640
5.050E-06,-0.500
5.060E-06,-0.420
5.070E-06,-0.380
5.080E-06,-0.400
5.090E-06,-0.400
5.100E-06,-0.480
5.110E-06,-0.600
5.120E-06,-0.720
5.130E-06,-0.860
5.140E-06,-0.980
5.150E-06,-1.100
5.160E-06,-1.180
5.170E-06,-1.220
5.180E-06,-1.280
5.190E-06,-1.260
5.200E-06,-1.240
5.210E-06,-1.180
5.220E-06,-1.140
5.230E-06,-1.060
5.240E-06,-1.040
5.250E-06,-0.920
5.260E-06,-0.840
5.270E-06,-0.740
5.280E-06,-0.660
5.290E-06,-0.580
5.300E-06,-0.420
5.310E-06,-0.320
5.320E-06,-0.260
5.330E-06,-0.160
5.340E-06,-0.080
5.350E-06,-0.020
5.360E-06,0.000
5.370E-06,0.020
5.380E-06,0.020
5.390E-06,-0.020
5.400E-06,-0.120
5.410E-06,-0.220
5.420E-06,-0.300
5.430E-06,-0.360
5.440E-06,-0.420
5.450E-06,-0.480
5.460E-06,-0.480
5.470E-06,-0.420
5.480E-06,-0.460
5.490E-06,-0.460
5.500E-06,-0.560
5.510E-06,-0.620
5.520E-06,-0.660
5.530E-06,-0.700
5.540E-06,-0.680
5.550E-06,-0.700
5.560E-06,-0.680
5.570E-06,-0.740
5.580E-06,-0.760
5.590E-06,-0.800
5.600E-06,-0.860
5.610E-06,-0.940
5.620E-06,-1.000
5.630E-06,-1.080
5.640E-06,-1.200
5.650E-06,-1.300
5.660E-06,-1.340
5.670E-06,-1.340
5.680E-06,-1.360
5.690E-06,-1.380
5.700E-06,-1.280
5.710E-06,-1.220
5.720E-06,-1.140
5.730E-06,-1.080
5.740E-06,-1.020
5.750E-06,-0.940
5.760E-06,-0.860
5.770E-06,-0.840
5.780E-06,-0.840
5.790E-06,-0.860
5.800E-06,-0.820
5.810E-06,-0.840
5.820E-06,-0.780
5.830E-06,-0.760
5.840E-06,-0.760
5.850E-06,-0.740
5.860E-06,-0.740
5.870E-06,-0.660
5.880E-06,-0.660
5.890E-06,-0.640
5.900E-06,-0.580
5.910E-06,-0.560
5.920E-06,-0.560
5.930E-06,-0.560
5.940E-06,-0.560
5.950E-06,-0.600
5.960E-06,-0.600
5.970E-06,-0.640
5.980E-06,-0.680
5.990E-06,-0.680
6.000E-06,-0.700
6.010E-06,-0.720
6.020E-06,-0.740
6.030E-06,-0.720
6.040E-06,-0.680
6.050E-06,-0.640
6.060E-06,-0.620
6.070E-06,-0.520
6.080E-06,-0.500
6.090E-06,-0.420
6.100E-06,-0.340
6.110E-06,-0.320
6.120E-06,-0.300
6.130E-06,-0.300
6.140E-06,-0.280
6.150E-06,-0.300
6.160E-06,-0.260
6.170E-06,-0.260
6.180E-06,-0.200
6.190E-06,-0.100
6.200E-06,-0.020
6.210E-06,0.020
6.220E-06,0.100
6.230E-06,0.160
6.240E-06,0.260
6.250E-06,0.340
6.260E-06,0.380
6.270E-06,0.460
6.280E-06,0.500
6.290E-06,0.480
6.300E-06,0.500
6.310E-06,0.520
6.320E-06,0.460
6.330E-06,0.400
6.340E-06,0.420
6.350E-06,0.400
6.360E-06,0.360
6.370E-06,0.360
6.380E-06,0.320
6.390E-06,0.300
6.400E-06,0.280
6.410E-06,0.260
6.420E-06,0.240
6.430E-06,0.220
6.440E-06,0.160
6.450E-06,0.140
6.460E-06,0.140
6.470E-06,0.140
6.480E-06,0.140
6.490E-06,0.200
6.500E-06,0.260
6.510E-06,0.360
6.520E-06,0.400
6.530E-06,0.400
6.540E-06,0.480
6.550E-06,0.500
6.560E-06,0.500
6.570E-06,0.560
6.580E-06,0.580
6.590E-06,0.600
6.600E-06,0.580
6.610E-06,0.540
6.620E-06,0.500
6.630E-06,0.440
6.640E-06,0.440
6.650E-06,0.400
6.660E-06,0.380
6.670E-06,0.300
6.680E-06,0.280
6.690E-06,0.240
6.700E-06,0.240
6.710E-06,0.160
6.720E-06,0.140
6.730E-06,0.100
6.740E-06,0.080
6.750E-06,0.020
6.760E-06,0.000
6.770E-06,-0.020
6.780E-06,-0.060
6.790E-06,-0.080
6.800E-06,-0.080
6.810E-06,-0.060
6.820E-06,-0.020
6.830E-06,-0.040
6.840E-06,0.040
6.850E-06,0.040
6.860E-06,0.120
6.870E-06,0.260
6.880E-06,0.360
6.890E-06,0.460
6.900E-06,0.540
6.910E-06,0.600
6.920E-06,0.720
6.930E-06,0.740
6.940E-06,0.700
6.950E-06,0.700
6.960E-06,0.720
6.970E-06,0.700
6.980E-06,0.700
6.990E-06,0.680
7.000E-06,0.660
7.010E-06,0.680
7.020E-06,0.700
7.030E-06,0.680
7.040E-06,0.720
7.050E-06,0.760
7.060E-06,0.780
7.070E-06,0.800
7.080E-06,0.820
7.090E-06,0.760
7.100E-06,0.760
7.110E-06,0.660
7.120E-06,0.600
7.130E-06,0.500
7.140E-06,0.420
7.150E-06,0.360
7.160E-06,0.360
7.170E-06,0.420
7.180E-06,0.500
7.190E-06,0.600
7.200E-06,0.760
7.210E-06,0.840
7.220E-06,0.880
7.230E-06,0.960
7.240E-06,1.000
7.250E-06,1.060
7.260E-06,1.100
7.270E-06,1.180
7.280E-06,1.200
7.290E-06,1.240
7.300E-06,1.220
7.310E-06,1.240
7.320E-06,1.240
7.330E-06,1.220
7.340E-06,1.240
7.350E-06,1.280
7.360E-06,1.360
7.370E-06,1.500
7.380E-06,1.580
7.390E-06,1.620
7.400E-06,1.620
7.410E-06,1.680
7.420E-06,1.680
7.430E-06,1.700
7.440E-06,1.700
7.450E-06,1.680
7.460E-06,1.660
7.470E-06,1.620
7.480E-06,1.540
7.490E-06,1.480
7.500E-06,1.420
7.510E-06,1.340
7.520E-06,1.340
7.530E-06,1.360
7.540E-06,1.380
7.550E-06,1.420
7.560E-06,1.480
7.570E-06,1.480
7.580E-06,1.580
7.590E-06,1.640
7.600E-06,1.720
7.610E-06,1.800
7.620E-06,1.860
7.630E-06,1.920
7.640E-06,2.000
7.650E-06,2.040
7.660E-06,2.060
7.670E-06,2.120
7.680E-06,2.180
7.690E-06,2.220
7.700E-06,2.280
7.710E-06,2.380
7.720E-06,2.440
7.730E-06,2.500
7.740E-06,2.580
7.750E-06,2.620
7.760E-06,2.660
7.770E-06,2.660
7.780E-06,2.680
7.790E-06,2.700
7.800E-06,2.740
7.810E-06,2.740
7.820E-06,2.760
7.830E-06,2.760
7.840E-06,2.760
7.850E-06,2.760
7.860E-06,2.760
7.870E-06,2.740
7.880E-06,2.760
7.890E-06,2.780
7.900E-06,2.760
7.910E-06,2.780
7.920E-06,2.760
7.930E-06,2.640
7.940E-06,2.500
7.950E-06,2.340
7.960E-06,2.180
7.970E-06,2.040
7.980E-06,1.920
7.990E-06,1.880
8.000E-06,1.860
8.010E-06,1.880
8.020E-06,1.960
8.030E-06,2.040
8.040E-06,2.180
8.050E-06,2.340
8.060E-06,2.520
8.070E-06,2.760
8.080E-06,2.760
8.090E-06,2.740
8.100E-06,2.760
8.110E-06,2.780
8.120E-06,2.780
8.130E-06,2.760
8.140E-06,2.760
8.150E-06,2.760
8.160E-06,2.780
8.170E-06,2.760
8.180E-06,2.760
8.190E-06,2.760
8.200E-06,2.760
8.210E-06,2.760
8.220E-06,2.760
8.230E-06,2.760
8.240E-06,2.740
8.250E-06,2.760
8.260E-06,2.780
8.270E-06,2.760
8.280E-06,2.780
8.290E-06,2.780
8.300E-06,2.760
8.310E-06,2.760
8.320E-06,2.740
8.330E-06,2.760
8.340E-06,2.760
8.350E-06,2.780
8.360E-06,2.780
8.370E-06,2.760
8.380E-06,2.760
8.390E-06,2.780
8.400E-06,2.780
8.410E-06,2.760
8.420E-06,2.780
8.430E-06,2.760
8.440E-06,2.760
8.450E-06,2.760
8.460E-06,2.740
8.470E-06,2.760
8.480E-06,2.760
8.490E-06,2.760
8.500E-06,2.760
8.510E-06,2.760
8.520E-06,2.740
8.530E-06,2.760
8.540E-06,2.780
8.550E-06,2.760
8.560E-06,0.020
8.570E-06,-2.660
8.580E-06,-2.660
8.590E-06,-2.680
8.600E-06,-2.680
8.610E-06,-2.660
8.620E-06,-2.660
8.630E-06,-2.660
8.640E-06,-2.660
8.650E-06,-2.660
8.660E-06,-2.660
8.670E-06,-2.660
8.680E-06,-2.660
8.690E-06,-2.660
8.700E-06,-2.660
8.710E-06,-2.660
8.720E-06,-2.420
8.730E-06,-2.020
8.740E-06,-1.880
8.750E-06,-1.140
8.760E-06,0.040
8.770E-06,1.320
8.780E-06,2.180
8.790E-06,2.780
8.800E-06,2.760
8.810E-06,2.760
8.820E-06,2.760
8.830E-06,2.780
8.840E-06,2.780
8.850E-06,2.760
8.860E-06,2.760
8.870E-06,2.760
8.880E-06,2.660
8.890E-06,2.400
8.900E-06,2.340
8.910E-06,2.440
8.920E-06,2.660
8.930E-06,2.760
8.940E-06,2.760
8.950E-06,2.760
8.960E-06,2.780
8.970E-06,2.760
8.980E-06,2.740
8.990E-06,2.720
9.000E-06,2.600
9.010E-06,2.520
9.020E-06,2.380
9.030E-06,2.320
9.040E-06,2.180
9.050E-06,2.100
9.060E-06,2.000
9.070E-06,1.940
9.080E-06,1.880
9.090E-06,1.880
9.100E-06,1.880
9.110E-06,1.860
9.120E-06,1.860
9.130E-06,1.840
9.140E-06,1.900
9.150E-06,1.940
9.160E-06,1.920
9.170E-06,1.880
9.180E-06,1.800
9.190E-06,1.720
9.200E-06,1.660
9.210E-06,1.620
9.220E-06,1.540
9.230E-06,1.420
9.240E-06,1.420
9.250E-06,1.420
9.260E-06,1.460
9.270E-06,1.480
9.280E-06,1.520
9.290E-06,1.520
9.300E-06,1.520
9.310E-06,1.580
9.320E-06,1.620
9.330E-06,1.580
9.340E-06,1.520
9.350E-06,1.420
9.360E-06,1.440
9.370E-06,1.420
9.380E-06,1.400
9.390E-06,1.300
9.400E-06,1.180
9.410E-06,1.140
9.420E-06,1.120
9.430E-06,1.080
9.440E-06,1.000
9.450E-06,0.860
9.460E-06,0.740
9.470E-06,0.740
9.480E-06,0.700
9.490E-06,0.640
9.500E-06,0.560
9.510E-06,0.500
9.520E-06,0.520
9.530E-06,0.540
9.540E-06,0.500
9.550E-06,0.500
