mediciones/Mediciones filtradas (saque las feas)/6-3/-7.5/WaveData5374.csv

#timebase=2000000(ps)
,#voltbase=100000(mv/100)
#size=4000
-2.300E-06,0.004
-2.290E-06,0.008
-2.280E-06,0.004
-2.270E-06,0.008
-2.260E-06,0.012
-2.250E-06,0.012
-2.240E-06,0.008
-2.230E-06,0.004
-2.220E-06,0.008
-2.210E-06,0.004
-2.200E-06,-0.004
-2.190E-06,-0.004
-2.180E-06,0.004
-2.170E-06,0.004
-2.160E-06,0.008
-2.150E-06,0.008
-2.140E-06,0.004
-2.130E-06,0.004
-2.120E-06,0.000
-2.110E-06,0.004
-2.100E-06,0.012
-2.090E-06,0.012
-2.080E-06,0.012
-2.070E-06,0.008
-2.060E-06,0.008
-2.050E-06,0.008
-2.040E-06,0.008
-2.030E-06,0.008
-2.020E-06,0.004
-2.010E-06,0.000
-2.000E-06,-0.004
-1.990E-06,0.004
-1.980E-06,0.008
-1.970E-06,0.012
-1.960E-06,0.012
-1.950E-06,0.012
-1.940E-06,0.016
-1.930E-06,-0.008
-1.920E-06,-0.004
-1.910E-06,-0.008
-1.900E-06,0.000
-1.890E-06,0.012
-1.880E-06,0.020
-1.870E-06,0.028
-1.860E-06,0.016
-1.850E-06,0.000
-1.840E-06,-0.008
-1.830E-06,-0.012
-1.820E-06,-0.004
-1.810E-06,0.012
-1.800E-06,0.028
-1.790E-06,0.024
-1.780E-06,0.024
-1.770E-06,0.012
-1.760E-06,0.000
-1.750E-06,-0.004
-1.740E-06,0.004
-1.730E-06,0.012
-1.720E-06,0.024
-1.710E-06,0.028
-1.700E-06,0.012
-1.690E-06,0.012
-1.680E-06,0.012
-1.670E-06,-0.004
-1.660E-06,0.028
-1.650E-06,0.008
-1.640E-06,0.024
-1.630E-06,0.012
-1.620E-06,0.032
-1.610E-06,0.044
-1.600E-06,0.036
-1.590E-06,0.048
-1.580E-06,0.020
-1.570E-06,0.056
-1.560E-06,0.056
-1.550E-06,0.020
-1.540E-06,-0.028
-1.530E-06,-0.084
-1.520E-06,-0.088
-1.510E-06,-0.068
-1.500E-06,-0.008
-1.490E-06,-0.008
-1.480E-06,0.012
-1.470E-06,0.024
-1.460E-06,0.000
-1.450E-06,-0.040
-1.440E-06,-0.048
-1.430E-06,-0.028
-1.420E-06,-0.004
-1.410E-06,0.024
-1.400E-06,0.024
-1.390E-06,0.020
-1.380E-06,-0.008
-1.370E-06,-0.020
-1.360E-06,-0.020
-1.350E-06,-0.020
-1.340E-06,0.000
-1.330E-06,0.012
-1.320E-06,0.024
-1.310E-06,0.012
-1.300E-06,0.004
-1.290E-06,-0.012
-1.280E-06,-0.012
-1.270E-06,-0.004
-1.260E-06,0.000
-1.250E-06,0.016
-1.240E-06,0.008
-1.230E-06,0.012
-1.220E-06,0.008
-1.210E-06,0.000
-1.200E-06,-0.004
-1.190E-06,-0.004
-1.180E-06,0.004
-1.170E-06,0.016
-1.160E-06,0.020
-1.150E-06,0.020
-1.140E-06,0.024
-1.130E-06,0.008
-1.120E-06,0.004
-1.110E-06,0.004
-1.100E-06,0.016
-1.090E-06,0.032
-1.080E-06,0.032
-1.070E-06,0.036
-1.060E-06,0.024
-1.050E-06,0.004
-1.040E-06,-0.008
-1.030E-06,-0.004
-1.020E-06,0.004
-1.010E-06,0.012
-1.000E-06,0.024
-9.900E-07,0.032
-9.800E-07,0.024
-9.700E-07,0.004
-9.600E-07,-0.004
-9.500E-07,0.000
-9.400E-07,-0.004
-9.300E-07,0.004
-9.200E-07,0.016
-9.100E-07,0.028
-9.000E-07,0.008
-8.900E-07,0.000
-8.800E-07,-0.012
-8.700E-07,-0.012
-8.600E-07,-0.004
-8.500E-07,-0.004
-8.400E-07,0.016
-8.300E-07,0.016
-8.200E-07,0.032
-8.100E-07,0.012
-8.000E-07,0.004
-7.900E-07,0.012
-7.800E-07,0.008
-7.700E-07,0.028
-7.600E-07,0.036
-7.500E-07,0.028
-7.400E-07,0.008
-7.300E-07,0.004
-7.200E-07,-0.004
-7.100E-07,-0.004
-7.000E-07,0.004
-6.900E-07,0.016
-6.800E-07,0.008
-6.700E-07,0.008
-6.600E-07,0.020
-6.500E-07,0.004
-6.400E-07,0.008
-6.300E-07,0.004
-6.200E-07,0.024
-6.100E-07,0.024
-6.000E-07,0.032
-5.900E-07,0.044
-5.800E-07,0.032
-5.700E-07,0.040
-5.600E-07,0.040
-5.500E-07,0.044
-5.400E-07,0.040
-5.300E-07,0.028
-5.200E-07,0.028
-5.100E-07,0.032
-5.000E-07,0.036
-4.900E-07,0.028
-4.800E-07,0.032
-4.700E-07,0.032
-4.600E-07,0.028
-4.500E-07,0.020
-4.400E-07,0.020
-4.300E-07,0.032
-4.200E-07,0.032
-4.100E-07,0.024
-4.000E-07,0.032
-3.900E-07,0.040
-3.800E-07,0.044
-3.700E-07,0.056
-3.600E-07,0.044
-3.500E-07,0.040
-3.400E-07,0.008
-3.300E-07,0.016
-3.200E-07,0.016
-3.100E-07,0.044
-3.000E-07,0.056
-2.900E-07,0.056
-2.800E-07,0.080
-2.700E-07,0.044
-2.600E-07,0.080
-2.500E-07,0.072
-2.400E-07,0.104
-2.300E-07,0.104
-2.200E-07,0.104
-2.100E-07,0.112
-2.000E-07,0.120
-1.900E-07,0.112
-1.800E-07,0.108
-1.700E-07,0.072
-1.600E-07,0.092
-1.500E-07,0.100
-1.400E-07,0.116
-1.300E-07,0.108
-1.200E-07,0.044
-1.100E-07,0.000
-1.000E-07,0.068
-9.000E-08,0.084
-8.000E-08,0.160
-7.000E-08,-0.024
-6.000E-08,-0.388
-5.000E-08,-0.512
-4.000E-08,-0.512
-3.000E-08,-0.508
-2.000E-08,-0.416
-1.000E-08,0.248
0.000E+00,0.456
1.000E-08,0.540
2.000E-08,0.224
3.000E-08,-0.272
4.000E-08,-0.512
5.000E-08,-0.428
6.000E-08,0.088
7.000E-08,0.328
8.000E-08,0.416
9.000E-08,0.284
1.000E-07,0.060
1.100E-07,-0.172
1.200E-07,-0.260
1.300E-07,-0.160
1.400E-07,0.068
1.500E-07,0.168
1.600E-07,0.232
1.700E-07,0.156
1.800E-07,0.032
1.900E-07,-0.132
2.000E-07,-0.124
2.100E-07,-0.096
2.200E-07,-0.072
2.300E-07,-0.004
2.400E-07,0.052
2.500E-07,0.088
2.600E-07,-0.004
2.700E-07,-0.012
2.800E-07,-0.068
2.900E-07,-0.004
3.000E-07,-0.020
3.100E-07,0.064
3.200E-07,0.060
3.300E-07,0.052
3.400E-07,0.012
3.500E-07,0.004
3.600E-07,0.004
3.700E-07,0.012
3.800E-07,0.056
3.900E-07,0.100
4.000E-07,0.132
4.100E-07,0.124
4.200E-07,0.096
4.300E-07,0.072
4.400E-07,0.032
4.500E-07,0.036
4.600E-07,0.064
4.700E-07,0.100
4.800E-07,0.132
4.900E-07,0.156
5.000E-07,0.188
5.100E-07,0.204
5.200E-07,0.148
5.300E-07,0.140
5.400E-07,0.056
5.500E-07,0.040
5.600E-07,0.032
5.700E-07,0.052
5.800E-07,0.036
5.900E-07,0.032
6.000E-07,-0.008
6.100E-07,-0.128
6.200E-07,-0.156
6.300E-07,-0.136
6.400E-07,-0.088
6.500E-07,0.032
6.600E-07,0.204
6.700E-07,0.316
6.800E-07,0.292
6.900E-07,0.248
7.000E-07,0.064
7.100E-07,-0.204
7.200E-07,-0.504
7.300E-07,-0.512
7.400E-07,-0.508
7.500E-07,-0.512
7.600E-07,-0.168
7.700E-07,0.188
7.800E-07,0.280
7.900E-07,0.164
8.000E-07,-0.072
8.100E-07,-0.184
8.200E-07,-0.256
8.300E-07,-0.072
8.400E-07,0.056
8.500E-07,0.192
8.600E-07,0.224
8.700E-07,0.156
8.800E-07,0.012
8.900E-07,-0.084
9.000E-07,-0.108
9.100E-07,-0.052
9.200E-07,0.060
9.300E-07,0.092
9.400E-07,0.124
9.500E-07,0.056
9.600E-07,0.008
9.700E-07,-0.068
9.800E-07,-0.040
9.900E-07,-0.056
1.000E-06,-0.008
1.010E-06,0.024
1.020E-06,0.056
1.030E-06,0.012
1.040E-06,-0.008
1.050E-06,-0.008
1.060E-06,-0.028
1.070E-06,0.020
1.080E-06,0.028
1.090E-06,0.044
1.100E-06,0.040
1.110E-06,0.024
1.120E-06,0.000
1.130E-06,-0.020
1.140E-06,0.004
1.150E-06,-0.028
1.160E-06,0.024
1.170E-06,0.072
1.180E-06,0.096
1.190E-06,0.104
1.200E-06,0.060
1.210E-06,0.072
1.220E-06,0.064
1.230E-06,0.064
1.240E-06,0.088
1.250E-06,0.112
1.260E-06,0.152
1.270E-06,0.184
1.280E-06,0.216
1.290E-06,0.208
1.300E-06,0.176
1.310E-06,0.148
1.320E-06,0.124
1.330E-06,0.128
1.340E-06,0.132
1.350E-06,0.160
1.360E-06,0.160
1.370E-06,0.152
1.380E-06,0.140
1.390E-06,0.124
1.400E-06,0.124
1.410E-06,0.136
1.420E-06,0.164
1.430E-06,0.184
1.440E-06,0.176
1.450E-06,0.160
1.460E-06,0.132
1.470E-06,0.124
1.480E-06,0.124
1.490E-06,0.136
1.500E-06,0.140
1.510E-06,0.148
1.520E-06,0.148
1.530E-06,0.136
1.540E-06,0.136
1.550E-06,0.132
1.560E-06,0.128
1.570E-06,0.132
1.580E-06,0.128
1.590E-06,0.124
1.600E-06,0.132
1.610E-06,0.124
1.620E-06,0.120
1.630E-06,0.100
1.640E-06,0.112
1.650E-06,0.104
1.660E-06,0.132
1.670E-06,0.148
1.680E-06,0.168
1.690E-06,0.168
1.700E-06,0.132
1.710E-06,0.112
1.720E-06,0.100
1.730E-06,0.108
1.740E-06,0.092
1.750E-06,0.056
1.760E-06,0.036
1.770E-06,0.056
1.780E-06,0.076
1.790E-06,0.048
1.800E-06,0.004
1.810E-06,-0.108
1.820E-06,-0.132
1.830E-06,-0.136
1.840E-06,-0.036
1.850E-06,-0.024
1.860E-06,0.040
1.870E-06,0.028
1.880E-06,-0.072
1.890E-06,-0.120
1.900E-06,-0.120
1.910E-06,-0.100
1.920E-06,-0.052
1.930E-06,0.000
1.940E-06,-0.032
1.950E-06,-0.004
1.960E-06,0.020
1.970E-06,0.052
1.980E-06,0.096
1.990E-06,0.144
2.000E-06,0.164
2.010E-06,0.140
2.020E-06,0.160
2.030E-06,0.124
2.040E-06,0.144
2.050E-06,0.148
2.060E-06,0.192
2.070E-06,0.204
2.080E-06,0.196
2.090E-06,0.180
2.100E-06,0.140
2.110E-06,0.144
2.120E-06,0.144
2.130E-06,0.160
2.140E-06,0.160
2.150E-06,0.172
2.160E-06,0.168
2.170E-06,0.172
2.180E-06,0.160
2.190E-06,0.148
2.200E-06,0.152
2.210E-06,0.152
2.220E-06,0.160
2.230E-06,0.160
2.240E-06,0.160
2.250E-06,0.160
2.260E-06,0.164
2.270E-06,0.152
2.280E-06,0.152
2.290E-06,0.144
2.300E-06,0.156
2.310E-06,0.156
2.320E-06,0.164
2.330E-06,0.168
2.340E-06,0.160
2.350E-06,0.164
2.360E-06,0.160
2.370E-06,0.164
2.380E-06,0.160
2.390E-06,0.160
2.400E-06,0.164
2.410E-06,0.164
2.420E-06,0.168
2.430E-06,0.164
2.440E-06,0.160
2.450E-06,0.160
2.460E-06,0.156
2.470E-06,0.160
2.480E-06,0.156
2.490E-06,0.156
2.500E-06,0.152
2.510E-06,0.156
2.520E-06,0.160
2.530E-06,0.156
2.540E-06,0.152
2.550E-06,0.156
2.560E-06,0.156
2.570E-06,0.160
2.580E-06,0.160
2.590E-06,0.160
2.600E-06,0.164
2.610E-06,0.164
2.620E-06,0.164
2.630E-06,0.156
2.640E-06,0.156
2.650E-06,0.164
2.660E-06,0.160
2.670E-06,0.156
2.680E-06,0.160
2.690E-06,0.164
2.700E-06,0.160
2.710E-06,0.156
2.720E-06,0.160
2.730E-06,0.156
2.740E-06,0.156
2.750E-06,0.160
2.760E-06,0.160
2.770E-06,0.160
2.780E-06,0.160
2.790E-06,0.152
2.800E-06,0.152
2.810E-06,0.156
2.820E-06,0.164
2.830E-06,0.160
2.840E-06,0.160
2.850E-06,0.152
2.860E-06,0.152
2.870E-06,0.152
2.880E-06,0.152
2.890E-06,0.160
2.900E-06,0.156
2.910E-06,0.156
2.920E-06,0.160
2.930E-06,0.156
2.940E-06,0.148
2.950E-06,0.148
2.960E-06,0.152
2.970E-06,0.148
2.980E-06,0.152
2.990E-06,0.148
3.000E-06,0.148
3.010E-06,0.148
3.020E-06,0.148
3.030E-06,0.144
3.040E-06,0.144
3.050E-06,0.144
3.060E-06,0.144
3.070E-06,0.148
3.080E-06,0.148
3.090E-06,0.152
3.100E-06,0.152
3.110E-06,0.144
3.120E-06,0.144
3.130E-06,0.144
3.140E-06,0.148
3.150E-06,0.148
3.160E-06,0.152
3.170E-06,0.144
3.180E-06,0.144
3.190E-06,0.148
3.200E-06,0.148
3.210E-06,0.148
3.220E-06,0.136
3.230E-06,0.136
3.240E-06,0.140
3.250E-06,0.136
3.260E-06,0.136
3.270E-06,0.136
3.280E-06,0.144
3.290E-06,0.140
3.300E-06,0.140
3.310E-06,0.140
3.320E-06,0.132
3.330E-06,0.132
3.340E-06,0.124
3.350E-06,0.128
3.360E-06,0.136
3.370E-06,0.136
3.380E-06,0.136
3.390E-06,0.132
3.400E-06,0.128
3.410E-06,0.128
3.420E-06,0.132
3.430E-06,0.132
3.440E-06,0.140
3.450E-06,0.140
3.460E-06,0.144
3.470E-06,0.132
3.480E-06,0.132
3.490E-06,0.132
3.500E-06,0.132
3.510E-06,0.136
3.520E-06,0.140
3.530E-06,0.140
3.540E-06,0.136
3.550E-06,0.140
3.560E-06,0.136
3.570E-06,0.132
3.580E-06,0.140
3.590E-06,0.132
3.600E-06,0.132
3.610E-06,0.132
3.620E-06,0.132
3.630E-06,0.132
3.640E-06,0.132
3.650E-06,0.136
3.660E-06,0.132
3.670E-06,0.132
3.680E-06,0.128
3.690E-06,0.128
3.700E-06,0.128
3.710E-06,0.128
3.720E-06,0.136
3.730E-06,0.128
3.740E-06,0.128
3.750E-06,0.124
3.760E-06,0.124
3.770E-06,0.120
3.780E-06,0.120
3.790E-06,0.124
3.800E-06,0.128
3.810E-06,0.132
3.820E-06,0.124
3.830E-06,0.128
3.840E-06,0.128
3.850E-06,0.128
3.860E-06,0.132
3.870E-06,0.128
3.880E-06,0.128
3.890E-06,0.124
3.900E-06,0.128
3.910E-06,0.128
3.920E-06,0.128
3.930E-06,0.124
3.940E-06,0.128
3.950E-06,0.128
3.960E-06,0.124
3.970E-06,0.124
3.980E-06,0.120
3.990E-06,0.120
4.000E-06,0.120
4.010E-06,0.120
4.020E-06,0.124
4.030E-06,0.128
4.040E-06,0.124
4.050E-06,0.124
4.060E-06,0.120
4.070E-06,0.124
4.080E-06,0.120
4.090E-06,0.116
4.100E-06,0.120
4.110E-06,0.120
4.120E-06,0.120
4.130E-06,0.120
4.140E-06,0.120
4.150E-06,0.120
4.160E-06,0.112
4.170E-06,0.104
4.180E-06,0.104
4.190E-06,0.104
4.200E-06,0.108
4.210E-06,0.108
4.220E-06,0.112
4.230E-06,0.112
4.240E-06,0.108
4.250E-06,0.104
4.260E-06,0.104
4.270E-06,0.108
4.280E-06,0.108
4.290E-06,0.108
4.300E-06,0.108
4.310E-06,0.104
4.320E-06,0.104
4.330E-06,0.096
4.340E-06,0.096
4.350E-06,0.100
4.360E-06,0.104
4.370E-06,0.108
4.380E-06,0.108
4.390E-06,0.104
4.400E-06,0.108
4.410E-06,0.104
4.420E-06,0.096
4.430E-06,0.096
4.440E-06,0.104
4.450E-06,0.108
4.460E-06,0.112
4.470E-06,0.112
4.480E-06,0.108
4.490E-06,0.108
4.500E-06,0.100
4.510E-06,0.104
4.520E-06,0.108
4.530E-06,0.108
4.540E-06,0.112
4.550E-06,0.108
4.560E-06,0.108
4.570E-06,0.108
4.580E-06,0.100
4.590E-06,0.104
4.600E-06,0.104
4.610E-06,0.108
4.620E-06,0.104
4.630E-06,0.104
4.640E-06,0.104
4.650E-06,0.096
4.660E-06,0.096
4.670E-06,0.096
4.680E-06,0.096
4.690E-06,0.096
4.700E-06,0.100
4.710E-06,0.100
4.720E-06,0.096
4.730E-06,0.096
4.740E-06,0.092
4.750E-06,0.096
4.760E-06,0.092
4.770E-06,0.096
4.780E-06,0.092
4.790E-06,0.092
4.800E-06,0.092
4.810E-06,0.088
4.820E-06,0.084
4.830E-06,0.088
4.840E-06,0.088
4.850E-06,0.092
4.860E-06,0.092
4.870E-06,0.092
4.880E-06,0.088
4.890E-06,0.084
4.900E-06,0.088
4.910E-06,0.080
4.920E-06,0.084
4.930E-06,0.084
4.940E-06,0.088
4.950E-06,0.088
4.960E-06,0.088
4.970E-06,0.088
4.980E-06,0.088
4.990E-06,0.092
5.000E-06,0.088
5.010E-06,0.092
5.020E-06,0.092
5.030E-06,0.096
5.040E-06,0.088
5.050E-06,0.088
5.060E-06,0.088
5.070E-06,0.088
5.080E-06,0.092
5.090E-06,0.092
5.100E-06,0.096
5.110E-06,0.088
5.120E-06,0.092
5.130E-06,0.092
5.140E-06,0.088
5.150E-06,0.088
5.160E-06,0.088
5.170E-06,0.088
5.180E-06,0.092
5.190E-06,0.088
5.200E-06,0.092
5.210E-06,0.088
5.220E-06,0.092
5.230E-06,0.084
5.240E-06,0.084
5.250E-06,0.092
5.260E-06,0.088
5.270E-06,0.088
5.280E-06,0.084
5.290E-06,0.084
5.300E-06,0.088
5.310E-06,0.076
5.320E-06,0.084
5.330E-06,0.080
5.340E-06,0.076
5.350E-06,0.076
5.360E-06,0.080
5.370E-06,0.076
5.380E-06,0.076
5.390E-06,0.072
5.400E-06,0.076
5.410E-06,0.076
5.420E-06,0.072
5.430E-06,0.072
5.440E-06,0.084
5.450E-06,0.076
5.460E-06,0.076
5.470E-06,0.076
5.480E-06,0.072
5.490E-06,0.072
5.500E-06,0.072
5.510E-06,0.076
5.520E-06,0.072
5.530E-06,0.076
5.540E-06,0.072
5.550E-06,0.076
5.560E-06,0.072
5.570E-06,0.072
5.580E-06,0.072
5.590E-06,0.076
5.600E-06,0.080
5.610E-06,0.072
5.620E-06,0.072
5.630E-06,0.072
5.640E-06,0.068
5.650E-06,0.068
5.660E-06,0.068
5.670E-06,0.068
5.680E-06,0.068
5.690E-06,0.072
5.700E-06,0.068
5.710E-06,0.068
5.720E-06,0.068
5.730E-06,0.064
5.740E-06,0.064
5.750E-06,0.064
5.760E-06,0.068
5.770E-06,0.068
5.780E-06,0.072
5.790E-06,0.064
5.800E-06,0.064
5.810E-06,0.068
5.820E-06,0.060
5.830E-06,0.060
5.840E-06,0.064
5.850E-06,0.060
5.860E-06,0.064
5.870E-06,0.068
5.880E-06,0.060
5.890E-06,0.060
5.900E-06,0.060
5.910E-06,0.064
5.920E-06,0.064
5.930E-06,0.060
5.940E-06,0.064
5.950E-06,0.060
5.960E-06,0.056
5.970E-06,0.056
5.980E-06,0.056
5.990E-06,0.060
6.000E-06,0.064
6.010E-06,0.060
6.020E-06,0.064
6.030E-06,0.060
6.040E-06,0.060
6.050E-06,0.056
6.060E-06,0.060
6.070E-06,0.060
6.080E-06,0.056
6.090E-06,0.056
6.100E-06,0.056
6.110E-06,0.056
6.120E-06,0.056
6.130E-06,0.056
6.140E-06,0.056
6.150E-06,0.052
6.160E-06,0.056
6.170E-06,0.056
6.180E-06,0.052
6.190E-06,0.052
6.200E-06,0.048
6.210E-06,0.044
6.220E-06,0.048
6.230E-06,0.056
6.240E-06,0.048
6.250E-06,0.056
6.260E-06,0.060
6.270E-06,0.052
6.280E-06,0.056
6.290E-06,0.056
6.300E-06,0.052
6.310E-06,0.048
6.320E-06,0.052
6.330E-06,0.052
6.340E-06,0.052
6.350E-06,0.052
6.360E-06,0.056
6.370E-06,0.048
6.380E-06,0.040
6.390E-06,0.044
6.400E-06,0.048
6.410E-06,0.044
6.420E-06,0.048
6.430E-06,0.044
6.440E-06,0.044
6.450E-06,0.040
6.460E-06,0.036
6.470E-06,0.040
6.480E-06,0.040
6.490E-06,0.044
6.500E-06,0.044
6.510E-06,0.040
6.520E-06,0.040
6.530E-06,0.032
6.540E-06,0.040
6.550E-06,0.044
6.560E-06,0.044
6.570E-06,0.040
6.580E-06,0.044
6.590E-06,0.040
6.600E-06,0.040
6.610E-06,0.040
6.620E-06,0.040
6.630E-06,0.044
6.640E-06,0.044
6.650E-06,0.040
6.660E-06,0.040
6.670E-06,0.040
6.680E-06,0.040
6.690E-06,0.036
6.700E-06,0.036
6.710E-06,0.032
6.720E-06,0.036
6.730E-06,0.036
6.740E-06,0.032
6.750E-06,0.032
6.760E-06,0.036
6.770E-06,0.036
6.780E-06,0.032
6.790E-06,0.032
6.800E-06,0.036
6.810E-06,0.032
6.820E-06,0.036
6.830E-06,0.032
6.840E-06,0.036
6.850E-06,0.028
6.860E-06,0.032
6.870E-06,0.028
6.880E-06,0.036
6.890E-06,0.028
6.900E-06,0.032
6.910E-06,0.032
6.920E-06,0.024
6.930E-06,0.028
6.940E-06,0.028
6.950E-06,0.028
6.960E-06,0.032
6.970E-06,0.028
6.980E-06,0.028
6.990E-06,0.028
7.000E-06,0.028
7.010E-06,0.028
7.020E-06,0.032
7.030E-06,0.028
7.040E-06,0.024
7.050E-06,0.028
7.060E-06,0.024
7.070E-06,0.028
7.080E-06,0.028
7.090E-06,0.032
7.100E-06,0.028
7.110E-06,0.024
7.120E-06,0.024
7.130E-06,0.028
7.140E-06,0.020
7.150E-06,0.024
7.160E-06,0.032
7.170E-06,0.028
7.180E-06,0.028
7.190E-06,0.032
7.200E-06,0.028
7.210E-06,0.032
7.220E-06,0.024
7.230E-06,0.020
7.240E-06,0.024
7.250E-06,0.024
7.260E-06,0.028
7.270E-06,0.024
7.280E-06,0.020
7.290E-06,0.024
7.300E-06,0.024
7.310E-06,0.028
7.320E-06,0.024
7.330E-06,0.020
7.340E-06,0.020
7.350E-06,0.024
7.360E-06,0.024
7.370E-06,0.028
7.380E-06,0.024
7.390E-06,0.016
7.400E-06,0.024
7.410E-06,0.024
7.420E-06,0.024
7.430E-06,0.024
7.440E-06,0.020
7.450E-06,0.016
7.460E-06,0.020
7.470E-06,0.016
7.480E-06,0.016
7.490E-06,0.020
7.500E-06,0.016
7.510E-06,0.020
7.520E-06,0.020
7.530E-06,0.020
7.540E-06,0.024
7.550E-06,0.016
7.560E-06,0.016
7.570E-06,0.016
7.580E-06,0.016
7.590E-06,0.012
7.600E-06,0.024
7.610E-06,0.020
7.620E-06,0.012
7.630E-06,0.012
7.640E-06,0.016
7.650E-06,0.012
7.660E-06,0.012
7.670E-06,0.012
7.680E-06,0.016
7.690E-06,0.020
7.700E-06,0.012
7.710E-06,0.012
7.720E-06,0.020
7.730E-06,0.016
7.740E-06,0.016
7.750E-06,0.020
7.760E-06,0.024
7.770E-06,0.016
7.780E-06,0.016
7.790E-06,0.024
7.800E-06,0.016
7.810E-06,0.012
7.820E-06,0.020
7.830E-06,0.020
7.840E-06,0.012
7.850E-06,0.016
7.860E-06,0.012
7.870E-06,0.012
7.880E-06,0.012
7.890E-06,0.008
7.900E-06,0.008
7.910E-06,0.012
7.920E-06,0.016
7.930E-06,0.004
7.940E-06,0.008
7.950E-06,0.008
7.960E-06,0.008
7.970E-06,0.008
7.980E-06,0.008
7.990E-06,0.008
8.000E-06,0.008
8.010E-06,0.008
8.020E-06,0.004
8.030E-06,0.000
8.040E-06,0.004
8.050E-06,0.000
8.060E-06,0.004
8.070E-06,0.004
8.080E-06,0.004
8.090E-06,0.004
8.100E-06,0.004
8.110E-06,0.004
8.120E-06,0.004
8.130E-06,0.004
8.140E-06,0.008
8.150E-06,0.000
8.160E-06,0.004
8.170E-06,0.004
8.180E-06,0.004
8.190E-06,0.000
8.200E-06,0.000
8.210E-06,0.000
8.220E-06,0.004
8.230E-06,0.000
8.240E-06,0.004
8.250E-06,0.008
8.260E-06,-0.004
8.270E-06,0.000
8.280E-06,0.000
8.290E-06,-0.004
8.300E-06,0.000
8.310E-06,-0.004
8.320E-06,-0.004
8.330E-06,0.000
8.340E-06,-0.004
8.350E-06,-0.004
8.360E-06,0.000
8.370E-06,0.000
8.380E-06,0.000
8.390E-06,-0.004
8.400E-06,0.000
8.410E-06,-0.004
8.420E-06,-0.004
8.430E-06,-0.004
8.440E-06,-0.008
8.450E-06,0.000
8.460E-06,-0.004
8.470E-06,-0.004
8.480E-06,-0.004
8.490E-06,-0.004
8.500E-06,-0.004
8.510E-06,-0.004
8.520E-06,0.000
8.530E-06,-0.004
8.540E-06,-0.004
8.550E-06,-0.004
8.560E-06,-0.004
8.570E-06,-0.004
8.580E-06,-0.008
8.590E-06,-0.004
8.600E-06,-0.004
8.610E-06,-0.008
8.620E-06,-0.012
8.630E-06,-0.008
8.640E-06,-0.004
8.650E-06,-0.004
8.660E-06,-0.008
8.670E-06,-0.008
8.680E-06,-0.004
8.690E-06,-0.008
8.700E-06,-0.008
8.710E-06,-0.008
8.720E-06,-0.008
8.730E-06,-0.004
8.740E-06,-0.008
8.750E-06,-0.008
8.760E-06,-0.008
8.770E-06,-0.012
8.780E-06,-0.012
8.790E-06,-0.012
8.800E-06,-0.012
8.810E-06,-0.012
8.820E-06,-0.012
8.830E-06,-0.004
8.840E-06,-0.004
8.850E-06,-0.008
8.860E-06,-0.008
8.870E-06,-0.008
8.880E-06,-0.008
8.890E-06,-0.008
8.900E-06,-0.008
8.910E-06,-0.008
8.920E-06,-0.008
8.930E-06,-0.008
8.940E-06,-0.008
8.950E-06,-0.008
8.960E-06,-0.008
8.970E-06,-0.008
8.980E-06,-0.008
8.990E-06,-0.012
9.000E-06,-0.012
9.010E-06,-0.012
9.020E-06,-0.016
9.030E-06,-0.008
9.040E-06,-0.004
9.050E-06,-0.012
9.060E-06,-0.008
9.070E-06,-0.008
9.080E-06,-0.012
9.090E-06,-0.004
9.100E-06,-0.012
9.110E-06,-0.012
9.120E-06,-0.012
9.130E-06,-0.008
9.140E-06,-0.012
9.150E-06,-0.012
9.160E-06,-0.012
9.170E-06,-0.012
9.180E-06,-0.020
9.190E-06,-0.012
9.200E-06,-0.012
9.210E-06,-0.012
9.220E-06,-0.012
9.230E-06,-0.008
9.240E-06,-0.012
9.250E-06,-0.020
9.260E-06,-0.020
9.270E-06,-0.024
9.280E-06,-0.008
9.290E-06,-0.012
9.300E-06,-0.024
9.310E-06,-0.016
9.320E-06,-0.012
9.330E-06,-0.020
9.340E-06,-0.016
9.350E-06,-0.020
9.360E-06,-0.016
9.370E-06,-0.016
9.380E-06,-0.024
9.390E-06,-0.020
9.400E-06,-0.024
9.410E-06,-0.024
9.420E-06,-0.024
9.430E-06,-0.016
9.440E-06,-0.016
9.450E-06,-0.020
9.460E-06,-0.016
9.470E-06,-0.020
9.480E-06,-0.020
9.490E-06,-0.024
9.500E-06,-0.020
9.510E-06,-0.016
9.520E-06,-0.016
9.530E-06,-0.020
9.540E-06,-0.024
9.550E-06,-0.020
9.560E-06,-0.020
9.570E-06,-0.028
9.580E-06,-0.020
9.590E-06,-0.020
9.600E-06,-0.020
9.610E-06,-0.024
9.620E-06,-0.020
9.630E-06,-0.020
9.640E-06,-0.020
9.650E-06,-0.016
9.660E-06,-0.024
9.670E-06,-0.016
9.680E-06,-0.020
9.690E-06,-0.020
9.700E-06,-0.024
9.710E-06,-0.020
9.720E-06,-0.024
9.730E-06,-0.028
9.740E-06,-0.024
9.750E-06,-0.016
9.760E-06,-0.020
9.770E-06,-0.024
9.780E-06,-0.028
9.790E-06,-0.020
9.800E-06,-0.024
9.810E-06,-0.028
9.820E-06,-0.024
9.830E-06,-0.020
9.840E-06,-0.020
9.850E-06,-0.024
