mediciones/Mediciones filtradas (saque las feas)/6-3/-7.5/WaveData5352.csv

#timebase=2000000(ps)
,#voltbase=100000(mv/100)
#size=4000
-2.300E-06,0.020
-2.290E-06,0.064
-2.280E-06,0.040
-2.270E-06,-0.008
-2.260E-06,-0.040
-2.250E-06,-0.044
-2.240E-06,-0.024
-2.230E-06,0.032
-2.220E-06,0.088
-2.210E-06,0.056
-2.200E-06,0.000
-2.190E-06,-0.016
-2.180E-06,-0.040
-2.170E-06,-0.036
-2.160E-06,0.032
-2.150E-06,0.060
-2.140E-06,0.052
-2.130E-06,0.024
-2.120E-06,-0.004
-2.110E-06,-0.028
-2.100E-06,-0.032
-2.090E-06,-0.004
-2.080E-06,0.028
-2.070E-06,0.032
-2.060E-06,0.028
-2.050E-06,0.024
-2.040E-06,0.008
-2.030E-06,-0.004
-2.020E-06,-0.012
-2.010E-06,-0.012
-2.000E-06,-0.012
-1.990E-06,0.004
-1.980E-06,0.016
-1.970E-06,0.028
-1.960E-06,0.036
-1.950E-06,0.036
-1.940E-06,0.024
-1.930E-06,0.020
-1.920E-06,0.008
-1.910E-06,-0.004
-1.900E-06,-0.008
-1.890E-06,-0.004
-1.880E-06,-0.004
-1.870E-06,0.008
-1.860E-06,0.000
-1.850E-06,0.004
-1.840E-06,-0.008
-1.830E-06,-0.008
-1.820E-06,0.004
-1.810E-06,0.016
-1.800E-06,0.028
-1.790E-06,0.020
-1.780E-06,0.008
-1.770E-06,-0.012
-1.760E-06,-0.008
-1.750E-06,-0.004
-1.740E-06,0.024
-1.730E-06,0.040
-1.720E-06,0.056
-1.710E-06,0.052
-1.700E-06,0.032
-1.690E-06,0.016
-1.680E-06,0.016
-1.670E-06,0.012
-1.660E-06,0.032
-1.650E-06,0.064
-1.640E-06,0.044
-1.630E-06,0.032
-1.620E-06,0.016
-1.610E-06,-0.044
-1.600E-06,-0.060
-1.590E-06,-0.072
-1.580E-06,-0.028
-1.570E-06,0.052
-1.560E-06,0.056
-1.550E-06,0.084
-1.540E-06,0.036
-1.530E-06,0.032
-1.520E-06,-0.064
-1.510E-06,-0.068
-1.500E-06,-0.064
-1.490E-06,-0.064
-1.480E-06,0.000
-1.470E-06,0.056
-1.460E-06,0.080
-1.450E-06,0.056
-1.440E-06,0.060
-1.430E-06,0.008
-1.420E-06,-0.020
-1.410E-06,-0.028
-1.400E-06,-0.032
-1.390E-06,-0.020
-1.380E-06,-0.004
-1.370E-06,0.016
-1.360E-06,0.032
-1.350E-06,0.040
-1.340E-06,0.036
-1.330E-06,0.028
-1.320E-06,0.020
-1.310E-06,0.032
-1.300E-06,0.044
-1.290E-06,0.060
-1.280E-06,0.076
-1.270E-06,0.072
-1.260E-06,0.084
-1.250E-06,0.060
-1.240E-06,0.064
-1.230E-06,0.060
-1.220E-06,0.072
-1.210E-06,0.060
-1.200E-06,0.076
-1.190E-06,0.056
-1.180E-06,0.076
-1.170E-06,0.032
-1.160E-06,0.020
-1.150E-06,0.008
-1.140E-06,-0.012
-1.130E-06,-0.020
-1.120E-06,-0.044
-1.110E-06,-0.004
-1.100E-06,-0.004
-1.090E-06,-0.008
-1.080E-06,-0.056
-1.070E-06,-0.096
-1.060E-06,-0.072
-1.050E-06,-0.044
-1.040E-06,0.012
-1.030E-06,0.072
-1.020E-06,0.108
-1.010E-06,0.100
-1.000E-06,0.112
-9.900E-07,0.068
-9.800E-07,0.096
-9.700E-07,0.108
-9.600E-07,0.076
-9.500E-07,0.096
-9.400E-07,0.036
-9.300E-07,-0.068
-9.200E-07,-0.128
-9.100E-07,-0.224
-9.000E-07,-0.260
-8.900E-07,-0.132
-8.800E-07,-0.056
-8.700E-07,0.052
-8.600E-07,0.136
-8.500E-07,0.076
-8.400E-07,-0.044
-8.300E-07,-0.128
-8.200E-07,-0.120
-8.100E-07,-0.076
-8.000E-07,0.000
-7.900E-07,0.092
-7.800E-07,0.092
-7.700E-07,0.056
-7.600E-07,0.060
-7.500E-07,-0.016
-7.400E-07,-0.056
-7.300E-07,-0.052
-7.200E-07,-0.020
-7.100E-07,0.000
-7.000E-07,0.004
-6.900E-07,0.020
-6.800E-07,0.016
-6.700E-07,-0.004
-6.600E-07,0.004
-6.500E-07,0.012
-6.400E-07,0.008
-6.300E-07,0.024
-6.200E-07,0.060
-6.100E-07,0.092
-6.000E-07,0.100
-5.900E-07,0.136
-5.800E-07,0.112
-5.700E-07,0.108
-5.600E-07,0.088
-5.500E-07,0.076
-5.400E-07,0.056
-5.300E-07,0.040
-5.200E-07,0.036
-5.100E-07,0.012
-5.000E-07,0.008
-4.900E-07,0.020
-4.800E-07,0.008
-4.700E-07,0.020
-4.600E-07,0.024
-4.500E-07,0.044
-4.400E-07,0.044
-4.300E-07,0.092
-4.200E-07,0.088
-4.100E-07,0.092
-4.000E-07,0.064
-3.900E-07,0.044
-3.800E-07,0.028
-3.700E-07,0.008
-3.600E-07,0.056
-3.500E-07,0.068
-3.400E-07,0.124
-3.300E-07,0.124
-3.200E-07,0.156
-3.100E-07,0.132
-3.000E-07,0.124
-2.900E-07,0.132
-2.800E-07,0.104
-2.700E-07,0.144
-2.600E-07,0.152
-2.500E-07,0.148
-2.400E-07,0.124
-2.300E-07,0.104
-2.200E-07,0.080
-2.100E-07,0.092
-2.000E-07,0.108
-1.900E-07,0.152
-1.800E-07,0.176
-1.700E-07,0.188
-1.600E-07,0.144
-1.500E-07,0.136
-1.400E-07,0.032
-1.300E-07,-0.040
-1.200E-07,-0.124
-1.100E-07,-0.196
-1.000E-07,-0.068
-9.000E-08,-0.020
-8.000E-08,0.108
-7.000E-08,0.096
-6.000E-08,-0.136
-5.000E-08,-0.304
-4.000E-08,-0.496
-3.000E-08,-0.404
-2.000E-08,-0.200
-1.000E-08,0.172
0.000E+00,0.440
1.000E-08,0.416
2.000E-08,0.324
3.000E-08,-0.004
4.000E-08,-0.164
5.000E-08,-0.264
6.000E-08,-0.060
7.000E-08,0.140
8.000E-08,0.260
9.000E-08,0.280
1.000E-07,0.116
1.100E-07,-0.100
1.200E-07,-0.216
1.300E-07,-0.184
1.400E-07,-0.100
1.500E-07,0.092
1.600E-07,0.200
1.700E-07,0.272
1.800E-07,0.180
1.900E-07,0.176
2.000E-07,0.076
2.100E-07,0.036
2.200E-07,0.080
2.300E-07,0.084
2.400E-07,0.188
2.500E-07,0.196
2.600E-07,0.200
2.700E-07,0.184
2.800E-07,0.104
2.900E-07,0.116
3.000E-07,0.124
3.100E-07,0.168
3.200E-07,0.180
3.300E-07,0.184
3.400E-07,0.184
3.500E-07,0.148
3.600E-07,0.132
3.700E-07,0.104
3.800E-07,0.124
3.900E-07,0.140
4.000E-07,0.192
4.100E-07,0.200
4.200E-07,0.204
4.300E-07,0.180
4.400E-07,0.152
4.500E-07,0.140
4.600E-07,0.132
4.700E-07,0.148
4.800E-07,0.164
4.900E-07,0.180
5.000E-07,0.188
5.100E-07,0.180
5.200E-07,0.164
5.300E-07,0.152
5.400E-07,0.148
5.500E-07,0.152
5.600E-07,0.164
5.700E-07,0.176
5.800E-07,0.184
5.900E-07,0.176
6.000E-07,0.164
6.100E-07,0.156
6.200E-07,0.156
6.300E-07,0.156
6.400E-07,0.164
6.500E-07,0.172
6.600E-07,0.172
6.700E-07,0.176
6.800E-07,0.176
6.900E-07,0.152
7.000E-07,0.144
7.100E-07,0.144
7.200E-07,0.152
7.300E-07,0.164
7.400E-07,0.172
7.500E-07,0.168
7.600E-07,0.160
7.700E-07,0.156
7.800E-07,0.148
7.900E-07,0.148
8.000E-07,0.152
8.100E-07,0.160
8.200E-07,0.168
8.300E-07,0.172
8.400E-07,0.164
8.500E-07,0.164
8.600E-07,0.156
8.700E-07,0.152
8.800E-07,0.160
8.900E-07,0.164
9.000E-07,0.164
9.100E-07,0.176
9.200E-07,0.164
9.300E-07,0.164
9.400E-07,0.156
9.500E-07,0.160
9.600E-07,0.160
9.700E-07,0.168
9.800E-07,0.168
9.900E-07,0.172
1.000E-06,0.172
1.010E-06,0.160
1.020E-06,0.160
1.030E-06,0.156
1.040E-06,0.160
1.050E-06,0.168
1.060E-06,0.168
1.070E-06,0.172
1.080E-06,0.168
1.090E-06,0.164
1.100E-06,0.164
1.110E-06,0.156
1.120E-06,0.156
1.130E-06,0.164
1.140E-06,0.168
1.150E-06,0.172
1.160E-06,0.168
1.170E-06,0.164
1.180E-06,0.160
1.190E-06,0.164
1.200E-06,0.160
1.210E-06,0.160
1.220E-06,0.168
1.230E-06,0.168
1.240E-06,0.160
1.250E-06,0.156
1.260E-06,0.160
1.270E-06,0.152
1.280E-06,0.156
1.290E-06,0.160
1.300E-06,0.164
1.310E-06,0.164
1.320E-06,0.164
1.330E-06,0.156
1.340E-06,0.156
1.350E-06,0.156
1.360E-06,0.152
1.370E-06,0.156
1.380E-06,0.164
1.390E-06,0.164
1.400E-06,0.156
1.410E-06,0.160
1.420E-06,0.160
1.430E-06,0.156
1.440E-06,0.148
1.450E-06,0.156
1.460E-06,0.156
1.470E-06,0.160
1.480E-06,0.156
1.490E-06,0.152
1.500E-06,0.156
1.510E-06,0.152
1.520E-06,0.152
1.530E-06,0.152
1.540E-06,0.156
1.550E-06,0.156
1.560E-06,0.156
1.570E-06,0.160
1.580E-06,0.156
1.590E-06,0.156
1.600E-06,0.144
1.610E-06,0.152
1.620E-06,0.148
1.630E-06,0.152
1.640E-06,0.156
1.650E-06,0.152
1.660E-06,0.152
1.670E-06,0.144
1.680E-06,0.144
1.690E-06,0.148
1.700E-06,0.148
1.710E-06,0.144
1.720E-06,0.148
1.730E-06,0.156
1.740E-06,0.152
1.750E-06,0.140
1.760E-06,0.140
1.770E-06,0.144
1.780E-06,0.140
1.790E-06,0.140
1.800E-06,0.144
1.810E-06,0.144
1.820E-06,0.144
1.830E-06,0.144
1.840E-06,0.144
1.850E-06,0.144
1.860E-06,0.140
1.870E-06,0.144
1.880E-06,0.144
1.890E-06,0.144
1.900E-06,0.144
1.910E-06,0.140
1.920E-06,0.140
1.930E-06,0.136
1.940E-06,0.136
1.950E-06,0.136
1.960E-06,0.136
1.970E-06,0.140
1.980E-06,0.148
1.990E-06,0.136
2.000E-06,0.140
2.010E-06,0.140
2.020E-06,0.132
2.030E-06,0.136
2.040E-06,0.140
2.050E-06,0.136
2.060E-06,0.140
2.070E-06,0.144
2.080E-06,0.140
2.090E-06,0.136
2.100E-06,0.136
2.110E-06,0.136
2.120E-06,0.140
2.130E-06,0.140
2.140E-06,0.136
2.150E-06,0.136
2.160E-06,0.132
2.170E-06,0.132
2.180E-06,0.128
2.190E-06,0.128
2.200E-06,0.128
2.210E-06,0.128
2.220E-06,0.128
2.230E-06,0.128
2.240E-06,0.132
2.250E-06,0.132
2.260E-06,0.132
2.270E-06,0.128
2.280E-06,0.128
2.290E-06,0.128
2.300E-06,0.128
2.310E-06,0.132
2.320E-06,0.128
2.330E-06,0.124
2.340E-06,0.124
2.350E-06,0.128
2.360E-06,0.128
2.370E-06,0.128
2.380E-06,0.128
2.390E-06,0.124
2.400E-06,0.124
2.410E-06,0.124
2.420E-06,0.124
2.430E-06,0.112
2.440E-06,0.112
2.450E-06,0.120
2.460E-06,0.112
2.470E-06,0.124
2.480E-06,0.124
2.490E-06,0.124
2.500E-06,0.120
2.510E-06,0.124
2.520E-06,0.124
2.530E-06,0.124
2.540E-06,0.120
2.550E-06,0.120
2.560E-06,0.120
2.570E-06,0.120
2.580E-06,0.124
2.590E-06,0.116
2.600E-06,0.120
2.610E-06,0.120
2.620E-06,0.124
2.630E-06,0.120
2.640E-06,0.108
2.650E-06,0.112
2.660E-06,0.108
2.670E-06,0.112
2.680E-06,0.128
2.690E-06,0.124
2.700E-06,0.124
2.710E-06,0.120
2.720E-06,0.120
2.730E-06,0.120
2.740E-06,0.108
2.750E-06,0.108
2.760E-06,0.112
2.770E-06,0.120
2.780E-06,0.112
2.790E-06,0.112
2.800E-06,0.112
2.810E-06,0.108
2.820E-06,0.108
2.830E-06,0.104
2.840E-06,0.112
2.850E-06,0.108
2.860E-06,0.112
2.870E-06,0.116
2.880E-06,0.108
2.890E-06,0.108
2.900E-06,0.108
2.910E-06,0.108
2.920E-06,0.108
2.930E-06,0.112
2.940E-06,0.112
2.950E-06,0.112
2.960E-06,0.112
2.970E-06,0.108
2.980E-06,0.108
2.990E-06,0.108
3.000E-06,0.108
3.010E-06,0.104
3.020E-06,0.100
3.030E-06,0.108
3.040E-06,0.112
3.050E-06,0.120
3.060E-06,0.120
3.070E-06,0.112
3.080E-06,0.112
3.090E-06,0.104
3.100E-06,0.096
3.110E-06,0.092
3.120E-06,0.100
3.130E-06,0.104
3.140E-06,0.108
3.150E-06,0.100
3.160E-06,0.096
3.170E-06,0.096
3.180E-06,0.088
3.190E-06,0.088
3.200E-06,0.096
3.210E-06,0.100
3.220E-06,0.104
3.230E-06,0.108
3.240E-06,0.104
3.250E-06,0.096
3.260E-06,0.092
3.270E-06,0.092
3.280E-06,0.096
3.290E-06,0.100
3.300E-06,0.100
3.310E-06,0.096
3.320E-06,0.100
3.330E-06,0.096
3.340E-06,0.092
3.350E-06,0.088
3.360E-06,0.092
3.370E-06,0.088
3.380E-06,0.096
3.390E-06,0.092
3.400E-06,0.096
3.410E-06,0.092
3.420E-06,0.096
3.430E-06,0.088
3.440E-06,0.088
3.450E-06,0.088
3.460E-06,0.092
3.470E-06,0.088
3.480E-06,0.088
3.490E-06,0.092
3.500E-06,0.088
3.510E-06,0.088
3.520E-06,0.084
3.530E-06,0.084
3.540E-06,0.080
3.550E-06,0.084
3.560E-06,0.088
3.570E-06,0.084
3.580E-06,0.088
3.590E-06,0.080
3.600E-06,0.076
3.610E-06,0.080
3.620E-06,0.076
3.630E-06,0.080
3.640E-06,0.076
3.650E-06,0.076
3.660E-06,0.080
3.670E-06,0.072
3.680E-06,0.076
3.690E-06,0.080
3.700E-06,0.080
3.710E-06,0.076
3.720E-06,0.072
3.730E-06,0.076
3.740E-06,0.076
3.750E-06,0.076
3.760E-06,0.088
3.770E-06,0.088
3.780E-06,0.080
3.790E-06,0.072
3.800E-06,0.072
3.810E-06,0.068
3.820E-06,0.076
3.830E-06,0.076
3.840E-06,0.076
3.850E-06,0.076
3.860E-06,0.076
3.870E-06,0.076
3.880E-06,0.072
3.890E-06,0.076
3.900E-06,0.068
3.910E-06,0.076
3.920E-06,0.076
3.930E-06,0.076
3.940E-06,0.072
3.950E-06,0.076
3.960E-06,0.072
3.970E-06,0.072
3.980E-06,0.072
3.990E-06,0.064
4.000E-06,0.072
4.010E-06,0.068
4.020E-06,0.072
4.030E-06,0.072
4.040E-06,0.072
4.050E-06,0.072
4.060E-06,0.072
4.070E-06,0.064
4.080E-06,0.064
4.090E-06,0.068
4.100E-06,0.064
4.110E-06,0.072
4.120E-06,0.072
4.130E-06,0.068
4.140E-06,0.072
4.150E-06,0.064
4.160E-06,0.068
4.170E-06,0.060
4.180E-06,0.064
4.190E-06,0.068
4.200E-06,0.072
4.210E-06,0.072
4.220E-06,0.060
4.230E-06,0.056
4.240E-06,0.056
4.250E-06,0.060
4.260E-06,0.068
4.270E-06,0.068
4.280E-06,0.072
4.290E-06,0.068
4.300E-06,0.064
4.310E-06,0.060
4.320E-06,0.064
4.330E-06,0.060
4.340E-06,0.064
4.350E-06,0.064
4.360E-06,0.068
4.370E-06,0.072
4.380E-06,0.068
4.390E-06,0.060
4.400E-06,0.060
4.410E-06,0.060
4.420E-06,0.060
4.430E-06,0.064
4.440E-06,0.064
4.450E-06,0.068
4.460E-06,0.064
4.470E-06,0.056
4.480E-06,0.056
4.490E-06,0.056
4.500E-06,0.060
4.510E-06,0.060
4.520E-06,0.056
4.530E-06,0.056
4.540E-06,0.056
4.550E-06,0.056
4.560E-06,0.060
4.570E-06,0.060
4.580E-06,0.056
4.590E-06,0.056
4.600E-06,0.056
4.610E-06,0.056
4.620E-06,0.056
4.630E-06,0.052
4.640E-06,0.052
4.650E-06,0.060
4.660E-06,0.060
4.670E-06,0.052
4.680E-06,0.056
4.690E-06,0.056
4.700E-06,0.052
4.710E-06,0.052
4.720E-06,0.056
4.730E-06,0.056
4.740E-06,0.052
4.750E-06,0.052
4.760E-06,0.056
4.770E-06,0.052
4.780E-06,0.052
4.790E-06,0.048
4.800E-06,0.048
4.810E-06,0.052
4.820E-06,0.052
4.830E-06,0.056
4.840E-06,0.056
4.850E-06,0.048
4.860E-06,0.048
4.870E-06,0.040
4.880E-06,0.044
4.890E-06,0.044
4.900E-06,0.048
4.910E-06,0.052
4.920E-06,0.048
4.930E-06,0.052
4.940E-06,0.044
4.950E-06,0.044
4.960E-06,0.048
4.970E-06,0.040
4.980E-06,0.048
4.990E-06,0.044
5.000E-06,0.044
5.010E-06,0.044
5.020E-06,0.040
5.030E-06,0.044
5.040E-06,0.044
5.050E-06,0.044
5.060E-06,0.040
5.070E-06,0.040
5.080E-06,0.044
5.090E-06,0.040
5.100E-06,0.040
5.110E-06,0.040
5.120E-06,0.036
5.130E-06,0.040
5.140E-06,0.040
5.150E-06,0.044
5.160E-06,0.040
5.170E-06,0.040
5.180E-06,0.040
5.190E-06,0.044
5.200E-06,0.040
5.210E-06,0.036
5.220E-06,0.036
5.230E-06,0.040
5.240E-06,0.044
5.250E-06,0.032
5.260E-06,0.040
5.270E-06,0.040
5.280E-06,0.040
5.290E-06,0.040
5.300E-06,0.036
5.310E-06,0.032
5.320E-06,0.036
5.330E-06,0.040
5.340E-06,0.036
5.350E-06,0.036
5.360E-06,0.036
5.370E-06,0.032
5.380E-06,0.032
5.390E-06,0.036
5.400E-06,0.032
5.410E-06,0.028
5.420E-06,0.032
5.430E-06,0.036
5.440E-06,0.036
5.450E-06,0.036
5.460E-06,0.036
5.470E-06,0.024
5.480E-06,0.024
5.490E-06,0.032
5.500E-06,0.024
5.510E-06,0.028
5.520E-06,0.036
5.530E-06,0.028
5.540E-06,0.028
5.550E-06,0.028
5.560E-06,0.032
5.570E-06,0.028
5.580E-06,0.024
5.590E-06,0.028
5.600E-06,0.028
5.610E-06,0.032
5.620E-06,0.028
5.630E-06,0.024
5.640E-06,0.024
5.650E-06,0.028
5.660E-06,0.024
5.670E-06,0.028
5.680E-06,0.028
5.690E-06,0.024
5.700E-06,0.020
5.710E-06,0.024
5.720E-06,0.032
5.730E-06,0.028
5.740E-06,0.020
5.750E-06,0.020
5.760E-06,0.024
5.770E-06,0.024
5.780E-06,0.024
5.790E-06,0.028
5.800E-06,0.028
5.810E-06,0.024
5.820E-06,0.024
5.830E-06,0.028
5.840E-06,0.028
5.850E-06,0.028
5.860E-06,0.028
5.870E-06,0.032
5.880E-06,0.024
5.890E-06,0.020
5.900E-06,0.024
5.910E-06,0.024
5.920E-06,0.024
5.930E-06,0.024
5.940E-06,0.028
5.950E-06,0.020
5.960E-06,0.020
5.970E-06,0.012
5.980E-06,0.012
5.990E-06,0.016
6.000E-06,0.020
6.010E-06,0.024
6.020E-06,0.020
6.030E-06,0.012
6.040E-06,0.016
6.050E-06,0.012
6.060E-06,0.012
6.070E-06,0.012
6.080E-06,0.012
6.090E-06,0.012
6.100E-06,0.012
6.110E-06,0.012
6.120E-06,0.016
6.130E-06,0.012
6.140E-06,0.008
6.150E-06,0.012
6.160E-06,0.012
6.170E-06,0.012
6.180E-06,0.008
6.190E-06,0.012
6.200E-06,0.008
6.210E-06,0.012
6.220E-06,0.012
6.230E-06,0.012
6.240E-06,0.012
6.250E-06,0.012
6.260E-06,0.012
6.270E-06,0.012
6.280E-06,0.012
6.290E-06,0.012
6.300E-06,0.008
6.310E-06,0.008
6.320E-06,0.012
6.330E-06,0.016
6.340E-06,0.016
6.350E-06,0.004
6.360E-06,0.012
6.370E-06,0.012
6.380E-06,0.008
6.390E-06,0.012
6.400E-06,0.004
6.410E-06,0.004
6.420E-06,0.012
6.430E-06,0.004
6.440E-06,0.004
6.450E-06,0.008
6.460E-06,0.008
6.470E-06,0.004
6.480E-06,0.008
6.490E-06,0.004
6.500E-06,0.004
6.510E-06,0.004
6.520E-06,0.004
6.530E-06,0.008
6.540E-06,0.004
6.550E-06,0.004
6.560E-06,0.008
6.570E-06,0.004
6.580E-06,0.000
6.590E-06,0.004
6.600E-06,0.000
6.610E-06,0.000
6.620E-06,0.004
6.630E-06,0.008
6.640E-06,0.008
6.650E-06,0.004
6.660E-06,0.008
6.670E-06,0.000
6.680E-06,0.000
6.690E-06,0.000
6.700E-06,-0.004
6.710E-06,0.000
6.720E-06,0.004
6.730E-06,0.004
6.740E-06,0.004
6.750E-06,0.000
6.760E-06,0.000
6.770E-06,0.004
6.780E-06,-0.004
6.790E-06,0.004
6.800E-06,0.000
6.810E-06,0.000
6.820E-06,0.000
6.830E-06,0.000
6.840E-06,0.000
6.850E-06,-0.004
6.860E-06,0.000
6.870E-06,-0.004
6.880E-06,0.000
6.890E-06,-0.004
6.900E-06,0.000
6.910E-06,-0.004
6.920E-06,0.000
6.930E-06,-0.004
6.940E-06,0.000
6.950E-06,-0.004
6.960E-06,-0.004
6.970E-06,0.000
6.980E-06,0.000
6.990E-06,0.000
7.000E-06,-0.004
7.010E-06,-0.008
7.020E-06,-0.008
7.030E-06,-0.008
7.040E-06,0.000
7.050E-06,0.000
7.060E-06,-0.004
7.070E-06,-0.008
7.080E-06,0.000
7.090E-06,-0.004
7.100E-06,-0.004
7.110E-06,-0.004
7.120E-06,-0.004
7.130E-06,-0.004
7.140E-06,-0.004
7.150E-06,-0.004
7.160E-06,0.000
7.170E-06,0.000
7.180E-06,-0.004
7.190E-06,-0.008
7.200E-06,0.000
7.210E-06,-0.004
7.220E-06,-0.008
7.230E-06,-0.008
7.240E-06,-0.004
7.250E-06,-0.004
7.260E-06,-0.008
7.270E-06,-0.008
7.280E-06,-0.008
7.290E-06,-0.008
7.300E-06,-0.008
7.310E-06,-0.008
7.320E-06,-0.004
7.330E-06,-0.004
7.340E-06,-0.008
7.350E-06,-0.004
7.360E-06,-0.004
7.370E-06,-0.008
7.380E-06,-0.008
7.390E-06,-0.008
7.400E-06,-0.004
7.410E-06,-0.008
7.420E-06,-0.004
7.430E-06,-0.008
7.440E-06,-0.004
7.450E-06,-0.008
7.460E-06,-0.012
7.470E-06,-0.008
7.480E-06,-0.008
7.490E-06,-0.008
7.500E-06,-0.008
7.510E-06,-0.008
7.520E-06,-0.008
7.530E-06,-0.004
7.540E-06,-0.008
7.550E-06,-0.008
7.560E-06,-0.008
7.570E-06,-0.012
7.580E-06,-0.012
7.590E-06,-0.004
7.600E-06,-0.012
7.610E-06,-0.016
7.620E-06,-0.008
7.630E-06,-0.008
7.640E-06,-0.012
7.650E-06,-0.008
7.660E-06,-0.012
7.670E-06,-0.008
7.680E-06,-0.008
7.690E-06,-0.012
7.700E-06,-0.008
7.710E-06,-0.012
7.720E-06,-0.012
7.730E-06,-0.012
7.740E-06,-0.012
7.750E-06,-0.008
7.760E-06,-0.008
7.770E-06,-0.016
7.780E-06,-0.016
7.790E-06,-0.012
7.800E-06,-0.012
7.810E-06,-0.012
7.820E-06,-0.012
7.830E-06,-0.012
7.840E-06,-0.012
7.850E-06,-0.020
7.860E-06,-0.016
7.870E-06,-0.012
7.880E-06,-0.016
7.890E-06,-0.016
7.900E-06,-0.020
7.910E-06,-0.024
7.920E-06,-0.024
7.930E-06,-0.016
7.940E-06,-0.020
7.950E-06,-0.020
7.960E-06,-0.016
7.970E-06,-0.020
7.980E-06,-0.024
7.990E-06,-0.016
8.000E-06,-0.016
8.010E-06,-0.020
8.020E-06,-0.016
8.030E-06,-0.020
8.040E-06,-0.020
8.050E-06,-0.024
8.060E-06,-0.020
8.070E-06,-0.020
8.080E-06,-0.020
8.090E-06,-0.020
8.100E-06,-0.020
8.110E-06,-0.028
8.120E-06,-0.020
8.130E-06,-0.016
8.140E-06,-0.020
8.150E-06,-0.024
8.160E-06,-0.016
8.170E-06,-0.016
8.180E-06,-0.024
8.190E-06,-0.028
8.200E-06,-0.020
8.210E-06,-0.020
8.220E-06,-0.024
8.230E-06,-0.024
8.240E-06,-0.028
8.250E-06,-0.028
8.260E-06,-0.020
8.270E-06,-0.024
8.280E-06,-0.020
8.290E-06,-0.024
8.300E-06,-0.028
8.310E-06,-0.024
8.320E-06,-0.028
8.330E-06,-0.028
8.340E-06,-0.028
8.350E-06,-0.016
8.360E-06,-0.020
8.370E-06,-0.024
8.380E-06,-0.028
8.390E-06,-0.020
8.400E-06,-0.020
8.410E-06,-0.024
8.420E-06,-0.024
8.430E-06,-0.028
8.440E-06,-0.024
8.450E-06,-0.024
8.460E-06,-0.032
8.470E-06,-0.020
8.480E-06,-0.020
8.490E-06,-0.028
8.500E-06,-0.032
8.510E-06,-0.032
8.520E-06,-0.020
8.530E-06,-0.024
8.540E-06,-0.028
8.550E-06,-0.028
8.560E-06,-0.032
8.570E-06,-0.028
8.580E-06,-0.024
8.590E-06,-0.028
8.600E-06,-0.036
8.610E-06,-0.032
8.620E-06,-0.024
8.630E-06,-0.032
8.640E-06,-0.032
8.650E-06,-0.032
8.660E-06,-0.032
8.670E-06,-0.036
8.680E-06,-0.032
8.690E-06,-0.028
8.700E-06,-0.032
8.710E-06,-0.028
8.720E-06,-0.028
8.730E-06,-0.032
8.740E-06,-0.032
8.750E-06,-0.032
8.760E-06,-0.028
8.770E-06,-0.032
8.780E-06,-0.036
8.790E-06,-0.024
8.800E-06,-0.032
8.810E-06,-0.036
8.820E-06,-0.032
8.830E-06,-0.028
8.840E-06,-0.032
8.850E-06,-0.032
8.860E-06,-0.032
8.870E-06,-0.032
8.880E-06,-0.032
8.890E-06,-0.032
8.900E-06,-0.036
8.910E-06,-0.032
8.920E-06,-0.036
8.930E-06,-0.040
8.940E-06,-0.036
8.950E-06,-0.032
8.960E-06,-0.036
8.970E-06,-0.032
8.980E-06,-0.036
8.990E-06,-0.032
9.000E-06,-0.040
9.010E-06,-0.040
9.020E-06,-0.040
9.030E-06,-0.036
9.040E-06,-0.040
9.050E-06,-0.036
9.060E-06,-0.032
9.070E-06,-0.036
9.080E-06,-0.040
9.090E-06,-0.036
9.100E-06,-0.036
9.110E-06,-0.036
9.120E-06,-0.040
9.130E-06,-0.036
9.140E-06,-0.032
9.150E-06,-0.036
9.160E-06,-0.040
9.170E-06,-0.040
9.180E-06,-0.036
9.190E-06,-0.036
9.200E-06,-0.032
9.210E-06,-0.036
9.220E-06,-0.036
9.230E-06,-0.036
9.240E-06,-0.040
9.250E-06,-0.036
9.260E-06,-0.032
9.270E-06,-0.036
9.280E-06,-0.040
9.290E-06,-0.040
9.300E-06,-0.036
9.310E-06,-0.040
9.320E-06,-0.040
9.330E-06,-0.036
9.340E-06,-0.040
9.350E-06,-0.032
9.360E-06,-0.036
9.370E-06,-0.040
9.380E-06,-0.036
9.390E-06,-0.040
9.400E-06,-0.040
9.410E-06,-0.040
9.420E-06,-0.044
9.430E-06,-0.044
9.440E-06,-0.040
9.450E-06,-0.044
9.460E-06,-0.040
9.470E-06,-0.040
9.480E-06,-0.044
9.490E-06,-0.044
9.500E-06,-0.040
9.510E-06,-0.040
9.520E-06,-0.040
9.530E-06,-0.036
9.540E-06,-0.040
9.550E-06,-0.040
9.560E-06,-0.044
9.570E-06,-0.040
9.580E-06,-0.036
9.590E-06,-0.040
9.600E-06,-0.040
9.610E-06,-0.036
9.620E-06,-0.040
9.630E-06,-0.040
9.640E-06,-0.044
9.650E-06,-0.044
9.660E-06,-0.040
9.670E-06,-0.040
9.680E-06,-0.040
9.690E-06,-0.044
9.700E-06,-0.040
9.710E-06,-0.036
9.720E-06,-0.040
9.730E-06,-0.048
9.740E-06,-0.044
9.750E-06,-0.036
9.760E-06,-0.040
9.770E-06,-0.040
9.780E-06,-0.044
