mediciones/Mediciones filtradas (saque las feas)/6-3/-7.5/WaveData5350.csv

#timebase=2000000(ps)
,#voltbase=100000(mv/100)
#size=4000
-2.300E-06,-0.004
-2.290E-06,0.004
-2.280E-06,0.000
-2.270E-06,0.032
-2.260E-06,0.052
-2.250E-06,0.024
-2.240E-06,0.020
-2.230E-06,-0.016
-2.220E-06,-0.024
-2.210E-06,-0.028
-2.200E-06,-0.008
-2.190E-06,0.020
-2.180E-06,0.040
-2.170E-06,0.044
-2.160E-06,0.024
-2.150E-06,-0.004
-2.140E-06,-0.028
-2.130E-06,-0.036
-2.120E-06,-0.004
-2.110E-06,-0.004
-2.100E-06,0.020
-2.090E-06,0.036
-2.080E-06,0.048
-2.070E-06,0.036
-2.060E-06,0.040
-2.050E-06,0.044
-2.040E-06,0.032
-2.030E-06,0.028
-2.020E-06,-0.024
-2.010E-06,-0.072
-2.000E-06,-0.112
-1.990E-06,-0.088
-1.980E-06,-0.072
-1.970E-06,-0.008
-1.960E-06,0.028
-1.950E-06,0.064
-1.940E-06,0.036
-1.930E-06,0.000
-1.920E-06,-0.048
-1.910E-06,-0.072
-1.900E-06,-0.048
-1.890E-06,-0.004
-1.880E-06,0.032
-1.870E-06,0.024
-1.860E-06,0.020
-1.850E-06,-0.028
-1.840E-06,-0.056
-1.830E-06,-0.072
-1.820E-06,-0.048
-1.810E-06,-0.004
-1.800E-06,0.028
-1.790E-06,0.020
-1.780E-06,0.012
-1.770E-06,-0.008
-1.760E-06,-0.032
-1.750E-06,-0.036
-1.740E-06,-0.008
-1.730E-06,0.012
-1.720E-06,0.016
-1.710E-06,0.016
-1.700E-06,0.012
-1.690E-06,-0.004
-1.680E-06,-0.008
-1.670E-06,-0.008
-1.660E-06,-0.004
-1.650E-06,0.016
-1.640E-06,0.020
-1.630E-06,0.024
-1.620E-06,0.012
-1.610E-06,0.012
-1.600E-06,0.004
-1.590E-06,0.000
-1.580E-06,0.012
-1.570E-06,0.012
-1.560E-06,0.012
-1.550E-06,0.012
-1.540E-06,0.012
-1.530E-06,0.012
-1.520E-06,0.008
-1.510E-06,0.012
-1.500E-06,0.012
-1.490E-06,0.016
-1.480E-06,0.028
-1.470E-06,0.020
-1.460E-06,0.020
-1.450E-06,0.024
-1.440E-06,0.032
-1.430E-06,0.028
-1.420E-06,0.028
-1.410E-06,0.028
-1.400E-06,0.032
-1.390E-06,0.032
-1.380E-06,0.040
-1.370E-06,0.044
-1.360E-06,0.044
-1.350E-06,0.048
-1.340E-06,0.052
-1.330E-06,0.048
-1.320E-06,0.052
-1.310E-06,0.052
-1.300E-06,0.056
-1.290E-06,0.060
-1.280E-06,0.052
-1.270E-06,0.056
-1.260E-06,0.052
-1.250E-06,0.044
-1.240E-06,0.040
-1.230E-06,0.040
-1.220E-06,0.056
-1.210E-06,0.072
-1.200E-06,0.092
-1.190E-06,0.136
-1.180E-06,0.120
-1.170E-06,0.124
-1.160E-06,0.116
-1.150E-06,0.072
-1.140E-06,-0.004
-1.130E-06,-0.060
-1.120E-06,-0.072
-1.110E-06,-0.072
-1.100E-06,-0.096
-1.090E-06,-0.188
-1.080E-06,-0.252
-1.070E-06,-0.300
-1.060E-06,-0.280
-1.050E-06,-0.084
-1.040E-06,-0.008
-1.030E-06,0.120
-1.020E-06,0.164
-1.010E-06,0.080
-1.000E-06,-0.032
-9.900E-07,-0.076
-9.800E-07,-0.076
-9.700E-07,0.012
-9.600E-07,0.088
-9.500E-07,0.124
-9.400E-07,0.108
-9.300E-07,-0.024
-9.200E-07,-0.084
-9.100E-07,-0.160
-9.000E-07,-0.124
-8.900E-07,-0.076
-8.800E-07,-0.024
-8.700E-07,0.092
-8.600E-07,0.084
-8.500E-07,0.032
-8.400E-07,-0.036
-8.300E-07,-0.104
-8.200E-07,-0.080
-8.100E-07,-0.040
-8.000E-07,0.004
-7.900E-07,0.052
-7.800E-07,0.080
-7.700E-07,0.056
-7.600E-07,0.036
-7.500E-07,0.000
-7.400E-07,0.000
-7.300E-07,-0.028
-7.200E-07,0.016
-7.100E-07,0.000
-7.000E-07,0.000
-6.900E-07,0.008
-6.800E-07,0.000
-6.700E-07,-0.016
-6.600E-07,-0.012
-6.500E-07,0.008
-6.400E-07,0.004
-6.300E-07,0.012
-6.200E-07,0.024
-6.100E-07,0.020
-6.000E-07,0.012
-5.900E-07,0.004
-5.800E-07,0.000
-5.700E-07,0.000
-5.600E-07,0.008
-5.500E-07,0.028
-5.400E-07,0.024
-5.300E-07,0.016
-5.200E-07,0.012
-5.100E-07,0.004
-5.000E-07,0.004
-4.900E-07,0.012
-4.800E-07,0.032
-4.700E-07,0.040
-4.600E-07,0.028
-4.500E-07,0.028
-4.400E-07,0.032
-4.300E-07,0.020
-4.200E-07,0.028
-4.100E-07,0.040
-4.000E-07,0.048
-3.900E-07,0.056
-3.800E-07,0.060
-3.700E-07,0.056
-3.600E-07,0.060
-3.500E-07,0.068
-3.400E-07,0.060
-3.300E-07,0.076
-3.200E-07,0.096
-3.100E-07,0.096
-3.000E-07,0.088
-2.900E-07,0.088
-2.800E-07,0.104
-2.700E-07,0.112
-2.600E-07,0.124
-2.500E-07,0.136
-2.400E-07,0.136
-2.300E-07,0.140
-2.200E-07,0.136
-2.100E-07,0.136
-2.000E-07,0.112
-1.900E-07,0.128
-1.800E-07,0.124
-1.700E-07,0.124
-1.600E-07,0.108
-1.500E-07,0.100
-1.400E-07,0.116
-1.300E-07,0.132
-1.200E-07,0.124
-1.100E-07,0.112
-1.000E-07,0.112
-9.000E-08,0.004
-8.000E-08,-0.232
-7.000E-08,-0.488
-6.000E-08,-0.512
-5.000E-08,-0.508
-4.000E-08,-0.508
-3.000E-08,-0.280
-2.000E-08,0.036
-1.000E-08,0.264
0.000E+00,0.196
1.000E-08,-0.028
2.000E-08,-0.136
3.000E-08,-0.196
4.000E-08,-0.136
5.000E-08,0.072
6.000E-08,0.172
7.000E-08,0.204
8.000E-08,0.092
9.000E-08,0.012
1.000E-07,-0.140
1.100E-07,-0.140
1.200E-07,-0.120
1.300E-07,0.020
1.400E-07,0.112
1.500E-07,0.104
1.600E-07,0.056
1.700E-07,-0.052
1.800E-07,-0.060
1.900E-07,-0.140
2.000E-07,-0.016
2.100E-07,-0.016
2.200E-07,0.072
2.300E-07,0.044
2.400E-07,0.044
2.500E-07,-0.012
2.600E-07,-0.060
2.700E-07,-0.060
2.800E-07,-0.040
2.900E-07,0.032
3.000E-07,0.068
3.100E-07,0.080
3.200E-07,0.040
3.300E-07,-0.004
3.400E-07,-0.044
3.500E-07,-0.044
3.600E-07,-0.028
3.700E-07,0.036
3.800E-07,0.064
3.900E-07,0.084
4.000E-07,0.056
4.100E-07,0.000
4.200E-07,-0.036
4.300E-07,-0.056
4.400E-07,-0.008
4.500E-07,0.024
4.600E-07,0.056
4.700E-07,0.052
4.800E-07,0.044
4.900E-07,0.024
5.000E-07,-0.012
5.100E-07,-0.032
5.200E-07,-0.028
5.300E-07,-0.008
5.400E-07,0.016
5.500E-07,0.040
5.600E-07,0.040
5.700E-07,0.024
5.800E-07,0.004
5.900E-07,0.008
6.000E-07,0.000
6.100E-07,-0.008
6.200E-07,0.028
6.300E-07,0.060
6.400E-07,0.056
6.500E-07,0.080
6.600E-07,0.080
6.700E-07,0.076
6.800E-07,0.068
6.900E-07,0.076
7.000E-07,0.088
7.100E-07,0.132
7.200E-07,0.128
7.300E-07,0.144
7.400E-07,0.140
7.500E-07,0.128
7.600E-07,0.124
7.700E-07,0.120
7.800E-07,0.144
7.900E-07,0.156
8.000E-07,0.176
8.100E-07,0.156
8.200E-07,0.156
8.300E-07,0.128
8.400E-07,0.076
8.500E-07,0.060
8.600E-07,0.000
8.700E-07,-0.092
8.800E-07,-0.164
8.900E-07,-0.188
9.000E-07,-0.228
9.100E-07,-0.428
9.200E-07,-0.316
9.300E-07,-0.416
9.400E-07,-0.236
9.500E-07,-0.064
9.600E-07,0.144
9.700E-07,0.032
9.800E-07,0.108
9.900E-07,-0.276
1.000E-06,-0.012
1.010E-06,-0.236
1.020E-06,-0.228
1.030E-06,-0.060
1.040E-06,0.152
1.050E-06,0.260
1.060E-06,0.040
1.070E-06,-0.020
1.080E-06,-0.152
1.090E-06,-0.124
1.100E-06,-0.032
1.110E-06,0.092
1.120E-06,0.084
1.130E-06,0.036
1.140E-06,-0.028
1.150E-06,-0.028
1.160E-06,0.000
1.170E-06,0.036
1.180E-06,0.064
1.190E-06,0.076
1.200E-06,0.040
1.210E-06,0.008
1.220E-06,-0.028
1.230E-06,-0.036
1.240E-06,0.048
1.250E-06,0.052
1.260E-06,0.088
1.270E-06,0.088
1.280E-06,0.120
1.290E-06,0.076
1.300E-06,0.040
1.310E-06,-0.016
1.320E-06,-0.040
1.330E-06,-0.020
1.340E-06,0.024
1.350E-06,0.100
1.360E-06,0.084
1.370E-06,0.076
1.380E-06,0.032
1.390E-06,0.008
1.400E-06,-0.072
1.410E-06,-0.088
1.420E-06,-0.104
1.430E-06,-0.024
1.440E-06,0.060
1.450E-06,-0.004
1.460E-06,0.056
1.470E-06,-0.028
1.480E-06,0.008
1.490E-06,-0.032
1.500E-06,-0.040
1.510E-06,0.076
1.520E-06,0.068
1.530E-06,0.100
1.540E-06,0.072
1.550E-06,0.036
1.560E-06,0.008
1.570E-06,0.004
1.580E-06,0.036
1.590E-06,0.068
1.600E-06,0.088
1.610E-06,0.120
1.620E-06,0.108
1.630E-06,0.096
1.640E-06,0.076
1.650E-06,0.096
1.660E-06,0.096
1.670E-06,0.108
1.680E-06,0.132
1.690E-06,0.156
1.700E-06,0.172
1.710E-06,0.160
1.720E-06,0.140
1.730E-06,0.108
1.740E-06,0.092
1.750E-06,0.076
1.760E-06,0.092
1.770E-06,0.132
1.780E-06,0.140
1.790E-06,0.148
1.800E-06,0.164
1.810E-06,0.108
1.820E-06,0.040
1.830E-06,-0.064
1.840E-06,-0.100
1.850E-06,-0.188
1.860E-06,-0.244
1.870E-06,-0.340
1.880E-06,-0.444
1.890E-06,-0.508
1.900E-06,-0.512
1.910E-06,-0.512
1.920E-06,0.196
1.930E-06,0.380
1.940E-06,0.392
1.950E-06,0.092
1.960E-06,-0.512
1.970E-06,-0.404
1.980E-06,-0.296
1.990E-06,-0.056
2.000E-06,0.096
2.010E-06,0.172
2.020E-06,0.204
2.030E-06,0.144
2.040E-06,0.016
2.050E-06,-0.152
2.060E-06,-0.228
2.070E-06,-0.180
2.080E-06,-0.016
2.090E-06,0.156
2.100E-06,0.188
2.110E-06,0.124
2.120E-06,-0.004
2.130E-06,-0.132
2.140E-06,-0.164
2.150E-06,-0.064
2.160E-06,0.024
2.170E-06,0.084
2.180E-06,0.100
2.190E-06,0.088
2.200E-06,0.020
2.210E-06,-0.008
2.220E-06,-0.040
2.230E-06,-0.068
2.240E-06,-0.048
2.250E-06,0.028
2.260E-06,0.036
2.270E-06,0.072
2.280E-06,0.060
2.290E-06,0.008
2.300E-06,-0.004
2.310E-06,-0.036
2.320E-06,0.004
2.330E-06,0.024
2.340E-06,0.088
2.350E-06,0.080
2.360E-06,0.112
2.370E-06,0.076
2.380E-06,0.064
2.390E-06,0.076
2.400E-06,0.124
2.410E-06,0.128
2.420E-06,0.120
2.430E-06,0.136
2.440E-06,0.104
2.450E-06,0.104
2.460E-06,0.068
2.470E-06,0.056
2.480E-06,0.036
2.490E-06,0.056
2.500E-06,0.060
2.510E-06,0.044
2.520E-06,0.036
2.530E-06,0.024
2.540E-06,0.020
2.550E-06,0.028
2.560E-06,0.044
2.570E-06,0.060
2.580E-06,0.076
2.590E-06,0.076
2.600E-06,0.088
2.610E-06,0.092
2.620E-06,0.124
2.630E-06,0.108
2.640E-06,0.128
2.650E-06,0.132
2.660E-06,0.124
2.670E-06,0.128
2.680E-06,0.112
2.690E-06,0.088
2.700E-06,0.084
2.710E-06,0.024
2.720E-06,-0.008
2.730E-06,-0.040
2.740E-06,-0.044
2.750E-06,-0.032
2.760E-06,-0.028
2.770E-06,0.008
2.780E-06,0.024
2.790E-06,0.012
2.800E-06,0.088
2.810E-06,0.024
2.820E-06,0.036
2.830E-06,0.024
2.840E-06,0.024
2.850E-06,0.056
2.860E-06,0.012
2.870E-06,0.080
2.880E-06,0.044
2.890E-06,0.048
2.900E-06,0.056
2.910E-06,0.036
2.920E-06,0.040
2.930E-06,0.060
2.940E-06,0.084
2.950E-06,0.088
2.960E-06,0.112
2.970E-06,0.140
2.980E-06,0.124
2.990E-06,0.116
3.000E-06,0.140
3.010E-06,0.132
3.020E-06,0.084
3.030E-06,-0.036
3.040E-06,-0.268
3.050E-06,-0.456
3.060E-06,-0.508
3.070E-06,-0.436
3.080E-06,-0.304
3.090E-06,0.020
3.100E-06,0.268
3.110E-06,0.228
3.120E-06,0.040
3.130E-06,-0.396
3.140E-06,-0.376
3.150E-06,-0.348
3.160E-06,0.044
3.170E-06,0.296
3.180E-06,0.352
3.190E-06,0.352
3.200E-06,0.156
3.210E-06,-0.008
3.220E-06,-0.120
3.230E-06,0.004
3.240E-06,0.164
3.250E-06,0.244
3.260E-06,0.280
3.270E-06,0.176
3.280E-06,-0.008
3.290E-06,-0.148
3.300E-06,-0.204
3.310E-06,-0.172
3.320E-06,-0.144
3.330E-06,-0.072
3.340E-06,-0.140
3.350E-06,-0.180
3.360E-06,-0.348
3.370E-06,-0.324
3.380E-06,-0.232
3.390E-06,-0.132
3.400E-06,0.056
3.410E-06,-0.008
3.420E-06,0.184
3.430E-06,0.048
3.440E-06,0.044
3.450E-06,-0.036
3.460E-06,-0.084
3.470E-06,-0.008
3.480E-06,0.012
3.490E-06,0.064
3.500E-06,0.156
3.510E-06,0.104
3.520E-06,0.164
3.530E-06,0.124
3.540E-06,0.148
3.550E-06,0.064
3.560E-06,0.068
3.570E-06,0.064
3.580E-06,0.028
3.590E-06,0.060
3.600E-06,0.044
3.610E-06,0.092
3.620E-06,0.128
3.630E-06,0.124
3.640E-06,0.124
3.650E-06,0.108
3.660E-06,0.088
3.670E-06,0.088
3.680E-06,0.096
3.690E-06,0.124
3.700E-06,0.140
3.710E-06,0.128
3.720E-06,0.108
3.730E-06,0.036
3.740E-06,-0.024
3.750E-06,-0.072
3.760E-06,-0.076
3.770E-06,-0.056
3.780E-06,-0.012
3.790E-06,0.040
3.800E-06,0.068
3.810E-06,0.084
3.820E-06,0.056
3.830E-06,0.040
3.840E-06,0.068
3.850E-06,0.068
3.860E-06,0.132
3.870E-06,0.180
3.880E-06,0.220
3.890E-06,0.212
3.900E-06,0.196
3.910E-06,0.148
3.920E-06,0.136
3.930E-06,0.132
3.940E-06,0.160
3.950E-06,0.184
3.960E-06,0.200
3.970E-06,0.196
3.980E-06,0.172
3.990E-06,0.152
4.000E-06,0.136
4.010E-06,0.140
4.020E-06,0.148
4.030E-06,0.160
4.040E-06,0.184
4.050E-06,0.188
4.060E-06,0.172
4.070E-06,0.152
4.080E-06,0.136
4.090E-06,0.136
4.100E-06,0.136
4.110E-06,0.148
4.120E-06,0.156
4.130E-06,0.160
4.140E-06,0.140
4.150E-06,0.132
4.160E-06,0.120
4.170E-06,0.128
4.180E-06,0.140
4.190E-06,0.160
4.200E-06,0.136
4.210E-06,0.104
4.220E-06,0.032
4.230E-06,-0.104
4.240E-06,-0.188
4.250E-06,-0.100
4.260E-06,-0.136
4.270E-06,-0.032
4.280E-06,-0.220
4.290E-06,-0.268
4.300E-06,-0.420
4.310E-06,-0.384
4.320E-06,-0.288
4.330E-06,-0.224
4.340E-06,-0.264
4.350E-06,-0.224
4.360E-06,-0.060
4.370E-06,0.000
4.380E-06,0.128
4.390E-06,0.100
4.400E-06,-0.008
4.410E-06,-0.116
4.420E-06,-0.244
4.430E-06,-0.072
4.440E-06,-0.232
4.450E-06,0.024
4.460E-06,-0.032
4.470E-06,0.088
4.480E-06,0.044
4.490E-06,-0.036
4.500E-06,0.040
4.510E-06,0.028
4.520E-06,0.072
4.530E-06,0.108
4.540E-06,0.200
4.550E-06,0.188
4.560E-06,0.176
4.570E-06,0.172
4.580E-06,0.132
4.590E-06,0.144
4.600E-06,0.160
4.610E-06,0.188
4.620E-06,0.208
4.630E-06,0.208
4.640E-06,0.192
4.650E-06,0.172
4.660E-06,0.160
4.670E-06,0.136
4.680E-06,0.140
4.690E-06,0.160
4.700E-06,0.176
4.710E-06,0.184
4.720E-06,0.188
4.730E-06,0.168
4.740E-06,0.164
4.750E-06,0.148
4.760E-06,0.156
4.770E-06,0.156
4.780E-06,0.168
4.790E-06,0.172
4.800E-06,0.180
4.810E-06,0.180
4.820E-06,0.164
4.830E-06,0.168
4.840E-06,0.156
4.850E-06,0.156
4.860E-06,0.164
4.870E-06,0.168
4.880E-06,0.160
4.890E-06,0.164
4.900E-06,0.152
4.910E-06,0.148
4.920E-06,0.140
4.930E-06,0.148
4.940E-06,0.156
4.950E-06,0.164
4.960E-06,0.172
4.970E-06,0.168
4.980E-06,0.172
4.990E-06,0.156
5.000E-06,0.156
5.010E-06,0.156
5.020E-06,0.144
5.030E-06,0.144
5.040E-06,0.132
5.050E-06,0.120
5.060E-06,0.100
5.070E-06,0.108
5.080E-06,0.092
5.090E-06,0.092
5.100E-06,0.084
5.110E-06,0.096
5.120E-06,0.076
5.130E-06,0.080
5.140E-06,0.036
5.150E-06,0.060
5.160E-06,0.068
5.170E-06,0.172
5.180E-06,0.208
5.190E-06,0.224
5.200E-06,0.200
5.210E-06,0.164
5.220E-06,0.128
5.230E-06,0.096
5.240E-06,0.124
5.250E-06,0.156
5.260E-06,0.192
5.270E-06,0.192
5.280E-06,0.176
5.290E-06,0.140
5.300E-06,0.124
5.310E-06,0.120
5.320E-06,0.140
5.330E-06,0.160
5.340E-06,0.180
5.350E-06,0.180
5.360E-06,0.168
5.370E-06,0.152
5.380E-06,0.140
5.390E-06,0.140
5.400E-06,0.144
5.410E-06,0.156
5.420E-06,0.168
5.430E-06,0.176
5.440E-06,0.168
5.450E-06,0.160
5.460E-06,0.148
5.470E-06,0.144
5.480E-06,0.144
5.490E-06,0.156
5.500E-06,0.168
5.510E-06,0.164
5.520E-06,0.160
5.530E-06,0.152
5.540E-06,0.144
5.550E-06,0.144
5.560E-06,0.148
5.570E-06,0.156
5.580E-06,0.156
5.590E-06,0.164
5.600E-06,0.160
5.610E-06,0.156
5.620E-06,0.152
5.630E-06,0.148
5.640E-06,0.140
5.650E-06,0.144
5.660E-06,0.152
5.670E-06,0.152
5.680E-06,0.152
5.690E-06,0.148
5.700E-06,0.144
5.710E-06,0.140
5.720E-06,0.144
5.730E-06,0.144
5.740E-06,0.148
5.750E-06,0.140
5.760E-06,0.144
5.770E-06,0.152
5.780E-06,0.140
5.790E-06,0.144
5.800E-06,0.136
5.810E-06,0.140
5.820E-06,0.144
5.830E-06,0.140
5.840E-06,0.144
5.850E-06,0.144
5.860E-06,0.144
5.870E-06,0.148
5.880E-06,0.144
5.890E-06,0.144
5.900E-06,0.136
5.910E-06,0.140
5.920E-06,0.144
5.930E-06,0.148
5.940E-06,0.140
5.950E-06,0.144
5.960E-06,0.140
5.970E-06,0.140
5.980E-06,0.140
5.990E-06,0.140
6.000E-06,0.144
6.010E-06,0.144
6.020E-06,0.136
6.030E-06,0.136
6.040E-06,0.136
6.050E-06,0.140
6.060E-06,0.136
6.070E-06,0.136
6.080E-06,0.136
6.090E-06,0.140
6.100E-06,0.136
6.110E-06,0.136
6.120E-06,0.136
6.130E-06,0.136
6.140E-06,0.136
6.150E-06,0.136
6.160E-06,0.140
6.170E-06,0.140
6.180E-06,0.132
6.190E-06,0.132
6.200E-06,0.128
6.210E-06,0.136
6.220E-06,0.136
6.230E-06,0.132
6.240E-06,0.132
6.250E-06,0.132
6.260E-06,0.128
6.270E-06,0.132
6.280E-06,0.132
6.290E-06,0.128
6.300E-06,0.132
6.310E-06,0.132
6.320E-06,0.136
6.330E-06,0.128
6.340E-06,0.128
6.350E-06,0.128
6.360E-06,0.128
6.370E-06,0.132
6.380E-06,0.132
6.390E-06,0.128
6.400E-06,0.132
6.410E-06,0.128
6.420E-06,0.124
6.430E-06,0.124
6.440E-06,0.128
6.450E-06,0.124
6.460E-06,0.128
6.470E-06,0.124
6.480E-06,0.124
6.490E-06,0.124
6.500E-06,0.124
6.510E-06,0.124
6.520E-06,0.124
6.530E-06,0.124
6.540E-06,0.124
6.550E-06,0.128
6.560E-06,0.124
6.570E-06,0.124
6.580E-06,0.124
6.590E-06,0.124
6.600E-06,0.124
6.610E-06,0.124
6.620E-06,0.120
6.630E-06,0.116
6.640E-06,0.120
6.650E-06,0.120
6.660E-06,0.116
6.670E-06,0.120
6.680E-06,0.124
6.690E-06,0.124
6.700E-06,0.128
6.710E-06,0.124
6.720E-06,0.120
6.730E-06,0.120
6.740E-06,0.120
6.750E-06,0.116
6.760E-06,0.120
6.770E-06,0.120
6.780E-06,0.120
6.790E-06,0.112
6.800E-06,0.112
6.810E-06,0.108
6.820E-06,0.116
6.830E-06,0.112
6.840E-06,0.120
6.850E-06,0.112
6.860E-06,0.108
6.870E-06,0.104
6.880E-06,0.104
6.890E-06,0.104
6.900E-06,0.104
6.910E-06,0.104
6.920E-06,0.104
6.930E-06,0.112
6.940E-06,0.108
6.950E-06,0.104
6.960E-06,0.104
6.970E-06,0.104
6.980E-06,0.104
6.990E-06,0.104
7.000E-06,0.104
7.010E-06,0.108
7.020E-06,0.104
7.030E-06,0.108
7.040E-06,0.104
7.050E-06,0.108
7.060E-06,0.100
7.070E-06,0.096
7.080E-06,0.100
7.090E-06,0.100
7.100E-06,0.100
7.110E-06,0.096
7.120E-06,0.096
7.130E-06,0.104
7.140E-06,0.100
7.150E-06,0.092
7.160E-06,0.088
7.170E-06,0.076
7.180E-06,0.088
7.190E-06,0.096
7.200E-06,0.096
7.210E-06,0.104
7.220E-06,0.100
7.230E-06,0.096
7.240E-06,0.088
7.250E-06,0.092
7.260E-06,0.088
7.270E-06,0.092
7.280E-06,0.092
7.290E-06,0.096
7.300E-06,0.100
7.310E-06,0.100
7.320E-06,0.096
7.330E-06,0.096
7.340E-06,0.100
7.350E-06,0.096
7.360E-06,0.096
7.370E-06,0.096
7.380E-06,0.096
7.390E-06,0.096
7.400E-06,0.092
7.410E-06,0.088
7.420E-06,0.084
7.430E-06,0.084
7.440E-06,0.088
7.450E-06,0.092
7.460E-06,0.100
7.470E-06,0.100
7.480E-06,0.092
7.490E-06,0.088
7.500E-06,0.088
7.510E-06,0.084
7.520E-06,0.088
7.530E-06,0.096
7.540E-06,0.096
7.550E-06,0.088
7.560E-06,0.088
7.570E-06,0.080
7.580E-06,0.080
7.590E-06,0.072
7.600E-06,0.084
7.610E-06,0.092
7.620E-06,0.092
7.630E-06,0.096
7.640E-06,0.092
7.650E-06,0.092
7.660E-06,0.084
7.670E-06,0.084
7.680E-06,0.084
7.690E-06,0.088
7.700E-06,0.088
7.710E-06,0.088
7.720E-06,0.092
7.730E-06,0.088
7.740E-06,0.084
7.750E-06,0.080
7.760E-06,0.076
7.770E-06,0.080
7.780E-06,0.080
7.790E-06,0.084
7.800E-06,0.084
7.810E-06,0.084
7.820E-06,0.076
7.830E-06,0.076
7.840E-06,0.076
7.850E-06,0.080
7.860E-06,0.080
7.870E-06,0.080
7.880E-06,0.080
7.890E-06,0.076
7.900E-06,0.072
7.910E-06,0.072
7.920E-06,0.072
7.930E-06,0.072
7.940E-06,0.076
7.950E-06,0.076
7.960E-06,0.076
7.970E-06,0.072
7.980E-06,0.068
7.990E-06,0.072
8.000E-06,0.068
8.010E-06,0.068
8.020E-06,0.068
8.030E-06,0.072
8.040E-06,0.068
8.050E-06,0.072
8.060E-06,0.072
8.070E-06,0.072
8.080E-06,0.076
8.090E-06,0.076
8.100E-06,0.072
8.110E-06,0.064
8.120E-06,0.068
8.130E-06,0.068
8.140E-06,0.076
8.150E-06,0.072
8.160E-06,0.072
8.170E-06,0.072
8.180E-06,0.064
8.190E-06,0.068
8.200E-06,0.060
8.210E-06,0.068
8.220E-06,0.064
8.230E-06,0.068
8.240E-06,0.068
8.250E-06,0.068
8.260E-06,0.064
8.270E-06,0.064
8.280E-06,0.068
8.290E-06,0.064
8.300E-06,0.060
8.310E-06,0.060
8.320E-06,0.064
8.330E-06,0.060
8.340E-06,0.064
8.350E-06,0.064
8.360E-06,0.060
8.370E-06,0.060
8.380E-06,0.060
8.390E-06,0.056
8.400E-06,0.056
8.410E-06,0.056
8.420E-06,0.060
8.430E-06,0.060
8.440E-06,0.056
8.450E-06,0.060
8.460E-06,0.064
8.470E-06,0.056
8.480E-06,0.060
8.490E-06,0.064
8.500E-06,0.060
8.510E-06,0.064
8.520E-06,0.060
8.530E-06,0.064
8.540E-06,0.060
8.550E-06,0.064
8.560E-06,0.056
8.570E-06,0.056
8.580E-06,0.056
8.590E-06,0.060
8.600E-06,0.056
8.610E-06,0.056
8.620E-06,0.056
8.630E-06,0.060
8.640E-06,0.060
8.650E-06,0.056
8.660E-06,0.060
8.670E-06,0.060
8.680E-06,0.056
8.690E-06,0.060
8.700E-06,0.056
8.710E-06,0.056
8.720E-06,0.056
8.730E-06,0.056
8.740E-06,0.056
8.750E-06,0.056
8.760E-06,0.060
8.770E-06,0.060
8.780E-06,0.052
8.790E-06,0.060
8.800E-06,0.056
8.810E-06,0.056
8.820E-06,0.056
8.830E-06,0.048
8.840E-06,0.052
8.850E-06,0.048
8.860E-06,0.044
8.870E-06,0.048
8.880E-06,0.056
8.890E-06,0.052
8.900E-06,0.052
8.910E-06,0.052
8.920E-06,0.056
8.930E-06,0.056
8.940E-06,0.052
8.950E-06,0.052
8.960E-06,0.060
8.970E-06,0.056
8.980E-06,0.044
8.990E-06,0.048
9.000E-06,0.048
9.010E-06,0.056
9.020E-06,0.052
9.030E-06,0.056
9.040E-06,0.052
9.050E-06,0.048
9.060E-06,0.052
9.070E-06,0.044
9.080E-06,0.040
9.090E-06,0.044
9.100E-06,0.048
9.110E-06,0.044
9.120E-06,0.048
9.130E-06,0.044
9.140E-06,0.040
9.150E-06,0.040
9.160E-06,0.044
9.170E-06,0.036
9.180E-06,0.036
9.190E-06,0.040
9.200E-06,0.044
9.210E-06,0.040
9.220E-06,0.036
9.230E-06,0.040
9.240E-06,0.036
9.250E-06,0.032
9.260E-06,0.036
9.270E-06,0.040
9.280E-06,0.040
9.290E-06,0.044
9.300E-06,0.036
9.310E-06,0.032
9.320E-06,0.036
9.330E-06,0.040
9.340E-06,0.036
9.350E-06,0.032
9.360E-06,0.040
9.370E-06,0.036
9.380E-06,0.040
9.390E-06,0.032
9.400E-06,0.028
9.410E-06,0.036
9.420E-06,0.036
9.430E-06,0.044
9.440E-06,0.044
9.450E-06,0.040
9.460E-06,0.040
9.470E-06,0.036
9.480E-06,0.044
9.490E-06,0.044
9.500E-06,0.040
9.510E-06,0.048
9.520E-06,0.040
9.530E-06,0.044
9.540E-06,0.040
9.550E-06,0.036
9.560E-06,0.036
9.570E-06,0.036
9.580E-06,0.028
9.590E-06,0.028
9.600E-06,0.040
9.610E-06,0.032
9.620E-06,0.032
9.630E-06,0.032
9.640E-06,0.036
9.650E-06,0.036
9.660E-06,0.032
9.670E-06,0.036
9.680E-06,0.032
9.690E-06,0.036
9.700E-06,0.024
9.710E-06,0.028
9.720E-06,0.028
9.730E-06,0.032
9.740E-06,0.028
9.750E-06,0.032
9.760E-06,0.032
9.770E-06,0.028
9.780E-06,0.024
9.790E-06,0.024
9.800E-06,0.024
9.810E-06,0.028
9.820E-06,0.024
9.830E-06,0.020
9.840E-06,0.024
9.850E-06,0.024
9.860E-06,0.024
9.870E-06,0.028
