mediciones/Mediciones filtradas (saque las feas)/6-3/-7.5/WaveData5359.csv

#timebase=2000000(ps)
,#voltbase=500000(mv/100)
#size=4000
-2.300E-06,0.180
-2.290E-06,0.240
-2.280E-06,0.300
-2.270E-06,0.320
-2.260E-06,0.340
-2.250E-06,0.340
-2.240E-06,0.400
-2.230E-06,0.400
-2.220E-06,0.400
-2.210E-06,0.420
-2.200E-06,0.440
-2.190E-06,0.420
-2.180E-06,0.340
-2.170E-06,0.340
-2.160E-06,0.280
-2.150E-06,0.240
-2.140E-06,0.200
-2.130E-06,0.160
-2.120E-06,0.180
-2.110E-06,0.040
-2.100E-06,0.100
-2.090E-06,0.000
-2.080E-06,0.180
-2.070E-06,0.060
-2.060E-06,0.060
-2.050E-06,0.120
-2.040E-06,0.080
-2.030E-06,0.220
-2.020E-06,0.400
-2.010E-06,0.500
-2.000E-06,0.480
-1.990E-06,0.380
-1.980E-06,0.400
-1.970E-06,0.440
-1.960E-06,0.480
-1.950E-06,0.560
-1.940E-06,0.540
-1.930E-06,0.480
-1.920E-06,0.340
-1.910E-06,0.380
-1.900E-06,0.380
-1.890E-06,0.360
-1.880E-06,0.380
-1.870E-06,0.340
-1.860E-06,0.340
-1.850E-06,0.300
-1.840E-06,0.340
-1.830E-06,0.360
-1.820E-06,0.340
-1.810E-06,0.320
-1.800E-06,0.280
-1.790E-06,0.260
-1.780E-06,0.220
-1.770E-06,0.260
-1.760E-06,0.300
-1.750E-06,0.220
-1.740E-06,0.200
-1.730E-06,0.220
-1.720E-06,0.140
-1.710E-06,0.160
-1.700E-06,0.160
-1.690E-06,0.140
-1.680E-06,0.120
-1.670E-06,0.100
-1.660E-06,0.120
-1.650E-06,0.080
-1.640E-06,0.080
-1.630E-06,0.100
-1.620E-06,0.040
-1.610E-06,0.100
-1.600E-06,0.080
-1.590E-06,0.060
-1.580E-06,0.060
-1.570E-06,0.120
-1.560E-06,0.140
-1.550E-06,0.200
-1.540E-06,0.160
-1.530E-06,0.160
-1.520E-06,0.200
-1.510E-06,0.200
-1.500E-06,0.220
-1.490E-06,0.240
-1.480E-06,0.320
-1.470E-06,0.320
-1.460E-06,0.340
-1.450E-06,0.320
-1.440E-06,0.360
-1.430E-06,0.360
-1.420E-06,0.420
-1.410E-06,0.380
-1.400E-06,0.380
-1.390E-06,0.400
-1.380E-06,0.360
-1.370E-06,0.320
-1.360E-06,0.340
-1.350E-06,0.320
-1.340E-06,0.300
-1.330E-06,0.240
-1.320E-06,0.240
-1.310E-06,0.180
-1.300E-06,0.160
-1.290E-06,0.140
-1.280E-06,0.080
-1.270E-06,0.060
-1.260E-06,0.000
-1.250E-06,0.020
-1.240E-06,0.020
-1.230E-06,0.000
-1.220E-06,0.000
-1.210E-06,0.020
-1.200E-06,0.020
-1.190E-06,0.020
-1.180E-06,0.040
-1.170E-06,0.100
-1.160E-06,0.140
-1.150E-06,0.180
-1.140E-06,0.260
-1.130E-06,0.260
-1.120E-06,0.320
-1.110E-06,0.320
-1.100E-06,0.340
-1.090E-06,0.400
-1.080E-06,0.400
-1.070E-06,0.440
-1.060E-06,0.440
-1.050E-06,0.400
-1.040E-06,0.440
-1.030E-06,0.420
-1.020E-06,0.420
-1.010E-06,0.440
-1.000E-06,0.400
-9.900E-07,0.360
-9.800E-07,0.320
-9.700E-07,0.320
-9.600E-07,0.320
-9.500E-07,0.300
-9.400E-07,0.260
-9.300E-07,0.260
-9.200E-07,0.260
-9.100E-07,0.280
-9.000E-07,0.300
-8.900E-07,0.300
-8.800E-07,0.320
-8.700E-07,0.340
-8.600E-07,0.380
-8.500E-07,0.380
-8.400E-07,0.400
-8.300E-07,0.420
-8.200E-07,0.400
-8.100E-07,0.420
-8.000E-07,0.480
-7.900E-07,0.400
-7.800E-07,0.440
-7.700E-07,0.460
-7.600E-07,0.480
-7.500E-07,0.420
-7.400E-07,0.440
-7.300E-07,0.480
-7.200E-07,0.480
-7.100E-07,0.600
-7.000E-07,0.720
-6.900E-07,0.700
-6.800E-07,0.780
-6.700E-07,0.700
-6.600E-07,0.700
-6.500E-07,0.700
-6.400E-07,0.740
-6.300E-07,0.780
-6.200E-07,0.860
-6.100E-07,0.840
-6.000E-07,0.840
-5.900E-07,0.800
-5.800E-07,0.760
-5.700E-07,0.720
-5.600E-07,0.700
-5.500E-07,0.660
-5.400E-07,0.680
-5.300E-07,0.620
-5.200E-07,0.640
-5.100E-07,0.620
-5.000E-07,0.680
-4.900E-07,0.660
-4.800E-07,0.660
-4.700E-07,0.680
-4.600E-07,0.560
-4.500E-07,0.540
-4.400E-07,0.500
-4.300E-07,0.420
-4.200E-07,0.600
-4.100E-07,0.640
-4.000E-07,0.780
-3.900E-07,0.800
-3.800E-07,0.960
-3.700E-07,1.100
-3.600E-07,1.300
-3.500E-07,1.560
-3.400E-07,1.700
-3.300E-07,1.780
-3.200E-07,1.820
-3.100E-07,1.720
-3.000E-07,1.640
-2.900E-07,1.680
-2.800E-07,1.820
-2.700E-07,1.900
-2.600E-07,2.000
-2.500E-07,2.020
-2.400E-07,1.960
-2.300E-07,1.920
-2.200E-07,2.040
-2.100E-07,2.080
-2.000E-07,2.100
-1.900E-07,2.200
-1.800E-07,2.200
-1.700E-07,2.340
-1.600E-07,2.320
-1.500E-07,2.360
-1.400E-07,2.320
-1.300E-07,2.320
-1.200E-07,2.260
-1.100E-07,2.280
-1.000E-07,2.400
-9.000E-08,2.460
-8.000E-08,2.380
-7.000E-08,2.160
-6.000E-08,2.480
-5.000E-08,1.720
-4.000E-08,2.600
-3.000E-08,2.140
-2.000E-08,0.220
-1.000E-08,0.980
0.000E+00,-1.660
1.000E-08,0.860
2.000E-08,1.880
3.000E-08,2.760
4.000E-08,2.760
5.000E-08,2.740
6.000E-08,1.260
7.000E-08,-0.020
8.000E-08,0.140
9.000E-08,1.680
1.000E-07,2.760
1.100E-07,2.760
1.200E-07,2.760
1.300E-07,2.120
1.400E-07,1.020
1.500E-07,1.020
1.600E-07,1.340
1.700E-07,1.880
1.800E-07,2.140
1.900E-07,2.320
2.000E-07,1.860
2.100E-07,1.600
2.200E-07,1.340
2.300E-07,1.020
2.400E-07,0.340
2.500E-07,0.200
2.600E-07,0.200
2.700E-07,0.400
2.800E-07,0.540
2.900E-07,0.840
3.000E-07,0.740
3.100E-07,0.500
3.200E-07,0.360
3.300E-07,0.420
3.400E-07,0.260
3.500E-07,0.340
3.600E-07,0.320
3.700E-07,0.340
3.800E-07,0.280
3.900E-07,0.300
4.000E-07,0.160
4.100E-07,0.040
4.200E-07,0.000
4.300E-07,0.260
4.400E-07,0.280
4.500E-07,0.500
4.600E-07,0.860
4.700E-07,0.860
4.800E-07,0.960
4.900E-07,0.820
5.000E-07,0.740
5.100E-07,0.420
5.200E-07,0.380
5.300E-07,0.480
5.400E-07,0.700
5.500E-07,0.900
5.600E-07,1.000
5.700E-07,0.900
5.800E-07,0.760
5.900E-07,0.600
6.000E-07,0.600
6.100E-07,0.540
6.200E-07,0.800
6.300E-07,1.080
6.400E-07,1.100
6.500E-07,1.080
6.600E-07,0.940
6.700E-07,0.840
6.800E-07,0.740
6.900E-07,1.300
7.000E-07,1.760
7.100E-07,2.280
7.200E-07,2.000
7.300E-07,1.700
7.400E-07,1.520
7.500E-07,1.020
7.600E-07,1.580
7.700E-07,1.760
7.800E-07,2.160
7.900E-07,2.300
8.000E-07,2.160
8.100E-07,2.000
8.200E-07,1.820
8.300E-07,1.500
8.400E-07,1.340
8.500E-07,1.400
8.600E-07,1.580
8.700E-07,2.100
8.800E-07,2.480
8.900E-07,2.620
9.000E-07,1.960
9.100E-07,1.600
9.200E-07,1.100
9.300E-07,0.880
9.400E-07,0.760
9.500E-07,1.500
9.600E-07,1.800
9.700E-07,1.740
9.800E-07,1.620
9.900E-07,1.860
1.000E-06,1.760
1.010E-06,1.760
1.020E-06,1.200
1.030E-06,1.060
1.040E-06,0.760
1.050E-06,1.060
1.060E-06,1.800
1.070E-06,2.060
1.080E-06,1.840
1.090E-06,1.500
1.100E-06,0.840
1.110E-06,0.500
1.120E-06,0.520
1.130E-06,0.920
1.140E-06,1.020
1.150E-06,0.920
1.160E-06,0.840
1.170E-06,0.580
1.180E-06,0.240
1.190E-06,0.660
1.200E-06,0.680
1.210E-06,0.900
1.220E-06,0.840
1.230E-06,0.780
1.240E-06,0.460
1.250E-06,0.200
1.260E-06,-0.040
1.270E-06,-0.160
1.280E-06,-0.420
1.290E-06,-0.220
1.300E-06,-0.160
1.310E-06,-0.180
1.320E-06,-0.200
1.330E-06,-0.300
1.340E-06,-0.380
1.350E-06,-0.320
1.360E-06,-0.220
1.370E-06,-0.080
1.380E-06,0.060
1.390E-06,-0.040
1.400E-06,0.060
1.410E-06,-0.020
1.420E-06,0.040
1.430E-06,-0.060
1.440E-06,-0.120
1.450E-06,-0.300
1.460E-06,-0.480
1.470E-06,-0.500
1.480E-06,-0.420
1.490E-06,-0.240
1.500E-06,-0.340
1.510E-06,-0.220
1.520E-06,-0.260
1.530E-06,-0.260
1.540E-06,-0.100
1.550E-06,-0.040
1.560E-06,-0.180
1.570E-06,-0.320
1.580E-06,-0.400
1.590E-06,-0.480
1.600E-06,-0.460
1.610E-06,-0.460
1.620E-06,-0.360
1.630E-06,-0.380
1.640E-06,-0.340
1.650E-06,-0.260
1.660E-06,-0.340
1.670E-06,-0.360
1.680E-06,-0.380
1.690E-06,-0.420
1.700E-06,-0.360
1.710E-06,-0.360
1.720E-06,-0.220
1.730E-06,-0.280
1.740E-06,-0.320
1.750E-06,-0.220
1.760E-06,-0.400
1.770E-06,-0.760
1.780E-06,-0.500
1.790E-06,-1.160
1.800E-06,-0.740
1.810E-06,-1.520
1.820E-06,-0.760
1.830E-06,-1.740
1.840E-06,-0.940
1.850E-06,-0.880
1.860E-06,-0.240
1.870E-06,-0.640
1.880E-06,-1.240
1.890E-06,-2.120
1.900E-06,-2.640
1.910E-06,-2.640
1.920E-06,-2.040
1.930E-06,-1.060
1.940E-06,-0.340
1.950E-06,-0.580
1.960E-06,-0.460
1.970E-06,-1.080
1.980E-06,-0.700
1.990E-06,-0.520
2.000E-06,0.100
2.010E-06,0.320
2.020E-06,0.600
2.030E-06,0.500
2.040E-06,0.660
2.050E-06,0.900
2.060E-06,0.980
2.070E-06,0.960
2.080E-06,0.560
2.090E-06,0.260
2.100E-06,0.180
2.110E-06,0.040
2.120E-06,0.020
2.130E-06,-0.020
2.140E-06,-0.240
2.150E-06,-0.400
2.160E-06,-0.400
2.170E-06,-0.260
2.180E-06,-0.400
2.190E-06,-0.420
2.200E-06,-0.600
2.210E-06,-0.540
2.220E-06,-0.740
2.230E-06,-0.540
2.240E-06,-0.400
2.250E-06,-0.680
2.260E-06,-0.840
2.270E-06,-1.540
2.280E-06,-1.780
2.290E-06,-2.440
2.300E-06,-2.680
2.310E-06,-2.680
2.320E-06,-2.660
2.330E-06,-2.660
2.340E-06,-2.640
2.350E-06,-2.660
2.360E-06,-2.660
2.370E-06,-2.660
2.380E-06,-2.660
2.390E-06,-2.660
2.400E-06,-2.640
2.410E-06,-2.660
2.420E-06,-2.660
2.430E-06,-2.680
2.440E-06,-2.680
2.450E-06,-2.660
2.460E-06,-2.660
2.470E-06,-2.660
2.480E-06,-2.660
2.490E-06,-2.660
2.500E-06,-2.660
2.510E-06,-2.660
2.520E-06,-2.660
2.530E-06,-2.660
2.540E-06,-2.660
2.550E-06,-2.660
2.560E-06,-2.660
2.570E-06,-2.660
2.580E-06,-2.660
2.590E-06,-2.680
2.600E-06,-2.680
2.610E-06,-2.660
2.620E-06,-2.660
2.630E-06,-2.660
2.640E-06,-2.660
2.650E-06,-2.660
2.660E-06,-2.660
2.670E-06,-2.660
2.680E-06,-2.660
2.690E-06,-2.660
2.700E-06,-2.660
2.710E-06,-2.640
2.720E-06,-2.640
2.730E-06,-2.640
2.740E-06,-2.640
2.750E-06,-2.660
2.760E-06,-2.660
2.770E-06,-2.660
2.780E-06,-2.640
2.790E-06,-2.640
2.800E-06,-2.640
2.810E-06,-2.660
2.820E-06,-2.660
2.830E-06,-2.660
2.840E-06,-2.660
2.850E-06,-1.900
2.860E-06,-0.280
2.870E-06,0.600
2.880E-06,0.840
2.890E-06,0.720
2.900E-06,0.740
2.910E-06,0.560
2.920E-06,0.480
2.930E-06,0.380
2.940E-06,0.320
2.950E-06,0.100
2.960E-06,-0.280
2.970E-06,-0.660
2.980E-06,-1.320
2.990E-06,-1.860
3.000E-06,-2.280
3.010E-06,-2.460
3.020E-06,-2.620
3.030E-06,-2.660
3.040E-06,-2.640
3.050E-06,-2.640
3.060E-06,-2.660
3.070E-06,-2.660
3.080E-06,-2.660
3.090E-06,-2.660
3.100E-06,-1.580
3.110E-06,-1.900
3.120E-06,-0.240
3.130E-06,-1.040
3.140E-06,-0.800
3.150E-06,-1.660
3.160E-06,-2.060
3.170E-06,-2.660
3.180E-06,-2.660
3.190E-06,-2.640
3.200E-06,-2.640
3.210E-06,-2.660
3.220E-06,-2.660
3.230E-06,-2.660
3.240E-06,-2.660
3.250E-06,-2.660
3.260E-06,-2.660
3.270E-06,-2.680
3.280E-06,-2.660
3.290E-06,-2.660
3.300E-06,-2.640
3.310E-06,-2.660
3.320E-06,-2.660
3.330E-06,-2.660
3.340E-06,-2.640
3.350E-06,-2.500
3.360E-06,-1.960
3.370E-06,-1.640
3.380E-06,-1.440
3.390E-06,-1.320
3.400E-06,-1.440
3.410E-06,-1.620
3.420E-06,-1.780
3.430E-06,-1.980
3.440E-06,-2.120
3.450E-06,-2.280
3.460E-06,-2.480
3.470E-06,-2.680
3.480E-06,-2.660
3.490E-06,-2.660
3.500E-06,-2.660
3.510E-06,-2.660
3.520E-06,-2.660
3.530E-06,-2.660
3.540E-06,-2.660
3.550E-06,-2.660
3.560E-06,-2.660
3.570E-06,-2.660
3.580E-06,-2.660
3.590E-06,-2.680
3.600E-06,-2.660
3.610E-06,-2.660
3.620E-06,-2.580
3.630E-06,-2.520
3.640E-06,-2.540
3.650E-06,-2.560
3.660E-06,-2.660
3.670E-06,-2.680
3.680E-06,-2.680
3.690E-06,-2.680
3.700E-06,-2.680
3.710E-06,-2.660
3.720E-06,-2.660
3.730E-06,-2.640
3.740E-06,-2.640
3.750E-06,-2.660
3.760E-06,-2.660
3.770E-06,-2.660
3.780E-06,-2.640
3.790E-06,-2.640
3.800E-06,-2.660
3.810E-06,-2.660
3.820E-06,-2.660
3.830E-06,-2.660
3.840E-06,-2.660
3.850E-06,-2.660
3.860E-06,-2.660
3.870E-06,-2.660
3.880E-06,-2.660
3.890E-06,-2.660
3.900E-06,-2.660
3.910E-06,-2.660
3.920E-06,-2.640
3.930E-06,-2.620
3.940E-06,-2.580
3.950E-06,-2.600
3.960E-06,-2.580
3.970E-06,-2.540
3.980E-06,-2.520
3.990E-06,-2.460
4.000E-06,-2.440
4.010E-06,-2.360
4.020E-06,-2.360
4.030E-06,-2.360
4.040E-06,-2.340
4.050E-06,-2.400
4.060E-06,-2.400
4.070E-06,-2.360
4.080E-06,-2.340
4.090E-06,-2.340
4.100E-06,-2.320
4.110E-06,-2.340
4.120E-06,-2.360
4.130E-06,-2.380
4.140E-06,-2.340
4.150E-06,-2.280
4.160E-06,-2.240
4.170E-06,-2.200
4.180E-06,-2.100
4.190E-06,-2.040
4.200E-06,-2.020
4.210E-06,-1.920
4.220E-06,-1.860
4.230E-06,-1.840
4.240E-06,-1.780
4.250E-06,-1.760
4.260E-06,-1.700
4.270E-06,-1.620
4.280E-06,-1.600
4.290E-06,-1.580
4.300E-06,-1.540
4.310E-06,-1.560
4.320E-06,-1.560
4.330E-06,-1.560
4.340E-06,-1.560
4.350E-06,-1.560
4.360E-06,-1.560
4.370E-06,-1.580
4.380E-06,-1.580
4.390E-06,-1.660
4.400E-06,-1.600
4.410E-06,-1.540
4.420E-06,-1.460
4.430E-06,-1.320
4.440E-06,-1.200
4.450E-06,-1.060
4.460E-06,-0.920
4.470E-06,-0.860
4.480E-06,-0.780
4.490E-06,-0.780
4.500E-06,-0.800
4.510E-06,-0.840
4.520E-06,-0.960
4.530E-06,-1.040
4.540E-06,-1.200
4.550E-06,-1.380
4.560E-06,-1.600
4.570E-06,-1.720
4.580E-06,-1.880
4.590E-06,-2.060
4.600E-06,-2.160
4.610E-06,-2.260
4.620E-06,-2.380
4.630E-06,-2.400
4.640E-06,-2.440
4.650E-06,-2.460
4.660E-06,-2.480
4.670E-06,-2.480
4.680E-06,-2.460
4.690E-06,-2.400
4.700E-06,-2.340
4.710E-06,-2.300
4.720E-06,-2.200
4.730E-06,-2.160
4.740E-06,-2.060
4.750E-06,-2.000
4.760E-06,-1.920
4.770E-06,-1.880
4.780E-06,-1.780
4.790E-06,-1.720
4.800E-06,-1.660
4.810E-06,-1.600
4.820E-06,-1.520
4.830E-06,-1.440
4.840E-06,-1.340
4.850E-06,-1.260
4.860E-06,-1.160
4.870E-06,-1.100
4.880E-06,-1.020
4.890E-06,-0.940
4.900E-06,-0.760
4.910E-06,-0.680
4.920E-06,-0.580
4.930E-06,-0.420
4.940E-06,-0.360
4.950E-06,-0.240
4.960E-06,-0.160
4.970E-06,-0.080
4.980E-06,-0.040
4.990E-06,0.020
5.000E-06,0.080
5.010E-06,0.140
5.020E-06,0.180
5.030E-06,0.160
5.040E-06,0.200
5.050E-06,0.220
5.060E-06,0.240
5.070E-06,0.220
5.080E-06,0.220
5.090E-06,0.180
5.100E-06,0.160
5.110E-06,0.160
5.120E-06,0.100
5.130E-06,0.060
5.140E-06,-0.020
5.150E-06,-0.080
5.160E-06,-0.220
5.170E-06,-0.260
5.180E-06,-0.320
5.190E-06,-0.440
5.200E-06,-0.500
5.210E-06,-0.580
5.220E-06,-0.700
5.230E-06,-0.740
5.240E-06,-0.800
5.250E-06,-0.800
5.260E-06,-0.780
5.270E-06,-0.780
5.280E-06,-0.820
5.290E-06,-0.860
5.300E-06,-0.880
5.310E-06,-0.940
5.320E-06,-0.960
5.330E-06,-1.000
5.340E-06,-1.000
5.350E-06,-1.020
5.360E-06,-1.060
5.370E-06,-1.040
5.380E-06,-1.100
5.390E-06,-1.120
5.400E-06,-1.140
5.410E-06,-1.120
5.420E-06,-1.140
5.430E-06,-1.120
5.440E-06,-1.120
5.450E-06,-1.100
5.460E-06,-1.120
5.470E-06,-1.100
5.480E-06,-1.100
5.490E-06,-1.100
5.500E-06,-1.020
5.510E-06,-1.020
5.520E-06,-1.000
5.530E-06,-0.940
5.540E-06,-0.940
5.550E-06,-0.860
5.560E-06,-0.800
5.570E-06,-0.760
5.580E-06,-0.700
5.590E-06,-0.680
5.600E-06,-0.640
5.610E-06,-0.640
5.620E-06,-0.680
5.630E-06,-0.760
5.640E-06,-0.780
5.650E-06,-0.820
5.660E-06,-0.860
5.670E-06,-0.880
5.680E-06,-0.920
5.690E-06,-1.000
5.700E-06,-1.000
5.710E-06,-1.060
5.720E-06,-1.100
5.730E-06,-1.120
5.740E-06,-1.100
5.750E-06,-1.100
5.760E-06,-1.120
5.770E-06,-1.140
5.780E-06,-1.140
5.790E-06,-1.180
5.800E-06,-1.240
5.810E-06,-1.280
5.820E-06,-1.360
5.830E-06,-1.400
5.840E-06,-1.380
5.850E-06,-1.360
5.860E-06,-1.340
5.870E-06,-1.280
5.880E-06,-1.200
5.890E-06,-1.020
5.900E-06,-0.900
5.910E-06,-0.780
5.920E-06,-0.640
5.930E-06,-0.500
5.940E-06,-0.400
5.950E-06,-0.260
5.960E-06,-0.160
5.970E-06,-0.060
5.980E-06,0.000
5.990E-06,0.060
6.000E-06,0.120
6.010E-06,0.180
6.020E-06,0.200
6.030E-06,0.260
6.040E-06,0.240
6.050E-06,0.300
6.060E-06,0.300
6.070E-06,0.280
6.080E-06,0.300
6.090E-06,0.280
6.100E-06,0.240
6.110E-06,0.220
6.120E-06,0.160
6.130E-06,0.140
6.140E-06,0.080
6.150E-06,0.040
6.160E-06,-0.020
6.170E-06,-0.100
6.180E-06,-0.160
6.190E-06,-0.240
6.200E-06,-0.280
6.210E-06,-0.380
6.220E-06,-0.420
6.230E-06,-0.480
6.240E-06,-0.500
6.250E-06,-0.480
6.260E-06,-0.500
6.270E-06,-0.440
6.280E-06,-0.400
6.290E-06,-0.360
6.300E-06,-0.340
6.310E-06,-0.300
6.320E-06,-0.260
6.330E-06,-0.240
6.340E-06,-0.200
6.350E-06,-0.240
6.360E-06,-0.280
6.370E-06,-0.320
6.380E-06,-0.340
6.390E-06,-0.320
6.400E-06,-0.320
6.410E-06,-0.320
6.420E-06,-0.340
6.430E-06,-0.320
6.440E-06,-0.340
6.450E-06,-0.340
6.460E-06,-0.380
6.470E-06,-0.420
6.480E-06,-0.460
6.490E-06,-0.500
6.500E-06,-0.540
6.510E-06,-0.560
6.520E-06,-0.580
6.530E-06,-0.540
6.540E-06,-0.500
6.550E-06,-0.400
6.560E-06,-0.380
6.570E-06,-0.380
6.580E-06,-0.360
6.590E-06,-0.400
6.600E-06,-0.420
6.610E-06,-0.420
6.620E-06,-0.360
6.630E-06,-0.320
6.640E-06,-0.240
6.650E-06,-0.080
6.660E-06,0.060
6.670E-06,0.160
6.680E-06,0.300
6.690E-06,0.420
6.700E-06,0.460
6.710E-06,0.500
6.720E-06,0.560
6.730E-06,0.560
6.740E-06,0.600
6.750E-06,0.640
6.760E-06,0.560
6.770E-06,0.520
6.780E-06,0.480
6.790E-06,0.380
6.800E-06,0.320
6.810E-06,0.180
6.820E-06,0.080
6.830E-06,-0.040
6.840E-06,-0.180
6.850E-06,-0.260
6.860E-06,-0.360
6.870E-06,-0.460
6.880E-06,-0.520
6.890E-06,-0.520
6.900E-06,-0.500
6.910E-06,-0.440
6.920E-06,-0.360
6.930E-06,-0.340
6.940E-06,-0.260
6.950E-06,-0.280
6.960E-06,-0.300
6.970E-06,-0.320
6.980E-06,-0.360
6.990E-06,-0.420
7.000E-06,-0.500
7.010E-06,-0.500
7.020E-06,-0.580
7.030E-06,-0.600
7.040E-06,-0.660
7.050E-06,-0.640
7.060E-06,-0.660
7.070E-06,-0.640
7.080E-06,-0.600
7.090E-06,-0.560
7.100E-06,-0.520
7.110E-06,-0.460
7.120E-06,-0.400
7.130E-06,-0.340
7.140E-06,-0.260
7.150E-06,-0.160
7.160E-06,-0.080
7.170E-06,-0.020
7.180E-06,0.020
7.190E-06,0.080
7.200E-06,0.100
7.210E-06,0.140
7.220E-06,0.200
7.230E-06,0.220
7.240E-06,0.300
7.250E-06,0.360
7.260E-06,0.420
7.270E-06,0.440
7.280E-06,0.480
7.290E-06,0.520
7.300E-06,0.580
7.310E-06,0.640
7.320E-06,0.680
7.330E-06,0.720
7.340E-06,0.780
7.350E-06,0.820
7.360E-06,0.820
7.370E-06,0.840
7.380E-06,0.840
7.390E-06,0.840
7.400E-06,0.860
7.410E-06,0.840
7.420E-06,0.860
7.430E-06,0.840
7.440E-06,0.820
7.450E-06,0.860
7.460E-06,0.820
7.470E-06,0.800
7.480E-06,0.800
7.490E-06,0.800
7.500E-06,0.800
7.510E-06,0.780
7.520E-06,0.780
7.530E-06,0.780
7.540E-06,0.700
7.550E-06,0.680
7.560E-06,0.620
7.570E-06,0.600
7.580E-06,0.620
7.590E-06,0.620
7.600E-06,0.600
7.610E-06,0.600
7.620E-06,0.660
7.630E-06,0.660
7.640E-06,0.600
7.650E-06,0.580
7.660E-06,0.500
7.670E-06,0.480
7.680E-06,0.400
7.690E-06,0.320
7.700E-06,0.300
7.710E-06,0.280
7.720E-06,0.260
7.730E-06,0.280
7.740E-06,0.300
7.750E-06,0.360
7.760E-06,0.440
7.770E-06,0.440
7.780E-06,0.460
7.790E-06,0.460
7.800E-06,0.440
7.810E-06,0.440
7.820E-06,0.400
7.830E-06,0.440
7.840E-06,0.480
7.850E-06,0.500
7.860E-06,0.540
7.870E-06,0.560
7.880E-06,0.560
7.890E-06,0.540
7.900E-06,0.520
7.910E-06,0.500
7.920E-06,0.500
7.930E-06,0.500
7.940E-06,0.480
7.950E-06,0.460
7.960E-06,0.480
7.970E-06,0.500
7.980E-06,0.500
7.990E-06,0.520
8.000E-06,0.480
8.010E-06,0.480
8.020E-06,0.420
8.030E-06,0.420
8.040E-06,0.400
8.050E-06,0.420
8.060E-06,0.440
8.070E-06,0.440
8.080E-06,0.500
8.090E-06,0.520
8.100E-06,0.560
8.110E-06,0.640
8.120E-06,0.700
8.130E-06,0.760
8.140E-06,0.760
8.150E-06,0.800
8.160E-06,0.860
8.170E-06,0.860
8.180E-06,0.900
8.190E-06,0.940
8.200E-06,0.940
8.210E-06,0.980
8.220E-06,0.960
8.230E-06,0.940
8.240E-06,0.940
8.250E-06,0.900
8.260E-06,0.920
8.270E-06,0.900
8.280E-06,0.820
8.290E-06,0.820
8.300E-06,0.780
8.310E-06,0.800
8.320E-06,0.780
8.330E-06,0.800
8.340E-06,0.840
8.350E-06,0.900
8.360E-06,0.940
8.370E-06,1.000
8.380E-06,1.000
8.390E-06,1.000
8.400E-06,1.040
8.410E-06,1.040
8.420E-06,1.060
8.430E-06,1.100
8.440E-06,1.100
8.450E-06,1.100
8.460E-06,1.140
8.470E-06,1.160
8.480E-06,1.200
8.490E-06,1.240
8.500E-06,1.240
8.510E-06,1.300
8.520E-06,1.340
8.530E-06,1.440
8.540E-06,1.540
8.550E-06,1.620
8.560E-06,1.640
8.570E-06,1.760
8.580E-06,1.800
8.590E-06,1.860
8.600E-06,1.960
8.610E-06,2.080
8.620E-06,2.280
8.630E-06,2.520
8.640E-06,2.780
8.650E-06,2.760
8.660E-06,2.780
8.670E-06,2.760
8.680E-06,2.760
8.690E-06,2.760
8.700E-06,2.760
8.710E-06,2.760
8.720E-06,2.780
8.730E-06,2.760
8.740E-06,2.760
8.750E-06,2.740
8.760E-06,2.760
8.770E-06,2.760
8.780E-06,2.760
8.790E-06,2.740
8.800E-06,2.760
8.810E-06,2.780
8.820E-06,2.780
8.830E-06,2.760
8.840E-06,2.760
8.850E-06,2.740
8.860E-06,2.760
8.870E-06,2.780
8.880E-06,2.760
8.890E-06,2.760
8.900E-06,2.760
8.910E-06,2.740
8.920E-06,2.760
8.930E-06,2.760
8.940E-06,2.760
8.950E-06,2.740
8.960E-06,2.760
8.970E-06,2.760
8.980E-06,2.740
8.990E-06,2.760
9.000E-06,2.780
9.010E-06,2.760
9.020E-06,2.740
9.030E-06,2.760
9.040E-06,2.780
9.050E-06,2.760
9.060E-06,2.760
9.070E-06,2.760
9.080E-06,2.760
9.090E-06,2.740
9.100E-06,2.760
9.110E-06,2.780
9.120E-06,2.760
9.130E-06,2.760
9.140E-06,2.760
9.150E-06,2.760
9.160E-06,2.760
9.170E-06,2.780
9.180E-06,2.760
9.190E-06,2.760
9.200E-06,2.760
9.210E-06,2.740
9.220E-06,2.760
9.230E-06,2.760
9.240E-06,2.760
9.250E-06,2.760
9.260E-06,2.780
9.270E-06,2.780
9.280E-06,2.760
9.290E-06,2.760
9.300E-06,2.740
9.310E-06,2.760
9.320E-06,2.780
9.330E-06,2.760
9.340E-06,2.780
9.350E-06,2.760
9.360E-06,2.760
9.370E-06,2.760
9.380E-06,2.740
9.390E-06,2.760
9.400E-06,2.760
9.410E-06,2.740
9.420E-06,2.640
9.430E-06,2.540
9.440E-06,2.500
9.450E-06,2.400
9.460E-06,2.340
9.470E-06,2.280
9.480E-06,2.220
9.490E-06,2.120
9.500E-06,2.080
9.510E-06,2.040
9.520E-06,2.020
9.530E-06,1.980
9.540E-06,1.960
9.550E-06,1.920
9.560E-06,1.880
9.570E-06,1.880
9.580E-06,1.820
9.590E-06,1.800
9.600E-06,1.760
9.610E-06,1.720
9.620E-06,1.700
9.630E-06,1.640
9.640E-06,1.600
9.650E-06,1.560
9.660E-06,1.520
9.670E-06,1.520
9.680E-06,1.480
