mediciones/Mediciones filtradas (saque las feas)/6-3/-7.5/WaveData5355.csv

#timebase=2000000(ps)
,#voltbase=500000(mv/100)
#size=4000
-2.300E-06,0.160
-2.290E-06,0.140
-2.280E-06,0.160
-2.270E-06,0.180
-2.260E-06,0.180
-2.250E-06,0.160
-2.240E-06,0.160
-2.230E-06,0.160
-2.220E-06,0.140
-2.210E-06,0.120
-2.200E-06,0.160
-2.190E-06,0.140
-2.180E-06,0.140
-2.170E-06,0.160
-2.160E-06,0.100
-2.150E-06,0.120
-2.140E-06,0.100
-2.130E-06,0.140
-2.120E-06,0.120
-2.110E-06,0.160
-2.100E-06,0.160
-2.090E-06,0.180
-2.080E-06,0.180
-2.070E-06,0.220
-2.060E-06,0.220
-2.050E-06,0.200
-2.040E-06,0.240
-2.030E-06,0.260
-2.020E-06,0.260
-2.010E-06,0.220
-2.000E-06,0.240
-1.990E-06,0.220
-1.980E-06,0.240
-1.970E-06,0.300
-1.960E-06,0.340
-1.950E-06,0.400
-1.940E-06,0.360
-1.930E-06,0.340
-1.920E-06,0.320
-1.910E-06,0.340
-1.900E-06,0.400
-1.890E-06,0.420
-1.880E-06,0.500
-1.870E-06,0.480
-1.860E-06,0.460
-1.850E-06,0.440
-1.840E-06,0.420
-1.830E-06,0.400
-1.820E-06,0.440
-1.810E-06,0.460
-1.800E-06,0.460
-1.790E-06,0.460
-1.780E-06,0.500
-1.770E-06,0.480
-1.760E-06,0.480
-1.750E-06,0.460
-1.740E-06,0.420
-1.730E-06,0.440
-1.720E-06,0.400
-1.710E-06,0.460
-1.700E-06,0.480
-1.690E-06,0.600
-1.680E-06,0.560
-1.670E-06,0.540
-1.660E-06,0.540
-1.650E-06,0.580
-1.640E-06,0.540
-1.630E-06,0.640
-1.620E-06,0.640
-1.610E-06,0.660
-1.600E-06,0.660
-1.590E-06,0.660
-1.580E-06,0.640
-1.570E-06,0.660
-1.560E-06,0.660
-1.550E-06,0.660
-1.540E-06,0.700
-1.530E-06,0.600
-1.520E-06,0.720
-1.510E-06,0.760
-1.500E-06,0.660
-1.490E-06,0.780
-1.480E-06,0.660
-1.470E-06,0.600
-1.460E-06,0.660
-1.450E-06,0.800
-1.440E-06,0.840
-1.430E-06,0.860
-1.420E-06,0.800
-1.410E-06,0.640
-1.400E-06,0.400
-1.390E-06,0.460
-1.380E-06,0.460
-1.370E-06,0.340
-1.360E-06,0.540
-1.350E-06,0.500
-1.340E-06,0.700
-1.330E-06,0.580
-1.320E-06,0.540
-1.310E-06,0.400
-1.300E-06,0.320
-1.290E-06,0.280
-1.280E-06,0.500
-1.270E-06,0.560
-1.260E-06,0.760
-1.250E-06,0.700
-1.240E-06,0.520
-1.230E-06,0.460
-1.220E-06,0.400
-1.210E-06,0.520
-1.200E-06,0.700
-1.190E-06,0.820
-1.180E-06,0.900
-1.170E-06,0.740
-1.160E-06,0.700
-1.150E-06,0.600
-1.140E-06,0.600
-1.130E-06,0.620
-1.120E-06,0.660
-1.110E-06,0.560
-1.100E-06,0.540
-1.090E-06,0.360
-1.080E-06,0.520
-1.070E-06,0.500
-1.060E-06,0.600
-1.050E-06,0.540
-1.040E-06,0.540
-1.030E-06,0.320
-1.020E-06,0.260
-1.010E-06,0.280
-1.000E-06,0.420
-9.900E-07,0.520
-9.800E-07,0.540
-9.700E-07,0.480
-9.600E-07,0.400
-9.500E-07,0.360
-9.400E-07,0.480
-9.300E-07,0.580
-9.200E-07,0.720
-9.100E-07,0.720
-9.000E-07,0.700
-8.900E-07,0.640
-8.800E-07,0.580
-8.700E-07,0.560
-8.600E-07,0.600
-8.500E-07,0.640
-8.400E-07,0.580
-8.300E-07,0.500
-8.200E-07,0.440
-8.100E-07,0.400
-8.000E-07,0.340
-7.900E-07,0.380
-7.800E-07,0.480
-7.700E-07,0.460
-7.600E-07,0.520
-7.500E-07,0.520
-7.400E-07,0.520
-7.300E-07,0.560
-7.200E-07,0.580
-7.100E-07,0.700
-7.000E-07,0.680
-6.900E-07,0.680
-6.800E-07,0.740
-6.700E-07,0.760
-6.600E-07,0.780
-6.500E-07,0.880
-6.400E-07,0.880
-6.300E-07,0.980
-6.200E-07,1.020
-6.100E-07,1.040
-6.000E-07,1.120
-5.900E-07,1.100
-5.800E-07,1.160
-5.700E-07,1.180
-5.600E-07,1.200
-5.500E-07,1.200
-5.400E-07,1.160
-5.300E-07,1.180
-5.200E-07,1.180
-5.100E-07,1.080
-5.000E-07,1.060
-4.900E-07,1.020
-4.800E-07,0.960
-4.700E-07,0.880
-4.600E-07,0.860
-4.500E-07,0.840
-4.400E-07,0.820
-4.300E-07,0.820
-4.200E-07,0.860
-4.100E-07,0.900
-4.000E-07,0.860
-3.900E-07,0.880
-3.800E-07,0.820
-3.700E-07,0.740
-3.600E-07,0.800
-3.500E-07,0.780
-3.400E-07,0.800
-3.300E-07,0.820
-3.200E-07,0.900
-3.100E-07,0.900
-3.000E-07,0.860
-2.900E-07,0.880
-2.800E-07,0.760
-2.700E-07,0.760
-2.600E-07,0.720
-2.500E-07,0.700
-2.400E-07,0.760
-2.300E-07,0.800
-2.200E-07,0.840
-2.100E-07,0.780
-2.000E-07,0.920
-1.900E-07,0.760
-1.800E-07,0.920
-1.700E-07,0.840
-1.600E-07,1.140
-1.500E-07,0.980
-1.400E-07,1.120
-1.300E-07,1.280
-1.200E-07,1.160
-1.100E-07,1.100
-1.000E-07,0.920
-9.000E-08,1.140
-8.000E-08,0.820
-7.000E-08,1.260
-6.000E-08,0.980
-5.000E-08,0.940
-4.000E-08,0.080
-3.000E-08,1.120
-2.000E-08,-0.660
-1.000E-08,0.600
0.000E+00,-0.100
1.000E-08,0.140
2.000E-08,1.200
3.000E-08,2.360
4.000E-08,2.780
5.000E-08,2.240
6.000E-08,0.880
7.000E-08,0.000
8.000E-08,-0.520
9.000E-08,0.480
1.000E-07,2.260
1.100E-07,2.760
1.200E-07,2.780
1.300E-07,2.000
1.400E-07,0.900
1.500E-07,0.640
1.600E-07,0.720
1.700E-07,1.680
1.800E-07,2.140
1.900E-07,2.220
2.000E-07,1.940
2.100E-07,1.840
2.200E-07,1.280
2.300E-07,1.060
2.400E-07,1.000
2.500E-07,0.860
2.600E-07,0.520
2.700E-07,0.940
2.800E-07,1.020
2.900E-07,1.040
3.000E-07,0.800
3.100E-07,0.660
3.200E-07,0.300
3.300E-07,0.180
3.400E-07,0.180
3.500E-07,0.240
3.600E-07,0.080
3.700E-07,0.080
3.800E-07,0.080
3.900E-07,0.060
4.000E-07,-0.040
4.100E-07,-0.100
4.200E-07,-0.260
4.300E-07,-0.240
4.400E-07,-0.060
4.500E-07,0.120
4.600E-07,0.200
4.700E-07,0.240
4.800E-07,0.260
4.900E-07,0.240
5.000E-07,0.260
5.100E-07,0.320
5.200E-07,0.320
5.300E-07,0.280
5.400E-07,0.220
5.500E-07,0.380
5.600E-07,0.660
5.700E-07,0.480
5.800E-07,0.340
5.900E-07,0.200
6.000E-07,0.180
6.100E-07,0.200
6.200E-07,0.040
6.300E-07,0.100
6.400E-07,0.200
6.500E-07,0.160
6.600E-07,0.160
6.700E-07,0.040
6.800E-07,-0.040
6.900E-07,-0.080
7.000E-07,0.080
7.100E-07,0.240
7.200E-07,0.340
7.300E-07,0.420
7.400E-07,0.180
7.500E-07,0.220
7.600E-07,0.200
7.700E-07,0.340
7.800E-07,0.400
7.900E-07,0.480
8.000E-07,0.620
8.100E-07,0.520
8.200E-07,0.620
8.300E-07,0.880
8.400E-07,0.860
8.500E-07,0.100
8.600E-07,0.260
8.700E-07,0.080
8.800E-07,-0.140
8.900E-07,0.420
9.000E-07,1.000
9.100E-07,0.280
9.200E-07,0.560
9.300E-07,0.380
9.400E-07,1.000
9.500E-07,0.540
9.600E-07,1.660
9.700E-07,0.500
9.800E-07,0.520
9.900E-07,-1.120
1.000E-06,-0.340
1.010E-06,-0.620
1.020E-06,0.320
1.030E-06,1.560
1.040E-06,1.260
1.050E-06,1.540
1.060E-06,0.800
1.070E-06,1.000
1.080E-06,0.440
1.090E-06,1.040
1.100E-06,1.660
1.110E-06,1.720
1.120E-06,1.620
1.130E-06,1.820
1.140E-06,1.760
1.150E-06,1.500
1.160E-06,1.560
1.170E-06,1.900
1.180E-06,1.900
1.190E-06,2.300
1.200E-06,2.560
1.210E-06,2.700
1.220E-06,2.420
1.230E-06,2.460
1.240E-06,2.460
1.250E-06,2.220
1.260E-06,2.120
1.270E-06,2.100
1.280E-06,2.140
1.290E-06,2.100
1.300E-06,2.180
1.310E-06,2.120
1.320E-06,1.780
1.330E-06,1.800
1.340E-06,1.600
1.350E-06,1.360
1.360E-06,1.180
1.370E-06,1.000
1.380E-06,0.920
1.390E-06,0.680
1.400E-06,0.560
1.410E-06,0.800
1.420E-06,0.460
1.430E-06,0.380
1.440E-06,0.300
1.450E-06,0.320
1.460E-06,0.440
1.470E-06,0.520
1.480E-06,0.540
1.490E-06,0.420
1.500E-06,0.400
1.510E-06,0.400
1.520E-06,0.380
1.530E-06,0.400
1.540E-06,0.400
1.550E-06,0.300
1.560E-06,0.220
1.570E-06,0.160
1.580E-06,0.100
1.590E-06,0.000
1.600E-06,-0.100
1.610E-06,-0.160
1.620E-06,-0.160
1.630E-06,-0.080
1.640E-06,0.000
1.650E-06,0.000
1.660E-06,0.040
1.670E-06,0.240
1.680E-06,-0.020
1.690E-06,0.220
1.700E-06,0.680
1.710E-06,1.200
1.720E-06,1.440
1.730E-06,1.240
1.740E-06,1.180
1.750E-06,0.160
1.760E-06,0.080
1.770E-06,0.260
1.780E-06,0.340
1.790E-06,0.460
1.800E-06,0.580
1.810E-06,0.560
1.820E-06,0.320
1.830E-06,0.500
1.840E-06,0.680
1.850E-06,0.880
1.860E-06,0.840
1.870E-06,1.180
1.880E-06,1.200
1.890E-06,1.260
1.900E-06,1.400
1.910E-06,1.520
1.920E-06,1.200
1.930E-06,1.040
1.940E-06,1.100
1.950E-06,1.220
1.960E-06,1.060
1.970E-06,1.040
1.980E-06,0.960
1.990E-06,0.620
2.000E-06,0.340
2.010E-06,0.420
2.020E-06,0.320
2.030E-06,0.300
2.040E-06,0.280
2.050E-06,0.180
2.060E-06,0.060
2.070E-06,0.120
2.080E-06,0.200
2.090E-06,0.180
2.100E-06,0.020
2.110E-06,-0.140
2.120E-06,-0.420
2.130E-06,-0.840
2.140E-06,-1.400
2.150E-06,-2.180
2.160E-06,-2.660
2.170E-06,-2.660
2.180E-06,-2.660
2.190E-06,-2.660
2.200E-06,-2.660
2.210E-06,-2.680
2.220E-06,-2.680
2.230E-06,-2.680
2.240E-06,-2.660
2.250E-06,-2.660
2.260E-06,-2.640
2.270E-06,-2.640
2.280E-06,-2.640
2.290E-06,-2.660
2.300E-06,-2.660
2.310E-06,-2.660
2.320E-06,-2.660
2.330E-06,-2.660
2.340E-06,-2.660
2.350E-06,-2.660
2.360E-06,-2.680
2.370E-06,-2.660
2.380E-06,-2.660
2.390E-06,-2.660
2.400E-06,-2.680
2.410E-06,-2.660
2.420E-06,-2.660
2.430E-06,-2.660
2.440E-06,-2.660
2.450E-06,-2.680
2.460E-06,-2.680
2.470E-06,-2.680
2.480E-06,-2.660
2.490E-06,-2.660
2.500E-06,-2.660
2.510E-06,-2.680
2.520E-06,-2.680
2.530E-06,-2.660
2.540E-06,-2.660
2.550E-06,-2.660
2.560E-06,-2.660
2.570E-06,-2.660
2.580E-06,-2.680
2.590E-06,-2.680
2.600E-06,-2.660
2.610E-06,-2.660
2.620E-06,-2.660
2.630E-06,-2.660
2.640E-06,-2.660
2.650E-06,-2.640
2.660E-06,-2.640
2.670E-06,-2.660
2.680E-06,-2.660
2.690E-06,-2.660
2.700E-06,-2.660
2.710E-06,-2.640
2.720E-06,-2.640
2.730E-06,-2.660
2.740E-06,-2.660
2.750E-06,-2.660
2.760E-06,-2.660
2.770E-06,-2.680
2.780E-06,-2.660
2.790E-06,-2.660
2.800E-06,-2.660
2.810E-06,-2.660
2.820E-06,-2.660
2.830E-06,-2.660
2.840E-06,-2.660
2.850E-06,-2.660
2.860E-06,-2.640
2.870E-06,-2.640
2.880E-06,-2.640
2.890E-06,-2.660
2.900E-06,-2.660
2.910E-06,-2.680
2.920E-06,-2.620
2.930E-06,-2.620
2.940E-06,-2.560
2.950E-06,-2.540
2.960E-06,-2.500
2.970E-06,-2.460
2.980E-06,-2.460
2.990E-06,-2.480
3.000E-06,-2.480
3.010E-06,-2.500
3.020E-06,-2.520
3.030E-06,-2.500
3.040E-06,-2.500
3.050E-06,-2.500
3.060E-06,-2.560
3.070E-06,-2.560
3.080E-06,-2.580
3.090E-06,-2.620
3.100E-06,-2.580
3.110E-06,-2.560
3.120E-06,-2.520
3.130E-06,-2.440
3.140E-06,-2.420
3.150E-06,-2.400
3.160E-06,-2.520
3.170E-06,-2.620
3.180E-06,-2.660
3.190E-06,-2.640
3.200E-06,-2.560
3.210E-06,-2.320
3.220E-06,-2.040
3.230E-06,-1.740
3.240E-06,-1.480
3.250E-06,-1.280
3.260E-06,-1.120
3.270E-06,-1.020
3.280E-06,-0.940
3.290E-06,-0.880
3.300E-06,-0.740
3.310E-06,-0.620
3.320E-06,-0.520
3.330E-06,-0.400
3.340E-06,-0.420
3.350E-06,-0.480
3.360E-06,-0.540
3.370E-06,-0.660
3.380E-06,-0.760
3.390E-06,-0.900
3.400E-06,-1.020
3.410E-06,-1.140
3.420E-06,-1.260
3.430E-06,-1.340
3.440E-06,-1.520
3.450E-06,-1.560
3.460E-06,-1.580
3.470E-06,-1.620
3.480E-06,-1.640
3.490E-06,-1.640
3.500E-06,-1.660
3.510E-06,-1.640
3.520E-06,-1.600
3.530E-06,-1.520
3.540E-06,-1.380
3.550E-06,-1.100
3.560E-06,-0.680
3.570E-06,-0.260
3.580E-06,-0.020
3.590E-06,-0.060
3.600E-06,-0.360
3.610E-06,-1.020
3.620E-06,-1.700
3.630E-06,-2.340
3.640E-06,-2.660
3.650E-06,-2.660
3.660E-06,-2.660
3.670E-06,-2.660
3.680E-06,-2.660
3.690E-06,-2.660
3.700E-06,-2.660
3.710E-06,-2.660
3.720E-06,-2.500
3.730E-06,-2.320
3.740E-06,-2.160
3.750E-06,-2.080
3.760E-06,-1.940
3.770E-06,-1.800
3.780E-06,-1.660
3.790E-06,-1.480
3.800E-06,-1.260
3.810E-06,-1.000
3.820E-06,-0.740
3.830E-06,-0.480
3.840E-06,-0.380
3.850E-06,-0.360
3.860E-06,-0.400
3.870E-06,-0.500
3.880E-06,-0.660
3.890E-06,-0.840
3.900E-06,-0.980
3.910E-06,-1.140
3.920E-06,-1.280
3.930E-06,-1.440
3.940E-06,-1.560
3.950E-06,-1.660
3.960E-06,-1.640
3.970E-06,-1.620
3.980E-06,-1.520
3.990E-06,-1.340
4.000E-06,-1.180
4.010E-06,-1.000
4.020E-06,-0.840
4.030E-06,-0.780
4.040E-06,-0.780
4.050E-06,-0.820
4.060E-06,-0.860
4.070E-06,-0.940
4.080E-06,-0.980
4.090E-06,-1.040
4.100E-06,-1.080
4.110E-06,-1.240
4.120E-06,-1.360
4.130E-06,-1.480
4.140E-06,-1.600
4.150E-06,-1.680
4.160E-06,-1.720
4.170E-06,-1.720
4.180E-06,-1.720
4.190E-06,-1.720
4.200E-06,-1.680
4.210E-06,-1.620
4.220E-06,-1.500
4.230E-06,-1.360
4.240E-06,-1.220
4.250E-06,-1.060
4.260E-06,-0.920
4.270E-06,-0.820
4.280E-06,-0.720
4.290E-06,-0.600
4.300E-06,-0.500
4.310E-06,-0.440
4.320E-06,-0.340
4.330E-06,-0.220
4.340E-06,-0.080
4.350E-06,0.000
4.360E-06,0.120
4.370E-06,0.200
4.380E-06,0.220
4.390E-06,0.200
4.400E-06,0.160
4.410E-06,0.080
4.420E-06,0.020
4.430E-06,-0.060
4.440E-06,-0.200
4.450E-06,-0.280
4.460E-06,-0.340
4.470E-06,-0.420
4.480E-06,-0.520
4.490E-06,-0.600
4.500E-06,-0.660
4.510E-06,-0.700
4.520E-06,-0.760
4.530E-06,-0.820
4.540E-06,-0.900
4.550E-06,-0.940
4.560E-06,-1.000
4.570E-06,-1.020
4.580E-06,-1.060
4.590E-06,-1.120
4.600E-06,-1.040
4.610E-06,-1.020
4.620E-06,-1.000
4.630E-06,-0.960
4.640E-06,-0.960
4.650E-06,-0.940
4.660E-06,-1.000
4.670E-06,-1.020
4.680E-06,-1.060
4.690E-06,-1.060
4.700E-06,-1.080
4.710E-06,-1.100
4.720E-06,-1.140
4.730E-06,-1.120
4.740E-06,-1.160
4.750E-06,-1.180
4.760E-06,-1.200
4.770E-06,-1.220
4.780E-06,-1.220
4.790E-06,-1.240
4.800E-06,-1.260
4.810E-06,-1.260
4.820E-06,-1.320
4.830E-06,-1.360
4.840E-06,-1.360
4.850E-06,-1.340
4.860E-06,-1.280
4.870E-06,-1.120
4.880E-06,-0.980
4.890E-06,-0.800
4.900E-06,-0.660
4.910E-06,-0.480
4.920E-06,-0.360
4.930E-06,-0.260
4.940E-06,-0.180
4.950E-06,-0.160
4.960E-06,-0.080
4.970E-06,-0.100
4.980E-06,-0.120
4.990E-06,-0.160
5.000E-06,-0.240
5.010E-06,-0.380
5.020E-06,-0.480
5.030E-06,-0.580
5.040E-06,-0.640
5.050E-06,-0.680
5.060E-06,-0.680
5.070E-06,-0.700
5.080E-06,-0.660
5.090E-06,-0.560
5.100E-06,-0.420
5.110E-06,-0.260
5.120E-06,-0.140
5.130E-06,-0.020
5.140E-06,0.020
5.150E-06,0.020
5.160E-06,-0.020
5.170E-06,-0.140
5.180E-06,-0.260
5.190E-06,-0.400
5.200E-06,-0.560
5.210E-06,-0.680
5.220E-06,-0.760
5.230E-06,-0.780
5.240E-06,-0.800
5.250E-06,-0.760
5.260E-06,-0.680
5.270E-06,-0.580
5.280E-06,-0.440
5.290E-06,-0.300
5.300E-06,-0.200
5.310E-06,-0.100
5.320E-06,-0.040
5.330E-06,0.080
5.340E-06,0.140
5.350E-06,0.240
5.360E-06,0.320
5.370E-06,0.480
5.380E-06,0.600
5.390E-06,0.740
5.400E-06,0.880
5.410E-06,1.020
5.420E-06,1.120
5.430E-06,1.240
5.440E-06,1.260
5.450E-06,1.220
5.460E-06,1.180
5.470E-06,1.060
5.480E-06,0.980
5.490E-06,0.860
5.500E-06,0.800
5.510E-06,0.720
5.520E-06,0.680
5.530E-06,0.680
5.540E-06,0.640
5.550E-06,0.620
5.560E-06,0.580
5.570E-06,0.560
5.580E-06,0.500
5.590E-06,0.420
5.600E-06,0.400
5.610E-06,0.360
5.620E-06,0.260
5.630E-06,0.260
5.640E-06,0.200
5.650E-06,0.160
5.660E-06,0.160
5.670E-06,0.180
5.680E-06,0.140
5.690E-06,0.100
5.700E-06,0.100
5.710E-06,0.100
5.720E-06,0.080
5.730E-06,0.080
5.740E-06,0.000
5.750E-06,-0.020
5.760E-06,-0.100
5.770E-06,-0.160
5.780E-06,-0.240
5.790E-06,-0.280
5.800E-06,-0.300
5.810E-06,-0.300
5.820E-06,-0.260
5.830E-06,-0.220
5.840E-06,-0.140
5.850E-06,0.020
5.860E-06,0.160
5.870E-06,0.260
5.880E-06,0.340
5.890E-06,0.440
5.900E-06,0.480
5.910E-06,0.520
5.920E-06,0.500
5.930E-06,0.480
5.940E-06,0.420
5.950E-06,0.340
5.960E-06,0.300
5.970E-06,0.220
5.980E-06,0.080
5.990E-06,0.080
6.000E-06,0.000
6.010E-06,-0.040
6.020E-06,-0.100
6.030E-06,-0.140
6.040E-06,-0.180
6.050E-06,-0.240
6.060E-06,-0.260
6.070E-06,-0.240
6.080E-06,-0.200
6.090E-06,-0.140
6.100E-06,-0.040
6.110E-06,0.040
6.120E-06,0.140
6.130E-06,0.240
6.140E-06,0.280
6.150E-06,0.280
6.160E-06,0.300
6.170E-06,0.260
6.180E-06,0.240
6.190E-06,0.180
6.200E-06,0.160
6.210E-06,0.160
6.220E-06,0.220
6.230E-06,0.240
6.240E-06,0.320
6.250E-06,0.360
6.260E-06,0.400
6.270E-06,0.420
6.280E-06,0.480
6.290E-06,0.500
6.300E-06,0.520
6.310E-06,0.580
6.320E-06,0.620
6.330E-06,0.700
6.340E-06,0.760
6.350E-06,0.840
6.360E-06,0.900
6.370E-06,0.960
6.380E-06,1.040
6.390E-06,1.080
6.400E-06,1.100
6.410E-06,1.100
6.420E-06,1.060
6.430E-06,1.000
6.440E-06,0.860
6.450E-06,0.700
6.460E-06,0.560
6.470E-06,0.460
6.480E-06,0.340
6.490E-06,0.240
6.500E-06,0.160
6.510E-06,0.140
6.520E-06,0.080
6.530E-06,0.080
6.540E-06,0.080
6.550E-06,0.080
6.560E-06,0.120
6.570E-06,0.160
6.580E-06,0.160
6.590E-06,0.160
6.600E-06,0.120
6.610E-06,0.040
6.620E-06,-0.060
6.630E-06,-0.160
6.640E-06,-0.240
6.650E-06,-0.320
6.660E-06,-0.340
6.670E-06,-0.320
6.680E-06,-0.280
6.690E-06,-0.200
6.700E-06,-0.060
6.710E-06,-0.020
6.720E-06,0.100
6.730E-06,0.200
6.740E-06,0.200
6.750E-06,0.240
6.760E-06,0.220
6.770E-06,0.160
6.780E-06,0.140
6.790E-06,0.100
6.800E-06,0.080
6.810E-06,0.080
6.820E-06,0.100
6.830E-06,0.140
6.840E-06,0.200
6.850E-06,0.240
6.860E-06,0.340
6.870E-06,0.400
6.880E-06,0.480
6.890E-06,0.580
6.900E-06,0.640
6.910E-06,0.760
6.920E-06,0.840
6.930E-06,0.920
6.940E-06,0.980
6.950E-06,1.020
6.960E-06,1.020
6.970E-06,1.080
6.980E-06,1.000
6.990E-06,0.980
7.000E-06,0.920
7.010E-06,0.840
7.020E-06,0.820
7.030E-06,0.760
7.040E-06,0.660
7.050E-06,0.620
7.060E-06,0.540
7.070E-06,0.500
7.080E-06,0.520
7.090E-06,0.480
7.100E-06,0.460
7.110E-06,0.480
7.120E-06,0.400
7.130E-06,0.360
7.140E-06,0.360
7.150E-06,0.320
7.160E-06,0.340
7.170E-06,0.380
7.180E-06,0.420
7.190E-06,0.480
7.200E-06,0.500
7.210E-06,0.560
7.220E-06,0.640
7.230E-06,0.760
7.240E-06,0.780
7.250E-06,0.800
7.260E-06,0.840
7.270E-06,0.840
7.280E-06,0.840
7.290E-06,0.860
7.300E-06,0.840
7.310E-06,0.860
7.320E-06,0.880
7.330E-06,0.900
7.340E-06,0.920
7.350E-06,0.900
7.360E-06,0.900
7.370E-06,0.880
7.380E-06,0.900
7.390E-06,0.880
7.400E-06,0.860
7.410E-06,0.860
7.420E-06,0.900
7.430E-06,0.940
7.440E-06,0.980
7.450E-06,1.020
7.460E-06,1.060
7.470E-06,1.120
7.480E-06,1.120
7.490E-06,1.180
7.500E-06,1.180
7.510E-06,1.180
7.520E-06,1.200
7.530E-06,1.180
7.540E-06,1.180
7.550E-06,1.180
7.560E-06,1.200
7.570E-06,1.240
7.580E-06,1.280
7.590E-06,1.360
7.600E-06,1.480
7.610E-06,1.620
7.620E-06,1.820
7.630E-06,2.060
7.640E-06,2.380
7.650E-06,2.740
7.660E-06,2.760
7.670E-06,2.760
7.680E-06,2.760
7.690E-06,2.760
7.700E-06,2.760
7.710E-06,2.780
7.720E-06,2.780
7.730E-06,2.760
7.740E-06,2.780
7.750E-06,2.760
7.760E-06,2.780
7.770E-06,2.780
7.780E-06,2.760
7.790E-06,2.780
7.800E-06,2.760
7.810E-06,2.780
7.820E-06,2.760
7.830E-06,2.780
7.840E-06,2.760
7.850E-06,2.780
7.860E-06,2.760
7.870E-06,2.760
7.880E-06,2.740
7.890E-06,2.760
7.900E-06,2.760
7.910E-06,2.740
7.920E-06,2.760
7.930E-06,2.760
7.940E-06,2.760
7.950E-06,2.780
7.960E-06,2.760
7.970E-06,2.760
7.980E-06,2.760
7.990E-06,2.740
8.000E-06,2.760
8.010E-06,2.760
8.020E-06,2.740
8.030E-06,2.760
8.040E-06,2.760
8.050E-06,2.760
8.060E-06,2.740
8.070E-06,2.760
8.080E-06,2.780
8.090E-06,2.760
8.100E-06,2.780
8.110E-06,2.760
8.120E-06,2.780
8.130E-06,2.780
8.140E-06,2.760
8.150E-06,2.760
8.160E-06,2.780
8.170E-06,2.760
8.180E-06,2.760
8.190E-06,2.740
8.200E-06,2.760
8.210E-06,2.780
8.220E-06,2.760
8.230E-06,2.760
8.240E-06,2.740
8.250E-06,2.760
8.260E-06,2.780
8.270E-06,2.760
8.280E-06,2.720
8.290E-06,2.700
8.300E-06,2.660
8.310E-06,2.640
8.320E-06,2.580
8.330E-06,2.520
8.340E-06,2.460
8.350E-06,2.440
8.360E-06,2.400
8.370E-06,2.340
8.380E-06,2.260
8.390E-06,2.220
8.400E-06,2.140
8.410E-06,2.120
8.420E-06,2.080
8.430E-06,2.000
8.440E-06,1.980
8.450E-06,1.940
8.460E-06,1.880
8.470E-06,1.840
8.480E-06,1.800
8.490E-06,1.800
8.500E-06,1.740
8.510E-06,1.680
8.520E-06,1.640
8.530E-06,1.620
8.540E-06,1.520
8.550E-06,1.520
8.560E-06,1.440
8.570E-06,1.380
8.580E-06,1.360
8.590E-06,1.320
8.600E-06,1.260
8.610E-06,1.220
8.620E-06,1.180
8.630E-06,1.180
8.640E-06,1.160
8.650E-06,1.080
8.660E-06,1.060
8.670E-06,1.080
8.680E-06,1.040
8.690E-06,1.040
8.700E-06,1.020
8.710E-06,0.980
8.720E-06,0.940
8.730E-06,0.940
8.740E-06,0.900
8.750E-06,0.840
8.760E-06,0.800
8.770E-06,0.800
8.780E-06,0.740
8.790E-06,0.700
8.800E-06,0.660
8.810E-06,0.640
8.820E-06,0.580
8.830E-06,0.580
8.840E-06,0.560
8.850E-06,0.540
8.860E-06,0.500
8.870E-06,0.500
8.880E-06,0.500
8.890E-06,0.500
8.900E-06,0.480
8.910E-06,0.480
8.920E-06,0.480
8.930E-06,0.480
8.940E-06,0.460
8.950E-06,0.440
8.960E-06,0.400
8.970E-06,0.420
8.980E-06,0.400
8.990E-06,0.380
9.000E-06,0.340
9.010E-06,0.340
9.020E-06,0.340
9.030E-06,0.340
9.040E-06,0.340
9.050E-06,0.320
9.060E-06,0.320
9.070E-06,0.260
9.080E-06,0.240
9.090E-06,0.240
9.100E-06,0.260
9.110E-06,0.240
9.120E-06,0.220
9.130E-06,0.240
9.140E-06,0.180
9.150E-06,0.200
9.160E-06,0.220
9.170E-06,0.160
9.180E-06,0.180
9.190E-06,0.140
9.200E-06,0.120
9.210E-06,0.080
9.220E-06,0.020
9.230E-06,0.020
9.240E-06,-0.020
9.250E-06,-0.060
9.260E-06,-0.060
9.270E-06,-0.080
9.280E-06,-0.140
9.290E-06,-0.140
9.300E-06,-0.180
9.310E-06,-0.160
9.320E-06,-0.200
9.330E-06,-0.220
9.340E-06,-0.260
9.350E-06,-0.240
9.360E-06,-0.260
9.370E-06,-0.280
9.380E-06,-0.300
9.390E-06,-0.300
9.400E-06,-0.320
9.410E-06,-0.340
9.420E-06,-0.360
9.430E-06,-0.360
9.440E-06,-0.360
9.450E-06,-0.400
9.460E-06,-0.400
9.470E-06,-0.420
9.480E-06,-0.400
9.490E-06,-0.380
9.500E-06,-0.420
9.510E-06,-0.440
9.520E-06,-0.440
9.530E-06,-0.480
9.540E-06,-0.440
9.550E-06,-0.480
9.560E-06,-0.500
9.570E-06,-0.480
9.580E-06,-0.480
9.590E-06,-0.460
9.600E-06,-0.500
9.610E-06,-0.500
9.620E-06,-0.480
9.630E-06,-0.500
9.640E-06,-0.500
9.650E-06,-0.500
9.660E-06,-0.520
9.670E-06,-0.520
9.680E-06,-0.520
9.690E-06,-0.500
9.700E-06,-0.560
9.710E-06,-0.560
9.720E-06,-0.560
9.730E-06,-0.580
9.740E-06,-0.580
9.750E-06,-0.600
