mediciones/Mediciones filtradas (saque las feas)/6-3/-7.5/WaveData5391.csv

#timebase=2000000(ps)
,#voltbase=500000(mv/100)
#size=4000
-2.300E-06,-0.080
-2.290E-06,-0.160
-2.280E-06,-0.220
-2.270E-06,-0.320
-2.260E-06,-0.320
-2.250E-06,-0.280
-2.240E-06,-0.160
-2.230E-06,-0.100
-2.220E-06,-0.040
-2.210E-06,-0.020
-2.200E-06,0.000
-2.190E-06,0.040
-2.180E-06,0.140
-2.170E-06,0.260
-2.160E-06,0.380
-2.150E-06,0.440
-2.140E-06,0.500
-2.130E-06,0.500
-2.120E-06,0.500
-2.110E-06,0.440
-2.100E-06,0.520
-2.090E-06,0.460
-2.080E-06,0.540
-2.070E-06,0.580
-2.060E-06,0.560
-2.050E-06,0.580
-2.040E-06,0.460
-2.030E-06,0.520
-2.020E-06,0.400
-2.010E-06,0.420
-2.000E-06,0.420
-1.990E-06,0.500
-1.980E-06,0.360
-1.970E-06,0.300
-1.960E-06,0.240
-1.950E-06,0.220
-1.940E-06,0.000
-1.930E-06,0.200
-1.920E-06,0.200
-1.910E-06,0.280
-1.900E-06,0.340
-1.890E-06,0.260
-1.880E-06,0.160
-1.870E-06,-0.100
-1.860E-06,0.220
-1.850E-06,-0.020
-1.840E-06,0.220
-1.830E-06,0.360
-1.820E-06,0.320
-1.810E-06,0.340
-1.800E-06,0.120
-1.790E-06,0.040
-1.780E-06,-0.020
-1.770E-06,-0.140
-1.760E-06,0.120
-1.750E-06,0.360
-1.740E-06,0.300
-1.730E-06,0.260
-1.720E-06,0.060
-1.710E-06,-0.060
-1.700E-06,-0.180
-1.690E-06,-0.160
-1.680E-06,0.040
-1.670E-06,0.160
-1.660E-06,0.240
-1.650E-06,0.360
-1.640E-06,0.220
-1.630E-06,0.100
-1.620E-06,0.140
-1.610E-06,0.200
-1.600E-06,0.360
-1.590E-06,0.480
-1.580E-06,0.580
-1.570E-06,0.580
-1.560E-06,0.460
-1.550E-06,0.380
-1.540E-06,0.360
-1.530E-06,0.440
-1.520E-06,0.540
-1.510E-06,0.640
-1.500E-06,0.640
-1.490E-06,0.600
-1.480E-06,0.540
-1.470E-06,0.520
-1.460E-06,0.560
-1.450E-06,0.580
-1.440E-06,0.600
-1.430E-06,0.600
-1.420E-06,0.480
-1.410E-06,0.320
-1.400E-06,0.180
-1.390E-06,0.080
-1.380E-06,-0.060
-1.370E-06,-0.020
-1.360E-06,0.060
-1.350E-06,0.320
-1.340E-06,0.420
-1.330E-06,0.420
-1.320E-06,0.400
-1.310E-06,-0.040
-1.300E-06,-0.220
-1.290E-06,-0.340
-1.280E-06,0.000
-1.270E-06,0.360
-1.260E-06,0.520
-1.250E-06,0.660
-1.240E-06,0.100
-1.230E-06,-0.500
-1.220E-06,-0.500
-1.210E-06,-0.500
-1.200E-06,0.020
-1.190E-06,0.700
-1.180E-06,0.900
-1.170E-06,0.860
-1.160E-06,0.160
-1.150E-06,-0.240
-1.140E-06,-0.180
-1.130E-06,0.040
-1.120E-06,0.520
-1.110E-06,0.880
-1.100E-06,0.820
-1.090E-06,0.600
-1.080E-06,0.380
-1.070E-06,0.360
-1.060E-06,0.420
-1.050E-06,0.600
-1.040E-06,0.900
-1.030E-06,1.100
-1.020E-06,1.060
-1.010E-06,1.040
-1.000E-06,1.040
-9.900E-07,0.980
-9.800E-07,0.900
-9.700E-07,0.820
-9.600E-07,0.820
-9.500E-07,0.740
-9.400E-07,0.680
-9.300E-07,0.680
-9.200E-07,0.660
-9.100E-07,0.500
-9.000E-07,0.420
-8.900E-07,0.360
-8.800E-07,0.240
-8.700E-07,0.160
-8.600E-07,0.140
-8.500E-07,0.160
-8.400E-07,0.120
-8.300E-07,0.080
-8.200E-07,0.100
-8.100E-07,0.100
-8.000E-07,0.020
-7.900E-07,0.040
-7.800E-07,0.080
-7.700E-07,0.140
-7.600E-07,0.160
-7.500E-07,0.220
-7.400E-07,0.360
-7.300E-07,0.400
-7.200E-07,0.320
-7.100E-07,0.100
-7.000E-07,-0.080
-6.900E-07,-0.360
-6.800E-07,-0.740
-6.700E-07,-0.660
-6.600E-07,-0.420
-6.500E-07,-0.020
-6.400E-07,0.380
-6.300E-07,0.620
-6.200E-07,0.500
-6.100E-07,-0.020
-6.000E-07,-0.380
-5.900E-07,-0.520
-5.800E-07,-0.320
-5.700E-07,0.140
-5.600E-07,0.560
-5.500E-07,0.740
-5.400E-07,0.460
-5.300E-07,0.200
-5.200E-07,0.000
-5.100E-07,0.000
-5.000E-07,0.220
-4.900E-07,0.580
-4.800E-07,0.720
-4.700E-07,0.500
-4.600E-07,0.340
-4.500E-07,0.200
-4.400E-07,0.100
-4.300E-07,0.140
-4.200E-07,0.240
-4.100E-07,0.260
-4.000E-07,0.200
-3.900E-07,0.100
-3.800E-07,0.120
-3.700E-07,0.160
-3.600E-07,0.240
-3.500E-07,0.340
-3.400E-07,0.380
-3.300E-07,0.360
-3.200E-07,0.220
-3.100E-07,0.160
-3.000E-07,0.200
-2.900E-07,0.240
-2.800E-07,0.300
-2.700E-07,0.300
-2.600E-07,0.280
-2.500E-07,0.260
-2.400E-07,0.320
-2.300E-07,0.400
-2.200E-07,0.420
-2.100E-07,0.420
-2.000E-07,0.440
-1.900E-07,0.440
-1.800E-07,0.480
-1.700E-07,0.500
-1.600E-07,0.560
-1.500E-07,0.660
-1.400E-07,0.720
-1.300E-07,0.760
-1.200E-07,0.760
-1.100E-07,0.800
-1.000E-07,0.800
-9.000E-08,0.820
-8.000E-08,0.720
-7.000E-08,0.560
-6.000E-08,0.380
-5.000E-08,-0.200
-4.000E-08,-0.360
-3.000E-08,-0.660
-2.000E-08,-0.920
-1.000E-08,-0.840
0.000E+00,-0.560
1.000E-08,0.320
2.000E-08,1.140
3.000E-08,1.280
4.000E-08,1.020
5.000E-08,-0.160
6.000E-08,-1.820
7.000E-08,-2.460
8.000E-08,-1.860
9.000E-08,-0.420
1.000E-07,1.120
1.100E-07,2.080
1.200E-07,1.620
1.300E-07,0.280
1.400E-07,-1.260
1.500E-07,-1.500
1.600E-07,-0.420
1.700E-07,0.940
1.800E-07,2.000
1.900E-07,2.000
2.000E-07,1.180
2.100E-07,0.220
2.200E-07,-0.280
2.300E-07,-0.220
2.400E-07,0.280
2.500E-07,0.940
2.600E-07,1.120
2.700E-07,0.940
2.800E-07,0.500
2.900E-07,0.180
3.000E-07,0.040
3.100E-07,0.080
3.200E-07,0.220
3.300E-07,0.420
3.400E-07,0.480
3.500E-07,0.380
3.600E-07,0.320
3.700E-07,0.400
3.800E-07,0.080
3.900E-07,0.280
4.000E-07,0.260
4.100E-07,0.180
4.200E-07,0.460
4.300E-07,0.100
4.400E-07,0.280
4.500E-07,0.000
4.600E-07,-0.200
4.700E-07,-0.100
4.800E-07,-0.160
4.900E-07,0.040
5.000E-07,0.120
5.100E-07,0.300
5.200E-07,0.360
5.300E-07,0.320
5.400E-07,0.360
5.500E-07,0.460
5.600E-07,0.520
5.700E-07,0.740
5.800E-07,0.800
5.900E-07,0.860
6.000E-07,0.760
6.100E-07,0.620
6.200E-07,0.660
6.300E-07,0.520
6.400E-07,0.220
6.500E-07,-0.260
6.600E-07,-0.700
6.700E-07,-0.840
6.800E-07,-0.780
6.900E-07,-0.720
7.000E-07,-0.380
7.100E-07,-0.280
7.200E-07,-0.420
7.300E-07,-0.620
7.400E-07,-0.560
7.500E-07,-0.280
7.600E-07,-0.320
7.700E-07,0.120
7.800E-07,0.320
7.900E-07,0.360
8.000E-07,-0.060
8.100E-07,-0.100
8.200E-07,0.120
8.300E-07,0.360
8.400E-07,0.780
8.500E-07,1.000
8.600E-07,1.140
8.700E-07,0.760
8.800E-07,0.500
8.900E-07,0.480
9.000E-07,0.500
9.100E-07,0.480
9.200E-07,0.520
9.300E-07,0.360
9.400E-07,0.060
9.500E-07,-0.160
9.600E-07,-0.240
9.700E-07,-0.200
9.800E-07,-0.120
9.900E-07,0.020
1.000E-06,0.080
1.010E-06,0.020
1.020E-06,-0.060
1.030E-06,-0.100
1.040E-06,-0.100
1.050E-06,-0.120
1.060E-06,-0.160
1.070E-06,-0.120
1.080E-06,-0.080
1.090E-06,-0.100
1.100E-06,0.020
1.110E-06,0.060
1.120E-06,0.000
1.130E-06,0.000
1.140E-06,-0.020
1.150E-06,0.080
1.160E-06,0.100
1.170E-06,0.120
1.180E-06,0.180
1.190E-06,0.180
1.200E-06,0.180
1.210E-06,0.300
1.220E-06,0.460
1.230E-06,0.540
1.240E-06,0.720
1.250E-06,0.940
1.260E-06,1.060
1.270E-06,1.200
1.280E-06,1.160
1.290E-06,1.120
1.300E-06,1.000
1.310E-06,0.900
1.320E-06,0.820
1.330E-06,0.740
1.340E-06,0.780
1.350E-06,0.780
1.360E-06,0.740
1.370E-06,0.760
1.380E-06,0.600
1.390E-06,0.500
1.400E-06,0.320
1.410E-06,0.280
1.420E-06,0.260
1.430E-06,-0.160
1.440E-06,-0.040
1.450E-06,-0.560
1.460E-06,-1.040
1.470E-06,-1.320
1.480E-06,-1.520
1.490E-06,-1.100
1.500E-06,-1.000
1.510E-06,-0.660
1.520E-06,-0.440
1.530E-06,-0.880
1.540E-06,-0.420
1.550E-06,-0.540
1.560E-06,-0.060
1.570E-06,-0.240
1.580E-06,-0.260
1.590E-06,-0.380
1.600E-06,0.260
1.610E-06,0.200
1.620E-06,0.460
1.630E-06,0.920
1.640E-06,0.380
1.650E-06,0.600
1.660E-06,1.400
1.670E-06,1.360
1.680E-06,2.720
1.690E-06,1.780
1.700E-06,1.320
1.710E-06,1.820
1.720E-06,0.820
1.730E-06,1.840
1.740E-06,2.120
1.750E-06,2.020
1.760E-06,2.380
1.770E-06,1.680
1.780E-06,1.300
1.790E-06,1.080
1.800E-06,0.660
1.810E-06,1.320
1.820E-06,1.560
1.830E-06,2.220
1.840E-06,2.300
1.850E-06,2.340
1.860E-06,2.000
1.870E-06,1.340
1.880E-06,1.200
1.890E-06,0.460
1.900E-06,0.760
1.910E-06,0.900
1.920E-06,1.000
1.930E-06,1.340
1.940E-06,1.020
1.950E-06,0.880
1.960E-06,1.180
1.970E-06,0.980
1.980E-06,1.700
1.990E-06,1.580
2.000E-06,1.040
2.010E-06,0.900
2.020E-06,-0.420
2.030E-06,-0.480
2.040E-06,-0.700
2.050E-06,-0.660
2.060E-06,-0.780
2.070E-06,-0.760
2.080E-06,-1.000
2.090E-06,-1.120
2.100E-06,-0.880
2.110E-06,-0.400
2.120E-06,0.280
2.130E-06,0.500
2.140E-06,0.780
2.150E-06,0.780
2.160E-06,0.900
2.170E-06,1.040
2.180E-06,1.420
2.190E-06,1.660
2.200E-06,1.680
2.210E-06,1.640
2.220E-06,1.660
2.230E-06,1.700
2.240E-06,1.520
2.250E-06,1.460
2.260E-06,1.320
2.270E-06,1.280
2.280E-06,1.240
2.290E-06,1.260
2.300E-06,1.140
2.310E-06,0.880
2.320E-06,0.800
2.330E-06,0.660
2.340E-06,0.560
2.350E-06,0.420
2.360E-06,0.300
2.370E-06,0.160
2.380E-06,-0.080
2.390E-06,-0.280
2.400E-06,-0.380
2.410E-06,-0.340
2.420E-06,-0.480
2.430E-06,-0.380
2.440E-06,-0.180
2.450E-06,-0.100
2.460E-06,0.140
2.470E-06,0.060
2.480E-06,0.320
2.490E-06,0.780
2.500E-06,0.720
2.510E-06,0.660
2.520E-06,0.460
2.530E-06,0.380
2.540E-06,0.220
2.550E-06,0.340
2.560E-06,0.580
2.570E-06,1.000
2.580E-06,1.560
2.590E-06,2.000
2.600E-06,2.200
2.610E-06,1.840
2.620E-06,1.340
2.630E-06,0.760
2.640E-06,0.660
2.650E-06,0.640
2.660E-06,0.980
2.670E-06,1.180
2.680E-06,1.260
2.690E-06,0.980
2.700E-06,0.780
2.710E-06,0.080
2.720E-06,-0.760
2.730E-06,-0.780
2.740E-06,-0.540
2.750E-06,1.500
2.760E-06,1.540
2.770E-06,2.760
2.780E-06,2.760
2.790E-06,1.620
2.800E-06,0.320
2.810E-06,0.080
2.820E-06,0.840
2.830E-06,1.220
2.840E-06,2.460
2.850E-06,2.740
2.860E-06,2.160
2.870E-06,0.800
2.880E-06,0.880
2.890E-06,1.540
2.900E-06,1.940
2.910E-06,2.020
2.920E-06,2.080
2.930E-06,1.940
2.940E-06,1.440
2.950E-06,1.180
2.960E-06,1.120
2.970E-06,0.820
2.980E-06,0.720
2.990E-06,0.560
3.000E-06,0.860
3.010E-06,1.280
3.020E-06,1.240
3.030E-06,1.300
3.040E-06,1.000
3.050E-06,0.660
3.060E-06,1.100
3.070E-06,1.380
3.080E-06,1.820
3.090E-06,1.760
3.100E-06,1.760
3.110E-06,1.660
3.120E-06,1.200
3.130E-06,1.560
3.140E-06,1.420
3.150E-06,1.340
3.160E-06,1.120
3.170E-06,0.860
3.180E-06,0.840
3.190E-06,0.400
3.200E-06,0.140
3.210E-06,0.180
3.220E-06,-0.040
3.230E-06,-0.260
3.240E-06,-0.100
3.250E-06,-0.080
3.260E-06,0.360
3.270E-06,0.040
3.280E-06,0.120
3.290E-06,0.120
3.300E-06,-0.120
3.310E-06,0.200
3.320E-06,0.160
3.330E-06,0.480
3.340E-06,0.280
3.350E-06,0.180
3.360E-06,0.260
3.370E-06,-0.020
3.380E-06,-0.160
3.390E-06,-0.300
3.400E-06,-0.660
3.410E-06,-0.820
3.420E-06,-0.980
3.430E-06,-1.140
3.440E-06,-0.840
3.450E-06,-0.420
3.460E-06,-0.520
3.470E-06,-0.360
3.480E-06,-0.760
3.490E-06,-0.800
3.500E-06,-0.740
3.510E-06,-0.420
3.520E-06,0.320
3.530E-06,0.540
3.540E-06,1.260
3.550E-06,1.000
3.560E-06,0.920
3.570E-06,0.540
3.580E-06,0.100
3.590E-06,-0.140
3.600E-06,0.180
3.610E-06,0.180
3.620E-06,0.180
3.630E-06,-0.200
3.640E-06,-0.880
3.650E-06,-1.280
3.660E-06,-1.660
3.670E-06,-1.480
3.680E-06,-1.280
3.690E-06,-1.020
3.700E-06,-0.720
3.710E-06,-0.480
3.720E-06,0.080
3.730E-06,0.420
3.740E-06,0.460
3.750E-06,0.780
3.760E-06,0.960
3.770E-06,1.400
3.780E-06,1.700
3.790E-06,1.740
3.800E-06,1.760
3.810E-06,1.380
3.820E-06,1.460
3.830E-06,1.220
3.840E-06,1.380
3.850E-06,1.340
3.860E-06,1.280
3.870E-06,1.220
3.880E-06,1.000
3.890E-06,0.880
3.900E-06,0.680
3.910E-06,0.800
3.920E-06,0.840
3.930E-06,0.840
3.940E-06,0.700
3.950E-06,0.500
3.960E-06,0.260
3.970E-06,0.120
3.980E-06,-0.020
3.990E-06,-0.180
4.000E-06,-0.320
4.010E-06,-0.560
4.020E-06,-0.820
4.030E-06,-1.100
4.040E-06,-1.400
4.050E-06,-1.720
4.060E-06,-2.000
4.070E-06,-2.220
4.080E-06,-2.400
4.090E-06,-2.520
4.100E-06,-2.660
4.110E-06,-2.640
4.120E-06,-2.660
4.130E-06,-2.660
4.140E-06,-2.660
4.150E-06,-2.660
4.160E-06,-2.660
4.170E-06,-2.680
4.180E-06,-2.660
4.190E-06,-2.660
4.200E-06,-2.640
4.210E-06,-2.660
4.220E-06,-2.220
4.230E-06,-2.380
4.240E-06,-1.620
4.250E-06,-1.240
4.260E-06,-0.700
4.270E-06,-0.200
4.280E-06,-0.100
4.290E-06,-0.100
4.300E-06,-0.220
4.310E-06,-0.160
4.320E-06,-0.140
4.330E-06,-0.220
4.340E-06,-0.160
4.350E-06,-0.220
4.360E-06,-0.560
4.370E-06,-0.580
4.380E-06,-0.880
4.390E-06,-0.740
4.400E-06,-0.860
4.410E-06,-0.740
4.420E-06,-0.800
4.430E-06,-0.600
4.440E-06,-0.320
4.450E-06,-0.360
4.460E-06,-0.280
4.470E-06,-0.520
4.480E-06,-0.660
4.490E-06,-0.760
4.500E-06,-0.860
4.510E-06,-1.020
4.520E-06,-1.340
4.530E-06,-1.700
4.540E-06,-2.040
4.550E-06,-2.260
4.560E-06,-2.460
4.570E-06,-2.520
4.580E-06,-2.660
4.590E-06,-2.660
4.600E-06,-2.660
4.610E-06,-2.660
4.620E-06,-2.660
4.630E-06,-2.660
4.640E-06,-2.660
4.650E-06,-2.680
4.660E-06,-2.660
4.670E-06,-2.660
4.680E-06,-2.640
4.690E-06,-2.640
4.700E-06,-2.640
4.710E-06,-2.640
4.720E-06,-2.660
4.730E-06,-2.660
4.740E-06,-2.660
4.750E-06,-2.660
4.760E-06,-2.660
4.770E-06,-2.660
4.780E-06,-2.660
4.790E-06,-2.640
4.800E-06,-2.660
4.810E-06,-2.660
4.820E-06,-2.660
4.830E-06,-2.660
4.840E-06,-2.660
4.850E-06,-2.680
4.860E-06,-2.660
4.870E-06,-2.660
4.880E-06,-2.660
4.890E-06,-2.660
4.900E-06,-2.660
4.910E-06,-2.660
4.920E-06,-2.660
4.930E-06,-2.660
4.940E-06,-2.660
4.950E-06,-2.660
4.960E-06,-2.660
4.970E-06,-2.660
4.980E-06,-2.660
4.990E-06,-2.660
5.000E-06,-2.660
5.010E-06,-2.680
5.020E-06,-2.660
5.030E-06,-2.660
5.040E-06,-2.660
5.050E-06,-2.660
5.060E-06,-2.640
5.070E-06,-2.640
5.080E-06,-2.640
5.090E-06,-2.640
5.100E-06,-2.640
5.110E-06,-2.640
5.120E-06,-2.660
5.130E-06,-2.660
5.140E-06,-2.680
5.150E-06,-2.660
5.160E-06,-2.660
5.170E-06,-2.640
5.180E-06,-2.640
5.190E-06,-2.660
5.200E-06,-2.660
5.210E-06,-2.660
5.220E-06,-2.640
5.230E-06,-2.660
5.240E-06,-2.660
5.250E-06,-2.660
5.260E-06,-2.660
5.270E-06,-2.640
5.280E-06,-2.640
5.290E-06,-2.660
5.300E-06,-2.660
5.310E-06,-2.660
5.320E-06,-2.660
5.330E-06,-2.660
5.340E-06,-2.680
5.350E-06,-2.660
5.360E-06,-2.660
5.370E-06,-2.660
5.380E-06,-2.660
5.390E-06,-2.660
5.400E-06,-2.660
5.410E-06,-2.660
5.420E-06,-2.660
5.430E-06,-2.660
5.440E-06,-2.660
5.450E-06,-2.660
5.460E-06,-2.660
5.470E-06,-2.660
5.480E-06,-2.660
5.490E-06,-2.660
5.500E-06,-2.660
5.510E-06,-2.680
5.520E-06,-2.680
5.530E-06,-2.660
5.540E-06,-2.660
5.550E-06,-2.660
5.560E-06,-2.660
5.570E-06,-2.620
5.580E-06,-2.420
5.590E-06,-2.220
5.600E-06,-2.020
5.610E-06,-1.820
5.620E-06,-1.640
5.630E-06,-1.480
5.640E-06,-1.400
5.650E-06,-1.280
5.660E-06,-1.240
5.670E-06,-1.160
5.680E-06,-1.100
5.690E-06,-1.040
5.700E-06,-1.000
5.710E-06,-0.920
5.720E-06,-0.920
5.730E-06,-0.900
5.740E-06,-0.940
5.750E-06,-1.000
5.760E-06,-1.000
5.770E-06,-1.040
5.780E-06,-1.060
5.790E-06,-1.080
5.800E-06,-1.060
5.810E-06,-1.040
5.820E-06,-1.040
5.830E-06,-1.000
5.840E-06,-1.000
5.850E-06,-1.040
5.860E-06,-1.040
5.870E-06,-1.100
5.880E-06,-1.120
5.890E-06,-1.140
5.900E-06,-1.200
5.910E-06,-1.360
5.920E-06,-1.500
5.930E-06,-1.640
5.940E-06,-1.780
5.950E-06,-1.960
5.960E-06,-2.120
5.970E-06,-2.260
5.980E-06,-2.380
5.990E-06,-2.500
6.000E-06,-2.540
6.010E-06,-2.580
6.020E-06,-2.620
6.030E-06,-2.600
6.040E-06,-2.540
6.050E-06,-2.480
6.060E-06,-2.420
6.070E-06,-2.360
6.080E-06,-2.240
6.090E-06,-2.180
6.100E-06,-2.100
6.110E-06,-2.000
6.120E-06,-1.940
6.130E-06,-1.820
6.140E-06,-1.740
6.150E-06,-1.620
6.160E-06,-1.520
6.170E-06,-1.380
6.180E-06,-1.260
6.190E-06,-1.200
6.200E-06,-1.080
6.210E-06,-1.000
6.220E-06,-0.940
6.230E-06,-0.820
6.240E-06,-0.740
6.250E-06,-0.660
6.260E-06,-0.640
6.270E-06,-0.600
6.280E-06,-0.640
6.290E-06,-0.660
6.300E-06,-0.720
6.310E-06,-0.720
6.320E-06,-0.800
6.330E-06,-0.860
6.340E-06,-0.920
6.350E-06,-0.940
6.360E-06,-1.020
6.370E-06,-1.060
6.380E-06,-1.060
6.390E-06,-1.080
6.400E-06,-1.020
6.410E-06,-0.980
6.420E-06,-0.940
6.430E-06,-0.920
6.440E-06,-0.840
6.450E-06,-0.820
6.460E-06,-0.740
6.470E-06,-0.740
6.480E-06,-0.780
6.490E-06,-0.800
6.500E-06,-0.800
6.510E-06,-0.860
6.520E-06,-0.880
6.530E-06,-0.920
6.540E-06,-1.020
6.550E-06,-1.080
6.560E-06,-1.080
6.570E-06,-1.100
6.580E-06,-1.060
6.590E-06,-1.000
6.600E-06,-1.000
6.610E-06,-0.920
6.620E-06,-0.920
6.630E-06,-0.820
6.640E-06,-0.740
6.650E-06,-0.640
6.660E-06,-0.540
6.670E-06,-0.340
6.680E-06,-0.280
6.690E-06,-0.180
6.700E-06,-0.120
6.710E-06,-0.040
6.720E-06,0.020
6.730E-06,0.020
6.740E-06,0.020
6.750E-06,-0.080
6.760E-06,-0.200
6.770E-06,-0.340
6.780E-06,-0.480
6.790E-06,-0.680
6.800E-06,-0.840
6.810E-06,-1.000
6.820E-06,-1.080
6.830E-06,-1.140
6.840E-06,-1.240
6.850E-06,-1.260
6.860E-06,-1.280
6.870E-06,-1.340
6.880E-06,-1.300
6.890E-06,-1.260
6.900E-06,-1.240
6.910E-06,-1.160
6.920E-06,-1.120
6.930E-06,-1.100
6.940E-06,-1.040
6.950E-06,-1.000
6.960E-06,-0.980
6.970E-06,-0.940
6.980E-06,-0.920
6.990E-06,-0.860
7.000E-06,-0.840
7.010E-06,-0.800
7.020E-06,-0.760
7.030E-06,-0.720
7.040E-06,-0.660
7.050E-06,-0.640
7.060E-06,-0.580
7.070E-06,-0.500
7.080E-06,-0.480
7.090E-06,-0.500
7.100E-06,-0.440
7.110E-06,-0.420
7.120E-06,-0.360
7.130E-06,-0.320
7.140E-06,-0.280
7.150E-06,-0.220
7.160E-06,-0.240
7.170E-06,-0.220
7.180E-06,-0.180
7.190E-06,-0.200
7.200E-06,-0.220
7.210E-06,-0.240
7.220E-06,-0.260
7.230E-06,-0.280
7.240E-06,-0.300
7.250E-06,-0.320
7.260E-06,-0.320
7.270E-06,-0.340
7.280E-06,-0.320
7.290E-06,-0.320
7.300E-06,-0.320
7.310E-06,-0.240
7.320E-06,-0.240
7.330E-06,-0.200
7.340E-06,-0.180
7.350E-06,-0.120
7.360E-06,-0.060
7.370E-06,0.000
7.380E-06,0.020
7.390E-06,0.080
7.400E-06,0.160
7.410E-06,0.220
7.420E-06,0.240
7.430E-06,0.300
7.440E-06,0.300
7.450E-06,0.300
7.460E-06,0.260
7.470E-06,0.200
7.480E-06,0.120
7.490E-06,0.060
7.500E-06,0.000
7.510E-06,-0.020
7.520E-06,-0.100
7.530E-06,-0.100
7.540E-06,-0.140
7.550E-06,-0.180
7.560E-06,-0.260
7.570E-06,-0.260
7.580E-06,-0.320
7.590E-06,-0.360
7.600E-06,-0.420
7.610E-06,-0.520
7.620E-06,-0.640
7.630E-06,-0.680
7.640E-06,-0.720
7.650E-06,-0.720
7.660E-06,-0.740
7.670E-06,-0.740
7.680E-06,-0.740
7.690E-06,-0.760
7.700E-06,-0.740
7.710E-06,-0.720
7.720E-06,-0.720
7.730E-06,-0.700
7.740E-06,-0.700
7.750E-06,-0.580
7.760E-06,-0.540
7.770E-06,-0.500
7.780E-06,-0.460
7.790E-06,-0.420
7.800E-06,-0.380
7.810E-06,-0.320
7.820E-06,-0.260
7.830E-06,-0.200
7.840E-06,-0.120
7.850E-06,-0.060
7.860E-06,0.000
7.870E-06,0.060
7.880E-06,0.120
7.890E-06,0.160
7.900E-06,0.240
7.910E-06,0.240
7.920E-06,0.260
7.930E-06,0.300
7.940E-06,0.300
7.950E-06,0.300
7.960E-06,0.260
7.970E-06,0.240
7.980E-06,0.180
7.990E-06,0.120
8.000E-06,0.120
8.010E-06,0.100
8.020E-06,0.180
8.030E-06,0.200
8.040E-06,0.320
8.050E-06,0.400
8.060E-06,0.480
8.070E-06,0.560
8.080E-06,0.660
8.090E-06,0.740
8.100E-06,0.760
8.110E-06,0.760
8.120E-06,0.740
8.130E-06,0.680
8.140E-06,0.600
8.150E-06,0.480
8.160E-06,0.340
8.170E-06,0.300
8.180E-06,0.200
8.190E-06,0.160
8.200E-06,0.100
8.210E-06,0.080
8.220E-06,0.080
8.230E-06,0.120
8.240E-06,0.080
8.250E-06,0.060
8.260E-06,0.040
8.270E-06,-0.020
8.280E-06,-0.120
8.290E-06,-0.220
8.300E-06,-0.240
8.310E-06,-0.300
8.320E-06,-0.300
8.330E-06,-0.340
8.340E-06,-0.300
8.350E-06,-0.280
8.360E-06,-0.220
8.370E-06,-0.140
8.380E-06,-0.040
8.390E-06,0.100
8.400E-06,0.240
8.410E-06,0.340
8.420E-06,0.500
8.430E-06,0.560
8.440E-06,0.660
8.450E-06,0.660
8.460E-06,0.660
8.470E-06,0.660
8.480E-06,0.660
8.490E-06,0.620
8.500E-06,0.640
8.510E-06,0.660
8.520E-06,0.720
8.530E-06,0.800
8.540E-06,0.880
8.550E-06,0.940
8.560E-06,1.020
8.570E-06,1.060
8.580E-06,1.100
8.590E-06,1.120
8.600E-06,1.080
8.610E-06,1.040
8.620E-06,0.960
8.630E-06,0.880
8.640E-06,0.800
8.650E-06,0.660
8.660E-06,0.580
8.670E-06,0.500
8.680E-06,0.440
8.690E-06,0.400
8.700E-06,0.420
8.710E-06,0.420
8.720E-06,0.420
8.730E-06,0.380
8.740E-06,0.360
8.750E-06,0.380
8.760E-06,0.340
8.770E-06,0.360
8.780E-06,0.360
8.790E-06,0.340
8.800E-06,0.340
8.810E-06,0.320
8.820E-06,0.300
8.830E-06,0.280
8.840E-06,0.300
8.850E-06,0.240
8.860E-06,0.260
8.870E-06,0.220
8.880E-06,0.200
8.890E-06,0.260
8.900E-06,0.320
8.910E-06,0.360
8.920E-06,0.360
8.930E-06,0.400
8.940E-06,0.440
8.950E-06,0.520
8.960E-06,0.620
8.970E-06,0.740
8.980E-06,0.840
8.990E-06,0.920
9.000E-06,1.020
9.010E-06,1.160
9.020E-06,1.320
9.030E-06,1.460
9.040E-06,1.620
9.050E-06,1.740
9.060E-06,1.740
9.070E-06,1.760
9.080E-06,1.680
9.090E-06,1.600
9.100E-06,1.480
9.110E-06,1.380
9.120E-06,1.300
9.130E-06,1.240
9.140E-06,1.220
9.150E-06,1.280
9.160E-06,1.420
9.170E-06,1.540
9.180E-06,1.680
9.190E-06,1.800
9.200E-06,1.900
9.210E-06,2.020
9.220E-06,2.120
9.230E-06,2.160
9.240E-06,2.100
9.250E-06,2.080
9.260E-06,1.960
9.270E-06,1.860
9.280E-06,1.720
9.290E-06,1.620
9.300E-06,1.500
9.310E-06,1.400
9.320E-06,1.340
9.330E-06,1.340
9.340E-06,1.340
9.350E-06,1.240
9.360E-06,1.180
9.370E-06,1.120
9.380E-06,1.040
9.390E-06,0.960
9.400E-06,0.900
9.410E-06,0.820
9.420E-06,0.820
9.430E-06,0.780
9.440E-06,0.760
9.450E-06,0.780
9.460E-06,0.820
9.470E-06,0.820
9.480E-06,0.840
9.490E-06,0.880
9.500E-06,0.940
9.510E-06,0.940
9.520E-06,0.940
9.530E-06,0.940
9.540E-06,0.900
9.550E-06,0.840
9.560E-06,0.860
9.570E-06,0.840
9.580E-06,0.900
9.590E-06,0.960
9.600E-06,1.000
9.610E-06,1.020
9.620E-06,1.040
9.630E-06,1.060
9.640E-06,1.100
9.650E-06,1.160
9.660E-06,1.200
9.670E-06,1.240
