mediciones/Mediciones filtradas (saque las feas)/6-3/-5/WaveData53098.csv

#timebase=2000000(ps)
,#voltbase=100000(mv/100)
#size=4000
-2.300E-06,-0.008
-2.290E-06,-0.008
-2.280E-06,0.008
-2.270E-06,-0.004
-2.260E-06,0.024
-2.250E-06,0.012
-2.240E-06,0.012
-2.230E-06,0.008
-2.220E-06,0.004
-2.210E-06,0.016
-2.200E-06,0.004
-2.190E-06,0.020
-2.180E-06,0.024
-2.170E-06,0.040
-2.160E-06,0.032
-2.150E-06,0.072
-2.140E-06,0.036
-2.130E-06,0.072
-2.120E-06,0.056
-2.110E-06,0.008
-2.100E-06,-0.008
-2.090E-06,-0.064
-2.080E-06,-0.044
-2.070E-06,-0.024
-2.060E-06,0.012
-2.050E-06,0.024
-2.040E-06,0.012
-2.030E-06,0.000
-2.020E-06,-0.020
-2.010E-06,-0.008
-2.000E-06,-0.024
-1.990E-06,-0.008
-1.980E-06,0.028
-1.970E-06,0.012
-1.960E-06,0.068
-1.950E-06,0.080
-1.940E-06,0.060
-1.930E-06,-0.068
-1.920E-06,-0.128
-1.910E-06,-0.128
-1.900E-06,-0.064
-1.890E-06,0.036
-1.880E-06,0.032
-1.870E-06,0.064
-1.860E-06,0.044
-1.850E-06,0.000
-1.840E-06,-0.036
-1.830E-06,-0.068
-1.820E-06,-0.052
-1.810E-06,0.004
-1.800E-06,0.056
-1.790E-06,0.048
-1.780E-06,0.016
-1.770E-06,-0.008
-1.760E-06,-0.036
-1.750E-06,-0.016
-1.740E-06,0.004
-1.730E-06,0.020
-1.720E-06,0.020
-1.710E-06,0.000
-1.700E-06,0.004
-1.690E-06,-0.008
-1.680E-06,0.000
-1.670E-06,0.008
-1.660E-06,0.004
-1.650E-06,0.004
-1.640E-06,0.004
-1.630E-06,0.000
-1.620E-06,0.004
-1.610E-06,0.016
-1.600E-06,0.004
-1.590E-06,0.012
-1.580E-06,0.000
-1.570E-06,0.000
-1.560E-06,0.000
-1.550E-06,0.008
-1.540E-06,0.012
-1.530E-06,0.020
-1.520E-06,0.012
-1.510E-06,0.016
-1.500E-06,0.012
-1.490E-06,0.012
-1.480E-06,0.024
-1.470E-06,0.028
-1.460E-06,0.032
-1.450E-06,0.036
-1.440E-06,0.048
-1.430E-06,0.052
-1.420E-06,0.036
-1.410E-06,0.028
-1.400E-06,-0.012
-1.390E-06,-0.012
-1.380E-06,0.004
-1.370E-06,-0.004
-1.360E-06,0.000
-1.350E-06,-0.032
-1.340E-06,-0.056
-1.330E-06,-0.004
-1.320E-06,0.072
-1.310E-06,0.172
-1.300E-06,0.156
-1.290E-06,0.104
-1.280E-06,-0.148
-1.270E-06,-0.224
-1.260E-06,-0.312
-1.250E-06,-0.176
-1.240E-06,0.024
-1.230E-06,0.196
-1.220E-06,0.232
-1.210E-06,0.140
-1.200E-06,0.016
-1.190E-06,-0.152
-1.180E-06,-0.204
-1.170E-06,-0.100
-1.160E-06,0.040
-1.150E-06,0.124
-1.140E-06,0.104
-1.130E-06,0.068
-1.120E-06,-0.008
-1.110E-06,-0.072
-1.100E-06,-0.072
-1.090E-06,-0.024
-1.080E-06,-0.004
-1.070E-06,0.032
-1.060E-06,0.048
-1.050E-06,0.064
-1.040E-06,0.024
-1.030E-06,0.012
-1.020E-06,0.020
-1.010E-06,0.028
-1.000E-06,0.020
-9.900E-07,0.044
-9.800E-07,0.064
-9.700E-07,0.040
-9.600E-07,0.036
-9.500E-07,0.004
-9.400E-07,0.008
-9.300E-07,-0.072
-9.200E-07,-0.088
-9.100E-07,-0.104
-9.000E-07,-0.080
-8.900E-07,-0.016
-8.800E-07,0.056
-8.700E-07,0.088
-8.600E-07,0.044
-8.500E-07,-0.020
-8.400E-07,-0.108
-8.300E-07,-0.088
-8.200E-07,-0.064
-8.100E-07,0.036
-8.000E-07,0.048
-7.900E-07,0.052
-7.800E-07,0.028
-7.700E-07,0.008
-7.600E-07,-0.036
-7.500E-07,-0.036
-7.400E-07,0.012
-7.300E-07,0.012
-7.200E-07,0.008
-7.100E-07,-0.012
-7.000E-07,0.000
-6.900E-07,0.000
-6.800E-07,0.016
-6.700E-07,0.016
-6.600E-07,0.008
-6.500E-07,-0.008
-6.400E-07,-0.028
-6.300E-07,-0.008
-6.200E-07,0.008
-6.100E-07,0.024
-6.000E-07,0.016
-5.900E-07,0.012
-5.800E-07,-0.004
-5.700E-07,-0.008
-5.600E-07,-0.008
-5.500E-07,0.004
-5.400E-07,0.008
-5.300E-07,0.012
-5.200E-07,0.020
-5.100E-07,0.008
-5.000E-07,0.000
-4.900E-07,-0.008
-4.800E-07,0.000
-4.700E-07,0.008
-4.600E-07,0.008
-4.500E-07,0.004
-4.400E-07,0.020
-4.300E-07,0.012
-4.200E-07,0.008
-4.100E-07,0.016
-4.000E-07,0.008
-3.900E-07,0.008
-3.800E-07,0.008
-3.700E-07,0.016
-3.600E-07,0.024
-3.500E-07,0.028
-3.400E-07,0.028
-3.300E-07,0.036
-3.200E-07,0.036
-3.100E-07,0.040
-3.000E-07,0.044
-2.900E-07,0.052
-2.800E-07,0.056
-2.700E-07,0.032
-2.600E-07,0.048
-2.500E-07,0.024
-2.400E-07,0.012
-2.300E-07,0.000
-2.200E-07,0.000
-2.100E-07,-0.020
-2.000E-07,-0.004
-1.900E-07,-0.020
-1.800E-07,-0.004
-1.700E-07,0.028
-1.600E-07,0.044
-1.500E-07,0.060
-1.400E-07,0.052
-1.300E-07,0.040
-1.200E-07,0.036
-1.100E-07,0.020
-1.000E-07,0.040
-9.000E-08,0.024
-8.000E-08,0.060
-7.000E-08,0.004
-6.000E-08,-0.040
-5.000E-08,-0.268
-4.000E-08,-0.316
-3.000E-08,-0.288
-2.000E-08,-0.080
-1.000E-08,0.132
0.000E+00,0.384
1.000E-08,0.308
2.000E-08,0.060
3.000E-08,-0.124
4.000E-08,-0.252
5.000E-08,-0.236
6.000E-08,-0.060
7.000E-08,0.192
8.000E-08,0.224
9.000E-08,0.128
1.000E-07,-0.060
1.100E-07,-0.084
1.200E-07,-0.120
1.300E-07,-0.064
1.400E-07,0.076
1.500E-07,0.068
1.600E-07,0.016
1.700E-07,-0.084
1.800E-07,-0.088
1.900E-07,-0.056
2.000E-07,-0.008
2.100E-07,0.052
2.200E-07,0.060
2.300E-07,0.048
2.400E-07,-0.008
2.500E-07,-0.024
2.600E-07,-0.008
2.700E-07,0.004
2.800E-07,0.008
2.900E-07,0.028
3.000E-07,0.028
3.100E-07,0.012
3.200E-07,0.020
3.300E-07,0.016
3.400E-07,0.008
3.500E-07,-0.008
3.600E-07,0.000
3.700E-07,0.008
3.800E-07,0.024
3.900E-07,0.040
4.000E-07,0.088
4.100E-07,0.068
4.200E-07,0.088
4.300E-07,0.060
4.400E-07,0.036
4.500E-07,0.004
4.600E-07,-0.056
4.700E-07,-0.076
4.800E-07,-0.084
4.900E-07,-0.068
5.000E-07,-0.028
5.100E-07,0.028
5.200E-07,0.056
5.300E-07,0.024
5.400E-07,0.008
5.500E-07,-0.036
5.600E-07,-0.048
5.700E-07,-0.032
5.800E-07,0.024
5.900E-07,0.036
6.000E-07,0.032
6.100E-07,0.012
6.200E-07,0.000
6.300E-07,0.000
6.400E-07,0.004
6.500E-07,0.060
6.600E-07,0.060
6.700E-07,0.068
6.800E-07,0.056
6.900E-07,0.044
7.000E-07,0.056
7.100E-07,0.056
7.200E-07,0.020
7.300E-07,-0.040
7.400E-07,-0.044
7.500E-07,-0.092
7.600E-07,-0.060
7.700E-07,-0.016
7.800E-07,-0.004
7.900E-07,0.012
8.000E-07,0.060
8.100E-07,0.028
8.200E-07,0.004
8.300E-07,-0.040
8.400E-07,-0.012
8.500E-07,-0.020
8.600E-07,0.008
8.700E-07,0.052
8.800E-07,0.048
8.900E-07,0.092
9.000E-07,0.056
9.100E-07,0.092
9.200E-07,0.036
9.300E-07,0.032
9.400E-07,-0.024
9.500E-07,-0.032
9.600E-07,-0.128
9.700E-07,-0.076
9.800E-07,-0.052
9.900E-07,-0.016
1.000E-06,0.088
1.010E-06,0.060
1.020E-06,-0.004
1.030E-06,-0.100
1.040E-06,-0.120
1.050E-06,-0.084
1.060E-06,0.056
1.070E-06,0.080
1.080E-06,0.108
1.090E-06,0.072
1.100E-06,0.048
1.110E-06,0.036
1.120E-06,0.060
1.130E-06,0.104
1.140E-06,0.044
1.150E-06,-0.072
1.160E-06,-0.100
1.170E-06,-0.180
1.180E-06,-0.156
1.190E-06,-0.044
1.200E-06,0.116
1.210E-06,0.180
1.220E-06,0.088
1.230E-06,0.032
1.240E-06,-0.100
1.250E-06,-0.124
1.260E-06,-0.120
1.270E-06,-0.004
1.280E-06,0.024
1.290E-06,0.100
1.300E-06,-0.040
1.310E-06,0.020
1.320E-06,-0.036
1.330E-06,-0.084
1.340E-06,-0.112
1.350E-06,-0.040
1.360E-06,0.024
1.370E-06,0.072
1.380E-06,0.092
1.390E-06,-0.004
1.400E-06,-0.052
1.410E-06,-0.092
1.420E-06,-0.020
1.430E-06,0.004
1.440E-06,0.028
1.450E-06,0.024
1.460E-06,0.020
1.470E-06,-0.004
1.480E-06,-0.040
1.490E-06,-0.008
1.500E-06,-0.012
1.510E-06,0.008
1.520E-06,0.004
1.530E-06,0.036
1.540E-06,0.012
1.550E-06,0.000
1.560E-06,-0.004
1.570E-06,-0.008
1.580E-06,-0.012
1.590E-06,-0.004
1.600E-06,0.020
1.610E-06,0.028
1.620E-06,0.032
1.630E-06,0.008
1.640E-06,0.012
1.650E-06,0.004
1.660E-06,0.012
1.670E-06,0.036
1.680E-06,0.056
1.690E-06,0.052
1.700E-06,0.004
1.710E-06,0.004
1.720E-06,0.008
1.730E-06,-0.004
1.740E-06,0.036
1.750E-06,0.028
1.760E-06,0.036
1.770E-06,-0.004
1.780E-06,-0.024
1.790E-06,-0.040
1.800E-06,-0.052
1.810E-06,-0.020
1.820E-06,-0.008
1.830E-06,0.028
1.840E-06,0.048
1.850E-06,0.024
1.860E-06,0.024
1.870E-06,0.016
1.880E-06,0.020
1.890E-06,0.056
1.900E-06,0.076
1.910E-06,0.092
1.920E-06,0.064
1.930E-06,0.068
1.940E-06,0.064
1.950E-06,0.056
1.960E-06,0.048
1.970E-06,0.028
1.980E-06,0.044
1.990E-06,0.052
2.000E-06,0.056
2.010E-06,0.024
2.020E-06,0.012
2.030E-06,-0.076
2.040E-06,-0.132
2.050E-06,-0.160
2.060E-06,-0.148
2.070E-06,-0.092
2.080E-06,-0.008
2.090E-06,0.060
2.100E-06,0.048
2.110E-06,0.000
2.120E-06,-0.036
2.130E-06,-0.052
2.140E-06,-0.016
2.150E-06,0.004
2.160E-06,0.012
2.170E-06,0.040
2.180E-06,0.008
2.190E-06,-0.012
2.200E-06,-0.016
2.210E-06,-0.024
2.220E-06,0.000
2.230E-06,0.028
2.240E-06,0.024
2.250E-06,0.024
2.260E-06,0.048
2.270E-06,0.092
2.280E-06,0.096
2.290E-06,0.144
2.300E-06,0.020
2.310E-06,-0.044
2.320E-06,-0.192
2.330E-06,-0.160
2.340E-06,-0.172
2.350E-06,0.012
2.360E-06,0.096
2.370E-06,0.068
2.380E-06,0.000
2.390E-06,-0.056
2.400E-06,-0.024
2.410E-06,-0.060
2.420E-06,-0.012
2.430E-06,-0.004
2.440E-06,0.052
2.450E-06,0.032
2.460E-06,0.008
2.470E-06,-0.032
2.480E-06,-0.060
2.490E-06,-0.020
2.500E-06,-0.004
2.510E-06,0.064
2.520E-06,0.012
2.530E-06,0.028
2.540E-06,-0.024
2.550E-06,-0.020
2.560E-06,-0.020
2.570E-06,0.028
2.580E-06,0.036
2.590E-06,0.032
2.600E-06,0.072
2.610E-06,0.064
2.620E-06,0.052
2.630E-06,0.044
2.640E-06,0.072
2.650E-06,0.076
2.660E-06,0.096
2.670E-06,0.140
2.680E-06,0.108
2.690E-06,0.088
2.700E-06,0.020
2.710E-06,-0.004
2.720E-06,-0.072
2.730E-06,-0.080
2.740E-06,-0.072
2.750E-06,-0.032
2.760E-06,0.012
2.770E-06,0.004
2.780E-06,0.060
2.790E-06,0.024
2.800E-06,0.080
2.810E-06,0.088
2.820E-06,0.092
2.830E-06,0.092
2.840E-06,0.080
2.850E-06,0.052
2.860E-06,0.008
2.870E-06,-0.048
2.880E-06,-0.096
2.890E-06,-0.104
2.900E-06,-0.072
2.910E-06,0.000
2.920E-06,0.056
2.930E-06,0.104
2.940E-06,0.088
2.950E-06,0.072
2.960E-06,0.016
2.970E-06,-0.004
2.980E-06,-0.012
2.990E-06,-0.016
3.000E-06,0.020
3.010E-06,0.052
3.020E-06,0.064
3.030E-06,0.088
3.040E-06,0.120
3.050E-06,0.168
3.060E-06,0.024
3.070E-06,-0.416
3.080E-06,-0.508
3.090E-06,-0.512
3.100E-06,-0.416
3.110E-06,-0.132
3.120E-06,0.364
3.130E-06,0.540
3.140E-06,0.316
3.150E-06,-0.172
3.160E-06,-0.404
3.170E-06,-0.392
3.180E-06,-0.172
3.190E-06,0.200
3.200E-06,0.364
3.210E-06,0.264
3.220E-06,0.072
3.230E-06,-0.068
3.240E-06,-0.168
3.250E-06,-0.240
3.260E-06,-0.240
3.270E-06,-0.120
3.280E-06,0.032
3.290E-06,0.188
3.300E-06,0.160
3.310E-06,0.120
3.320E-06,0.016
3.330E-06,-0.132
3.340E-06,-0.116
3.350E-06,-0.088
3.360E-06,0.028
3.370E-06,0.056
3.380E-06,0.160
3.390E-06,0.092
3.400E-06,-0.004
3.410E-06,-0.068
3.420E-06,-0.056
3.430E-06,0.016
3.440E-06,0.040
3.450E-06,0.092
3.460E-06,0.076
3.470E-06,0.080
3.480E-06,0.040
3.490E-06,0.052
3.500E-06,0.064
3.510E-06,0.088
3.520E-06,0.120
3.530E-06,0.088
3.540E-06,0.008
3.550E-06,-0.088
3.560E-06,-0.136
3.570E-06,-0.188
3.580E-06,-0.120
3.590E-06,-0.036
3.600E-06,0.092
3.610E-06,0.040
3.620E-06,0.012
3.630E-06,-0.052
3.640E-06,-0.052
3.650E-06,-0.036
3.660E-06,0.008
3.670E-06,0.008
3.680E-06,0.040
3.690E-06,0.108
3.700E-06,0.096
3.710E-06,0.040
3.720E-06,-0.004
3.730E-06,0.012
3.740E-06,0.096
3.750E-06,0.128
3.760E-06,0.104
3.770E-06,0.092
3.780E-06,0.076
3.790E-06,0.068
3.800E-06,0.020
3.810E-06,0.028
3.820E-06,0.028
3.830E-06,0.044
3.840E-06,0.140
3.850E-06,0.160
3.860E-06,0.032
3.870E-06,-0.076
3.880E-06,-0.324
3.890E-06,-0.368
3.900E-06,-0.384
3.910E-06,-0.024
3.920E-06,0.152
3.930E-06,0.244
3.940E-06,0.152
3.950E-06,0.044
3.960E-06,-0.004
3.970E-06,-0.160
3.980E-06,0.044
3.990E-06,-0.124
4.000E-06,0.028
4.010E-06,-0.104
4.020E-06,-0.076
4.030E-06,-0.144
4.040E-06,-0.104
4.050E-06,0.072
4.060E-06,0.136
4.070E-06,0.212
4.080E-06,0.072
4.090E-06,-0.020
4.100E-06,-0.104
4.110E-06,-0.080
4.120E-06,-0.060
4.130E-06,-0.012
4.140E-06,0.048
4.150E-06,0.068
4.160E-06,0.092
4.170E-06,0.052
4.180E-06,0.008
4.190E-06,-0.056
4.200E-06,-0.044
4.210E-06,-0.032
4.220E-06,0.056
4.230E-06,0.104
4.240E-06,0.108
4.250E-06,0.072
4.260E-06,0.004
4.270E-06,-0.064
4.280E-06,-0.012
4.290E-06,-0.056
4.300E-06,0.032
4.310E-06,0.036
4.320E-06,0.068
4.330E-06,0.060
4.340E-06,0.016
4.350E-06,-0.008
4.360E-06,-0.040
4.370E-06,-0.036
4.380E-06,0.000
4.390E-06,0.024
4.400E-06,0.044
4.410E-06,0.060
4.420E-06,0.068
4.430E-06,0.036
4.440E-06,0.024
4.450E-06,0.024
4.460E-06,0.068
4.470E-06,0.096
4.480E-06,0.120
4.490E-06,0.108
4.500E-06,0.096
4.510E-06,0.088
4.520E-06,0.040
4.530E-06,0.024
4.540E-06,0.024
4.550E-06,0.032
4.560E-06,0.060
4.570E-06,0.020
4.580E-06,0.052
4.590E-06,0.044
4.600E-06,0.084
4.610E-06,0.132
4.620E-06,0.088
4.630E-06,0.056
4.640E-06,-0.012
4.650E-06,-0.084
4.660E-06,-0.116
4.670E-06,-0.012
4.680E-06,0.104
4.690E-06,0.164
4.700E-06,0.232
4.710E-06,0.188
4.720E-06,-0.268
4.730E-06,-0.508
4.740E-06,-0.508
4.750E-06,-0.508
4.760E-06,-0.260
4.770E-06,0.544
4.780E-06,0.544
4.790E-06,0.452
4.800E-06,0.100
4.810E-06,-0.108
4.820E-06,-0.224
4.830E-06,-0.244
4.840E-06,-0.084
4.850E-06,-0.060
4.860E-06,-0.124
4.870E-06,-0.124
4.880E-06,-0.188
4.890E-06,0.044
4.900E-06,0.028
4.910E-06,0.088
4.920E-06,0.044
4.930E-06,0.028
4.940E-06,-0.060
4.950E-06,-0.052
4.960E-06,0.052
4.970E-06,0.048
4.980E-06,-0.036
4.990E-06,-0.052
5.000E-06,0.000
5.010E-06,0.012
5.020E-06,0.036
5.030E-06,0.064
5.040E-06,0.048
5.050E-06,-0.016
5.060E-06,-0.020
5.070E-06,0.036
5.080E-06,0.052
5.090E-06,0.040
5.100E-06,0.032
5.110E-06,0.068
5.120E-06,0.052
5.130E-06,0.044
5.140E-06,0.092
5.150E-06,0.132
5.160E-06,0.124
5.170E-06,0.144
5.180E-06,0.108
5.190E-06,0.088
5.200E-06,0.076
5.210E-06,0.056
5.220E-06,0.048
5.230E-06,-0.012
5.240E-06,-0.116
5.250E-06,-0.148
5.260E-06,-0.176
5.270E-06,-0.184
5.280E-06,-0.172
5.290E-06,-0.044
5.300E-06,0.004
5.310E-06,0.004
5.320E-06,-0.036
5.330E-06,-0.032
5.340E-06,-0.072
5.350E-06,-0.056
5.360E-06,-0.004
5.370E-06,0.036
5.380E-06,0.068
5.390E-06,0.076
5.400E-06,0.080
5.410E-06,0.040
5.420E-06,0.008
5.430E-06,0.020
5.440E-06,0.080
5.450E-06,0.136
5.460E-06,0.108
5.470E-06,0.124
5.480E-06,0.084
5.490E-06,0.012
5.500E-06,-0.008
5.510E-06,0.004
5.520E-06,0.064
5.530E-06,0.120
5.540E-06,0.152
5.550E-06,0.156
5.560E-06,0.100
5.570E-06,0.056
5.580E-06,0.020
5.590E-06,0.024
5.600E-06,0.036
5.610E-06,0.060
5.620E-06,0.108
5.630E-06,0.096
5.640E-06,0.048
5.650E-06,-0.040
5.660E-06,-0.080
5.670E-06,-0.108
5.680E-06,-0.072
5.690E-06,-0.028
5.700E-06,0.008
5.710E-06,0.024
5.720E-06,0.048
5.730E-06,-0.004
5.740E-06,0.024
5.750E-06,-0.012
5.760E-06,0.024
5.770E-06,0.080
5.780E-06,0.148
5.790E-06,0.176
5.800E-06,0.172
5.810E-06,0.152
5.820E-06,0.108
5.830E-06,0.108
5.840E-06,0.124
5.850E-06,0.132
5.860E-06,0.136
5.870E-06,0.136
5.880E-06,0.100
5.890E-06,0.044
5.900E-06,-0.024
5.910E-06,-0.024
5.920E-06,0.024
5.930E-06,0.080
5.940E-06,0.188
5.950E-06,0.232
5.960E-06,0.208
5.970E-06,0.140
5.980E-06,0.060
5.990E-06,0.020
6.000E-06,0.028
6.010E-06,-0.028
6.020E-06,-0.280
6.030E-06,-0.288
6.040E-06,-0.512
6.050E-06,-0.512
6.060E-06,-0.512
6.070E-06,-0.072
6.080E-06,-0.052
6.090E-06,0.344
6.100E-06,0.340
6.110E-06,0.324
6.120E-06,0.016
6.130E-06,-0.240
6.140E-06,-0.156
6.150E-06,-0.116
6.160E-06,-0.012
6.170E-06,-0.056
6.180E-06,-0.092
6.190E-06,-0.124
6.200E-06,-0.228
6.210E-06,-0.140
6.220E-06,-0.172
6.230E-06,-0.028
6.240E-06,0.092
6.250E-06,-0.012
6.260E-06,-0.008
6.270E-06,-0.028
6.280E-06,0.040
6.290E-06,0.072
6.300E-06,0.108
6.310E-06,0.004
6.320E-06,0.060
6.330E-06,0.104
6.340E-06,0.116
6.350E-06,0.076
6.360E-06,0.080
6.370E-06,0.076
6.380E-06,0.120
6.390E-06,0.120
6.400E-06,0.100
6.410E-06,0.048
6.420E-06,0.056
6.430E-06,0.112
6.440E-06,0.108
6.450E-06,0.160
6.460E-06,0.104
6.470E-06,0.124
6.480E-06,0.096
6.490E-06,0.104
6.500E-06,0.124
6.510E-06,0.132
6.520E-06,0.172
6.530E-06,0.208
6.540E-06,0.232
6.550E-06,0.212
6.560E-06,0.168
6.570E-06,0.128
6.580E-06,0.120
6.590E-06,0.132
6.600E-06,0.160
6.610E-06,0.184
6.620E-06,0.188
6.630E-06,0.152
6.640E-06,0.108
6.650E-06,0.044
6.660E-06,0.020
6.670E-06,0.056
6.680E-06,0.120
6.690E-06,0.204
6.700E-06,0.212
6.710E-06,0.144
6.720E-06,0.048
6.730E-06,-0.024
6.740E-06,-0.032
6.750E-06,0.084
6.760E-06,0.188
6.770E-06,0.280
6.780E-06,0.192
6.790E-06,0.056
6.800E-06,-0.104
6.810E-06,-0.184
6.820E-06,-0.120
6.830E-06,-0.068
6.840E-06,0.052
6.850E-06,0.048
6.860E-06,0.028
6.870E-06,0.096
6.880E-06,0.124
6.890E-06,0.092
6.900E-06,-0.168
6.910E-06,-0.304
6.920E-06,-0.512
6.930E-06,-0.508
6.940E-06,-0.512
6.950E-06,-0.508
6.960E-06,-0.352
6.970E-06,-0.064
6.980E-06,0.060
6.990E-06,0.156
7.000E-06,0.124
7.010E-06,0.144
7.020E-06,0.024
7.030E-06,-0.076
7.040E-06,-0.072
7.050E-06,0.020
7.060E-06,0.248
7.070E-06,0.332
7.080E-06,0.340
7.090E-06,0.224
7.100E-06,0.140
7.110E-06,0.032
7.120E-06,0.044
7.130E-06,0.108
7.140E-06,0.196
7.150E-06,0.252
7.160E-06,0.296
7.170E-06,0.248
7.180E-06,0.168
7.190E-06,0.092
7.200E-06,0.064
7.210E-06,0.092
7.220E-06,0.144
7.230E-06,0.220
7.240E-06,0.244
7.250E-06,0.240
7.260E-06,0.196
7.270E-06,0.172
7.280E-06,0.136
7.290E-06,0.132
7.300E-06,0.156
7.310E-06,0.188
7.320E-06,0.208
7.330E-06,0.192
7.340E-06,0.176
7.350E-06,0.140
7.360E-06,0.132
7.370E-06,0.128
7.380E-06,0.152
7.390E-06,0.168
7.400E-06,0.180
7.410E-06,0.164
7.420E-06,0.128
7.430E-06,0.092
7.440E-06,0.052
7.450E-06,0.052
7.460E-06,0.096
7.470E-06,0.176
7.480E-06,0.220
7.490E-06,0.228
7.500E-06,0.172
7.510E-06,0.092
7.520E-06,0.028
7.530E-06,-0.008
7.540E-06,0.020
7.550E-06,0.072
7.560E-06,0.124
7.570E-06,0.136
7.580E-06,0.160
7.590E-06,0.160
7.600E-06,0.164
7.610E-06,0.160
7.620E-06,0.176
7.630E-06,0.168
7.640E-06,0.176
7.650E-06,0.172
7.660E-06,0.160
7.670E-06,0.156
7.680E-06,0.156
7.690E-06,0.156
7.700E-06,0.128
7.710E-06,0.136
7.720E-06,0.128
7.730E-06,0.136
7.740E-06,0.136
7.750E-06,0.144
7.760E-06,0.144
7.770E-06,0.152
7.780E-06,0.152
7.790E-06,0.160
7.800E-06,0.164
7.810E-06,0.164
7.820E-06,0.160
7.830E-06,0.160
7.840E-06,0.156
7.850E-06,0.168
7.860E-06,0.172
7.870E-06,0.176
7.880E-06,0.168
7.890E-06,0.172
7.900E-06,0.172
7.910E-06,0.168
7.920E-06,0.160
7.930E-06,0.152
7.940E-06,0.156
7.950E-06,0.152
7.960E-06,0.152
7.970E-06,0.152
7.980E-06,0.156
7.990E-06,0.164
8.000E-06,0.172
8.010E-06,0.164
8.020E-06,0.168
8.030E-06,0.160
8.040E-06,0.164
8.050E-06,0.156
8.060E-06,0.152
8.070E-06,0.148
8.080E-06,0.160
8.090E-06,0.164
8.100E-06,0.160
8.110E-06,0.160
8.120E-06,0.152
8.130E-06,0.156
8.140E-06,0.160
8.150E-06,0.164
8.160E-06,0.164
8.170E-06,0.160
8.180E-06,0.160
8.190E-06,0.152
8.200E-06,0.160
8.210E-06,0.160
8.220E-06,0.152
8.230E-06,0.152
8.240E-06,0.156
8.250E-06,0.160
8.260E-06,0.156
8.270E-06,0.156
8.280E-06,0.156
8.290E-06,0.156
8.300E-06,0.152
8.310E-06,0.148
8.320E-06,0.148
8.330E-06,0.156
8.340E-06,0.152
8.350E-06,0.152
8.360E-06,0.156
8.370E-06,0.156
8.380E-06,0.156
8.390E-06,0.160
8.400E-06,0.156
8.410E-06,0.144
8.420E-06,0.152
8.430E-06,0.144
8.440E-06,0.144
8.450E-06,0.144
8.460E-06,0.136
8.470E-06,0.144
8.480E-06,0.144
8.490E-06,0.152
8.500E-06,0.148
8.510E-06,0.152
8.520E-06,0.152
8.530E-06,0.144
8.540E-06,0.144
8.550E-06,0.152
8.560E-06,0.152
8.570E-06,0.144
8.580E-06,0.144
8.590E-06,0.144
8.600E-06,0.144
8.610E-06,0.144
8.620E-06,0.148
8.630E-06,0.148
8.640E-06,0.148
8.650E-06,0.148
8.660E-06,0.144
8.670E-06,0.144
8.680E-06,0.136
8.690E-06,0.136
8.700E-06,0.140
8.710E-06,0.140
8.720E-06,0.140
8.730E-06,0.140
8.740E-06,0.140
8.750E-06,0.144
8.760E-06,0.140
8.770E-06,0.148
8.780E-06,0.144
8.790E-06,0.144
8.800E-06,0.144
8.810E-06,0.140
8.820E-06,0.140
8.830E-06,0.140
8.840E-06,0.140
8.850E-06,0.144
8.860E-06,0.144
8.870E-06,0.140
8.880E-06,0.140
8.890E-06,0.136
8.900E-06,0.144
8.910E-06,0.136
8.920E-06,0.136
8.930E-06,0.144
8.940E-06,0.136
8.950E-06,0.136
8.960E-06,0.136
8.970E-06,0.136
8.980E-06,0.136
8.990E-06,0.136
9.000E-06,0.136
9.010E-06,0.136
9.020E-06,0.136
9.030E-06,0.136
9.040E-06,0.136
9.050E-06,0.136
9.060E-06,0.140
9.070E-06,0.136
9.080E-06,0.132
9.090E-06,0.132
9.100E-06,0.136
9.110E-06,0.140
9.120E-06,0.136
9.130E-06,0.128
9.140E-06,0.128
9.150E-06,0.124
9.160E-06,0.128
9.170E-06,0.128
9.180E-06,0.132
9.190E-06,0.132
9.200E-06,0.124
9.210E-06,0.120
9.220E-06,0.124
9.230E-06,0.128
9.240E-06,0.132
9.250E-06,0.132
9.260E-06,0.136
9.270E-06,0.132
9.280E-06,0.132
9.290E-06,0.132
9.300E-06,0.132
9.310E-06,0.128
9.320E-06,0.128
9.330E-06,0.124
9.340E-06,0.128
9.350E-06,0.124
9.360E-06,0.132
9.370E-06,0.132
9.380E-06,0.128
9.390E-06,0.128
9.400E-06,0.128
9.410E-06,0.124
9.420E-06,0.124
9.430E-06,0.120
9.440E-06,0.120
9.450E-06,0.128
9.460E-06,0.124
9.470E-06,0.128
9.480E-06,0.132
9.490E-06,0.132
9.500E-06,0.128
9.510E-06,0.132
9.520E-06,0.124
9.530E-06,0.124
9.540E-06,0.116
9.550E-06,0.120
9.560E-06,0.120
9.570E-06,0.124
9.580E-06,0.124
9.590E-06,0.124
9.600E-06,0.120
9.610E-06,0.120
9.620E-06,0.120
9.630E-06,0.120
9.640E-06,0.120
9.650E-06,0.112
9.660E-06,0.116
9.670E-06,0.116
9.680E-06,0.108
9.690E-06,0.108
9.700E-06,0.112
9.710E-06,0.112
9.720E-06,0.108
9.730E-06,0.112
9.740E-06,0.112
9.750E-06,0.112
9.760E-06,0.108
9.770E-06,0.116
9.780E-06,0.116
9.790E-06,0.112
9.800E-06,0.108
