mediciones/Mediciones filtradas (saque las feas)/6-3/-5/WaveData53121.csv

#timebase=2000000(ps)
,#voltbase=500000(mv/100)
#size=4000
-2.300E-06,0.180
-2.290E-06,0.100
-2.280E-06,0.180
-2.270E-06,0.260
-2.260E-06,0.260
-2.250E-06,0.260
-2.240E-06,0.160
-2.230E-06,0.180
-2.220E-06,0.180
-2.210E-06,0.180
-2.200E-06,0.220
-2.190E-06,0.160
-2.180E-06,0.160
-2.170E-06,0.140
-2.160E-06,0.120
-2.150E-06,0.100
-2.140E-06,0.120
-2.130E-06,0.100
-2.120E-06,0.120
-2.110E-06,0.060
-2.100E-06,0.060
-2.090E-06,0.040
-2.080E-06,0.060
-2.070E-06,0.060
-2.060E-06,0.080
-2.050E-06,0.100
-2.040E-06,0.060
-2.030E-06,0.080
-2.020E-06,0.040
-2.010E-06,0.060
-2.000E-06,0.100
-1.990E-06,0.080
-1.980E-06,0.060
-1.970E-06,0.100
-1.960E-06,0.100
-1.950E-06,0.100
-1.940E-06,0.080
-1.930E-06,0.140
-1.920E-06,0.140
-1.910E-06,0.080
-1.900E-06,0.120
-1.890E-06,0.100
-1.880E-06,0.160
-1.870E-06,0.160
-1.860E-06,0.240
-1.850E-06,0.260
-1.840E-06,0.260
-1.830E-06,0.260
-1.820E-06,0.260
-1.810E-06,0.260
-1.800E-06,0.340
-1.790E-06,0.420
-1.780E-06,0.400
-1.770E-06,0.420
-1.760E-06,0.400
-1.750E-06,0.380
-1.740E-06,0.340
-1.730E-06,0.340
-1.720E-06,0.380
-1.710E-06,0.340
-1.700E-06,0.320
-1.690E-06,0.320
-1.680E-06,0.240
-1.670E-06,0.300
-1.660E-06,0.240
-1.650E-06,0.220
-1.640E-06,0.220
-1.630E-06,0.100
-1.620E-06,0.160
-1.610E-06,0.160
-1.600E-06,0.160
-1.590E-06,0.160
-1.580E-06,0.160
-1.570E-06,0.100
-1.560E-06,0.040
-1.550E-06,0.060
-1.540E-06,0.100
-1.530E-06,0.060
-1.520E-06,0.080
-1.510E-06,0.060
-1.500E-06,0.040
-1.490E-06,0.000
-1.480E-06,0.020
-1.470E-06,0.100
-1.460E-06,0.140
-1.450E-06,0.180
-1.440E-06,0.200
-1.430E-06,0.260
-1.420E-06,0.320
-1.410E-06,0.360
-1.400E-06,0.440
-1.390E-06,0.420
-1.380E-06,0.400
-1.370E-06,0.420
-1.360E-06,0.460
-1.350E-06,0.500
-1.340E-06,0.460
-1.330E-06,0.520
-1.320E-06,0.500
-1.310E-06,0.500
-1.300E-06,0.460
-1.290E-06,0.460
-1.280E-06,0.480
-1.270E-06,0.460
-1.260E-06,0.420
-1.250E-06,0.380
-1.240E-06,0.260
-1.230E-06,0.180
-1.220E-06,0.120
-1.210E-06,0.080
-1.200E-06,0.100
-1.190E-06,0.100
-1.180E-06,0.040
-1.170E-06,0.020
-1.160E-06,-0.040
-1.150E-06,-0.020
-1.140E-06,0.020
-1.130E-06,0.060
-1.120E-06,0.140
-1.110E-06,0.120
-1.100E-06,0.120
-1.090E-06,0.100
-1.080E-06,0.180
-1.070E-06,0.200
-1.060E-06,0.320
-1.050E-06,0.380
-1.040E-06,0.320
-1.030E-06,0.340
-1.020E-06,0.320
-1.010E-06,0.380
-1.000E-06,0.380
-9.900E-07,0.420
-9.800E-07,0.420
-9.700E-07,0.380
-9.600E-07,0.480
-9.500E-07,0.440
-9.400E-07,0.540
-9.300E-07,0.640
-9.200E-07,0.640
-9.100E-07,0.580
-9.000E-07,0.500
-8.900E-07,0.440
-8.800E-07,0.380
-8.700E-07,0.380
-8.600E-07,0.460
-8.500E-07,0.400
-8.400E-07,0.340
-8.300E-07,0.300
-8.200E-07,0.300
-8.100E-07,0.320
-8.000E-07,0.340
-7.900E-07,0.420
-7.800E-07,0.400
-7.700E-07,0.360
-7.600E-07,0.380
-7.500E-07,0.420
-7.400E-07,0.480
-7.300E-07,0.480
-7.200E-07,0.480
-7.100E-07,0.500
-7.000E-07,0.500
-6.900E-07,0.520
-6.800E-07,0.540
-6.700E-07,0.600
-6.600E-07,0.600
-6.500E-07,0.560
-6.400E-07,0.540
-6.300E-07,0.520
-6.200E-07,0.460
-6.100E-07,0.460
-6.000E-07,0.420
-5.900E-07,0.360
-5.800E-07,0.320
-5.700E-07,0.300
-5.600E-07,0.360
-5.500E-07,0.340
-5.400E-07,0.440
-5.300E-07,0.500
-5.200E-07,0.480
-5.100E-07,0.400
-5.000E-07,0.340
-4.900E-07,0.340
-4.800E-07,0.340
-4.700E-07,0.380
-4.600E-07,0.500
-4.500E-07,0.520
-4.400E-07,0.540
-4.300E-07,0.460
-4.200E-07,0.400
-4.100E-07,0.340
-4.000E-07,0.320
-3.900E-07,0.440
-3.800E-07,0.480
-3.700E-07,0.500
-3.600E-07,0.520
-3.500E-07,0.500
-3.400E-07,0.500
-3.300E-07,0.580
-3.200E-07,0.540
-3.100E-07,0.620
-3.000E-07,0.540
-2.900E-07,0.500
-2.800E-07,0.480
-2.700E-07,0.780
-2.600E-07,0.780
-2.500E-07,0.740
-2.400E-07,0.900
-2.300E-07,0.720
-2.200E-07,0.780
-2.100E-07,0.800
-2.000E-07,0.840
-1.900E-07,1.040
-1.800E-07,1.060
-1.700E-07,1.060
-1.600E-07,1.000
-1.500E-07,1.100
-1.400E-07,0.980
-1.300E-07,1.180
-1.200E-07,1.300
-1.100E-07,1.400
-1.000E-07,1.740
-9.000E-08,1.360
-8.000E-08,1.480
-7.000E-08,1.580
-6.000E-08,1.280
-5.000E-08,1.400
-4.000E-08,1.020
-3.000E-08,1.000
-2.000E-08,1.100
-1.000E-08,0.520
0.000E+00,1.340
1.000E-08,0.800
2.000E-08,0.160
3.000E-08,1.680
4.000E-08,0.940
5.000E-08,-0.340
6.000E-08,-0.580
7.000E-08,-1.640
8.000E-08,-0.180
9.000E-08,0.920
1.000E-07,1.700
1.100E-07,2.540
1.200E-07,-0.260
1.300E-07,-0.560
1.400E-07,-0.660
1.500E-07,0.080
1.600E-07,1.140
1.700E-07,1.720
1.800E-07,1.620
1.900E-07,0.840
2.000E-07,-0.060
2.100E-07,0.220
2.200E-07,0.440
2.300E-07,0.860
2.400E-07,1.260
2.500E-07,1.020
2.600E-07,0.540
2.700E-07,0.020
2.800E-07,0.260
2.900E-07,0.440
3.000E-07,0.360
3.100E-07,0.200
3.200E-07,0.180
3.300E-07,0.200
3.400E-07,0.340
3.500E-07,0.680
3.600E-07,0.680
3.700E-07,0.800
3.800E-07,0.620
3.900E-07,0.860
4.000E-07,1.040
4.100E-07,0.960
4.200E-07,1.100
4.300E-07,1.120
4.400E-07,1.320
4.500E-07,1.340
4.600E-07,1.260
4.700E-07,1.160
4.800E-07,1.260
4.900E-07,0.840
5.000E-07,1.200
5.100E-07,0.760
5.200E-07,0.660
5.300E-07,0.420
5.400E-07,0.320
5.500E-07,0.580
5.600E-07,0.320
5.700E-07,0.800
5.800E-07,0.680
5.900E-07,0.640
6.000E-07,0.280
6.100E-07,0.100
6.200E-07,0.100
6.300E-07,-0.020
6.400E-07,-0.040
6.500E-07,0.320
6.600E-07,0.180
6.700E-07,0.060
6.800E-07,-0.240
6.900E-07,-0.260
7.000E-07,-0.200
7.100E-07,-0.120
7.200E-07,0.260
7.300E-07,0.020
7.400E-07,-0.100
7.500E-07,-0.140
7.600E-07,0.020
7.700E-07,0.260
7.800E-07,0.260
7.900E-07,0.260
8.000E-07,0.120
8.100E-07,0.020
8.200E-07,0.260
8.300E-07,0.500
8.400E-07,0.560
8.500E-07,0.540
8.600E-07,0.460
8.700E-07,0.480
8.800E-07,0.420
8.900E-07,0.420
9.000E-07,0.400
9.100E-07,0.420
9.200E-07,0.340
9.300E-07,0.240
9.400E-07,0.160
9.500E-07,0.040
9.600E-07,-0.040
9.700E-07,0.000
9.800E-07,0.100
9.900E-07,0.120
1.000E-06,0.220
1.010E-06,0.260
1.020E-06,0.280
1.030E-06,0.320
1.040E-06,0.320
1.050E-06,0.320
1.060E-06,0.400
1.070E-06,0.420
1.080E-06,0.580
1.090E-06,0.780
1.100E-06,0.820
1.110E-06,0.660
1.120E-06,0.320
1.130E-06,0.080
1.140E-06,-0.300
1.150E-06,-0.380
1.160E-06,-0.380
1.170E-06,-0.180
1.180E-06,-0.180
1.190E-06,-0.060
1.200E-06,-0.220
1.210E-06,-0.300
1.220E-06,-0.540
1.230E-06,-0.360
1.240E-06,-0.180
1.250E-06,0.140
1.260E-06,0.400
1.270E-06,0.180
1.280E-06,0.460
1.290E-06,0.140
1.300E-06,0.120
1.310E-06,0.420
1.320E-06,0.600
1.330E-06,0.760
1.340E-06,1.040
1.350E-06,0.980
1.360E-06,1.040
1.370E-06,1.000
1.380E-06,0.840
1.390E-06,0.940
1.400E-06,0.820
1.410E-06,0.440
1.420E-06,0.200
1.430E-06,0.160
1.440E-06,0.280
1.450E-06,0.180
1.460E-06,0.140
1.470E-06,-0.020
1.480E-06,-0.320
1.490E-06,-0.660
1.500E-06,-0.680
1.510E-06,-0.420
1.520E-06,-0.340
1.530E-06,-0.100
1.540E-06,-0.160
1.550E-06,-0.220
1.560E-06,-0.420
1.570E-06,-0.320
1.580E-06,-0.120
1.590E-06,-0.080
1.600E-06,0.040
1.610E-06,-0.040
1.620E-06,-0.060
1.630E-06,-0.140
1.640E-06,0.020
1.650E-06,0.200
1.660E-06,0.200
1.670E-06,0.120
1.680E-06,0.040
1.690E-06,0.040
1.700E-06,-0.020
1.710E-06,0.040
1.720E-06,0.160
1.730E-06,0.260
1.740E-06,0.300
1.750E-06,0.340
1.760E-06,0.400
1.770E-06,0.440
1.780E-06,0.400
1.790E-06,0.360
1.800E-06,0.340
1.810E-06,0.100
1.820E-06,0.040
1.830E-06,-0.060
1.840E-06,-0.180
1.850E-06,-0.360
1.860E-06,-0.400
1.870E-06,-0.500
1.880E-06,-0.680
1.890E-06,-0.540
1.900E-06,-0.660
1.910E-06,-0.680
1.920E-06,-1.100
1.930E-06,-0.880
1.940E-06,-0.940
1.950E-06,-1.060
1.960E-06,-0.560
1.970E-06,-0.580
1.980E-06,-0.260
1.990E-06,-0.240
2.000E-06,-0.260
2.010E-06,-0.080
2.020E-06,-0.040
2.030E-06,0.040
2.040E-06,0.220
2.050E-06,0.220
2.060E-06,0.200
2.070E-06,0.160
2.080E-06,0.180
2.090E-06,0.160
2.100E-06,0.060
2.110E-06,0.200
2.120E-06,0.360
2.130E-06,0.420
2.140E-06,0.120
2.150E-06,0.580
2.160E-06,0.320
2.170E-06,-0.500
2.180E-06,-0.380
2.190E-06,-0.140
2.200E-06,0.560
2.210E-06,0.280
2.220E-06,0.520
2.230E-06,0.240
2.240E-06,-0.540
2.250E-06,-0.400
2.260E-06,-0.020
2.270E-06,0.340
2.280E-06,0.000
2.290E-06,-0.540
2.300E-06,-0.440
2.310E-06,-0.340
2.320E-06,-0.380
2.330E-06,-0.220
2.340E-06,-0.200
2.350E-06,-0.160
2.360E-06,0.040
2.370E-06,-0.020
2.380E-06,0.280
2.390E-06,0.700
2.400E-06,0.640
2.410E-06,0.640
2.420E-06,0.200
2.430E-06,-0.140
2.440E-06,-0.080
2.450E-06,0.140
2.460E-06,0.760
2.470E-06,0.940
2.480E-06,0.880
2.490E-06,0.340
2.500E-06,0.120
2.510E-06,-0.200
2.520E-06,-0.080
2.530E-06,-0.120
2.540E-06,0.140
2.550E-06,0.100
2.560E-06,-0.060
2.570E-06,-0.160
2.580E-06,-0.560
2.590E-06,-0.620
2.600E-06,-0.440
2.610E-06,-0.240
2.620E-06,-0.160
2.630E-06,0.040
2.640E-06,0.080
2.650E-06,0.360
2.660E-06,0.240
2.670E-06,0.380
2.680E-06,0.420
2.690E-06,0.360
2.700E-06,0.440
2.710E-06,0.520
2.720E-06,0.460
2.730E-06,0.260
2.740E-06,-0.020
2.750E-06,-0.240
2.760E-06,-0.280
2.770E-06,-0.560
2.780E-06,-0.700
2.790E-06,-1.040
2.800E-06,-1.440
2.810E-06,-1.760
2.820E-06,-1.920
2.830E-06,-2.020
2.840E-06,-2.140
2.850E-06,-2.300
2.860E-06,-2.200
2.870E-06,-2.140
2.880E-06,-2.000
2.890E-06,-1.880
2.900E-06,-1.780
2.910E-06,-1.700
2.920E-06,-1.520
2.930E-06,-1.360
2.940E-06,-1.120
2.950E-06,-1.060
2.960E-06,-0.980
2.970E-06,-0.820
2.980E-06,-0.640
2.990E-06,-0.400
3.000E-06,-0.320
3.010E-06,-0.280
3.020E-06,-0.340
3.030E-06,-0.400
3.040E-06,-0.580
3.050E-06,-0.780
3.060E-06,-1.180
3.070E-06,-1.580
3.080E-06,-1.960
3.090E-06,-2.360
3.100E-06,-2.660
3.110E-06,-2.660
3.120E-06,-2.660
3.130E-06,-2.680
3.140E-06,-2.660
3.150E-06,-2.660
3.160E-06,-2.640
3.170E-06,-2.660
3.180E-06,-2.660
3.190E-06,-2.660
3.200E-06,-2.660
3.210E-06,-2.660
3.220E-06,-2.660
3.230E-06,-2.660
3.240E-06,-2.660
3.250E-06,-2.660
3.260E-06,-2.660
3.270E-06,-2.660
3.280E-06,-2.640
3.290E-06,-2.640
3.300E-06,-2.660
3.310E-06,-2.660
3.320E-06,-2.660
3.330E-06,-2.660
3.340E-06,-2.660
3.350E-06,-2.680
3.360E-06,-2.660
3.370E-06,-2.660
3.380E-06,-2.660
3.390E-06,-2.660
3.400E-06,-2.660
3.410E-06,-2.640
3.420E-06,-2.640
3.430E-06,-2.660
3.440E-06,-2.660
3.450E-06,-2.660
3.460E-06,-2.660
3.470E-06,-2.660
3.480E-06,-2.660
3.490E-06,-2.660
3.500E-06,-2.660
3.510E-06,-2.660
3.520E-06,-2.660
3.530E-06,-2.660
3.540E-06,-2.660
3.550E-06,-2.640
3.560E-06,-2.640
3.570E-06,-2.380
3.580E-06,-1.920
3.590E-06,-1.880
3.600E-06,-2.040
3.610E-06,-2.420
3.620E-06,-2.640
3.630E-06,-2.660
3.640E-06,-2.660
3.650E-06,-2.580
3.660E-06,-2.480
3.670E-06,-2.360
3.680E-06,-2.520
3.690E-06,-2.640
3.700E-06,-2.680
3.710E-06,-2.680
3.720E-06,-2.660
3.730E-06,-2.660
3.740E-06,-2.660
3.750E-06,-2.660
3.760E-06,-2.660
3.770E-06,-2.660
3.780E-06,-2.660
3.790E-06,-2.660
3.800E-06,-2.660
3.810E-06,-2.640
3.820E-06,-2.660
3.830E-06,-2.660
3.840E-06,-2.660
3.850E-06,-2.640
3.860E-06,-2.640
3.870E-06,-2.660
3.880E-06,-2.660
3.890E-06,-2.660
3.900E-06,-2.660
3.910E-06,-2.680
3.920E-06,-2.660
3.930E-06,-2.660
3.940E-06,-2.660
3.950E-06,-2.680
3.960E-06,-2.680
3.970E-06,-2.660
3.980E-06,-2.660
3.990E-06,-2.640
4.000E-06,-2.640
4.010E-06,-2.640
4.020E-06,-2.640
4.030E-06,-2.660
4.040E-06,-2.660
4.050E-06,-2.680
4.060E-06,-2.680
4.070E-06,-2.660
4.080E-06,-2.660
4.090E-06,-2.660
4.100E-06,-2.660
4.110E-06,-2.660
4.120E-06,-2.660
4.130E-06,-2.660
4.140E-06,-2.660
4.150E-06,-2.660
4.160E-06,-2.660
4.170E-06,-2.660
4.180E-06,-2.660
4.190E-06,-2.660
4.200E-06,-2.660
4.210E-06,-2.680
4.220E-06,-2.680
4.230E-06,-2.660
4.240E-06,-2.660
4.250E-06,-2.660
4.260E-06,-2.660
4.270E-06,-2.640
4.280E-06,-2.640
4.290E-06,-2.660
4.300E-06,-2.660
4.310E-06,-2.680
4.320E-06,-2.660
4.330E-06,-2.660
4.340E-06,-2.640
4.350E-06,-2.640
4.360E-06,-2.640
4.370E-06,-2.640
4.380E-06,-2.640
4.390E-06,-2.640
4.400E-06,-2.640
4.410E-06,-2.660
4.420E-06,-2.660
4.430E-06,-2.660
4.440E-06,-2.640
4.450E-06,-2.640
4.460E-06,-2.660
4.470E-06,-2.660
4.480E-06,-2.660
4.490E-06,-2.660
4.500E-06,-2.640
4.510E-06,-2.640
4.520E-06,-2.660
4.530E-06,-2.660
4.540E-06,-2.660
4.550E-06,-2.660
4.560E-06,-2.660
4.570E-06,-2.660
4.580E-06,-2.660
4.590E-06,-2.660
4.600E-06,-2.660
4.610E-06,-2.660
4.620E-06,-2.660
4.630E-06,-2.660
4.640E-06,-2.660
4.650E-06,-2.640
4.660E-06,-2.640
4.670E-06,-2.660
4.680E-06,-2.660
4.690E-06,-2.660
4.700E-06,-2.660
4.710E-06,-2.640
4.720E-06,-2.660
4.730E-06,-2.660
4.740E-06,-2.660
4.750E-06,-2.660
4.760E-06,-2.660
4.770E-06,-2.680
4.780E-06,-2.660
4.790E-06,-2.660
4.800E-06,-2.660
4.810E-06,-2.660
4.820E-06,-2.660
4.830E-06,-2.660
4.840E-06,-2.660
4.850E-06,-2.660
4.860E-06,-2.600
4.870E-06,-2.460
4.880E-06,-2.340
4.890E-06,-2.200
4.900E-06,-2.120
4.910E-06,-2.040
4.920E-06,-1.980
4.930E-06,-1.960
4.940E-06,-1.940
4.950E-06,-1.920
4.960E-06,-1.880
4.970E-06,-1.900
4.980E-06,-1.900
4.990E-06,-1.920
5.000E-06,-1.880
5.010E-06,-1.840
5.020E-06,-1.820
5.030E-06,-1.800
5.040E-06,-1.800
5.050E-06,-1.700
5.060E-06,-1.620
5.070E-06,-1.500
5.080E-06,-1.360
5.090E-06,-1.240
5.100E-06,-1.100
5.110E-06,-0.960
5.120E-06,-0.880
5.130E-06,-0.880
5.140E-06,-0.920
5.150E-06,-1.020
5.160E-06,-1.140
5.170E-06,-1.180
5.180E-06,-1.220
5.190E-06,-1.280
5.200E-06,-1.460
5.210E-06,-1.540
5.220E-06,-1.720
5.230E-06,-1.820
5.240E-06,-2.040
5.250E-06,-2.100
5.260E-06,-2.180
5.270E-06,-2.280
5.280E-06,-2.320
5.290E-06,-2.360
5.300E-06,-2.420
5.310E-06,-2.400
5.320E-06,-2.420
5.330E-06,-2.340
5.340E-06,-2.280
5.350E-06,-2.200
5.360E-06,-2.120
5.370E-06,-1.960
5.380E-06,-1.840
5.390E-06,-1.680
5.400E-06,-1.540
5.410E-06,-1.380
5.420E-06,-1.340
5.430E-06,-1.240
5.440E-06,-1.140
5.450E-06,-1.100
5.460E-06,-1.020
5.470E-06,-0.900
5.480E-06,-0.780
5.490E-06,-0.660
5.500E-06,-0.600
5.510E-06,-0.480
5.520E-06,-0.380
5.530E-06,-0.240
5.540E-06,-0.060
5.550E-06,0.040
5.560E-06,0.220
5.570E-06,0.320
5.580E-06,0.320
5.590E-06,0.340
5.600E-06,0.240
5.610E-06,0.120
5.620E-06,-0.020
5.630E-06,-0.120
5.640E-06,-0.240
5.650E-06,-0.380
5.660E-06,-0.540
5.670E-06,-0.680
5.680E-06,-0.780
5.690E-06,-0.880
5.700E-06,-0.920
5.710E-06,-0.980
5.720E-06,-1.020
5.730E-06,-1.040
5.740E-06,-1.020
5.750E-06,-1.040
5.760E-06,-1.060
5.770E-06,-1.100
5.780E-06,-1.200
5.790E-06,-1.280
5.800E-06,-1.380
5.810E-06,-1.420
5.820E-06,-1.460
5.830E-06,-1.520
5.840E-06,-1.560
5.850E-06,-1.580
5.860E-06,-1.600
5.870E-06,-1.600
5.880E-06,-1.540
5.890E-06,-1.480
5.900E-06,-1.360
5.910E-06,-1.220
5.920E-06,-1.040
5.930E-06,-0.940
5.940E-06,-0.800
5.950E-06,-0.660
5.960E-06,-0.500
5.970E-06,-0.380
5.980E-06,-0.220
5.990E-06,-0.080
6.000E-06,0.000
6.010E-06,0.080
6.020E-06,0.120
6.030E-06,0.080
6.040E-06,0.080
6.050E-06,-0.020
6.060E-06,-0.020
6.070E-06,-0.180
6.080E-06,-0.320
6.090E-06,-0.400
6.100E-06,-0.580
6.110E-06,-0.680
6.120E-06,-0.780
6.130E-06,-0.840
6.140E-06,-0.840
6.150E-06,-0.860
6.160E-06,-0.820
6.170E-06,-0.860
6.180E-06,-0.860
6.190E-06,-0.820
6.200E-06,-0.820
6.210E-06,-0.800
6.220E-06,-0.780
6.230E-06,-0.720
6.240E-06,-0.660
6.250E-06,-0.600
6.260E-06,-0.540
6.270E-06,-0.520
6.280E-06,-0.540
6.290E-06,-0.540
6.300E-06,-0.580
6.310E-06,-0.680
6.320E-06,-0.660
6.330E-06,-0.680
6.340E-06,-0.780
6.350E-06,-0.820
6.360E-06,-0.860
6.370E-06,-0.860
6.380E-06,-0.840
6.390E-06,-0.840
6.400E-06,-0.820
6.410E-06,-0.800
6.420E-06,-0.780
6.430E-06,-0.700
6.440E-06,-0.700
6.450E-06,-0.660
6.460E-06,-0.620
6.470E-06,-0.600
6.480E-06,-0.520
6.490E-06,-0.480
6.500E-06,-0.420
6.510E-06,-0.320
6.520E-06,-0.260
6.530E-06,-0.160
6.540E-06,-0.040
6.550E-06,0.020
6.560E-06,0.060
6.570E-06,0.080
6.580E-06,0.160
6.590E-06,0.260
6.600E-06,0.360
6.610E-06,0.500
6.620E-06,0.600
6.630E-06,0.680
6.640E-06,0.700
6.650E-06,0.700
6.660E-06,0.640
6.670E-06,0.580
6.680E-06,0.540
6.690E-06,0.480
6.700E-06,0.420
6.710E-06,0.460
6.720E-06,0.520
6.730E-06,0.560
6.740E-06,0.620
6.750E-06,0.680
6.760E-06,0.680
6.770E-06,0.680
6.780E-06,0.660
6.790E-06,0.620
6.800E-06,0.540
6.810E-06,0.460
6.820E-06,0.340
6.830E-06,0.220
6.840E-06,0.020
6.850E-06,-0.120
6.860E-06,-0.260
6.870E-06,-0.340
6.880E-06,-0.460
6.890E-06,-0.540
6.900E-06,-0.560
6.910E-06,-0.560
6.920E-06,-0.580
6.930E-06,-0.540
6.940E-06,-0.500
6.950E-06,-0.500
6.960E-06,-0.480
6.970E-06,-0.460
6.980E-06,-0.500
6.990E-06,-0.560
7.000E-06,-0.640
7.010E-06,-0.760
7.020E-06,-0.860
7.030E-06,-0.940
7.040E-06,-1.000
7.050E-06,-0.960
7.060E-06,-0.900
7.070E-06,-0.760
7.080E-06,-0.660
7.090E-06,-0.520
7.100E-06,-0.360
7.110E-06,-0.200
7.120E-06,-0.020
7.130E-06,0.180
7.140E-06,0.360
7.150E-06,0.560
7.160E-06,0.700
7.170E-06,0.780
7.180E-06,0.780
7.190E-06,0.760
7.200E-06,0.700
7.210E-06,0.600
7.220E-06,0.580
7.230E-06,0.520
7.240E-06,0.500
7.250E-06,0.540
7.260E-06,0.580
7.270E-06,0.660
7.280E-06,0.780
7.290E-06,0.940
7.300E-06,1.040
7.310E-06,1.200
7.320E-06,1.280
7.330E-06,1.360
7.340E-06,1.340
7.350E-06,1.380
7.360E-06,1.360
7.370E-06,1.320
7.380E-06,1.200
7.390E-06,1.060
7.400E-06,0.920
7.410E-06,0.740
7.420E-06,0.480
7.430E-06,0.260
7.440E-06,0.020
7.450E-06,-0.220
7.460E-06,-0.380
7.470E-06,-0.600
7.480E-06,-0.680
7.490E-06,-0.680
7.500E-06,-0.640
7.510E-06,-0.520
7.520E-06,-0.360
7.530E-06,-0.180
7.540E-06,-0.100
7.550E-06,0.000
7.560E-06,0.100
7.570E-06,0.100
7.580E-06,0.120
7.590E-06,0.100
7.600E-06,0.040
7.610E-06,0.020
7.620E-06,0.040
7.630E-06,0.040
7.640E-06,0.100
7.650E-06,0.120
7.660E-06,0.160
7.670E-06,0.220
7.680E-06,0.220
7.690E-06,0.240
7.700E-06,0.200
7.710E-06,0.260
7.720E-06,0.280
7.730E-06,0.340
7.740E-06,0.420
7.750E-06,0.500
7.760E-06,0.600
7.770E-06,0.680
7.780E-06,0.820
7.790E-06,0.940
7.800E-06,1.000
7.810E-06,1.080
7.820E-06,1.120
7.830E-06,1.200
7.840E-06,1.260
7.850E-06,1.280
7.860E-06,1.340
7.870E-06,1.400
7.880E-06,1.400
7.890E-06,1.400
7.900E-06,1.420
7.910E-06,1.420
7.920E-06,1.420
7.930E-06,1.340
7.940E-06,1.340
7.950E-06,1.320
7.960E-06,1.220
7.970E-06,1.180
7.980E-06,1.100
7.990E-06,1.020
8.000E-06,0.940
8.010E-06,0.940
8.020E-06,0.980
8.030E-06,1.020
8.040E-06,1.080
8.050E-06,1.200
8.060E-06,1.320
8.070E-06,1.360
8.080E-06,1.480
8.090E-06,1.520
8.100E-06,1.560
8.110E-06,1.520
8.120E-06,1.480
8.130E-06,1.440
8.140E-06,1.400
8.150E-06,1.320
8.160E-06,1.200
8.170E-06,1.120
8.180E-06,1.040
8.190E-06,0.920
8.200E-06,0.760
8.210E-06,0.600
8.220E-06,0.380
8.230E-06,0.180
8.240E-06,0.020
8.250E-06,-0.160
8.260E-06,-0.280
8.270E-06,-0.340
8.280E-06,-0.340
8.290E-06,-0.240
8.300E-06,-0.160
8.310E-06,0.020
8.320E-06,0.200
8.330E-06,0.340
8.340E-06,0.440
8.350E-06,0.560
8.360E-06,0.640
8.370E-06,0.700
8.380E-06,0.780
8.390E-06,0.840
8.400E-06,0.860
8.410E-06,0.920
8.420E-06,0.960
8.430E-06,0.920
8.440E-06,0.960
8.450E-06,0.980
8.460E-06,1.020
8.470E-06,1.100
8.480E-06,1.200
8.490E-06,1.340
8.500E-06,1.440
8.510E-06,1.560
8.520E-06,1.660
8.530E-06,1.720
8.540E-06,1.740
8.550E-06,1.760
8.560E-06,1.780
8.570E-06,1.840
8.580E-06,1.860
8.590E-06,1.900
8.600E-06,1.960
8.610E-06,1.980
8.620E-06,2.020
8.630E-06,2.020
8.640E-06,2.020
8.650E-06,1.940
8.660E-06,1.860
8.670E-06,1.780
8.680E-06,1.720
8.690E-06,1.620
8.700E-06,1.580
8.710E-06,1.520
8.720E-06,1.460
8.730E-06,1.440
8.740E-06,1.420
8.750E-06,1.460
8.760E-06,1.500
8.770E-06,1.520
8.780E-06,1.540
8.790E-06,1.560
8.800E-06,1.500
8.810E-06,1.500
8.820E-06,1.440
8.830E-06,1.360
8.840E-06,1.340
8.850E-06,1.300
8.860E-06,1.260
8.870E-06,1.220
8.880E-06,1.240
8.890E-06,1.240
8.900E-06,1.180
8.910E-06,1.180
8.920E-06,1.100
8.930E-06,1.060
8.940E-06,1.000
8.950E-06,1.000
8.960E-06,1.000
8.970E-06,0.940
8.980E-06,0.960
8.990E-06,0.980
9.000E-06,1.000
9.010E-06,1.040
9.020E-06,1.140
9.030E-06,1.280
9.040E-06,1.400
9.050E-06,1.560
9.060E-06,1.760
9.070E-06,1.940
9.080E-06,2.200
9.090E-06,2.500
9.100E-06,2.760
9.110E-06,2.780
9.120E-06,2.760
9.130E-06,2.780
9.140E-06,2.760
9.150E-06,2.740
9.160E-06,2.760
9.170E-06,2.780
9.180E-06,2.760
9.190E-06,2.740
9.200E-06,2.760
9.210E-06,2.780
9.220E-06,2.760
9.230E-06,2.780
9.240E-06,2.760
9.250E-06,2.760
9.260E-06,2.740
9.270E-06,2.760
9.280E-06,2.760
9.290E-06,2.760
9.300E-06,2.760
9.310E-06,2.780
9.320E-06,2.760
9.330E-06,2.740
9.340E-06,2.760
9.350E-06,2.760
9.360E-06,2.760
9.370E-06,2.740
9.380E-06,2.760
9.390E-06,2.760
9.400E-06,2.780
9.410E-06,2.760
9.420E-06,2.760
9.430E-06,2.760
9.440E-06,2.760
9.450E-06,2.760
9.460E-06,2.740
9.470E-06,2.760
9.480E-06,2.760
9.490E-06,2.740
9.500E-06,2.760
9.510E-06,2.760
9.520E-06,2.760
9.530E-06,2.760
9.540E-06,2.780
9.550E-06,2.760
9.560E-06,2.740
9.570E-06,2.760
9.580E-06,2.780
9.590E-06,2.760
9.600E-06,2.780
9.610E-06,2.760
9.620E-06,2.760
9.630E-06,2.760
9.640E-06,2.760
9.650E-06,2.760
9.660E-06,2.760
9.670E-06,2.760
9.680E-06,2.760
9.690E-06,2.760
