mediciones/Mediciones filtradas (saque las feas)/6-3/-5/WaveData53107.csv

#timebase=2000000(ps)
,#voltbase=500000(mv/100)
#size=4000
-2.300E-06,0.120
-2.290E-06,0.140
-2.280E-06,0.140
-2.270E-06,0.120
-2.260E-06,0.160
-2.250E-06,0.220
-2.240E-06,0.260
-2.230E-06,0.220
-2.220E-06,0.200
-2.210E-06,0.220
-2.200E-06,0.320
-2.190E-06,0.360
-2.180E-06,0.440
-2.170E-06,0.460
-2.160E-06,0.420
-2.150E-06,0.440
-2.140E-06,0.380
-2.130E-06,0.260
-2.120E-06,0.260
-2.110E-06,0.240
-2.100E-06,0.140
-2.090E-06,0.100
-2.080E-06,0.160
-2.070E-06,0.240
-2.060E-06,0.340
-2.050E-06,0.520
-2.040E-06,0.580
-2.030E-06,0.560
-2.020E-06,0.360
-2.010E-06,0.440
-2.000E-06,0.320
-1.990E-06,0.360
-1.980E-06,0.420
-1.970E-06,0.460
-1.960E-06,0.480
-1.950E-06,0.480
-1.940E-06,0.420
-1.930E-06,0.440
-1.920E-06,0.500
-1.910E-06,0.620
-1.900E-06,0.760
-1.890E-06,0.800
-1.880E-06,0.820
-1.870E-06,0.820
-1.860E-06,0.800
-1.850E-06,0.780
-1.840E-06,0.700
-1.830E-06,0.660
-1.820E-06,0.640
-1.810E-06,0.680
-1.800E-06,0.680
-1.790E-06,0.680
-1.780E-06,0.660
-1.770E-06,0.620
-1.760E-06,0.540
-1.750E-06,0.480
-1.740E-06,0.380
-1.730E-06,0.320
-1.720E-06,0.280
-1.710E-06,0.260
-1.700E-06,0.240
-1.690E-06,0.200
-1.680E-06,0.300
-1.670E-06,0.260
-1.660E-06,0.340
-1.650E-06,0.320
-1.640E-06,0.360
-1.630E-06,0.380
-1.620E-06,0.360
-1.610E-06,0.480
-1.600E-06,0.360
-1.590E-06,0.420
-1.580E-06,0.320
-1.570E-06,0.140
-1.560E-06,0.080
-1.550E-06,0.060
-1.540E-06,0.300
-1.530E-06,0.420
-1.520E-06,0.560
-1.510E-06,0.700
-1.500E-06,0.620
-1.490E-06,0.560
-1.480E-06,0.500
-1.470E-06,0.540
-1.460E-06,0.640
-1.450E-06,0.740
-1.440E-06,0.820
-1.430E-06,0.760
-1.420E-06,0.720
-1.410E-06,0.680
-1.400E-06,0.780
-1.390E-06,0.840
-1.380E-06,0.880
-1.370E-06,0.920
-1.360E-06,0.900
-1.350E-06,0.860
-1.340E-06,0.760
-1.330E-06,0.740
-1.320E-06,0.620
-1.310E-06,0.580
-1.300E-06,0.580
-1.290E-06,0.580
-1.280E-06,0.560
-1.270E-06,0.560
-1.260E-06,0.580
-1.250E-06,0.540
-1.240E-06,0.480
-1.230E-06,0.460
-1.220E-06,0.320
-1.210E-06,0.240
-1.200E-06,0.060
-1.190E-06,-0.040
-1.180E-06,-0.080
-1.170E-06,-0.080
-1.160E-06,0.160
-1.150E-06,0.260
-1.140E-06,0.320
-1.130E-06,0.300
-1.120E-06,0.320
-1.110E-06,0.340
-1.100E-06,0.400
-1.090E-06,0.480
-1.080E-06,0.620
-1.070E-06,0.680
-1.060E-06,0.680
-1.050E-06,0.720
-1.040E-06,0.700
-1.030E-06,0.720
-1.020E-06,0.800
-1.010E-06,0.860
-1.000E-06,0.840
-9.900E-07,0.760
-9.800E-07,0.720
-9.700E-07,0.660
-9.600E-07,0.700
-9.500E-07,0.640
-9.400E-07,0.760
-9.300E-07,0.700
-9.200E-07,0.680
-9.100E-07,0.720
-9.000E-07,0.680
-8.900E-07,0.800
-8.800E-07,0.760
-8.700E-07,0.800
-8.600E-07,0.800
-8.500E-07,0.700
-8.400E-07,0.580
-8.300E-07,0.500
-8.200E-07,0.540
-8.100E-07,0.500
-8.000E-07,0.620
-7.900E-07,0.440
-7.800E-07,0.400
-7.700E-07,0.260
-7.600E-07,0.000
-7.500E-07,0.200
-7.400E-07,0.240
-7.300E-07,0.520
-7.200E-07,0.160
-7.100E-07,0.360
-7.000E-07,0.800
-6.900E-07,0.200
-6.800E-07,0.580
-6.700E-07,0.300
-6.600E-07,0.620
-6.500E-07,-0.140
-6.400E-07,-0.100
-6.300E-07,0.180
-6.200E-07,0.280
-6.100E-07,0.220
-6.000E-07,0.780
-5.900E-07,1.000
-5.800E-07,0.760
-5.700E-07,0.540
-5.600E-07,0.660
-5.500E-07,0.920
-5.400E-07,0.540
-5.300E-07,0.660
-5.200E-07,0.780
-5.100E-07,0.840
-5.000E-07,0.720
-4.900E-07,0.940
-4.800E-07,0.980
-4.700E-07,0.800
-4.600E-07,0.600
-4.500E-07,0.720
-4.400E-07,0.580
-4.300E-07,0.360
-4.200E-07,0.220
-4.100E-07,0.260
-4.000E-07,0.100
-3.900E-07,-0.140
-3.800E-07,-0.100
-3.700E-07,-0.120
-3.600E-07,-0.180
-3.500E-07,-0.340
-3.400E-07,-0.260
-3.300E-07,-0.300
-3.200E-07,-0.440
-3.100E-07,-0.380
-3.000E-07,-0.260
-2.900E-07,-0.280
-2.800E-07,-0.320
-2.700E-07,-0.240
-2.600E-07,-0.120
-2.500E-07,-0.040
-2.400E-07,0.000
-2.300E-07,0.220
-2.200E-07,0.300
-2.100E-07,0.320
-2.000E-07,0.380
-1.900E-07,0.560
-1.800E-07,0.560
-1.700E-07,0.520
-1.600E-07,0.600
-1.500E-07,0.600
-1.400E-07,0.600
-1.300E-07,0.580
-1.200E-07,0.620
-1.100E-07,0.620
-1.000E-07,0.580
-9.000E-08,0.580
-8.000E-08,0.620
-7.000E-08,0.360
-6.000E-08,0.380
-5.000E-08,-0.020
-4.000E-08,-0.520
-3.000E-08,-0.500
-2.000E-08,-1.280
-1.000E-08,-2.620
0.000E+00,-2.620
1.000E-08,-2.140
2.000E-08,-1.020
3.000E-08,-0.280
4.000E-08,0.700
5.000E-08,0.060
6.000E-08,-1.320
7.000E-08,-2.020
8.000E-08,-1.640
9.000E-08,-0.560
1.000E-07,-0.180
1.100E-07,0.400
1.200E-07,0.360
1.300E-07,-0.660
1.400E-07,-1.200
1.500E-07,-1.180
1.600E-07,-0.700
1.700E-07,-0.160
1.800E-07,0.000
1.900E-07,0.240
2.000E-07,-0.160
2.100E-07,-0.620
2.200E-07,-0.460
2.300E-07,-0.300
2.400E-07,-0.340
2.500E-07,-0.360
2.600E-07,-0.360
2.700E-07,-0.340
2.800E-07,-0.340
2.900E-07,-0.160
3.000E-07,0.080
3.100E-07,0.260
3.200E-07,0.240
3.300E-07,0.440
3.400E-07,0.340
3.500E-07,0.080
3.600E-07,-0.140
3.700E-07,-0.220
3.800E-07,-0.160
3.900E-07,-0.260
4.000E-07,-0.260
4.100E-07,-0.300
4.200E-07,-0.400
4.300E-07,-0.520
4.400E-07,-0.540
4.500E-07,-0.600
4.600E-07,-0.720
4.700E-07,-0.800
4.800E-07,-0.640
4.900E-07,-0.440
5.000E-07,-0.340
5.100E-07,-0.240
5.200E-07,-0.160
5.300E-07,-0.140
5.400E-07,-0.060
5.500E-07,0.220
5.600E-07,0.480
5.700E-07,0.820
5.800E-07,0.780
5.900E-07,0.780
6.000E-07,0.740
6.100E-07,0.560
6.200E-07,0.540
6.300E-07,0.440
6.400E-07,0.240
6.500E-07,0.020
6.600E-07,-0.080
6.700E-07,0.020
6.800E-07,-0.020
6.900E-07,-0.020
7.000E-07,-0.120
7.100E-07,-0.260
7.200E-07,-0.320
7.300E-07,-0.520
7.400E-07,-0.360
7.500E-07,-0.460
7.600E-07,-0.560
7.700E-07,-0.520
7.800E-07,-0.400
7.900E-07,-1.200
8.000E-07,-0.600
8.100E-07,-2.540
8.200E-07,-2.660
8.300E-07,-2.660
8.400E-07,-2.660
8.500E-07,-2.360
8.600E-07,0.840
8.700E-07,1.840
8.800E-07,2.220
8.900E-07,-0.400
9.000E-07,-2.200
9.100E-07,-2.080
9.200E-07,-1.060
9.300E-07,0.860
9.400E-07,1.940
9.500E-07,1.620
9.600E-07,0.560
9.700E-07,-0.800
9.800E-07,-1.180
9.900E-07,-0.860
1.000E-06,-0.340
1.010E-06,0.380
1.020E-06,0.240
1.030E-06,-0.080
1.040E-06,-0.680
1.050E-06,-0.860
1.060E-06,-0.880
1.070E-06,-1.280
1.080E-06,-1.600
1.090E-06,-1.840
1.100E-06,-1.820
1.110E-06,-1.680
1.120E-06,-1.500
1.130E-06,-1.240
1.140E-06,-1.020
1.150E-06,-0.680
1.160E-06,-0.160
1.170E-06,0.340
1.180E-06,0.380
1.190E-06,0.480
1.200E-06,0.260
1.210E-06,0.160
1.220E-06,0.060
1.230E-06,0.140
1.240E-06,0.240
1.250E-06,0.340
1.260E-06,0.520
1.270E-06,0.640
1.280E-06,0.740
1.290E-06,0.440
1.300E-06,0.220
1.310E-06,0.180
1.320E-06,0.380
1.330E-06,0.380
1.340E-06,0.160
1.350E-06,0.320
1.360E-06,0.280
1.370E-06,-1.120
1.380E-06,-0.860
1.390E-06,-0.700
1.400E-06,-0.720
1.410E-06,-0.720
1.420E-06,-1.000
1.430E-06,-0.680
1.440E-06,-1.360
1.450E-06,-1.160
1.460E-06,-1.120
1.470E-06,-0.660
1.480E-06,-1.920
1.490E-06,-2.600
1.500E-06,-2.560
1.510E-06,-2.660
1.520E-06,-2.240
1.530E-06,-1.160
1.540E-06,-0.100
1.550E-06,-0.020
1.560E-06,-0.720
1.570E-06,-0.880
1.580E-06,-1.080
1.590E-06,-0.940
1.600E-06,-0.260
1.610E-06,0.560
1.620E-06,0.560
1.630E-06,0.340
1.640E-06,0.280
1.650E-06,0.260
1.660E-06,-0.040
1.670E-06,-0.220
1.680E-06,-0.380
1.690E-06,-0.500
1.700E-06,-0.720
1.710E-06,-0.780
1.720E-06,-0.860
1.730E-06,-1.180
1.740E-06,-1.520
1.750E-06,-1.640
1.760E-06,-1.680
1.770E-06,-1.980
1.780E-06,-2.060
1.790E-06,-2.140
1.800E-06,-2.120
1.810E-06,-2.280
1.820E-06,-2.200
1.830E-06,-2.160
1.840E-06,-2.180
1.850E-06,-2.200
1.860E-06,-2.020
1.870E-06,-1.760
1.880E-06,-1.820
1.890E-06,-1.920
1.900E-06,-1.920
1.910E-06,-2.000
1.920E-06,-2.080
1.930E-06,-2.240
1.940E-06,-2.400
1.950E-06,-2.620
1.960E-06,-2.660
1.970E-06,-2.660
1.980E-06,-2.660
1.990E-06,-2.660
2.000E-06,-2.660
2.010E-06,-2.680
2.020E-06,-2.660
2.030E-06,-2.660
2.040E-06,-2.640
2.050E-06,-2.640
2.060E-06,-2.640
2.070E-06,-2.640
2.080E-06,-2.660
2.090E-06,-2.660
2.100E-06,-2.660
2.110E-06,-2.640
2.120E-06,-2.660
2.130E-06,-2.660
2.140E-06,-2.660
2.150E-06,-2.660
2.160E-06,-2.660
2.170E-06,-2.660
2.180E-06,-2.660
2.190E-06,-2.660
2.200E-06,-2.660
2.210E-06,-2.660
2.220E-06,-2.660
2.230E-06,-2.680
2.240E-06,-2.660
2.250E-06,-2.660
2.260E-06,-2.660
2.270E-06,-2.660
2.280E-06,-2.640
2.290E-06,-2.640
2.300E-06,-2.660
2.310E-06,-2.660
2.320E-06,-2.680
2.330E-06,-2.680
2.340E-06,-2.660
2.350E-06,-2.660
2.360E-06,-2.660
2.370E-06,-2.660
2.380E-06,-2.660
2.390E-06,-2.640
2.400E-06,-2.640
2.410E-06,-2.640
2.420E-06,-2.660
2.430E-06,-2.660
2.440E-06,-2.660
2.450E-06,-2.660
2.460E-06,-2.660
2.470E-06,-2.660
2.480E-06,-2.660
2.490E-06,-2.660
2.500E-06,-2.660
2.510E-06,-2.680
2.520E-06,-2.680
2.530E-06,-2.680
2.540E-06,-2.660
2.550E-06,-2.660
2.560E-06,-2.660
2.570E-06,-2.660
2.580E-06,-2.060
2.590E-06,-1.180
2.600E-06,-0.640
2.610E-06,-0.340
2.620E-06,-0.300
2.630E-06,-0.080
2.640E-06,0.580
2.650E-06,1.100
2.660E-06,1.860
2.670E-06,2.100
2.680E-06,2.100
2.690E-06,2.000
2.700E-06,1.740
2.710E-06,1.540
2.720E-06,1.160
2.730E-06,0.520
2.740E-06,0.000
2.750E-06,-0.740
2.760E-06,-0.940
2.770E-06,-1.180
2.780E-06,-1.500
2.790E-06,-1.820
2.800E-06,-2.080
2.810E-06,-2.200
2.820E-06,-2.300
2.830E-06,-2.260
2.840E-06,-2.160
2.850E-06,-2.140
2.860E-06,-2.060
2.870E-06,-1.960
2.880E-06,-1.840
2.890E-06,-1.860
2.900E-06,-1.960
2.910E-06,-2.040
2.920E-06,-2.100
2.930E-06,-2.240
2.940E-06,-2.460
2.950E-06,-2.660
2.960E-06,-2.660
2.970E-06,-2.660
2.980E-06,-2.660
2.990E-06,-2.660
3.000E-06,-2.660
3.010E-06,-2.660
3.020E-06,-2.660
3.030E-06,-2.640
3.040E-06,-2.640
3.050E-06,-2.640
3.060E-06,-2.640
3.070E-06,-2.660
3.080E-06,-2.660
3.090E-06,-2.660
3.100E-06,-2.660
3.110E-06,-2.660
3.120E-06,-2.640
3.130E-06,-2.660
3.140E-06,-2.500
3.150E-06,-2.160
3.160E-06,-1.960
3.170E-06,-1.860
3.180E-06,-1.780
3.190E-06,-1.820
3.200E-06,-1.960
3.210E-06,-2.000
3.220E-06,-2.260
3.230E-06,-2.500
3.240E-06,-2.660
3.250E-06,-2.660
3.260E-06,-2.680
3.270E-06,-2.660
3.280E-06,-2.660
3.290E-06,-2.660
3.300E-06,-2.660
3.310E-06,-2.680
3.320E-06,-2.680
3.330E-06,-2.680
3.340E-06,-2.660
3.350E-06,-2.660
3.360E-06,-2.660
3.370E-06,-2.660
3.380E-06,-2.660
3.390E-06,-2.660
3.400E-06,-2.660
3.410E-06,-2.660
3.420E-06,-2.660
3.430E-06,-2.660
3.440E-06,-2.680
3.450E-06,-2.680
3.460E-06,-2.660
3.470E-06,-2.660
3.480E-06,-2.660
3.490E-06,-2.660
3.500E-06,-2.680
3.510E-06,-2.660
3.520E-06,-2.660
3.530E-06,-2.660
3.540E-06,-2.680
3.550E-06,-2.660
3.560E-06,-2.660
3.570E-06,-2.640
3.580E-06,-2.660
3.590E-06,-2.660
3.600E-06,-2.660
3.610E-06,-2.660
3.620E-06,-2.660
3.630E-06,-2.660
3.640E-06,-2.660
3.650E-06,-2.680
3.660E-06,-2.680
3.670E-06,-2.660
3.680E-06,-2.660
3.690E-06,-2.640
3.700E-06,-2.640
3.710E-06,-2.660
3.720E-06,-2.660
3.730E-06,-2.680
3.740E-06,-2.680
3.750E-06,-2.680
3.760E-06,-2.660
3.770E-06,-2.660
3.780E-06,-2.640
3.790E-06,-2.660
3.800E-06,-2.660
3.810E-06,-2.660
3.820E-06,-2.660
3.830E-06,-2.660
3.840E-06,-2.660
3.850E-06,-2.660
3.860E-06,-2.660
3.870E-06,-2.680
3.880E-06,-2.680
3.890E-06,-2.660
3.900E-06,-2.660
3.910E-06,-2.660
3.920E-06,-2.660
3.930E-06,-2.660
3.940E-06,-2.660
3.950E-06,-2.660
3.960E-06,-2.640
3.970E-06,-2.660
3.980E-06,-2.660
3.990E-06,-2.660
4.000E-06,-2.640
4.010E-06,-2.660
4.020E-06,-2.660
4.030E-06,-2.680
4.040E-06,-2.680
4.050E-06,-2.680
4.060E-06,-2.680
4.070E-06,-2.660
4.080E-06,-2.660
4.090E-06,-2.660
4.100E-06,-2.680
4.110E-06,-2.680
4.120E-06,-2.680
4.130E-06,-2.660
4.140E-06,-2.640
4.150E-06,-2.520
4.160E-06,-2.380
4.170E-06,-2.240
4.180E-06,-2.120
4.190E-06,-2.020
4.200E-06,-1.940
4.210E-06,-1.880
4.220E-06,-1.740
4.230E-06,-1.720
4.240E-06,-1.760
4.250E-06,-1.800
4.260E-06,-1.860
4.270E-06,-2.000
4.280E-06,-2.080
4.290E-06,-2.180
4.300E-06,-2.220
4.310E-06,-2.260
4.320E-06,-2.240
4.330E-06,-2.200
4.340E-06,-2.140
4.350E-06,-2.080
4.360E-06,-2.000
4.370E-06,-1.960
4.380E-06,-1.940
4.390E-06,-1.880
4.400E-06,-1.820
4.410E-06,-1.760
4.420E-06,-1.680
4.430E-06,-1.640
4.440E-06,-1.580
4.450E-06,-1.520
4.460E-06,-1.480
4.470E-06,-1.460
4.480E-06,-1.520
4.490E-06,-1.540
4.500E-06,-1.600
4.510E-06,-1.680
4.520E-06,-1.700
4.530E-06,-1.720
4.540E-06,-1.780
4.550E-06,-1.800
4.560E-06,-1.920
4.570E-06,-2.000
4.580E-06,-2.120
4.590E-06,-2.200
4.600E-06,-2.260
4.610E-06,-2.240
4.620E-06,-2.140
4.630E-06,-2.060
4.640E-06,-1.880
4.650E-06,-1.760
4.660E-06,-1.640
4.670E-06,-1.580
4.680E-06,-1.420
4.690E-06,-1.180
4.700E-06,-0.960
4.710E-06,-0.720
4.720E-06,-0.580
4.730E-06,-0.540
4.740E-06,-0.540
4.750E-06,-0.680
4.760E-06,-0.760
4.770E-06,-0.940
4.780E-06,-1.020
4.790E-06,-1.060
4.800E-06,-1.120
4.810E-06,-1.200
4.820E-06,-1.220
4.830E-06,-1.280
4.840E-06,-1.300
4.850E-06,-1.300
4.860E-06,-1.260
4.870E-06,-1.240
4.880E-06,-1.220
4.890E-06,-1.140
4.900E-06,-1.120
4.910E-06,-1.040
4.920E-06,-0.960
4.930E-06,-0.900
4.940E-06,-0.840
4.950E-06,-0.760
4.960E-06,-0.680
4.970E-06,-0.600
4.980E-06,-0.540
4.990E-06,-0.480
5.000E-06,-0.400
5.010E-06,-0.340
5.020E-06,-0.320
5.030E-06,-0.300
5.040E-06,-0.220
5.050E-06,-0.180
5.060E-06,-0.220
5.070E-06,-0.200
5.080E-06,-0.200
5.090E-06,-0.200
5.100E-06,-0.240
5.110E-06,-0.280
5.120E-06,-0.280
5.130E-06,-0.340
5.140E-06,-0.400
5.150E-06,-0.440
5.160E-06,-0.500
5.170E-06,-0.480
5.180E-06,-0.460
5.190E-06,-0.480
5.200E-06,-0.420
5.210E-06,-0.400
5.220E-06,-0.320
5.230E-06,-0.260
5.240E-06,-0.180
5.250E-06,-0.060
5.260E-06,0.000
5.270E-06,0.100
5.280E-06,0.180
5.290E-06,0.220
5.300E-06,0.260
5.310E-06,0.300
5.320E-06,0.280
5.330E-06,0.240
5.340E-06,0.180
5.350E-06,0.140
5.360E-06,0.080
5.370E-06,0.000
5.380E-06,-0.060
5.390E-06,-0.120
5.400E-06,-0.240
5.410E-06,-0.360
5.420E-06,-0.440
5.430E-06,-0.520
5.440E-06,-0.600
5.450E-06,-0.660
5.460E-06,-0.720
5.470E-06,-0.800
5.480E-06,-0.860
5.490E-06,-0.880
5.500E-06,-0.940
5.510E-06,-1.000
5.520E-06,-1.040
5.530E-06,-1.040
5.540E-06,-1.060
5.550E-06,-1.080
5.560E-06,-1.080
5.570E-06,-1.020
5.580E-06,-1.040
5.590E-06,-0.980
5.600E-06,-0.960
5.610E-06,-0.940
5.620E-06,-0.920
5.630E-06,-0.940
5.640E-06,-1.000
5.650E-06,-1.040
5.660E-06,-1.040
5.670E-06,-1.060
5.680E-06,-1.060
5.690E-06,-1.040
5.700E-06,-1.060
5.710E-06,-1.040
5.720E-06,-1.020
5.730E-06,-1.060
5.740E-06,-1.080
5.750E-06,-1.040
5.760E-06,-1.060
5.770E-06,-1.100
5.780E-06,-1.140
5.790E-06,-1.180
5.800E-06,-1.180
5.810E-06,-1.200
5.820E-06,-1.140
5.830E-06,-1.080
5.840E-06,-0.960
5.850E-06,-0.820
5.860E-06,-0.640
5.870E-06,-0.460
5.880E-06,-0.260
5.890E-06,-0.020
5.900E-06,0.180
5.910E-06,0.400
5.920E-06,0.500
5.930E-06,0.580
5.940E-06,0.600
5.950E-06,0.600
5.960E-06,0.500
5.970E-06,0.380
5.980E-06,0.200
5.990E-06,0.000
6.000E-06,-0.220
6.010E-06,-0.500
6.020E-06,-0.740
6.030E-06,-0.920
6.040E-06,-1.120
6.050E-06,-1.180
6.060E-06,-1.180
6.070E-06,-1.160
6.080E-06,-1.060
6.090E-06,-0.960
6.100E-06,-0.860
6.110E-06,-0.820
6.120E-06,-0.700
6.130E-06,-0.600
6.140E-06,-0.360
6.150E-06,0.000
6.160E-06,0.400
6.170E-06,0.760
6.180E-06,1.020
6.190E-06,1.100
6.200E-06,0.960
6.210E-06,0.740
6.220E-06,0.320
6.230E-06,-0.060
6.240E-06,-0.340
6.250E-06,-0.480
6.260E-06,-0.460
6.270E-06,-0.300
6.280E-06,-0.040
6.290E-06,0.200
6.300E-06,0.480
6.310E-06,0.780
6.320E-06,0.980
6.330E-06,1.060
6.340E-06,1.160
6.350E-06,1.080
6.360E-06,0.980
6.370E-06,0.820
6.380E-06,0.620
6.390E-06,0.420
6.400E-06,0.240
6.410E-06,0.080
6.420E-06,-0.020
6.430E-06,-0.120
6.440E-06,-0.180
6.450E-06,-0.180
6.460E-06,-0.220
6.470E-06,-0.220
6.480E-06,-0.260
6.490E-06,-0.260
6.500E-06,-0.260
6.510E-06,-0.220
6.520E-06,-0.120
6.530E-06,0.000
6.540E-06,0.140
6.550E-06,0.300
6.560E-06,0.480
6.570E-06,0.660
6.580E-06,0.900
6.590E-06,1.120
6.600E-06,1.280
6.610E-06,1.420
6.620E-06,1.520
6.630E-06,1.600
6.640E-06,1.600
6.650E-06,1.600
6.660E-06,1.540
6.670E-06,1.440
6.680E-06,1.360
6.690E-06,1.240
6.700E-06,1.060
6.710E-06,0.900
6.720E-06,0.720
6.730E-06,0.500
6.740E-06,0.340
6.750E-06,0.220
6.760E-06,0.120
6.770E-06,0.080
6.780E-06,0.060
6.790E-06,0.060
6.800E-06,0.080
6.810E-06,0.040
6.820E-06,-0.020
6.830E-06,-0.120
6.840E-06,-0.260
6.850E-06,-0.440
6.860E-06,-0.660
6.870E-06,-0.900
6.880E-06,-1.180
6.890E-06,-1.440
6.900E-06,-1.600
6.910E-06,-1.760
6.920E-06,-1.860
6.930E-06,-1.900
6.940E-06,-1.880
6.950E-06,-1.800
6.960E-06,-1.700
6.970E-06,-1.620
6.980E-06,-1.420
6.990E-06,-1.280
7.000E-06,-1.120
7.010E-06,-1.000
7.020E-06,-0.820
7.030E-06,-0.700
7.040E-06,-0.560
7.050E-06,-0.520
7.060E-06,-0.440
7.070E-06,-0.400
7.080E-06,-0.420
7.090E-06,-0.460
7.100E-06,-0.500
7.110E-06,-0.540
7.120E-06,-0.580
7.130E-06,-0.560
7.140E-06,-0.520
7.150E-06,-0.460
7.160E-06,-0.400
7.170E-06,-0.300
7.180E-06,-0.240
7.190E-06,-0.140
7.200E-06,-0.080
7.210E-06,0.020
7.220E-06,0.140
7.230E-06,0.180
7.240E-06,0.280
7.250E-06,0.340
7.260E-06,0.460
7.270E-06,0.540
7.280E-06,0.680
7.290E-06,0.760
7.300E-06,0.900
7.310E-06,1.020
7.320E-06,1.140
7.330E-06,1.240
7.340E-06,1.360
7.350E-06,1.480
7.360E-06,1.580
7.370E-06,1.660
7.380E-06,1.660
7.390E-06,1.660
7.400E-06,1.660
7.410E-06,1.600
7.420E-06,1.560
7.430E-06,1.560
7.440E-06,1.520
7.450E-06,1.560
7.460E-06,1.620
7.470E-06,1.700
7.480E-06,1.800
7.490E-06,1.880
7.500E-06,1.960
7.510E-06,2.040
7.520E-06,2.120
7.530E-06,2.140
7.540E-06,2.180
7.550E-06,2.180
7.560E-06,2.160
7.570E-06,2.180
7.580E-06,2.120
7.590E-06,2.080
7.600E-06,1.980
7.610E-06,1.920
7.620E-06,1.840
7.630E-06,1.760
7.640E-06,1.620
7.650E-06,1.520
7.660E-06,1.480
7.670E-06,1.440
7.680E-06,1.380
7.690E-06,1.380
7.700E-06,1.280
7.710E-06,1.260
7.720E-06,1.200
7.730E-06,1.140
7.740E-06,1.040
7.750E-06,0.920
7.760E-06,0.820
7.770E-06,0.720
7.780E-06,0.620
7.790E-06,0.540
7.800E-06,0.480
7.810E-06,0.420
7.820E-06,0.380
7.830E-06,0.340
7.840E-06,0.320
7.850E-06,0.300
7.860E-06,0.300
7.870E-06,0.360
7.880E-06,0.420
7.890E-06,0.560
7.900E-06,0.700
7.910E-06,0.840
7.920E-06,0.940
7.930E-06,1.060
7.940E-06,1.200
7.950E-06,1.260
7.960E-06,1.360
7.970E-06,1.400
7.980E-06,1.440
7.990E-06,1.480
8.000E-06,1.520
8.010E-06,1.540
8.020E-06,1.600
8.030E-06,1.620
8.040E-06,1.620
8.050E-06,1.700
8.060E-06,1.740
8.070E-06,1.820
8.080E-06,1.840
8.090E-06,1.880
8.100E-06,1.900
8.110E-06,1.940
8.120E-06,1.940
8.130E-06,1.920
8.140E-06,1.920
8.150E-06,1.940
8.160E-06,1.940
8.170E-06,1.940
8.180E-06,1.980
8.190E-06,1.980
8.200E-06,1.980
8.210E-06,1.940
8.220E-06,1.920
8.230E-06,1.840
8.240E-06,1.760
8.250E-06,1.680
8.260E-06,1.580
8.270E-06,1.460
8.280E-06,1.360
8.290E-06,1.320
8.300E-06,1.280
8.310E-06,1.300
8.320E-06,1.300
8.330E-06,1.360
8.340E-06,1.400
8.350E-06,1.460
8.360E-06,1.560
8.370E-06,1.620
8.380E-06,1.720
8.390E-06,1.800
8.400E-06,1.860
8.410E-06,2.000
8.420E-06,2.060
8.430E-06,2.180
8.440E-06,2.280
8.450E-06,2.420
8.460E-06,2.600
8.470E-06,2.780
8.480E-06,2.760
8.490E-06,2.760
8.500E-06,2.760
8.510E-06,2.760
8.520E-06,2.760
8.530E-06,2.780
8.540E-06,2.760
8.550E-06,2.760
8.560E-06,2.740
8.570E-06,2.760
8.580E-06,2.760
8.590E-06,2.760
8.600E-06,2.780
8.610E-06,2.780
8.620E-06,2.760
8.630E-06,2.780
8.640E-06,2.760
8.650E-06,2.760
8.660E-06,2.740
8.670E-06,2.760
8.680E-06,2.760
8.690E-06,2.760
8.700E-06,2.780
8.710E-06,2.780
8.720E-06,2.760
8.730E-06,2.760
8.740E-06,2.780
8.750E-06,2.780
8.760E-06,2.760
8.770E-06,2.760
8.780E-06,2.760
8.790E-06,2.760
8.800E-06,2.760
8.810E-06,2.740
8.820E-06,2.760
8.830E-06,2.780
8.840E-06,2.760
8.850E-06,2.760
8.860E-06,2.760
8.870E-06,2.740
8.880E-06,2.760
8.890E-06,2.760
8.900E-06,2.760
8.910E-06,2.780
8.920E-06,2.760
8.930E-06,2.760
8.940E-06,2.760
8.950E-06,2.740
8.960E-06,2.760
8.970E-06,2.760
8.980E-06,2.740
8.990E-06,2.760
9.000E-06,2.780
9.010E-06,2.760
9.020E-06,2.780
9.030E-06,2.760
9.040E-06,2.780
9.050E-06,2.760
9.060E-06,2.780
9.070E-06,2.760
9.080E-06,2.780
9.090E-06,2.780
9.100E-06,2.760
9.110E-06,2.780
9.120E-06,2.760
9.130E-06,2.740
9.140E-06,2.760
9.150E-06,2.760
9.160E-06,2.760
9.170E-06,2.760
9.180E-06,2.780
9.190E-06,2.760
9.200E-06,2.740
9.210E-06,2.760
9.220E-06,2.760
9.230E-06,2.780
9.240E-06,2.780
9.250E-06,2.760
9.260E-06,2.780
9.270E-06,2.760
9.280E-06,2.760
9.290E-06,2.760
9.300E-06,2.760
9.310E-06,2.760
9.320E-06,2.740
9.330E-06,2.760
9.340E-06,2.780
9.350E-06,2.760
9.360E-06,2.760
9.370E-06,2.740
9.380E-06,2.760
9.390E-06,2.720
9.400E-06,2.700
9.410E-06,2.620
9.420E-06,2.560
9.430E-06,2.520
9.440E-06,2.500
9.450E-06,2.420
9.460E-06,2.380
9.470E-06,2.340
9.480E-06,2.260
9.490E-06,2.220
9.500E-06,2.160
9.510E-06,2.140
9.520E-06,2.040
9.530E-06,2.020
9.540E-06,1.940
9.550E-06,1.940
9.560E-06,1.880
9.570E-06,1.880
9.580E-06,1.880
9.590E-06,1.840
9.600E-06,1.820
9.610E-06,1.860
9.620E-06,1.860
9.630E-06,1.840
