mediciones/Mediciones filtradas (saque las feas)/6-3/-5/WaveData53111.csv

#timebase=2000000(ps)
,#voltbase=500000(mv/100)
#size=4000
-2.300E-06,0.340
-2.290E-06,0.440
-2.280E-06,0.500
-2.270E-06,0.580
-2.260E-06,0.560
-2.250E-06,0.420
-2.240E-06,0.400
-2.230E-06,0.420
-2.220E-06,0.480
-2.210E-06,0.580
-2.200E-06,0.560
-2.190E-06,0.520
-2.180E-06,0.440
-2.170E-06,0.420
-2.160E-06,0.460
-2.150E-06,0.380
-2.140E-06,0.340
-2.130E-06,0.140
-2.120E-06,0.060
-2.110E-06,0.020
-2.100E-06,0.120
-2.090E-06,0.180
-2.080E-06,0.280
-2.070E-06,0.260
-2.060E-06,0.260
-2.050E-06,0.220
-2.040E-06,0.260
-2.030E-06,0.360
-2.020E-06,0.420
-2.010E-06,0.480
-2.000E-06,0.500
-1.990E-06,0.500
-1.980E-06,0.460
-1.970E-06,0.420
-1.960E-06,0.480
-1.950E-06,0.520
-1.940E-06,0.500
-1.930E-06,0.540
-1.920E-06,0.500
-1.910E-06,0.360
-1.900E-06,0.200
-1.890E-06,0.180
-1.880E-06,0.080
-1.870E-06,0.220
-1.860E-06,0.340
-1.850E-06,0.220
-1.840E-06,0.020
-1.830E-06,0.020
-1.820E-06,-0.100
-1.810E-06,-0.100
-1.800E-06,-0.500
-1.790E-06,-0.320
-1.780E-06,-0.500
-1.770E-06,-0.040
-1.760E-06,0.420
-1.750E-06,0.780
-1.740E-06,0.640
-1.730E-06,0.220
-1.720E-06,0.100
-1.710E-06,0.000
-1.700E-06,0.440
-1.690E-06,0.880
-1.680E-06,1.080
-1.670E-06,0.860
-1.660E-06,0.400
-1.650E-06,0.060
-1.640E-06,0.000
-1.630E-06,0.060
-1.620E-06,0.420
-1.610E-06,0.560
-1.600E-06,0.520
-1.590E-06,0.260
-1.580E-06,0.000
-1.570E-06,-0.020
-1.560E-06,-0.060
-1.550E-06,0.020
-1.540E-06,0.040
-1.530E-06,0.020
-1.520E-06,-0.120
-1.510E-06,-0.240
-1.500E-06,-0.260
-1.490E-06,-0.320
-1.480E-06,-0.320
-1.470E-06,-0.240
-1.460E-06,-0.120
-1.450E-06,-0.020
-1.440E-06,-0.020
-1.430E-06,-0.020
-1.420E-06,0.020
-1.410E-06,0.000
-1.400E-06,0.040
-1.390E-06,0.120
-1.380E-06,0.160
-1.370E-06,0.180
-1.360E-06,0.300
-1.350E-06,0.360
-1.340E-06,0.440
-1.330E-06,0.380
-1.320E-06,0.340
-1.310E-06,0.380
-1.300E-06,0.400
-1.290E-06,0.480
-1.280E-06,0.500
-1.270E-06,0.480
-1.260E-06,0.500
-1.250E-06,0.400
-1.240E-06,0.480
-1.230E-06,0.520
-1.220E-06,0.620
-1.210E-06,0.420
-1.200E-06,0.420
-1.190E-06,0.300
-1.180E-06,0.260
-1.170E-06,-0.020
-1.160E-06,-0.120
-1.150E-06,-0.040
-1.140E-06,-0.140
-1.130E-06,0.160
-1.120E-06,0.200
-1.110E-06,0.340
-1.100E-06,0.080
-1.090E-06,0.080
-1.080E-06,0.180
-1.070E-06,0.340
-1.060E-06,0.500
-1.050E-06,0.520
-1.040E-06,0.600
-1.030E-06,0.440
-1.020E-06,0.400
-1.010E-06,0.440
-1.000E-06,0.560
-9.900E-07,0.600
-9.800E-07,0.700
-9.700E-07,0.700
-9.600E-07,0.580
-9.500E-07,0.600
-9.400E-07,0.680
-9.300E-07,0.680
-9.200E-07,0.580
-9.100E-07,0.340
-9.000E-07,0.000
-8.900E-07,-0.140
-8.800E-07,-0.100
-8.700E-07,0.080
-8.600E-07,0.100
-8.500E-07,0.280
-8.400E-07,0.260
-8.300E-07,0.260
-8.200E-07,0.320
-8.100E-07,0.220
-8.000E-07,0.220
-7.900E-07,0.140
-7.800E-07,0.220
-7.700E-07,0.300
-7.600E-07,0.300
-7.500E-07,0.220
-7.400E-07,0.060
-7.300E-07,-0.140
-7.200E-07,-0.140
-7.100E-07,-0.060
-7.000E-07,0.100
-6.900E-07,0.260
-6.800E-07,0.360
-6.700E-07,0.380
-6.600E-07,0.300
-6.500E-07,0.240
-6.400E-07,0.260
-6.300E-07,0.340
-6.200E-07,0.460
-6.100E-07,0.600
-6.000E-07,0.740
-5.900E-07,0.760
-5.800E-07,0.820
-5.700E-07,0.760
-5.600E-07,0.820
-5.500E-07,0.720
-5.400E-07,0.660
-5.300E-07,0.720
-5.200E-07,0.720
-5.100E-07,0.760
-5.000E-07,0.580
-4.900E-07,0.500
-4.800E-07,0.340
-4.700E-07,0.220
-4.600E-07,0.220
-4.500E-07,0.200
-4.400E-07,0.260
-4.300E-07,0.180
-4.200E-07,0.100
-4.100E-07,0.080
-4.000E-07,0.060
-3.900E-07,0.160
-3.800E-07,0.220
-3.700E-07,0.240
-3.600E-07,0.240
-3.500E-07,0.300
-3.400E-07,0.260
-3.300E-07,0.340
-3.200E-07,0.360
-3.100E-07,0.420
-3.000E-07,0.460
-2.900E-07,0.440
-2.800E-07,0.480
-2.700E-07,0.600
-2.600E-07,0.680
-2.500E-07,0.820
-2.400E-07,0.840
-2.300E-07,0.840
-2.200E-07,0.700
-2.100E-07,0.580
-2.000E-07,0.500
-1.900E-07,0.400
-1.800E-07,0.320
-1.700E-07,0.280
-1.600E-07,0.260
-1.500E-07,0.200
-1.400E-07,0.180
-1.300E-07,0.140
-1.200E-07,0.340
-1.100E-07,0.220
-1.000E-07,0.400
-9.000E-08,0.280
-8.000E-08,0.360
-7.000E-08,0.360
-6.000E-08,0.420
-5.000E-08,0.220
-4.000E-08,0.400
-3.000E-08,-0.020
-2.000E-08,-1.080
-1.000E-08,-1.280
0.000E+00,-1.740
1.000E-08,-0.860
2.000E-08,-0.060
3.000E-08,1.380
4.000E-08,1.680
5.000E-08,0.560
6.000E-08,1.000
7.000E-08,-0.880
8.000E-08,-1.000
9.000E-08,-0.040
1.000E-07,0.060
1.100E-07,1.740
1.200E-07,1.460
1.300E-07,1.540
1.400E-07,0.620
1.500E-07,-0.620
1.600E-07,-0.220
1.700E-07,0.420
1.800E-07,1.300
1.900E-07,1.520
2.000E-07,1.360
2.100E-07,1.140
2.200E-07,0.360
2.300E-07,0.100
2.400E-07,0.300
2.500E-07,0.440
2.600E-07,0.620
2.700E-07,0.700
2.800E-07,0.640
2.900E-07,0.400
3.000E-07,0.080
3.100E-07,0.200
3.200E-07,0.440
3.300E-07,0.320
3.400E-07,0.320
3.500E-07,0.300
3.600E-07,0.220
3.700E-07,-0.060
3.800E-07,-0.140
3.900E-07,-0.200
4.000E-07,-0.180
4.100E-07,-0.060
4.200E-07,0.220
4.300E-07,0.400
4.400E-07,0.200
4.500E-07,0.000
4.600E-07,-0.080
4.700E-07,-0.020
4.800E-07,0.000
4.900E-07,0.160
5.000E-07,0.240
5.100E-07,0.100
5.200E-07,-0.080
5.300E-07,-0.120
5.400E-07,-0.200
5.500E-07,-0.280
5.600E-07,-0.280
5.700E-07,-0.200
5.800E-07,-0.080
5.900E-07,-0.200
6.000E-07,-0.240
6.100E-07,-0.420
6.200E-07,-0.420
6.300E-07,-0.340
6.400E-07,-0.120
6.500E-07,0.040
6.600E-07,0.120
6.700E-07,0.220
6.800E-07,0.360
6.900E-07,0.440
7.000E-07,0.520
7.100E-07,0.560
7.200E-07,0.500
7.300E-07,0.500
7.400E-07,0.540
7.500E-07,0.620
7.600E-07,0.700
7.700E-07,0.660
7.800E-07,0.680
7.900E-07,0.720
8.000E-07,0.640
8.100E-07,0.580
8.200E-07,0.460
8.300E-07,0.440
8.400E-07,0.340
8.500E-07,0.280
8.600E-07,0.180
8.700E-07,-0.060
8.800E-07,-0.220
8.900E-07,-0.240
9.000E-07,-0.380
9.100E-07,-0.500
9.200E-07,-0.900
9.300E-07,-1.100
9.400E-07,-1.420
9.500E-07,-1.360
9.600E-07,-1.020
9.700E-07,-0.640
9.800E-07,-0.600
9.900E-07,-0.840
1.000E-06,-1.000
1.010E-06,-1.200
1.020E-06,-1.200
1.030E-06,-0.600
1.040E-06,-0.400
1.050E-06,-0.060
1.060E-06,-0.020
1.070E-06,0.080
1.080E-06,0.340
1.090E-06,0.360
1.100E-06,0.600
1.110E-06,0.900
1.120E-06,0.980
1.130E-06,1.100
1.140E-06,1.180
1.150E-06,1.080
1.160E-06,0.460
1.170E-06,-0.160
1.180E-06,-1.120
1.190E-06,-1.060
1.200E-06,-0.920
1.210E-06,-0.280
1.220E-06,0.720
1.230E-06,0.140
1.240E-06,0.080
1.250E-06,-0.240
1.260E-06,-0.020
1.270E-06,0.480
1.280E-06,0.780
1.290E-06,1.000
1.300E-06,0.840
1.310E-06,0.760
1.320E-06,0.760
1.330E-06,1.000
1.340E-06,0.980
1.350E-06,0.940
1.360E-06,1.000
1.370E-06,0.940
1.380E-06,0.980
1.390E-06,1.000
1.400E-06,0.880
1.410E-06,0.680
1.420E-06,0.520
1.430E-06,0.500
1.440E-06,0.400
1.450E-06,0.600
1.460E-06,0.220
1.470E-06,-0.020
1.480E-06,-0.920
1.490E-06,-1.660
1.500E-06,-1.900
1.510E-06,-2.180
1.520E-06,-1.400
1.530E-06,-0.980
1.540E-06,-0.220
1.550E-06,-0.020
1.560E-06,-0.260
1.570E-06,-0.160
1.580E-06,-0.440
1.590E-06,-0.040
1.600E-06,0.340
1.610E-06,0.900
1.620E-06,1.060
1.630E-06,0.940
1.640E-06,0.660
1.650E-06,0.400
1.660E-06,0.380
1.670E-06,0.560
1.680E-06,0.840
1.690E-06,0.920
1.700E-06,0.980
1.710E-06,0.860
1.720E-06,0.720
1.730E-06,0.620
1.740E-06,0.500
1.750E-06,0.400
1.760E-06,0.220
1.770E-06,0.100
1.780E-06,-0.160
1.790E-06,-0.320
1.800E-06,-0.580
1.810E-06,-0.640
1.820E-06,-0.720
1.830E-06,-0.680
1.840E-06,-0.580
1.850E-06,-0.640
1.860E-06,-0.640
1.870E-06,-0.660
1.880E-06,-0.580
1.890E-06,-0.460
1.900E-06,-0.340
1.910E-06,-0.200
1.920E-06,-0.240
1.930E-06,-0.100
1.940E-06,-0.100
1.950E-06,0.000
1.960E-06,-0.020
1.970E-06,-0.080
1.980E-06,0.060
1.990E-06,0.060
2.000E-06,0.180
2.010E-06,0.160
2.020E-06,0.200
2.030E-06,0.260
2.040E-06,-0.020
2.050E-06,0.080
2.060E-06,-0.080
2.070E-06,-0.120
2.080E-06,0.000
2.090E-06,-0.180
2.100E-06,0.040
2.110E-06,-0.020
2.120E-06,0.080
2.130E-06,0.260
2.140E-06,0.300
2.150E-06,0.500
2.160E-06,0.720
2.170E-06,0.800
2.180E-06,1.000
2.190E-06,0.900
2.200E-06,1.000
2.210E-06,1.080
2.220E-06,1.060
2.230E-06,1.120
2.240E-06,1.120
2.250E-06,1.160
2.260E-06,0.940
2.270E-06,0.900
2.280E-06,0.740
2.290E-06,1.220
2.300E-06,-0.440
2.310E-06,-0.820
2.320E-06,-0.480
2.330E-06,0.880
2.340E-06,-2.140
2.350E-06,-1.100
2.360E-06,-2.080
2.370E-06,-0.800
2.380E-06,1.380
2.390E-06,1.800
2.400E-06,2.760
2.410E-06,0.360
2.420E-06,-0.480
2.430E-06,-1.000
2.440E-06,0.900
2.450E-06,2.180
2.460E-06,2.740
2.470E-06,2.680
2.480E-06,1.640
2.490E-06,0.040
2.500E-06,-0.420
2.510E-06,-0.120
2.520E-06,0.520
2.530E-06,1.220
2.540E-06,1.120
2.550E-06,0.820
2.560E-06,0.040
2.570E-06,-0.120
2.580E-06,-0.080
2.590E-06,-0.420
2.600E-06,-0.940
2.610E-06,-1.320
2.620E-06,-1.440
2.630E-06,-1.260
2.640E-06,-1.140
2.650E-06,-1.280
2.660E-06,-1.600
2.670E-06,-1.780
2.680E-06,-1.360
2.690E-06,-0.680
2.700E-06,-0.500
2.710E-06,-0.580
2.720E-06,-0.780
2.730E-06,-0.820
2.740E-06,-0.680
2.750E-06,-0.260
2.760E-06,0.080
2.770E-06,0.140
2.780E-06,0.120
2.790E-06,0.320
2.800E-06,0.500
2.810E-06,0.380
2.820E-06,0.100
2.830E-06,0.220
2.840E-06,0.480
2.850E-06,0.580
2.860E-06,0.620
2.870E-06,0.440
2.880E-06,0.120
2.890E-06,-0.140
2.900E-06,0.020
2.910E-06,0.280
2.920E-06,0.100
2.930E-06,-0.080
2.940E-06,-0.240
2.950E-06,-0.700
2.960E-06,-1.700
2.970E-06,-2.040
2.980E-06,-1.280
2.990E-06,-0.200
3.000E-06,0.800
3.010E-06,1.660
3.020E-06,1.540
3.030E-06,0.380
3.040E-06,-0.100
3.050E-06,0.420
3.060E-06,1.000
3.070E-06,1.460
3.080E-06,1.520
3.090E-06,1.300
3.100E-06,1.060
3.110E-06,0.400
3.120E-06,0.520
3.130E-06,0.220
3.140E-06,-0.220
3.150E-06,-0.380
3.160E-06,-0.500
3.170E-06,-0.260
3.180E-06,-0.060
3.190E-06,0.640
3.200E-06,0.520
3.210E-06,0.160
3.220E-06,-0.680
3.230E-06,-1.120
3.240E-06,-1.020
3.250E-06,-1.160
3.260E-06,-0.680
3.270E-06,-0.500
3.280E-06,-0.300
3.290E-06,-0.320
3.300E-06,-0.340
3.310E-06,-0.400
3.320E-06,-0.380
3.330E-06,-0.380
3.340E-06,-0.060
3.350E-06,0.020
3.360E-06,0.160
3.370E-06,0.080
3.380E-06,0.080
3.390E-06,-0.060
3.400E-06,-0.240
3.410E-06,-0.140
3.420E-06,-0.720
3.430E-06,-0.820
3.440E-06,-1.180
3.450E-06,-1.280
3.460E-06,-1.060
3.470E-06,-1.020
3.480E-06,-0.600
3.490E-06,-0.620
3.500E-06,-0.520
3.510E-06,-0.760
3.520E-06,-0.640
3.530E-06,-0.640
3.540E-06,-0.260
3.550E-06,0.000
3.560E-06,0.280
3.570E-06,0.340
3.580E-06,0.440
3.590E-06,0.480
3.600E-06,0.480
3.610E-06,0.580
3.620E-06,0.660
3.630E-06,0.680
3.640E-06,0.600
3.650E-06,0.500
3.660E-06,0.760
3.670E-06,0.540
3.680E-06,0.660
3.690E-06,0.540
3.700E-06,0.240
3.710E-06,0.240
3.720E-06,-0.080
3.730E-06,0.120
3.740E-06,0.080
3.750E-06,0.120
3.760E-06,-0.080
3.770E-06,-0.260
3.780E-06,-0.320
3.790E-06,-0.500
3.800E-06,-0.640
3.810E-06,-0.600
3.820E-06,-0.400
3.830E-06,-0.780
3.840E-06,-1.260
3.850E-06,-1.340
3.860E-06,-1.320
3.870E-06,-1.260
3.880E-06,-1.360
3.890E-06,-1.080
3.900E-06,-0.880
3.910E-06,-0.920
3.920E-06,-0.080
3.930E-06,0.360
3.940E-06,0.800
3.950E-06,0.300
3.960E-06,0.280
3.970E-06,0.000
3.980E-06,0.000
3.990E-06,0.000
4.000E-06,0.260
4.010E-06,0.160
4.020E-06,0.080
4.030E-06,0.080
4.040E-06,0.240
4.050E-06,0.120
4.060E-06,-0.340
4.070E-06,-0.160
4.080E-06,-0.700
4.090E-06,-1.340
4.100E-06,-2.020
4.110E-06,-2.180
4.120E-06,-1.920
4.130E-06,-1.260
4.140E-06,-0.520
4.150E-06,0.000
4.160E-06,-0.400
4.170E-06,-0.520
4.180E-06,-0.360
4.190E-06,0.160
4.200E-06,0.480
4.210E-06,0.980
4.220E-06,1.560
4.230E-06,1.860
4.240E-06,1.840
4.250E-06,1.600
4.260E-06,1.420
4.270E-06,1.100
4.280E-06,1.100
4.290E-06,1.120
4.300E-06,1.360
4.310E-06,0.860
4.320E-06,0.320
4.330E-06,-0.160
4.340E-06,-0.920
4.350E-06,-1.300
4.360E-06,-1.420
4.370E-06,-1.100
4.380E-06,-0.900
4.390E-06,-1.360
4.400E-06,-1.520
4.410E-06,-1.860
4.420E-06,-1.540
4.430E-06,-1.040
4.440E-06,-0.420
4.450E-06,0.000
4.460E-06,-0.600
4.470E-06,-0.520
4.480E-06,-0.300
4.490E-06,-0.600
4.500E-06,-2.220
4.510E-06,-2.620
4.520E-06,-2.640
4.530E-06,-1.580
4.540E-06,-0.060
4.550E-06,1.820
4.560E-06,2.260
4.570E-06,0.440
4.580E-06,-0.520
4.590E-06,-1.020
4.600E-06,0.420
4.610E-06,1.360
4.620E-06,2.560
4.630E-06,2.680
4.640E-06,2.120
4.650E-06,1.060
4.660E-06,0.620
4.670E-06,0.520
4.680E-06,0.700
4.690E-06,0.760
4.700E-06,0.900
4.710E-06,0.400
4.720E-06,-0.020
4.730E-06,-0.460
4.740E-06,-0.780
4.750E-06,-1.180
4.760E-06,-1.540
4.770E-06,-1.500
4.780E-06,-1.420
4.790E-06,-1.320
4.800E-06,-1.280
4.810E-06,-1.360
4.820E-06,-1.500
4.830E-06,-1.520
4.840E-06,-1.100
4.850E-06,-0.680
4.860E-06,-0.460
4.870E-06,-0.440
4.880E-06,-0.420
4.890E-06,-0.400
4.900E-06,-0.320
4.910E-06,-0.180
4.920E-06,0.060
4.930E-06,0.120
4.940E-06,0.140
4.950E-06,0.280
4.960E-06,0.140
4.970E-06,-0.080
4.980E-06,-0.420
4.990E-06,-0.540
5.000E-06,-0.520
5.010E-06,-0.520
5.020E-06,-0.540
5.030E-06,-0.660
5.040E-06,-0.800
5.050E-06,-0.860
5.060E-06,-0.640
5.070E-06,-0.420
5.080E-06,-0.160
5.090E-06,-0.020
5.100E-06,0.200
5.110E-06,0.400
5.120E-06,0.460
5.130E-06,0.420
5.140E-06,0.400
5.150E-06,0.420
5.160E-06,0.420
5.170E-06,0.460
5.180E-06,0.480
5.190E-06,0.340
5.200E-06,0.280
5.210E-06,0.160
5.220E-06,0.200
5.230E-06,0.180
5.240E-06,0.080
5.250E-06,0.120
5.260E-06,0.040
5.270E-06,0.180
5.280E-06,0.080
5.290E-06,0.120
5.300E-06,0.080
5.310E-06,-0.100
5.320E-06,0.060
5.330E-06,0.160
5.340E-06,0.120
5.350E-06,0.200
5.360E-06,-0.020
5.370E-06,0.000
5.380E-06,-0.840
5.390E-06,-1.740
5.400E-06,-0.160
5.410E-06,-2.660
5.420E-06,-2.580
5.430E-06,-2.680
5.440E-06,-2.680
5.450E-06,-2.680
5.460E-06,-1.920
5.470E-06,1.420
5.480E-06,-0.280
5.490E-06,0.000
5.500E-06,-2.540
5.510E-06,-1.200
5.520E-06,-0.500
5.530E-06,0.900
5.540E-06,2.760
5.550E-06,2.740
5.560E-06,2.360
5.570E-06,1.320
5.580E-06,1.160
5.590E-06,1.200
5.600E-06,1.520
5.610E-06,1.740
5.620E-06,1.680
5.630E-06,0.980
5.640E-06,0.820
5.650E-06,0.060
5.660E-06,-0.260
5.670E-06,-1.000
5.680E-06,-1.220
5.690E-06,-1.180
5.700E-06,-1.220
5.710E-06,-1.160
5.720E-06,-1.300
5.730E-06,-1.600
5.740E-06,-2.500
5.750E-06,-2.280
5.760E-06,-1.780
5.770E-06,-1.100
5.780E-06,-0.700
5.790E-06,-0.540
5.800E-06,-0.500
5.810E-06,-0.920
5.820E-06,-0.940
5.830E-06,-0.440
5.840E-06,0.120
5.850E-06,0.520
5.860E-06,0.960
5.870E-06,1.200
5.880E-06,1.020
5.890E-06,0.520
5.900E-06,0.620
5.910E-06,0.820
5.920E-06,0.880
5.930E-06,0.920
5.940E-06,1.060
5.950E-06,0.540
5.960E-06,-0.580
5.970E-06,-0.980
5.980E-06,-1.140
5.990E-06,-0.300
6.000E-06,0.420
6.010E-06,1.240
6.020E-06,1.180
6.030E-06,0.180
6.040E-06,-0.680
6.050E-06,-0.940
6.060E-06,-0.840
6.070E-06,0.020
6.080E-06,0.240
6.090E-06,0.800
6.100E-06,0.820
6.110E-06,0.120
6.120E-06,0.000
6.130E-06,-0.160
6.140E-06,0.220
6.150E-06,0.580
6.160E-06,0.860
6.170E-06,0.940
6.180E-06,0.540
6.190E-06,0.100
6.200E-06,-0.120
6.210E-06,0.080
6.220E-06,-0.220
6.230E-06,-0.320
6.240E-06,-0.520
6.250E-06,-0.380
6.260E-06,-0.880
6.270E-06,-1.200
6.280E-06,-1.180
6.290E-06,-1.700
6.300E-06,-1.620
6.310E-06,-1.880
6.320E-06,-1.740
6.330E-06,-2.040
6.340E-06,-2.020
6.350E-06,-1.620
6.360E-06,-1.240
6.370E-06,-0.940
6.380E-06,-0.760
6.390E-06,-0.180
6.400E-06,0.300
6.410E-06,0.540
6.420E-06,0.840
6.430E-06,0.600
6.440E-06,0.600
6.450E-06,0.540
6.460E-06,0.720
6.470E-06,1.100
6.480E-06,0.560
6.490E-06,0.420
6.500E-06,0.160
6.510E-06,-0.400
6.520E-06,-1.020
6.530E-06,-0.620
6.540E-06,-1.260
6.550E-06,-1.440
6.560E-06,-1.240
6.570E-06,-1.320
6.580E-06,-0.680
6.590E-06,-1.140
6.600E-06,-1.000
6.610E-06,-1.160
6.620E-06,-1.540
6.630E-06,-1.920
6.640E-06,-0.860
6.650E-06,-0.080
6.660E-06,0.400
6.670E-06,1.040
6.680E-06,1.180
6.690E-06,1.520
6.700E-06,1.020
6.710E-06,1.080
6.720E-06,1.220
6.730E-06,1.120
6.740E-06,0.960
6.750E-06,0.540
6.760E-06,0.180
6.770E-06,0.200
6.780E-06,-0.160
6.790E-06,-0.420
6.800E-06,-0.820
6.810E-06,-1.340
6.820E-06,-1.700
6.830E-06,-1.900
6.840E-06,-2.000
6.850E-06,-2.000
6.860E-06,-2.320
6.870E-06,-2.460
6.880E-06,-2.420
6.890E-06,-2.200
6.900E-06,-1.620
6.910E-06,-1.600
6.920E-06,-1.240
6.930E-06,-1.020
6.940E-06,-0.800
6.950E-06,-0.420
6.960E-06,-0.180
6.970E-06,0.120
6.980E-06,0.500
6.990E-06,0.720
7.000E-06,0.980
7.010E-06,1.180
7.020E-06,1.000
7.030E-06,1.000
7.040E-06,0.660
7.050E-06,0.600
7.060E-06,0.320
7.070E-06,0.140
7.080E-06,0.320
7.090E-06,0.200
7.100E-06,0.240
7.110E-06,-0.120
7.120E-06,-0.520
7.130E-06,-0.680
7.140E-06,-0.780
7.150E-06,-0.720
7.160E-06,-0.700
7.170E-06,-0.680
7.180E-06,-0.860
7.190E-06,-0.600
7.200E-06,-0.240
7.210E-06,-0.280
7.220E-06,0.240
7.230E-06,0.060
7.240E-06,0.280
7.250E-06,0.640
7.260E-06,0.900
7.270E-06,1.680
7.280E-06,1.680
7.290E-06,1.800
7.300E-06,1.840
7.310E-06,1.540
7.320E-06,1.420
7.330E-06,0.980
7.340E-06,0.840
7.350E-06,0.640
7.360E-06,0.440
7.370E-06,0.300
7.380E-06,-0.040
7.390E-06,-0.420
7.400E-06,-0.980
7.410E-06,-1.360
7.420E-06,-1.520
7.430E-06,-1.700
7.440E-06,-1.720
7.450E-06,-1.720
7.460E-06,-1.780
7.470E-06,-1.880
7.480E-06,-1.700
7.490E-06,-1.720
7.500E-06,-1.520
7.510E-06,-1.480
7.520E-06,-0.700
7.530E-06,-2.280
7.540E-06,-0.860
7.550E-06,-1.600
7.560E-06,-2.660
7.570E-06,-2.660
7.580E-06,-2.480
7.590E-06,-1.720
7.600E-06,0.180
7.610E-06,2.300
7.620E-06,2.300
7.630E-06,0.340
7.640E-06,-1.980
7.650E-06,-1.600
7.660E-06,-0.700
7.670E-06,-1.180
7.680E-06,-0.320
7.690E-06,0.860
7.700E-06,0.880
7.710E-06,-0.420
7.720E-06,-0.520
7.730E-06,-0.380
7.740E-06,-0.580
7.750E-06,-0.620
7.760E-06,0.020
7.770E-06,0.500
7.780E-06,0.280
7.790E-06,-0.080
7.800E-06,-0.240
7.810E-06,-0.700
7.820E-06,-1.360
7.830E-06,-0.940
7.840E-06,-0.120
7.850E-06,0.020
7.860E-06,-0.180
7.870E-06,-0.120
7.880E-06,-0.080
7.890E-06,-0.180
7.900E-06,0.060
7.910E-06,0.600
7.920E-06,0.680
7.930E-06,0.200
7.940E-06,0.200
7.950E-06,0.340
7.960E-06,0.100
7.970E-06,-0.160
7.980E-06,-0.020
7.990E-06,0.280
8.000E-06,0.200
8.010E-06,0.360
8.020E-06,0.520
8.030E-06,0.340
8.040E-06,-0.080
8.050E-06,-0.080
8.060E-06,0.100
8.070E-06,-0.100
8.080E-06,-0.500
8.090E-06,-0.680
8.100E-06,-0.740
8.110E-06,-0.860
8.120E-06,-0.820
8.130E-06,-0.820
8.140E-06,-0.820
8.150E-06,-1.120
8.160E-06,-1.040
8.170E-06,-0.700
8.180E-06,-1.040
8.190E-06,-0.940
8.200E-06,-0.860
8.210E-06,-0.740
8.220E-06,-0.260
8.230E-06,-0.580
8.240E-06,-1.000
8.250E-06,-1.180
8.260E-06,-1.940
8.270E-06,-2.000
8.280E-06,-2.180
8.290E-06,-2.660
8.300E-06,-2.320
8.310E-06,-2.460
8.320E-06,-1.560
8.330E-06,-0.880
8.340E-06,0.620
8.350E-06,1.260
8.360E-06,2.280
8.370E-06,2.340
8.380E-06,2.140
8.390E-06,1.840
8.400E-06,0.180
8.410E-06,0.940
8.420E-06,-0.680
8.430E-06,0.060
8.440E-06,-1.140
8.450E-06,-0.940
8.460E-06,-1.800
8.470E-06,-2.420
8.480E-06,-2.680
8.490E-06,-2.660
8.500E-06,-2.660
8.510E-06,-2.660
8.520E-06,-2.660
8.530E-06,-2.660
8.540E-06,-2.660
8.550E-06,-2.660
8.560E-06,-2.600
8.570E-06,-2.540
8.580E-06,-2.140
8.590E-06,-1.740
8.600E-06,-1.140
8.610E-06,-0.860
8.620E-06,-0.660
8.630E-06,-0.660
8.640E-06,-0.720
8.650E-06,-0.960
8.660E-06,-1.300
8.670E-06,-1.700
8.680E-06,-2.380
8.690E-06,-2.640
8.700E-06,-2.640
8.710E-06,-2.640
8.720E-06,-2.640
8.730E-06,-2.640
8.740E-06,-2.660
8.750E-06,-2.660
8.760E-06,-2.660
8.770E-06,-2.660
8.780E-06,-2.660
8.790E-06,-2.660
8.800E-06,-2.660
8.810E-06,-2.660
8.820E-06,-2.660
8.830E-06,-2.660
8.840E-06,-2.640
8.850E-06,-2.660
8.860E-06,-2.660
8.870E-06,-2.660
8.880E-06,-2.640
8.890E-06,-2.660
8.900E-06,-2.660
8.910E-06,-2.660
8.920E-06,-2.660
8.930E-06,-2.660
8.940E-06,-2.660
8.950E-06,-2.660
8.960E-06,-2.660
8.970E-06,-2.660
8.980E-06,-2.680
8.990E-06,-2.680
9.000E-06,-2.680
9.010E-06,-2.680
9.020E-06,-2.660
9.030E-06,-2.660
9.040E-06,-2.660
9.050E-06,-2.660
9.060E-06,-2.660
9.070E-06,-2.660
9.080E-06,-2.680
9.090E-06,-2.660
9.100E-06,-2.660
9.110E-06,-2.660
9.120E-06,-2.660
9.130E-06,-2.660
9.140E-06,-2.660
9.150E-06,-2.680
9.160E-06,-2.680
9.170E-06,-2.680
9.180E-06,-2.660
9.190E-06,-2.660
9.200E-06,-2.660
9.210E-06,-2.660
9.220E-06,-2.660
9.230E-06,-2.660
9.240E-06,-2.680
9.250E-06,-2.660
9.260E-06,-2.660
9.270E-06,-2.640
9.280E-06,-2.660
9.290E-06,-2.660
9.300E-06,-2.680
9.310E-06,-2.600
9.320E-06,-2.540
9.330E-06,-2.480
9.340E-06,-2.400
9.350E-06,-2.340
9.360E-06,-2.260
9.370E-06,-2.180
9.380E-06,-2.100
9.390E-06,-2.020
9.400E-06,-1.940
9.410E-06,-1.880
9.420E-06,-1.860
9.430E-06,-1.860
9.440E-06,-1.800
9.450E-06,-1.780
9.460E-06,-1.740
9.470E-06,-1.740
9.480E-06,-1.700
9.490E-06,-1.600
9.500E-06,-1.540
9.510E-06,-1.500
9.520E-06,-1.420
9.530E-06,-1.360
9.540E-06,-1.360
9.550E-06,-1.280
9.560E-06,-1.260
9.570E-06,-1.240
9.580E-06,-1.220
9.590E-06,-1.240
9.600E-06,-1.180
9.610E-06,-1.180
9.620E-06,-1.140
9.630E-06,-1.180
9.640E-06,-1.160
