mediciones/Mediciones filtradas (saque las feas)/6-3/-5/WaveData53113.csv

#timebase=2000000(ps)
,#voltbase=500000(mv/100)
#size=4000
-2.300E-06,-0.320
-2.290E-06,-0.160
-2.280E-06,-0.260
-2.270E-06,-0.260
-2.260E-06,-0.560
-2.250E-06,-0.420
-2.240E-06,-0.460
-2.230E-06,-0.320
-2.220E-06,-0.040
-2.210E-06,0.220
-2.200E-06,0.420
-2.190E-06,0.180
-2.180E-06,0.220
-2.170E-06,0.220
-2.160E-06,0.320
-2.150E-06,0.560
-2.140E-06,0.600
-2.130E-06,0.820
-2.120E-06,0.780
-2.110E-06,0.840
-2.100E-06,1.040
-2.090E-06,1.040
-2.080E-06,1.360
-2.070E-06,1.380
-2.060E-06,1.360
-2.050E-06,1.340
-2.040E-06,1.380
-2.030E-06,1.520
-2.020E-06,1.460
-2.010E-06,1.500
-2.000E-06,1.260
-1.990E-06,1.060
-1.980E-06,0.920
-1.970E-06,0.920
-1.960E-06,1.000
-1.950E-06,0.780
-1.940E-06,0.800
-1.930E-06,0.800
-1.920E-06,0.640
-1.910E-06,0.760
-1.900E-06,0.680
-1.890E-06,0.680
-1.880E-06,0.600
-1.870E-06,0.480
-1.860E-06,0.560
-1.850E-06,0.560
-1.840E-06,0.600
-1.830E-06,0.700
-1.820E-06,0.680
-1.810E-06,0.720
-1.800E-06,0.540
-1.790E-06,0.520
-1.780E-06,0.460
-1.770E-06,0.300
-1.760E-06,0.300
-1.750E-06,0.220
-1.740E-06,0.340
-1.730E-06,0.340
-1.720E-06,0.400
-1.710E-06,0.500
-1.700E-06,0.440
-1.690E-06,0.500
-1.680E-06,0.500
-1.670E-06,0.760
-1.660E-06,1.000
-1.650E-06,1.000
-1.640E-06,1.180
-1.630E-06,1.020
-1.620E-06,1.200
-1.610E-06,1.180
-1.600E-06,1.180
-1.590E-06,1.460
-1.580E-06,1.480
-1.570E-06,1.660
-1.560E-06,1.700
-1.550E-06,1.740
-1.540E-06,1.800
-1.530E-06,1.620
-1.520E-06,1.560
-1.510E-06,1.440
-1.500E-06,1.460
-1.490E-06,1.500
-1.480E-06,1.440
-1.470E-06,1.360
-1.460E-06,1.360
-1.450E-06,1.240
-1.440E-06,1.200
-1.430E-06,1.200
-1.420E-06,1.180
-1.410E-06,1.240
-1.400E-06,1.180
-1.390E-06,1.040
-1.380E-06,0.800
-1.370E-06,0.620
-1.360E-06,0.440
-1.350E-06,0.320
-1.340E-06,0.260
-1.330E-06,0.200
-1.320E-06,0.020
-1.310E-06,-0.140
-1.300E-06,-0.320
-1.290E-06,-0.300
-1.280E-06,-0.420
-1.270E-06,-0.220
-1.260E-06,-0.040
-1.250E-06,0.260
-1.240E-06,0.260
-1.230E-06,0.300
-1.220E-06,0.300
-1.210E-06,0.400
-1.200E-06,0.580
-1.190E-06,0.780
-1.180E-06,0.780
-1.170E-06,0.700
-1.160E-06,0.500
-1.150E-06,0.280
-1.140E-06,0.280
-1.130E-06,0.100
-1.120E-06,0.180
-1.110E-06,-0.020
-1.100E-06,0.320
-1.090E-06,0.540
-1.080E-06,0.500
-1.070E-06,0.400
-1.060E-06,0.460
-1.050E-06,0.820
-1.040E-06,1.180
-1.030E-06,1.260
-1.020E-06,1.300
-1.010E-06,1.480
-1.000E-06,1.300
-9.900E-07,1.360
-9.800E-07,1.500
-9.700E-07,1.480
-9.600E-07,1.540
-9.500E-07,1.360
-9.400E-07,1.140
-9.300E-07,1.120
-9.200E-07,0.820
-9.100E-07,0.820
-9.000E-07,0.940
-8.900E-07,0.920
-8.800E-07,0.980
-8.700E-07,0.900
-8.600E-07,0.800
-8.500E-07,0.800
-8.400E-07,0.580
-8.300E-07,0.600
-8.200E-07,0.520
-8.100E-07,0.600
-8.000E-07,0.500
-7.900E-07,0.560
-7.800E-07,0.320
-7.700E-07,0.260
-7.600E-07,0.060
-7.500E-07,0.240
-7.400E-07,-0.120
-7.300E-07,-0.120
-7.200E-07,-0.640
-7.100E-07,-0.560
-7.000E-07,-0.460
-6.900E-07,-0.540
-6.800E-07,-0.280
-6.700E-07,-0.680
-6.600E-07,-0.340
-6.500E-07,-0.720
-6.400E-07,-0.480
-6.300E-07,-0.380
-6.200E-07,-0.260
-6.100E-07,-0.200
-6.000E-07,0.100
-5.900E-07,0.180
-5.800E-07,0.560
-5.700E-07,0.680
-5.600E-07,1.000
-5.500E-07,1.000
-5.400E-07,1.020
-5.300E-07,1.080
-5.200E-07,1.080
-5.100E-07,1.200
-5.000E-07,1.100
-4.900E-07,1.200
-4.800E-07,1.000
-4.700E-07,0.840
-4.600E-07,0.600
-4.500E-07,0.400
-4.400E-07,0.140
-4.300E-07,-0.100
-4.200E-07,-0.320
-4.100E-07,-0.500
-4.000E-07,-0.700
-3.900E-07,-0.860
-3.800E-07,-1.000
-3.700E-07,-1.260
-3.600E-07,-1.400
-3.500E-07,-1.520
-3.400E-07,-1.500
-3.300E-07,-1.480
-3.200E-07,-1.520
-3.100E-07,-1.440
-3.000E-07,-1.480
-2.900E-07,-1.500
-2.800E-07,-1.360
-2.700E-07,-1.180
-2.600E-07,-1.080
-2.500E-07,-1.040
-2.400E-07,-1.060
-2.300E-07,-1.040
-2.200E-07,-1.120
-2.100E-07,-1.240
-2.000E-07,-1.560
-1.900E-07,-2.120
-1.800E-07,-2.660
-1.700E-07,-2.660
-1.600E-07,-2.660
-1.500E-07,-2.660
-1.400E-07,-2.660
-1.300E-07,-2.660
-1.200E-07,-2.680
-1.100E-07,-2.680
-1.000E-07,-2.660
-9.000E-08,-2.660
-8.000E-08,-2.640
-7.000E-08,-2.640
-6.000E-08,-2.640
-5.000E-08,-2.640
-4.000E-08,-2.660
-3.000E-08,-2.660
-2.000E-08,-2.660
-1.000E-08,-2.660
0.000E+00,-2.660
1.000E-08,-2.660
2.000E-08,-2.660
3.000E-08,-2.660
4.000E-08,-2.660
5.000E-08,-2.660
6.000E-08,-2.660
7.000E-08,-2.660
8.000E-08,-2.660
9.000E-08,-2.660
1.000E-07,-2.660
1.100E-07,-2.660
1.200E-07,-2.640
1.300E-07,-2.640
1.400E-07,-2.640
1.500E-07,-2.660
1.600E-07,-2.660
1.700E-07,-2.660
1.800E-07,-2.660
1.900E-07,-2.660
2.000E-07,-2.660
2.100E-07,-2.660
2.200E-07,-2.660
2.300E-07,-2.660
2.400E-07,-2.660
2.500E-07,-2.660
2.600E-07,-2.660
2.700E-07,-2.660
2.800E-07,-2.660
2.900E-07,-2.660
3.000E-07,-2.660
3.100E-07,-2.660
3.200E-07,-2.660
3.300E-07,-2.660
3.400E-07,-2.660
3.500E-07,-2.660
3.600E-07,-2.660
3.700E-07,-2.660
3.800E-07,-2.660
3.900E-07,-2.660
4.000E-07,-2.640
4.100E-07,-2.660
4.200E-07,-2.660
4.300E-07,-2.660
4.400E-07,-2.660
4.500E-07,-2.660
4.600E-07,-2.660
4.700E-07,-2.660
4.800E-07,-2.680
4.900E-07,-2.680
5.000E-07,-2.680
5.100E-07,-2.680
5.200E-07,-2.660
5.300E-07,-2.660
5.400E-07,-2.660
5.500E-07,-2.660
5.600E-07,-2.680
5.700E-07,-2.680
5.800E-07,-2.680
5.900E-07,-2.660
6.000E-07,-2.660
6.100E-07,-2.660
6.200E-07,-2.660
6.300E-07,-2.660
6.400E-07,-2.660
6.500E-07,-2.680
6.600E-07,-2.660
6.700E-07,-2.660
6.800E-07,-2.660
6.900E-07,-2.680
7.000E-07,-2.680
7.100E-07,-2.680
7.200E-07,-2.680
7.300E-07,-2.680
7.400E-07,-2.680
7.500E-07,-2.660
7.600E-07,-2.660
7.700E-07,-2.660
7.800E-07,-2.660
7.900E-07,-2.680
8.000E-07,-2.680
8.100E-07,-2.660
8.200E-07,-2.660
8.300E-07,-2.660
8.400E-07,-2.660
8.500E-07,-2.640
8.600E-07,-2.660
8.700E-07,-2.660
8.800E-07,-2.680
8.900E-07,-2.660
9.000E-07,-2.640
9.100E-07,-2.560
9.200E-07,-2.500
9.300E-07,-2.440
9.400E-07,-2.420
9.500E-07,-2.400
9.600E-07,-2.380
9.700E-07,-2.420
9.800E-07,-2.380
9.900E-07,-2.380
1.000E-06,-2.380
1.010E-06,-2.420
1.020E-06,-2.400
1.030E-06,-2.380
1.040E-06,-2.380
1.050E-06,-2.380
1.060E-06,-2.380
1.070E-06,-2.280
1.080E-06,-2.240
1.090E-06,-2.200
1.100E-06,-2.140
1.110E-06,-2.040
1.120E-06,-2.000
1.130E-06,-1.860
1.140E-06,-1.780
1.150E-06,-1.720
1.160E-06,-1.600
1.170E-06,-1.540
1.180E-06,-1.520
1.190E-06,-1.460
1.200E-06,-1.440
1.210E-06,-1.400
1.220E-06,-1.420
1.230E-06,-1.440
1.240E-06,-1.480
1.250E-06,-1.560
1.260E-06,-1.600
1.270E-06,-1.660
1.280E-06,-1.700
1.290E-06,-1.740
1.300E-06,-1.700
1.310E-06,-1.720
1.320E-06,-1.680
1.330E-06,-1.600
1.340E-06,-1.560
1.350E-06,-1.500
1.360E-06,-1.400
1.370E-06,-1.340
1.380E-06,-1.220
1.390E-06,-1.100
1.400E-06,-1.000
1.410E-06,-0.900
1.420E-06,-0.780
1.430E-06,-0.760
1.440E-06,-0.720
1.450E-06,-0.720
1.460E-06,-0.760
1.470E-06,-0.840
1.480E-06,-0.880
1.490E-06,-0.920
1.500E-06,-0.980
1.510E-06,-1.040
1.520E-06,-1.140
1.530E-06,-1.180
1.540E-06,-1.240
1.550E-06,-1.280
1.560E-06,-1.320
1.570E-06,-1.300
1.580E-06,-1.300
1.590E-06,-1.260
1.600E-06,-1.200
1.610E-06,-1.180
1.620E-06,-1.060
1.630E-06,-0.980
1.640E-06,-0.880
1.650E-06,-0.760
1.660E-06,-0.660
1.670E-06,-0.600
1.680E-06,-0.520
1.690E-06,-0.420
1.700E-06,-0.380
1.710E-06,-0.340
1.720E-06,-0.260
1.730E-06,-0.300
1.740E-06,-0.340
1.750E-06,-0.400
1.760E-06,-0.480
1.770E-06,-0.580
1.780E-06,-0.760
1.790E-06,-0.880
1.800E-06,-1.120
1.810E-06,-1.380
1.820E-06,-1.620
1.830E-06,-1.760
1.840E-06,-1.780
1.850E-06,-1.700
1.860E-06,-1.460
1.870E-06,-1.160
1.880E-06,-0.940
1.890E-06,-0.840
1.900E-06,-0.720
1.910E-06,-0.740
1.920E-06,-0.720
1.930E-06,-0.780
1.940E-06,-0.820
1.950E-06,-0.780
1.960E-06,-0.820
1.970E-06,-0.860
1.980E-06,-0.900
1.990E-06,-0.940
2.000E-06,-1.020
2.010E-06,-1.000
2.020E-06,-1.020
2.030E-06,-1.040
2.040E-06,-1.080
2.050E-06,-1.100
2.060E-06,-1.140
2.070E-06,-1.140
2.080E-06,-1.180
2.090E-06,-1.180
2.100E-06,-1.120
2.110E-06,-1.060
2.120E-06,-0.980
2.130E-06,-0.860
2.140E-06,-0.720
2.150E-06,-0.560
2.160E-06,-0.420
2.170E-06,-0.280
2.180E-06,-0.140
2.190E-06,-0.060
2.200E-06,0.000
2.210E-06,0.000
2.220E-06,0.000
2.230E-06,-0.060
2.240E-06,-0.080
2.250E-06,-0.220
2.260E-06,-0.300
2.270E-06,-0.400
2.280E-06,-0.500
2.290E-06,-0.600
2.300E-06,-0.680
2.310E-06,-0.680
2.320E-06,-0.720
2.330E-06,-0.700
2.340E-06,-0.680
2.350E-06,-0.600
2.360E-06,-0.500
2.370E-06,-0.400
2.380E-06,-0.280
2.390E-06,-0.140
2.400E-06,-0.060
2.410E-06,0.060
2.420E-06,0.160
2.430E-06,0.200
2.440E-06,0.200
2.450E-06,0.160
2.460E-06,0.140
2.470E-06,0.080
2.480E-06,0.000
2.490E-06,-0.080
2.500E-06,-0.160
2.510E-06,-0.240
2.520E-06,-0.340
2.530E-06,-0.440
2.540E-06,-0.540
2.550E-06,-0.600
2.560E-06,-0.680
2.570E-06,-0.720
2.580E-06,-0.700
2.590E-06,-0.680
2.600E-06,-0.620
2.610E-06,-0.480
2.620E-06,-0.340
2.630E-06,-0.220
2.640E-06,-0.060
2.650E-06,0.080
2.660E-06,0.180
2.670E-06,0.320
2.680E-06,0.360
2.690E-06,0.420
2.700E-06,0.460
2.710E-06,0.500
2.720E-06,0.500
2.730E-06,0.560
2.740E-06,0.540
2.750E-06,0.520
2.760E-06,0.500
2.770E-06,0.460
2.780E-06,0.400
2.790E-06,0.360
2.800E-06,0.280
2.810E-06,0.260
2.820E-06,0.260
2.830E-06,0.300
2.840E-06,0.360
2.850E-06,0.440
2.860E-06,0.500
2.870E-06,0.560
2.880E-06,0.580
2.890E-06,0.620
2.900E-06,0.600
2.910E-06,0.560
2.920E-06,0.560
2.930E-06,0.440
2.940E-06,0.300
2.950E-06,0.120
2.960E-06,-0.140
2.970E-06,-0.340
2.980E-06,-0.600
2.990E-06,-0.720
3.000E-06,-0.820
3.010E-06,-0.820
3.020E-06,-0.760
3.030E-06,-0.620
3.040E-06,-0.460
3.050E-06,-0.300
3.060E-06,-0.180
3.070E-06,-0.040
3.080E-06,-0.020
3.090E-06,0.060
3.100E-06,0.080
3.110E-06,0.100
3.120E-06,0.100
3.130E-06,0.080
3.140E-06,0.060
3.150E-06,0.100
3.160E-06,0.140
3.170E-06,0.220
3.180E-06,0.320
3.190E-06,0.360
3.200E-06,0.500
3.210E-06,0.560
3.220E-06,0.600
3.230E-06,0.600
3.240E-06,0.560
3.250E-06,0.500
3.260E-06,0.440
3.270E-06,0.300
3.280E-06,0.220
3.290E-06,0.060
3.300E-06,0.000
3.310E-06,-0.100
3.320E-06,-0.160
3.330E-06,-0.200
3.340E-06,-0.240
3.350E-06,-0.280
3.360E-06,-0.260
3.370E-06,-0.260
3.380E-06,-0.220
3.390E-06,-0.160
3.400E-06,-0.060
3.410E-06,0.000
3.420E-06,0.120
3.430E-06,0.220
3.440E-06,0.320
3.450E-06,0.360
3.460E-06,0.440
3.470E-06,0.460
3.480E-06,0.500
3.490E-06,0.460
3.500E-06,0.420
3.510E-06,0.380
3.520E-06,0.260
3.530E-06,0.220
3.540E-06,0.140
3.550E-06,0.080
3.560E-06,0.080
3.570E-06,0.080
3.580E-06,0.080
3.590E-06,0.120
3.600E-06,0.120
3.610E-06,0.120
3.620E-06,0.040
3.630E-06,-0.020
3.640E-06,-0.100
3.650E-06,-0.200
3.660E-06,-0.240
3.670E-06,-0.260
3.680E-06,-0.260
3.690E-06,-0.220
3.700E-06,-0.140
3.710E-06,-0.060
3.720E-06,0.040
3.730E-06,0.180
3.740E-06,0.340
3.750E-06,0.500
3.760E-06,0.680
3.770E-06,0.840
3.780E-06,1.000
3.790E-06,1.120
3.800E-06,1.200
3.810E-06,1.260
3.820E-06,1.300
3.830E-06,1.320
3.840E-06,1.300
3.850E-06,1.300
3.860E-06,1.260
3.870E-06,1.220
3.880E-06,1.180
3.890E-06,1.180
3.900E-06,1.180
3.910E-06,1.180
3.920E-06,1.200
3.930E-06,1.180
3.940E-06,1.180
3.950E-06,1.160
3.960E-06,1.100
3.970E-06,1.020
3.980E-06,0.940
3.990E-06,0.860
4.000E-06,0.720
4.010E-06,0.640
4.020E-06,0.560
4.030E-06,0.540
4.040E-06,0.520
4.050E-06,0.500
4.060E-06,0.500
4.070E-06,0.440
4.080E-06,0.360
4.090E-06,0.220
4.100E-06,0.080
4.110E-06,-0.100
4.120E-06,-0.240
4.130E-06,-0.340
4.140E-06,-0.380
4.150E-06,-0.320
4.160E-06,-0.240
4.170E-06,-0.040
4.180E-06,0.120
4.190E-06,0.260
4.200E-06,0.360
4.210E-06,0.440
4.220E-06,0.500
4.230E-06,0.560
4.240E-06,0.640
4.250E-06,0.680
4.260E-06,0.660
4.270E-06,0.700
4.280E-06,0.680
4.290E-06,0.680
4.300E-06,0.700
4.310E-06,0.680
4.320E-06,0.660
4.330E-06,0.640
4.340E-06,0.640
4.350E-06,0.660
4.360E-06,0.720
4.370E-06,0.760
4.380E-06,0.840
4.390E-06,0.940
4.400E-06,1.020
4.410E-06,1.120
4.420E-06,1.200
4.430E-06,1.280
4.440E-06,1.360
4.450E-06,1.460
4.460E-06,1.520
4.470E-06,1.580
4.480E-06,1.560
4.490E-06,1.540
4.500E-06,1.420
4.510E-06,1.320
4.520E-06,1.140
4.530E-06,0.980
4.540E-06,0.820
4.550E-06,0.680
4.560E-06,0.600
4.570E-06,0.580
4.580E-06,0.640
4.590E-06,0.740
4.600E-06,0.840
4.610E-06,0.880
4.620E-06,0.920
4.630E-06,0.960
4.640E-06,0.940
4.650E-06,0.900
4.660E-06,0.820
4.670E-06,0.720
4.680E-06,0.560
4.690E-06,0.440
4.700E-06,0.280
4.710E-06,0.180
4.720E-06,0.080
4.730E-06,0.020
4.740E-06,0.000
4.750E-06,0.020
4.760E-06,0.140
4.770E-06,0.260
4.780E-06,0.420
4.790E-06,0.580
4.800E-06,0.720
4.810E-06,0.860
4.820E-06,0.940
4.830E-06,1.000
4.840E-06,1.040
4.850E-06,1.000
4.860E-06,1.000
4.870E-06,0.960
4.880E-06,0.920
4.890E-06,0.920
4.900E-06,0.900
4.910E-06,0.900
4.920E-06,0.980
4.930E-06,1.040
4.940E-06,1.140
4.950E-06,1.260
4.960E-06,1.320
4.970E-06,1.400
4.980E-06,1.440
4.990E-06,1.460
5.000E-06,1.460
5.010E-06,1.440
5.020E-06,1.440
5.030E-06,1.420
5.040E-06,1.400
5.050E-06,1.360
5.060E-06,1.360
5.070E-06,1.340
5.080E-06,1.280
5.090E-06,1.260
5.100E-06,1.240
5.110E-06,1.240
5.120E-06,1.240
5.130E-06,1.280
5.140E-06,1.260
5.150E-06,1.320
5.160E-06,1.340
5.170E-06,1.400
5.180E-06,1.440
5.190E-06,1.480
5.200E-06,1.500
5.210E-06,1.520
5.220E-06,1.500
5.230E-06,1.500
5.240E-06,1.460
5.250E-06,1.420
5.260E-06,1.420
5.270E-06,1.380
5.280E-06,1.320
5.290E-06,1.300
5.300E-06,1.340
5.310E-06,1.340
5.320E-06,1.340
5.330E-06,1.460
5.340E-06,1.580
5.350E-06,1.720
5.360E-06,1.860
5.370E-06,2.040
5.380E-06,2.260
5.390E-06,2.420
5.400E-06,2.640
5.410E-06,2.760
5.420E-06,2.740
5.430E-06,2.760
5.440E-06,2.780
5.450E-06,2.780
5.460E-06,2.760
5.470E-06,2.780
5.480E-06,2.760
5.490E-06,2.780
5.500E-06,2.780
5.510E-06,2.760
5.520E-06,2.760
5.530E-06,2.780
5.540E-06,2.780
5.550E-06,2.760
5.560E-06,2.780
5.570E-06,2.760
5.580E-06,2.760
5.590E-06,2.760
5.600E-06,2.760
5.610E-06,2.740
5.620E-06,2.760
5.630E-06,2.780
5.640E-06,2.760
5.650E-06,2.760
5.660E-06,2.760
5.670E-06,2.740
5.680E-06,2.760
5.690E-06,2.760
5.700E-06,2.760
5.710E-06,2.760
5.720E-06,2.760
5.730E-06,2.760
5.740E-06,2.760
5.750E-06,2.740
5.760E-06,2.760
5.770E-06,2.760
5.780E-06,2.740
5.790E-06,2.760
5.800E-06,2.780
5.810E-06,2.760
5.820E-06,2.740
5.830E-06,2.760
5.840E-06,2.780
5.850E-06,2.760
5.860E-06,2.780
5.870E-06,2.780
5.880E-06,2.760
5.890E-06,2.780
5.900E-06,2.760
5.910E-06,2.780
5.920E-06,2.760
5.930E-06,2.760
5.940E-06,2.780
5.950E-06,2.760
5.960E-06,2.740
5.970E-06,2.760
5.980E-06,2.780
5.990E-06,2.760
6.000E-06,2.760
6.010E-06,2.740
6.020E-06,2.760
6.030E-06,2.780
6.040E-06,2.780
6.050E-06,2.760
6.060E-06,2.780
6.070E-06,2.760
6.080E-06,2.760
6.090E-06,2.760
6.100E-06,2.760
6.110E-06,2.760
6.120E-06,2.760
6.130E-06,2.760
6.140E-06,2.740
6.150E-06,2.760
6.160E-06,2.760
6.170E-06,2.760
6.180E-06,2.740
6.190E-06,2.760
6.200E-06,2.780
6.210E-06,2.760
6.220E-06,2.780
6.230E-06,2.780
6.240E-06,2.760
6.250E-06,2.780
6.260E-06,2.780
6.270E-06,2.760
6.280E-06,2.760
6.290E-06,2.760
6.300E-06,2.760
6.310E-06,2.740
6.320E-06,2.760
6.330E-06,2.760
6.340E-06,2.680
6.350E-06,2.620
6.360E-06,2.540
6.370E-06,2.500
6.380E-06,2.480
6.390E-06,2.420
6.400E-06,2.380
6.410E-06,2.360
6.420E-06,2.300
6.430E-06,2.300
6.440E-06,2.260
6.450E-06,2.200
6.460E-06,2.160
6.470E-06,2.060
6.480E-06,2.040
6.490E-06,1.980
6.500E-06,1.880
6.510E-06,1.880
6.520E-06,1.820
6.530E-06,1.760
6.540E-06,1.740
6.550E-06,1.760
6.560E-06,1.720
6.570E-06,1.700
6.580E-06,1.700
6.590E-06,1.700
6.600E-06,1.680
6.610E-06,1.680
6.620E-06,1.640
6.630E-06,1.620
6.640E-06,1.600
6.650E-06,1.620
6.660E-06,1.580
6.670E-06,1.560
6.680E-06,1.540
6.690E-06,1.520
6.700E-06,1.520
6.710E-06,1.520
6.720E-06,1.540
6.730E-06,1.540
6.740E-06,1.540
6.750E-06,1.520
6.760E-06,1.520
6.770E-06,1.560
6.780E-06,1.520
6.790E-06,1.500
6.800E-06,1.460
6.810E-06,1.480
6.820E-06,1.460
6.830E-06,1.440
6.840E-06,1.420
6.850E-06,1.400
6.860E-06,1.400
6.870E-06,1.420
6.880E-06,1.400
6.890E-06,1.420
6.900E-06,1.420
6.910E-06,1.380
6.920E-06,1.360
6.930E-06,1.400
6.940E-06,1.360
6.950E-06,1.380
6.960E-06,1.360
6.970E-06,1.360
6.980E-06,1.320
6.990E-06,1.320
7.000E-06,1.300
7.010E-06,1.260
7.020E-06,1.240
7.030E-06,1.200
7.040E-06,1.240
7.050E-06,1.220
7.060E-06,1.180
7.070E-06,1.200
7.080E-06,1.180
7.090E-06,1.180
7.100E-06,1.180
7.110E-06,1.180
7.120E-06,1.180
7.130E-06,1.200
7.140E-06,1.220
7.150E-06,1.240
7.160E-06,1.240
7.170E-06,1.220
7.180E-06,1.220
7.190E-06,1.240
7.200E-06,1.240
7.210E-06,1.240
7.220E-06,1.200
7.230E-06,1.180
7.240E-06,1.240
7.250E-06,1.180
7.260E-06,1.180
7.270E-06,1.180
7.280E-06,1.160
7.290E-06,1.160
7.300E-06,1.140
7.310E-06,1.120
7.320E-06,1.120
7.330E-06,1.120
7.340E-06,1.120
7.350E-06,1.080
7.360E-06,1.100
7.370E-06,1.060
7.380E-06,1.060
7.390E-06,1.060
7.400E-06,1.040
7.410E-06,1.000
7.420E-06,1.000
7.430E-06,1.020
7.440E-06,1.000
7.450E-06,0.980
7.460E-06,0.980
7.470E-06,1.000
7.480E-06,0.980
7.490E-06,0.960
7.500E-06,0.940
7.510E-06,0.940
7.520E-06,0.920
7.530E-06,0.900
7.540E-06,0.900
7.550E-06,0.900
7.560E-06,0.880
7.570E-06,0.880
7.580E-06,0.840
7.590E-06,0.860
7.600E-06,0.840
7.610E-06,0.860
7.620E-06,0.840
7.630E-06,0.860
7.640E-06,0.860
7.650E-06,0.840
7.660E-06,0.840
7.670E-06,0.800
7.680E-06,0.800
7.690E-06,0.800
7.700E-06,0.800
7.710E-06,0.740
7.720E-06,0.760
7.730E-06,0.780
7.740E-06,0.740
7.750E-06,0.700
7.760E-06,0.660
7.770E-06,0.680
7.780E-06,0.640
7.790E-06,0.640
7.800E-06,0.640
7.810E-06,0.640
7.820E-06,0.640
7.830E-06,0.660
7.840E-06,0.600
7.850E-06,0.640
7.860E-06,0.620
7.870E-06,0.600
7.880E-06,0.620
7.890E-06,0.580
7.900E-06,0.580
7.910E-06,0.520
7.920E-06,0.520
7.930E-06,0.480
7.940E-06,0.460
7.950E-06,0.440
7.960E-06,0.460
7.970E-06,0.440
7.980E-06,0.440
7.990E-06,0.460
8.000E-06,0.460
8.010E-06,0.480
8.020E-06,0.480
8.030E-06,0.500
8.040E-06,0.500
8.050E-06,0.500
8.060E-06,0.480
8.070E-06,0.460
8.080E-06,0.440
8.090E-06,0.440
8.100E-06,0.380
8.110E-06,0.380
8.120E-06,0.340
8.130E-06,0.380
8.140E-06,0.340
8.150E-06,0.360
8.160E-06,0.340
8.170E-06,0.340
8.180E-06,0.340
8.190E-06,0.320
8.200E-06,0.320
8.210E-06,0.300
8.220E-06,0.260
8.230E-06,0.260
8.240E-06,0.220
8.250E-06,0.200
8.260E-06,0.200
8.270E-06,0.200
8.280E-06,0.160
8.290E-06,0.160
8.300E-06,0.160
8.310E-06,0.160
8.320E-06,0.160
8.330E-06,0.180
8.340E-06,0.140
8.350E-06,0.120
8.360E-06,0.140
8.370E-06,0.100
8.380E-06,0.080
8.390E-06,0.080
8.400E-06,0.080
8.410E-06,0.060
8.420E-06,0.100
8.430E-06,0.060
8.440E-06,0.020
8.450E-06,0.040
8.460E-06,0.020
8.470E-06,0.040
8.480E-06,0.000
8.490E-06,0.020
8.500E-06,0.040
8.510E-06,0.020
8.520E-06,0.020
8.530E-06,-0.020
8.540E-06,0.000
8.550E-06,0.000
8.560E-06,0.000
8.570E-06,0.000
8.580E-06,-0.040
8.590E-06,-0.040
8.600E-06,-0.040
8.610E-06,-0.060
8.620E-06,-0.060
8.630E-06,-0.080
8.640E-06,-0.060
8.650E-06,-0.080
8.660E-06,-0.100
8.670E-06,-0.120
8.680E-06,-0.120
8.690E-06,-0.140
8.700E-06,-0.120
8.710E-06,-0.160
8.720E-06,-0.160
8.730E-06,-0.180
8.740E-06,-0.160
8.750E-06,-0.140
8.760E-06,-0.140
8.770E-06,-0.180
8.780E-06,-0.160
8.790E-06,-0.140
8.800E-06,-0.140
8.810E-06,-0.160
8.820E-06,-0.180
8.830E-06,-0.180
8.840E-06,-0.160
8.850E-06,-0.160
8.860E-06,-0.140
8.870E-06,-0.160
8.880E-06,-0.180
8.890E-06,-0.160
8.900E-06,-0.140
8.910E-06,-0.160
8.920E-06,-0.160
8.930E-06,-0.180
8.940E-06,-0.180
8.950E-06,-0.160
8.960E-06,-0.180
8.970E-06,-0.160
8.980E-06,-0.180
8.990E-06,-0.160
9.000E-06,-0.180
9.010E-06,-0.200
9.020E-06,-0.200
9.030E-06,-0.180
9.040E-06,-0.180
9.050E-06,-0.160
9.060E-06,-0.200
9.070E-06,-0.160
9.080E-06,-0.200
9.090E-06,-0.200
9.100E-06,-0.180
9.110E-06,-0.180
9.120E-06,-0.200
9.130E-06,-0.200
9.140E-06,-0.180
9.150E-06,-0.180
9.160E-06,-0.240
9.170E-06,-0.240
9.180E-06,-0.220
9.190E-06,-0.240
9.200E-06,-0.240
9.210E-06,-0.220
9.220E-06,-0.240
9.230E-06,-0.240
9.240E-06,-0.240
9.250E-06,-0.220
9.260E-06,-0.240
9.270E-06,-0.240
9.280E-06,-0.220
9.290E-06,-0.240
9.300E-06,-0.220
9.310E-06,-0.240
9.320E-06,-0.180
9.330E-06,-0.220
9.340E-06,-0.240
9.350E-06,-0.220
9.360E-06,-0.200
9.370E-06,-0.220
9.380E-06,-0.180
9.390E-06,-0.240
9.400E-06,-0.180
9.410E-06,-0.220
9.420E-06,-0.180
9.430E-06,-0.180
9.440E-06,-0.160
9.450E-06,-0.180
9.460E-06,-0.160
9.470E-06,-0.180
9.480E-06,-0.160
9.490E-06,-0.180
9.500E-06,-0.160
9.510E-06,-0.160
9.520E-06,-0.140
9.530E-06,-0.120
9.540E-06,-0.160
9.550E-06,-0.160
9.560E-06,-0.140
9.570E-06,-0.140
9.580E-06,-0.120
9.590E-06,-0.120
9.600E-06,-0.140
9.610E-06,-0.140
9.620E-06,-0.120
9.630E-06,-0.140
9.640E-06,-0.160
9.650E-06,-0.140
9.660E-06,-0.140
9.670E-06,-0.140
9.680E-06,-0.160
9.690E-06,-0.160
9.700E-06,-0.120
