mediciones/Mediciones filtradas (saque las feas)/6-3/-5/WaveData53120.csv

#timebase=2000000(ps)
,#voltbase=100000(mv/100)
#size=4000
-2.300E-06,0.004
-2.290E-06,0.012
-2.280E-06,0.012
-2.270E-06,0.008
-2.260E-06,0.000
-2.250E-06,-0.008
-2.240E-06,0.000
-2.230E-06,0.000
-2.220E-06,0.004
-2.210E-06,0.008
-2.200E-06,0.004
-2.190E-06,0.004
-2.180E-06,0.000
-2.170E-06,0.004
-2.160E-06,0.000
-2.150E-06,0.000
-2.140E-06,-0.004
-2.130E-06,0.004
-2.120E-06,0.008
-2.110E-06,0.004
-2.100E-06,0.004
-2.090E-06,0.012
-2.080E-06,0.004
-2.070E-06,0.004
-2.060E-06,0.004
-2.050E-06,0.000
-2.040E-06,0.004
-2.030E-06,0.004
-2.020E-06,0.008
-2.010E-06,0.008
-2.000E-06,0.004
-1.990E-06,0.004
-1.980E-06,0.008
-1.970E-06,0.004
-1.960E-06,0.016
-1.950E-06,0.008
-1.940E-06,0.000
-1.930E-06,-0.008
-1.920E-06,0.000
-1.910E-06,0.008
-1.900E-06,0.008
-1.890E-06,0.012
-1.880E-06,0.000
-1.870E-06,-0.008
-1.860E-06,-0.024
-1.850E-06,-0.004
-1.840E-06,-0.004
-1.830E-06,0.004
-1.820E-06,0.012
-1.810E-06,0.008
-1.800E-06,0.012
-1.790E-06,0.000
-1.780E-06,-0.004
-1.770E-06,0.004
-1.760E-06,0.004
-1.750E-06,0.024
-1.740E-06,0.020
-1.730E-06,0.020
-1.720E-06,0.004
-1.710E-06,-0.004
-1.700E-06,-0.012
-1.690E-06,-0.016
-1.680E-06,-0.016
-1.670E-06,-0.024
-1.660E-06,-0.004
-1.650E-06,0.008
-1.640E-06,0.012
-1.630E-06,0.008
-1.620E-06,0.008
-1.610E-06,-0.004
-1.600E-06,-0.008
-1.590E-06,-0.004
-1.580E-06,0.004
-1.570E-06,0.012
-1.560E-06,0.012
-1.550E-06,0.008
-1.540E-06,0.008
-1.530E-06,0.000
-1.520E-06,-0.008
-1.510E-06,-0.004
-1.500E-06,0.000
-1.490E-06,0.000
-1.480E-06,0.004
-1.470E-06,0.004
-1.460E-06,0.004
-1.450E-06,0.008
-1.440E-06,0.016
-1.430E-06,0.012
-1.420E-06,0.008
-1.410E-06,0.008
-1.400E-06,0.000
-1.390E-06,0.004
-1.380E-06,0.008
-1.370E-06,0.020
-1.360E-06,0.028
-1.350E-06,0.020
-1.340E-06,0.012
-1.330E-06,0.004
-1.320E-06,0.000
-1.310E-06,0.004
-1.300E-06,0.012
-1.290E-06,0.012
-1.280E-06,0.012
-1.270E-06,0.000
-1.260E-06,-0.004
-1.250E-06,-0.008
-1.240E-06,-0.004
-1.230E-06,0.012
-1.220E-06,0.016
-1.210E-06,0.024
-1.200E-06,0.020
-1.190E-06,0.000
-1.180E-06,0.000
-1.170E-06,0.004
-1.160E-06,0.012
-1.150E-06,0.008
-1.140E-06,0.004
-1.130E-06,0.000
-1.120E-06,0.000
-1.110E-06,-0.004
-1.100E-06,-0.004
-1.090E-06,0.012
-1.080E-06,0.016
-1.070E-06,0.008
-1.060E-06,0.008
-1.050E-06,-0.004
-1.040E-06,0.008
-1.030E-06,0.008
-1.020E-06,0.012
-1.010E-06,0.004
-1.000E-06,0.004
-9.900E-07,-0.004
-9.800E-07,0.000
-9.700E-07,0.032
-9.600E-07,0.028
-9.500E-07,0.016
-9.400E-07,0.032
-9.300E-07,0.000
-9.200E-07,0.008
-9.100E-07,-0.020
-9.000E-07,-0.016
-8.900E-07,-0.016
-8.800E-07,-0.020
-8.700E-07,0.004
-8.600E-07,-0.004
-8.500E-07,0.008
-8.400E-07,0.004
-8.300E-07,-0.004
-8.200E-07,0.000
-8.100E-07,-0.012
-8.000E-07,-0.008
-7.900E-07,0.012
-7.800E-07,0.020
-7.700E-07,0.028
-7.600E-07,0.028
-7.500E-07,0.020
-7.400E-07,0.008
-7.300E-07,0.000
-7.200E-07,0.012
-7.100E-07,0.020
-7.000E-07,0.028
-6.900E-07,0.024
-6.800E-07,0.020
-6.700E-07,0.024
-6.600E-07,0.012
-6.500E-07,0.004
-6.400E-07,0.008
-6.300E-07,0.004
-6.200E-07,0.004
-6.100E-07,0.012
-6.000E-07,0.016
-5.900E-07,0.024
-5.800E-07,0.040
-5.700E-07,0.044
-5.600E-07,0.044
-5.500E-07,0.044
-5.400E-07,0.024
-5.300E-07,0.008
-5.200E-07,0.000
-5.100E-07,-0.008
-5.000E-07,0.000
-4.900E-07,0.004
-4.800E-07,0.004
-4.700E-07,0.000
-4.600E-07,-0.008
-4.500E-07,-0.020
-4.400E-07,-0.008
-4.300E-07,0.000
-4.200E-07,0.012
-4.100E-07,0.032
-4.000E-07,0.024
-3.900E-07,0.024
-3.800E-07,0.032
-3.700E-07,0.040
-3.600E-07,0.036
-3.500E-07,0.028
-3.400E-07,0.028
-3.300E-07,0.008
-3.200E-07,0.012
-3.100E-07,0.012
-3.000E-07,0.020
-2.900E-07,0.044
-2.800E-07,0.044
-2.700E-07,0.036
-2.600E-07,0.004
-2.500E-07,0.008
-2.400E-07,0.024
-2.300E-07,0.032
-2.200E-07,0.036
-2.100E-07,0.044
-2.000E-07,0.036
-1.900E-07,0.036
-1.800E-07,0.020
-1.700E-07,-0.004
-1.600E-07,-0.004
-1.500E-07,0.048
-1.400E-07,0.020
-1.300E-07,0.100
-1.200E-07,0.060
-1.100E-07,0.112
-1.000E-07,-0.076
-9.000E-08,0.100
-8.000E-08,-0.040
-7.000E-08,0.132
-6.000E-08,-0.040
-5.000E-08,-0.020
-4.000E-08,-0.336
-3.000E-08,-0.228
-2.000E-08,-0.104
-1.000E-08,0.160
0.000E+00,0.436
1.000E-08,-0.096
2.000E-08,-0.340
3.000E-08,-0.508
4.000E-08,-0.512
5.000E-08,-0.232
6.000E-08,0.420
7.000E-08,0.540
8.000E-08,0.412
9.000E-08,0.144
1.000E-07,-0.268
1.100E-07,-0.440
1.200E-07,-0.368
1.300E-07,-0.004
1.400E-07,0.220
1.500E-07,0.304
1.600E-07,0.188
1.700E-07,0.036
1.800E-07,-0.100
1.900E-07,-0.176
2.000E-07,-0.088
2.100E-07,-0.020
2.200E-07,0.072
2.300E-07,0.056
2.400E-07,0.104
2.500E-07,0.048
2.600E-07,-0.008
2.700E-07,-0.052
2.800E-07,-0.032
2.900E-07,-0.020
3.000E-07,-0.012
3.100E-07,0.056
3.200E-07,0.084
3.300E-07,0.068
3.400E-07,0.016
3.500E-07,0.004
3.600E-07,0.004
3.700E-07,0.000
3.800E-07,0.040
3.900E-07,0.076
4.000E-07,0.108
4.100E-07,0.068
4.200E-07,0.092
4.300E-07,0.080
4.400E-07,0.096
4.500E-07,0.004
4.600E-07,0.044
4.700E-07,-0.016
4.800E-07,-0.092
4.900E-07,-0.124
5.000E-07,-0.168
5.100E-07,-0.132
5.200E-07,-0.108
5.300E-07,-0.008
5.400E-07,0.044
5.500E-07,0.028
5.600E-07,0.020
5.700E-07,-0.004
5.800E-07,-0.040
5.900E-07,-0.072
6.000E-07,-0.012
6.100E-07,0.048
6.200E-07,0.076
6.300E-07,0.076
6.400E-07,0.056
6.500E-07,-0.004
6.600E-07,-0.044
6.700E-07,-0.072
6.800E-07,-0.032
6.900E-07,-0.008
7.000E-07,0.004
7.100E-07,-0.008
7.200E-07,-0.012
7.300E-07,-0.024
7.400E-07,-0.012
7.500E-07,-0.008
7.600E-07,-0.016
7.700E-07,-0.020
7.800E-07,0.000
7.900E-07,0.024
8.000E-07,0.032
8.100E-07,0.028
8.200E-07,0.020
8.300E-07,0.000
8.400E-07,-0.012
8.500E-07,0.000
8.600E-07,0.020
8.700E-07,0.044
8.800E-07,0.044
8.900E-07,0.040
9.000E-07,0.028
9.100E-07,0.024
9.200E-07,0.016
9.300E-07,0.032
9.400E-07,0.064
9.500E-07,0.076
9.600E-07,0.088
9.700E-07,0.088
9.800E-07,0.072
9.900E-07,0.044
1.000E-06,0.012
1.010E-06,-0.016
1.020E-06,-0.040
1.030E-06,-0.060
1.040E-06,-0.004
1.050E-06,0.092
1.060E-06,0.132
1.070E-06,0.200
1.080E-06,0.108
1.090E-06,0.032
1.100E-06,-0.136
1.110E-06,-0.208
1.120E-06,-0.216
1.130E-06,-0.160
1.140E-06,-0.012
1.150E-06,0.024
1.160E-06,0.096
1.170E-06,0.024
1.180E-06,-0.024
1.190E-06,-0.080
1.200E-06,-0.080
1.210E-06,-0.088
1.220E-06,0.008
1.230E-06,0.040
1.240E-06,0.064
1.250E-06,0.040
1.260E-06,-0.012
1.270E-06,-0.004
1.280E-06,-0.004
1.290E-06,0.040
1.300E-06,0.068
1.310E-06,0.124
1.320E-06,0.144
1.330E-06,0.104
1.340E-06,0.132
1.350E-06,0.096
1.360E-06,0.056
1.370E-06,-0.040
1.380E-06,-0.076
1.390E-06,-0.104
1.400E-06,-0.048
1.410E-06,-0.004
1.420E-06,0.052
1.430E-06,0.028
1.440E-06,-0.020
1.450E-06,-0.040
1.460E-06,-0.080
1.470E-06,-0.088
1.480E-06,-0.068
1.490E-06,0.008
1.500E-06,0.092
1.510E-06,0.044
1.520E-06,-0.012
1.530E-06,-0.036
1.540E-06,-0.028
1.550E-06,-0.020
1.560E-06,-0.008
1.570E-06,0.016
1.580E-06,0.020
1.590E-06,0.016
1.600E-06,0.004
1.610E-06,0.012
1.620E-06,-0.004
1.630E-06,-0.008
1.640E-06,0.004
1.650E-06,0.008
1.660E-06,0.020
1.670E-06,0.020
1.680E-06,0.048
1.690E-06,0.064
1.700E-06,0.084
1.710E-06,0.092
1.720E-06,0.100
1.730E-06,0.120
1.740E-06,0.124
1.750E-06,0.148
1.760E-06,0.128
1.770E-06,0.092
1.780E-06,0.088
1.790E-06,0.060
1.800E-06,0.028
1.810E-06,-0.008
1.820E-06,-0.052
1.830E-06,-0.072
1.840E-06,-0.088
1.850E-06,-0.060
1.860E-06,-0.044
1.870E-06,-0.056
1.880E-06,-0.028
1.890E-06,-0.056
1.900E-06,-0.020
1.910E-06,-0.132
1.920E-06,-0.036
1.930E-06,0.028
1.940E-06,-0.008
1.950E-06,0.096
1.960E-06,0.060
1.970E-06,0.120
1.980E-06,0.068
1.990E-06,0.108
2.000E-06,0.160
2.010E-06,0.168
2.020E-06,0.192
2.030E-06,0.152
2.040E-06,0.132
2.050E-06,0.112
2.060E-06,0.064
2.070E-06,0.072
2.080E-06,0.080
2.090E-06,0.128
2.100E-06,0.084
2.110E-06,0.076
2.120E-06,-0.092
2.130E-06,-0.276
2.140E-06,-0.332
2.150E-06,-0.168
2.160E-06,0.004
2.170E-06,0.092
2.180E-06,0.080
2.190E-06,-0.036
2.200E-06,-0.080
2.210E-06,-0.100
2.220E-06,-0.092
2.230E-06,0.004
2.240E-06,-0.068
2.250E-06,0.076
2.260E-06,0.044
2.270E-06,-0.004
2.280E-06,-0.012
2.290E-06,0.008
2.300E-06,0.100
2.310E-06,0.096
2.320E-06,0.116
2.330E-06,0.152
2.340E-06,0.096
2.350E-06,0.188
2.360E-06,0.056
2.370E-06,-0.072
2.380E-06,-0.224
2.390E-06,-0.512
2.400E-06,-0.468
2.410E-06,-0.424
2.420E-06,-0.092
2.430E-06,0.056
2.440E-06,0.120
2.450E-06,0.140
2.460E-06,-0.024
2.470E-06,-0.076
2.480E-06,-0.236
2.490E-06,-0.116
2.500E-06,-0.072
2.510E-06,0.080
2.520E-06,0.136
2.530E-06,0.132
2.540E-06,0.068
2.550E-06,-0.024
2.560E-06,-0.088
2.570E-06,-0.084
2.580E-06,-0.004
2.590E-06,0.052
2.600E-06,0.096
2.610E-06,0.056
2.620E-06,0.032
2.630E-06,-0.052
2.640E-06,-0.080
2.650E-06,-0.100
2.660E-06,-0.048
2.670E-06,-0.008
2.680E-06,0.028
2.690E-06,0.044
2.700E-06,0.032
2.710E-06,0.012
2.720E-06,-0.020
2.730E-06,-0.004
2.740E-06,0.028
2.750E-06,0.064
2.760E-06,0.056
2.770E-06,0.024
2.780E-06,0.008
2.790E-06,0.008
2.800E-06,0.004
2.810E-06,0.012
2.820E-06,0.048
2.830E-06,0.056
2.840E-06,0.092
2.850E-06,0.096
2.860E-06,0.112
2.870E-06,0.104
2.880E-06,0.104
2.890E-06,0.104
2.900E-06,0.132
2.910E-06,0.144
2.920E-06,0.160
2.930E-06,0.160
2.940E-06,0.156
2.950E-06,0.148
2.960E-06,0.156
2.970E-06,0.152
2.980E-06,0.156
2.990E-06,0.168
3.000E-06,0.176
3.010E-06,0.184
3.020E-06,0.168
3.030E-06,0.168
3.040E-06,0.152
3.050E-06,0.152
3.060E-06,0.168
3.070E-06,0.164
3.080E-06,0.168
3.090E-06,0.148
3.100E-06,0.104
3.110E-06,0.040
3.120E-06,0.024
3.130E-06,-0.008
3.140E-06,0.028
3.150E-06,-0.008
3.160E-06,0.028
3.170E-06,-0.040
3.180E-06,-0.016
3.190E-06,-0.036
3.200E-06,0.068
3.210E-06,0.060
3.220E-06,0.160
3.230E-06,0.124
3.240E-06,0.036
3.250E-06,0.056
3.260E-06,0.024
3.270E-06,0.140
3.280E-06,0.184
3.290E-06,0.272
3.300E-06,0.264
3.310E-06,0.176
3.320E-06,0.080
3.330E-06,0.012
3.340E-06,0.024
3.350E-06,0.052
3.360E-06,0.096
3.370E-06,0.124
3.380E-06,0.092
3.390E-06,0.020
3.400E-06,-0.040
3.410E-06,-0.120
3.420E-06,-0.092
3.430E-06,-0.108
3.440E-06,-0.048
3.450E-06,-0.020
3.460E-06,-0.040
3.470E-06,-0.084
3.480E-06,-0.104
3.490E-06,-0.100
3.500E-06,-0.020
3.510E-06,0.140
3.520E-06,0.112
3.530E-06,0.284
3.540E-06,0.204
3.550E-06,0.260
3.560E-06,0.148
3.570E-06,0.044
3.580E-06,0.040
3.590E-06,0.044
3.600E-06,0.128
3.610E-06,0.176
3.620E-06,0.216
3.630E-06,0.200
3.640E-06,0.148
3.650E-06,0.124
3.660E-06,0.084
3.670E-06,0.108
3.680E-06,0.136
3.690E-06,0.168
3.700E-06,0.196
3.710E-06,0.196
3.720E-06,0.172
3.730E-06,0.148
3.740E-06,0.120
3.750E-06,0.112
3.760E-06,0.128
3.770E-06,0.152
3.780E-06,0.176
3.790E-06,0.196
3.800E-06,0.188
3.810E-06,0.188
3.820E-06,0.164
3.830E-06,0.152
3.840E-06,0.156
3.850E-06,0.156
3.860E-06,0.172
3.870E-06,0.176
3.880E-06,0.180
3.890E-06,0.164
3.900E-06,0.164
3.910E-06,0.152
3.920E-06,0.152
3.930E-06,0.164
3.940E-06,0.176
3.950E-06,0.188
3.960E-06,0.188
3.970E-06,0.184
3.980E-06,0.176
3.990E-06,0.160
4.000E-06,0.156
4.010E-06,0.144
4.020E-06,0.144
4.030E-06,0.140
4.040E-06,0.136
4.050E-06,0.136
4.060E-06,0.144
4.070E-06,0.144
4.080E-06,0.144
4.090E-06,0.148
4.100E-06,0.144
4.110E-06,0.152
4.120E-06,0.156
4.130E-06,0.164
4.140E-06,0.176
4.150E-06,0.164
4.160E-06,0.168
4.170E-06,0.168
4.180E-06,0.168
4.190E-06,0.176
4.200E-06,0.172
4.210E-06,0.176
4.220E-06,0.176
4.230E-06,0.172
4.240E-06,0.160
4.250E-06,0.148
4.260E-06,0.144
4.270E-06,0.144
4.280E-06,0.152
4.290E-06,0.156
4.300E-06,0.164
4.310E-06,0.164
4.320E-06,0.164
4.330E-06,0.156
4.340E-06,0.156
4.350E-06,0.152
4.360E-06,0.152
4.370E-06,0.160
4.380E-06,0.164
4.390E-06,0.160
4.400E-06,0.164
4.410E-06,0.164
4.420E-06,0.164
4.430E-06,0.160
4.440E-06,0.160
4.450E-06,0.164
4.460E-06,0.172
4.470E-06,0.176
4.480E-06,0.176
4.490E-06,0.168
4.500E-06,0.164
4.510E-06,0.160
4.520E-06,0.164
4.530E-06,0.160
4.540E-06,0.160
4.550E-06,0.164
4.560E-06,0.168
4.570E-06,0.164
4.580E-06,0.156
4.590E-06,0.156
4.600E-06,0.152
4.610E-06,0.152
4.620E-06,0.160
4.630E-06,0.160
4.640E-06,0.164
4.650E-06,0.156
4.660E-06,0.156
4.670E-06,0.152
4.680E-06,0.152
4.690E-06,0.152
4.700E-06,0.156
4.710E-06,0.152
4.720E-06,0.156
4.730E-06,0.156
4.740E-06,0.160
4.750E-06,0.156
4.760E-06,0.148
4.770E-06,0.152
4.780E-06,0.152
4.790E-06,0.156
4.800E-06,0.156
4.810E-06,0.156
4.820E-06,0.156
4.830E-06,0.156
4.840E-06,0.152
4.850E-06,0.152
4.860E-06,0.152
4.870E-06,0.152
4.880E-06,0.152
4.890E-06,0.156
4.900E-06,0.152
4.910E-06,0.152
4.920E-06,0.144
4.930E-06,0.140
4.940E-06,0.144
4.950E-06,0.144
4.960E-06,0.148
4.970E-06,0.160
4.980E-06,0.156
4.990E-06,0.156
5.000E-06,0.140
5.010E-06,0.136
5.020E-06,0.144
5.030E-06,0.140
5.040E-06,0.144
5.050E-06,0.140
5.060E-06,0.148
5.070E-06,0.144
5.080E-06,0.144
5.090E-06,0.144
5.100E-06,0.136
5.110E-06,0.128
5.120E-06,0.128
5.130E-06,0.136
5.140E-06,0.136
5.150E-06,0.144
5.160E-06,0.144
5.170E-06,0.140
5.180E-06,0.136
5.190E-06,0.132
5.200E-06,0.132
5.210E-06,0.140
5.220E-06,0.148
5.230E-06,0.148
5.240E-06,0.152
5.250E-06,0.144
5.260E-06,0.144
5.270E-06,0.140
5.280E-06,0.144
5.290E-06,0.148
5.300E-06,0.140
5.310E-06,0.144
5.320E-06,0.144
5.330E-06,0.140
5.340E-06,0.140
5.350E-06,0.140
5.360E-06,0.136
5.370E-06,0.136
5.380E-06,0.136
5.390E-06,0.136
5.400E-06,0.132
5.410E-06,0.132
5.420E-06,0.128
5.430E-06,0.136
5.440E-06,0.144
5.450E-06,0.144
5.460E-06,0.140
5.470E-06,0.128
5.480E-06,0.120
5.490E-06,0.124
5.500E-06,0.124
5.510E-06,0.128
5.520E-06,0.136
5.530E-06,0.140
5.540E-06,0.136
5.550E-06,0.128
5.560E-06,0.124
5.570E-06,0.124
5.580E-06,0.120
5.590E-06,0.128
5.600E-06,0.132
5.610E-06,0.136
5.620E-06,0.136
5.630E-06,0.132
5.640E-06,0.132
5.650E-06,0.128
5.660E-06,0.132
5.670E-06,0.136
5.680E-06,0.140
5.690E-06,0.140
5.700E-06,0.140
5.710E-06,0.132
5.720E-06,0.124
5.730E-06,0.124
5.740E-06,0.128
5.750E-06,0.124
5.760E-06,0.128
5.770E-06,0.124
5.780E-06,0.128
5.790E-06,0.128
5.800E-06,0.124
5.810E-06,0.124
5.820E-06,0.124
5.830E-06,0.124
5.840E-06,0.128
5.850E-06,0.136
5.860E-06,0.136
5.870E-06,0.128
5.880E-06,0.128
5.890E-06,0.124
5.900E-06,0.124
5.910E-06,0.124
5.920E-06,0.128
5.930E-06,0.128
5.940E-06,0.128
5.950E-06,0.128
5.960E-06,0.120
5.970E-06,0.112
5.980E-06,0.108
5.990E-06,0.112
6.000E-06,0.112
6.010E-06,0.108
6.020E-06,0.108
6.030E-06,0.120
6.040E-06,0.120
6.050E-06,0.112
6.060E-06,0.116
6.070E-06,0.112
6.080E-06,0.108
6.090E-06,0.112
6.100E-06,0.120
6.110E-06,0.116
6.120E-06,0.112
6.130E-06,0.112
6.140E-06,0.112
6.150E-06,0.112
6.160E-06,0.108
6.170E-06,0.108
6.180E-06,0.108
6.190E-06,0.108
6.200E-06,0.108
6.210E-06,0.104
6.220E-06,0.104
6.230E-06,0.108
6.240E-06,0.104
6.250E-06,0.100
6.260E-06,0.100
6.270E-06,0.104
6.280E-06,0.104
6.290E-06,0.104
6.300E-06,0.108
6.310E-06,0.104
6.320E-06,0.104
6.330E-06,0.108
6.340E-06,0.104
6.350E-06,0.104
6.360E-06,0.104
6.370E-06,0.104
6.380E-06,0.100
6.390E-06,0.104
6.400E-06,0.104
6.410E-06,0.100
6.420E-06,0.100
6.430E-06,0.096
6.440E-06,0.096
6.450E-06,0.096
6.460E-06,0.096
6.470E-06,0.100
6.480E-06,0.100
6.490E-06,0.100
6.500E-06,0.100
6.510E-06,0.100
6.520E-06,0.096
6.530E-06,0.096
6.540E-06,0.100
6.550E-06,0.096
6.560E-06,0.100
6.570E-06,0.100
6.580E-06,0.100
6.590E-06,0.096
6.600E-06,0.092
6.610E-06,0.088
6.620E-06,0.088
6.630E-06,0.092
6.640E-06,0.092
6.650E-06,0.088
6.660E-06,0.092
6.670E-06,0.092
6.680E-06,0.092
6.690E-06,0.092
6.700E-06,0.092
6.710E-06,0.088
6.720E-06,0.088
6.730E-06,0.092
6.740E-06,0.092
6.750E-06,0.088
6.760E-06,0.088
6.770E-06,0.092
6.780E-06,0.092
6.790E-06,0.088
6.800E-06,0.088
6.810E-06,0.088
6.820E-06,0.092
6.830E-06,0.088
6.840E-06,0.088
6.850E-06,0.088
6.860E-06,0.092
6.870E-06,0.092
6.880E-06,0.088
6.890E-06,0.088
6.900E-06,0.088
6.910E-06,0.092
6.920E-06,0.088
6.930E-06,0.088
6.940E-06,0.088
6.950E-06,0.088
6.960E-06,0.092
6.970E-06,0.084
6.980E-06,0.088
6.990E-06,0.084
7.000E-06,0.084
7.010E-06,0.080
7.020E-06,0.084
7.030E-06,0.088
7.040E-06,0.084
7.050E-06,0.088
7.060E-06,0.088
7.070E-06,0.080
7.080E-06,0.076
7.090E-06,0.080
7.100E-06,0.080
7.110E-06,0.084
7.120E-06,0.080
7.130E-06,0.080
7.140E-06,0.076
7.150E-06,0.080
7.160E-06,0.076
7.170E-06,0.072
7.180E-06,0.072
7.190E-06,0.080
7.200E-06,0.076
7.210E-06,0.080
7.220E-06,0.080
7.230E-06,0.076
7.240E-06,0.076
7.250E-06,0.072
7.260E-06,0.076
7.270E-06,0.080
7.280E-06,0.076
7.290E-06,0.072
7.300E-06,0.076
7.310E-06,0.072
7.320E-06,0.072
7.330E-06,0.076
7.340E-06,0.072
7.350E-06,0.076
7.360E-06,0.072
7.370E-06,0.072
7.380E-06,0.072
7.390E-06,0.072
7.400E-06,0.064
7.410E-06,0.064
7.420E-06,0.068
7.430E-06,0.072
7.440E-06,0.072
7.450E-06,0.072
7.460E-06,0.068
7.470E-06,0.068
7.480E-06,0.068
7.490E-06,0.072
7.500E-06,0.072
7.510E-06,0.068
7.520E-06,0.072
7.530E-06,0.068
7.540E-06,0.064
7.550E-06,0.064
7.560E-06,0.068
7.570E-06,0.064
7.580E-06,0.060
7.590E-06,0.060
7.600E-06,0.064
7.610E-06,0.060
7.620E-06,0.064
7.630E-06,0.060
7.640E-06,0.060
7.650E-06,0.060
7.660E-06,0.060
7.670E-06,0.064
7.680E-06,0.064
7.690E-06,0.056
7.700E-06,0.060
7.710E-06,0.060
7.720E-06,0.056
7.730E-06,0.060
7.740E-06,0.056
7.750E-06,0.056
7.760E-06,0.060
7.770E-06,0.056
7.780E-06,0.056
7.790E-06,0.056
7.800E-06,0.060
7.810E-06,0.056
7.820E-06,0.056
7.830E-06,0.056
7.840E-06,0.056
7.850E-06,0.056
7.860E-06,0.056
7.870E-06,0.060
7.880E-06,0.056
7.890E-06,0.052
7.900E-06,0.060
7.910E-06,0.052
7.920E-06,0.056
7.930E-06,0.052
7.940E-06,0.052
7.950E-06,0.052
7.960E-06,0.048
7.970E-06,0.044
7.980E-06,0.052
7.990E-06,0.052
8.000E-06,0.052
8.010E-06,0.052
8.020E-06,0.052
8.030E-06,0.048
8.040E-06,0.048
8.050E-06,0.040
8.060E-06,0.044
8.070E-06,0.044
8.080E-06,0.048
8.090E-06,0.040
8.100E-06,0.044
8.110E-06,0.048
8.120E-06,0.048
8.130E-06,0.044
8.140E-06,0.048
8.150E-06,0.044
8.160E-06,0.048
8.170E-06,0.044
8.180E-06,0.044
8.190E-06,0.044
8.200E-06,0.040
8.210E-06,0.036
8.220E-06,0.044
8.230E-06,0.044
8.240E-06,0.044
8.250E-06,0.040
8.260E-06,0.036
8.270E-06,0.044
8.280E-06,0.048
8.290E-06,0.048
8.300E-06,0.044
8.310E-06,0.048
8.320E-06,0.040
8.330E-06,0.040
8.340E-06,0.036
8.350E-06,0.040
8.360E-06,0.044
8.370E-06,0.040
8.380E-06,0.044
8.390E-06,0.036
8.400E-06,0.036
8.410E-06,0.036
8.420E-06,0.036
8.430E-06,0.032
8.440E-06,0.040
8.450E-06,0.040
8.460E-06,0.036
8.470E-06,0.036
8.480E-06,0.040
8.490E-06,0.036
8.500E-06,0.036
8.510E-06,0.036
8.520E-06,0.036
8.530E-06,0.036
8.540E-06,0.036
8.550E-06,0.032
8.560E-06,0.036
8.570E-06,0.032
8.580E-06,0.032
8.590E-06,0.036
8.600E-06,0.032
8.610E-06,0.036
8.620E-06,0.028
8.630E-06,0.032
8.640E-06,0.032
8.650E-06,0.028
8.660E-06,0.024
8.670E-06,0.028
8.680E-06,0.028
8.690E-06,0.028
8.700E-06,0.032
8.710E-06,0.028
8.720E-06,0.032
8.730E-06,0.028
8.740E-06,0.028
8.750E-06,0.032
8.760E-06,0.028
8.770E-06,0.028
8.780E-06,0.032
8.790E-06,0.032
8.800E-06,0.024
8.810E-06,0.024
8.820E-06,0.028
8.830E-06,0.024
8.840E-06,0.024
8.850E-06,0.028
8.860E-06,0.032
8.870E-06,0.024
8.880E-06,0.020
8.890E-06,0.024
8.900E-06,0.028
8.910E-06,0.028
8.920E-06,0.020
8.930E-06,0.024
8.940E-06,0.024
8.950E-06,0.024
8.960E-06,0.024
8.970E-06,0.024
8.980E-06,0.024
8.990E-06,0.024
9.000E-06,0.024
9.010E-06,0.024
9.020E-06,0.024
9.030E-06,0.024
9.040E-06,0.028
9.050E-06,0.024
9.060E-06,0.020
9.070E-06,0.024
9.080E-06,0.020
9.090E-06,0.024
9.100E-06,0.024
9.110E-06,0.024
9.120E-06,0.024
9.130E-06,0.024
9.140E-06,0.024
9.150E-06,0.028
9.160E-06,0.024
9.170E-06,0.024
9.180E-06,0.024
9.190E-06,0.028
9.200E-06,0.024
9.210E-06,0.028
9.220E-06,0.024
9.230E-06,0.024
9.240E-06,0.016
9.250E-06,0.020
9.260E-06,0.024
9.270E-06,0.020
9.280E-06,0.008
9.290E-06,0.012
9.300E-06,0.016
9.310E-06,0.008
9.320E-06,0.012
9.330E-06,0.016
9.340E-06,0.016
9.350E-06,0.016
9.360E-06,0.016
9.370E-06,0.012
9.380E-06,0.016
9.390E-06,0.012
9.400E-06,0.008
9.410E-06,0.012
9.420E-06,0.012
9.430E-06,0.012
9.440E-06,0.008
9.450E-06,0.012
9.460E-06,0.004
9.470E-06,0.012
9.480E-06,0.016
9.490E-06,0.008
9.500E-06,0.012
9.510E-06,0.012
9.520E-06,0.008
9.530E-06,0.012
9.540E-06,0.012
9.550E-06,0.016
9.560E-06,0.012
9.570E-06,0.004
9.580E-06,0.008
9.590E-06,0.008
9.600E-06,0.004
9.610E-06,0.012
9.620E-06,0.004
9.630E-06,0.008
9.640E-06,0.004
9.650E-06,0.008
9.660E-06,0.012
9.670E-06,0.004
9.680E-06,0.004
9.690E-06,0.008
9.700E-06,0.004
9.710E-06,0.004
9.720E-06,0.004
9.730E-06,0.008
9.740E-06,0.004
9.750E-06,0.008
9.760E-06,0.004
9.770E-06,0.008
9.780E-06,0.000
9.790E-06,0.004
9.800E-06,0.000
9.810E-06,0.004
9.820E-06,0.004
9.830E-06,0.004
9.840E-06,0.004
9.850E-06,0.004
9.860E-06,0.000
9.870E-06,0.000
9.880E-06,0.000
9.890E-06,0.000
