mediciones/Mediciones filtradas (saque las feas)/6-3/-5/WaveData53122.csv

#timebase=2000000(ps)
,#voltbase=100000(mv/100)
#size=4000
-2.300E-06,0.036
-2.290E-06,0.028
-2.280E-06,0.000
-2.270E-06,0.008
-2.260E-06,-0.148
-2.250E-06,-0.088
-2.240E-06,-0.028
-2.230E-06,0.048
-2.220E-06,0.072
-2.210E-06,-0.004
-2.200E-06,0.028
-2.190E-06,-0.012
-2.180E-06,0.000
-2.170E-06,-0.044
-2.160E-06,-0.008
-2.150E-06,0.012
-2.140E-06,0.024
-2.130E-06,0.048
-2.120E-06,0.028
-2.110E-06,0.000
-2.100E-06,-0.056
-2.090E-06,-0.036
-2.080E-06,-0.016
-2.070E-06,0.020
-2.060E-06,0.024
-2.050E-06,0.044
-2.040E-06,0.024
-2.030E-06,0.016
-2.020E-06,0.000
-2.010E-06,-0.004
-2.000E-06,0.000
-1.990E-06,0.000
-1.980E-06,0.028
-1.970E-06,0.040
-1.960E-06,0.028
-1.950E-06,0.008
-1.940E-06,0.008
-1.930E-06,0.000
-1.920E-06,-0.008
-1.910E-06,0.000
-1.900E-06,0.000
-1.890E-06,-0.004
-1.880E-06,-0.008
-1.870E-06,-0.004
-1.860E-06,0.008
-1.850E-06,0.008
-1.840E-06,0.012
-1.830E-06,0.016
-1.820E-06,0.008
-1.810E-06,0.004
-1.800E-06,0.004
-1.790E-06,0.016
-1.780E-06,0.008
-1.770E-06,0.028
-1.760E-06,0.048
-1.750E-06,0.040
-1.740E-06,0.032
-1.730E-06,0.008
-1.720E-06,-0.012
-1.710E-06,0.000
-1.700E-06,-0.008
-1.690E-06,0.056
-1.680E-06,0.012
-1.670E-06,0.032
-1.660E-06,0.004
-1.650E-06,0.016
-1.640E-06,0.016
-1.630E-06,0.000
-1.620E-06,-0.004
-1.610E-06,-0.024
-1.600E-06,-0.020
-1.590E-06,-0.044
-1.580E-06,-0.044
-1.570E-06,-0.024
-1.560E-06,0.024
-1.550E-06,0.036
-1.540E-06,0.028
-1.530E-06,0.000
-1.520E-06,-0.040
-1.510E-06,-0.016
-1.500E-06,-0.008
-1.490E-06,0.028
-1.480E-06,0.032
-1.470E-06,0.024
-1.460E-06,0.020
-1.450E-06,0.004
-1.440E-06,-0.024
-1.430E-06,-0.024
-1.420E-06,-0.004
-1.410E-06,0.024
-1.400E-06,0.028
-1.390E-06,0.028
-1.380E-06,0.044
-1.370E-06,0.060
-1.360E-06,0.064
-1.350E-06,0.044
-1.340E-06,0.036
-1.330E-06,0.020
-1.320E-06,0.000
-1.310E-06,-0.040
-1.300E-06,-0.252
-1.290E-06,-0.156
-1.280E-06,-0.184
-1.270E-06,-0.036
-1.260E-06,0.052
-1.250E-06,0.204
-1.240E-06,0.188
-1.230E-06,0.048
-1.220E-06,-0.052
-1.210E-06,-0.156
-1.200E-06,-0.120
-1.190E-06,-0.028
-1.180E-06,0.104
-1.170E-06,0.068
-1.160E-06,0.020
-1.150E-06,0.008
-1.140E-06,0.012
-1.130E-06,0.000
-1.120E-06,0.000
-1.110E-06,-0.020
-1.100E-06,-0.008
-1.090E-06,-0.004
-1.080E-06,0.032
-1.070E-06,0.088
-1.060E-06,0.048
-1.050E-06,0.036
-1.040E-06,0.012
-1.030E-06,-0.024
-1.020E-06,-0.060
-1.010E-06,-0.036
-1.000E-06,-0.008
-9.900E-07,0.008
-9.800E-07,0.044
-9.700E-07,0.068
-9.600E-07,0.044
-9.500E-07,0.004
-9.400E-07,-0.044
-9.300E-07,0.000
-9.200E-07,-0.028
-9.100E-07,0.028
-9.000E-07,0.032
-8.900E-07,0.112
-8.800E-07,-0.008
-8.700E-07,0.024
-8.600E-07,-0.076
-8.500E-07,-0.128
-8.400E-07,-0.076
-8.300E-07,-0.076
-8.200E-07,0.056
-8.100E-07,0.068
-8.000E-07,0.080
-7.900E-07,0.004
-7.800E-07,-0.024
-7.700E-07,-0.048
-7.600E-07,-0.056
-7.500E-07,-0.016
-7.400E-07,0.044
-7.300E-07,0.024
-7.200E-07,-0.024
-7.100E-07,-0.040
-7.000E-07,-0.004
-6.900E-07,0.056
-6.800E-07,0.036
-6.700E-07,0.036
-6.600E-07,0.008
-6.500E-07,-0.028
-6.400E-07,-0.024
-6.300E-07,0.028
-6.200E-07,0.080
-6.100E-07,0.040
-6.000E-07,0.028
-5.900E-07,-0.036
-5.800E-07,-0.044
-5.700E-07,-0.040
-5.600E-07,0.000
-5.500E-07,0.032
-5.400E-07,0.020
-5.300E-07,0.024
-5.200E-07,0.028
-5.100E-07,0.032
-5.000E-07,0.012
-4.900E-07,0.028
-4.800E-07,-0.004
-4.700E-07,-0.020
-4.600E-07,-0.100
-4.500E-07,-0.080
-4.400E-07,-0.052
-4.300E-07,0.024
-4.200E-07,0.092
-4.100E-07,0.092
-4.000E-07,0.048
-3.900E-07,-0.040
-3.800E-07,-0.052
-3.700E-07,-0.056
-3.600E-07,-0.004
-3.500E-07,0.028
-3.400E-07,0.072
-3.300E-07,0.060
-3.200E-07,0.020
-3.100E-07,-0.004
-3.000E-07,-0.020
-2.900E-07,-0.004
-2.800E-07,0.012
-2.700E-07,0.036
-2.600E-07,0.040
-2.500E-07,0.020
-2.400E-07,0.000
-2.300E-07,-0.008
-2.200E-07,-0.016
-2.100E-07,-0.012
-2.000E-07,-0.004
-1.900E-07,0.016
-1.800E-07,0.024
-1.700E-07,0.036
-1.600E-07,0.020
-1.500E-07,0.012
-1.400E-07,0.024
-1.300E-07,-0.004
-1.200E-07,0.040
-1.100E-07,0.056
-1.000E-07,0.096
-9.000E-08,0.064
-8.000E-08,0.128
-7.000E-08,0.084
-6.000E-08,0.044
-5.000E-08,-0.204
-4.000E-08,-0.508
-3.000E-08,-0.408
-2.000E-08,-0.164
-1.000E-08,0.072
0.000E+00,0.268
1.000E-08,0.352
2.000E-08,0.196
3.000E-08,0.028
4.000E-08,-0.180
5.000E-08,-0.436
6.000E-08,-0.232
7.000E-08,0.176
8.000E-08,0.392
9.000E-08,0.196
1.000E-07,0.008
1.100E-07,-0.120
1.200E-07,-0.156
1.300E-07,-0.108
1.400E-07,-0.008
1.500E-07,0.068
1.600E-07,0.048
1.700E-07,0.076
1.800E-07,0.064
1.900E-07,0.044
2.000E-07,-0.068
2.100E-07,-0.080
2.200E-07,-0.028
2.300E-07,0.016
2.400E-07,0.032
2.500E-07,0.060
2.600E-07,0.068
2.700E-07,-0.004
2.800E-07,-0.020
2.900E-07,-0.004
3.000E-07,0.020
3.100E-07,0.008
3.200E-07,0.040
3.300E-07,0.068
3.400E-07,0.060
3.500E-07,0.004
3.600E-07,0.000
3.700E-07,-0.004
3.800E-07,-0.020
3.900E-07,-0.072
4.000E-07,-0.148
4.100E-07,-0.076
4.200E-07,-0.108
4.300E-07,0.008
4.400E-07,0.100
4.500E-07,0.128
4.600E-07,0.044
4.700E-07,-0.040
4.800E-07,-0.028
4.900E-07,-0.100
5.000E-07,-0.044
5.100E-07,-0.008
5.200E-07,0.076
5.300E-07,0.044
5.400E-07,0.032
5.500E-07,0.016
5.600E-07,-0.008
5.700E-07,-0.052
5.800E-07,-0.004
5.900E-07,0.020
6.000E-07,0.020
6.100E-07,0.024
6.200E-07,0.036
6.300E-07,0.040
6.400E-07,0.000
6.500E-07,0.000
6.600E-07,-0.008
6.700E-07,0.016
6.800E-07,0.004
6.900E-07,0.048
7.000E-07,0.040
7.100E-07,-0.008
7.200E-07,-0.020
7.300E-07,-0.012
7.400E-07,0.032
7.500E-07,-0.004
7.600E-07,0.040
7.700E-07,0.060
7.800E-07,-0.008
7.900E-07,-0.028
8.000E-07,-0.056
8.100E-07,0.020
8.200E-07,0.024
8.300E-07,0.084
8.400E-07,0.080
8.500E-07,0.068
8.600E-07,0.008
8.700E-07,-0.032
8.800E-07,-0.032
8.900E-07,-0.040
9.000E-07,-0.028
9.100E-07,0.024
9.200E-07,0.040
9.300E-07,0.004
9.400E-07,-0.020
9.500E-07,-0.020
9.600E-07,0.004
9.700E-07,0.028
9.800E-07,0.048
9.900E-07,0.108
1.000E-06,0.136
1.010E-06,0.092
1.020E-06,0.132
1.030E-06,-0.268
1.040E-06,-0.144
1.050E-06,-0.416
1.060E-06,-0.288
1.070E-06,-0.128
1.080E-06,0.204
1.090E-06,0.384
1.100E-06,0.292
1.110E-06,0.092
1.120E-06,-0.080
1.130E-06,-0.092
1.140E-06,-0.120
1.150E-06,-0.168
1.160E-06,-0.216
1.170E-06,-0.120
1.180E-06,0.008
1.190E-06,0.196
1.200E-06,0.260
1.210E-06,0.140
1.220E-06,0.064
1.230E-06,-0.124
1.240E-06,-0.128
1.250E-06,-0.176
1.260E-06,-0.036
1.270E-06,0.108
1.280E-06,0.184
1.290E-06,0.092
1.300E-06,0.004
1.310E-06,-0.052
1.320E-06,-0.056
1.330E-06,0.020
1.340E-06,0.012
1.350E-06,0.084
1.360E-06,0.060
1.370E-06,0.100
1.380E-06,0.092
1.390E-06,0.032
1.400E-06,-0.024
1.410E-06,-0.144
1.420E-06,-0.112
1.430E-06,-0.076
1.440E-06,0.004
1.450E-06,0.092
1.460E-06,0.096
1.470E-06,0.112
1.480E-06,0.016
1.490E-06,-0.096
1.500E-06,-0.140
1.510E-06,-0.172
1.520E-06,0.032
1.530E-06,0.112
1.540E-06,0.112
1.550E-06,0.064
1.560E-06,0.016
1.570E-06,-0.016
1.580E-06,-0.040
1.590E-06,-0.028
1.600E-06,0.020
1.610E-06,0.064
1.620E-06,0.092
1.630E-06,0.068
1.640E-06,0.056
1.650E-06,0.020
1.660E-06,0.004
1.670E-06,-0.004
1.680E-06,0.012
1.690E-06,-0.012
1.700E-06,0.008
1.710E-06,0.032
1.720E-06,0.056
1.730E-06,0.064
1.740E-06,0.024
1.750E-06,-0.024
1.760E-06,-0.060
1.770E-06,-0.056
1.780E-06,-0.012
1.790E-06,0.016
1.800E-06,0.008
1.810E-06,0.016
1.820E-06,0.004
1.830E-06,-0.016
1.840E-06,-0.020
1.850E-06,-0.008
1.860E-06,0.004
1.870E-06,0.000
1.880E-06,0.000
1.890E-06,0.004
1.900E-06,0.032
1.910E-06,0.024
1.920E-06,0.064
1.930E-06,0.088
1.940E-06,0.096
1.950E-06,0.064
1.960E-06,0.092
1.970E-06,0.060
1.980E-06,0.116
1.990E-06,0.080
2.000E-06,0.132
2.010E-06,-0.012
2.020E-06,-0.124
2.030E-06,-0.268
2.040E-06,-0.268
2.050E-06,-0.380
2.060E-06,-0.320
2.070E-06,0.188
2.080E-06,0.340
2.090E-06,0.488
2.100E-06,0.120
2.110E-06,0.108
2.120E-06,-0.376
2.130E-06,-0.368
2.140E-06,-0.512
2.150E-06,-0.080
2.160E-06,0.100
2.170E-06,0.344
2.180E-06,0.420
2.190E-06,0.064
2.200E-06,-0.172
2.210E-06,-0.408
2.220E-06,-0.264
2.230E-06,-0.104
2.240E-06,0.116
2.250E-06,0.188
2.260E-06,0.192
2.270E-06,0.104
2.280E-06,-0.004
2.290E-06,-0.004
2.300E-06,-0.056
2.310E-06,-0.072
2.320E-06,-0.088
2.330E-06,0.004
2.340E-06,0.040
2.350E-06,0.064
2.360E-06,0.064
2.370E-06,0.052
2.380E-06,0.004
2.390E-06,-0.048
2.400E-06,-0.040
2.410E-06,0.004
2.420E-06,0.036
2.430E-06,0.064
2.440E-06,0.108
2.450E-06,0.072
2.460E-06,0.064
2.470E-06,0.024
2.480E-06,0.048
2.490E-06,0.020
2.500E-06,0.060
2.510E-06,0.092
2.520E-06,0.076
2.530E-06,0.096
2.540E-06,0.052
2.550E-06,-0.080
2.560E-06,-0.180
2.570E-06,-0.280
2.580E-06,-0.240
2.590E-06,-0.108
2.600E-06,0.112
2.610E-06,0.288
2.620E-06,0.200
2.630E-06,0.144
2.640E-06,-0.072
2.650E-06,-0.248
2.660E-06,-0.216
2.670E-06,-0.088
2.680E-06,0.092
2.690E-06,0.176
2.700E-06,0.172
2.710E-06,0.040
2.720E-06,-0.064
2.730E-06,-0.136
2.740E-06,-0.060
2.750E-06,0.016
2.760E-06,0.104
2.770E-06,0.084
2.780E-06,0.064
2.790E-06,-0.024
2.800E-06,-0.040
2.810E-06,-0.020
2.820E-06,0.032
2.830E-06,0.112
2.840E-06,0.116
2.850E-06,0.156
2.860E-06,0.100
2.870E-06,-0.024
2.880E-06,-0.084
2.890E-06,-0.208
2.900E-06,-0.152
2.910E-06,-0.144
2.920E-06,-0.020
2.930E-06,0.028
2.940E-06,0.128
2.950E-06,0.156
2.960E-06,0.036
2.970E-06,-0.100
2.980E-06,-0.156
2.990E-06,-0.040
3.000E-06,0.044
3.010E-06,0.104
3.020E-06,0.116
3.030E-06,0.020
3.040E-06,-0.032
3.050E-06,-0.072
3.060E-06,-0.040
3.070E-06,-0.008
3.080E-06,0.040
3.090E-06,0.072
3.100E-06,0.056
3.110E-06,0.020
3.120E-06,-0.024
3.130E-06,-0.048
3.140E-06,-0.032
3.150E-06,0.016
3.160E-06,0.064
3.170E-06,0.064
3.180E-06,0.056
3.190E-06,0.032
3.200E-06,0.028
3.210E-06,0.024
3.220E-06,0.020
3.230E-06,0.036
3.240E-06,0.076
3.250E-06,0.112
3.260E-06,0.096
3.270E-06,0.076
3.280E-06,0.032
3.290E-06,0.052
3.300E-06,0.068
3.310E-06,0.072
3.320E-06,0.064
3.330E-06,0.028
3.340E-06,0.032
3.350E-06,0.008
3.360E-06,0.008
3.370E-06,0.000
3.380E-06,0.008
3.390E-06,0.024
3.400E-06,-0.020
3.410E-06,0.160
3.420E-06,-0.092
3.430E-06,-0.108
3.440E-06,-0.168
3.450E-06,-0.132
3.460E-06,-0.280
3.470E-06,-0.344
3.480E-06,-0.300
3.490E-06,-0.104
3.500E-06,0.248
3.510E-06,0.520
3.520E-06,0.312
3.530E-06,-0.160
3.540E-06,-0.100
3.550E-06,-0.240
3.560E-06,-0.200
3.570E-06,-0.064
3.580E-06,0.164
3.590E-06,0.292
3.600E-06,0.128
3.610E-06,0.032
3.620E-06,-0.108
3.630E-06,-0.164
3.640E-06,-0.128
3.650E-06,0.040
3.660E-06,0.140
3.670E-06,0.104
3.680E-06,0.004
3.690E-06,0.076
3.700E-06,-0.020
3.710E-06,-0.068
3.720E-06,-0.064
3.730E-06,-0.012
3.740E-06,0.088
3.750E-06,0.048
3.760E-06,0.156
3.770E-06,0.080
3.780E-06,-0.008
3.790E-06,-0.044
3.800E-06,0.000
3.810E-06,0.028
3.820E-06,0.008
3.830E-06,0.024
3.840E-06,-0.028
3.850E-06,0.008
3.860E-06,-0.020
3.870E-06,0.072
3.880E-06,0.088
3.890E-06,0.060
3.900E-06,0.036
3.910E-06,0.044
3.920E-06,0.056
3.930E-06,0.004
3.940E-06,0.076
3.950E-06,0.108
3.960E-06,0.120
3.970E-06,0.064
3.980E-06,0.064
3.990E-06,0.012
4.000E-06,-0.012
4.010E-06,-0.008
4.020E-06,0.032
4.030E-06,0.060
4.040E-06,0.064
4.050E-06,0.080
4.060E-06,0.096
4.070E-06,0.088
4.080E-06,0.048
4.090E-06,0.044
4.100E-06,0.080
4.110E-06,0.028
4.120E-06,0.076
4.130E-06,0.104
4.140E-06,0.156
4.150E-06,-0.016
4.160E-06,-0.424
4.170E-06,-0.512
4.180E-06,-0.512
4.190E-06,-0.512
4.200E-06,-0.156
4.210E-06,0.472
4.220E-06,0.544
4.230E-06,0.512
4.240E-06,-0.032
4.250E-06,-0.284
4.260E-06,-0.512
4.270E-06,-0.356
4.280E-06,-0.124
4.290E-06,0.432
4.300E-06,0.340
4.310E-06,0.232
4.320E-06,0.032
4.330E-06,-0.116
4.340E-06,-0.188
4.350E-06,-0.188
4.360E-06,0.020
4.370E-06,0.076
4.380E-06,0.108
4.390E-06,0.064
4.400E-06,0.100
4.410E-06,-0.028
4.420E-06,-0.100
4.430E-06,-0.096
4.440E-06,0.012
4.450E-06,0.052
4.460E-06,0.040
4.470E-06,0.088
4.480E-06,0.072
4.490E-06,0.028
4.500E-06,-0.008
4.510E-06,0.088
4.520E-06,0.088
4.530E-06,0.072
4.540E-06,0.052
4.550E-06,0.016
4.560E-06,0.048
4.570E-06,0.024
4.580E-06,0.060
4.590E-06,0.072
4.600E-06,0.048
4.610E-06,0.044
4.620E-06,0.060
4.630E-06,0.052
4.640E-06,0.012
4.650E-06,0.032
4.660E-06,0.080
4.670E-06,0.124
4.680E-06,0.128
4.690E-06,0.136
4.700E-06,0.096
4.710E-06,0.076
4.720E-06,0.044
4.730E-06,0.024
4.740E-06,-0.096
4.750E-06,-0.164
4.760E-06,-0.272
4.770E-06,-0.124
4.780E-06,-0.060
4.790E-06,0.264
4.800E-06,0.420
4.810E-06,0.336
4.820E-06,0.088
4.830E-06,-0.292
4.840E-06,-0.508
4.850E-06,-0.508
4.860E-06,-0.508
4.870E-06,-0.348
4.880E-06,0.196
4.890E-06,0.388
4.900E-06,0.464
4.910E-06,0.140
4.920E-06,-0.128
4.930E-06,-0.360
4.940E-06,-0.304
4.950E-06,-0.124
4.960E-06,0.176
4.970E-06,0.284
4.980E-06,0.248
4.990E-06,0.088
5.000E-06,-0.108
5.010E-06,-0.188
5.020E-06,-0.168
5.030E-06,0.008
5.040E-06,0.124
5.050E-06,0.240
5.060E-06,0.172
5.070E-06,0.016
5.080E-06,-0.156
5.090E-06,-0.120
5.100E-06,-0.128
5.110E-06,0.024
5.120E-06,0.064
5.130E-06,0.140
5.140E-06,0.100
5.150E-06,0.040
5.160E-06,-0.028
5.170E-06,-0.084
5.180E-06,-0.056
5.190E-06,-0.012
5.200E-06,0.100
5.210E-06,0.124
5.220E-06,0.096
5.230E-06,0.060
5.240E-06,0.000
5.250E-06,0.052
5.260E-06,-0.008
5.270E-06,0.028
5.280E-06,0.048
5.290E-06,0.092
5.300E-06,0.096
5.310E-06,0.068
5.320E-06,0.024
5.330E-06,0.036
5.340E-06,0.032
5.350E-06,0.072
5.360E-06,0.096
5.370E-06,0.108
5.380E-06,0.144
5.390E-06,0.116
5.400E-06,0.112
5.410E-06,0.092
5.420E-06,0.112
5.430E-06,0.140
5.440E-06,0.176
5.450E-06,0.188
5.460E-06,0.184
5.470E-06,0.156
5.480E-06,0.120
5.490E-06,0.108
5.500E-06,0.072
5.510E-06,0.068
5.520E-06,-0.040
5.530E-06,-0.272
5.540E-06,-0.388
5.550E-06,-0.264
5.560E-06,-0.196
5.570E-06,0.128
5.580E-06,0.168
5.590E-06,0.432
5.600E-06,-0.004
5.610E-06,-0.452
5.620E-06,-0.512
5.630E-06,-0.508
5.640E-06,-0.204
5.650E-06,-0.032
5.660E-06,0.344
5.670E-06,0.244
5.680E-06,0.056
5.690E-06,-0.192
5.700E-06,-0.304
5.710E-06,-0.200
5.720E-06,-0.124
5.730E-06,0.096
5.740E-06,0.224
5.750E-06,0.292
5.760E-06,0.108
5.770E-06,-0.024
5.780E-06,-0.104
5.790E-06,-0.124
5.800E-06,-0.028
5.810E-06,0.112
5.820E-06,0.200
5.830E-06,0.180
5.840E-06,0.140
5.850E-06,0.076
5.860E-06,-0.004
5.870E-06,-0.008
5.880E-06,0.052
5.890E-06,0.100
5.900E-06,0.188
5.910E-06,0.180
5.920E-06,0.176
5.930E-06,0.104
5.940E-06,0.064
5.950E-06,0.068
5.960E-06,0.100
5.970E-06,0.160
5.980E-06,0.192
5.990E-06,0.212
6.000E-06,0.184
6.010E-06,0.156
6.020E-06,0.108
6.030E-06,0.108
6.040E-06,0.128
6.050E-06,0.140
6.060E-06,0.164
6.070E-06,0.180
6.080E-06,0.156
6.090E-06,0.144
6.100E-06,0.140
6.110E-06,0.136
6.120E-06,0.136
6.130E-06,0.144
6.140E-06,0.152
6.150E-06,0.152
6.160E-06,0.168
6.170E-06,0.164
6.180E-06,0.184
6.190E-06,0.156
6.200E-06,0.160
6.210E-06,0.100
6.220E-06,0.028
6.230E-06,-0.056
6.240E-06,-0.164
6.250E-06,-0.252
6.260E-06,-0.336
6.270E-06,-0.380
6.280E-06,-0.388
6.290E-06,-0.404
6.300E-06,-0.296
6.310E-06,-0.216
6.320E-06,-0.236
6.330E-06,-0.188
6.340E-06,-0.208
6.350E-06,-0.104
6.360E-06,-0.088
6.370E-06,-0.040
6.380E-06,0.012
6.390E-06,0.076
6.400E-06,0.000
6.410E-06,0.004
6.420E-06,0.012
6.430E-06,-0.032
6.440E-06,0.016
6.450E-06,0.056
6.460E-06,0.096
6.470E-06,0.120
6.480E-06,0.152
6.490E-06,0.168
6.500E-06,0.152
6.510E-06,0.144
6.520E-06,0.152
6.530E-06,0.164
6.540E-06,0.168
6.550E-06,0.192
6.560E-06,0.212
6.570E-06,0.192
6.580E-06,0.188
6.590E-06,0.172
6.600E-06,0.164
6.610E-06,0.164
6.620E-06,0.172
6.630E-06,0.188
6.640E-06,0.180
6.650E-06,0.156
6.660E-06,0.152
6.670E-06,0.156
6.680E-06,0.152
6.690E-06,0.160
6.700E-06,0.168
6.710E-06,0.180
6.720E-06,0.180
6.730E-06,0.180
6.740E-06,0.180
6.750E-06,0.160
6.760E-06,0.140
6.770E-06,0.128
6.780E-06,0.128
6.790E-06,0.120
6.800E-06,0.120
6.810E-06,0.124
6.820E-06,0.100
6.830E-06,0.100
6.840E-06,0.108
6.850E-06,0.132
6.860E-06,0.140
6.870E-06,0.148
6.880E-06,0.160
6.890E-06,0.172
6.900E-06,0.152
6.910E-06,0.152
6.920E-06,0.144
6.930E-06,0.160
6.940E-06,0.172
6.950E-06,0.180
6.960E-06,0.172
6.970E-06,0.152
6.980E-06,0.136
6.990E-06,0.132
7.000E-06,0.128
7.010E-06,0.132
7.020E-06,0.140
7.030E-06,0.148
7.040E-06,0.144
7.050E-06,0.132
7.060E-06,0.124
7.070E-06,0.108
7.080E-06,0.124
7.090E-06,0.132
7.100E-06,0.156
7.110E-06,0.156
7.120E-06,0.156
7.130E-06,0.168
7.140E-06,0.156
7.150E-06,0.164
7.160E-06,0.160
7.170E-06,0.160
7.180E-06,0.164
7.190E-06,0.164
7.200E-06,0.160
7.210E-06,0.160
7.220E-06,0.156
7.230E-06,0.156
7.240E-06,0.164
7.250E-06,0.160
7.260E-06,0.164
7.270E-06,0.168
7.280E-06,0.164
7.290E-06,0.160
7.300E-06,0.164
7.310E-06,0.156
7.320E-06,0.160
7.330E-06,0.164
7.340E-06,0.160
7.350E-06,0.160
7.360E-06,0.164
7.370E-06,0.164
7.380E-06,0.164
7.390E-06,0.152
7.400E-06,0.156
7.410E-06,0.160
7.420E-06,0.160
7.430E-06,0.164
7.440E-06,0.160
7.450E-06,0.156
7.460E-06,0.160
7.470E-06,0.152
7.480E-06,0.156
7.490E-06,0.156
7.500E-06,0.160
7.510E-06,0.160
7.520E-06,0.156
7.530E-06,0.152
7.540E-06,0.156
7.550E-06,0.156
7.560E-06,0.156
7.570E-06,0.156
7.580E-06,0.160
7.590E-06,0.156
7.600E-06,0.160
7.610E-06,0.160
7.620E-06,0.152
7.630E-06,0.152
7.640E-06,0.152
7.650E-06,0.152
7.660E-06,0.152
7.670E-06,0.148
7.680E-06,0.152
7.690E-06,0.156
7.700E-06,0.152
7.710E-06,0.152
7.720E-06,0.148
7.730E-06,0.152
7.740E-06,0.152
7.750E-06,0.156
7.760E-06,0.156
7.770E-06,0.152
7.780E-06,0.152
7.790E-06,0.152
7.800E-06,0.148
7.810E-06,0.148
7.820E-06,0.148
7.830E-06,0.148
7.840E-06,0.144
7.850E-06,0.152
7.860E-06,0.152
7.870E-06,0.152
7.880E-06,0.148
7.890E-06,0.140
7.900E-06,0.148
7.910E-06,0.144
7.920E-06,0.148
7.930E-06,0.152
7.940E-06,0.152
7.950E-06,0.156
7.960E-06,0.148
7.970E-06,0.152
7.980E-06,0.148
7.990E-06,0.140
8.000E-06,0.140
8.010E-06,0.144
8.020E-06,0.140
8.030E-06,0.136
8.040E-06,0.136
8.050E-06,0.140
8.060E-06,0.144
8.070E-06,0.144
8.080E-06,0.144
8.090E-06,0.140
8.100E-06,0.140
8.110E-06,0.144
8.120E-06,0.144
8.130E-06,0.144
8.140E-06,0.140
8.150E-06,0.144
8.160E-06,0.144
8.170E-06,0.140
8.180E-06,0.136
8.190E-06,0.136
8.200E-06,0.132
8.210E-06,0.140
8.220E-06,0.144
8.230E-06,0.136
8.240E-06,0.136
8.250E-06,0.136
8.260E-06,0.136
8.270E-06,0.132
8.280E-06,0.136
8.290E-06,0.140
8.300E-06,0.140
8.310E-06,0.140
8.320E-06,0.140
8.330E-06,0.140
8.340E-06,0.136
8.350E-06,0.132
8.360E-06,0.128
8.370E-06,0.132
8.380E-06,0.128
8.390E-06,0.132
8.400E-06,0.136
8.410E-06,0.136
8.420E-06,0.136
8.430E-06,0.132
8.440E-06,0.136
8.450E-06,0.136
8.460E-06,0.136
8.470E-06,0.132
8.480E-06,0.132
8.490E-06,0.132
8.500E-06,0.136
8.510E-06,0.140
8.520E-06,0.144
8.530E-06,0.140
8.540E-06,0.136
8.550E-06,0.128
8.560E-06,0.124
8.570E-06,0.124
8.580E-06,0.124
8.590E-06,0.128
8.600E-06,0.132
8.610E-06,0.132
8.620E-06,0.132
8.630E-06,0.132
8.640E-06,0.128
8.650E-06,0.128
8.660E-06,0.124
8.670E-06,0.128
8.680E-06,0.128
8.690E-06,0.128
8.700E-06,0.132
8.710E-06,0.124
8.720E-06,0.120
8.730E-06,0.116
8.740E-06,0.120
8.750E-06,0.124
8.760E-06,0.128
8.770E-06,0.124
8.780E-06,0.124
8.790E-06,0.124
8.800E-06,0.124
8.810E-06,0.124
8.820E-06,0.120
8.830E-06,0.124
8.840E-06,0.120
8.850E-06,0.128
8.860E-06,0.128
8.870E-06,0.128
8.880E-06,0.120
8.890E-06,0.108
8.900E-06,0.108
8.910E-06,0.116
8.920E-06,0.120
8.930E-06,0.128
8.940E-06,0.128
8.950E-06,0.124
8.960E-06,0.120
8.970E-06,0.112
8.980E-06,0.112
8.990E-06,0.112
9.000E-06,0.116
9.010E-06,0.124
9.020E-06,0.124
9.030E-06,0.120
9.040E-06,0.116
9.050E-06,0.112
9.060E-06,0.112
9.070E-06,0.112
9.080E-06,0.108
9.090E-06,0.112
9.100E-06,0.108
9.110E-06,0.112
9.120E-06,0.112
9.130E-06,0.108
9.140E-06,0.108
9.150E-06,0.112
9.160E-06,0.112
9.170E-06,0.116
9.180E-06,0.120
9.190E-06,0.116
9.200E-06,0.116
9.210E-06,0.112
9.220E-06,0.112
9.230E-06,0.108
9.240E-06,0.108
9.250E-06,0.108
9.260E-06,0.108
9.270E-06,0.108
9.280E-06,0.112
9.290E-06,0.112
9.300E-06,0.112
9.310E-06,0.112
9.320E-06,0.104
9.330E-06,0.108
9.340E-06,0.108
9.350E-06,0.108
9.360E-06,0.108
9.370E-06,0.104
9.380E-06,0.104
9.390E-06,0.100
9.400E-06,0.100
9.410E-06,0.096
9.420E-06,0.100
9.430E-06,0.096
9.440E-06,0.096
9.450E-06,0.104
9.460E-06,0.104
9.470E-06,0.104
9.480E-06,0.100
9.490E-06,0.104
9.500E-06,0.104
9.510E-06,0.096
9.520E-06,0.096
9.530E-06,0.096
9.540E-06,0.100
9.550E-06,0.096
9.560E-06,0.092
9.570E-06,0.096
9.580E-06,0.092
9.590E-06,0.096
9.600E-06,0.096
9.610E-06,0.096
9.620E-06,0.096
9.630E-06,0.096
9.640E-06,0.096
9.650E-06,0.092
9.660E-06,0.092
9.670E-06,0.092
9.680E-06,0.096
9.690E-06,0.096
9.700E-06,0.096
9.710E-06,0.092
9.720E-06,0.096
9.730E-06,0.092
9.740E-06,0.096
9.750E-06,0.088
9.760E-06,0.088
9.770E-06,0.096
9.780E-06,0.092
9.790E-06,0.088
9.800E-06,0.092
