mediciones/Mediciones filtradas (saque las feas)/6-3/-5/WaveData53110.csv

#timebase=2000000(ps)
,#voltbase=100000(mv/100)
#size=4000
-2.300E-06,0.012
-2.290E-06,0.004
-2.280E-06,0.000
-2.270E-06,0.016
-2.260E-06,0.020
-2.250E-06,0.032
-2.240E-06,0.036
-2.230E-06,0.056
-2.220E-06,0.044
-2.210E-06,0.044
-2.200E-06,0.076
-2.190E-06,0.072
-2.180E-06,0.048
-2.170E-06,-0.028
-2.160E-06,-0.052
-2.150E-06,-0.100
-2.140E-06,-0.064
-2.130E-06,-0.040
-2.120E-06,-0.004
-2.110E-06,0.024
-2.100E-06,0.044
-2.090E-06,0.032
-2.080E-06,0.000
-2.070E-06,-0.012
-2.060E-06,-0.024
-2.050E-06,0.008
-2.040E-06,0.028
-2.030E-06,0.044
-2.020E-06,0.044
-2.010E-06,0.056
-2.000E-06,0.036
-1.990E-06,0.056
-1.980E-06,0.056
-1.970E-06,0.084
-1.960E-06,0.064
-1.950E-06,0.056
-1.940E-06,0.012
-1.930E-06,-0.028
-1.920E-06,-0.052
-1.910E-06,-0.052
-1.900E-06,0.000
-1.890E-06,0.036
-1.880E-06,0.060
-1.870E-06,0.028
-1.860E-06,0.000
-1.850E-06,-0.008
-1.840E-06,-0.184
-1.830E-06,-0.244
-1.820E-06,-0.280
-1.810E-06,-0.120
-1.800E-06,0.104
-1.790E-06,0.208
-1.780E-06,0.184
-1.770E-06,0.060
-1.760E-06,-0.044
-1.750E-06,-0.132
-1.740E-06,-0.140
-1.730E-06,-0.096
-1.720E-06,0.052
-1.710E-06,0.124
-1.700E-06,0.124
-1.690E-06,0.028
-1.680E-06,-0.040
-1.670E-06,-0.104
-1.660E-06,-0.068
-1.650E-06,-0.008
-1.640E-06,0.036
-1.630E-06,0.048
-1.620E-06,0.032
-1.610E-06,0.012
-1.600E-06,-0.008
-1.590E-06,-0.024
-1.580E-06,-0.016
-1.570E-06,0.008
-1.560E-06,0.008
-1.550E-06,0.016
-1.540E-06,0.012
-1.530E-06,0.008
-1.520E-06,-0.004
-1.510E-06,0.000
-1.500E-06,0.004
-1.490E-06,-0.004
-1.480E-06,0.000
-1.470E-06,0.008
-1.460E-06,0.012
-1.450E-06,0.008
-1.440E-06,0.004
-1.430E-06,0.000
-1.420E-06,0.004
-1.410E-06,0.000
-1.400E-06,0.012
-1.390E-06,0.020
-1.380E-06,0.016
-1.370E-06,0.012
-1.360E-06,0.008
-1.350E-06,0.012
-1.340E-06,0.008
-1.330E-06,0.024
-1.320E-06,0.036
-1.310E-06,0.048
-1.300E-06,0.052
-1.290E-06,0.056
-1.280E-06,0.048
-1.270E-06,0.056
-1.260E-06,0.056
-1.250E-06,0.092
-1.240E-06,0.076
-1.230E-06,0.088
-1.220E-06,0.044
-1.210E-06,-0.012
-1.200E-06,-0.088
-1.190E-06,-0.116
-1.180E-06,-0.076
-1.170E-06,-0.024
-1.160E-06,0.060
-1.150E-06,0.052
-1.140E-06,0.040
-1.130E-06,-0.004
-1.120E-06,-0.024
-1.110E-06,-0.064
-1.100E-06,-0.052
-1.090E-06,-0.008
-1.080E-06,0.020
-1.070E-06,0.028
-1.060E-06,0.004
-1.050E-06,-0.004
-1.040E-06,-0.024
-1.030E-06,-0.004
-1.020E-06,0.000
-1.010E-06,0.040
-1.000E-06,0.040
-9.900E-07,0.068
-9.800E-07,0.092
-9.700E-07,0.112
-9.600E-07,0.112
-9.500E-07,0.032
-9.400E-07,-0.024
-9.300E-07,-0.120
-9.200E-07,-0.156
-9.100E-07,-0.168
-9.000E-07,-0.100
-8.900E-07,-0.012
-8.800E-07,0.060
-8.700E-07,0.096
-8.600E-07,0.060
-8.500E-07,0.004
-8.400E-07,-0.064
-8.300E-07,-0.096
-8.200E-07,-0.076
-8.100E-07,-0.012
-8.000E-07,0.024
-7.900E-07,0.064
-7.800E-07,0.056
-7.700E-07,0.020
-7.600E-07,-0.020
-7.500E-07,-0.036
-7.400E-07,-0.036
-7.300E-07,-0.008
-7.200E-07,0.024
-7.100E-07,0.040
-7.000E-07,0.044
-6.900E-07,0.012
-6.800E-07,0.004
-6.700E-07,-0.008
-6.600E-07,-0.004
-6.500E-07,0.012
-6.400E-07,0.044
-6.300E-07,0.072
-6.200E-07,0.076
-6.100E-07,0.088
-6.000E-07,0.064
-5.900E-07,0.068
-5.800E-07,0.052
-5.700E-07,0.028
-5.600E-07,0.008
-5.500E-07,0.016
-5.400E-07,-0.004
-5.300E-07,-0.008
-5.200E-07,-0.028
-5.100E-07,-0.052
-5.000E-07,-0.040
-4.900E-07,-0.032
-4.800E-07,-0.020
-4.700E-07,-0.012
-4.600E-07,-0.008
-4.500E-07,-0.004
-4.400E-07,-0.012
-4.300E-07,-0.004
-4.200E-07,0.000
-4.100E-07,0.004
-4.000E-07,-0.008
-3.900E-07,-0.012
-3.800E-07,-0.012
-3.700E-07,-0.008
-3.600E-07,0.008
-3.500E-07,0.028
-3.400E-07,0.028
-3.300E-07,0.032
-3.200E-07,0.040
-3.100E-07,0.044
-3.000E-07,0.072
-2.900E-07,0.096
-2.800E-07,0.120
-2.700E-07,0.140
-2.600E-07,0.128
-2.500E-07,0.128
-2.400E-07,0.092
-2.300E-07,0.072
-2.200E-07,0.036
-2.100E-07,0.040
-2.000E-07,0.016
-1.900E-07,-0.004
-1.800E-07,-0.008
-1.700E-07,-0.024
-1.600E-07,0.020
-1.500E-07,0.012
-1.400E-07,0.016
-1.300E-07,0.000
-1.200E-07,-0.008
-1.100E-07,0.000
-1.000E-07,-0.004
-9.000E-08,0.024
-8.000E-08,0.060
-7.000E-08,0.108
-6.000E-08,-0.196
-5.000E-08,-0.232
-4.000E-08,-0.492
-3.000E-08,-0.376
-2.000E-08,-0.156
-1.000E-08,0.152
0.000E+00,0.360
1.000E-08,0.360
2.000E-08,0.288
3.000E-08,0.004
4.000E-08,-0.340
5.000E-08,-0.396
6.000E-08,-0.384
7.000E-08,-0.228
8.000E-08,0.012
9.000E-08,0.136
1.000E-07,0.256
1.100E-07,0.040
1.200E-07,-0.060
1.300E-07,-0.092
1.400E-07,-0.104
1.500E-07,0.000
1.600E-07,0.056
1.700E-07,0.076
1.800E-07,0.004
1.900E-07,-0.028
2.000E-07,-0.020
2.100E-07,-0.008
2.200E-07,-0.056
2.300E-07,-0.020
2.400E-07,-0.004
2.500E-07,0.008
2.600E-07,-0.012
2.700E-07,0.016
2.800E-07,0.028
2.900E-07,0.004
3.000E-07,0.012
3.100E-07,0.004
3.200E-07,-0.004
3.300E-07,-0.040
3.400E-07,-0.028
3.500E-07,0.000
3.600E-07,0.008
3.700E-07,0.016
3.800E-07,0.032
3.900E-07,0.040
4.000E-07,0.008
4.100E-07,-0.012
4.200E-07,-0.020
4.300E-07,-0.004
4.400E-07,-0.008
4.500E-07,0.008
4.600E-07,0.044
4.700E-07,0.040
4.800E-07,0.020
4.900E-07,0.008
5.000E-07,0.004
5.100E-07,-0.012
5.200E-07,0.004
5.300E-07,0.024
5.400E-07,0.020
5.500E-07,0.008
5.600E-07,0.004
5.700E-07,-0.008
5.800E-07,-0.040
5.900E-07,-0.020
6.000E-07,0.008
6.100E-07,0.040
6.200E-07,0.020
6.300E-07,0.028
6.400E-07,0.020
6.500E-07,0.020
6.600E-07,0.008
6.700E-07,0.008
6.800E-07,0.020
6.900E-07,0.020
7.000E-07,0.024
7.100E-07,0.044
7.200E-07,0.052
7.300E-07,0.044
7.400E-07,0.048
7.500E-07,0.056
7.600E-07,0.068
7.700E-07,0.060
7.800E-07,0.072
7.900E-07,0.072
8.000E-07,0.088
8.100E-07,0.080
8.200E-07,0.088
8.300E-07,0.092
8.400E-07,0.072
8.500E-07,0.128
8.600E-07,0.080
8.700E-07,0.028
8.800E-07,-0.112
8.900E-07,-0.180
9.000E-07,-0.256
9.100E-07,-0.256
9.200E-07,-0.136
9.300E-07,0.008
9.400E-07,0.108
9.500E-07,0.128
9.600E-07,0.032
9.700E-07,-0.096
9.800E-07,-0.160
9.900E-07,-0.100
1.000E-06,-0.040
1.010E-06,-0.012
1.020E-06,0.068
1.030E-06,0.084
1.040E-06,0.108
1.050E-06,0.056
1.060E-06,0.048
1.070E-06,0.020
1.080E-06,0.052
1.090E-06,0.096
1.100E-06,0.148
1.110E-06,0.104
1.120E-06,0.008
1.130E-06,-0.180
1.140E-06,-0.288
1.150E-06,-0.316
1.160E-06,-0.144
1.170E-06,-0.008
1.180E-06,0.188
1.190E-06,0.208
1.200E-06,0.128
1.210E-06,0.012
1.220E-06,-0.136
1.230E-06,-0.112
1.240E-06,-0.056
1.250E-06,0.092
1.260E-06,0.088
1.270E-06,0.052
1.280E-06,-0.016
1.290E-06,-0.076
1.300E-06,-0.096
1.310E-06,-0.068
1.320E-06,-0.004
1.330E-06,0.056
1.340E-06,0.088
1.350E-06,0.108
1.360E-06,0.072
1.370E-06,0.028
1.380E-06,-0.012
1.390E-06,0.016
1.400E-06,0.064
1.410E-06,0.120
1.420E-06,0.152
1.430E-06,0.068
1.440E-06,-0.040
1.450E-06,-0.184
1.460E-06,-0.236
1.470E-06,-0.200
1.480E-06,-0.144
1.490E-06,-0.008
1.500E-06,0.088
1.510E-06,0.140
1.520E-06,0.072
1.530E-06,-0.036
1.540E-06,-0.128
1.550E-06,-0.144
1.560E-06,-0.020
1.570E-06,0.076
1.580E-06,0.136
1.590E-06,0.076
1.600E-06,0.004
1.610E-06,-0.060
1.620E-06,-0.072
1.630E-06,-0.068
1.640E-06,-0.020
1.650E-06,0.048
1.660E-06,0.068
1.670E-06,0.068
1.680E-06,0.016
1.690E-06,-0.012
1.700E-06,-0.044
1.710E-06,-0.032
1.720E-06,-0.004
1.730E-06,0.040
1.740E-06,0.060
1.750E-06,0.040
1.760E-06,0.000
1.770E-06,-0.024
1.780E-06,-0.020
1.790E-06,-0.008
1.800E-06,0.032
1.810E-06,0.036
1.820E-06,0.036
1.830E-06,0.024
1.840E-06,0.036
1.850E-06,0.028
1.860E-06,0.008
1.870E-06,0.012
1.880E-06,0.072
1.890E-06,0.092
1.900E-06,0.092
1.910E-06,0.060
1.920E-06,0.064
1.930E-06,0.020
1.940E-06,0.008
1.950E-06,-0.008
1.960E-06,-0.016
1.970E-06,-0.020
1.980E-06,-0.012
1.990E-06,0.008
2.000E-06,0.000
2.010E-06,-0.008
2.020E-06,0.024
2.030E-06,0.064
2.040E-06,0.096
2.050E-06,0.100
2.060E-06,0.092
2.070E-06,0.088
2.080E-06,0.056
2.090E-06,0.080
2.100E-06,0.052
2.110E-06,0.060
2.120E-06,0.064
2.130E-06,0.088
2.140E-06,0.056
2.150E-06,0.028
2.160E-06,0.008
2.170E-06,0.004
2.180E-06,0.024
2.190E-06,0.020
2.200E-06,0.044
2.210E-06,0.048
2.220E-06,0.096
2.230E-06,0.092
2.240E-06,0.080
2.250E-06,0.088
2.260E-06,-0.112
2.270E-06,-0.108
2.280E-06,-0.084
2.290E-06,0.120
2.300E-06,-0.316
2.310E-06,-0.508
2.320E-06,-0.460
2.330E-06,-0.512
2.340E-06,-0.036
2.350E-06,0.260
2.360E-06,0.372
2.370E-06,0.360
2.380E-06,0.100
2.390E-06,0.072
2.400E-06,-0.332
2.410E-06,-0.336
2.420E-06,-0.008
2.430E-06,0.288
2.440E-06,0.224
2.450E-06,-0.012
2.460E-06,-0.148
2.470E-06,-0.124
2.480E-06,-0.012
2.490E-06,0.072
2.500E-06,0.112
2.510E-06,0.072
2.520E-06,-0.008
2.530E-06,-0.052
2.540E-06,-0.028
2.550E-06,-0.040
2.560E-06,-0.004
2.570E-06,0.024
2.580E-06,0.052
2.590E-06,0.012
2.600E-06,0.000
2.610E-06,-0.004
2.620E-06,-0.036
2.630E-06,-0.020
2.640E-06,-0.004
2.650E-06,0.064
2.660E-06,0.044
2.670E-06,0.028
2.680E-06,0.004
2.690E-06,-0.020
2.700E-06,-0.076
2.710E-06,-0.036
2.720E-06,0.020
2.730E-06,0.060
2.740E-06,0.068
2.750E-06,0.072
2.760E-06,0.052
2.770E-06,-0.016
2.780E-06,-0.032
2.790E-06,-0.016
2.800E-06,0.044
2.810E-06,0.072
2.820E-06,0.084
2.830E-06,0.088
2.840E-06,0.028
2.850E-06,0.024
2.860E-06,0.028
2.870E-06,0.088
2.880E-06,0.088
2.890E-06,0.132
2.900E-06,0.164
2.910E-06,0.016
2.920E-06,-0.184
2.930E-06,-0.420
2.940E-06,-0.504
2.950E-06,-0.304
2.960E-06,-0.076
2.970E-06,0.280
2.980E-06,0.356
2.990E-06,0.328
3.000E-06,0.056
3.010E-06,-0.160
3.020E-06,-0.216
3.030E-06,-0.216
3.040E-06,0.024
3.050E-06,0.100
3.060E-06,0.116
3.070E-06,0.076
3.080E-06,0.076
3.090E-06,0.008
3.100E-06,-0.040
3.110E-06,-0.060
3.120E-06,-0.204
3.130E-06,-0.080
3.140E-06,-0.100
3.150E-06,0.076
3.160E-06,0.124
3.170E-06,0.076
3.180E-06,-0.008
3.190E-06,-0.032
3.200E-06,-0.036
3.210E-06,-0.024
3.220E-06,-0.004
3.230E-06,0.040
3.240E-06,0.056
3.250E-06,0.036
3.260E-06,0.024
3.270E-06,-0.008
3.280E-06,-0.020
3.290E-06,-0.012
3.300E-06,0.020
3.310E-06,0.040
3.320E-06,0.028
3.330E-06,0.028
3.340E-06,0.012
3.350E-06,0.016
3.360E-06,0.020
3.370E-06,0.040
3.380E-06,0.040
3.390E-06,0.032
3.400E-06,-0.004
3.410E-06,-0.036
3.420E-06,-0.080
3.430E-06,0.000
3.440E-06,0.028
3.450E-06,0.076
3.460E-06,0.036
3.470E-06,0.072
3.480E-06,0.016
3.490E-06,-0.016
3.500E-06,-0.040
3.510E-06,-0.004
3.520E-06,0.056
3.530E-06,0.072
3.540E-06,0.104
3.550E-06,0.044
3.560E-06,0.080
3.570E-06,0.020
3.580E-06,0.096
3.590E-06,0.056
3.600E-06,0.024
3.610E-06,-0.028
3.620E-06,-0.068
3.630E-06,-0.068
3.640E-06,-0.072
3.650E-06,-0.040
3.660E-06,-0.012
3.670E-06,0.012
3.680E-06,-0.028
3.690E-06,-0.008
3.700E-06,0.004
3.710E-06,0.040
3.720E-06,0.032
3.730E-06,0.044
3.740E-06,0.016
3.750E-06,0.036
3.760E-06,0.072
3.770E-06,0.128
3.780E-06,0.124
3.790E-06,0.128
3.800E-06,0.004
3.810E-06,-0.052
3.820E-06,-0.124
3.830E-06,-0.192
3.840E-06,-0.120
3.850E-06,-0.164
3.860E-06,0.000
3.870E-06,0.076
3.880E-06,0.052
3.890E-06,0.060
3.900E-06,0.044
3.910E-06,0.060
3.920E-06,0.044
3.930E-06,0.032
3.940E-06,0.008
3.950E-06,0.028
3.960E-06,0.052
3.970E-06,-0.004
3.980E-06,-0.016
3.990E-06,-0.020
4.000E-06,0.004
4.010E-06,0.152
4.020E-06,0.128
4.030E-06,0.208
4.040E-06,0.124
4.050E-06,0.004
4.060E-06,-0.176
4.070E-06,-0.288
4.080E-06,-0.260
4.090E-06,-0.140
4.100E-06,0.044
4.110E-06,0.172
4.120E-06,0.252
4.130E-06,0.160
4.140E-06,0.000
4.150E-06,-0.100
4.160E-06,-0.076
4.170E-06,-0.060
4.180E-06,0.064
4.190E-06,0.088
4.200E-06,0.060
4.210E-06,0.052
4.220E-06,0.024
4.230E-06,0.068
4.240E-06,0.036
4.250E-06,0.092
4.260E-06,0.088
4.270E-06,0.084
4.280E-06,0.048
4.290E-06,-0.076
4.300E-06,-0.084
4.310E-06,-0.216
4.320E-06,0.008
4.330E-06,0.104
4.340E-06,0.224
4.350E-06,0.144
4.360E-06,0.028
4.370E-06,-0.060
4.380E-06,-0.160
4.390E-06,-0.064
4.400E-06,-0.056
4.410E-06,0.040
4.420E-06,0.212
4.430E-06,0.228
4.440E-06,0.308
4.450E-06,0.088
4.460E-06,-0.288
4.470E-06,-0.396
4.480E-06,-0.512
4.490E-06,-0.508
4.500E-06,-0.296
4.510E-06,0.288
4.520E-06,0.352
4.530E-06,0.300
4.540E-06,-0.036
4.550E-06,-0.200
4.560E-06,-0.332
4.570E-06,-0.180
4.580E-06,0.128
4.590E-06,0.272
4.600E-06,0.256
4.610E-06,0.012
4.620E-06,-0.068
4.630E-06,-0.184
4.640E-06,-0.156
4.650E-06,-0.076
4.660E-06,0.064
4.670E-06,0.132
4.680E-06,0.104
4.690E-06,0.048
4.700E-06,-0.028
4.710E-06,-0.076
4.720E-06,-0.088
4.730E-06,-0.004
4.740E-06,0.048
4.750E-06,0.068
4.760E-06,0.040
4.770E-06,0.020
4.780E-06,-0.040
4.790E-06,-0.052
4.800E-06,-0.040
4.810E-06,0.020
4.820E-06,0.056
4.830E-06,0.064
4.840E-06,0.044
4.850E-06,-0.008
4.860E-06,-0.052
4.870E-06,-0.052
4.880E-06,-0.008
4.890E-06,0.036
4.900E-06,0.056
4.910E-06,0.060
4.920E-06,0.048
4.930E-06,-0.004
4.940E-06,-0.036
4.950E-06,-0.036
4.960E-06,0.000
4.970E-06,0.036
4.980E-06,0.052
4.990E-06,0.060
5.000E-06,0.044
5.010E-06,0.016
5.020E-06,0.000
5.030E-06,0.012
5.040E-06,0.016
5.050E-06,0.044
5.060E-06,0.072
5.070E-06,0.092
5.080E-06,0.072
5.090E-06,0.040
5.100E-06,0.028
5.110E-06,0.028
5.120E-06,0.056
5.130E-06,0.076
5.140E-06,0.096
5.150E-06,0.084
5.160E-06,0.092
5.170E-06,0.088
5.180E-06,0.080
5.190E-06,0.084
5.200E-06,0.060
5.210E-06,0.092
5.220E-06,0.112
5.230E-06,0.136
5.240E-06,0.128
5.250E-06,0.104
5.260E-06,0.092
5.270E-06,0.040
5.280E-06,0.024
5.290E-06,0.064
5.300E-06,0.052
5.310E-06,0.100
5.320E-06,0.096
5.330E-06,0.092
5.340E-06,0.096
5.350E-06,0.068
5.360E-06,0.192
5.370E-06,-0.272
5.380E-06,-0.508
5.390E-06,-0.512
5.400E-06,-0.512
5.410E-06,-0.420
5.420E-06,-0.196
5.430E-06,0.236
5.440E-06,0.424
5.450E-06,0.236
5.460E-06,0.168
5.470E-06,-0.208
5.480E-06,-0.180
5.490E-06,-0.036
5.500E-06,0.156
5.510E-06,0.096
5.520E-06,0.092
5.530E-06,-0.076
5.540E-06,-0.104
5.550E-06,-0.184
5.560E-06,-0.104
5.570E-06,0.060
5.580E-06,0.200
5.590E-06,0.160
5.600E-06,0.056
5.610E-06,-0.036
5.620E-06,-0.104
5.630E-06,-0.108
5.640E-06,-0.024
5.650E-06,0.120
5.660E-06,0.088
5.670E-06,0.132
5.680E-06,0.064
5.690E-06,0.012
5.700E-06,-0.072
5.710E-06,-0.064
5.720E-06,-0.036
5.730E-06,0.068
5.740E-06,0.132
5.750E-06,0.136
5.760E-06,0.116
5.770E-06,-0.044
5.780E-06,-0.088
5.790E-06,-0.072
5.800E-06,0.040
5.810E-06,0.108
5.820E-06,0.196
5.830E-06,0.176
5.840E-06,0.088
5.850E-06,-0.024
5.860E-06,-0.028
5.870E-06,0.004
5.880E-06,0.064
5.890E-06,0.124
5.900E-06,0.176
5.910E-06,0.064
5.920E-06,-0.192
5.930E-06,-0.364
5.940E-06,-0.512
5.950E-06,-0.340
5.960E-06,-0.196
5.970E-06,0.144
5.980E-06,0.296
5.990E-06,0.244
6.000E-06,0.040
6.010E-06,-0.124
6.020E-06,-0.172
6.030E-06,-0.104
6.040E-06,0.028
6.050E-06,0.192
6.060E-06,0.184
6.070E-06,0.060
6.080E-06,-0.012
6.090E-06,-0.152
6.100E-06,-0.080
6.110E-06,-0.040
6.120E-06,0.064
6.130E-06,0.172
6.140E-06,0.200
6.150E-06,0.128
6.160E-06,0.076
6.170E-06,0.040
6.180E-06,-0.004
6.190E-06,-0.044
6.200E-06,-0.048
6.210E-06,-0.040
6.220E-06,-0.060
6.230E-06,-0.068
6.240E-06,-0.028
6.250E-06,0.024
6.260E-06,0.068
6.270E-06,0.016
6.280E-06,-0.008
6.290E-06,0.040
6.300E-06,-0.052
6.310E-06,-0.004
6.320E-06,0.028
6.330E-06,0.008
6.340E-06,0.072
6.350E-06,0.072
6.360E-06,0.212
6.370E-06,0.096
6.380E-06,0.092
6.390E-06,0.048
6.400E-06,0.016
6.410E-06,0.004
6.420E-06,-0.052
6.430E-06,0.036
6.440E-06,0.064
6.450E-06,0.084
6.460E-06,0.132
6.470E-06,0.108
6.480E-06,-0.020
6.490E-06,-0.092
6.500E-06,-0.152
6.510E-06,-0.208
6.520E-06,-0.124
6.530E-06,0.064
6.540E-06,-0.028
6.550E-06,-0.004
6.560E-06,-0.028
6.570E-06,-0.024
6.580E-06,-0.028
6.590E-06,-0.032
6.600E-06,0.000
6.610E-06,-0.040
6.620E-06,0.012
6.630E-06,0.008
6.640E-06,0.096
6.650E-06,-0.056
6.660E-06,-0.080
6.670E-06,-0.052
6.680E-06,0.044
6.690E-06,0.128
6.700E-06,0.040
6.710E-06,0.128
6.720E-06,-0.032
6.730E-06,-0.060
6.740E-06,-0.068
6.750E-06,-0.008
6.760E-06,-0.028
6.770E-06,-0.028
6.780E-06,0.008
6.790E-06,0.012
6.800E-06,0.000
6.810E-06,0.020
6.820E-06,0.012
6.830E-06,0.000
6.840E-06,0.036
6.850E-06,0.032
6.860E-06,0.068
6.870E-06,0.068
6.880E-06,0.052
6.890E-06,0.052
6.900E-06,0.044
6.910E-06,0.068
6.920E-06,0.056
6.930E-06,0.100
6.940E-06,0.124
6.950E-06,0.104
6.960E-06,0.092
6.970E-06,0.132
6.980E-06,0.064
6.990E-06,0.024
7.000E-06,-0.020
7.010E-06,-0.044
7.020E-06,-0.084
7.030E-06,-0.092
7.040E-06,-0.052
7.050E-06,-0.004
7.060E-06,-0.008
7.070E-06,0.020
7.080E-06,-0.004
7.090E-06,0.016
7.100E-06,-0.032
7.110E-06,0.012
7.120E-06,0.044
7.130E-06,0.088
7.140E-06,0.064
7.150E-06,0.088
7.160E-06,0.096
7.170E-06,0.088
7.180E-06,0.036
7.190E-06,-0.004
7.200E-06,-0.052
7.210E-06,-0.052
7.220E-06,-0.024
7.230E-06,-0.012
7.240E-06,0.044
7.250E-06,0.096
7.260E-06,0.136
7.270E-06,0.084
7.280E-06,0.072
7.290E-06,0.040
7.300E-06,0.044
7.310E-06,0.056
7.320E-06,0.100
7.330E-06,0.144
7.340E-06,0.148
7.350E-06,0.136
7.360E-06,0.076
7.370E-06,0.092
7.380E-06,0.088
7.390E-06,0.124
7.400E-06,0.140
7.410E-06,0.172
7.420E-06,0.160
7.430E-06,0.144
7.440E-06,0.128
7.450E-06,0.120
7.460E-06,0.124
7.470E-06,0.164
7.480E-06,0.144
7.490E-06,0.124
7.500E-06,0.028
7.510E-06,-0.116
7.520E-06,-0.508
7.530E-06,-0.508
7.540E-06,-0.512
7.550E-06,-0.508
7.560E-06,0.056
7.570E-06,0.188
7.580E-06,0.540
7.590E-06,0.292
7.600E-06,-0.276
7.610E-06,-0.512
7.620E-06,-0.508
7.630E-06,-0.288
7.640E-06,0.200
7.650E-06,0.540
7.660E-06,0.536
7.670E-06,0.324
7.680E-06,0.112
7.690E-06,-0.100
7.700E-06,-0.336
7.710E-06,-0.296
7.720E-06,0.044
7.730E-06,0.420
7.740E-06,0.372
7.750E-06,0.316
7.760E-06,0.140
7.770E-06,-0.072
7.780E-06,-0.204
7.790E-06,-0.088
7.800E-06,0.140
7.810E-06,0.204
7.820E-06,0.268
7.830E-06,0.264
7.840E-06,0.184
7.850E-06,0.016
7.860E-06,-0.016
7.870E-06,0.084
7.880E-06,0.160
7.890E-06,0.172
7.900E-06,0.188
7.910E-06,0.168
7.920E-06,0.052
7.930E-06,-0.024
7.940E-06,-0.008
7.950E-06,0.052
7.960E-06,0.076
7.970E-06,0.160
7.980E-06,0.216
7.990E-06,0.204
8.000E-06,0.140
8.010E-06,0.104
8.020E-06,0.124
8.030E-06,0.120
8.040E-06,0.140
8.050E-06,0.188
8.060E-06,0.204
8.070E-06,0.172
8.080E-06,0.144
8.090E-06,0.144
8.100E-06,0.128
8.110E-06,0.108
8.120E-06,0.080
8.130E-06,0.084
8.140E-06,-0.008
8.150E-06,-0.068
8.160E-06,0.012
8.170E-06,-0.008
8.180E-06,0.132
8.190E-06,0.136
8.200E-06,0.212
8.210E-06,0.192
8.220E-06,0.084
8.230E-06,0.036
8.240E-06,-0.064
8.250E-06,-0.200
8.260E-06,-0.288
8.270E-06,-0.256
8.280E-06,-0.260
8.290E-06,-0.120
8.300E-06,-0.080
8.310E-06,0.232
8.320E-06,0.236
8.330E-06,0.428
8.340E-06,0.264
8.350E-06,0.116
8.360E-06,-0.024
8.370E-06,-0.076
8.380E-06,0.020
8.390E-06,-0.008
8.400E-06,0.044
8.410E-06,0.044
8.420E-06,0.208
8.430E-06,0.024
8.440E-06,0.124
8.450E-06,0.052
8.460E-06,0.096
8.470E-06,0.108
8.480E-06,0.180
8.490E-06,0.220
8.500E-06,0.188
8.510E-06,0.216
8.520E-06,0.140
8.530E-06,0.164
8.540E-06,0.108
8.550E-06,0.140
8.560E-06,0.144
8.570E-06,0.184
8.580E-06,0.188
8.590E-06,0.192
8.600E-06,0.176
8.610E-06,0.140
8.620E-06,0.160
8.630E-06,0.144
8.640E-06,0.164
8.650E-06,0.160
8.660E-06,0.152
8.670E-06,0.160
8.680E-06,0.160
8.690E-06,0.140
8.700E-06,0.136
8.710E-06,0.148
8.720E-06,0.156
8.730E-06,0.156
8.740E-06,0.176
8.750E-06,0.176
8.760E-06,0.172
8.770E-06,0.156
8.780E-06,0.152
8.790E-06,0.156
8.800E-06,0.160
8.810E-06,0.164
8.820E-06,0.168
8.830E-06,0.172
8.840E-06,0.172
8.850E-06,0.164
8.860E-06,0.164
8.870E-06,0.160
8.880E-06,0.152
8.890E-06,0.160
8.900E-06,0.160
8.910E-06,0.160
8.920E-06,0.152
8.930E-06,0.156
8.940E-06,0.160
8.950E-06,0.156
8.960E-06,0.152
8.970E-06,0.160
8.980E-06,0.160
8.990E-06,0.168
9.000E-06,0.160
9.010E-06,0.164
9.020E-06,0.160
9.030E-06,0.160
9.040E-06,0.156
9.050E-06,0.156
9.060E-06,0.152
9.070E-06,0.156
9.080E-06,0.164
9.090E-06,0.160
9.100E-06,0.156
9.110E-06,0.164
9.120E-06,0.156
9.130E-06,0.156
9.140E-06,0.156
9.150E-06,0.156
9.160E-06,0.156
9.170E-06,0.156
9.180E-06,0.156
9.190E-06,0.160
9.200E-06,0.156
9.210E-06,0.160
9.220E-06,0.152
9.230E-06,0.148
9.240E-06,0.152
9.250E-06,0.160
9.260E-06,0.160
9.270E-06,0.160
9.280E-06,0.148
9.290E-06,0.152
9.300E-06,0.160
9.310E-06,0.156
9.320E-06,0.152
9.330E-06,0.156
9.340E-06,0.160
9.350E-06,0.152
9.360E-06,0.156
9.370E-06,0.148
9.380E-06,0.148
9.390E-06,0.156
9.400E-06,0.160
9.410E-06,0.160
9.420E-06,0.152
9.430E-06,0.152
9.440E-06,0.148
9.450E-06,0.148
9.460E-06,0.152
9.470E-06,0.148
9.480E-06,0.148
9.490E-06,0.148
9.500E-06,0.148
9.510E-06,0.152
9.520E-06,0.144
9.530E-06,0.144
9.540E-06,0.144
9.550E-06,0.144
9.560E-06,0.140
9.570E-06,0.144
9.580E-06,0.148
9.590E-06,0.140
9.600E-06,0.144
9.610E-06,0.148
9.620E-06,0.144
9.630E-06,0.140
9.640E-06,0.144
9.650E-06,0.140
9.660E-06,0.144
9.670E-06,0.148
9.680E-06,0.140
9.690E-06,0.144
9.700E-06,0.144
9.710E-06,0.140
9.720E-06,0.140
9.730E-06,0.144
9.740E-06,0.144
9.750E-06,0.148
9.760E-06,0.148
