mediciones/Mediciones filtradas (saque las feas)/6-3/-5/WaveData53127.csv

#timebase=2000000(ps)
,#voltbase=500000(mv/100)
#size=4000
-2.300E-06,0.740
-2.290E-06,0.680
-2.280E-06,0.640
-2.270E-06,0.680
-2.260E-06,0.620
-2.250E-06,0.660
-2.240E-06,0.620
-2.230E-06,0.560
-2.220E-06,0.480
-2.210E-06,0.440
-2.200E-06,0.440
-2.190E-06,0.380
-2.180E-06,0.340
-2.170E-06,0.340
-2.160E-06,0.340
-2.150E-06,0.260
-2.140E-06,0.220
-2.130E-06,0.220
-2.120E-06,0.180
-2.110E-06,0.220
-2.100E-06,0.240
-2.090E-06,0.300
-2.080E-06,0.320
-2.070E-06,0.360
-2.060E-06,0.340
-2.050E-06,0.360
-2.040E-06,0.340
-2.030E-06,0.420
-2.020E-06,0.380
-2.010E-06,0.460
-2.000E-06,0.560
-1.990E-06,0.420
-1.980E-06,0.520
-1.970E-06,0.520
-1.960E-06,0.520
-1.950E-06,0.680
-1.940E-06,0.840
-1.930E-06,1.020
-1.920E-06,1.140
-1.910E-06,1.120
-1.900E-06,1.140
-1.890E-06,1.100
-1.880E-06,1.140
-1.870E-06,1.200
-1.860E-06,1.240
-1.850E-06,1.240
-1.840E-06,1.180
-1.830E-06,1.160
-1.820E-06,1.020
-1.810E-06,1.040
-1.800E-06,1.100
-1.790E-06,0.960
-1.780E-06,0.880
-1.770E-06,0.980
-1.760E-06,0.880
-1.750E-06,1.020
-1.740E-06,0.980
-1.730E-06,0.940
-1.720E-06,0.920
-1.710E-06,0.800
-1.700E-06,0.760
-1.690E-06,0.760
-1.680E-06,0.780
-1.670E-06,0.800
-1.660E-06,0.740
-1.650E-06,0.680
-1.640E-06,0.680
-1.630E-06,0.580
-1.620E-06,0.600
-1.610E-06,0.500
-1.600E-06,0.560
-1.590E-06,0.500
-1.580E-06,0.500
-1.570E-06,0.480
-1.560E-06,0.420
-1.550E-06,0.420
-1.540E-06,0.360
-1.530E-06,0.360
-1.520E-06,0.320
-1.510E-06,0.280
-1.500E-06,0.260
-1.490E-06,0.200
-1.480E-06,0.080
-1.470E-06,0.140
-1.460E-06,0.000
-1.450E-06,-0.040
-1.440E-06,-0.080
-1.430E-06,-0.060
-1.420E-06,0.040
-1.410E-06,0.020
-1.400E-06,0.080
-1.390E-06,0.080
-1.380E-06,0.060
-1.370E-06,0.120
-1.360E-06,0.160
-1.350E-06,0.240
-1.340E-06,0.420
-1.330E-06,0.380
-1.320E-06,0.420
-1.310E-06,0.320
-1.300E-06,0.380
-1.290E-06,0.560
-1.280E-06,0.620
-1.270E-06,0.500
-1.260E-06,0.580
-1.250E-06,0.560
-1.240E-06,0.520
-1.230E-06,0.600
-1.220E-06,0.580
-1.210E-06,0.560
-1.200E-06,0.400
-1.190E-06,0.420
-1.180E-06,0.360
-1.170E-06,0.340
-1.160E-06,0.320
-1.150E-06,0.260
-1.140E-06,0.180
-1.130E-06,0.080
-1.120E-06,0.020
-1.110E-06,0.080
-1.100E-06,0.140
-1.090E-06,0.160
-1.080E-06,0.040
-1.070E-06,0.000
-1.060E-06,-0.020
-1.050E-06,0.000
-1.040E-06,0.080
-1.030E-06,0.140
-1.020E-06,0.060
-1.010E-06,0.000
-1.000E-06,-0.060
-9.900E-07,-0.080
-9.800E-07,-0.020
-9.700E-07,-0.020
-9.600E-07,0.080
-9.500E-07,0.040
-9.400E-07,-0.060
-9.300E-07,0.020
-9.200E-07,-0.080
-9.100E-07,0.020
-9.000E-07,0.020
-8.900E-07,0.120
-8.800E-07,0.160
-8.700E-07,0.220
-8.600E-07,0.220
-8.500E-07,0.220
-8.400E-07,0.180
-8.300E-07,0.180
-8.200E-07,0.180
-8.100E-07,0.180
-8.000E-07,0.160
-7.900E-07,0.200
-7.800E-07,0.260
-7.700E-07,0.240
-7.600E-07,0.280
-7.500E-07,0.240
-7.400E-07,0.240
-7.300E-07,0.180
-7.200E-07,0.020
-7.100E-07,-0.080
-7.000E-07,-0.160
-6.900E-07,-0.220
-6.800E-07,-0.220
-6.700E-07,-0.160
-6.600E-07,-0.020
-6.500E-07,0.000
-6.400E-07,0.040
-6.300E-07,0.100
-6.200E-07,0.260
-6.100E-07,0.440
-6.000E-07,0.620
-5.900E-07,0.780
-5.800E-07,0.760
-5.700E-07,0.760
-5.600E-07,0.640
-5.500E-07,0.640
-5.400E-07,0.660
-5.300E-07,0.620
-5.200E-07,0.700
-5.100E-07,0.760
-5.000E-07,0.740
-4.900E-07,0.660
-4.800E-07,0.680
-4.700E-07,0.600
-4.600E-07,0.580
-4.500E-07,0.520
-4.400E-07,0.600
-4.300E-07,0.720
-4.200E-07,0.920
-4.100E-07,1.000
-4.000E-07,1.100
-3.900E-07,1.000
-3.800E-07,1.060
-3.700E-07,1.040
-3.600E-07,1.100
-3.500E-07,1.180
-3.400E-07,1.140
-3.300E-07,1.220
-3.200E-07,1.180
-3.100E-07,1.200
-3.000E-07,1.180
-2.900E-07,1.160
-2.800E-07,1.180
-2.700E-07,1.120
-2.600E-07,1.080
-2.500E-07,1.060
-2.400E-07,1.080
-2.300E-07,1.060
-2.200E-07,1.060
-2.100E-07,1.020
-2.000E-07,0.940
-1.900E-07,0.880
-1.800E-07,0.880
-1.700E-07,0.940
-1.600E-07,0.980
-1.500E-07,0.960
-1.400E-07,0.980
-1.300E-07,0.920
-1.200E-07,0.920
-1.100E-07,0.920
-1.000E-07,0.980
-9.000E-08,1.020
-8.000E-08,1.000
-7.000E-08,1.000
-6.000E-08,0.940
-5.000E-08,0.920
-4.000E-08,0.560
-3.000E-08,0.680
-2.000E-08,0.440
-1.000E-08,-0.600
0.000E+00,0.120
1.000E-08,-0.260
2.000E-08,1.040
3.000E-08,1.340
4.000E-08,1.700
5.000E-08,1.540
6.000E-08,0.440
7.000E-08,-0.380
8.000E-08,-0.900
9.000E-08,-0.580
1.000E-07,0.100
1.100E-07,1.280
1.200E-07,1.740
1.300E-07,1.360
1.400E-07,1.220
1.500E-07,0.460
1.600E-07,0.320
1.700E-07,0.700
1.800E-07,1.040
1.900E-07,1.160
2.000E-07,1.240
2.100E-07,0.760
2.200E-07,1.040
2.300E-07,0.800
2.400E-07,0.960
2.500E-07,1.120
2.600E-07,0.780
2.700E-07,0.940
2.800E-07,0.520
2.900E-07,0.780
3.000E-07,0.560
3.100E-07,0.760
3.200E-07,0.640
3.300E-07,0.580
3.400E-07,0.420
3.500E-07,0.240
3.600E-07,0.160
3.700E-07,0.220
3.800E-07,0.100
3.900E-07,-0.260
4.000E-07,-0.220
4.100E-07,-0.340
4.200E-07,0.240
4.300E-07,0.540
4.400E-07,0.480
4.500E-07,0.420
4.600E-07,0.700
4.700E-07,0.760
4.800E-07,1.060
4.900E-07,0.840
5.000E-07,1.120
5.100E-07,1.180
5.200E-07,1.380
5.300E-07,1.360
5.400E-07,1.360
5.500E-07,1.360
5.600E-07,1.480
5.700E-07,1.480
5.800E-07,1.740
5.900E-07,1.820
6.000E-07,1.600
6.100E-07,1.540
6.200E-07,1.420
6.300E-07,1.420
6.400E-07,1.460
6.500E-07,1.440
6.600E-07,1.540
6.700E-07,1.380
6.800E-07,1.220
6.900E-07,1.220
7.000E-07,1.100
7.100E-07,1.260
7.200E-07,1.200
7.300E-07,1.200
7.400E-07,1.180
7.500E-07,1.060
7.600E-07,1.060
7.700E-07,1.040
7.800E-07,1.060
7.900E-07,1.100
8.000E-07,1.080
8.100E-07,1.100
8.200E-07,1.040
8.300E-07,0.920
8.400E-07,0.800
8.500E-07,0.620
8.600E-07,0.500
8.700E-07,0.320
8.800E-07,0.160
8.900E-07,-0.020
9.000E-07,-0.120
9.100E-07,-0.220
9.200E-07,-0.320
9.300E-07,-0.380
9.400E-07,-0.580
9.500E-07,-0.720
9.600E-07,-0.920
9.700E-07,-0.880
9.800E-07,-0.860
9.900E-07,-1.280
1.000E-06,-1.500
1.010E-06,-0.980
1.020E-06,-1.240
1.030E-06,-0.840
1.040E-06,-0.820
1.050E-06,-0.280
1.060E-06,0.000
1.070E-06,-0.080
1.080E-06,0.020
1.090E-06,-0.220
1.100E-06,-0.140
1.110E-06,-0.860
1.120E-06,-0.420
1.130E-06,-0.860
1.140E-06,-0.860
1.150E-06,-1.040
1.160E-06,-0.840
1.170E-06,-0.900
1.180E-06,-0.820
1.190E-06,-1.020
1.200E-06,-0.620
1.210E-06,-1.220
1.220E-06,-0.760
1.230E-06,-1.320
1.240E-06,-1.180
1.250E-06,-1.080
1.260E-06,-0.960
1.270E-06,-0.460
1.280E-06,-0.680
1.290E-06,-0.280
1.300E-06,-1.020
1.310E-06,-0.820
1.320E-06,-1.060
1.330E-06,-0.740
1.340E-06,-0.800
1.350E-06,-0.600
1.360E-06,-0.840
1.370E-06,-0.980
1.380E-06,-1.240
1.390E-06,-1.340
1.400E-06,-1.460
1.410E-06,-1.480
1.420E-06,-1.380
1.430E-06,-1.380
1.440E-06,-1.180
1.450E-06,-1.260
1.460E-06,-1.140
1.470E-06,-1.440
1.480E-06,-1.260
1.490E-06,-1.480
1.500E-06,-1.460
1.510E-06,-1.440
1.520E-06,-1.320
1.530E-06,-1.480
1.540E-06,-1.520
1.550E-06,-1.660
1.560E-06,-1.640
1.570E-06,-1.580
1.580E-06,-1.440
1.590E-06,-1.280
1.600E-06,-1.240
1.610E-06,-1.200
1.620E-06,-1.200
1.630E-06,-1.180
1.640E-06,-1.260
1.650E-06,-1.280
1.660E-06,-1.380
1.670E-06,-1.480
1.680E-06,-1.600
1.690E-06,-1.680
1.700E-06,-1.820
1.710E-06,-2.060
1.720E-06,-2.380
1.730E-06,-2.660
1.740E-06,-2.660
1.750E-06,-2.660
1.760E-06,-2.660
1.770E-06,-2.660
1.780E-06,-2.660
1.790E-06,-2.680
1.800E-06,-2.660
1.810E-06,-2.660
1.820E-06,-2.660
1.830E-06,-2.660
1.840E-06,-2.640
1.850E-06,-2.640
1.860E-06,-2.660
1.870E-06,-2.660
1.880E-06,-2.660
1.890E-06,-2.660
1.900E-06,-2.660
1.910E-06,-2.660
1.920E-06,-2.660
1.930E-06,-2.660
1.940E-06,-2.660
1.950E-06,-2.640
1.960E-06,-2.640
1.970E-06,-2.640
1.980E-06,-2.640
1.990E-06,-2.640
2.000E-06,-2.660
2.010E-06,-2.660
2.020E-06,-2.680
2.030E-06,-2.680
2.040E-06,-2.660
2.050E-06,-2.660
2.060E-06,-2.660
2.070E-06,-2.660
2.080E-06,-2.680
2.090E-06,-2.660
2.100E-06,-2.660
2.110E-06,-2.660
2.120E-06,-2.660
2.130E-06,-2.660
2.140E-06,-2.660
2.150E-06,-2.660
2.160E-06,-2.660
2.170E-06,-2.660
2.180E-06,-2.660
2.190E-06,-2.660
2.200E-06,-2.660
2.210E-06,-2.660
2.220E-06,-2.660
2.230E-06,-2.660
2.240E-06,-2.660
2.250E-06,-2.660
2.260E-06,-2.660
2.270E-06,-2.680
2.280E-06,-2.680
2.290E-06,-2.680
2.300E-06,-2.660
2.310E-06,-2.660
2.320E-06,-2.660
2.330E-06,-2.660
2.340E-06,-2.660
2.350E-06,-2.660
2.360E-06,-2.640
2.370E-06,-2.660
2.380E-06,-2.660
2.390E-06,-2.680
2.400E-06,-2.680
2.410E-06,-2.680
2.420E-06,-2.660
2.430E-06,-2.660
2.440E-06,-2.660
2.450E-06,-2.660
2.460E-06,-2.660
2.470E-06,-2.660
2.480E-06,-2.660
2.490E-06,-2.660
2.500E-06,-2.660
2.510E-06,-2.580
2.520E-06,-2.560
2.530E-06,-2.500
2.540E-06,-2.480
2.550E-06,-2.480
2.560E-06,-2.460
2.570E-06,-2.460
2.580E-06,-2.440
2.590E-06,-2.440
2.600E-06,-2.440
2.610E-06,-2.480
2.620E-06,-2.460
2.630E-06,-2.460
2.640E-06,-2.460
2.650E-06,-2.440
2.660E-06,-2.420
2.670E-06,-2.340
2.680E-06,-2.280
2.690E-06,-2.180
2.700E-06,-2.120
2.710E-06,-2.000
2.720E-06,-1.840
2.730E-06,-1.720
2.740E-06,-1.660
2.750E-06,-1.560
2.760E-06,-1.480
2.770E-06,-1.420
2.780E-06,-1.380
2.790E-06,-1.400
2.800E-06,-1.420
2.810E-06,-1.420
2.820E-06,-1.480
2.830E-06,-1.460
2.840E-06,-1.460
2.850E-06,-1.480
2.860E-06,-1.500
2.870E-06,-1.480
2.880E-06,-1.480
2.890E-06,-1.460
2.900E-06,-1.480
2.910E-06,-1.480
2.920E-06,-1.480
2.930E-06,-1.480
2.940E-06,-1.440
2.950E-06,-1.420
2.960E-06,-1.380
2.970E-06,-1.340
2.980E-06,-1.260
2.990E-06,-1.240
3.000E-06,-1.240
3.010E-06,-1.180
3.020E-06,-1.180
3.030E-06,-1.180
3.040E-06,-1.120
3.050E-06,-1.160
3.060E-06,-1.080
3.070E-06,-1.120
3.080E-06,-1.120
3.090E-06,-1.140
3.100E-06,-1.160
3.110E-06,-1.160
3.120E-06,-1.200
3.130E-06,-1.200
3.140E-06,-1.240
3.150E-06,-1.280
3.160E-06,-1.260
3.170E-06,-1.260
3.180E-06,-1.320
3.190E-06,-1.300
3.200E-06,-1.300
3.210E-06,-1.280
3.220E-06,-1.280
3.230E-06,-1.260
3.240E-06,-1.260
3.250E-06,-1.200
3.260E-06,-1.180
3.270E-06,-1.160
3.280E-06,-1.120
3.290E-06,-1.100
3.300E-06,-1.080
3.310E-06,-1.080
3.320E-06,-1.040
3.330E-06,-1.000
3.340E-06,-1.000
3.350E-06,-0.940
3.360E-06,-0.940
3.370E-06,-0.880
3.380E-06,-0.880
3.390E-06,-0.840
3.400E-06,-0.800
3.410E-06,-0.780
3.420E-06,-0.760
3.430E-06,-0.740
3.440E-06,-0.700
3.450E-06,-0.660
3.460E-06,-0.660
3.470E-06,-0.640
3.480E-06,-0.660
3.490E-06,-0.640
3.500E-06,-0.660
3.510E-06,-0.640
3.520E-06,-0.680
3.530E-06,-0.660
3.540E-06,-0.660
3.550E-06,-0.680
3.560E-06,-0.680
3.570E-06,-0.680
3.580E-06,-0.680
3.590E-06,-0.680
3.600E-06,-0.740
3.610E-06,-0.700
3.620E-06,-0.760
3.630E-06,-0.800
3.640E-06,-0.800
3.650E-06,-0.860
3.660E-06,-0.880
3.670E-06,-0.900
3.680E-06,-0.920
3.690E-06,-0.920
3.700E-06,-0.900
3.710E-06,-0.900
3.720E-06,-0.900
3.730E-06,-0.900
3.740E-06,-0.840
3.750E-06,-0.860
3.760E-06,-0.860
3.770E-06,-0.840
3.780E-06,-0.860
3.790E-06,-0.860
3.800E-06,-0.880
3.810E-06,-0.860
3.820E-06,-0.840
3.830E-06,-0.820
3.840E-06,-0.780
3.850E-06,-0.700
3.860E-06,-0.660
3.870E-06,-0.620
3.880E-06,-0.600
3.890E-06,-0.580
3.900E-06,-0.540
3.910E-06,-0.580
3.920E-06,-0.580
3.930E-06,-0.580
3.940E-06,-0.640
3.950E-06,-0.660
3.960E-06,-0.700
3.970E-06,-0.740
3.980E-06,-0.720
3.990E-06,-0.660
4.000E-06,-0.660
4.010E-06,-0.620
4.020E-06,-0.600
4.030E-06,-0.520
4.040E-06,-0.480
4.050E-06,-0.440
4.060E-06,-0.440
4.070E-06,-0.420
4.080E-06,-0.380
4.090E-06,-0.320
4.100E-06,-0.280
4.110E-06,-0.200
4.120E-06,-0.160
4.130E-06,-0.120
4.140E-06,-0.080
4.150E-06,-0.080
4.160E-06,-0.080
4.170E-06,-0.020
4.180E-06,0.000
4.190E-06,-0.060
4.200E-06,-0.060
4.210E-06,-0.120
4.220E-06,-0.180
4.230E-06,-0.260
4.240E-06,-0.300
4.250E-06,-0.320
4.260E-06,-0.400
4.270E-06,-0.420
4.280E-06,-0.460
4.290E-06,-0.480
4.300E-06,-0.520
4.310E-06,-0.560
4.320E-06,-0.600
4.330E-06,-0.660
4.340E-06,-0.700
4.350E-06,-0.760
4.360E-06,-0.700
4.370E-06,-0.660
4.380E-06,-0.660
4.390E-06,-0.600
4.400E-06,-0.500
4.410E-06,-0.440
4.420E-06,-0.380
4.430E-06,-0.300
4.440E-06,-0.200
4.450E-06,-0.080
4.460E-06,0.020
4.470E-06,0.100
4.480E-06,0.160
4.490E-06,0.180
4.500E-06,0.160
4.510E-06,0.140
4.520E-06,0.160
4.530E-06,0.160
4.540E-06,0.120
4.550E-06,0.120
4.560E-06,0.080
4.570E-06,0.060
4.580E-06,0.020
4.590E-06,-0.020
4.600E-06,-0.040
4.610E-06,-0.100
4.620E-06,-0.140
4.630E-06,-0.160
4.640E-06,-0.160
4.650E-06,-0.180
4.660E-06,-0.160
4.670E-06,-0.140
4.680E-06,-0.140
4.690E-06,-0.080
4.700E-06,-0.080
4.710E-06,-0.080
4.720E-06,-0.040
4.730E-06,-0.020
4.740E-06,0.000
4.750E-06,0.020
4.760E-06,0.020
4.770E-06,0.040
4.780E-06,0.100
4.790E-06,0.060
4.800E-06,0.060
4.810E-06,0.020
4.820E-06,0.020
4.830E-06,-0.080
4.840E-06,-0.080
4.850E-06,-0.140
4.860E-06,-0.180
4.870E-06,-0.180
4.880E-06,-0.220
4.890E-06,-0.220
4.900E-06,-0.260
4.910E-06,-0.260
4.920E-06,-0.260
4.930E-06,-0.220
4.940E-06,-0.160
4.950E-06,-0.120
4.960E-06,-0.060
4.970E-06,0.000
4.980E-06,0.080
4.990E-06,0.160
5.000E-06,0.240
5.010E-06,0.320
5.020E-06,0.400
5.030E-06,0.500
5.040E-06,0.560
5.050E-06,0.660
5.060E-06,0.700
5.070E-06,0.780
5.080E-06,0.840
5.090E-06,0.880
5.100E-06,0.900
5.110E-06,0.920
5.120E-06,0.940
5.130E-06,0.940
5.140E-06,0.920
5.150E-06,0.900
5.160E-06,0.860
5.170E-06,0.840
5.180E-06,0.860
5.190E-06,0.800
5.200E-06,0.760
5.210E-06,0.720
5.220E-06,0.680
5.230E-06,0.640
5.240E-06,0.580
5.250E-06,0.540
5.260E-06,0.520
5.270E-06,0.500
5.280E-06,0.500
5.290E-06,0.460
5.300E-06,0.460
5.310E-06,0.500
5.320E-06,0.440
5.330E-06,0.460
5.340E-06,0.420
5.350E-06,0.440
5.360E-06,0.380
5.370E-06,0.360
5.380E-06,0.340
5.390E-06,0.300
5.400E-06,0.280
5.410E-06,0.260
5.420E-06,0.220
5.430E-06,0.180
5.440E-06,0.180
5.450E-06,0.160
5.460E-06,0.120
5.470E-06,0.120
5.480E-06,0.100
5.490E-06,0.080
5.500E-06,0.060
5.510E-06,0.040
5.520E-06,0.020
5.530E-06,0.020
5.540E-06,0.000
5.550E-06,0.000
5.560E-06,0.020
5.570E-06,0.020
5.580E-06,-0.020
5.590E-06,0.000
5.600E-06,-0.020
5.610E-06,-0.020
5.620E-06,0.000
5.630E-06,-0.020
5.640E-06,0.000
5.650E-06,0.020
5.660E-06,0.060
5.670E-06,0.100
5.680E-06,0.140
5.690E-06,0.180
5.700E-06,0.160
5.710E-06,0.200
5.720E-06,0.220
5.730E-06,0.220
5.740E-06,0.240
5.750E-06,0.240
5.760E-06,0.220
5.770E-06,0.180
5.780E-06,0.200
5.790E-06,0.180
5.800E-06,0.140
5.810E-06,0.120
5.820E-06,0.120
5.830E-06,0.120
5.840E-06,0.140
5.850E-06,0.160
5.860E-06,0.140
5.870E-06,0.140
5.880E-06,0.080
5.890E-06,0.080
5.900E-06,0.020
5.910E-06,0.000
5.920E-06,-0.020
5.930E-06,-0.040
5.940E-06,-0.060
5.950E-06,-0.020
5.960E-06,-0.040
5.970E-06,-0.020
5.980E-06,0.040
5.990E-06,0.040
6.000E-06,0.120
6.010E-06,0.220
6.020E-06,0.260
6.030E-06,0.340
6.040E-06,0.360
6.050E-06,0.360
6.060E-06,0.400
6.070E-06,0.420
6.080E-06,0.440
6.090E-06,0.480
6.100E-06,0.500
6.110E-06,0.520
6.120E-06,0.560
6.130E-06,0.560
6.140E-06,0.580
6.150E-06,0.620
6.160E-06,0.640
6.170E-06,0.680
6.180E-06,0.720
6.190E-06,0.760
6.200E-06,0.820
6.210E-06,0.840
6.220E-06,0.860
6.230E-06,0.860
6.240E-06,0.840
6.250E-06,0.800
6.260E-06,0.780
6.270E-06,0.700
6.280E-06,0.680
6.290E-06,0.620
6.300E-06,0.600
6.310E-06,0.560
6.320E-06,0.520
6.330E-06,0.500
6.340E-06,0.500
6.350E-06,0.500
6.360E-06,0.540
6.370E-06,0.520
6.380E-06,0.540
6.390E-06,0.580
6.400E-06,0.580
6.410E-06,0.620
6.420E-06,0.660
6.430E-06,0.680
6.440E-06,0.700
6.450E-06,0.700
6.460E-06,0.700
6.470E-06,0.720
6.480E-06,0.740
6.490E-06,0.740
6.500E-06,0.720
6.510E-06,0.740
6.520E-06,0.740
6.530E-06,0.760
6.540E-06,0.760
6.550E-06,0.740
6.560E-06,0.720
6.570E-06,0.740
6.580E-06,0.700
6.590E-06,0.740
6.600E-06,0.760
6.610E-06,0.740
6.620E-06,0.740
6.630E-06,0.740
6.640E-06,0.680
6.650E-06,0.660
6.660E-06,0.620
6.670E-06,0.600
6.680E-06,0.600
6.690E-06,0.560
6.700E-06,0.500
6.710E-06,0.500
6.720E-06,0.440
6.730E-06,0.460
6.740E-06,0.440
6.750E-06,0.420
6.760E-06,0.440
6.770E-06,0.440
6.780E-06,0.460
6.790E-06,0.460
6.800E-06,0.520
6.810E-06,0.520
6.820E-06,0.520
6.830E-06,0.600
6.840E-06,0.640
6.850E-06,0.680
6.860E-06,0.720
6.870E-06,0.820
6.880E-06,0.800
6.890E-06,0.860
6.900E-06,0.880
6.910E-06,0.920
6.920E-06,0.900
6.930E-06,0.920
6.940E-06,0.960
6.950E-06,0.960
6.960E-06,0.980
6.970E-06,1.020
6.980E-06,1.060
6.990E-06,1.080
7.000E-06,1.140
7.010E-06,1.160
7.020E-06,1.160
7.030E-06,1.200
7.040E-06,1.180
7.050E-06,1.160
7.060E-06,1.160
7.070E-06,1.100
7.080E-06,1.060
7.090E-06,0.980
7.100E-06,0.960
7.110E-06,0.920
7.120E-06,0.840
7.130E-06,0.800
7.140E-06,0.800
7.150E-06,0.780
7.160E-06,0.820
7.170E-06,0.840
7.180E-06,0.840
7.190E-06,0.880
7.200E-06,0.940
7.210E-06,0.920
7.220E-06,0.960
7.230E-06,0.980
7.240E-06,1.020
7.250E-06,1.040
7.260E-06,1.000
7.270E-06,1.000
7.280E-06,1.040
7.290E-06,1.080
7.300E-06,1.060
7.310E-06,1.120
7.320E-06,1.160
7.330E-06,1.240
7.340E-06,1.300
7.350E-06,1.420
7.360E-06,1.500
7.370E-06,1.600
7.380E-06,1.700
7.390E-06,1.800
7.400E-06,1.860
7.410E-06,1.920
7.420E-06,1.980
7.430E-06,2.040
7.440E-06,2.080
7.450E-06,2.080
7.460E-06,2.060
7.470E-06,2.100
7.480E-06,2.120
7.490E-06,2.120
7.500E-06,2.140
7.510E-06,2.120
7.520E-06,2.200
7.530E-06,2.200
7.540E-06,2.200
7.550E-06,2.260
7.560E-06,2.300
7.570E-06,2.340
7.580E-06,2.440
7.590E-06,2.540
7.600E-06,2.620
7.610E-06,2.740
7.620E-06,2.760
7.630E-06,2.780
7.640E-06,2.760
7.650E-06,2.760
7.660E-06,2.740
7.670E-06,2.760
7.680E-06,2.780
7.690E-06,2.760
7.700E-06,2.780
7.710E-06,2.760
7.720E-06,2.740
7.730E-06,2.760
7.740E-06,2.780
7.750E-06,2.780
7.760E-06,2.760
7.770E-06,2.780
7.780E-06,2.760
7.790E-06,2.780
7.800E-06,2.760
7.810E-06,2.780
7.820E-06,2.760
7.830E-06,2.740
7.840E-06,2.760
7.850E-06,2.760
7.860E-06,2.780
7.870E-06,2.760
7.880E-06,2.760
7.890E-06,2.740
7.900E-06,2.760
7.910E-06,2.780
7.920E-06,2.760
7.930E-06,2.760
7.940E-06,2.740
7.950E-06,2.760
7.960E-06,2.780
7.970E-06,2.780
7.980E-06,2.760
7.990E-06,2.760
8.000E-06,2.760
8.010E-06,2.760
8.020E-06,2.780
8.030E-06,2.780
8.040E-06,2.760
8.050E-06,2.780
8.060E-06,2.760
8.070E-06,2.780
8.080E-06,2.760
8.090E-06,2.740
8.100E-06,2.760
8.110E-06,2.780
8.120E-06,2.760
8.130E-06,2.720
8.140E-06,2.680
8.150E-06,2.640
8.160E-06,2.600
8.170E-06,2.520
8.180E-06,2.440
8.190E-06,2.420
8.200E-06,2.340
8.210E-06,2.320
8.220E-06,2.260
8.230E-06,2.200
8.240E-06,2.200
8.250E-06,2.160
8.260E-06,2.120
8.270E-06,2.080
8.280E-06,2.060
8.290E-06,2.020
8.300E-06,2.000
8.310E-06,1.920
8.320E-06,1.900
8.330E-06,1.900
8.340E-06,1.840
8.350E-06,1.800
8.360E-06,1.800
8.370E-06,1.780
8.380E-06,1.720
8.390E-06,1.700
8.400E-06,1.700
8.410E-06,1.640
8.420E-06,1.620
8.430E-06,1.600
8.440E-06,1.560
8.450E-06,1.520
8.460E-06,1.480
8.470E-06,1.460
8.480E-06,1.400
8.490E-06,1.400
8.500E-06,1.340
8.510E-06,1.260
8.520E-06,1.220
8.530E-06,1.200
8.540E-06,1.160
8.550E-06,1.140
8.560E-06,1.080
8.570E-06,1.020
8.580E-06,1.000
8.590E-06,1.020
8.600E-06,1.000
8.610E-06,1.020
8.620E-06,1.020
8.630E-06,1.040
8.640E-06,1.040
8.650E-06,1.040
8.660E-06,1.080
8.670E-06,1.040
8.680E-06,1.020
8.690E-06,1.040
8.700E-06,1.060
8.710E-06,1.040
8.720E-06,1.060
8.730E-06,1.100
8.740E-06,1.120
8.750E-06,1.080
8.760E-06,1.080
8.770E-06,1.080
8.780E-06,1.100
8.790E-06,1.060
8.800E-06,1.080
8.810E-06,1.080
8.820E-06,1.040
8.830E-06,1.060
8.840E-06,1.100
8.850E-06,1.060
8.860E-06,1.080
8.870E-06,1.040
8.880E-06,1.020
8.890E-06,1.020
8.900E-06,1.020
8.910E-06,1.020
8.920E-06,0.980
8.930E-06,0.980
8.940E-06,0.980
8.950E-06,0.960
8.960E-06,0.920
8.970E-06,0.940
8.980E-06,0.920
8.990E-06,0.920
9.000E-06,0.940
9.010E-06,0.960
9.020E-06,0.940
9.030E-06,0.940
9.040E-06,0.940
9.050E-06,0.980
9.060E-06,0.960
9.070E-06,0.960
9.080E-06,0.920
9.090E-06,0.920
9.100E-06,0.880
9.110E-06,0.840
9.120E-06,0.800
9.130E-06,0.780
9.140E-06,0.740
9.150E-06,0.720
9.160E-06,0.700
9.170E-06,0.660
9.180E-06,0.660
9.190E-06,0.620
9.200E-06,0.600
9.210E-06,0.620
9.220E-06,0.560
9.230E-06,0.540
9.240E-06,0.560
9.250E-06,0.560
9.260E-06,0.580
9.270E-06,0.540
9.280E-06,0.580
9.290E-06,0.580
9.300E-06,0.540
9.310E-06,0.580
9.320E-06,0.560
9.330E-06,0.580
9.340E-06,0.580
9.350E-06,0.600
9.360E-06,0.580
9.370E-06,0.580
9.380E-06,0.560
9.390E-06,0.580
9.400E-06,0.560
9.410E-06,0.560
9.420E-06,0.560
9.430E-06,0.520
9.440E-06,0.520
9.450E-06,0.520
9.460E-06,0.520
9.470E-06,0.520
9.480E-06,0.520
9.490E-06,0.540
9.500E-06,0.560
9.510E-06,0.540
9.520E-06,0.560
9.530E-06,0.560
9.540E-06,0.540
9.550E-06,0.560
9.560E-06,0.560
9.570E-06,0.560
9.580E-06,0.540
9.590E-06,0.540
9.600E-06,0.560
9.610E-06,0.560
9.620E-06,0.520
9.630E-06,0.520
9.640E-06,0.500
9.650E-06,0.520
9.660E-06,0.520
9.670E-06,0.500
9.680E-06,0.520
9.690E-06,0.500
9.700E-06,0.500
9.710E-06,0.480
9.720E-06,0.520
9.730E-06,0.520
9.740E-06,0.500
