mediciones/Mediciones filtradas (saque las feas)/6-3/-5/WaveData53105.csv

#timebase=2000000(ps)
,#voltbase=500000(mv/100)
#size=4000
-2.300E-06,0.020
-2.290E-06,0.160
-2.280E-06,0.180
-2.270E-06,0.260
-2.260E-06,0.360
-2.250E-06,0.360
-2.240E-06,0.340
-2.230E-06,0.440
-2.220E-06,0.520
-2.210E-06,0.540
-2.200E-06,0.520
-2.190E-06,0.640
-2.180E-06,0.660
-2.170E-06,0.500
-2.160E-06,0.500
-2.150E-06,0.520
-2.140E-06,0.580
-2.130E-06,0.500
-2.120E-06,0.620
-2.110E-06,0.480
-2.100E-06,0.380
-2.090E-06,0.440
-2.080E-06,0.340
-2.070E-06,0.480
-2.060E-06,0.320
-2.050E-06,0.220
-2.040E-06,0.060
-2.030E-06,0.000
-2.020E-06,0.080
-2.010E-06,0.220
-2.000E-06,0.180
-1.990E-06,0.180
-1.980E-06,0.000
-1.970E-06,-0.060
-1.960E-06,-0.140
-1.950E-06,-0.180
-1.940E-06,-0.100
-1.930E-06,-0.100
-1.920E-06,-0.020
-1.910E-06,-0.060
-1.900E-06,-0.060
-1.890E-06,-0.080
-1.880E-06,-0.080
-1.870E-06,0.000
-1.860E-06,0.060
-1.850E-06,0.080
-1.840E-06,0.100
-1.830E-06,0.100
-1.820E-06,0.120
-1.810E-06,0.100
-1.800E-06,0.180
-1.790E-06,0.120
-1.780E-06,0.080
-1.770E-06,-0.040
-1.760E-06,0.020
-1.750E-06,-0.040
-1.740E-06,0.020
-1.730E-06,0.220
-1.720E-06,0.260
-1.710E-06,0.260
-1.700E-06,0.080
-1.690E-06,0.200
-1.680E-06,0.160
-1.670E-06,0.320
-1.660E-06,0.460
-1.650E-06,0.580
-1.640E-06,0.580
-1.630E-06,0.520
-1.620E-06,0.520
-1.610E-06,0.440
-1.600E-06,0.480
-1.590E-06,0.360
-1.580E-06,0.440
-1.570E-06,0.240
-1.560E-06,0.140
-1.550E-06,0.240
-1.540E-06,0.340
-1.530E-06,0.500
-1.520E-06,0.500
-1.510E-06,0.420
-1.500E-06,0.360
-1.490E-06,0.260
-1.480E-06,0.320
-1.470E-06,0.560
-1.460E-06,0.660
-1.450E-06,0.620
-1.440E-06,0.500
-1.430E-06,0.460
-1.420E-06,0.440
-1.410E-06,0.500
-1.400E-06,0.660
-1.390E-06,0.720
-1.380E-06,0.540
-1.370E-06,0.360
-1.360E-06,0.240
-1.350E-06,0.200
-1.340E-06,0.300
-1.330E-06,0.440
-1.320E-06,0.540
-1.310E-06,0.420
-1.300E-06,0.320
-1.290E-06,0.240
-1.280E-06,0.220
-1.270E-06,0.260
-1.260E-06,0.340
-1.250E-06,0.360
-1.240E-06,0.320
-1.230E-06,0.300
-1.220E-06,0.260
-1.210E-06,0.240
-1.200E-06,0.180
-1.190E-06,0.180
-1.180E-06,0.180
-1.170E-06,0.200
-1.160E-06,0.280
-1.150E-06,0.340
-1.140E-06,0.300
-1.130E-06,0.340
-1.120E-06,0.340
-1.110E-06,0.440
-1.100E-06,0.380
-1.090E-06,0.480
-1.080E-06,0.440
-1.070E-06,0.460
-1.060E-06,0.420
-1.050E-06,0.440
-1.040E-06,0.280
-1.030E-06,0.220
-1.020E-06,0.160
-1.010E-06,-0.280
-1.000E-06,-0.180
-9.900E-07,-0.240
-9.800E-07,-0.260
-9.700E-07,0.320
-9.600E-07,0.500
-9.500E-07,0.680
-9.400E-07,0.460
-9.300E-07,0.180
-9.200E-07,0.120
-9.100E-07,0.340
-9.000E-07,0.840
-8.900E-07,1.020
-8.800E-07,0.980
-8.700E-07,0.780
-8.600E-07,0.540
-8.500E-07,0.660
-8.400E-07,0.680
-8.300E-07,0.920
-8.200E-07,1.020
-8.100E-07,1.060
-8.000E-07,1.000
-7.900E-07,0.980
-7.800E-07,0.900
-7.700E-07,0.980
-7.600E-07,1.060
-7.500E-07,1.180
-7.400E-07,1.160
-7.300E-07,1.020
-7.200E-07,0.940
-7.100E-07,0.860
-7.000E-07,0.900
-6.900E-07,0.800
-6.800E-07,0.880
-6.700E-07,0.840
-6.600E-07,0.800
-6.500E-07,0.780
-6.400E-07,0.700
-6.300E-07,0.640
-6.200E-07,0.460
-6.100E-07,0.420
-6.000E-07,0.340
-5.900E-07,0.300
-5.800E-07,0.200
-5.700E-07,0.160
-5.600E-07,0.020
-5.500E-07,-0.180
-5.400E-07,-0.240
-5.300E-07,-0.280
-5.200E-07,-0.220
-5.100E-07,-0.160
-5.000E-07,-0.080
-4.900E-07,-0.100
-4.800E-07,-0.180
-4.700E-07,-0.340
-4.600E-07,-0.340
-4.500E-07,-0.380
-4.400E-07,-0.260
-4.300E-07,-0.180
-4.200E-07,-0.320
-4.100E-07,-0.200
-4.000E-07,-0.160
-3.900E-07,-0.080
-3.800E-07,0.000
-3.700E-07,0.000
-3.600E-07,0.140
-3.500E-07,0.200
-3.400E-07,0.300
-3.300E-07,0.340
-3.200E-07,0.360
-3.100E-07,0.300
-3.000E-07,0.260
-2.900E-07,0.260
-2.800E-07,0.320
-2.700E-07,0.300
-2.600E-07,0.280
-2.500E-07,0.220
-2.400E-07,0.140
-2.300E-07,0.100
-2.200E-07,0.060
-2.100E-07,0.140
-2.000E-07,0.240
-1.900E-07,0.240
-1.800E-07,0.240
-1.700E-07,0.260
-1.600E-07,0.140
-1.500E-07,0.160
-1.400E-07,0.240
-1.300E-07,-0.120
-1.200E-07,-0.120
-1.100E-07,-0.320
-1.000E-07,-0.380
-9.000E-08,-0.300
-8.000E-08,-0.040
-7.000E-08,0.180
-6.000E-08,0.200
-5.000E-08,0.160
-4.000E-08,0.160
-3.000E-08,0.000
-2.000E-08,-0.740
-1.000E-08,-0.240
0.000E+00,-0.600
1.000E-08,0.160
2.000E-08,0.440
3.000E-08,0.580
4.000E-08,0.260
5.000E-08,-0.220
6.000E-08,-1.200
7.000E-08,-0.760
8.000E-08,-0.320
9.000E-08,0.760
1.000E-07,1.400
1.100E-07,1.480
1.200E-07,1.140
1.300E-07,0.540
1.400E-07,0.480
1.500E-07,0.480
1.600E-07,1.420
1.700E-07,1.620
1.800E-07,1.900
1.900E-07,1.780
2.000E-07,1.440
2.100E-07,1.180
2.200E-07,1.500
2.300E-07,1.740
2.400E-07,2.040
2.500E-07,2.000
2.600E-07,1.760
2.700E-07,1.520
2.800E-07,1.380
2.900E-07,0.780
3.000E-07,0.720
3.100E-07,0.340
3.200E-07,0.220
3.300E-07,-0.420
3.400E-07,-0.120
3.500E-07,-0.360
3.600E-07,-0.620
3.700E-07,-0.560
3.800E-07,-0.780
3.900E-07,-0.480
4.000E-07,-1.020
4.100E-07,-0.860
4.200E-07,-0.880
4.300E-07,-0.860
4.400E-07,-1.060
4.500E-07,-1.060
4.600E-07,-1.140
4.700E-07,-1.000
4.800E-07,-1.240
4.900E-07,-1.000
5.000E-07,-0.900
5.100E-07,-1.100
5.200E-07,-0.680
5.300E-07,-0.920
5.400E-07,-0.500
5.500E-07,-0.520
5.600E-07,-0.440
5.700E-07,-0.260
5.800E-07,-0.340
5.900E-07,-0.160
6.000E-07,-0.060
6.100E-07,0.020
6.200E-07,0.060
6.300E-07,0.080
6.400E-07,0.220
6.500E-07,0.160
6.600E-07,0.180
6.700E-07,0.160
6.800E-07,0.100
6.900E-07,0.160
7.000E-07,0.120
7.100E-07,0.120
7.200E-07,0.000
7.300E-07,-0.060
7.400E-07,-0.180
7.500E-07,-0.320
7.600E-07,-0.460
7.700E-07,-0.700
7.800E-07,-0.500
7.900E-07,-1.100
8.000E-07,-1.100
8.100E-07,-0.860
8.200E-07,-0.560
8.300E-07,-0.520
8.400E-07,-0.520
8.500E-07,-1.460
8.600E-07,-2.240
8.700E-07,-2.660
8.800E-07,-2.660
8.900E-07,-2.000
9.000E-07,-2.000
9.100E-07,-2.020
9.200E-07,-1.480
9.300E-07,-1.660
9.400E-07,-0.980
9.500E-07,-1.140
9.600E-07,-1.000
9.700E-07,-1.040
9.800E-07,-1.520
9.900E-07,-0.920
1.000E-06,-0.440
1.010E-06,-0.040
1.020E-06,0.160
1.030E-06,0.000
1.040E-06,0.160
1.050E-06,-0.140
1.060E-06,0.160
1.070E-06,0.660
1.080E-06,1.160
1.090E-06,1.240
1.100E-06,1.240
1.110E-06,1.300
1.120E-06,1.300
1.130E-06,1.180
1.140E-06,0.880
1.150E-06,0.700
1.160E-06,0.160
1.170E-06,-0.080
1.180E-06,-0.200
1.190E-06,-0.160
1.200E-06,-0.340
1.210E-06,-0.640
1.220E-06,-0.780
1.230E-06,-0.800
1.240E-06,-0.840
1.250E-06,-0.840
1.260E-06,-0.960
1.270E-06,-1.180
1.280E-06,-1.380
1.290E-06,-1.360
1.300E-06,-1.260
1.310E-06,-1.360
1.320E-06,-1.500
1.330E-06,-1.580
1.340E-06,-1.460
1.350E-06,-1.260
1.360E-06,-1.120
1.370E-06,-1.020
1.380E-06,-1.040
1.390E-06,-1.000
1.400E-06,-0.940
1.410E-06,-0.960
1.420E-06,-1.140
1.430E-06,-1.380
1.440E-06,-1.580
1.450E-06,-1.720
1.460E-06,-1.700
1.470E-06,-1.800
1.480E-06,-1.800
1.490E-06,-2.120
1.500E-06,-2.220
1.510E-06,-2.520
1.520E-06,-2.680
1.530E-06,-2.680
1.540E-06,-2.680
1.550E-06,-2.540
1.560E-06,-2.620
1.570E-06,-2.480
1.580E-06,-2.660
1.590E-06,-2.520
1.600E-06,-2.420
1.610E-06,-2.000
1.620E-06,-1.780
1.630E-06,-1.560
1.640E-06,-1.580
1.650E-06,-1.520
1.660E-06,-1.520
1.670E-06,-1.300
1.680E-06,-1.180
1.690E-06,-1.200
1.700E-06,-1.260
1.710E-06,-1.440
1.720E-06,-1.480
1.730E-06,-1.600
1.740E-06,-1.580
1.750E-06,-1.760
1.760E-06,-1.940
1.770E-06,-2.460
1.780E-06,-2.660
1.790E-06,-2.660
1.800E-06,-2.660
1.810E-06,-2.660
1.820E-06,-2.660
1.830E-06,-2.660
1.840E-06,-2.660
1.850E-06,-2.660
1.860E-06,-2.660
1.870E-06,-2.660
1.880E-06,-2.680
1.890E-06,-2.660
1.900E-06,-2.660
1.910E-06,-2.640
1.920E-06,-2.640
1.930E-06,-2.640
1.940E-06,-2.660
1.950E-06,-2.660
1.960E-06,-2.660
1.970E-06,-2.660
1.980E-06,-2.660
1.990E-06,-2.660
2.000E-06,-2.660
2.010E-06,-2.660
2.020E-06,-2.660
2.030E-06,-2.660
2.040E-06,-2.660
2.050E-06,-2.680
2.060E-06,-2.660
2.070E-06,-2.660
2.080E-06,-2.660
2.090E-06,-2.660
2.100E-06,-2.680
2.110E-06,-2.680
2.120E-06,-2.660
2.130E-06,-2.660
2.140E-06,-2.640
2.150E-06,-2.640
2.160E-06,-2.660
2.170E-06,-2.660
2.180E-06,-2.660
2.190E-06,-2.660
2.200E-06,-2.660
2.210E-06,-2.660
2.220E-06,-2.660
2.230E-06,-2.660
2.240E-06,-2.660
2.250E-06,-2.660
2.260E-06,-2.660
2.270E-06,-2.660
2.280E-06,-2.660
2.290E-06,-2.660
2.300E-06,-2.660
2.310E-06,-2.660
2.320E-06,-2.660
2.330E-06,-2.660
2.340E-06,-2.660
2.350E-06,-2.660
2.360E-06,-2.660
2.370E-06,-2.660
2.380E-06,-2.660
2.390E-06,-2.660
2.400E-06,-2.660
2.410E-06,-2.660
2.420E-06,-2.660
2.430E-06,-2.640
2.440E-06,-2.640
2.450E-06,-2.660
2.460E-06,-2.660
2.470E-06,-2.660
2.480E-06,-2.660
2.490E-06,-2.660
2.500E-06,-2.660
2.510E-06,-2.660
2.520E-06,-2.640
2.530E-06,-2.660
2.540E-06,-2.660
2.550E-06,-2.680
2.560E-06,-2.660
2.570E-06,-2.660
2.580E-06,-2.660
2.590E-06,-2.680
2.600E-06,-2.660
2.610E-06,-2.660
2.620E-06,-2.660
2.630E-06,-2.620
2.640E-06,-2.540
2.650E-06,-2.500
2.660E-06,-2.460
2.670E-06,-2.360
2.680E-06,-2.300
2.690E-06,-2.240
2.700E-06,-2.140
2.710E-06,-2.060
2.720E-06,-1.920
2.730E-06,-1.780
2.740E-06,-1.640
2.750E-06,-1.500
2.760E-06,-1.360
2.770E-06,-1.260
2.780E-06,-1.100
2.790E-06,-1.000
2.800E-06,-0.880
2.810E-06,-0.800
2.820E-06,-0.660
2.830E-06,-0.640
2.840E-06,-0.620
2.850E-06,-0.640
2.860E-06,-0.780
2.870E-06,-0.900
2.880E-06,-1.100
2.890E-06,-1.200
2.900E-06,-1.300
2.910E-06,-1.400
2.920E-06,-1.480
2.930E-06,-1.560
2.940E-06,-1.600
2.950E-06,-1.680
2.960E-06,-1.700
2.970E-06,-1.700
2.980E-06,-1.680
2.990E-06,-1.640
3.000E-06,-1.540
3.010E-06,-1.460
3.020E-06,-1.400
3.030E-06,-1.360
3.040E-06,-1.360
3.050E-06,-1.360
3.060E-06,-1.380
3.070E-06,-1.440
3.080E-06,-1.500
3.090E-06,-1.560
3.100E-06,-1.600
3.110E-06,-1.580
3.120E-06,-1.600
3.130E-06,-1.600
3.140E-06,-1.600
3.150E-06,-1.600
3.160E-06,-1.660
3.170E-06,-1.720
3.180E-06,-1.740
3.190E-06,-1.780
3.200E-06,-1.780
3.210E-06,-1.740
3.220E-06,-1.720
3.230E-06,-1.660
3.240E-06,-1.620
3.250E-06,-1.560
3.260E-06,-1.520
3.270E-06,-1.480
3.280E-06,-1.360
3.290E-06,-1.260
3.300E-06,-1.200
3.310E-06,-1.140
3.320E-06,-1.120
3.330E-06,-1.080
3.340E-06,-1.080
3.350E-06,-1.020
3.360E-06,-0.940
3.370E-06,-0.840
3.380E-06,-0.800
3.390E-06,-0.760
3.400E-06,-0.720
3.410E-06,-0.760
3.420E-06,-0.780
3.430E-06,-0.860
3.440E-06,-0.940
3.450E-06,-0.960
3.460E-06,-1.020
3.470E-06,-1.080
3.480E-06,-1.160
3.490E-06,-1.200
3.500E-06,-1.220
3.510E-06,-1.280
3.520E-06,-1.320
3.530E-06,-1.320
3.540E-06,-1.340
3.550E-06,-1.320
3.560E-06,-1.300
3.570E-06,-1.280
3.580E-06,-1.240
3.590E-06,-1.240
3.600E-06,-1.160
3.610E-06,-1.120
3.620E-06,-1.060
3.630E-06,-1.000
3.640E-06,-0.960
3.650E-06,-0.920
3.660E-06,-0.880
3.670E-06,-0.840
3.680E-06,-0.840
3.690E-06,-0.780
3.700E-06,-0.740
3.710E-06,-0.680
3.720E-06,-0.680
3.730E-06,-0.640
3.740E-06,-0.560
3.750E-06,-0.520
3.760E-06,-0.460
3.770E-06,-0.400
3.780E-06,-0.340
3.790E-06,-0.320
3.800E-06,-0.220
3.810E-06,-0.140
3.820E-06,-0.080
3.830E-06,0.000
3.840E-06,0.060
3.850E-06,0.020
3.860E-06,0.040
3.870E-06,0.020
3.880E-06,0.000
3.890E-06,-0.020
3.900E-06,-0.100
3.910E-06,-0.120
3.920E-06,-0.220
3.930E-06,-0.320
3.940E-06,-0.380
3.950E-06,-0.480
3.960E-06,-0.600
3.970E-06,-0.660
3.980E-06,-0.720
3.990E-06,-0.800
4.000E-06,-0.860
4.010E-06,-0.880
4.020E-06,-0.860
4.030E-06,-0.920
4.040E-06,-0.900
4.050E-06,-0.920
4.060E-06,-0.940
4.070E-06,-0.940
4.080E-06,-0.920
4.090E-06,-0.880
4.100E-06,-0.860
4.110E-06,-0.780
4.120E-06,-0.680
4.130E-06,-0.600
4.140E-06,-0.480
4.150E-06,-0.340
4.160E-06,-0.220
4.170E-06,-0.080
4.180E-06,0.020
4.190E-06,0.060
4.200E-06,0.140
4.210E-06,0.200
4.220E-06,0.260
4.230E-06,0.320
4.240E-06,0.360
4.250E-06,0.320
4.260E-06,0.320
4.270E-06,0.280
4.280E-06,0.240
4.290E-06,0.160
4.300E-06,0.060
4.310E-06,0.000
4.320E-06,-0.080
4.330E-06,-0.180
4.340E-06,-0.240
4.350E-06,-0.340
4.360E-06,-0.380
4.370E-06,-0.420
4.380E-06,-0.440
4.390E-06,-0.440
4.400E-06,-0.460
4.410E-06,-0.440
4.420E-06,-0.400
4.430E-06,-0.400
4.440E-06,-0.420
4.450E-06,-0.440
4.460E-06,-0.500
4.470E-06,-0.580
4.480E-06,-0.640
4.490E-06,-0.780
4.500E-06,-0.900
4.510E-06,-1.000
4.520E-06,-1.160
4.530E-06,-1.300
4.540E-06,-1.400
4.550E-06,-1.540
4.560E-06,-1.660
4.570E-06,-1.700
4.580E-06,-1.780
4.590E-06,-1.700
4.600E-06,-1.640
4.610E-06,-1.460
4.620E-06,-1.280
4.630E-06,-1.020
4.640E-06,-0.840
4.650E-06,-0.640
4.660E-06,-0.460
4.670E-06,-0.360
4.680E-06,-0.320
4.690E-06,-0.320
4.700E-06,-0.360
4.710E-06,-0.400
4.720E-06,-0.500
4.730E-06,-0.560
4.740E-06,-0.540
4.750E-06,-0.460
4.760E-06,-0.320
4.770E-06,-0.220
4.780E-06,-0.060
4.790E-06,0.160
4.800E-06,0.420
4.810E-06,0.640
4.820E-06,0.860
4.830E-06,1.080
4.840E-06,1.240
4.850E-06,1.340
4.860E-06,1.420
4.870E-06,1.440
4.880E-06,1.420
4.890E-06,1.340
4.900E-06,1.300
4.910E-06,1.180
4.920E-06,1.040
4.930E-06,0.920
4.940E-06,0.760
4.950E-06,0.600
4.960E-06,0.440
4.970E-06,0.340
4.980E-06,0.300
4.990E-06,0.340
5.000E-06,0.380
5.010E-06,0.440
5.020E-06,0.540
5.030E-06,0.720
5.040E-06,0.800
5.050E-06,0.940
5.060E-06,1.040
5.070E-06,1.120
5.080E-06,1.200
5.090E-06,1.260
5.100E-06,1.260
5.110E-06,1.220
5.120E-06,1.180
5.130E-06,1.100
5.140E-06,1.040
5.150E-06,0.900
5.160E-06,0.800
5.170E-06,0.720
5.180E-06,0.640
5.190E-06,0.600
5.200E-06,0.540
5.210E-06,0.560
5.220E-06,0.560
5.230E-06,0.580
5.240E-06,0.680
5.250E-06,0.680
5.260E-06,0.760
5.270E-06,0.780
5.280E-06,0.800
5.290E-06,0.860
5.300E-06,1.000
5.310E-06,1.140
5.320E-06,1.280
5.330E-06,1.380
5.340E-06,1.440
5.350E-06,1.460
5.360E-06,1.500
5.370E-06,1.440
5.380E-06,1.380
5.390E-06,1.320
5.400E-06,1.180
5.410E-06,1.120
5.420E-06,0.960
5.430E-06,0.840
5.440E-06,0.700
5.450E-06,0.620
5.460E-06,0.580
5.470E-06,0.620
5.480E-06,0.700
5.490E-06,0.800
5.500E-06,0.900
5.510E-06,1.020
5.520E-06,1.140
5.530E-06,1.240
5.540E-06,1.380
5.550E-06,1.400
5.560E-06,1.480
5.570E-06,1.540
5.580E-06,1.580
5.590E-06,1.620
5.600E-06,1.640
5.610E-06,1.680
5.620E-06,1.740
5.630E-06,1.780
5.640E-06,1.720
5.650E-06,1.720
5.660E-06,1.700
5.670E-06,1.660
5.680E-06,1.520
5.690E-06,1.440
5.700E-06,1.360
5.710E-06,1.240
5.720E-06,1.140
5.730E-06,1.040
5.740E-06,1.020
5.750E-06,0.980
5.760E-06,0.940
5.770E-06,0.880
5.780E-06,0.840
5.790E-06,0.760
5.800E-06,0.700
5.810E-06,0.660
5.820E-06,0.580
5.830E-06,0.540
5.840E-06,0.500
5.850E-06,0.440
5.860E-06,0.440
5.870E-06,0.420
5.880E-06,0.400
5.890E-06,0.440
5.900E-06,0.460
5.910E-06,0.540
5.920E-06,0.600
5.930E-06,0.680
5.940E-06,0.780
5.950E-06,0.800
5.960E-06,0.780
5.970E-06,0.800
5.980E-06,0.800
5.990E-06,0.780
6.000E-06,0.720
6.010E-06,0.680
6.020E-06,0.600
6.030E-06,0.500
6.040E-06,0.400
6.050E-06,0.320
6.060E-06,0.280
6.070E-06,0.260
6.080E-06,0.300
6.090E-06,0.400
6.100E-06,0.460
6.110E-06,0.540
6.120E-06,0.600
6.130E-06,0.660
6.140E-06,0.680
6.150E-06,0.660
6.160E-06,0.660
6.170E-06,0.620
6.180E-06,0.600
6.190E-06,0.540
6.200E-06,0.500
6.210E-06,0.500
6.220E-06,0.520
6.230E-06,0.520
6.240E-06,0.500
6.250E-06,0.500
6.260E-06,0.520
6.270E-06,0.500
6.280E-06,0.520
6.290E-06,0.520
6.300E-06,0.480
6.310E-06,0.500
6.320E-06,0.500
6.330E-06,0.500
6.340E-06,0.560
6.350E-06,0.580
6.360E-06,0.660
6.370E-06,0.740
6.380E-06,0.840
6.390E-06,0.900
6.400E-06,1.000
6.410E-06,1.100
6.420E-06,1.160
6.430E-06,1.220
6.440E-06,1.240
6.450E-06,1.280
6.460E-06,1.280
6.470E-06,1.300
6.480E-06,1.260
6.490E-06,1.280
6.500E-06,1.280
6.510E-06,1.200
6.520E-06,1.200
6.530E-06,1.200
6.540E-06,1.160
6.550E-06,1.180
6.560E-06,1.160
6.570E-06,1.180
6.580E-06,1.180
6.590E-06,1.180
6.600E-06,1.180
6.610E-06,1.180
6.620E-06,1.220
6.630E-06,1.200
6.640E-06,1.220
6.650E-06,1.240
6.660E-06,1.280
6.670E-06,1.340
6.680E-06,1.420
6.690E-06,1.480
6.700E-06,1.520
6.710E-06,1.520
6.720E-06,1.560
6.730E-06,1.540
6.740E-06,1.520
6.750E-06,1.540
6.760E-06,1.560
6.770E-06,1.580
6.780E-06,1.620
6.790E-06,1.680
6.800E-06,1.720
6.810E-06,1.780
6.820E-06,1.840
6.830E-06,1.960
6.840E-06,2.040
6.850E-06,2.160
6.860E-06,2.320
6.870E-06,2.460
6.880E-06,2.620
6.890E-06,2.760
6.900E-06,2.740
6.910E-06,2.760
6.920E-06,2.760
6.930E-06,2.740
6.940E-06,2.760
6.950E-06,2.760
6.960E-06,2.740
6.970E-06,2.760
6.980E-06,2.760
6.990E-06,2.780
7.000E-06,2.780
7.010E-06,2.760
7.020E-06,2.760
7.030E-06,2.780
7.040E-06,2.780
7.050E-06,2.760
7.060E-06,2.760
7.070E-06,2.760
7.080E-06,2.780
7.090E-06,2.760
7.100E-06,2.740
7.110E-06,2.760
7.120E-06,2.760
7.130E-06,2.760
7.140E-06,2.760
7.150E-06,2.760
7.160E-06,2.760
7.170E-06,2.760
7.180E-06,2.740
7.190E-06,2.760
7.200E-06,2.780
7.210E-06,2.760
7.220E-06,2.760
7.230E-06,2.740
7.240E-06,2.760
7.250E-06,2.780
7.260E-06,2.760
7.270E-06,2.780
7.280E-06,2.760
7.290E-06,2.780
7.300E-06,2.760
7.310E-06,2.760
7.320E-06,2.740
7.330E-06,2.760
7.340E-06,2.780
7.350E-06,2.760
7.360E-06,2.780
7.370E-06,2.760
7.380E-06,2.780
7.390E-06,2.760
7.400E-06,2.760
7.410E-06,2.760
7.420E-06,2.760
7.430E-06,2.740
7.440E-06,2.760
7.450E-06,2.780
7.460E-06,2.760
7.470E-06,2.780
7.480E-06,2.760
7.490E-06,2.760
7.500E-06,2.760
7.510E-06,2.780
7.520E-06,2.780
7.530E-06,2.760
7.540E-06,2.760
7.550E-06,2.760
7.560E-06,2.760
7.570E-06,2.780
7.580E-06,2.720
7.590E-06,2.640
7.600E-06,2.560
7.610E-06,2.480
7.620E-06,2.420
7.630E-06,2.380
7.640E-06,2.320
7.650E-06,2.260
7.660E-06,2.220
7.670E-06,2.180
7.680E-06,2.180
7.690E-06,2.140
7.700E-06,2.120
7.710E-06,2.120
7.720E-06,2.060
7.730E-06,2.020
7.740E-06,2.000
7.750E-06,1.940
7.760E-06,1.920
7.770E-06,1.880
7.780E-06,1.820
7.790E-06,1.740
7.800E-06,1.760
7.810E-06,1.740
7.820E-06,1.700
7.830E-06,1.700
7.840E-06,1.700
7.850E-06,1.700
7.860E-06,1.680
7.870E-06,1.680
7.880E-06,1.640
7.890E-06,1.620
7.900E-06,1.600
7.910E-06,1.580
7.920E-06,1.580
7.930E-06,1.560
7.940E-06,1.520
7.950E-06,1.500
7.960E-06,1.500
7.970E-06,1.460
7.980E-06,1.440
7.990E-06,1.460
8.000E-06,1.440
8.010E-06,1.400
8.020E-06,1.420
8.030E-06,1.440
8.040E-06,1.420
8.050E-06,1.420
8.060E-06,1.420
8.070E-06,1.380
8.080E-06,1.340
8.090E-06,1.360
8.100E-06,1.340
8.110E-06,1.320
8.120E-06,1.300
8.130E-06,1.280
8.140E-06,1.240
8.150E-06,1.240
8.160E-06,1.240
8.170E-06,1.220
8.180E-06,1.240
8.190E-06,1.220
8.200E-06,1.240
8.210E-06,1.200
8.220E-06,1.200
8.230E-06,1.200
8.240E-06,1.180
8.250E-06,1.160
8.260E-06,1.160
8.270E-06,1.100
8.280E-06,1.100
8.290E-06,1.060
8.300E-06,1.080
8.310E-06,1.080
8.320E-06,1.020
8.330E-06,1.020
8.340E-06,1.020
8.350E-06,0.980
8.360E-06,0.940
8.370E-06,0.960
8.380E-06,0.940
8.390E-06,0.920
8.400E-06,0.880
8.410E-06,0.840
8.420E-06,0.820
8.430E-06,0.800
8.440E-06,0.800
8.450E-06,0.760
8.460E-06,0.780
8.470E-06,0.740
8.480E-06,0.720
8.490E-06,0.720
8.500E-06,0.700
8.510E-06,0.680
8.520E-06,0.680
8.530E-06,0.660
8.540E-06,0.640
8.550E-06,0.620
8.560E-06,0.580
8.570E-06,0.580
8.580E-06,0.560
8.590E-06,0.560
8.600E-06,0.520
8.610E-06,0.500
8.620E-06,0.500
8.630E-06,0.460
8.640E-06,0.440
8.650E-06,0.400
8.660E-06,0.420
8.670E-06,0.420
8.680E-06,0.400
8.690E-06,0.400
8.700E-06,0.420
8.710E-06,0.400
8.720E-06,0.400
8.730E-06,0.400
8.740E-06,0.380
8.750E-06,0.400
8.760E-06,0.380
8.770E-06,0.320
8.780E-06,0.360
8.790E-06,0.340
8.800E-06,0.340
8.810E-06,0.340
8.820E-06,0.320
8.830E-06,0.320
8.840E-06,0.320
8.850E-06,0.300
8.860E-06,0.320
8.870E-06,0.280
8.880E-06,0.260
8.890E-06,0.280
8.900E-06,0.280
8.910E-06,0.240
8.920E-06,0.260
8.930E-06,0.280
8.940E-06,0.240
8.950E-06,0.220
8.960E-06,0.220
8.970E-06,0.220
8.980E-06,0.220
8.990E-06,0.180
9.000E-06,0.200
9.010E-06,0.180
9.020E-06,0.180
9.030E-06,0.160
9.040E-06,0.180
9.050E-06,0.180
9.060E-06,0.160
9.070E-06,0.160
9.080E-06,0.140
9.090E-06,0.120
9.100E-06,0.120
9.110E-06,0.100
9.120E-06,0.080
9.130E-06,0.100
9.140E-06,0.080
9.150E-06,0.060
9.160E-06,0.040
9.170E-06,0.060
9.180E-06,0.040
9.190E-06,0.060
9.200E-06,0.080
9.210E-06,0.020
9.220E-06,0.040
9.230E-06,0.060
9.240E-06,0.040
9.250E-06,0.000
9.260E-06,0.000
9.270E-06,0.000
9.280E-06,-0.040
9.290E-06,-0.060
9.300E-06,-0.040
9.310E-06,-0.040
9.320E-06,-0.040
9.330E-06,-0.100
9.340E-06,-0.100
9.350E-06,-0.060
9.360E-06,-0.060
9.370E-06,-0.100
9.380E-06,-0.140
9.390E-06,-0.120
9.400E-06,-0.160
9.410E-06,-0.160
9.420E-06,-0.160
9.430E-06,-0.160
9.440E-06,-0.180
9.450E-06,-0.160
9.460E-06,-0.200
9.470E-06,-0.180
9.480E-06,-0.200
9.490E-06,-0.220
9.500E-06,-0.220
9.510E-06,-0.220
9.520E-06,-0.220
9.530E-06,-0.260
9.540E-06,-0.260
9.550E-06,-0.260
9.560E-06,-0.260
9.570E-06,-0.260
9.580E-06,-0.260
9.590E-06,-0.320
9.600E-06,-0.320
9.610E-06,-0.320
9.620E-06,-0.320
9.630E-06,-0.360
9.640E-06,-0.320
9.650E-06,-0.320
9.660E-06,-0.340
9.670E-06,-0.320
9.680E-06,-0.320
9.690E-06,-0.340
9.700E-06,-0.320
