mediciones/Mediciones filtradas (saque las feas)/6-3/-5/WaveData53103.csv

#timebase=2000000(ps)
,#voltbase=500000(mv/100)
#size=4000
-2.300E-06,0.620
-2.290E-06,0.800
-2.280E-06,0.460
-2.270E-06,-0.060
-2.260E-06,0.000
-2.250E-06,0.220
-2.240E-06,0.260
-2.230E-06,0.340
-2.220E-06,0.340
-2.210E-06,0.020
-2.200E-06,-0.320
-2.190E-06,-0.380
-2.180E-06,-0.140
-2.170E-06,-0.040
-2.160E-06,-0.040
-2.150E-06,0.060
-2.140E-06,0.000
-2.130E-06,-0.060
-2.120E-06,0.020
-2.110E-06,0.300
-2.100E-06,0.440
-2.090E-06,0.520
-2.080E-06,0.540
-2.070E-06,0.580
-2.060E-06,0.680
-2.050E-06,0.700
-2.040E-06,0.840
-2.030E-06,0.880
-2.020E-06,0.900
-2.010E-06,0.800
-2.000E-06,0.780
-1.990E-06,0.800
-1.980E-06,0.740
-1.970E-06,0.840
-1.960E-06,0.780
-1.950E-06,0.360
-1.940E-06,0.600
-1.930E-06,0.320
-1.920E-06,0.200
-1.910E-06,0.360
-1.900E-06,0.000
-1.890E-06,0.260
-1.880E-06,-0.020
-1.870E-06,0.140
-1.860E-06,0.180
-1.850E-06,-0.220
-1.840E-06,0.000
-1.830E-06,0.020
-1.820E-06,0.500
-1.810E-06,-0.020
-1.800E-06,0.200
-1.790E-06,-0.100
-1.780E-06,-0.180
-1.770E-06,0.040
-1.760E-06,0.300
-1.750E-06,0.560
-1.740E-06,0.280
-1.730E-06,0.120
-1.720E-06,0.140
-1.710E-06,0.200
-1.700E-06,0.180
-1.690E-06,0.480
-1.680E-06,0.520
-1.670E-06,0.340
-1.660E-06,0.160
-1.650E-06,0.100
-1.640E-06,0.140
-1.630E-06,0.140
-1.620E-06,0.160
-1.610E-06,-0.060
-1.600E-06,-0.520
-1.590E-06,-0.900
-1.580E-06,-1.040
-1.570E-06,-0.940
-1.560E-06,-0.780
-1.550E-06,-0.580
-1.540E-06,-0.300
-1.530E-06,-0.140
-1.520E-06,-0.060
-1.510E-06,0.080
-1.500E-06,0.240
-1.490E-06,0.400
-1.480E-06,0.600
-1.470E-06,0.840
-1.460E-06,1.040
-1.450E-06,1.080
-1.440E-06,1.100
-1.430E-06,1.200
-1.420E-06,1.240
-1.410E-06,1.300
-1.400E-06,1.260
-1.390E-06,1.220
-1.380E-06,1.160
-1.370E-06,1.060
-1.360E-06,1.020
-1.350E-06,0.900
-1.340E-06,0.680
-1.330E-06,0.400
-1.320E-06,0.260
-1.310E-06,0.120
-1.300E-06,0.060
-1.290E-06,0.000
-1.280E-06,-0.040
-1.270E-06,-0.080
-1.260E-06,-0.120
-1.250E-06,-0.040
-1.240E-06,-0.220
-1.230E-06,-0.160
-1.220E-06,-0.140
-1.210E-06,-0.100
-1.200E-06,-0.100
-1.190E-06,0.220
-1.180E-06,0.380
-1.170E-06,0.740
-1.160E-06,0.880
-1.150E-06,0.700
-1.140E-06,0.640
-1.130E-06,-0.120
-1.120E-06,-0.160
-1.110E-06,-0.140
-1.100E-06,0.020
-1.090E-06,0.260
-1.080E-06,0.180
-1.070E-06,0.040
-1.060E-06,-0.320
-1.050E-06,-0.520
-1.040E-06,-0.460
-1.030E-06,-0.340
-1.020E-06,-0.040
-1.010E-06,0.060
-1.000E-06,0.100
-9.900E-07,0.000
-9.800E-07,-0.040
-9.700E-07,0.020
-9.600E-07,0.140
-9.500E-07,0.160
-9.400E-07,0.240
-9.300E-07,0.260
-9.200E-07,0.260
-9.100E-07,0.240
-9.000E-07,0.240
-8.900E-07,0.400
-8.800E-07,0.420
-8.700E-07,0.520
-8.600E-07,0.520
-8.500E-07,0.460
-8.400E-07,0.360
-8.300E-07,0.700
-8.200E-07,0.520
-8.100E-07,0.860
-8.000E-07,0.580
-7.900E-07,0.860
-7.800E-07,0.860
-7.700E-07,0.500
-7.600E-07,0.980
-7.500E-07,0.580
-7.400E-07,1.020
-7.300E-07,1.080
-7.200E-07,1.380
-7.100E-07,1.300
-7.000E-07,0.880
-6.900E-07,0.740
-6.800E-07,0.720
-6.700E-07,0.340
-6.600E-07,0.580
-6.500E-07,1.340
-6.400E-07,0.560
-6.300E-07,0.720
-6.200E-07,-0.020
-6.100E-07,-0.080
-6.000E-07,0.300
-5.900E-07,0.740
-5.800E-07,1.520
-5.700E-07,1.000
-5.600E-07,0.000
-5.500E-07,-0.640
-5.400E-07,-0.820
-5.300E-07,-0.360
-5.200E-07,0.460
-5.100E-07,0.880
-5.000E-07,0.960
-4.900E-07,0.320
-4.800E-07,0.020
-4.700E-07,-0.200
-4.600E-07,-0.060
-4.500E-07,0.280
-4.400E-07,0.580
-4.300E-07,0.560
-4.200E-07,0.200
-4.100E-07,0.000
-4.000E-07,0.040
-3.900E-07,0.160
-3.800E-07,0.240
-3.700E-07,0.360
-3.600E-07,0.380
-3.500E-07,0.460
-3.400E-07,0.620
-3.300E-07,0.780
-3.200E-07,0.860
-3.100E-07,0.660
-3.000E-07,0.540
-2.900E-07,0.420
-2.800E-07,0.320
-2.700E-07,0.340
-2.600E-07,0.500
-2.500E-07,0.540
-2.400E-07,0.520
-2.300E-07,0.360
-2.200E-07,0.300
-2.100E-07,0.280
-2.000E-07,0.200
-1.900E-07,0.380
-1.800E-07,0.480
-1.700E-07,0.600
-1.600E-07,0.540
-1.500E-07,0.520
-1.400E-07,0.580
-1.300E-07,0.580
-1.200E-07,0.760
-1.100E-07,0.720
-1.000E-07,0.700
-9.000E-08,0.640
-8.000E-08,0.640
-7.000E-08,0.560
-6.000E-08,0.920
-5.000E-08,-0.480
-4.000E-08,0.300
-3.000E-08,-0.340
-2.000E-08,-1.200
-1.000E-08,-1.200
0.000E+00,-1.740
1.000E-08,0.360
2.000E-08,0.180
3.000E-08,1.480
4.000E-08,0.840
5.000E-08,-0.740
6.000E-08,-1.980
7.000E-08,-2.080
8.000E-08,-0.420
9.000E-08,0.760
1.000E-07,1.180
1.100E-07,1.160
1.200E-07,0.420
1.300E-07,-0.340
1.400E-07,-0.500
1.500E-07,-0.060
1.600E-07,0.740
1.700E-07,0.980
1.800E-07,0.960
1.900E-07,0.440
2.000E-07,0.060
2.100E-07,-0.200
2.200E-07,-0.040
2.300E-07,0.020
2.400E-07,-0.160
2.500E-07,-0.320
2.600E-07,-0.380
2.700E-07,-0.380
2.800E-07,-0.420
2.900E-07,-0.460
3.000E-07,-0.440
3.100E-07,-0.500
3.200E-07,-0.420
3.300E-07,-0.320
3.400E-07,-0.320
3.500E-07,-0.440
3.600E-07,-0.440
3.700E-07,-0.320
3.800E-07,-0.140
3.900E-07,0.000
4.000E-07,0.200
4.100E-07,0.440
4.200E-07,0.580
4.300E-07,0.840
4.400E-07,0.860
4.500E-07,0.780
4.600E-07,0.700
4.700E-07,0.560
4.800E-07,0.720
4.900E-07,0.780
5.000E-07,0.740
5.100E-07,0.680
5.200E-07,0.480
5.300E-07,0.460
5.400E-07,0.520
5.500E-07,0.560
5.600E-07,0.560
5.700E-07,0.520
5.800E-07,0.300
5.900E-07,-0.020
6.000E-07,0.000
6.100E-07,-0.200
6.200E-07,-0.520
6.300E-07,-0.180
6.400E-07,-0.020
6.500E-07,0.340
6.600E-07,1.100
6.700E-07,0.660
6.800E-07,0.660
6.900E-07,0.640
7.000E-07,-1.260
7.100E-07,-1.580
7.200E-07,-1.540
7.300E-07,-1.520
7.400E-07,-0.020
7.500E-07,0.640
7.600E-07,0.840
7.700E-07,0.480
7.800E-07,-1.060
7.900E-07,-1.060
8.000E-07,-0.760
8.100E-07,0.140
8.200E-07,0.680
8.300E-07,0.620
8.400E-07,0.420
8.500E-07,-0.140
8.600E-07,-0.360
8.700E-07,-0.400
8.800E-07,-0.100
8.900E-07,0.220
9.000E-07,0.440
9.100E-07,0.380
9.200E-07,0.240
9.300E-07,0.120
9.400E-07,0.060
9.500E-07,0.120
9.600E-07,0.140
9.700E-07,0.140
9.800E-07,0.120
9.900E-07,0.060
1.000E-06,0.080
1.010E-06,-0.060
1.020E-06,-0.180
1.030E-06,-0.340
1.040E-06,-0.400
1.050E-06,-0.300
1.060E-06,-0.260
1.070E-06,-0.280
1.080E-06,-0.340
1.090E-06,-0.500
1.100E-06,-0.580
1.110E-06,-0.520
1.120E-06,-0.380
1.130E-06,-0.240
1.140E-06,-0.100
1.150E-06,0.080
1.160E-06,0.180
1.170E-06,0.180
1.180E-06,0.160
1.190E-06,0.160
1.200E-06,0.180
1.210E-06,0.240
1.220E-06,0.320
1.230E-06,0.320
1.240E-06,0.240
1.250E-06,0.220
1.260E-06,0.260
1.270E-06,0.260
1.280E-06,0.300
1.290E-06,0.300
1.300E-06,0.240
1.310E-06,0.180
1.320E-06,0.100
1.330E-06,0.040
1.340E-06,-0.040
1.350E-06,-0.120
1.360E-06,-0.180
1.370E-06,-0.180
1.380E-06,-0.120
1.390E-06,-0.100
1.400E-06,0.000
1.410E-06,0.100
1.420E-06,0.200
1.430E-06,0.320
1.440E-06,0.300
1.450E-06,0.340
1.460E-06,0.220
1.470E-06,0.320
1.480E-06,0.300
1.490E-06,0.360
1.500E-06,0.040
1.510E-06,-0.300
1.520E-06,0.140
1.530E-06,-0.380
1.540E-06,-0.540
1.550E-06,-0.980
1.560E-06,-0.880
1.570E-06,-0.640
1.580E-06,-0.500
1.590E-06,0.200
1.600E-06,0.160
1.610E-06,-0.680
1.620E-06,-1.100
1.630E-06,-1.180
1.640E-06,-0.900
1.650E-06,-0.100
1.660E-06,0.040
1.670E-06,0.960
1.680E-06,0.500
1.690E-06,0.380
1.700E-06,0.160
1.710E-06,-0.100
1.720E-06,0.340
1.730E-06,0.660
1.740E-06,0.840
1.750E-06,0.860
1.760E-06,0.640
1.770E-06,0.440
1.780E-06,0.280
1.790E-06,0.160
1.800E-06,0.160
1.810E-06,0.240
1.820E-06,0.240
1.830E-06,0.360
1.840E-06,0.380
1.850E-06,0.360
1.860E-06,0.300
1.870E-06,0.180
1.880E-06,0.200
1.890E-06,0.240
1.900E-06,0.220
1.910E-06,0.240
1.920E-06,0.220
1.930E-06,0.240
1.940E-06,0.080
1.950E-06,0.160
1.960E-06,0.160
1.970E-06,0.320
1.980E-06,0.380
1.990E-06,0.380
2.000E-06,0.540
2.010E-06,0.400
2.020E-06,0.320
2.030E-06,0.380
2.040E-06,0.340
2.050E-06,0.500
2.060E-06,0.600
2.070E-06,0.820
2.080E-06,0.720
2.090E-06,-0.240
2.100E-06,-0.900
2.110E-06,-1.360
2.120E-06,-0.920
2.130E-06,-0.260
2.140E-06,-0.020
2.150E-06,0.420
2.160E-06,-0.700
2.170E-06,-1.380
2.180E-06,-2.160
2.190E-06,-1.940
2.200E-06,-0.980
2.210E-06,-0.300
2.220E-06,0.400
2.230E-06,0.400
2.240E-06,0.020
2.250E-06,-0.380
2.260E-06,-0.420
2.270E-06,0.060
2.280E-06,0.460
2.290E-06,0.860
2.300E-06,1.020
2.310E-06,1.120
2.320E-06,1.000
2.330E-06,0.760
2.340E-06,0.780
2.350E-06,0.640
2.360E-06,0.760
2.370E-06,0.860
2.380E-06,0.940
2.390E-06,0.760
2.400E-06,0.400
2.410E-06,0.100
2.420E-06,-0.240
2.430E-06,-0.460
2.440E-06,-0.600
2.450E-06,-0.600
2.460E-06,-0.660
2.470E-06,-0.680
2.480E-06,-0.800
2.490E-06,-0.940
2.500E-06,-1.040
2.510E-06,-1.100
2.520E-06,-0.980
2.530E-06,-0.780
2.540E-06,-0.560
2.550E-06,-0.360
2.560E-06,-0.280
2.570E-06,-0.220
2.580E-06,-0.160
2.590E-06,-0.140
2.600E-06,-0.100
2.610E-06,-0.140
2.620E-06,-0.040
2.630E-06,-0.020
2.640E-06,0.040
2.650E-06,0.040
2.660E-06,-0.180
2.670E-06,-0.240
2.680E-06,-0.360
2.690E-06,-0.400
2.700E-06,-0.420
2.710E-06,-0.420
2.720E-06,-0.360
2.730E-06,-0.420
2.740E-06,-0.200
2.750E-06,-0.160
2.760E-06,0.060
2.770E-06,0.180
2.780E-06,0.260
2.790E-06,0.320
2.800E-06,0.440
2.810E-06,0.480
2.820E-06,0.560
2.830E-06,0.640
2.840E-06,0.820
2.850E-06,0.960
2.860E-06,0.940
2.870E-06,0.920
2.880E-06,0.380
2.890E-06,0.780
2.900E-06,0.400
2.910E-06,0.160
2.920E-06,0.400
2.930E-06,-0.500
2.940E-06,0.260
2.950E-06,0.040
2.960E-06,-0.140
2.970E-06,-1.120
2.980E-06,-2.560
2.990E-06,-2.660
3.000E-06,-2.660
3.010E-06,-2.520
3.020E-06,-1.540
3.030E-06,-0.620
3.040E-06,-0.820
3.050E-06,-1.020
3.060E-06,-1.920
3.070E-06,-1.780
3.080E-06,-1.600
3.090E-06,-1.040
3.100E-06,-0.180
3.110E-06,0.780
3.120E-06,0.880
3.130E-06,0.620
3.140E-06,0.240
3.150E-06,0.520
3.160E-06,0.480
3.170E-06,0.660
3.180E-06,1.020
3.190E-06,0.960
3.200E-06,0.960
3.210E-06,0.640
3.220E-06,0.440
3.230E-06,0.100
3.240E-06,-0.340
3.250E-06,-0.380
3.260E-06,-0.600
3.270E-06,-0.660
3.280E-06,-0.820
3.290E-06,-1.020
3.300E-06,-1.020
3.310E-06,-1.360
3.320E-06,-1.420
3.330E-06,-1.380
3.340E-06,-1.280
3.350E-06,-1.120
3.360E-06,-0.920
3.370E-06,-0.760
3.380E-06,-0.700
3.390E-06,-0.800
3.400E-06,-0.640
3.410E-06,-0.320
3.420E-06,-0.100
3.430E-06,0.160
3.440E-06,0.140
3.450E-06,0.120
3.460E-06,-0.060
3.470E-06,-0.140
3.480E-06,-0.200
3.490E-06,-0.340
3.500E-06,-0.500
3.510E-06,-0.640
3.520E-06,-0.720
3.530E-06,-0.920
3.540E-06,-1.100
3.550E-06,-1.180
3.560E-06,-1.360
3.570E-06,-1.320
3.580E-06,-1.340
3.590E-06,-1.480
3.600E-06,-1.420
3.610E-06,-1.440
3.620E-06,-1.360
3.630E-06,-1.120
3.640E-06,-0.920
3.650E-06,-0.780
3.660E-06,-0.600
3.670E-06,-0.540
3.680E-06,-0.240
3.690E-06,-0.060
3.700E-06,0.260
3.710E-06,0.400
3.720E-06,0.520
3.730E-06,0.620
3.740E-06,0.400
3.750E-06,0.320
3.760E-06,0.100
3.770E-06,0.020
3.780E-06,-0.080
3.790E-06,-0.300
3.800E-06,-0.400
3.810E-06,-0.680
3.820E-06,-0.880
3.830E-06,-0.880
3.840E-06,-1.000
3.850E-06,-1.060
3.860E-06,-1.200
3.870E-06,-1.380
3.880E-06,-1.420
3.890E-06,-1.420
3.900E-06,-1.300
3.910E-06,-1.460
3.920E-06,-1.640
3.930E-06,-1.740
3.940E-06,-1.960
3.950E-06,-1.920
3.960E-06,-1.680
3.970E-06,-1.340
3.980E-06,-1.000
3.990E-06,-1.280
4.000E-06,-1.040
4.010E-06,-1.380
4.020E-06,-1.680
4.030E-06,-1.360
4.040E-06,-1.180
4.050E-06,-0.700
4.060E-06,-0.880
4.070E-06,-0.480
4.080E-06,-0.900
4.090E-06,-1.140
4.100E-06,-1.000
4.110E-06,-1.240
4.120E-06,-0.800
4.130E-06,-0.860
4.140E-06,-0.320
4.150E-06,-0.080
4.160E-06,-0.040
4.170E-06,0.040
4.180E-06,-0.200
4.190E-06,-0.180
4.200E-06,-0.200
4.210E-06,-0.120
4.220E-06,0.160
4.230E-06,0.040
4.240E-06,0.160
4.250E-06,-0.020
4.260E-06,-0.140
4.270E-06,-0.260
4.280E-06,-0.380
4.290E-06,-0.460
4.300E-06,-0.580
4.310E-06,-0.640
4.320E-06,-0.840
4.330E-06,-1.040
4.340E-06,-1.320
4.350E-06,-1.600
4.360E-06,-1.840
4.370E-06,-2.040
4.380E-06,-2.140
4.390E-06,-2.380
4.400E-06,-2.500
4.410E-06,-2.660
4.420E-06,-2.660
4.430E-06,-2.660
4.440E-06,-2.660
4.450E-06,-2.660
4.460E-06,-2.660
4.470E-06,-2.660
4.480E-06,-2.660
4.490E-06,-2.660
4.500E-06,-2.660
4.510E-06,-2.660
4.520E-06,-2.660
4.530E-06,-2.660
4.540E-06,-2.660
4.550E-06,-2.680
4.560E-06,-2.680
4.570E-06,-2.660
4.580E-06,-2.660
4.590E-06,-2.660
4.600E-06,-2.660
4.610E-06,-2.680
4.620E-06,-2.660
4.630E-06,-2.660
4.640E-06,-2.660
4.650E-06,-2.660
4.660E-06,-2.660
4.670E-06,-2.640
4.680E-06,-2.640
4.690E-06,-2.660
4.700E-06,-2.660
4.710E-06,-2.660
4.720E-06,-2.660
4.730E-06,-2.660
4.740E-06,-2.660
4.750E-06,-2.660
4.760E-06,-2.660
4.770E-06,-2.660
4.780E-06,-2.660
4.790E-06,-2.680
4.800E-06,-2.660
4.810E-06,-2.660
4.820E-06,-2.660
4.830E-06,-2.680
4.840E-06,-2.680
4.850E-06,-2.680
4.860E-06,-2.680
4.870E-06,-2.680
4.880E-06,-2.660
4.890E-06,-2.660
4.900E-06,-2.660
4.910E-06,-2.660
4.920E-06,-2.680
4.930E-06,-2.680
4.940E-06,-2.680
4.950E-06,-2.660
4.960E-06,-2.660
4.970E-06,-2.660
4.980E-06,-2.660
4.990E-06,-2.660
5.000E-06,-2.660
5.010E-06,-2.680
5.020E-06,-2.660
5.030E-06,-2.660
5.040E-06,-2.660
5.050E-06,-2.680
5.060E-06,-2.680
5.070E-06,-2.440
5.080E-06,-2.540
5.090E-06,-2.460
5.100E-06,-2.340
5.110E-06,-2.380
5.120E-06,-2.360
5.130E-06,-2.360
5.140E-06,-2.440
5.150E-06,-2.520
5.160E-06,-2.500
5.170E-06,-2.160
5.180E-06,-2.380
5.190E-06,-2.140
5.200E-06,-2.260
5.210E-06,-1.820
5.220E-06,-1.700
5.230E-06,-1.380
5.240E-06,-0.680
5.250E-06,-0.320
5.260E-06,0.260
5.270E-06,0.400
5.280E-06,1.040
5.290E-06,1.020
5.300E-06,1.200
5.310E-06,1.100
5.320E-06,0.900
5.330E-06,0.880
5.340E-06,0.440
5.350E-06,0.760
5.360E-06,1.200
5.370E-06,1.060
5.380E-06,1.800
5.390E-06,1.340
5.400E-06,0.980
5.410E-06,0.780
5.420E-06,0.220
5.430E-06,0.340
5.440E-06,0.100
5.450E-06,0.340
5.460E-06,0.640
5.470E-06,0.260
5.480E-06,0.320
5.490E-06,-0.020
5.500E-06,-0.420
5.510E-06,-0.560
5.520E-06,-0.740
5.530E-06,-0.420
5.540E-06,-0.800
5.550E-06,-0.740
5.560E-06,-1.100
5.570E-06,-1.280
5.580E-06,-1.240
5.590E-06,-1.820
5.600E-06,-2.040
5.610E-06,-2.280
5.620E-06,-2.220
5.630E-06,-2.200
5.640E-06,-2.060
5.650E-06,-2.120
5.660E-06,-2.180
5.670E-06,-2.440
5.680E-06,-2.520
5.690E-06,-2.540
5.700E-06,-2.660
5.710E-06,-2.660
5.720E-06,-2.660
5.730E-06,-2.660
5.740E-06,-2.640
5.750E-06,-2.660
5.760E-06,-2.660
5.770E-06,-2.660
5.780E-06,-2.660
5.790E-06,-2.660
5.800E-06,-2.660
5.810E-06,-2.660
5.820E-06,-2.660
5.830E-06,-2.640
5.840E-06,-2.660
5.850E-06,-2.660
5.860E-06,-2.660
5.870E-06,-2.660
5.880E-06,-2.660
5.890E-06,-2.660
5.900E-06,-2.660
5.910E-06,-2.640
5.920E-06,-2.640
5.930E-06,-2.640
5.940E-06,-2.660
5.950E-06,-2.660
5.960E-06,-2.660
5.970E-06,-2.660
5.980E-06,-2.660
5.990E-06,-2.660
6.000E-06,-2.660
6.010E-06,-2.660
6.020E-06,-2.660
6.030E-06,-2.660
6.040E-06,-2.660
6.050E-06,-2.660
6.060E-06,-2.660
6.070E-06,-2.660
6.080E-06,-2.660
6.090E-06,-2.660
6.100E-06,-2.640
6.110E-06,-2.640
6.120E-06,-2.640
6.130E-06,-2.660
6.140E-06,-2.660
6.150E-06,-2.660
6.160E-06,-2.660
6.170E-06,-2.660
6.180E-06,-2.660
6.190E-06,-2.660
6.200E-06,-2.660
6.210E-06,-2.660
6.220E-06,-2.640
6.230E-06,-2.660
6.240E-06,-2.660
6.250E-06,-2.680
6.260E-06,-2.680
6.270E-06,-2.680
6.280E-06,-2.660
6.290E-06,-2.660
6.300E-06,-2.640
6.310E-06,-2.660
6.320E-06,-2.660
6.330E-06,-2.660
6.340E-06,-2.660
6.350E-06,-2.660
6.360E-06,-2.660
6.370E-06,-2.660
6.380E-06,-2.660
6.390E-06,-2.680
6.400E-06,-2.680
6.410E-06,-2.660
6.420E-06,-2.660
6.430E-06,-2.660
6.440E-06,-2.660
6.450E-06,-2.620
6.460E-06,-2.620
6.470E-06,-2.580
6.480E-06,-2.560
6.490E-06,-2.600
6.500E-06,-2.640
6.510E-06,-2.620
6.520E-06,-2.600
6.530E-06,-2.660
6.540E-06,-2.660
6.550E-06,-2.660
6.560E-06,-2.660
6.570E-06,-2.640
6.580E-06,-2.660
6.590E-06,-2.660
6.600E-06,-2.660
6.610E-06,-2.660
6.620E-06,-2.660
6.630E-06,-2.660
6.640E-06,-2.660
6.650E-06,-2.660
6.660E-06,-2.660
6.670E-06,-2.640
6.680E-06,-2.660
6.690E-06,-2.620
6.700E-06,-2.620
6.710E-06,-2.640
6.720E-06,-2.640
6.730E-06,-2.620
6.740E-06,-2.620
6.750E-06,-2.640
6.760E-06,-2.660
6.770E-06,-2.620
6.780E-06,-2.640
6.790E-06,-2.640
6.800E-06,-2.640
6.810E-06,-2.660
6.820E-06,-2.640
6.830E-06,-2.660
6.840E-06,-2.660
6.850E-06,-2.660
6.860E-06,-2.660
6.870E-06,-2.660
6.880E-06,-2.660
6.890E-06,-2.640
6.900E-06,-2.660
6.910E-06,-2.640
6.920E-06,-2.640
6.930E-06,-2.660
6.940E-06,-2.660
6.950E-06,-2.640
6.960E-06,-2.620
6.970E-06,-2.660
6.980E-06,-2.640
6.990E-06,-2.620
7.000E-06,-2.600
7.010E-06,-2.560
7.020E-06,-2.540
7.030E-06,-2.540
7.040E-06,-2.480
7.050E-06,-2.440
7.060E-06,-2.360
7.070E-06,-2.340
7.080E-06,-2.280
7.090E-06,-2.240
7.100E-06,-2.200
7.110E-06,-2.160
7.120E-06,-2.160
7.130E-06,-2.160
7.140E-06,-2.100
7.150E-06,-2.120
7.160E-06,-2.080
7.170E-06,-2.060
7.180E-06,-2.080
7.190E-06,-2.000
7.200E-06,-1.980
7.210E-06,-1.940
7.220E-06,-1.860
7.230E-06,-1.840
7.240E-06,-1.820
7.250E-06,-1.780
7.260E-06,-1.740
7.270E-06,-1.700
7.280E-06,-1.680
7.290E-06,-1.620
7.300E-06,-1.600
7.310E-06,-1.560
7.320E-06,-1.540
7.330E-06,-1.500
7.340E-06,-1.480
7.350E-06,-1.440
7.360E-06,-1.420
7.370E-06,-1.380
7.380E-06,-1.360
7.390E-06,-1.380
7.400E-06,-1.380
7.410E-06,-1.420
7.420E-06,-1.360
7.430E-06,-1.340
7.440E-06,-1.360
7.450E-06,-1.320
7.460E-06,-1.280
7.470E-06,-1.280
7.480E-06,-1.240
7.490E-06,-1.200
7.500E-06,-1.200
7.510E-06,-1.200
7.520E-06,-1.140
7.530E-06,-1.120
7.540E-06,-1.080
7.550E-06,-1.080
7.560E-06,-1.060
7.570E-06,-1.040
7.580E-06,-1.020
7.590E-06,-1.000
7.600E-06,-0.980
7.610E-06,-0.940
7.620E-06,-0.900
7.630E-06,-0.900
7.640E-06,-0.860
7.650E-06,-0.820
7.660E-06,-0.840
7.670E-06,-0.820
7.680E-06,-0.840
7.690E-06,-0.840
7.700E-06,-0.860
7.710E-06,-0.880
7.720E-06,-0.860
7.730E-06,-0.860
7.740E-06,-0.860
7.750E-06,-0.860
7.760E-06,-0.840
7.770E-06,-0.860
7.780E-06,-0.860
7.790E-06,-0.840
7.800E-06,-0.860
7.810E-06,-0.840
7.820E-06,-0.840
7.830E-06,-0.840
7.840E-06,-0.860
7.850E-06,-0.780
7.860E-06,-0.760
7.870E-06,-0.720
7.880E-06,-0.600
7.890E-06,-0.560
7.900E-06,-0.520
7.910E-06,-0.500
7.920E-06,-0.520
7.930E-06,-0.580
7.940E-06,-0.600
7.950E-06,-0.600
7.960E-06,-0.700
7.970E-06,-0.700
7.980E-06,-0.780
7.990E-06,-0.860
8.000E-06,-0.940
8.010E-06,-1.020
8.020E-06,-1.140
8.030E-06,-1.260
8.040E-06,-1.400
8.050E-06,-1.460
8.060E-06,-1.520
8.070E-06,-1.580
8.080E-06,-1.580
8.090E-06,-1.620
8.100E-06,-1.600
8.110E-06,-1.580
8.120E-06,-1.540
8.130E-06,-1.500
8.140E-06,-1.360
8.150E-06,-1.280
8.160E-06,-1.140
8.170E-06,-1.020
8.180E-06,-0.920
8.190E-06,-0.760
8.200E-06,-0.660
8.210E-06,-0.580
8.220E-06,-0.460
8.230E-06,-0.400
8.240E-06,-0.340
8.250E-06,-0.260
8.260E-06,-0.280
8.270E-06,-0.260
8.280E-06,-0.260
8.290E-06,-0.300
8.300E-06,-0.300
8.310E-06,-0.320
8.320E-06,-0.320
8.330E-06,-0.420
8.340E-06,-0.520
8.350E-06,-0.540
8.360E-06,-0.580
8.370E-06,-0.580
8.380E-06,-0.620
8.390E-06,-0.620
8.400E-06,-0.680
8.410E-06,-0.680
8.420E-06,-0.700
8.430E-06,-0.660
8.440E-06,-0.700
8.450E-06,-0.760
8.460E-06,-0.740
8.470E-06,-0.780
8.480E-06,-0.820
8.490E-06,-0.820
8.500E-06,-0.800
8.510E-06,-0.800
8.520E-06,-0.740
8.530E-06,-0.720
8.540E-06,-0.740
8.550E-06,-0.780
8.560E-06,-0.820
8.570E-06,-0.820
8.580E-06,-0.820
8.590E-06,-0.780
8.600E-06,-0.720
8.610E-06,-0.680
8.620E-06,-0.660
8.630E-06,-0.600
8.640E-06,-0.560
8.650E-06,-0.500
8.660E-06,-0.440
8.670E-06,-0.420
8.680E-06,-0.360
8.690E-06,-0.300
8.700E-06,-0.280
8.710E-06,-0.280
8.720E-06,-0.300
8.730E-06,-0.340
8.740E-06,-0.420
8.750E-06,-0.520
8.760E-06,-0.560
8.770E-06,-0.620
8.780E-06,-0.660
8.790E-06,-0.660
8.800E-06,-0.700
8.810E-06,-0.680
8.820E-06,-0.660
8.830E-06,-0.600
8.840E-06,-0.520
8.850E-06,-0.420
8.860E-06,-0.320
8.870E-06,-0.160
8.880E-06,0.000
8.890E-06,0.120
8.900E-06,0.260
8.910E-06,0.340
8.920E-06,0.400
8.930E-06,0.420
8.940E-06,0.420
8.950E-06,0.360
8.960E-06,0.240
8.970E-06,0.160
8.980E-06,0.020
8.990E-06,-0.040
9.000E-06,-0.100
9.010E-06,-0.180
9.020E-06,-0.200
9.030E-06,-0.220
9.040E-06,-0.240
9.050E-06,-0.260
9.060E-06,-0.260
9.070E-06,-0.260
9.080E-06,-0.300
9.090E-06,-0.340
9.100E-06,-0.340
9.110E-06,-0.380
9.120E-06,-0.340
9.130E-06,-0.340
9.140E-06,-0.340
9.150E-06,-0.360
9.160E-06,-0.320
9.170E-06,-0.240
9.180E-06,-0.220
9.190E-06,-0.200
9.200E-06,-0.160
9.210E-06,-0.180
9.220E-06,-0.220
9.230E-06,-0.260
9.240E-06,-0.280
9.250E-06,-0.340
9.260E-06,-0.320
9.270E-06,-0.340
9.280E-06,-0.320
9.290E-06,-0.300
9.300E-06,-0.260
9.310E-06,-0.240
9.320E-06,-0.260
9.330E-06,-0.260
9.340E-06,-0.280
9.350E-06,-0.260
9.360E-06,-0.300
9.370E-06,-0.340
9.380E-06,-0.340
9.390E-06,-0.420
9.400E-06,-0.420
9.410E-06,-0.500
9.420E-06,-0.560
9.430E-06,-0.580
9.440E-06,-0.560
9.450E-06,-0.540
9.460E-06,-0.540
9.470E-06,-0.500
9.480E-06,-0.480
9.490E-06,-0.420
9.500E-06,-0.340
9.510E-06,-0.300
9.520E-06,-0.220
