mediciones/Mediciones filtradas (saque las feas)/6-10/5.8/WaveData5655.csv

#timebase=2000000(ps)
,#voltbase=100000(mv/100)
#size=4000
-4.200E-06,-0.020
-4.190E-06,-0.148
-4.180E-06,-0.096
-4.170E-06,-0.020
-4.160E-06,0.096
-4.150E-06,0.088
-4.140E-06,0.056
-4.130E-06,-0.024
-4.120E-06,-0.092
-4.110E-06,-0.140
-4.100E-06,-0.056
-4.090E-06,-0.020
-4.080E-06,0.104
-4.070E-06,0.084
-4.060E-06,0.160
-4.050E-06,0.096
-4.040E-06,-0.080
-4.030E-06,-0.176
-4.020E-06,-0.172
-4.010E-06,-0.004
-4.000E-06,0.104
-3.990E-06,0.192
-3.980E-06,0.152
-3.970E-06,0.108
-3.960E-06,0.004
-3.950E-06,-0.024
-3.940E-06,-0.040
-3.930E-06,0.028
-3.920E-06,0.076
-3.910E-06,0.124
-3.900E-06,0.132
-3.890E-06,0.064
-3.880E-06,-0.004
-3.870E-06,0.000
-3.860E-06,-0.024
-3.850E-06,0.100
-3.840E-06,0.140
-3.830E-06,0.124
-3.820E-06,-0.008
-3.810E-06,-0.084
-3.800E-06,-0.112
-3.790E-06,-0.076
-3.780E-06,-0.288
-3.770E-06,-0.064
-3.760E-06,0.028
-3.750E-06,-0.104
-3.740E-06,-0.068
-3.730E-06,-0.272
-3.720E-06,0.108
-3.710E-06,-0.200
-3.700E-06,-0.036
-3.690E-06,-0.044
-3.680E-06,0.156
-3.670E-06,0.108
-3.660E-06,0.172
-3.650E-06,-0.076
-3.640E-06,-0.132
-3.630E-06,-0.228
-3.620E-06,-0.252
-3.610E-06,-0.140
-3.600E-06,0.036
-3.590E-06,0.168
-3.580E-06,0.144
-3.570E-06,0.084
-3.560E-06,0.044
-3.550E-06,-0.036
-3.540E-06,-0.080
-3.530E-06,-0.148
-3.520E-06,-0.116
-3.510E-06,-0.032
-3.500E-06,0.060
-3.490E-06,0.112
-3.480E-06,0.068
-3.470E-06,-0.004
-3.460E-06,-0.064
-3.450E-06,-0.092
-3.440E-06,-0.040
-3.430E-06,0.012
-3.420E-06,0.096
-3.410E-06,0.128
-3.400E-06,0.124
-3.390E-06,0.060
-3.380E-06,-0.012
-3.370E-06,-0.068
-3.360E-06,-0.084
-3.350E-06,-0.044
-3.340E-06,-0.008
-3.330E-06,0.012
-3.320E-06,0.004
-3.310E-06,-0.024
-3.300E-06,0.000
-3.290E-06,-0.052
-3.280E-06,-0.036
-3.270E-06,-0.008
-3.260E-06,0.036
-3.250E-06,0.028
-3.240E-06,0.024
-3.230E-06,0.008
-3.220E-06,0.048
-3.210E-06,0.048
-3.200E-06,0.048
-3.190E-06,0.040
-3.180E-06,0.020
-3.170E-06,0.024
-3.160E-06,0.000
-3.150E-06,0.000
-3.140E-06,-0.004
-3.130E-06,0.000
-3.120E-06,0.008
-3.110E-06,0.016
-3.100E-06,0.028
-3.090E-06,0.056
-3.080E-06,0.096
-3.070E-06,0.064
-3.060E-06,0.092
-3.050E-06,-0.032
-3.040E-06,-0.004
-3.030E-06,-0.020
-3.020E-06,0.004
-3.010E-06,0.040
-3.000E-06,0.068
-2.990E-06,0.104
-2.980E-06,0.068
-2.970E-06,0.096
-2.960E-06,0.068
-2.950E-06,0.040
-2.940E-06,-0.016
-2.930E-06,-0.040
-2.920E-06,-0.108
-2.910E-06,-0.152
-2.900E-06,-0.152
-2.890E-06,-0.036
-2.880E-06,0.076
-2.870E-06,0.124
-2.860E-06,0.156
-2.850E-06,0.032
-2.840E-06,-0.020
-2.830E-06,-0.104
-2.820E-06,-0.080
-2.810E-06,0.024
-2.800E-06,0.132
-2.790E-06,0.176
-2.780E-06,0.112
-2.770E-06,0.008
-2.760E-06,-0.108
-2.750E-06,-0.224
-2.740E-06,-0.168
-2.730E-06,-0.072
-2.720E-06,-0.016
-2.710E-06,0.032
-2.700E-06,-0.132
-2.690E-06,-0.004
-2.680E-06,0.036
-2.670E-06,0.040
-2.660E-06,0.032
-2.650E-06,0.064
-2.640E-06,0.088
-2.630E-06,-0.040
-2.620E-06,-0.172
-2.610E-06,-0.164
-2.600E-06,-0.072
-2.590E-06,0.092
-2.580E-06,0.044
-2.570E-06,0.112
-2.560E-06,0.056
-2.550E-06,-0.096
-2.540E-06,-0.112
-2.530E-06,-0.164
-2.520E-06,-0.040
-2.510E-06,0.108
-2.500E-06,0.092
-2.490E-06,0.028
-2.480E-06,-0.044
-2.470E-06,-0.072
-2.460E-06,-0.048
-2.450E-06,0.020
-2.440E-06,0.024
-2.430E-06,0.052
-2.420E-06,0.056
-2.410E-06,0.016
-2.400E-06,0.000
-2.390E-06,-0.008
-2.380E-06,-0.024
-2.370E-06,-0.008
-2.360E-06,0.036
-2.350E-06,0.064
-2.340E-06,0.076
-2.330E-06,0.028
-2.320E-06,-0.008
-2.310E-06,-0.052
-2.300E-06,-0.064
-2.290E-06,-0.056
-2.280E-06,-0.008
-2.270E-06,0.028
-2.260E-06,0.052
-2.250E-06,0.048
-2.240E-06,0.040
-2.230E-06,0.012
-2.220E-06,-0.020
-2.210E-06,-0.004
-2.200E-06,0.020
-2.190E-06,0.052
-2.180E-06,0.056
-2.170E-06,0.056
-2.160E-06,0.032
-2.150E-06,0.036
-2.140E-06,0.020
-2.130E-06,0.028
-2.120E-06,0.048
-2.110E-06,0.076
-2.100E-06,0.108
-2.090E-06,0.020
-2.080E-06,-0.024
-2.070E-06,-0.108
-2.060E-06,-0.220
-2.050E-06,-0.172
-2.040E-06,-0.136
-2.030E-06,-0.028
-2.020E-06,0.120
-2.010E-06,0.152
-2.000E-06,0.108
-1.990E-06,0.008
-1.980E-06,-0.068
-1.970E-06,-0.164
-1.960E-06,-0.100
-1.950E-06,-0.036
-1.940E-06,0.064
-1.930E-06,0.124
-1.920E-06,0.076
-1.910E-06,0.020
-1.900E-06,-0.032
-1.890E-06,-0.052
-1.880E-06,-0.048
-1.870E-06,0.004
-1.860E-06,0.036
-1.850E-06,0.068
-1.840E-06,0.064
-1.830E-06,0.052
-1.820E-06,0.012
-1.810E-06,-0.020
-1.800E-06,-0.040
-1.790E-06,-0.012
-1.780E-06,0.044
-1.770E-06,0.100
-1.760E-06,0.108
-1.750E-06,0.092
-1.740E-06,0.076
-1.730E-06,0.056
-1.720E-06,0.044
-1.710E-06,0.048
-1.700E-06,0.076
-1.690E-06,0.108
-1.680E-06,0.092
-1.670E-06,0.080
-1.660E-06,0.008
-1.650E-06,-0.204
-1.640E-06,-0.336
-1.630E-06,-0.356
-1.620E-06,-0.104
-1.610E-06,0.092
-1.600E-06,0.256
-1.590E-06,0.184
-1.580E-06,0.016
-1.570E-06,-0.176
-1.560E-06,-0.304
-1.550E-06,-0.204
-1.540E-06,-0.128
-1.530E-06,0.076
-1.520E-06,0.152
-1.510E-06,0.124
-1.500E-06,0.064
-1.490E-06,-0.028
-1.480E-06,-0.068
-1.470E-06,-0.112
-1.460E-06,-0.060
-1.450E-06,0.024
-1.440E-06,0.124
-1.430E-06,0.128
-1.420E-06,0.100
-1.410E-06,0.024
-1.400E-06,0.012
-1.390E-06,-0.028
-1.380E-06,0.056
-1.370E-06,-0.024
-1.360E-06,0.084
-1.350E-06,-0.044
-1.340E-06,-0.064
-1.330E-06,-0.120
-1.320E-06,-0.072
-1.310E-06,0.032
-1.300E-06,-0.028
-1.290E-06,0.072
-1.280E-06,0.024
-1.270E-06,-0.004
-1.260E-06,-0.024
-1.250E-06,-0.076
-1.240E-06,-0.020
-1.230E-06,0.000
-1.220E-06,0.056
-1.210E-06,0.060
-1.200E-06,0.056
-1.190E-06,0.004
-1.180E-06,-0.032
-1.170E-06,-0.040
-1.160E-06,-0.044
-1.150E-06,-0.004
-1.140E-06,0.028
-1.130E-06,0.060
-1.120E-06,0.056
-1.110E-06,0.044
-1.100E-06,0.008
-1.090E-06,-0.020
-1.080E-06,-0.020
-1.070E-06,0.008
-1.060E-06,0.056
-1.050E-06,0.092
-1.040E-06,0.108
-1.030E-06,0.108
-1.020E-06,0.108
-1.010E-06,0.096
-1.000E-06,0.096
-9.900E-07,0.080
-9.800E-07,0.072
-9.700E-07,0.044
-9.600E-07,0.012
-9.500E-07,-0.008
-9.400E-07,-0.008
-9.300E-07,-0.004
-9.200E-07,0.024
-9.100E-07,0.024
-9.000E-07,-0.020
-8.900E-07,-0.044
-8.800E-07,-0.016
-8.700E-07,0.052
-8.600E-07,0.132
-8.500E-07,0.180
-8.400E-07,0.156
-8.300E-07,0.076
-8.200E-07,-0.008
-8.100E-07,-0.072
-8.000E-07,-0.064
-7.900E-07,-0.156
-7.800E-07,-0.112
-7.700E-07,-0.512
-7.600E-07,-0.508
-7.500E-07,-0.308
-7.400E-07,-0.028
-7.300E-07,0.016
-7.200E-07,0.140
-7.100E-07,0.256
-7.000E-07,0.128
-6.900E-07,0.088
-6.800E-07,-0.064
-6.700E-07,-0.092
-6.600E-07,-0.048
-6.500E-07,0.016
-6.400E-07,0.000
-6.300E-07,-0.032
-6.200E-07,-0.020
-6.100E-07,-0.032
-6.000E-07,0.044
-5.900E-07,0.056
-5.800E-07,0.052
-5.700E-07,0.004
-5.600E-07,-0.044
-5.500E-07,-0.056
-5.400E-07,-0.024
-5.300E-07,0.008
-5.200E-07,0.032
-5.100E-07,0.060
-5.000E-07,0.036
-4.900E-07,0.000
-4.800E-07,-0.040
-4.700E-07,-0.032
-4.600E-07,-0.024
-4.500E-07,0.024
-4.400E-07,0.064
-4.300E-07,0.076
-4.200E-07,0.056
-4.100E-07,0.004
-4.000E-07,-0.036
-3.900E-07,-0.052
-3.800E-07,-0.020
-3.700E-07,0.008
-3.600E-07,0.072
-3.500E-07,0.092
-3.400E-07,0.084
-3.300E-07,0.040
-3.200E-07,-0.004
-3.100E-07,-0.028
-3.000E-07,-0.028
-2.900E-07,0.004
-2.800E-07,0.056
-2.700E-07,0.108
-2.600E-07,0.128
-2.500E-07,0.124
-2.400E-07,0.092
-2.300E-07,0.064
-2.200E-07,0.056
-2.100E-07,0.076
-2.000E-07,0.124
-1.900E-07,0.156
-1.800E-07,0.176
-1.700E-07,0.152
-1.600E-07,0.136
-1.500E-07,0.100
-1.400E-07,0.080
-1.300E-07,0.092
-1.200E-07,0.128
-1.100E-07,0.160
-1.000E-07,0.160
-9.000E-08,0.148
-8.000E-08,0.128
-7.000E-08,-0.168
-6.000E-08,-0.140
-5.000E-08,-0.512
-4.000E-08,-0.512
-3.000E-08,-0.512
-2.000E-08,-0.428
-1.000E-08,0.372
0.000E+00,0.540
1.000E-08,0.540
2.000E-08,0.284
3.000E-08,-0.320
4.000E-08,-0.508
5.000E-08,-0.508
6.000E-08,-0.340
7.000E-08,0.192
8.000E-08,0.408
9.000E-08,0.352
1.000E-07,0.244
1.100E-07,-0.112
1.200E-07,-0.272
1.300E-07,-0.368
1.400E-07,-0.252
1.500E-07,0.020
1.600E-07,0.264
1.700E-07,0.308
1.800E-07,0.268
1.900E-07,0.096
2.000E-07,-0.144
2.100E-07,-0.220
2.200E-07,-0.212
2.300E-07,-0.056
2.400E-07,0.076
2.500E-07,0.216
2.600E-07,0.196
2.700E-07,0.128
2.800E-07,0.000
2.900E-07,-0.104
3.000E-07,-0.096
3.100E-07,-0.076
3.200E-07,0.040
3.300E-07,0.092
3.400E-07,0.124
3.500E-07,0.076
3.600E-07,0.032
3.700E-07,0.004
3.800E-07,-0.056
3.900E-07,-0.028
4.000E-07,0.008
4.100E-07,0.072
4.200E-07,0.104
4.300E-07,0.092
4.400E-07,0.044
4.500E-07,0.036
4.600E-07,0.052
4.700E-07,0.060
4.800E-07,0.064
4.900E-07,0.136
5.000E-07,0.144
5.100E-07,0.152
5.200E-07,0.152
5.300E-07,0.144
5.400E-07,0.136
5.500E-07,0.116
5.600E-07,0.096
5.700E-07,0.056
5.800E-07,-0.036
5.900E-07,-0.340
6.000E-07,-0.468
6.100E-07,-0.512
6.200E-07,-0.176
6.300E-07,0.096
6.400E-07,0.372
6.500E-07,0.140
6.600E-07,-0.128
6.700E-07,-0.308
6.800E-07,-0.480
6.900E-07,-0.332
7.000E-07,0.052
7.100E-07,0.356
7.200E-07,0.256
7.300E-07,0.200
7.400E-07,-0.008
7.500E-07,-0.208
7.600E-07,-0.316
7.700E-07,-0.268
7.800E-07,-0.060
7.900E-07,0.168
8.000E-07,0.308
8.100E-07,0.224
8.200E-07,0.072
8.300E-07,-0.188
8.400E-07,-0.268
8.500E-07,-0.240
8.600E-07,-0.060
8.700E-07,0.140
8.800E-07,0.236
8.900E-07,0.228
9.000E-07,0.124
9.100E-07,-0.040
9.200E-07,-0.204
9.300E-07,-0.204
9.400E-07,-0.136
9.500E-07,0.032
9.600E-07,0.164
9.700E-07,0.204
9.800E-07,0.128
9.900E-07,-0.008
1.000E-06,-0.112
1.010E-06,-0.136
1.020E-06,-0.084
1.030E-06,0.008
1.040E-06,0.108
1.050E-06,0.140
1.060E-06,0.132
1.070E-06,0.048
1.080E-06,-0.032
1.090E-06,-0.100
1.100E-06,-0.084
1.110E-06,-0.016
1.120E-06,0.072
1.130E-06,0.132
1.140E-06,0.120
1.150E-06,0.084
1.160E-06,0.020
1.170E-06,-0.028
1.180E-06,-0.028
1.190E-06,0.008
1.200E-06,0.064
1.210E-06,0.124
1.220E-06,0.132
1.230E-06,0.120
1.240E-06,0.080
1.250E-06,0.044
1.260E-06,0.024
1.270E-06,0.060
1.280E-06,0.124
1.290E-06,0.148
1.300E-06,0.164
1.310E-06,0.160
1.320E-06,0.140
1.330E-06,0.100
1.340E-06,0.088
1.350E-06,0.108
1.360E-06,0.132
1.370E-06,0.160
1.380E-06,0.180
1.390E-06,0.188
1.400E-06,0.156
1.410E-06,0.128
1.420E-06,0.112
1.430E-06,0.084
1.440E-06,0.068
1.450E-06,0.064
1.460E-06,0.056
1.470E-06,0.056
1.480E-06,0.124
1.490E-06,0.140
1.500E-06,0.188
1.510E-06,0.160
1.520E-06,0.152
1.530E-06,-0.072
1.540E-06,-0.204
1.550E-06,-0.368
1.560E-06,-0.428
1.570E-06,-0.380
1.580E-06,-0.040
1.590E-06,0.192
1.600E-06,0.192
1.610E-06,-0.300
1.620E-06,-0.508
1.630E-06,-0.512
1.640E-06,-0.392
1.650E-06,-0.084
1.660E-06,0.332
1.670E-06,0.436
1.680E-06,0.492
1.690E-06,-0.140
1.700E-06,-0.368
1.710E-06,-0.460
1.720E-06,-0.208
1.730E-06,0.088
1.740E-06,0.348
1.750E-06,0.356
1.760E-06,0.168
1.770E-06,0.028
1.780E-06,-0.212
1.790E-06,-0.264
1.800E-06,-0.136
1.810E-06,0.108
1.820E-06,0.232
1.830E-06,0.484
1.840E-06,0.408
1.850E-06,0.188
1.860E-06,-0.040
1.870E-06,-0.160
1.880E-06,-0.100
1.890E-06,0.080
1.900E-06,0.244
1.910E-06,0.312
1.920E-06,0.312
1.930E-06,0.172
1.940E-06,0.056
1.950E-06,-0.084
1.960E-06,-0.108
1.970E-06,-0.004
1.980E-06,0.164
1.990E-06,0.304
2.000E-06,0.336
2.010E-06,0.264
2.020E-06,0.124
2.030E-06,0.036
2.040E-06,0.000
2.050E-06,0.088
2.060E-06,0.192
2.070E-06,0.296
2.080E-06,0.296
2.090E-06,0.244
2.100E-06,0.132
2.110E-06,0.040
2.120E-06,0.000
2.130E-06,0.040
2.140E-06,0.144
2.150E-06,0.216
2.160E-06,0.272
2.170E-06,0.240
2.180E-06,0.212
2.190E-06,0.136
2.200E-06,0.108
2.210E-06,0.120
2.220E-06,0.152
2.230E-06,0.224
2.240E-06,0.244
2.250E-06,0.260
2.260E-06,0.208
2.270E-06,0.172
2.280E-06,0.128
2.290E-06,0.132
2.300E-06,0.144
2.310E-06,0.160
2.320E-06,0.132
2.330E-06,0.068
2.340E-06,-0.020
2.350E-06,-0.060
2.360E-06,-0.056
2.370E-06,0.000
2.380E-06,0.020
2.390E-06,0.096
2.400E-06,0.220
2.410E-06,0.288
2.420E-06,0.324
2.430E-06,0.288
2.440E-06,0.168
2.450E-06,0.064
2.460E-06,-0.036
2.470E-06,-0.008
2.480E-06,0.056
2.490E-06,0.164
2.500E-06,0.160
2.510E-06,0.076
2.520E-06,-0.088
2.530E-06,-0.220
2.540E-06,-0.264
2.550E-06,-0.172
2.560E-06,-0.136
2.570E-06,-0.168
2.580E-06,-0.172
2.590E-06,-0.152
2.600E-06,-0.064
2.610E-06,0.096
2.620E-06,0.192
2.630E-06,0.196
2.640E-06,0.264
2.650E-06,0.180
2.660E-06,0.132
2.670E-06,0.128
2.680E-06,0.132
2.690E-06,0.212
2.700E-06,0.300
2.710E-06,0.328
2.720E-06,0.252
2.730E-06,0.160
2.740E-06,0.132
2.750E-06,0.140
2.760E-06,0.168
2.770E-06,0.208
2.780E-06,0.244
2.790E-06,0.260
2.800E-06,0.248
2.810E-06,0.208
2.820E-06,0.164
2.830E-06,0.144
2.840E-06,0.156
2.850E-06,0.192
2.860E-06,0.232
2.870E-06,0.256
2.880E-06,0.240
2.890E-06,0.212
2.900E-06,0.184
2.910E-06,0.168
2.920E-06,0.168
2.930E-06,0.184
2.940E-06,0.208
2.950E-06,0.224
2.960E-06,0.224
2.970E-06,0.208
2.980E-06,0.196
2.990E-06,0.172
3.000E-06,0.172
3.010E-06,0.184
3.020E-06,0.196
3.030E-06,0.208
3.040E-06,0.212
3.050E-06,0.204
3.060E-06,0.192
3.070E-06,0.184
3.080E-06,0.180
3.090E-06,0.184
3.100E-06,0.208
3.110E-06,0.220
3.120E-06,0.224
3.130E-06,0.212
3.140E-06,0.204
3.150E-06,0.188
3.160E-06,0.180
3.170E-06,0.188
3.180E-06,0.200
3.190E-06,0.208
3.200E-06,0.208
3.210E-06,0.212
3.220E-06,0.204
3.230E-06,0.192
3.240E-06,0.188
3.250E-06,0.184
3.260E-06,0.192
3.270E-06,0.200
3.280E-06,0.200
3.290E-06,0.204
3.300E-06,0.196
3.310E-06,0.192
3.320E-06,0.192
3.330E-06,0.192
3.340E-06,0.188
3.350E-06,0.192
3.360E-06,0.200
3.370E-06,0.196
3.380E-06,0.192
3.390E-06,0.192
3.400E-06,0.188
3.410E-06,0.188
3.420E-06,0.184
3.430E-06,0.188
3.440E-06,0.192
3.450E-06,0.196
3.460E-06,0.192
3.470E-06,0.188
3.480E-06,0.184
3.490E-06,0.188
3.500E-06,0.184
3.510E-06,0.192
3.520E-06,0.192
3.530E-06,0.188
3.540E-06,0.188
3.550E-06,0.192
3.560E-06,0.192
3.570E-06,0.188
3.580E-06,0.196
3.590E-06,0.192
3.600E-06,0.192
3.610E-06,0.188
3.620E-06,0.192
3.630E-06,0.192
3.640E-06,0.188
3.650E-06,0.188
3.660E-06,0.188
3.670E-06,0.192
3.680E-06,0.184
3.690E-06,0.180
3.700E-06,0.184
3.710E-06,0.188
3.720E-06,0.192
3.730E-06,0.188
3.740E-06,0.192
3.750E-06,0.184
3.760E-06,0.184
3.770E-06,0.188
3.780E-06,0.188
3.790E-06,0.184
3.800E-06,0.188
3.810E-06,0.188
3.820E-06,0.180
3.830E-06,0.180
3.840E-06,0.176
3.850E-06,0.176
3.860E-06,0.176
3.870E-06,0.172
3.880E-06,0.176
3.890E-06,0.176
3.900E-06,0.172
3.910E-06,0.172
3.920E-06,0.176
3.930E-06,0.176
3.940E-06,0.176
3.950E-06,0.180
3.960E-06,0.176
3.970E-06,0.176
3.980E-06,0.172
3.990E-06,0.176
4.000E-06,0.184
4.010E-06,0.176
4.020E-06,0.176
4.030E-06,0.168
4.040E-06,0.172
4.050E-06,0.180
4.060E-06,0.180
4.070E-06,0.176
4.080E-06,0.184
4.090E-06,0.176
4.100E-06,0.176
4.110E-06,0.180
4.120E-06,0.176
4.130E-06,0.172
4.140E-06,0.176
4.150E-06,0.172
4.160E-06,0.176
4.170E-06,0.172
4.180E-06,0.172
4.190E-06,0.168
4.200E-06,0.168
4.210E-06,0.160
4.220E-06,0.156
4.230E-06,0.160
4.240E-06,0.160
4.250E-06,0.160
4.260E-06,0.160
4.270E-06,0.164
4.280E-06,0.164
4.290E-06,0.164
4.300E-06,0.164
4.310E-06,0.160
4.320E-06,0.164
4.330E-06,0.156
4.340E-06,0.156
4.350E-06,0.156
4.360E-06,0.156
4.370E-06,0.156
4.380E-06,0.160
4.390E-06,0.156
4.400E-06,0.152
4.410E-06,0.156
4.420E-06,0.156
4.430E-06,0.152
4.440E-06,0.152
4.450E-06,0.152
4.460E-06,0.156
4.470E-06,0.156
4.480E-06,0.152
4.490E-06,0.148
4.500E-06,0.140
4.510E-06,0.136
4.520E-06,0.140
4.530E-06,0.152
4.540E-06,0.152
4.550E-06,0.152
4.560E-06,0.156
4.570E-06,0.148
4.580E-06,0.144
4.590E-06,0.136
4.600E-06,0.140
4.610E-06,0.148
4.620E-06,0.156
4.630E-06,0.160
4.640E-06,0.152
4.650E-06,0.144
4.660E-06,0.140
4.670E-06,0.132
4.680E-06,0.140
4.690E-06,0.144
4.700E-06,0.148
4.710E-06,0.152
4.720E-06,0.152
4.730E-06,0.144
4.740E-06,0.144
4.750E-06,0.140
4.760E-06,0.140
4.770E-06,0.144
4.780E-06,0.144
4.790E-06,0.144
4.800E-06,0.144
4.810E-06,0.144
4.820E-06,0.140
4.830E-06,0.136
4.840E-06,0.140
4.850E-06,0.136
4.860E-06,0.140
4.870E-06,0.136
4.880E-06,0.140
4.890E-06,0.144
4.900E-06,0.140
4.910E-06,0.144
4.920E-06,0.136
4.930E-06,0.136
4.940E-06,0.140
4.950E-06,0.140
4.960E-06,0.140
4.970E-06,0.136
4.980E-06,0.136
4.990E-06,0.132
5.000E-06,0.128
5.010E-06,0.128
5.020E-06,0.128
5.030E-06,0.132
5.040E-06,0.140
5.050E-06,0.140
5.060E-06,0.136
5.070E-06,0.128
5.080E-06,0.128
5.090E-06,0.128
5.100E-06,0.128
5.110E-06,0.128
5.120E-06,0.128
5.130E-06,0.128
5.140E-06,0.124
5.150E-06,0.120
5.160E-06,0.120
5.170E-06,0.116
5.180E-06,0.116
5.190E-06,0.120
5.200E-06,0.120
5.210E-06,0.124
5.220E-06,0.124
5.230E-06,0.116
5.240E-06,0.116
5.250E-06,0.116
5.260E-06,0.116
5.270E-06,0.120
5.280E-06,0.124
5.290E-06,0.128
5.300E-06,0.124
5.310E-06,0.112
5.320E-06,0.112
5.330E-06,0.112
5.340E-06,0.112
5.350E-06,0.120
5.360E-06,0.120
5.370E-06,0.120
5.380E-06,0.120
5.390E-06,0.112
5.400E-06,0.112
5.410E-06,0.112
5.420E-06,0.112
5.430E-06,0.112
5.440E-06,0.108
5.450E-06,0.104
5.460E-06,0.108
5.470E-06,0.108
5.480E-06,0.104
5.490E-06,0.108
5.500E-06,0.108
5.510E-06,0.104
5.520E-06,0.108
5.530E-06,0.108
5.540E-06,0.104
5.550E-06,0.104
5.560E-06,0.108
5.570E-06,0.108
5.580E-06,0.112
5.590E-06,0.112
5.600E-06,0.108
5.610E-06,0.108
5.620E-06,0.104
5.630E-06,0.100
5.640E-06,0.104
5.650E-06,0.108
5.660E-06,0.112
5.670E-06,0.108
5.680E-06,0.104
5.690E-06,0.096
5.700E-06,0.096
5.710E-06,0.096
5.720E-06,0.096
5.730E-06,0.104
5.740E-06,0.100
5.750E-06,0.100
5.760E-06,0.100
5.770E-06,0.096
5.780E-06,0.092
5.790E-06,0.100
5.800E-06,0.092
5.810E-06,0.096
5.820E-06,0.100
5.830E-06,0.096
5.840E-06,0.100
5.850E-06,0.096
5.860E-06,0.096
5.870E-06,0.092
5.880E-06,0.096
5.890E-06,0.096
5.900E-06,0.092
5.910E-06,0.096
5.920E-06,0.096
5.930E-06,0.092
5.940E-06,0.092
5.950E-06,0.088
5.960E-06,0.092
5.970E-06,0.092
5.980E-06,0.092
5.990E-06,0.088
6.000E-06,0.092
6.010E-06,0.088
6.020E-06,0.088
6.030E-06,0.092
6.040E-06,0.088
6.050E-06,0.088
6.060E-06,0.092
6.070E-06,0.092
6.080E-06,0.088
6.090E-06,0.088
6.100E-06,0.088
6.110E-06,0.088
6.120E-06,0.084
6.130E-06,0.080
6.140E-06,0.076
6.150E-06,0.084
6.160E-06,0.076
6.170E-06,0.088
6.180E-06,0.084
6.190E-06,0.088
6.200E-06,0.084
6.210E-06,0.088
6.220E-06,0.076
6.230E-06,0.084
6.240E-06,0.080
6.250E-06,0.076
6.260E-06,0.072
6.270E-06,0.072
6.280E-06,0.080
6.290E-06,0.080
6.300E-06,0.080
6.310E-06,0.076
6.320E-06,0.072
6.330E-06,0.072
6.340E-06,0.072
6.350E-06,0.076
6.360E-06,0.072
6.370E-06,0.080
6.380E-06,0.076
6.390E-06,0.068
6.400E-06,0.076
6.410E-06,0.068
6.420E-06,0.068
6.430E-06,0.076
6.440E-06,0.072
6.450E-06,0.072
6.460E-06,0.068
6.470E-06,0.068
6.480E-06,0.072
6.490E-06,0.076
6.500E-06,0.072
6.510E-06,0.064
6.520E-06,0.068
6.530E-06,0.072
6.540E-06,0.064
6.550E-06,0.072
6.560E-06,0.072
6.570E-06,0.068
6.580E-06,0.064
6.590E-06,0.056
6.600E-06,0.060
6.610E-06,0.060
6.620E-06,0.064
6.630E-06,0.068
6.640E-06,0.068
6.650E-06,0.060
6.660E-06,0.056
6.670E-06,0.056
6.680E-06,0.060
6.690E-06,0.064
6.700E-06,0.064
6.710E-06,0.068
6.720E-06,0.072
6.730E-06,0.068
6.740E-06,0.056
6.750E-06,0.056
6.760E-06,0.056
6.770E-06,0.060
6.780E-06,0.060
6.790E-06,0.060
6.800E-06,0.068
6.810E-06,0.060
6.820E-06,0.064
6.830E-06,0.056
6.840E-06,0.052
6.850E-06,0.056
6.860E-06,0.056
6.870E-06,0.060
6.880E-06,0.060
6.890E-06,0.056
6.900E-06,0.052
6.910E-06,0.056
6.920E-06,0.056
6.930E-06,0.052
6.940E-06,0.052
6.950E-06,0.052
6.960E-06,0.052
6.970E-06,0.048
6.980E-06,0.044
6.990E-06,0.044
7.000E-06,0.052
7.010E-06,0.056
7.020E-06,0.048
7.030E-06,0.048
7.040E-06,0.048
7.050E-06,0.048
7.060E-06,0.040
7.070E-06,0.044
7.080E-06,0.044
7.090E-06,0.044
7.100E-06,0.044
7.110E-06,0.044
7.120E-06,0.048
7.130E-06,0.048
7.140E-06,0.040
7.150E-06,0.040
7.160E-06,0.040
7.170E-06,0.040
7.180E-06,0.044
7.190E-06,0.044
7.200E-06,0.036
7.210E-06,0.040
7.220E-06,0.040
7.230E-06,0.040
7.240E-06,0.036
7.250E-06,0.036
7.260E-06,0.032
7.270E-06,0.040
7.280E-06,0.044
7.290E-06,0.036
7.300E-06,0.040
7.310E-06,0.032
7.320E-06,0.036
7.330E-06,0.040
7.340E-06,0.028
7.350E-06,0.036
7.360E-06,0.032
7.370E-06,0.036
7.380E-06,0.032
7.390E-06,0.028
7.400E-06,0.032
7.410E-06,0.028
7.420E-06,0.032
7.430E-06,0.028
7.440E-06,0.032
7.450E-06,0.028
7.460E-06,0.024
7.470E-06,0.032
7.480E-06,0.028
7.490E-06,0.028
7.500E-06,0.028
7.510E-06,0.028
7.520E-06,0.032
7.530E-06,0.032
7.540E-06,0.032
7.550E-06,0.036
7.560E-06,0.032
7.570E-06,0.028
7.580E-06,0.028
7.590E-06,0.032
7.600E-06,0.028
7.610E-06,0.028
7.620E-06,0.032
7.630E-06,0.036
7.640E-06,0.032
7.650E-06,0.036
7.660E-06,0.024
7.670E-06,0.020
7.680E-06,0.024
7.690E-06,0.020
7.700E-06,0.024
7.710E-06,0.028
7.720E-06,0.028
7.730E-06,0.024
7.740E-06,0.020
7.750E-06,0.024
7.760E-06,0.020
7.770E-06,0.024
7.780E-06,0.028
7.790E-06,0.028
7.800E-06,0.024
7.810E-06,0.028
7.820E-06,0.024
