mediciones/Mediciones filtradas (saque las feas)/6-10/5.8/WaveData5652.csv

#timebase=2000000(ps)
,#voltbase=200000(mv/100)
#size=4000
-4.200E-06,0.000
-4.190E-06,-0.008
-4.180E-06,0.000
-4.170E-06,0.000
-4.160E-06,0.008
-4.150E-06,0.000
-4.140E-06,0.000
-4.130E-06,0.000
-4.120E-06,0.016
-4.110E-06,0.000
-4.100E-06,-0.008
-4.090E-06,0.008
-4.080E-06,-0.008
-4.070E-06,0.000
-4.060E-06,0.000
-4.050E-06,0.000
-4.040E-06,0.000
-4.030E-06,0.000
-4.020E-06,0.000
-4.010E-06,0.000
-4.000E-06,-0.008
-3.990E-06,-0.008
-3.980E-06,0.000
-3.970E-06,-0.008
-3.960E-06,0.000
-3.950E-06,-0.008
-3.940E-06,0.000
-3.930E-06,-0.008
-3.920E-06,0.000
-3.910E-06,0.000
-3.900E-06,0.000
-3.890E-06,0.000
-3.880E-06,-0.008
-3.870E-06,0.000
-3.860E-06,0.008
-3.850E-06,-0.008
-3.840E-06,0.000
-3.830E-06,0.000
-3.820E-06,0.000
-3.810E-06,0.016
-3.800E-06,0.016
-3.790E-06,-0.008
-3.780E-06,-0.008
-3.770E-06,0.000
-3.760E-06,0.000
-3.750E-06,0.000
-3.740E-06,0.000
-3.730E-06,0.000
-3.720E-06,-0.008
-3.710E-06,0.000
-3.700E-06,-0.008
-3.690E-06,0.000
-3.680E-06,-0.008
-3.670E-06,0.000
-3.660E-06,0.000
-3.650E-06,0.000
-3.640E-06,0.000
-3.630E-06,0.000
-3.620E-06,0.000
-3.610E-06,-0.008
-3.600E-06,-0.008
-3.590E-06,0.000
-3.580E-06,-0.008
-3.570E-06,-0.016
-3.560E-06,0.032
-3.550E-06,0.256
-3.540E-06,0.824
-3.530E-06,1.080
-3.520E-06,1.080
-3.510E-06,1.080
-3.500E-06,1.080
-3.490E-06,1.080
-3.480E-06,1.032
-3.470E-06,-0.704
-3.460E-06,-1.048
-3.450E-06,-1.032
-3.440E-06,-1.040
-3.430E-06,-1.048
-3.420E-06,-1.040
-3.410E-06,-1.040
-3.400E-06,-1.040
-3.390E-06,-1.040
-3.380E-06,-1.040
-3.370E-06,-0.728
-3.360E-06,-0.424
-3.350E-06,-0.192
-3.340E-06,0.168
-3.330E-06,0.176
-3.320E-06,0.408
-3.310E-06,0.544
-3.300E-06,0.632
-3.290E-06,0.696
-3.280E-06,0.840
-3.270E-06,0.888
-3.260E-06,0.880
-3.250E-06,1.080
-3.240E-06,1.080
-3.230E-06,1.088
-3.220E-06,1.080
-3.210E-06,1.072
-3.200E-06,0.776
-3.190E-06,0.720
-3.180E-06,0.856
-3.170E-06,0.080
-3.160E-06,-0.200
-3.150E-06,-0.448
-3.140E-06,-0.616
-3.130E-06,-0.584
-3.120E-06,-0.400
-3.110E-06,-0.152
-3.100E-06,0.104
-3.090E-06,0.160
-3.080E-06,0.272
-3.070E-06,0.608
-3.060E-06,0.728
-3.050E-06,0.920
-3.040E-06,1.032
-3.030E-06,0.920
-3.020E-06,0.664
-3.010E-06,0.528
-3.000E-06,0.280
-2.990E-06,0.152
-2.980E-06,0.096
-2.970E-06,-0.104
-2.960E-06,-0.320
-2.950E-06,-0.536
-2.940E-06,-0.888
-2.930E-06,-1.040
-2.920E-06,-1.040
-2.910E-06,-1.048
-2.900E-06,-1.040
-2.890E-06,-1.032
-2.880E-06,-1.040
-2.870E-06,-1.048
-2.860E-06,-1.040
-2.850E-06,-0.992
-2.840E-06,-0.600
-2.830E-06,-0.232
-2.820E-06,0.144
-2.810E-06,0.512
-2.800E-06,0.712
-2.790E-06,0.864
-2.780E-06,0.960
-2.770E-06,1.000
-2.760E-06,1.056
-2.750E-06,1.048
-2.740E-06,0.968
-2.730E-06,0.904
-2.720E-06,0.720
-2.710E-06,0.568
-2.700E-06,0.368
-2.690E-06,0.192
-2.680E-06,-0.016
-2.670E-06,-0.008
-2.660E-06,-0.160
-2.650E-06,-0.056
-2.640E-06,-0.112
-2.630E-06,-0.216
-2.620E-06,-0.200
-2.610E-06,-0.440
-2.600E-06,-0.472
-2.590E-06,-0.576
-2.580E-06,-0.624
-2.570E-06,-0.328
-2.560E-06,-0.200
-2.550E-06,0.080
-2.540E-06,0.296
-2.530E-06,0.408
-2.520E-06,0.472
-2.510E-06,0.536
-2.500E-06,0.680
-2.490E-06,0.808
-2.480E-06,0.992
-2.470E-06,0.840
-2.460E-06,0.760
-2.450E-06,0.576
-2.440E-06,0.384
-2.430E-06,0.712
-2.420E-06,0.088
-2.410E-06,0.192
-2.400E-06,0.720
-2.390E-06,-0.296
-2.380E-06,0.808
-2.370E-06,0.440
-2.360E-06,-0.208
-2.350E-06,0.968
-2.340E-06,-0.312
-2.330E-06,0.408
-2.320E-06,0.592
-2.310E-06,0.616
-2.300E-06,1.088
-2.290E-06,-0.912
-2.280E-06,-0.400
-2.270E-06,-0.848
-2.260E-06,-0.968
-2.250E-06,1.040
-2.240E-06,0.560
-2.230E-06,0.776
-2.220E-06,0.176
-2.210E-06,-0.944
-2.200E-06,-0.632
-2.190E-06,-0.320
-2.180E-06,0.424
-2.170E-06,1.080
-2.160E-06,0.616
-2.150E-06,0.008
-2.140E-06,-0.312
-2.130E-06,-0.712
-2.120E-06,-0.344
-2.110E-06,0.200
-2.100E-06,0.416
-2.090E-06,0.528
-2.080E-06,0.208
-2.070E-06,-0.168
-2.060E-06,-0.368
-2.050E-06,-0.416
-2.040E-06,-0.296
-2.030E-06,-0.168
-2.020E-06,-0.024
-2.010E-06,0.000
-2.000E-06,-0.096
-1.990E-06,-0.208
-1.980E-06,-0.344
-1.970E-06,-0.376
-1.960E-06,-0.224
-1.950E-06,-0.024
-1.940E-06,0.152
-1.930E-06,0.232
-1.920E-06,0.264
-1.910E-06,0.304
-1.900E-06,0.320
-1.890E-06,0.288
-1.880E-06,0.272
-1.870E-06,0.264
-1.860E-06,0.296
-1.850E-06,0.320
-1.840E-06,0.352
-1.830E-06,0.328
-1.820E-06,0.200
-1.810E-06,0.088
-1.800E-06,-0.048
-1.790E-06,-0.096
-1.780E-06,-0.064
-1.770E-06,-0.008
-1.760E-06,0.024
-1.750E-06,0.016
-1.740E-06,-0.096
-1.730E-06,-0.336
-1.720E-06,-0.672
-1.710E-06,-1.032
-1.700E-06,-1.040
-1.690E-06,-1.048
-1.680E-06,-1.032
-1.670E-06,-1.032
-1.660E-06,-0.800
-1.650E-06,0.000
-1.640E-06,0.712
-1.630E-06,1.080
-1.620E-06,1.072
-1.610E-06,1.080
-1.600E-06,1.080
-1.590E-06,1.088
-1.580E-06,1.080
-1.570E-06,1.080
-1.560E-06,1.080
-1.550E-06,1.072
-1.540E-06,1.080
-1.530E-06,1.080
-1.520E-06,1.000
-1.510E-06,0.544
-1.500E-06,-0.008
-1.490E-06,-0.288
-1.480E-06,-0.456
-1.470E-06,-0.528
-1.460E-06,-0.248
-1.450E-06,-0.680
-1.440E-06,-0.928
-1.430E-06,-0.904
-1.420E-06,-1.016
-1.410E-06,-0.808
-1.400E-06,-0.336
-1.390E-06,0.040
-1.380E-06,0.288
-1.370E-06,0.304
-1.360E-06,0.224
-1.350E-06,0.312
-1.340E-06,0.352
-1.330E-06,0.624
-1.320E-06,0.984
-1.310E-06,1.040
-1.300E-06,1.080
-1.290E-06,0.880
-1.280E-06,0.560
-1.270E-06,0.392
-1.260E-06,0.088
-1.250E-06,0.000
-1.240E-06,0.000
-1.230E-06,-0.200
-1.220E-06,-0.176
-1.210E-06,-0.368
-1.200E-06,-0.456
-1.190E-06,-0.448
-1.180E-06,-0.504
-1.170E-06,-0.328
-1.160E-06,-0.176
-1.150E-06,-0.088
-1.140E-06,0.064
-1.130E-06,0.160
-1.120E-06,0.288
-1.110E-06,0.520
-1.100E-06,0.672
-1.090E-06,0.808
-1.080E-06,0.904
-1.070E-06,0.888
-1.060E-06,0.896
-1.050E-06,0.896
-1.040E-06,0.936
-1.030E-06,0.872
-1.020E-06,0.800
-1.010E-06,0.632
-1.000E-06,0.360
-9.900E-07,0.232
-9.800E-07,-0.008
-9.700E-07,-0.144
-9.600E-07,-0.296
-9.500E-07,-0.480
-9.400E-07,-0.632
-9.300E-07,-0.672
-9.200E-07,-0.680
-9.100E-07,-0.576
-9.000E-07,-0.416
-8.900E-07,-0.288
-8.800E-07,-0.200
-8.700E-07,-0.080
-8.600E-07,-0.008
-8.500E-07,0.136
-8.400E-07,0.304
-8.300E-07,0.432
-8.200E-07,0.600
-8.100E-07,0.696
-8.000E-07,0.776
-7.900E-07,0.672
-7.800E-07,0.776
-7.700E-07,0.552
-7.600E-07,0.528
-7.500E-07,0.568
-7.400E-07,0.336
-7.300E-07,0.512
-7.200E-07,0.200
-7.100E-07,0.000
-7.000E-07,0.000
-6.900E-07,-0.120
-6.800E-07,0.000
-6.700E-07,0.216
-6.600E-07,0.216
-6.500E-07,0.200
-6.400E-07,0.096
-6.300E-07,0.016
-6.200E-07,-0.088
-6.100E-07,0.104
-6.000E-07,0.216
-5.900E-07,0.384
-5.800E-07,0.512
-5.700E-07,0.400
-5.600E-07,0.448
-5.500E-07,0.488
-5.400E-07,0.408
-5.300E-07,0.648
-5.200E-07,0.736
-5.100E-07,0.728
-5.000E-07,0.752
-4.900E-07,0.616
-4.800E-07,0.488
-4.700E-07,0.416
-4.600E-07,0.384
-4.500E-07,0.376
-4.400E-07,0.368
-4.300E-07,0.336
-4.200E-07,0.224
-4.100E-07,0.144
-4.000E-07,0.096
-3.900E-07,0.032
-3.800E-07,0.000
-3.700E-07,-0.032
-3.600E-07,-0.064
-3.500E-07,-0.064
-3.400E-07,-0.088
-3.300E-07,-0.048
-3.200E-07,0.000
-3.100E-07,-0.024
-3.000E-07,-0.008
-2.900E-07,-0.104
-2.800E-07,-0.112
-2.700E-07,-0.128
-2.600E-07,-0.152
-2.500E-07,-0.120
-2.400E-07,-0.184
-2.300E-07,-0.136
-2.200E-07,-0.216
-2.100E-07,-0.160
-2.000E-07,-0.256
-1.900E-07,-0.112
-1.800E-07,-0.128
-1.700E-07,-0.152
-1.600E-07,-0.208
-1.500E-07,0.448
-1.400E-07,0.296
-1.300E-07,0.464
-1.200E-07,0.400
-1.100E-07,-0.176
-1.000E-07,0.640
-9.000E-08,-0.416
-8.000E-08,-1.000
-7.000E-08,0.400
-6.000E-08,-1.040
-5.000E-08,1.080
-4.000E-08,0.104
-3.000E-08,-0.600
-2.000E-08,-0.856
-1.000E-08,-1.032
0.000E+00,-0.912
1.000E-08,0.328
2.000E-08,1.080
3.000E-08,1.072
4.000E-08,1.080
5.000E-08,0.544
6.000E-08,0.104
7.000E-08,-0.552
8.000E-08,-0.576
9.000E-08,0.432
1.000E-07,0.768
1.100E-07,0.992
1.200E-07,0.880
1.300E-07,0.576
1.400E-07,-0.160
1.500E-07,-0.096
1.600E-07,-0.496
1.700E-07,-0.504
1.800E-07,-0.112
1.900E-07,-0.424
2.000E-07,0.200
2.100E-07,0.128
2.200E-07,0.064
2.300E-07,0.280
2.400E-07,-0.128
2.500E-07,-0.008
2.600E-07,-0.112
2.700E-07,-0.424
2.800E-07,-0.336
2.900E-07,-0.336
3.000E-07,0.152
3.100E-07,0.720
3.200E-07,0.952
3.300E-07,0.904
3.400E-07,0.440
3.500E-07,-0.032
3.600E-07,-0.256
3.700E-07,-0.112
3.800E-07,0.008
3.900E-07,0.296
4.000E-07,0.448
4.100E-07,0.384
4.200E-07,0.312
4.300E-07,-0.120
4.400E-07,-0.320
4.500E-07,-0.480
4.600E-07,-0.352
4.700E-07,-0.064
4.800E-07,0.280
4.900E-07,0.376
5.000E-07,0.352
5.100E-07,0.320
5.200E-07,0.208
5.300E-07,0.200
5.400E-07,0.312
5.500E-07,0.400
5.600E-07,0.608
5.700E-07,0.688
5.800E-07,0.608
5.900E-07,0.504
6.000E-07,0.344
6.100E-07,0.296
6.200E-07,0.288
6.300E-07,0.352
6.400E-07,0.384
6.500E-07,0.328
6.600E-07,0.328
6.700E-07,0.288
6.800E-07,0.200
6.900E-07,0.016
7.000E-07,-0.136
7.100E-07,0.264
7.200E-07,-0.664
7.300E-07,-0.768
7.400E-07,0.416
7.500E-07,-0.136
7.600E-07,-1.040
7.700E-07,-1.048
7.800E-07,-1.040
7.900E-07,-1.032
8.000E-07,0.904
8.100E-07,0.336
8.200E-07,1.080
8.300E-07,1.088
8.400E-07,0.000
8.500E-07,0.496
8.600E-07,0.200
8.700E-07,1.072
8.800E-07,1.080
8.900E-07,1.080
9.000E-07,1.080
9.100E-07,1.088
9.200E-07,-0.064
9.300E-07,0.232
9.400E-07,0.464
9.500E-07,0.712
9.600E-07,0.832
9.700E-07,0.520
9.800E-07,-0.344
9.900E-07,-0.728
1.000E-06,-1.048
1.010E-06,-1.040
1.020E-06,-1.032
1.030E-06,-0.680
1.040E-06,-0.216
1.050E-06,-0.032
1.060E-06,0.040
1.070E-06,-0.344
1.080E-06,-0.496
1.090E-06,-0.416
1.100E-06,0.168
1.110E-06,0.384
1.120E-06,0.600
1.130E-06,0.728
1.140E-06,0.752
1.150E-06,0.792
1.160E-06,0.648
1.170E-06,0.304
1.180E-06,0.096
1.190E-06,-0.064
1.200E-06,0.144
1.210E-06,0.296
1.220E-06,0.304
1.230E-06,0.104
1.240E-06,-0.432
1.250E-06,-0.408
1.260E-06,-0.496
1.270E-06,-0.384
1.280E-06,-0.096
1.290E-06,0.088
1.300E-06,0.216
1.310E-06,0.336
1.320E-06,0.280
1.330E-06,0.264
1.340E-06,0.472
1.350E-06,0.624
1.360E-06,0.976
1.370E-06,1.008
1.380E-06,1.000
1.390E-06,0.864
1.400E-06,0.808
1.410E-06,0.712
1.420E-06,0.592
1.430E-06,0.368
1.440E-06,0.112
1.450E-06,-0.096
1.460E-06,-0.168
1.470E-06,-0.224
1.480E-06,-0.288
1.490E-06,-0.400
1.500E-06,-0.568
1.510E-06,-0.704
1.520E-06,-0.856
1.530E-06,-0.840
1.540E-06,-0.808
1.550E-06,-0.664
1.560E-06,-0.424
1.570E-06,-0.240
1.580E-06,-0.072
1.590E-06,-0.048
1.600E-06,-0.064
1.610E-06,-0.016
1.620E-06,0.104
1.630E-06,0.240
1.640E-06,0.304
1.650E-06,0.328
1.660E-06,0.320
1.670E-06,0.248
1.680E-06,0.288
1.690E-06,0.200
1.700E-06,0.120
1.710E-06,0.008
1.720E-06,-0.024
1.730E-06,-0.128
1.740E-06,-0.184
1.750E-06,-0.104
1.760E-06,-0.200
1.770E-06,-0.152
1.780E-06,-0.176
1.790E-06,-0.288
1.800E-06,-0.288
1.810E-06,-0.296
1.820E-06,-0.232
1.830E-06,-0.064
1.840E-06,-0.024
1.850E-06,-0.032
1.860E-06,0.024
1.870E-06,0.080
1.880E-06,0.168
1.890E-06,0.152
1.900E-06,0.104
1.910E-06,-0.016
1.920E-06,-0.120
1.930E-06,-0.096
1.940E-06,-0.224
1.950E-06,-0.296
1.960E-06,-0.216
1.970E-06,-0.344
1.980E-06,-0.064
1.990E-06,0.280
2.000E-06,0.424
2.010E-06,0.744
2.020E-06,0.824
2.030E-06,0.800
2.040E-06,1.080
2.050E-06,0.936
2.060E-06,0.912
2.070E-06,0.680
2.080E-06,0.424
2.090E-06,0.160
2.100E-06,0.040
2.110E-06,0.032
2.120E-06,0.152
2.130E-06,0.360
2.140E-06,0.536
2.150E-06,0.592
2.160E-06,0.536
2.170E-06,0.272
2.180E-06,0.064
2.190E-06,-0.120
2.200E-06,-0.208
2.210E-06,-0.272
2.220E-06,-0.312
2.230E-06,-0.400
2.240E-06,-0.544
2.250E-06,-0.728
2.260E-06,-0.928
2.270E-06,-1.040
2.280E-06,-1.040
2.290E-06,-1.040
2.300E-06,-1.040
2.310E-06,-1.000
2.320E-06,-0.944
2.330E-06,-0.896
2.340E-06,-0.864
2.350E-06,-0.824
2.360E-06,-0.800
2.370E-06,-0.760
2.380E-06,-0.720
2.390E-06,-0.696
2.400E-06,-0.648
2.410E-06,-0.632
2.420E-06,-0.648
2.430E-06,-0.648
2.440E-06,-0.664
2.450E-06,-0.656
2.460E-06,-0.632
2.470E-06,-0.608
2.480E-06,-0.600
2.490E-06,-0.600
2.500E-06,-0.632
2.510E-06,-0.728
2.520E-06,-0.872
2.530E-06,-1.032
2.540E-06,-1.040
2.550E-06,-1.040
2.560E-06,-1.048
2.570E-06,-1.040
2.580E-06,-1.032
2.590E-06,-1.032
2.600E-06,-1.040
2.610E-06,-1.032
2.620E-06,-1.040
2.630E-06,-1.048
2.640E-06,-1.040
2.650E-06,-1.032
2.660E-06,-1.040
2.670E-06,-1.048
2.680E-06,-1.048
2.690E-06,-1.032
2.700E-06,-1.032
2.710E-06,-1.040
2.720E-06,-1.040
2.730E-06,-1.048
2.740E-06,-1.040
2.750E-06,-1.032
2.760E-06,-1.040
2.770E-06,-1.032
2.780E-06,-1.040
2.790E-06,-1.040
2.800E-06,-1.040
2.810E-06,-1.040
2.820E-06,-1.040
2.830E-06,-1.040
2.840E-06,-1.048
2.850E-06,-1.040
2.860E-06,-1.032
2.870E-06,-1.040
2.880E-06,-1.032
2.890E-06,-1.040
2.900E-06,-1.048
2.910E-06,-1.048
2.920E-06,-1.048
2.930E-06,-1.032
2.940E-06,-1.040
2.950E-06,-1.048
2.960E-06,-0.992
2.970E-06,-0.904
2.980E-06,-0.792
2.990E-06,-0.688
3.000E-06,-0.592
3.010E-06,-0.528
3.020E-06,-0.464
3.030E-06,-0.408
3.040E-06,-0.376
3.050E-06,-0.336
3.060E-06,-0.296
3.070E-06,-0.272
3.080E-06,-0.216
3.090E-06,-0.200
3.100E-06,-0.192
3.110E-06,-0.208
3.120E-06,-0.208
3.130E-06,-0.232
3.140E-06,-0.256
3.150E-06,-0.280
3.160E-06,-0.320
3.170E-06,-0.360
3.180E-06,-0.416
3.190E-06,-0.440
3.200E-06,-0.424
3.210E-06,-0.408
3.220E-06,-0.384
3.230E-06,-0.352
3.240E-06,-0.328
3.250E-06,-0.312
3.260E-06,-0.296
3.270E-06,-0.232
3.280E-06,-0.200
3.290E-06,-0.136
3.300E-06,-0.080
3.310E-06,-0.040
3.320E-06,-0.008
3.330E-06,0.024
3.340E-06,0.032
3.350E-06,0.056
3.360E-06,0.048
3.370E-06,0.000
3.380E-06,-0.048
3.390E-06,-0.128
3.400E-06,-0.208
3.410E-06,-0.304
3.420E-06,-0.328
3.430E-06,-0.400
3.440E-06,-0.416
3.450E-06,-0.416
3.460E-06,-0.456
3.470E-06,-0.464
3.480E-06,-0.440
3.490E-06,-0.424
3.500E-06,-0.408
3.510E-06,-0.336
3.520E-06,-0.280
3.530E-06,-0.200
3.540E-06,-0.160
3.550E-06,-0.128
3.560E-06,-0.080
3.570E-06,-0.032
3.580E-06,0.064
3.590E-06,0.104
3.600E-06,0.160
3.610E-06,0.208
3.620E-06,0.192
3.630E-06,0.200
3.640E-06,0.208
3.650E-06,0.144
3.660E-06,0.064
3.670E-06,0.008
3.680E-06,-0.088
3.690E-06,-0.088
3.700E-06,-0.112
3.710E-06,-0.160
3.720E-06,-0.176
3.730E-06,-0.224
3.740E-06,-0.288
3.750E-06,-0.288
3.760E-06,-0.264
3.770E-06,-0.264
3.780E-06,-0.256
3.790E-06,-0.272
3.800E-06,-0.288
3.810E-06,-0.264
3.820E-06,-0.264
3.830E-06,-0.256
3.840E-06,-0.256
3.850E-06,-0.264
3.860E-06,-0.240
3.870E-06,-0.264
3.880E-06,-0.248
3.890E-06,-0.216
3.900E-06,-0.240
3.910E-06,-0.224
3.920E-06,-0.200
3.930E-06,-0.192
3.940E-06,-0.152
3.950E-06,-0.128
3.960E-06,-0.088
3.970E-06,-0.040
3.980E-06,0.008
3.990E-06,0.080
4.000E-06,0.080
4.010E-06,0.104
4.020E-06,0.072
4.030E-06,0.024
4.040E-06,0.024
4.050E-06,0.000
4.060E-06,0.008
4.070E-06,0.024
4.080E-06,-0.008
4.090E-06,-0.008
4.100E-06,-0.016
4.110E-06,-0.008
4.120E-06,-0.016
4.130E-06,-0.016
4.140E-06,-0.032
4.150E-06,-0.032
4.160E-06,-0.048
4.170E-06,-0.048
4.180E-06,-0.056
4.190E-06,-0.056
4.200E-06,-0.048
4.210E-06,-0.024
4.220E-06,-0.024
4.230E-06,-0.024
4.240E-06,-0.024
4.250E-06,-0.016
4.260E-06,-0.024
4.270E-06,-0.048
4.280E-06,-0.080
4.290E-06,-0.136
4.300E-06,-0.200
4.310E-06,-0.256
4.320E-06,-0.296
4.330E-06,-0.320
4.340E-06,-0.360
4.350E-06,-0.368
4.360E-06,-0.336
4.370E-06,-0.304
4.380E-06,-0.224
4.390E-06,-0.120
4.400E-06,-0.024
4.410E-06,0.096
4.420E-06,0.168
4.430E-06,0.216
4.440E-06,0.280
4.450E-06,0.264
4.460E-06,0.280
4.470E-06,0.256
4.480E-06,0.232
4.490E-06,0.192
4.500E-06,0.112
4.510E-06,-0.016
4.520E-06,-0.144
4.530E-06,-0.304
4.540E-06,-0.408
4.550E-06,-0.496
4.560E-06,-0.592
4.570E-06,-0.664
4.580E-06,-0.760
4.590E-06,-0.816
4.600E-06,-0.816
4.610E-06,-0.824
4.620E-06,-0.800
4.630E-06,-0.696
4.640E-06,-0.584
4.650E-06,-0.408
4.660E-06,-0.160
4.670E-06,0.064
4.680E-06,0.272
4.690E-06,0.432
4.700E-06,0.544
4.710E-06,0.576
4.720E-06,0.576
4.730E-06,0.520
4.740E-06,0.512
4.750E-06,0.480
4.760E-06,0.424
4.770E-06,0.368
4.780E-06,0.240
4.790E-06,0.120
4.800E-06,0.104
4.810E-06,0.120
4.820E-06,0.128
4.830E-06,0.096
4.840E-06,0.000
4.850E-06,-0.072
4.860E-06,-0.136
4.870E-06,-0.168
4.880E-06,-0.200
4.890E-06,-0.200
4.900E-06,-0.168
4.910E-06,-0.168
4.920E-06,-0.120
4.930E-06,-0.136
4.940E-06,-0.192
4.950E-06,-0.216
4.960E-06,-0.328
4.970E-06,-0.376
4.980E-06,-0.352
4.990E-06,-0.288
5.000E-06,-0.168
5.010E-06,-0.008
5.020E-06,0.160
5.030E-06,0.296
5.040E-06,0.432
5.050E-06,0.528
5.060E-06,0.568
5.070E-06,0.600
5.080E-06,0.568
5.090E-06,0.536
5.100E-06,0.456
5.110E-06,0.368
5.120E-06,0.296
5.130E-06,0.224
5.140E-06,0.184
5.150E-06,0.160
5.160E-06,0.136
5.170E-06,0.136
5.180E-06,0.152
5.190E-06,0.184
5.200E-06,0.232
5.210E-06,0.304
5.220E-06,0.360
5.230E-06,0.400
5.240E-06,0.472
5.250E-06,0.480
5.260E-06,0.496
5.270E-06,0.472
5.280E-06,0.432
5.290E-06,0.408
5.300E-06,0.392
5.310E-06,0.368
5.320E-06,0.368
5.330E-06,0.368
5.340E-06,0.368
5.350E-06,0.360
5.360E-06,0.352
5.370E-06,0.344
5.380E-06,0.344
5.390E-06,0.344
5.400E-06,0.328
5.410E-06,0.304
5.420E-06,0.256
5.430E-06,0.232
5.440E-06,0.192
5.450E-06,0.160
5.460E-06,0.136
5.470E-06,0.088
5.480E-06,0.024
5.490E-06,-0.088
5.500E-06,-0.200
5.510E-06,-0.320
5.520E-06,-0.416
5.530E-06,-0.464
5.540E-06,-0.464
5.550E-06,-0.424
5.560E-06,-0.344
5.570E-06,-0.264
5.580E-06,-0.184
5.590E-06,-0.120
5.600E-06,-0.088
5.610E-06,-0.024
5.620E-06,0.000
5.630E-06,0.016
5.640E-06,0.032
5.650E-06,0.072
5.660E-06,0.088
5.670E-06,0.112
5.680E-06,0.144
5.690E-06,0.168
5.700E-06,0.192
5.710E-06,0.240
5.720E-06,0.312
5.730E-06,0.416
5.740E-06,0.528
5.750E-06,0.608
5.760E-06,0.680
5.770E-06,0.720
5.780E-06,0.736
5.790E-06,0.728
5.800E-06,0.688
5.810E-06,0.648
5.820E-06,0.608
5.830E-06,0.544
5.840E-06,0.496
5.850E-06,0.424
5.860E-06,0.384
5.870E-06,0.336
5.880E-06,0.280
5.890E-06,0.240
5.900E-06,0.216
5.910E-06,0.216
5.920E-06,0.232
5.930E-06,0.232
5.940E-06,0.264
5.950E-06,0.272
5.960E-06,0.216
5.970E-06,0.160
5.980E-06,0.096
5.990E-06,0.056
6.000E-06,0.024
6.010E-06,0.016
6.020E-06,0.064
6.030E-06,0.104
6.040E-06,0.152
6.050E-06,0.200
6.060E-06,0.224
6.070E-06,0.248
6.080E-06,0.288
6.090E-06,0.312
6.100E-06,0.368
6.110E-06,0.440
6.120E-06,0.528
6.130E-06,0.632
6.140E-06,0.720
6.150E-06,0.808
6.160E-06,0.896
6.170E-06,0.936
6.180E-06,0.976
6.190E-06,1.000
6.200E-06,0.992
6.210E-06,0.960
6.220E-06,0.920
6.230E-06,0.856
6.240E-06,0.824
6.250E-06,0.800
6.260E-06,0.832
6.270E-06,0.904
6.280E-06,0.960
6.290E-06,1.032
6.300E-06,1.072
6.310E-06,1.064
6.320E-06,1.056
6.330E-06,1.008
6.340E-06,1.000
6.350E-06,1.016
6.360E-06,1.088
6.370E-06,1.080
6.380E-06,1.080
6.390E-06,1.088
6.400E-06,1.088
6.410E-06,1.080
6.420E-06,1.080
6.430E-06,1.088
6.440E-06,1.088
6.450E-06,1.080
6.460E-06,1.088
6.470E-06,1.080
6.480E-06,1.072
6.490E-06,1.080
6.500E-06,1.080
6.510E-06,1.080
6.520E-06,1.080
6.530E-06,1.080
6.540E-06,1.080
6.550E-06,1.080
6.560E-06,1.080
6.570E-06,1.072
6.580E-06,1.080
6.590E-06,1.024
6.600E-06,0.880
6.610E-06,0.800
6.620E-06,0.744
6.630E-06,0.736
6.640E-06,0.688
6.650E-06,0.584
6.660E-06,0.512
6.670E-06,0.424
6.680E-06,0.352
6.690E-06,0.280
6.700E-06,0.232
6.710E-06,0.208
6.720E-06,0.200
6.730E-06,0.200
6.740E-06,0.192
6.750E-06,0.216
6.760E-06,0.224
6.770E-06,0.248
6.780E-06,0.280
6.790E-06,0.328
6.800E-06,0.384
6.810E-06,0.440
6.820E-06,0.456
6.830E-06,0.496
6.840E-06,0.512
6.850E-06,0.520
6.860E-06,0.512
6.870E-06,0.504
6.880E-06,0.496
6.890E-06,0.456
6.900E-06,0.440
6.910E-06,0.416
6.920E-06,0.384
6.930E-06,0.368
6.940E-06,0.352
6.950E-06,0.344
6.960E-06,0.328
6.970E-06,0.336
6.980E-06,0.336
6.990E-06,0.336
7.000E-06,0.336
7.010E-06,0.328
7.020E-06,0.296
7.030E-06,0.280
7.040E-06,0.240
7.050E-06,0.224
7.060E-06,0.200
7.070E-06,0.192
7.080E-06,0.208
7.090E-06,0.216
7.100E-06,0.248
7.110E-06,0.256
7.120E-06,0.264
7.130E-06,0.264
7.140E-06,0.256
7.150E-06,0.224
7.160E-06,0.216
7.170E-06,0.216
7.180E-06,0.200
7.190E-06,0.208
7.200E-06,0.240
7.210E-06,0.280
7.220E-06,0.320
7.230E-06,0.360
7.240E-06,0.400
7.250E-06,0.416
7.260E-06,0.440
7.270E-06,0.448
7.280E-06,0.440
7.290E-06,0.432
7.300E-06,0.432
7.310E-06,0.416
7.320E-06,0.384
7.330E-06,0.336
7.340E-06,0.272
7.350E-06,0.192
7.360E-06,0.152
7.370E-06,0.112
7.380E-06,0.080
7.390E-06,0.064
7.400E-06,0.064
7.410E-06,0.056
7.420E-06,0.048
7.430E-06,0.064
7.440E-06,0.080
7.450E-06,0.096
7.460E-06,0.104
7.470E-06,0.112
7.480E-06,0.104
7.490E-06,0.096
7.500E-06,0.072
7.510E-06,0.040
7.520E-06,0.032
7.530E-06,0.040
7.540E-06,0.040
7.550E-06,0.064
7.560E-06,0.088
7.570E-06,0.112
7.580E-06,0.152
7.590E-06,0.168
7.600E-06,0.208
7.610E-06,0.224
7.620E-06,0.240
7.630E-06,0.248
7.640E-06,0.240
7.650E-06,0.240
7.660E-06,0.232
7.670E-06,0.224
