mediciones/Mediciones filtradas (saque las feas)/6-10/5.8/WaveData5649.csv

#timebase=2000000(ps)
,#voltbase=100000(mv/100)
#size=4000
-4.200E-06,-0.004
-4.190E-06,0.000
-4.180E-06,0.000
-4.170E-06,0.000
-4.160E-06,0.004
-4.150E-06,0.012
-4.140E-06,0.004
-4.130E-06,-0.004
-4.120E-06,-0.004
-4.110E-06,0.008
-4.100E-06,0.000
-4.090E-06,0.008
-4.080E-06,0.004
-4.070E-06,0.000
-4.060E-06,0.000
-4.050E-06,0.004
-4.040E-06,0.004
-4.030E-06,0.000
-4.020E-06,-0.004
-4.010E-06,-0.004
-4.000E-06,-0.004
-3.990E-06,0.000
-3.980E-06,0.012
-3.970E-06,0.012
-3.960E-06,0.008
-3.950E-06,0.004
-3.940E-06,0.004
-3.930E-06,-0.004
-3.920E-06,-0.004
-3.910E-06,0.004
-3.900E-06,0.008
-3.890E-06,0.008
-3.880E-06,0.012
-3.870E-06,0.012
-3.860E-06,0.008
-3.850E-06,0.012
-3.840E-06,0.008
-3.830E-06,0.004
-3.820E-06,-0.004
-3.810E-06,-0.004
-3.800E-06,-0.008
-3.790E-06,-0.004
-3.780E-06,0.000
-3.770E-06,0.008
-3.760E-06,0.008
-3.750E-06,0.012
-3.740E-06,0.012
-3.730E-06,0.008
-3.720E-06,0.012
-3.710E-06,0.004
-3.700E-06,-0.004
-3.690E-06,0.004
-3.680E-06,0.000
-3.670E-06,0.000
-3.660E-06,0.012
-3.650E-06,0.000
-3.640E-06,0.000
-3.630E-06,-0.004
-3.620E-06,0.000
-3.610E-06,0.000
-3.600E-06,0.000
-3.590E-06,0.008
-3.580E-06,0.008
-3.570E-06,0.008
-3.560E-06,0.008
-3.550E-06,0.000
-3.540E-06,-0.004
-3.530E-06,-0.008
-3.520E-06,0.004
-3.510E-06,0.004
-3.500E-06,0.004
-3.490E-06,0.012
-3.480E-06,0.012
-3.470E-06,0.004
-3.460E-06,-0.008
-3.450E-06,0.000
-3.440E-06,-0.004
-3.430E-06,0.000
-3.420E-06,0.004
-3.410E-06,0.020
-3.400E-06,0.008
-3.390E-06,0.008
-3.380E-06,0.008
-3.370E-06,-0.012
-3.360E-06,-0.012
-3.350E-06,-0.004
-3.340E-06,0.008
-3.330E-06,0.008
-3.320E-06,0.012
-3.310E-06,0.008
-3.300E-06,0.000
-3.290E-06,-0.004
-3.280E-06,0.000
-3.270E-06,0.004
-3.260E-06,0.004
-3.250E-06,0.024
-3.240E-06,-0.004
-3.230E-06,0.008
-3.220E-06,-0.004
-3.210E-06,0.000
-3.200E-06,0.000
-3.190E-06,0.008
-3.180E-06,0.008
-3.170E-06,0.004
-3.160E-06,0.004
-3.150E-06,0.004
-3.140E-06,0.008
-3.130E-06,0.012
-3.120E-06,0.012
-3.110E-06,0.000
-3.100E-06,0.008
-3.090E-06,0.004
-3.080E-06,0.000
-3.070E-06,-0.008
-3.060E-06,-0.008
-3.050E-06,-0.008
-3.040E-06,-0.008
-3.030E-06,0.004
-3.020E-06,0.008
-3.010E-06,0.016
-3.000E-06,0.016
-2.990E-06,0.004
-2.980E-06,0.004
-2.970E-06,0.000
-2.960E-06,-0.016
-2.950E-06,-0.032
-2.940E-06,-0.044
-2.930E-06,0.056
-2.920E-06,-0.036
-2.910E-06,0.024
-2.900E-06,0.020
-2.890E-06,0.024
-2.880E-06,-0.008
-2.870E-06,0.044
-2.860E-06,-0.020
-2.850E-06,-0.032
-2.840E-06,-0.040
-2.830E-06,0.032
-2.820E-06,0.044
-2.810E-06,0.032
-2.800E-06,0.028
-2.790E-06,-0.016
-2.780E-06,-0.004
-2.770E-06,-0.012
-2.760E-06,0.012
-2.750E-06,-0.004
-2.740E-06,0.028
-2.730E-06,0.020
-2.720E-06,0.020
-2.710E-06,0.004
-2.700E-06,-0.004
-2.690E-06,-0.016
-2.680E-06,-0.004
-2.670E-06,0.024
-2.660E-06,0.024
-2.650E-06,0.036
-2.640E-06,0.020
-2.630E-06,0.008
-2.620E-06,-0.004
-2.610E-06,-0.008
-2.600E-06,-0.008
-2.590E-06,0.016
-2.580E-06,0.028
-2.570E-06,0.028
-2.560E-06,0.028
-2.550E-06,0.004
-2.540E-06,0.004
-2.530E-06,0.008
-2.520E-06,0.012
-2.510E-06,0.028
-2.500E-06,0.028
-2.490E-06,0.036
-2.480E-06,0.028
-2.470E-06,0.028
-2.460E-06,0.044
-2.450E-06,0.048
-2.440E-06,0.044
-2.430E-06,0.032
-2.420E-06,0.024
-2.410E-06,0.008
-2.400E-06,0.004
-2.390E-06,0.016
-2.380E-06,0.028
-2.370E-06,0.036
-2.360E-06,0.040
-2.350E-06,0.036
-2.340E-06,0.028
-2.330E-06,0.008
-2.320E-06,-0.008
-2.310E-06,-0.036
-2.300E-06,-0.044
-2.290E-06,-0.040
-2.280E-06,0.004
-2.270E-06,0.044
-2.260E-06,0.044
-2.250E-06,0.032
-2.240E-06,-0.032
-2.230E-06,-0.044
-2.220E-06,-0.064
-2.210E-06,-0.020
-2.200E-06,0.000
-2.190E-06,0.004
-2.180E-06,0.024
-2.170E-06,0.040
-2.160E-06,0.020
-2.150E-06,0.008
-2.140E-06,0.008
-2.130E-06,0.000
-2.120E-06,0.024
-2.110E-06,0.040
-2.100E-06,0.056
-2.090E-06,0.048
-2.080E-06,0.036
-2.070E-06,0.028
-2.060E-06,0.032
-2.050E-06,0.028
-2.040E-06,0.044
-2.030E-06,0.056
-2.020E-06,0.076
-2.010E-06,0.092
-2.000E-06,0.100
-1.990E-06,0.092
-1.980E-06,0.084
-1.970E-06,0.024
-1.960E-06,-0.104
-1.950E-06,-0.184
-1.940E-06,-0.296
-1.930E-06,-0.164
-1.920E-06,-0.044
-1.910E-06,0.068
-1.900E-06,0.160
-1.890E-06,0.124
-1.880E-06,0.000
-1.870E-06,-0.152
-1.860E-06,-0.172
-1.850E-06,-0.136
-1.840E-06,-0.044
-1.830E-06,0.056
-1.820E-06,0.112
-1.810E-06,0.092
-1.800E-06,0.040
-1.790E-06,-0.020
-1.780E-06,-0.064
-1.770E-06,-0.020
-1.760E-06,-0.004
-1.750E-06,0.048
-1.740E-06,0.032
-1.730E-06,0.032
-1.720E-06,0.028
-1.710E-06,0.024
-1.700E-06,0.016
-1.690E-06,0.028
-1.680E-06,0.072
-1.670E-06,0.084
-1.660E-06,0.132
-1.650E-06,0.060
-1.640E-06,0.008
-1.630E-06,-0.076
-1.620E-06,-0.140
-1.610E-06,-0.152
-1.600E-06,-0.136
-1.590E-06,-0.040
-1.580E-06,0.000
-1.570E-06,0.024
-1.560E-06,0.028
-1.550E-06,-0.020
-1.540E-06,-0.024
-1.530E-06,-0.056
-1.520E-06,-0.048
-1.510E-06,-0.032
-1.500E-06,0.004
-1.490E-06,0.032
-1.480E-06,0.036
-1.470E-06,0.020
-1.460E-06,-0.004
-1.450E-06,-0.024
-1.440E-06,-0.040
-1.430E-06,-0.016
-1.420E-06,0.008
-1.410E-06,0.032
-1.400E-06,0.020
-1.390E-06,0.008
-1.380E-06,0.000
-1.370E-06,-0.004
-1.360E-06,0.000
-1.350E-06,0.008
-1.340E-06,0.028
-1.330E-06,0.044
-1.320E-06,0.064
-1.310E-06,0.072
-1.300E-06,0.072
-1.290E-06,0.072
-1.280E-06,0.072
-1.270E-06,0.060
-1.260E-06,0.064
-1.250E-06,0.016
-1.240E-06,-0.008
-1.230E-06,-0.072
-1.220E-06,-0.104
-1.210E-06,-0.124
-1.200E-06,-0.076
-1.190E-06,-0.028
-1.180E-06,0.044
-1.170E-06,0.096
-1.160E-06,0.044
-1.150E-06,-0.004
-1.140E-06,-0.036
-1.130E-06,-0.044
-1.120E-06,-0.036
-1.110E-06,-0.004
-1.100E-06,0.032
-1.090E-06,0.044
-1.080E-06,0.040
-1.070E-06,0.016
-1.060E-06,-0.016
-1.050E-06,-0.028
-1.040E-06,-0.052
-1.030E-06,-0.044
-1.020E-06,-0.028
-1.010E-06,0.012
-1.000E-06,0.064
-9.900E-07,0.072
-9.800E-07,0.072
-9.700E-07,0.028
-9.600E-07,0.008
-9.500E-07,-0.004
-9.400E-07,0.012
-9.300E-07,0.060
-9.200E-07,0.108
-9.100E-07,0.128
-9.000E-07,0.108
-8.900E-07,0.060
-8.800E-07,0.024
-8.700E-07,-0.008
-8.600E-07,-0.008
-8.500E-07,0.008
-8.400E-07,0.020
-8.300E-07,0.060
-8.200E-07,0.032
-8.100E-07,0.028
-8.000E-07,0.012
-7.900E-07,-0.020
-7.800E-07,-0.040
-7.700E-07,-0.072
-7.600E-07,-0.056
-7.500E-07,-0.040
-7.400E-07,-0.028
-7.300E-07,-0.012
-7.200E-07,0.004
-7.100E-07,-0.028
-7.000E-07,-0.024
-6.900E-07,-0.072
-6.800E-07,-0.040
-6.700E-07,-0.068
-6.600E-07,0.004
-6.500E-07,0.032
-6.400E-07,0.052
-6.300E-07,0.020
-6.200E-07,0.032
-6.100E-07,-0.004
-6.000E-07,-0.008
-5.900E-07,0.016
-5.800E-07,0.036
-5.700E-07,0.028
-5.600E-07,0.036
-5.500E-07,0.028
-5.400E-07,-0.040
-5.300E-07,0.028
-5.200E-07,-0.036
-5.100E-07,0.024
-5.000E-07,0.028
-4.900E-07,0.020
-4.800E-07,0.068
-4.700E-07,0.048
-4.600E-07,0.060
-4.500E-07,0.028
-4.400E-07,0.032
-4.300E-07,0.020
-4.200E-07,0.004
-4.100E-07,0.036
-4.000E-07,0.056
-3.900E-07,0.092
-3.800E-07,0.092
-3.700E-07,0.068
-3.600E-07,0.024
-3.500E-07,0.000
-3.400E-07,0.008
-3.300E-07,0.020
-3.200E-07,0.044
-3.100E-07,0.052
-3.000E-07,0.040
-2.900E-07,0.020
-2.800E-07,0.008
-2.700E-07,0.004
-2.600E-07,0.012
-2.500E-07,0.040
-2.400E-07,0.060
-2.300E-07,0.064
-2.200E-07,0.064
-2.100E-07,0.036
-2.000E-07,0.028
-1.900E-07,0.004
-1.800E-07,0.028
-1.700E-07,0.032
-1.600E-07,0.056
-1.500E-07,0.088
-1.400E-07,0.088
-1.300E-07,0.104
-1.200E-07,0.120
-1.100E-07,0.096
-1.000E-07,0.068
-9.000E-08,0.056
-8.000E-08,0.028
-7.000E-08,-0.136
-6.000E-08,-0.112
-5.000E-08,-0.476
-4.000E-08,-0.504
-3.000E-08,-0.512
-2.000E-08,-0.264
-1.000E-08,0.256
0.000E+00,0.544
1.000E-08,0.540
2.000E-08,0.252
3.000E-08,-0.284
4.000E-08,-0.508
5.000E-08,-0.508
6.000E-08,-0.352
7.000E-08,0.220
8.000E-08,0.536
9.000E-08,0.540
1.000E-07,0.300
1.100E-07,-0.240
1.200E-07,-0.512
1.300E-07,-0.512
1.400E-07,-0.360
1.500E-07,0.228
1.600E-07,0.488
1.700E-07,0.520
1.800E-07,0.216
1.900E-07,-0.128
2.000E-07,-0.380
2.100E-07,-0.416
2.200E-07,-0.264
2.300E-07,0.052
2.400E-07,0.308
2.500E-07,0.368
2.600E-07,0.232
2.700E-07,-0.040
2.800E-07,-0.256
2.900E-07,-0.324
3.000E-07,-0.212
3.100E-07,-0.008
3.200E-07,0.184
3.300E-07,0.252
3.400E-07,0.208
3.500E-07,0.044
3.600E-07,-0.108
3.700E-07,-0.208
3.800E-07,-0.172
3.900E-07,-0.056
4.000E-07,0.092
4.100E-07,0.192
4.200E-07,0.172
4.300E-07,0.072
4.400E-07,-0.064
4.500E-07,-0.148
4.600E-07,-0.140
4.700E-07,-0.052
4.800E-07,0.056
4.900E-07,0.144
5.000E-07,0.152
5.100E-07,0.076
5.200E-07,-0.028
5.300E-07,-0.100
5.400E-07,-0.104
5.500E-07,-0.044
5.600E-07,0.048
5.700E-07,0.120
5.800E-07,0.132
5.900E-07,0.084
6.000E-07,0.004
6.100E-07,-0.048
6.200E-07,-0.068
6.300E-07,-0.020
6.400E-07,0.036
6.500E-07,0.100
6.600E-07,0.128
6.700E-07,0.120
6.800E-07,0.088
6.900E-07,0.048
7.000E-07,0.040
7.100E-07,0.064
7.200E-07,0.100
7.300E-07,0.156
7.400E-07,0.180
7.500E-07,0.156
7.600E-07,0.128
7.700E-07,0.060
7.800E-07,0.004
7.900E-07,-0.008
8.000E-07,-0.016
8.100E-07,-0.012
8.200E-07,-0.016
8.300E-07,-0.024
8.400E-07,-0.032
8.500E-07,-0.044
8.600E-07,-0.072
8.700E-07,-0.064
8.800E-07,-0.052
8.900E-07,-0.024
9.000E-07,-0.012
9.100E-07,0.004
9.200E-07,0.020
9.300E-07,0.036
9.400E-07,0.032
9.500E-07,0.024
9.600E-07,0.036
9.700E-07,0.088
9.800E-07,0.048
9.900E-07,0.044
1.000E-06,0.044
1.010E-06,0.096
1.020E-06,0.096
1.030E-06,0.064
1.040E-06,0.108
1.050E-06,0.108
1.060E-06,0.116
1.070E-06,0.124
1.080E-06,0.128
1.090E-06,0.140
1.100E-06,0.160
1.110E-06,0.180
1.120E-06,0.124
1.130E-06,0.112
1.140E-06,0.052
1.150E-06,0.036
1.160E-06,-0.048
1.170E-06,-0.076
1.180E-06,-0.176
1.190E-06,-0.096
1.200E-06,-0.072
1.210E-06,0.072
1.220E-06,0.064
1.230E-06,-0.036
1.240E-06,-0.296
1.250E-06,-0.416
1.260E-06,-0.440
1.270E-06,-0.236
1.280E-06,-0.024
1.290E-06,0.236
1.300E-06,0.352
1.310E-06,0.208
1.320E-06,0.004
1.330E-06,-0.284
1.340E-06,-0.304
1.350E-06,-0.184
1.360E-06,0.028
1.370E-06,0.248
1.380E-06,0.328
1.390E-06,0.360
1.400E-06,0.240
1.410E-06,0.096
1.420E-06,0.020
1.430E-06,-0.008
1.440E-06,0.024
1.450E-06,0.108
1.460E-06,0.128
1.470E-06,0.044
1.480E-06,0.000
1.490E-06,-0.140
1.500E-06,-0.220
1.510E-06,-0.268
1.520E-06,-0.248
1.530E-06,-0.104
1.540E-06,-0.004
1.550E-06,0.060
1.560E-06,0.088
1.570E-06,0.008
1.580E-06,-0.140
1.590E-06,-0.340
1.600E-06,-0.188
1.610E-06,-0.220
1.620E-06,-0.140
1.630E-06,-0.040
1.640E-06,0.104
1.650E-06,0.104
1.660E-06,0.072
1.670E-06,0.032
1.680E-06,-0.072
1.690E-06,-0.080
1.700E-06,-0.068
1.710E-06,0.020
1.720E-06,0.108
1.730E-06,0.164
1.740E-06,0.124
1.750E-06,0.076
1.760E-06,0.028
1.770E-06,0.052
1.780E-06,0.096
1.790E-06,0.188
1.800E-06,0.232
1.810E-06,0.228
1.820E-06,0.204
1.830E-06,0.076
1.840E-06,-0.040
1.850E-06,-0.168
1.860E-06,-0.204
1.870E-06,-0.176
1.880E-06,-0.120
1.890E-06,-0.032
1.900E-06,-0.024
1.910E-06,0.012
1.920E-06,-0.068
1.930E-06,-0.120
1.940E-06,-0.160
1.950E-06,-0.132
1.960E-06,-0.036
1.970E-06,0.012
1.980E-06,0.060
1.990E-06,0.052
2.000E-06,0.088
2.010E-06,0.004
2.020E-06,-0.076
2.030E-06,-0.056
2.040E-06,-0.032
2.050E-06,0.044
2.060E-06,0.052
2.070E-06,0.040
2.080E-06,0.060
2.090E-06,0.024
2.100E-06,0.032
2.110E-06,0.012
2.120E-06,0.004
2.130E-06,0.028
2.140E-06,0.108
2.150E-06,0.152
2.160E-06,0.144
2.170E-06,0.148
2.180E-06,0.120
2.190E-06,0.124
2.200E-06,0.148
2.210E-06,0.156
2.220E-06,0.176
2.230E-06,0.184
2.240E-06,0.192
2.250E-06,0.164
2.260E-06,0.128
2.270E-06,0.076
2.280E-06,0.044
2.290E-06,0.056
2.300E-06,0.044
2.310E-06,0.008
2.320E-06,-0.040
2.330E-06,-0.060
2.340E-06,-0.112
2.350E-06,-0.136
2.360E-06,-0.144
2.370E-06,-0.132
2.380E-06,-0.024
2.390E-06,-0.092
2.400E-06,-0.004
2.410E-06,-0.116
2.420E-06,-0.072
2.430E-06,-0.044
2.440E-06,-0.040
2.450E-06,-0.004
2.460E-06,-0.128
2.470E-06,0.104
2.480E-06,0.040
2.490E-06,0.136
2.500E-06,-0.036
2.510E-06,0.092
2.520E-06,0.128
2.530E-06,0.112
2.540E-06,0.104
2.550E-06,0.140
2.560E-06,0.156
2.570E-06,0.176
2.580E-06,0.224
2.590E-06,0.160
2.600E-06,0.160
2.610E-06,0.128
2.620E-06,0.148
2.630E-06,0.140
2.640E-06,0.184
2.650E-06,0.192
2.660E-06,0.172
2.670E-06,0.140
2.680E-06,0.064
2.690E-06,0.016
2.700E-06,-0.004
2.710E-06,-0.024
2.720E-06,0.000
2.730E-06,0.020
2.740E-06,0.056
2.750E-06,0.036
2.760E-06,0.068
2.770E-06,-0.032
2.780E-06,-0.116
2.790E-06,-0.192
2.800E-06,-0.120
2.810E-06,-0.044
2.820E-06,0.012
2.830E-06,0.140
2.840E-06,0.192
2.850E-06,0.240
2.860E-06,0.172
2.870E-06,0.144
2.880E-06,0.112
2.890E-06,0.128
2.900E-06,0.212
2.910E-06,0.252
2.920E-06,0.260
2.930E-06,0.228
2.940E-06,0.184
2.950E-06,0.156
2.960E-06,0.148
2.970E-06,0.148
2.980E-06,0.164
2.990E-06,0.184
3.000E-06,0.196
3.010E-06,0.160
3.020E-06,0.116
3.030E-06,0.060
3.040E-06,0.064
3.050E-06,0.076
3.060E-06,0.096
3.070E-06,0.076
3.080E-06,0.044
3.090E-06,0.040
3.100E-06,0.024
3.110E-06,0.036
3.120E-06,0.048
3.130E-06,0.060
3.140E-06,0.184
3.150E-06,0.180
3.160E-06,0.288
3.170E-06,0.212
3.180E-06,0.204
3.190E-06,0.172
3.200E-06,0.140
3.210E-06,0.164
3.220E-06,0.132
3.230E-06,0.196
3.240E-06,0.192
3.250E-06,0.200
3.260E-06,0.148
3.270E-06,0.088
3.280E-06,0.064
3.290E-06,0.004
3.300E-06,0.128
3.310E-06,0.148
3.320E-06,0.244
3.330E-06,0.100
3.340E-06,0.160
3.350E-06,0.148
3.360E-06,0.140
3.370E-06,0.136
3.380E-06,0.072
3.390E-06,0.112
3.400E-06,0.060
3.410E-06,0.168
3.420E-06,0.144
3.430E-06,0.144
3.440E-06,0.124
3.450E-06,0.104
3.460E-06,0.116
3.470E-06,0.084
3.480E-06,0.096
3.490E-06,0.096
3.500E-06,0.136
3.510E-06,0.140
3.520E-06,0.164
3.530E-06,0.156
3.540E-06,0.140
3.550E-06,0.140
3.560E-06,0.164
3.570E-06,0.188
3.580E-06,0.224
3.590E-06,0.208
3.600E-06,0.192
3.610E-06,0.196
3.620E-06,0.188
3.630E-06,0.188
3.640E-06,0.172
3.650E-06,0.188
3.660E-06,0.188
3.670E-06,0.208
3.680E-06,0.204
3.690E-06,0.200
3.700E-06,0.192
3.710E-06,0.176
3.720E-06,0.188
3.730E-06,0.188
3.740E-06,0.200
3.750E-06,0.196
3.760E-06,0.204
3.770E-06,0.196
3.780E-06,0.200
3.790E-06,0.188
3.800E-06,0.192
3.810E-06,0.192
3.820E-06,0.192
3.830E-06,0.196
3.840E-06,0.192
3.850E-06,0.192
3.860E-06,0.192
3.870E-06,0.188
3.880E-06,0.188
3.890E-06,0.192
3.900E-06,0.192
3.910E-06,0.188
3.920E-06,0.192
3.930E-06,0.188
3.940E-06,0.188
3.950E-06,0.176
3.960E-06,0.172
3.970E-06,0.176
3.980E-06,0.176
3.990E-06,0.180
4.000E-06,0.188
4.010E-06,0.188
4.020E-06,0.184
4.030E-06,0.180
4.040E-06,0.176
4.050E-06,0.168
4.060E-06,0.176
4.070E-06,0.184
4.080E-06,0.184
4.090E-06,0.180
4.100E-06,0.184
4.110E-06,0.180
4.120E-06,0.176
4.130E-06,0.176
4.140E-06,0.176
4.150E-06,0.184
4.160E-06,0.192
4.170E-06,0.188
4.180E-06,0.188
4.190E-06,0.184
4.200E-06,0.176
4.210E-06,0.172
4.220E-06,0.172
4.230E-06,0.176
4.240E-06,0.184
4.250E-06,0.184
4.260E-06,0.184
4.270E-06,0.184
4.280E-06,0.172
4.290E-06,0.172
4.300E-06,0.168
4.310E-06,0.168
4.320E-06,0.180
4.330E-06,0.184
4.340E-06,0.180
4.350E-06,0.180
4.360E-06,0.172
4.370E-06,0.168
4.380E-06,0.160
4.390E-06,0.156
4.400E-06,0.164
4.410E-06,0.172
4.420E-06,0.176
4.430E-06,0.180
4.440E-06,0.176
4.450E-06,0.160
4.460E-06,0.160
4.470E-06,0.152
4.480E-06,0.160
4.490E-06,0.176
4.500E-06,0.172
4.510E-06,0.176
4.520E-06,0.168
4.530E-06,0.168
4.540E-06,0.156
4.550E-06,0.152
4.560E-06,0.164
4.570E-06,0.168
4.580E-06,0.176
4.590E-06,0.180
4.600E-06,0.172
4.610E-06,0.164
4.620E-06,0.168
4.630E-06,0.160
4.640E-06,0.156
4.650E-06,0.160
4.660E-06,0.164
4.670E-06,0.168
4.680E-06,0.168
4.690E-06,0.164
4.700E-06,0.160
4.710E-06,0.160
4.720E-06,0.160
4.730E-06,0.164
4.740E-06,0.160
4.750E-06,0.156
4.760E-06,0.160
4.770E-06,0.168
4.780E-06,0.156
4.790E-06,0.152
4.800E-06,0.156
4.810E-06,0.152
4.820E-06,0.156
4.830E-06,0.160
4.840E-06,0.160
4.850E-06,0.156
4.860E-06,0.156
4.870E-06,0.156
4.880E-06,0.152
4.890E-06,0.152
4.900E-06,0.152
4.910E-06,0.152
4.920E-06,0.156
4.930E-06,0.164
4.940E-06,0.156
4.950E-06,0.160
4.960E-06,0.156
4.970E-06,0.156
4.980E-06,0.156
4.990E-06,0.156
5.000E-06,0.160
5.010E-06,0.160
5.020E-06,0.152
5.030E-06,0.152
5.040E-06,0.152
5.050E-06,0.152
5.060E-06,0.152
5.070E-06,0.148
5.080E-06,0.156
5.090E-06,0.156
5.100E-06,0.148
5.110E-06,0.148
5.120E-06,0.144
5.130E-06,0.152
5.140E-06,0.148
5.150E-06,0.148
5.160E-06,0.140
5.170E-06,0.140
5.180E-06,0.144
5.190E-06,0.148
5.200E-06,0.148
5.210E-06,0.140
5.220E-06,0.144
5.230E-06,0.144
5.240E-06,0.144
5.250E-06,0.140
5.260E-06,0.140
5.270E-06,0.144
5.280E-06,0.140
5.290E-06,0.140
5.300E-06,0.144
5.310E-06,0.136
5.320E-06,0.140
5.330E-06,0.140
5.340E-06,0.140
5.350E-06,0.136
5.360E-06,0.136
5.370E-06,0.140
5.380E-06,0.136
5.390E-06,0.136
5.400E-06,0.132
5.410E-06,0.132
5.420E-06,0.132
5.430E-06,0.132
5.440E-06,0.136
5.450E-06,0.136
5.460E-06,0.132
5.470E-06,0.128
5.480E-06,0.124
5.490E-06,0.132
5.500E-06,0.132
5.510E-06,0.128
5.520E-06,0.128
5.530E-06,0.128
5.540E-06,0.128
5.550E-06,0.128
5.560E-06,0.128
5.570E-06,0.128
5.580E-06,0.124
5.590E-06,0.128
5.600E-06,0.128
5.610E-06,0.128
5.620E-06,0.128
5.630E-06,0.128
5.640E-06,0.128
5.650E-06,0.132
5.660E-06,0.128
5.670E-06,0.128
5.680E-06,0.124
5.690E-06,0.120
5.700E-06,0.120
5.710E-06,0.120
5.720E-06,0.124
5.730E-06,0.128
5.740E-06,0.128
5.750E-06,0.124
5.760E-06,0.124
5.770E-06,0.128
5.780E-06,0.124
5.790E-06,0.124
5.800E-06,0.128
5.810E-06,0.128
5.820E-06,0.128
5.830E-06,0.124
5.840E-06,0.120
5.850E-06,0.120
5.860E-06,0.120
5.870E-06,0.116
5.880E-06,0.120
5.890E-06,0.120
5.900E-06,0.124
5.910E-06,0.120
5.920E-06,0.116
5.930E-06,0.120
5.940E-06,0.112
5.950E-06,0.120
5.960E-06,0.120
5.970E-06,0.112
5.980E-06,0.116
5.990E-06,0.116
6.000E-06,0.112
6.010E-06,0.108
6.020E-06,0.108
6.030E-06,0.112
6.040E-06,0.112
6.050E-06,0.112
6.060E-06,0.112
6.070E-06,0.112
6.080E-06,0.108
6.090E-06,0.104
6.100E-06,0.104
6.110E-06,0.108
6.120E-06,0.108
6.130E-06,0.108
6.140E-06,0.108
6.150E-06,0.112
6.160E-06,0.108
6.170E-06,0.104
6.180E-06,0.104
6.190E-06,0.104
6.200E-06,0.104
6.210E-06,0.104
6.220E-06,0.104
6.230E-06,0.104
6.240E-06,0.100
6.250E-06,0.100
6.260E-06,0.100
6.270E-06,0.096
6.280E-06,0.096
6.290E-06,0.100
6.300E-06,0.100
6.310E-06,0.096
6.320E-06,0.104
6.330E-06,0.100
6.340E-06,0.096
6.350E-06,0.096
6.360E-06,0.092
6.370E-06,0.096
6.380E-06,0.092
6.390E-06,0.088
6.400E-06,0.096
6.410E-06,0.092
6.420E-06,0.092
6.430E-06,0.096
6.440E-06,0.092
6.450E-06,0.088
6.460E-06,0.088
6.470E-06,0.088
6.480E-06,0.096
6.490E-06,0.088
6.500E-06,0.096
6.510E-06,0.092
6.520E-06,0.092
6.530E-06,0.092
6.540E-06,0.092
6.550E-06,0.092
6.560E-06,0.092
6.570E-06,0.092
6.580E-06,0.088
6.590E-06,0.084
6.600E-06,0.088
6.610E-06,0.092
6.620E-06,0.084
6.630E-06,0.092
6.640E-06,0.084
6.650E-06,0.088
6.660E-06,0.088
6.670E-06,0.084
6.680E-06,0.084
6.690E-06,0.080
6.700E-06,0.084
6.710E-06,0.080
6.720E-06,0.084
6.730E-06,0.076
6.740E-06,0.080
6.750E-06,0.084
6.760E-06,0.088
6.770E-06,0.084
6.780E-06,0.080
6.790E-06,0.076
6.800E-06,0.076
6.810E-06,0.076
6.820E-06,0.076
6.830E-06,0.080
6.840E-06,0.084
6.850E-06,0.080
6.860E-06,0.080
6.870E-06,0.072
6.880E-06,0.072
6.890E-06,0.076
6.900E-06,0.080
6.910E-06,0.076
6.920E-06,0.080
6.930E-06,0.080
6.940E-06,0.076
6.950E-06,0.076
6.960E-06,0.072
6.970E-06,0.072
6.980E-06,0.076
6.990E-06,0.080
7.000E-06,0.076
7.010E-06,0.072
7.020E-06,0.072
7.030E-06,0.072
7.040E-06,0.076
7.050E-06,0.076
7.060E-06,0.068
7.070E-06,0.072
7.080E-06,0.076
7.090E-06,0.072
7.100E-06,0.076
7.110E-06,0.068
7.120E-06,0.072
7.130E-06,0.072
7.140E-06,0.068
7.150E-06,0.072
7.160E-06,0.068
7.170E-06,0.068
7.180E-06,0.068
7.190E-06,0.068
7.200E-06,0.068
7.210E-06,0.064
7.220E-06,0.064
7.230E-06,0.068
7.240E-06,0.064
7.250E-06,0.064
7.260E-06,0.064
7.270E-06,0.060
7.280E-06,0.064
7.290E-06,0.060
7.300E-06,0.060
7.310E-06,0.064
7.320E-06,0.064
7.330E-06,0.060
7.340E-06,0.060
7.350E-06,0.056
7.360E-06,0.060
7.370E-06,0.064
7.380E-06,0.060
7.390E-06,0.060
7.400E-06,0.060
7.410E-06,0.056
7.420E-06,0.056
7.430E-06,0.056
7.440E-06,0.060
7.450E-06,0.060
7.460E-06,0.056
7.470E-06,0.060
7.480E-06,0.056
7.490E-06,0.056
7.500E-06,0.060
7.510E-06,0.060
7.520E-06,0.056
7.530E-06,0.056
7.540E-06,0.052
7.550E-06,0.052
7.560E-06,0.056
7.570E-06,0.048
7.580E-06,0.052
7.590E-06,0.052
7.600E-06,0.060
7.610E-06,0.060
7.620E-06,0.056
7.630E-06,0.052
7.640E-06,0.048
7.650E-06,0.044
7.660E-06,0.044
7.670E-06,0.044
7.680E-06,0.052
7.690E-06,0.056
7.700E-06,0.056
7.710E-06,0.056
7.720E-06,0.052
7.730E-06,0.056
7.740E-06,0.052
7.750E-06,0.048
7.760E-06,0.052
7.770E-06,0.048
7.780E-06,0.056
7.790E-06,0.048
7.800E-06,0.052
7.810E-06,0.040
7.820E-06,0.044
7.830E-06,0.044
7.840E-06,0.048
