mediciones/Mediciones filtradas (saque las feas)/6-10/5.8/WaveData5656.csv

#timebase=2000000(ps)
,#voltbase=200000(mv/100)
#size=4000
-4.200E-06,1.080
-4.190E-06,0.952
-4.180E-06,0.800
-4.170E-06,0.440
-4.160E-06,0.352
-4.150E-06,0.352
-4.140E-06,0.512
-4.130E-06,0.576
-4.120E-06,0.464
-4.110E-06,0.448
-4.100E-06,0.040
-4.090E-06,0.088
-4.080E-06,-0.224
-4.070E-06,0.608
-4.060E-06,0.184
-4.050E-06,0.632
-4.040E-06,0.928
-4.030E-06,0.352
-4.020E-06,1.008
-4.010E-06,0.320
-4.000E-06,0.288
-3.990E-06,0.576
-3.980E-06,0.296
-3.970E-06,0.968
-3.960E-06,0.800
-3.950E-06,0.728
-3.940E-06,0.504
-3.930E-06,0.064
-3.920E-06,0.328
-3.910E-06,0.072
-3.900E-06,0.168
-3.890E-06,0.200
-3.880E-06,0.312
-3.870E-06,0.160
-3.860E-06,0.200
-3.850E-06,0.128
-3.840E-06,-0.112
-3.830E-06,0.368
-3.820E-06,0.216
-3.810E-06,0.656
-3.800E-06,0.424
-3.790E-06,0.192
-3.780E-06,0.248
-3.770E-06,0.720
-3.760E-06,-0.640
-3.750E-06,-0.216
-3.740E-06,0.536
-3.730E-06,-0.552
-3.720E-06,1.080
-3.710E-06,0.000
-3.700E-06,0.016
-3.690E-06,0.504
-3.680E-06,-0.560
-3.670E-06,0.072
-3.660E-06,0.728
-3.650E-06,-0.032
-3.640E-06,0.320
-3.630E-06,-0.680
-3.620E-06,-1.040
-3.610E-06,-0.872
-3.600E-06,-0.560
-3.590E-06,0.256
-3.580E-06,0.488
-3.570E-06,0.288
-3.560E-06,-0.272
-3.550E-06,-0.496
-3.540E-06,-0.248
-3.530E-06,0.256
-3.520E-06,0.496
-3.510E-06,0.680
-3.500E-06,0.336
-3.490E-06,-0.040
-3.480E-06,-0.128
-3.470E-06,-0.240
-3.460E-06,0.112
-3.450E-06,0.248
-3.440E-06,0.168
-3.430E-06,-0.016
-3.420E-06,-0.376
-3.410E-06,-0.560
-3.400E-06,-0.632
-3.390E-06,-0.560
-3.380E-06,-0.376
-3.370E-06,-0.184
-3.360E-06,-0.080
-3.350E-06,-0.240
-3.340E-06,-0.424
-3.330E-06,-0.576
-3.320E-06,-0.616
-3.310E-06,-0.528
-3.300E-06,-0.368
-3.290E-06,-0.344
-3.280E-06,-0.440
-3.270E-06,-0.272
-3.260E-06,-0.104
-3.250E-06,0.104
-3.240E-06,0.312
-3.230E-06,0.104
-3.220E-06,0.040
-3.210E-06,0.008
-3.200E-06,0.040
-3.190E-06,0.344
-3.180E-06,0.312
-3.170E-06,0.264
-3.160E-06,0.136
-3.150E-06,-0.208
-3.140E-06,-0.224
-3.130E-06,-0.296
-3.120E-06,-0.280
-3.110E-06,-0.096
-3.100E-06,-0.168
-3.090E-06,-0.120
-3.080E-06,-0.240
-3.070E-06,-0.408
-3.060E-06,-0.400
-3.050E-06,-0.440
-3.040E-06,-0.376
-3.030E-06,-0.328
-3.020E-06,-0.392
-3.010E-06,-0.360
-3.000E-06,-0.368
-2.990E-06,-0.384
-2.980E-06,-0.232
-2.970E-06,-0.224
-2.960E-06,-0.200
-2.950E-06,-0.112
-2.940E-06,0.200
-2.930E-06,-0.168
-2.920E-06,0.064
-2.910E-06,0.312
-2.900E-06,-0.288
-2.890E-06,-0.216
-2.880E-06,-0.616
-2.870E-06,-1.016
-2.860E-06,-0.456
-2.850E-06,-0.152
-2.840E-06,0.200
-2.830E-06,0.512
-2.820E-06,0.120
-2.810E-06,-0.392
-2.800E-06,-0.400
-2.790E-06,-0.544
-2.780E-06,-0.144
-2.770E-06,0.328
-2.760E-06,0.152
-2.750E-06,0.112
-2.740E-06,-0.856
-2.730E-06,-0.512
-2.720E-06,-1.040
-2.710E-06,-0.608
-2.700E-06,0.408
-2.690E-06,-0.560
-2.680E-06,0.288
-2.670E-06,-0.912
-2.660E-06,-1.032
-2.650E-06,-0.688
-2.640E-06,-0.560
-2.630E-06,0.016
-2.620E-06,0.784
-2.610E-06,0.336
-2.600E-06,-0.952
-2.590E-06,-0.960
-2.580E-06,-1.040
-2.570E-06,-1.048
-2.560E-06,0.296
-2.550E-06,-0.104
-2.540E-06,-0.352
-2.530E-06,-0.880
-2.520E-06,-1.032
-2.510E-06,-1.032
-2.500E-06,-1.040
-2.490E-06,-1.032
-2.480E-06,-0.752
-2.470E-06,-1.048
-2.460E-06,-1.040
-2.450E-06,-1.032
-2.440E-06,-1.040
-2.430E-06,-1.032
-2.420E-06,-1.032
-2.410E-06,-1.040
-2.400E-06,-1.032
-2.390E-06,-1.040
-2.380E-06,-1.040
-2.370E-06,-1.048
-2.360E-06,-1.040
-2.350E-06,-1.032
-2.340E-06,-1.040
-2.330E-06,-1.032
-2.320E-06,-1.032
-2.310E-06,-1.040
-2.300E-06,-1.032
-2.290E-06,-1.040
-2.280E-06,-1.032
-2.270E-06,-1.032
-2.260E-06,-1.040
-2.250E-06,-1.032
-2.240E-06,-1.032
-2.230E-06,-0.976
-2.220E-06,-0.864
-2.210E-06,-0.800
-2.200E-06,-0.688
-2.190E-06,-0.648
-2.180E-06,-0.656
-2.170E-06,-0.528
-2.160E-06,-0.400
-2.150E-06,-0.288
-2.140E-06,-0.136
-2.130E-06,-0.264
-2.120E-06,-0.264
-2.110E-06,-0.344
-2.100E-06,-0.296
-2.090E-06,-0.152
-2.080E-06,-0.256
-2.070E-06,-0.280
-2.060E-06,-0.368
-2.050E-06,-0.544
-2.040E-06,-0.400
-2.030E-06,-0.600
-2.020E-06,-1.000
-2.010E-06,-0.576
-2.000E-06,-0.504
-1.990E-06,-0.304
-1.980E-06,0.416
-1.970E-06,-0.144
-1.960E-06,-0.256
-1.950E-06,-0.432
-1.940E-06,-0.808
-1.930E-06,-0.352
-1.920E-06,-0.056
-1.910E-06,0.080
-1.900E-06,0.224
-1.890E-06,0.080
-1.880E-06,-0.168
-1.870E-06,-0.112
-1.860E-06,-0.120
-1.850E-06,-0.056
-1.840E-06,0.104
-1.830E-06,0.136
-1.820E-06,0.096
-1.810E-06,0.080
-1.800E-06,0.072
-1.790E-06,0.064
-1.780E-06,-0.008
-1.770E-06,-0.088
-1.760E-06,-0.096
-1.750E-06,-0.056
-1.740E-06,0.168
-1.730E-06,0.216
-1.720E-06,0.240
-1.710E-06,0.144
-1.700E-06,-0.016
-1.690E-06,-0.104
-1.680E-06,0.024
-1.670E-06,0.000
-1.660E-06,0.024
-1.650E-06,-0.008
-1.640E-06,-0.040
-1.630E-06,-0.024
-1.620E-06,-0.880
-1.610E-06,-0.976
-1.600E-06,-0.784
-1.590E-06,-0.640
-1.580E-06,0.208
-1.570E-06,0.224
-1.560E-06,-0.472
-1.550E-06,-0.336
-1.540E-06,-1.040
-1.530E-06,-0.704
-1.520E-06,0.224
-1.510E-06,0.312
-1.500E-06,1.000
-1.490E-06,0.568
-1.480E-06,-0.064
-1.470E-06,-0.040
-1.460E-06,-0.328
-1.450E-06,-0.128
-1.440E-06,0.416
-1.430E-06,0.448
-1.420E-06,0.552
-1.410E-06,0.448
-1.400E-06,0.072
-1.390E-06,-0.096
-1.380E-06,-0.136
-1.370E-06,-0.248
-1.360E-06,-0.200
-1.350E-06,-0.480
-1.340E-06,-0.352
-1.330E-06,-0.408
-1.320E-06,-0.800
-1.310E-06,-0.544
-1.300E-06,-0.776
-1.290E-06,-0.536
-1.280E-06,0.016
-1.270E-06,-0.024
-1.260E-06,0.432
-1.250E-06,0.240
-1.240E-06,-0.072
-1.230E-06,0.136
-1.220E-06,-0.008
-1.210E-06,0.192
-1.200E-06,0.416
-1.190E-06,0.432
-1.180E-06,0.480
-1.170E-06,0.488
-1.160E-06,0.304
-1.150E-06,0.168
-1.140E-06,0.056
-1.130E-06,-0.040
-1.120E-06,-0.008
-1.110E-06,-0.032
-1.100E-06,-0.080
-1.090E-06,-0.224
-1.080E-06,-0.392
-1.070E-06,-0.528
-1.060E-06,-0.632
-1.050E-06,-0.648
-1.040E-06,-0.584
-1.030E-06,-0.504
-1.020E-06,-0.400
-1.010E-06,-0.336
-1.000E-06,-0.336
-9.900E-07,-0.280
-9.800E-07,-0.248
-9.700E-07,-0.120
-9.600E-07,0.032
-9.500E-07,-0.016
-9.400E-07,-0.016
-9.300E-07,-0.120
-9.200E-07,-0.272
-9.100E-07,-0.104
-9.000E-07,0.024
-8.900E-07,0.304
-8.800E-07,0.408
-8.700E-07,0.408
-8.600E-07,0.304
-8.500E-07,0.264
-8.400E-07,0.384
-8.300E-07,0.600
-8.200E-07,0.672
-8.100E-07,0.824
-8.000E-07,0.656
-7.900E-07,0.264
-7.800E-07,-0.192
-7.700E-07,-0.016
-7.600E-07,0.704
-7.500E-07,-1.040
-7.400E-07,-1.040
-7.300E-07,-0.456
-7.200E-07,-0.848
-7.100E-07,1.088
-7.000E-07,1.080
-6.900E-07,1.080
-6.800E-07,0.968
-6.700E-07,-0.720
-6.600E-07,-1.032
-6.500E-07,-0.368
-6.400E-07,0.800
-6.300E-07,1.072
-6.200E-07,1.080
-6.100E-07,0.624
-6.000E-07,-0.032
-5.900E-07,-0.728
-5.800E-07,-0.792
-5.700E-07,-0.256
-5.600E-07,0.184
-5.500E-07,0.160
-5.400E-07,-0.104
-5.300E-07,-0.632
-5.200E-07,-1.048
-5.100E-07,-1.048
-5.000E-07,-1.032
-4.900E-07,-1.040
-4.800E-07,-0.848
-4.700E-07,-0.528
-4.600E-07,-0.496
-4.500E-07,-0.600
-4.400E-07,-0.888
-4.300E-07,-1.008
-4.200E-07,-0.904
-4.100E-07,-0.440
-4.000E-07,0.024
-3.900E-07,0.240
-3.800E-07,0.312
-3.700E-07,0.232
-3.600E-07,0.200
-3.500E-07,0.152
-3.400E-07,0.144
-3.300E-07,0.152
-3.200E-07,0.296
-3.100E-07,0.440
-3.000E-07,0.584
-2.900E-07,0.568
-2.800E-07,0.384
-2.700E-07,0.152
-2.600E-07,0.040
-2.500E-07,0.120
-2.400E-07,0.248
-2.300E-07,0.376
-2.200E-07,0.416
-2.100E-07,0.376
-2.000E-07,0.256
-1.900E-07,0.136
-1.800E-07,0.048
-1.700E-07,0.032
-1.600E-07,0.112
-1.500E-07,0.272
-1.400E-07,0.288
-1.300E-07,0.272
-1.200E-07,0.136
-1.100E-07,0.024
-1.000E-07,0.128
-9.000E-08,0.088
-8.000E-08,0.144
-7.000E-08,-0.008
-6.000E-08,0.096
-5.000E-08,0.136
-4.000E-08,-0.160
-3.000E-08,0.072
-2.000E-08,-1.040
-1.000E-08,-1.032
0.000E+00,-0.208
1.000E-08,-0.992
2.000E-08,1.080
3.000E-08,1.088
4.000E-08,0.528
5.000E-08,-0.152
6.000E-08,-1.040
7.000E-08,-0.968
8.000E-08,0.136
9.000E-08,0.328
1.000E-07,1.080
1.100E-07,0.576
1.200E-07,-0.224
1.300E-07,-0.144
1.400E-07,-0.568
1.500E-07,-0.480
1.600E-07,0.640
1.700E-07,0.136
1.800E-07,0.248
1.900E-07,0.256
2.000E-07,-0.536
2.100E-07,-0.328
2.200E-07,-0.496
2.300E-07,-0.616
2.400E-07,-0.240
2.500E-07,-0.112
2.600E-07,0.120
2.700E-07,0.024
2.800E-07,-0.336
2.900E-07,-0.568
3.000E-07,-0.480
3.100E-07,-0.280
3.200E-07,0.168
3.300E-07,0.440
3.400E-07,0.400
3.500E-07,0.384
3.600E-07,0.088
3.700E-07,-0.240
3.800E-07,-0.480
3.900E-07,-0.664
4.000E-07,-0.576
4.100E-07,-0.240
4.200E-07,0.024
4.300E-07,0.216
4.400E-07,0.160
4.500E-07,-0.112
4.600E-07,-0.240
4.700E-07,0.000
4.800E-07,0.128
4.900E-07,0.600
5.000E-07,0.736
5.100E-07,0.816
5.200E-07,0.944
5.300E-07,0.760
5.400E-07,0.776
5.500E-07,0.768
5.600E-07,0.848
5.700E-07,1.072
5.800E-07,1.008
5.900E-07,0.792
6.000E-07,1.072
6.100E-07,0.408
6.200E-07,-0.296
6.300E-07,-0.600
6.400E-07,-1.048
6.500E-07,-0.016
6.600E-07,0.584
6.700E-07,0.048
6.800E-07,1.080
6.900E-07,-0.664
7.000E-07,-0.664
7.100E-07,-0.528
7.200E-07,-1.048
7.300E-07,0.528
7.400E-07,0.008
7.500E-07,-0.024
7.600E-07,0.384
7.700E-07,-0.184
7.800E-07,-0.016
7.900E-07,0.016
8.000E-07,-0.136
8.100E-07,0.096
8.200E-07,0.488
8.300E-07,0.584
8.400E-07,0.784
8.500E-07,0.696
8.600E-07,0.352
8.700E-07,-0.064
8.800E-07,-0.192
8.900E-07,-0.304
9.000E-07,-0.152
9.100E-07,-0.032
9.200E-07,-0.224
9.300E-07,-0.296
9.400E-07,-0.496
9.500E-07,-0.680
9.600E-07,-0.712
9.700E-07,-0.728
9.800E-07,-0.704
9.900E-07,-0.520
1.000E-06,-0.320
1.010E-06,-0.120
1.020E-06,0.064
1.030E-06,0.040
1.040E-06,0.040
1.050E-06,0.136
1.060E-06,0.216
1.070E-06,0.384
1.080E-06,0.440
1.090E-06,0.400
1.100E-06,0.312
1.110E-06,0.256
1.120E-06,0.168
1.130E-06,0.136
1.140E-06,0.056
1.150E-06,0.000
1.160E-06,0.016
1.170E-06,0.064
1.180E-06,0.048
1.190E-06,-0.016
1.200E-06,-0.096
1.210E-06,-0.104
1.220E-06,-0.136
1.230E-06,-0.096
1.240E-06,-0.112
1.250E-06,-0.072
1.260E-06,0.000
1.270E-06,0.040
1.280E-06,0.168
1.290E-06,0.144
1.300E-06,0.176
1.310E-06,0.160
1.320E-06,0.152
1.330E-06,0.152
1.340E-06,0.064
1.350E-06,0.024
1.360E-06,0.000
1.370E-06,0.120
1.380E-06,0.128
1.390E-06,0.200
1.400E-06,0.160
1.410E-06,0.208
1.420E-06,0.216
1.430E-06,0.112
1.440E-06,0.168
1.450E-06,0.152
1.460E-06,0.200
1.470E-06,0.184
1.480E-06,0.176
1.490E-06,0.184
1.500E-06,0.152
1.510E-06,0.192
1.520E-06,0.200
1.530E-06,0.432
1.540E-06,0.392
1.550E-06,0.224
1.560E-06,-0.416
1.570E-06,-0.808
1.580E-06,-0.712
1.590E-06,-1.048
1.600E-06,-1.032
1.610E-06,0.392
1.620E-06,1.080
1.630E-06,0.448
1.640E-06,1.080
1.650E-06,-1.040
1.660E-06,-1.048
1.670E-06,-1.040
1.680E-06,-1.032
1.690E-06,1.080
1.700E-06,1.080
1.710E-06,1.088
1.720E-06,1.088
1.730E-06,-0.744
1.740E-06,0.032
1.750E-06,1.080
1.760E-06,1.056
1.770E-06,1.072
1.780E-06,1.080
1.790E-06,1.088
1.800E-06,1.088
1.810E-06,0.552
1.820E-06,0.288
1.830E-06,0.600
1.840E-06,0.912
1.850E-06,0.416
1.860E-06,0.784
1.870E-06,0.120
1.880E-06,-0.456
1.890E-06,-0.768
1.900E-06,-1.032
1.910E-06,-1.032
1.920E-06,-1.024
1.930E-06,-0.760
1.940E-06,-0.672
1.950E-06,-0.520
1.960E-06,-0.560
1.970E-06,-0.408
1.980E-06,-0.384
1.990E-06,-0.384
2.000E-06,-0.160
2.010E-06,-0.016
2.020E-06,0.464
2.030E-06,0.944
2.040E-06,1.008
2.050E-06,0.952
2.060E-06,0.744
2.070E-06,0.616
2.080E-06,0.808
2.090E-06,0.920
2.100E-06,1.000
2.110E-06,0.960
2.120E-06,0.696
2.130E-06,0.544
2.140E-06,0.504
2.150E-06,0.448
2.160E-06,0.472
2.170E-06,0.432
2.180E-06,0.528
2.190E-06,0.504
2.200E-06,0.392
2.210E-06,0.392
2.220E-06,0.176
2.230E-06,0.256
2.240E-06,0.192
2.250E-06,0.168
2.260E-06,0.072
2.270E-06,0.008
2.280E-06,-0.032
2.290E-06,0.000
2.300E-06,0.080
2.310E-06,0.008
2.320E-06,-0.064
2.330E-06,-0.008
2.340E-06,-0.096
2.350E-06,-0.040
2.360E-06,-0.240
2.370E-06,-0.352
2.380E-06,-0.192
2.390E-06,-0.080
2.400E-06,0.472
2.410E-06,0.704
2.420E-06,0.552
2.430E-06,0.832
2.440E-06,0.840
2.450E-06,0.848
2.460E-06,1.072
2.470E-06,0.384
2.480E-06,-0.120
2.490E-06,-0.544
2.500E-06,-1.032
2.510E-06,-0.384
2.520E-06,-0.024
2.530E-06,0.448
2.540E-06,0.736
2.550E-06,0.376
2.560E-06,0.088
2.570E-06,0.064
2.580E-06,0.224
2.590E-06,0.440
2.600E-06,0.432
2.610E-06,0.424
2.620E-06,0.240
2.630E-06,0.336
2.640E-06,1.088
2.650E-06,1.080
2.660E-06,1.072
2.670E-06,1.080
2.680E-06,0.920
2.690E-06,0.376
2.700E-06,-0.144
2.710E-06,-0.456
2.720E-06,-0.072
2.730E-06,0.232
2.740E-06,0.456
2.750E-06,0.752
2.760E-06,0.640
2.770E-06,0.760
2.780E-06,0.696
2.790E-06,0.624
2.800E-06,0.624
2.810E-06,0.624
2.820E-06,0.456
2.830E-06,0.312
2.840E-06,0.024
2.850E-06,-0.280
2.860E-06,-0.568
2.870E-06,-0.960
2.880E-06,-1.032
2.890E-06,-1.040
2.900E-06,-1.032
2.910E-06,-1.032
2.920E-06,-1.040
2.930E-06,-1.032
2.940E-06,-1.040
2.950E-06,-1.048
2.960E-06,-1.032
2.970E-06,-1.032
2.980E-06,-1.040
2.990E-06,-1.032
3.000E-06,-1.032
3.010E-06,-1.040
3.020E-06,-1.040
3.030E-06,-1.048
3.040E-06,-1.040
3.050E-06,-1.048
3.060E-06,-1.032
3.070E-06,-1.032
3.080E-06,-1.040
3.090E-06,-1.048
3.100E-06,-1.032
3.110E-06,-1.040
3.120E-06,-1.048
3.130E-06,-1.040
3.140E-06,-1.032
3.150E-06,-1.040
3.160E-06,-1.048
3.170E-06,-1.032
3.180E-06,-1.032
3.190E-06,-1.040
3.200E-06,-1.048
3.210E-06,-1.048
3.220E-06,-1.032
3.230E-06,-1.032
3.240E-06,-1.040
3.250E-06,-1.048
3.260E-06,-1.032
3.270E-06,-1.040
3.280E-06,-1.048
3.290E-06,-1.040
3.300E-06,-1.048
3.310E-06,-1.048
3.320E-06,-1.032
3.330E-06,-1.040
3.340E-06,-1.040
3.350E-06,-1.048
3.360E-06,-0.968
3.370E-06,-0.864
3.380E-06,-0.728
3.390E-06,-0.600
3.400E-06,-0.488
3.410E-06,-0.400
3.420E-06,-0.320
3.430E-06,-0.216
3.440E-06,-0.160
3.450E-06,-0.144
3.460E-06,-0.136
3.470E-06,-0.120
3.480E-06,-0.112
3.490E-06,-0.128
3.500E-06,-0.200
3.510E-06,-0.272
3.520E-06,-0.312
3.530E-06,-0.376
3.540E-06,-0.416
3.550E-06,-0.448
3.560E-06,-0.520
3.570E-06,-0.560
3.580E-06,-0.592
3.590E-06,-0.576
3.600E-06,-0.560
3.610E-06,-0.520
3.620E-06,-0.464
3.630E-06,-0.432
3.640E-06,-0.376
3.650E-06,-0.328
3.660E-06,-0.280
3.670E-06,-0.208
3.680E-06,-0.128
3.690E-06,-0.064
3.700E-06,-0.024
3.710E-06,-0.008
3.720E-06,-0.016
3.730E-06,-0.016
3.740E-06,-0.032
3.750E-06,-0.024
3.760E-06,-0.056
3.770E-06,-0.088
3.780E-06,-0.128
3.790E-06,-0.184
3.800E-06,-0.168
3.810E-06,-0.192
3.820E-06,-0.168
3.830E-06,-0.144
3.840E-06,-0.168
3.850E-06,-0.160
3.860E-06,-0.136
3.870E-06,-0.120
3.880E-06,-0.048
3.890E-06,0.000
3.900E-06,0.048
3.910E-06,0.104
3.920E-06,0.096
3.930E-06,0.120
3.940E-06,0.168
3.950E-06,0.184
3.960E-06,0.216
3.970E-06,0.184
3.980E-06,0.160
3.990E-06,0.112
4.000E-06,0.072
4.010E-06,0.056
4.020E-06,0.008
4.030E-06,-0.040
4.040E-06,-0.056
4.050E-06,-0.096
4.060E-06,-0.136
4.070E-06,-0.152
4.080E-06,-0.192
4.090E-06,-0.224
4.100E-06,-0.224
4.110E-06,-0.224
4.120E-06,-0.248
4.130E-06,-0.232
4.140E-06,-0.232
4.150E-06,-0.208
4.160E-06,-0.144
4.170E-06,-0.128
4.180E-06,-0.112
4.190E-06,-0.088
4.200E-06,-0.072
4.210E-06,-0.048
4.220E-06,-0.032
4.230E-06,-0.024
4.240E-06,-0.016
4.250E-06,-0.032
4.260E-06,-0.024
4.270E-06,-0.056
4.280E-06,-0.112
4.290E-06,-0.128
4.300E-06,-0.160
4.310E-06,-0.176
4.320E-06,-0.192
4.330E-06,-0.192
4.340E-06,-0.200
4.350E-06,-0.208
4.360E-06,-0.200
4.370E-06,-0.176
4.380E-06,-0.176
4.390E-06,-0.176
4.400E-06,-0.168
4.410E-06,-0.200
4.420E-06,-0.224
4.430E-06,-0.232
4.440E-06,-0.200
4.450E-06,-0.200
4.460E-06,-0.176
4.470E-06,-0.112
4.480E-06,-0.040
4.490E-06,0.088
4.500E-06,0.192
4.510E-06,0.240
4.520E-06,0.256
4.530E-06,0.232
4.540E-06,0.208
4.550E-06,0.200
4.560E-06,0.248
4.570E-06,0.288
4.580E-06,0.352
4.590E-06,0.344
4.600E-06,0.304
4.610E-06,0.224
4.620E-06,0.104
4.630E-06,0.024
4.640E-06,-0.056
4.650E-06,-0.136
4.660E-06,-0.192
4.670E-06,-0.272
4.680E-06,-0.352
4.690E-06,-0.384
4.700E-06,-0.456
4.710E-06,-0.488
4.720E-06,-0.536
4.730E-06,-0.592
4.740E-06,-0.624
4.750E-06,-0.648
4.760E-06,-0.664
4.770E-06,-0.632
4.780E-06,-0.608
4.790E-06,-0.592
4.800E-06,-0.584
4.810E-06,-0.592
4.820E-06,-0.616
4.830E-06,-0.608
4.840E-06,-0.584
4.850E-06,-0.544
4.860E-06,-0.488
4.870E-06,-0.448
4.880E-06,-0.384
4.890E-06,-0.344
4.900E-06,-0.304
4.910E-06,-0.264
4.920E-06,-0.232
4.930E-06,-0.184
4.940E-06,-0.168
4.950E-06,-0.144
4.960E-06,-0.128
4.970E-06,-0.056
4.980E-06,0.064
4.990E-06,0.224
5.000E-06,0.352
5.010E-06,0.440
5.020E-06,0.496
5.030E-06,0.528
5.040E-06,0.504
5.050E-06,0.480
5.060E-06,0.432
5.070E-06,0.368
5.080E-06,0.320
5.090E-06,0.256
5.100E-06,0.224
5.110E-06,0.240
5.120E-06,0.280
5.130E-06,0.368
5.140E-06,0.472
5.150E-06,0.576
5.160E-06,0.664
5.170E-06,0.712
5.180E-06,0.728
5.190E-06,0.736
5.200E-06,0.720
5.210E-06,0.720
5.220E-06,0.704
5.230E-06,0.704
5.240E-06,0.680
5.250E-06,0.656
5.260E-06,0.600
5.270E-06,0.544
5.280E-06,0.488
5.290E-06,0.432
5.300E-06,0.360
5.310E-06,0.296
5.320E-06,0.200
5.330E-06,0.088
5.340E-06,-0.008
5.350E-06,-0.112
5.360E-06,-0.200
5.370E-06,-0.272
5.380E-06,-0.336
5.390E-06,-0.368
5.400E-06,-0.400
5.410E-06,-0.400
5.420E-06,-0.408
5.430E-06,-0.432
5.440E-06,-0.440
5.450E-06,-0.456
5.460E-06,-0.456
5.470E-06,-0.480
5.480E-06,-0.488
5.490E-06,-0.464
5.500E-06,-0.416
5.510E-06,-0.352
5.520E-06,-0.328
5.530E-06,-0.304
5.540E-06,-0.296
5.550E-06,-0.344
5.560E-06,-0.400
5.570E-06,-0.488
5.580E-06,-0.544
5.590E-06,-0.576
5.600E-06,-0.560
5.610E-06,-0.496
5.620E-06,-0.416
5.630E-06,-0.312
5.640E-06,-0.160
5.650E-06,-0.008
5.660E-06,0.224
5.670E-06,0.480
5.680E-06,0.712
5.690E-06,0.920
5.700E-06,1.048
5.710E-06,1.088
5.720E-06,1.080
5.730E-06,1.072
5.740E-06,1.080
5.750E-06,1.080
5.760E-06,1.024
5.770E-06,0.920
5.780E-06,0.808
5.790E-06,0.720
5.800E-06,0.608
5.810E-06,0.480
5.820E-06,0.392
5.830E-06,0.272
5.840E-06,0.160
5.850E-06,0.080
5.860E-06,0.000
5.870E-06,-0.032
5.880E-06,-0.080
5.890E-06,-0.080
5.900E-06,-0.072
5.910E-06,-0.080
5.920E-06,-0.080
5.930E-06,-0.088
5.940E-06,-0.080
5.950E-06,-0.080
5.960E-06,-0.104
5.970E-06,-0.104
5.980E-06,-0.128
5.990E-06,-0.168
6.000E-06,-0.200
6.010E-06,-0.208
6.020E-06,-0.216
6.030E-06,-0.208
6.040E-06,-0.200
6.050E-06,-0.184
6.060E-06,-0.144
6.070E-06,-0.112
6.080E-06,-0.080
6.090E-06,-0.040
6.100E-06,0.000
6.110E-06,0.024
6.120E-06,0.040
6.130E-06,0.064
6.140E-06,0.072
6.150E-06,0.072
6.160E-06,0.072
6.170E-06,0.064
6.180E-06,0.072
6.190E-06,0.088
6.200E-06,0.128
6.210E-06,0.192
6.220E-06,0.288
6.230E-06,0.384
6.240E-06,0.456
6.250E-06,0.480
6.260E-06,0.464
6.270E-06,0.400
6.280E-06,0.280
6.290E-06,0.136
6.300E-06,-0.024
6.310E-06,-0.184
6.320E-06,-0.304
6.330E-06,-0.368
6.340E-06,-0.376
6.350E-06,-0.328
6.360E-06,-0.208
6.370E-06,-0.040
6.380E-06,0.160
6.390E-06,0.352
6.400E-06,0.504
6.410E-06,0.648
6.420E-06,0.744
6.430E-06,0.808
6.440E-06,0.832
6.450E-06,0.824
6.460E-06,0.800
6.470E-06,0.768
6.480E-06,0.768
6.490E-06,0.784
6.500E-06,0.816
6.510E-06,0.872
6.520E-06,0.912
6.530E-06,0.952
6.540E-06,0.968
6.550E-06,1.000
6.560E-06,1.040
6.570E-06,1.064
6.580E-06,1.064
6.590E-06,1.040
6.600E-06,0.992
6.610E-06,0.928
6.620E-06,0.848
6.630E-06,0.816
6.640E-06,0.816
6.650E-06,0.848
6.660E-06,0.896
6.670E-06,0.952
6.680E-06,1.000
6.690E-06,1.032
6.700E-06,1.080
6.710E-06,1.080
6.720E-06,1.080
6.730E-06,1.072
6.740E-06,1.080
6.750E-06,1.080
6.760E-06,1.080
6.770E-06,1.072
6.780E-06,1.080
6.790E-06,1.088
6.800E-06,1.088
6.810E-06,1.080
6.820E-06,1.088
6.830E-06,1.080
6.840E-06,1.080
6.850E-06,1.072
6.860E-06,1.080
6.870E-06,1.088
6.880E-06,1.080
6.890E-06,1.072
6.900E-06,1.080
6.910E-06,1.080
6.920E-06,1.072
6.930E-06,1.080
6.940E-06,1.088
6.950E-06,1.080
6.960E-06,1.072
6.970E-06,1.080
6.980E-06,1.088
6.990E-06,1.088
7.000E-06,1.080
7.010E-06,1.088
7.020E-06,1.080
7.030E-06,0.832
7.040E-06,0.664
7.050E-06,0.536
7.060E-06,0.464
7.070E-06,0.416
7.080E-06,0.304
7.090E-06,0.280
7.100E-06,0.288
7.110E-06,0.288
7.120E-06,0.296
7.130E-06,0.312
7.140E-06,0.352
7.150E-06,0.384
7.160E-06,0.432
7.170E-06,0.464
7.180E-06,0.512
7.190E-06,0.544
7.200E-06,0.584
7.210E-06,0.648
7.220E-06,0.704
7.230E-06,0.752
7.240E-06,0.816
7.250E-06,0.856
7.260E-06,0.904
7.270E-06,0.944
7.280E-06,0.960
7.290E-06,0.952
7.300E-06,0.928
7.310E-06,0.888
7.320E-06,0.856
7.330E-06,0.824
7.340E-06,0.800
7.350E-06,0.792
7.360E-06,0.776
7.370E-06,0.768
7.380E-06,0.768
7.390E-06,0.752
7.400E-06,0.720
7.410E-06,0.704
7.420E-06,0.688
7.430E-06,0.688
7.440E-06,0.704
7.450E-06,0.688
7.460E-06,0.688
7.470E-06,0.680
7.480E-06,0.672
7.490E-06,0.680
7.500E-06,0.664
7.510E-06,0.640
7.520E-06,0.600
7.530E-06,0.512
7.540E-06,0.440
7.550E-06,0.360
7.560E-06,0.312
7.570E-06,0.264
7.580E-06,0.232
7.590E-06,0.168
7.600E-06,0.112
7.610E-06,0.048
7.620E-06,-0.008
