mediciones/Mediciones filtradas (saque las feas)/6-10/5.8/WaveData5657.csv

#timebase=2000000(ps)
,#voltbase=100000(mv/100)
#size=4000
-4.200E-06,0.008
-4.190E-06,-0.004
-4.180E-06,0.008
-4.170E-06,0.004
-4.160E-06,0.008
-4.150E-06,0.008
-4.140E-06,0.012
-4.130E-06,0.004
-4.120E-06,0.012
-4.110E-06,0.008
-4.100E-06,0.008
-4.090E-06,0.008
-4.080E-06,-0.004
-4.070E-06,0.000
-4.060E-06,-0.004
-4.050E-06,0.000
-4.040E-06,0.004
-4.030E-06,0.008
-4.020E-06,0.012
-4.010E-06,0.008
-4.000E-06,0.000
-3.990E-06,0.000
-3.980E-06,-0.008
-3.970E-06,0.008
-3.960E-06,0.012
-3.950E-06,0.008
-3.940E-06,-0.004
-3.930E-06,-0.004
-3.920E-06,0.000
-3.910E-06,0.004
-3.900E-06,0.008
-3.890E-06,0.004
-3.880E-06,0.004
-3.870E-06,0.004
-3.860E-06,0.000
-3.850E-06,-0.004
-3.840E-06,0.004
-3.830E-06,0.000
-3.820E-06,0.008
-3.810E-06,0.004
-3.800E-06,0.004
-3.790E-06,0.008
-3.780E-06,0.000
-3.770E-06,0.004
-3.760E-06,0.004
-3.750E-06,0.008
-3.740E-06,0.008
-3.730E-06,0.008
-3.720E-06,0.012
-3.710E-06,0.004
-3.700E-06,0.000
-3.690E-06,0.000
-3.680E-06,0.004
-3.670E-06,0.008
-3.660E-06,0.004
-3.650E-06,0.008
-3.640E-06,0.012
-3.630E-06,0.004
-3.620E-06,0.008
-3.610E-06,0.008
-3.600E-06,0.008
-3.590E-06,0.008
-3.580E-06,0.008
-3.570E-06,0.012
-3.560E-06,0.008
-3.550E-06,0.008
-3.540E-06,0.000
-3.530E-06,0.004
-3.520E-06,0.008
-3.510E-06,0.008
-3.500E-06,0.008
-3.490E-06,0.012
-3.480E-06,0.008
-3.470E-06,0.024
-3.460E-06,0.024
-3.450E-06,0.020
-3.440E-06,0.020
-3.430E-06,0.060
-3.420E-06,0.036
-3.410E-06,0.060
-3.400E-06,0.060
-3.390E-06,0.048
-3.380E-06,0.040
-3.370E-06,-0.012
-3.360E-06,-0.056
-3.350E-06,-0.100
-3.340E-06,-0.088
-3.330E-06,-0.032
-3.320E-06,0.028
-3.310E-06,0.080
-3.300E-06,0.064
-3.290E-06,0.036
-3.280E-06,-0.024
-3.270E-06,-0.056
-3.260E-06,-0.052
-3.250E-06,-0.020
-3.240E-06,0.044
-3.230E-06,0.056
-3.220E-06,0.072
-3.210E-06,0.052
-3.200E-06,0.076
-3.190E-06,0.068
-3.180E-06,0.064
-3.170E-06,-0.008
-3.160E-06,-0.036
-3.150E-06,-0.120
-3.140E-06,-0.140
-3.130E-06,-0.072
-3.120E-06,0.000
-3.110E-06,0.080
-3.100E-06,0.072
-3.090E-06,0.044
-3.080E-06,-0.024
-3.070E-06,-0.076
-3.060E-06,-0.068
-3.050E-06,-0.020
-3.040E-06,0.020
-3.030E-06,0.040
-3.020E-06,0.052
-3.010E-06,0.020
-3.000E-06,0.012
-2.990E-06,-0.008
-2.980E-06,-0.004
-2.970E-06,-0.004
-2.960E-06,-0.008
-2.950E-06,0.008
-2.940E-06,0.012
-2.930E-06,0.012
-2.920E-06,-0.004
-2.910E-06,-0.020
-2.900E-06,-0.020
-2.890E-06,-0.004
-2.880E-06,0.008
-2.870E-06,0.032
-2.860E-06,0.028
-2.850E-06,0.028
-2.840E-06,0.024
-2.830E-06,0.008
-2.820E-06,-0.004
-2.810E-06,0.004
-2.800E-06,0.020
-2.790E-06,0.052
-2.780E-06,0.060
-2.770E-06,0.064
-2.760E-06,0.040
-2.750E-06,0.004
-2.740E-06,-0.024
-2.730E-06,-0.024
-2.720E-06,0.000
-2.710E-06,0.036
-2.700E-06,0.060
-2.690E-06,0.056
-2.680E-06,0.040
-2.670E-06,0.012
-2.660E-06,-0.008
-2.650E-06,0.000
-2.640E-06,0.024
-2.630E-06,0.064
-2.620E-06,0.108
-2.610E-06,0.128
-2.600E-06,0.120
-2.590E-06,0.092
-2.580E-06,0.060
-2.570E-06,0.036
-2.560E-06,0.040
-2.550E-06,0.056
-2.540E-06,0.072
-2.530E-06,0.092
-2.520E-06,0.084
-2.510E-06,0.080
-2.500E-06,0.060
-2.490E-06,0.076
-2.480E-06,0.092
-2.470E-06,0.108
-2.460E-06,0.108
-2.450E-06,0.088
-2.440E-06,0.024
-2.430E-06,-0.036
-2.420E-06,-0.104
-2.410E-06,-0.108
-2.400E-06,-0.092
-2.390E-06,-0.036
-2.380E-06,-0.008
-2.370E-06,0.056
-2.360E-06,0.004
-2.350E-06,-0.064
-2.340E-06,-0.208
-2.330E-06,-0.212
-2.320E-06,-0.188
-2.310E-06,-0.108
-2.300E-06,0.020
-2.290E-06,0.036
-2.280E-06,0.072
-2.270E-06,0.012
-2.260E-06,-0.040
-2.250E-06,-0.096
-2.240E-06,-0.100
-2.230E-06,-0.040
-2.220E-06,0.024
-2.210E-06,0.076
-2.200E-06,0.088
-2.190E-06,0.044
-2.180E-06,0.008
-2.170E-06,-0.024
-2.160E-06,-0.068
-2.150E-06,-0.040
-2.140E-06,-0.012
-2.130E-06,0.048
-2.120E-06,0.040
-2.110E-06,0.020
-2.100E-06,0.000
-2.090E-06,-0.016
-2.080E-06,-0.016
-2.070E-06,-0.008
-2.060E-06,0.008
-2.050E-06,0.044
-2.040E-06,0.064
-2.030E-06,0.064
-2.020E-06,0.044
-2.010E-06,0.020
-2.000E-06,0.008
-1.990E-06,0.012
-1.980E-06,0.024
-1.970E-06,0.044
-1.960E-06,0.064
-1.950E-06,0.092
-1.940E-06,0.132
-1.930E-06,0.132
-1.920E-06,0.124
-1.910E-06,0.108
-1.900E-06,0.104
-1.890E-06,0.116
-1.880E-06,0.140
-1.870E-06,0.176
-1.860E-06,0.196
-1.850E-06,0.212
-1.840E-06,0.148
-1.830E-06,0.132
-1.820E-06,0.036
-1.810E-06,-0.012
-1.800E-06,-0.152
-1.790E-06,-0.236
-1.780E-06,-0.268
-1.770E-06,-0.388
-1.760E-06,-0.336
-1.750E-06,-0.148
-1.740E-06,0.032
-1.730E-06,0.108
-1.720E-06,-0.112
-1.710E-06,-0.104
-1.700E-06,-0.072
-1.690E-06,-0.248
-1.680E-06,-0.056
-1.670E-06,0.032
-1.660E-06,0.128
-1.650E-06,0.084
-1.640E-06,0.064
-1.630E-06,-0.012
-1.620E-06,-0.064
-1.610E-06,-0.104
-1.600E-06,-0.040
-1.590E-06,0.088
-1.580E-06,0.052
-1.570E-06,0.160
-1.560E-06,0.128
-1.550E-06,0.136
-1.540E-06,0.032
-1.530E-06,0.024
-1.520E-06,-0.004
-1.510E-06,-0.036
-1.500E-06,0.032
-1.490E-06,0.028
-1.480E-06,0.084
-1.470E-06,0.032
-1.460E-06,0.052
-1.450E-06,-0.048
-1.440E-06,-0.140
-1.430E-06,-0.072
-1.420E-06,-0.012
-1.410E-06,0.052
-1.400E-06,0.068
-1.390E-06,0.112
-1.380E-06,0.056
-1.370E-06,0.012
-1.360E-06,0.000
-1.350E-06,-0.008
-1.340E-06,0.052
-1.330E-06,0.112
-1.320E-06,0.148
-1.310E-06,0.124
-1.300E-06,0.108
-1.290E-06,0.080
-1.280E-06,0.084
-1.270E-06,0.092
-1.260E-06,0.080
-1.250E-06,0.092
-1.240E-06,0.044
-1.230E-06,0.020
-1.220E-06,-0.004
-1.210E-06,-0.004
-1.200E-06,0.016
-1.190E-06,0.040
-1.180E-06,0.100
-1.170E-06,0.108
-1.160E-06,0.112
-1.150E-06,0.124
-1.140E-06,0.124
-1.130E-06,0.088
-1.120E-06,0.072
-1.110E-06,-0.044
-1.100E-06,-0.028
-1.090E-06,-0.092
-1.080E-06,-0.052
-1.070E-06,0.036
-1.060E-06,-0.068
-1.050E-06,-0.064
-1.040E-06,-0.248
-1.030E-06,-0.316
-1.020E-06,-0.256
-1.010E-06,-0.108
-1.000E-06,0.140
-9.900E-07,0.188
-9.800E-07,0.172
-9.700E-07,0.172
-9.600E-07,0.072
-9.500E-07,-0.024
-9.400E-07,-0.016
-9.300E-07,0.052
-9.200E-07,0.108
-9.100E-07,0.144
-9.000E-07,0.136
-8.900E-07,0.020
-8.800E-07,-0.168
-8.700E-07,-0.196
-8.600E-07,-0.212
-8.500E-07,-0.140
-8.400E-07,0.024
-8.300E-07,0.120
-8.200E-07,0.172
-8.100E-07,0.032
-8.000E-07,0.072
-7.900E-07,-0.072
-7.800E-07,-0.380
-7.700E-07,-0.432
-7.600E-07,-0.288
-7.500E-07,-0.204
-7.400E-07,-0.108
-7.300E-07,0.024
-7.200E-07,0.148
-7.100E-07,0.156
-7.000E-07,0.016
-6.900E-07,-0.140
-6.800E-07,-0.168
-6.700E-07,-0.076
-6.600E-07,0.032
-6.500E-07,0.092
-6.400E-07,0.128
-6.300E-07,0.060
-6.200E-07,-0.008
-6.100E-07,-0.036
-6.000E-07,-0.056
-5.900E-07,-0.036
-5.800E-07,0.036
-5.700E-07,0.120
-5.600E-07,0.120
-5.500E-07,0.136
-5.400E-07,0.112
-5.300E-07,0.128
-5.200E-07,0.140
-5.100E-07,0.176
-5.000E-07,0.172
-4.900E-07,0.176
-4.800E-07,0.152
-4.700E-07,0.124
-4.600E-07,0.072
-4.500E-07,0.020
-4.400E-07,0.016
-4.300E-07,0.020
-4.200E-07,0.036
-4.100E-07,-0.008
-4.000E-07,0.064
-3.900E-07,0.052
-3.800E-07,0.056
-3.700E-07,0.012
-3.600E-07,0.040
-3.500E-07,0.032
-3.400E-07,0.000
-3.300E-07,0.032
-3.200E-07,0.064
-3.100E-07,0.092
-3.000E-07,0.152
-2.900E-07,0.176
-2.800E-07,0.192
-2.700E-07,0.180
-2.600E-07,0.176
-2.500E-07,0.148
-2.400E-07,0.164
-2.300E-07,0.176
-2.200E-07,0.172
-2.100E-07,0.180
-2.000E-07,0.152
-1.900E-07,0.148
-1.800E-07,0.124
-1.700E-07,0.064
-1.600E-07,0.040
-1.500E-07,0.076
-1.400E-07,0.152
-1.300E-07,0.152
-1.200E-07,0.056
-1.100E-07,-0.140
-1.000E-07,-0.228
-9.000E-08,-0.136
-8.000E-08,0.136
-7.000E-08,0.120
-6.000E-08,-0.276
-5.000E-08,-0.508
-4.000E-08,-0.512
-3.000E-08,-0.512
-2.000E-08,-0.508
-1.000E-08,-0.160
0.000E+00,0.540
1.000E-08,0.540
2.000E-08,0.484
3.000E-08,-0.048
4.000E-08,-0.508
5.000E-08,-0.508
6.000E-08,-0.400
7.000E-08,0.196
8.000E-08,0.536
9.000E-08,0.540
1.000E-07,0.540
1.100E-07,0.136
1.200E-07,-0.256
1.300E-07,-0.512
1.400E-07,-0.388
1.500E-07,-0.100
1.600E-07,0.280
1.700E-07,0.496
1.800E-07,0.432
1.900E-07,0.252
2.000E-07,-0.108
2.100E-07,-0.296
2.200E-07,-0.328
2.300E-07,-0.040
2.400E-07,0.232
2.500E-07,0.452
2.600E-07,0.468
2.700E-07,0.252
2.800E-07,0.048
2.900E-07,-0.216
3.000E-07,-0.212
3.100E-07,-0.060
3.200E-07,0.200
3.300E-07,0.444
3.400E-07,0.508
3.500E-07,0.416
3.600E-07,0.216
3.700E-07,0.008
3.800E-07,-0.068
3.900E-07,0.012
4.000E-07,0.196
4.100E-07,0.380
4.200E-07,0.448
4.300E-07,0.392
4.400E-07,0.228
4.500E-07,0.072
4.600E-07,-0.004
4.700E-07,0.044
4.800E-07,0.156
4.900E-07,0.292
5.000E-07,0.348
5.100E-07,0.324
5.200E-07,0.216
5.300E-07,0.092
5.400E-07,0.032
5.500E-07,0.032
5.600E-07,0.124
5.700E-07,0.232
5.800E-07,0.288
5.900E-07,0.256
6.000E-07,0.124
6.100E-07,-0.036
6.200E-07,-0.152
6.300E-07,-0.208
6.400E-07,-0.056
6.500E-07,0.084
6.600E-07,0.160
6.700E-07,0.176
6.800E-07,0.208
6.900E-07,0.132
7.000E-07,0.064
7.100E-07,0.096
7.200E-07,0.060
7.300E-07,0.100
7.400E-07,0.048
7.500E-07,-0.008
7.600E-07,-0.172
7.700E-07,-0.208
7.800E-07,-0.264
7.900E-07,-0.240
8.000E-07,-0.064
8.100E-07,0.196
8.200E-07,0.292
8.300E-07,0.172
8.400E-07,-0.028
8.500E-07,-0.140
8.600E-07,-0.192
8.700E-07,0.004
8.800E-07,0.144
8.900E-07,0.280
9.000E-07,0.296
9.100E-07,0.348
9.200E-07,0.260
9.300E-07,0.156
9.400E-07,0.072
9.500E-07,0.096
9.600E-07,0.192
9.700E-07,0.240
9.800E-07,0.288
9.900E-07,0.280
1.000E-06,0.240
1.010E-06,0.188
1.020E-06,0.160
1.030E-06,0.156
1.040E-06,0.164
1.050E-06,0.208
1.060E-06,0.252
1.070E-06,0.276
1.080E-06,0.260
1.090E-06,0.216
1.100E-06,0.180
1.110E-06,0.148
1.120E-06,0.160
1.130E-06,0.192
1.140E-06,0.228
1.150E-06,0.244
1.160E-06,0.236
1.170E-06,0.216
1.180E-06,0.184
1.190E-06,0.164
1.200E-06,0.156
1.210E-06,0.188
1.220E-06,0.228
1.230E-06,0.248
1.240E-06,0.248
1.250E-06,0.228
1.260E-06,0.204
1.270E-06,0.180
1.280E-06,0.176
1.290E-06,0.184
1.300E-06,0.204
1.310E-06,0.224
1.320E-06,0.232
1.330E-06,0.224
1.340E-06,0.204
1.350E-06,0.188
1.360E-06,0.180
1.370E-06,0.188
1.380E-06,0.204
1.390E-06,0.220
1.400E-06,0.228
1.410E-06,0.228
1.420E-06,0.212
1.430E-06,0.196
1.440E-06,0.184
1.450E-06,0.188
1.460E-06,0.192
1.470E-06,0.212
1.480E-06,0.216
1.490E-06,0.216
1.500E-06,0.208
1.510E-06,0.200
1.520E-06,0.196
1.530E-06,0.188
1.540E-06,0.192
1.550E-06,0.200
1.560E-06,0.212
1.570E-06,0.216
1.580E-06,0.208
1.590E-06,0.208
1.600E-06,0.196
1.610E-06,0.192
1.620E-06,0.188
1.630E-06,0.192
1.640E-06,0.196
1.650E-06,0.204
1.660E-06,0.204
1.670E-06,0.200
1.680E-06,0.192
1.690E-06,0.192
1.700E-06,0.192
1.710E-06,0.192
1.720E-06,0.192
1.730E-06,0.200
1.740E-06,0.200
1.750E-06,0.196
1.760E-06,0.192
1.770E-06,0.188
1.780E-06,0.184
1.790E-06,0.188
1.800E-06,0.192
1.810E-06,0.192
1.820E-06,0.192
1.830E-06,0.192
1.840E-06,0.188
1.850E-06,0.188
1.860E-06,0.188
1.870E-06,0.184
1.880E-06,0.184
1.890E-06,0.188
1.900E-06,0.188
1.910E-06,0.188
1.920E-06,0.188
1.930E-06,0.184
1.940E-06,0.180
1.950E-06,0.176
1.960E-06,0.180
1.970E-06,0.184
1.980E-06,0.184
1.990E-06,0.192
2.000E-06,0.188
2.010E-06,0.184
2.020E-06,0.184
2.030E-06,0.184
2.040E-06,0.180
2.050E-06,0.172
2.060E-06,0.180
2.070E-06,0.184
2.080E-06,0.184
2.090E-06,0.184
2.100E-06,0.184
2.110E-06,0.180
2.120E-06,0.176
2.130E-06,0.176
2.140E-06,0.180
2.150E-06,0.176
2.160E-06,0.176
2.170E-06,0.176
2.180E-06,0.176
2.190E-06,0.172
2.200E-06,0.172
2.210E-06,0.176
2.220E-06,0.172
2.230E-06,0.172
2.240E-06,0.164
2.250E-06,0.160
2.260E-06,0.164
2.270E-06,0.184
2.280E-06,0.184
2.290E-06,0.188
2.300E-06,0.176
2.310E-06,0.168
2.320E-06,0.164
2.330E-06,0.168
2.340E-06,0.172
2.350E-06,0.176
2.360E-06,0.172
2.370E-06,0.168
2.380E-06,0.168
2.390E-06,0.160
2.400E-06,0.160
2.410E-06,0.156
2.420E-06,0.168
2.430E-06,0.176
2.440E-06,0.176
2.450E-06,0.180
2.460E-06,0.168
2.470E-06,0.164
2.480E-06,0.160
2.490E-06,0.160
2.500E-06,0.160
2.510E-06,0.164
2.520E-06,0.172
2.530E-06,0.172
2.540E-06,0.172
2.550E-06,0.168
2.560E-06,0.164
2.570E-06,0.156
2.580E-06,0.160
2.590E-06,0.164
2.600E-06,0.168
2.610E-06,0.172
2.620E-06,0.168
2.630E-06,0.156
2.640E-06,0.152
2.650E-06,0.152
2.660E-06,0.152
2.670E-06,0.156
2.680E-06,0.160
2.690E-06,0.168
2.700E-06,0.160
2.710E-06,0.160
2.720E-06,0.148
2.730E-06,0.148
2.740E-06,0.152
2.750E-06,0.156
2.760E-06,0.160
2.770E-06,0.160
2.780E-06,0.160
2.790E-06,0.152
2.800E-06,0.148
2.810E-06,0.144
2.820E-06,0.144
2.830E-06,0.148
2.840E-06,0.156
2.850E-06,0.160
2.860E-06,0.152
2.870E-06,0.148
2.880E-06,0.140
2.890E-06,0.140
2.900E-06,0.140
2.910E-06,0.144
2.920E-06,0.140
2.930E-06,0.144
2.940E-06,0.140
2.950E-06,0.144
2.960E-06,0.152
2.970E-06,0.144
2.980E-06,0.140
2.990E-06,0.144
3.000E-06,0.144
3.010E-06,0.144
3.020E-06,0.136
3.030E-06,0.144
3.040E-06,0.148
3.050E-06,0.148
3.060E-06,0.140
3.070E-06,0.140
3.080E-06,0.136
3.090E-06,0.140
3.100E-06,0.144
3.110E-06,0.148
3.120E-06,0.140
3.130E-06,0.140
3.140E-06,0.136
3.150E-06,0.136
3.160E-06,0.132
3.170E-06,0.132
3.180E-06,0.136
3.190E-06,0.140
3.200E-06,0.140
3.210E-06,0.132
3.220E-06,0.132
3.230E-06,0.128
3.240E-06,0.132
3.250E-06,0.132
3.260E-06,0.136
3.270E-06,0.140
3.280E-06,0.140
3.290E-06,0.136
3.300E-06,0.128
3.310E-06,0.128
3.320E-06,0.128
3.330E-06,0.128
3.340E-06,0.128
3.350E-06,0.132
3.360E-06,0.128
3.370E-06,0.128
3.380E-06,0.124
3.390E-06,0.124
3.400E-06,0.124
3.410E-06,0.124
3.420E-06,0.124
3.430E-06,0.128
3.440E-06,0.128
3.450E-06,0.124
3.460E-06,0.124
3.470E-06,0.124
3.480E-06,0.124
3.490E-06,0.120
3.500E-06,0.120
3.510E-06,0.120
3.520E-06,0.116
3.530E-06,0.116
3.540E-06,0.120
3.550E-06,0.124
3.560E-06,0.120
3.570E-06,0.112
3.580E-06,0.112
3.590E-06,0.104
3.600E-06,0.108
3.610E-06,0.108
3.620E-06,0.124
3.630E-06,0.120
3.640E-06,0.120
3.650E-06,0.108
3.660E-06,0.104
3.670E-06,0.104
3.680E-06,0.104
3.690E-06,0.108
3.700E-06,0.112
3.710E-06,0.112
3.720E-06,0.112
3.730E-06,0.108
3.740E-06,0.108
3.750E-06,0.108
3.760E-06,0.100
3.770E-06,0.108
3.780E-06,0.112
3.790E-06,0.116
3.800E-06,0.108
3.810E-06,0.108
3.820E-06,0.108
3.830E-06,0.108
3.840E-06,0.104
3.850E-06,0.104
3.860E-06,0.108
3.870E-06,0.108
3.880E-06,0.108
3.890E-06,0.108
3.900E-06,0.108
3.910E-06,0.108
3.920E-06,0.104
3.930E-06,0.108
3.940E-06,0.104
3.950E-06,0.104
3.960E-06,0.100
3.970E-06,0.100
3.980E-06,0.100
3.990E-06,0.104
4.000E-06,0.100
4.010E-06,0.096
4.020E-06,0.092
4.030E-06,0.096
4.040E-06,0.096
4.050E-06,0.092
4.060E-06,0.092
4.070E-06,0.092
4.080E-06,0.092
4.090E-06,0.088
4.100E-06,0.088
4.110E-06,0.092
4.120E-06,0.096
4.130E-06,0.092
4.140E-06,0.088
4.150E-06,0.092
4.160E-06,0.092
4.170E-06,0.088
4.180E-06,0.084
4.190E-06,0.084
4.200E-06,0.092
4.210E-06,0.092
4.220E-06,0.092
4.230E-06,0.088
4.240E-06,0.088
4.250E-06,0.088
4.260E-06,0.088
4.270E-06,0.084
4.280E-06,0.084
4.290E-06,0.088
4.300E-06,0.084
4.310E-06,0.092
4.320E-06,0.084
4.330E-06,0.088
4.340E-06,0.088
4.350E-06,0.076
4.360E-06,0.080
4.370E-06,0.080
4.380E-06,0.088
4.390E-06,0.088
4.400E-06,0.092
4.410E-06,0.084
4.420E-06,0.080
4.430E-06,0.076
4.440E-06,0.072
4.450E-06,0.076
4.460E-06,0.076
4.470E-06,0.088
4.480E-06,0.084
4.490E-06,0.076
4.500E-06,0.072
4.510E-06,0.072
4.520E-06,0.072
4.530E-06,0.076
4.540E-06,0.076
4.550E-06,0.080
4.560E-06,0.088
4.570E-06,0.076
4.580E-06,0.076
4.590E-06,0.072
4.600E-06,0.068
4.610E-06,0.068
4.620E-06,0.072
4.630E-06,0.076
4.640E-06,0.080
4.650E-06,0.072
4.660E-06,0.080
4.670E-06,0.076
4.680E-06,0.064
4.690E-06,0.068
4.700E-06,0.068
4.710E-06,0.076
4.720E-06,0.076
4.730E-06,0.072
4.740E-06,0.072
4.750E-06,0.072
4.760E-06,0.064
4.770E-06,0.064
4.780E-06,0.064
4.790E-06,0.068
4.800E-06,0.068
4.810E-06,0.072
4.820E-06,0.072
4.830E-06,0.068
4.840E-06,0.068
4.850E-06,0.064
4.860E-06,0.060
4.870E-06,0.064
4.880E-06,0.068
4.890E-06,0.064
4.900E-06,0.064
4.910E-06,0.068
4.920E-06,0.064
4.930E-06,0.060
4.940E-06,0.060
4.950E-06,0.060
4.960E-06,0.060
4.970E-06,0.064
4.980E-06,0.060
4.990E-06,0.060
5.000E-06,0.056
5.010E-06,0.056
5.020E-06,0.056
5.030E-06,0.056
5.040E-06,0.060
5.050E-06,0.064
5.060E-06,0.068
5.070E-06,0.064
5.080E-06,0.060
5.090E-06,0.056
5.100E-06,0.056
5.110E-06,0.052
5.120E-06,0.056
5.130E-06,0.056
5.140E-06,0.056
5.150E-06,0.060
5.160E-06,0.064
5.170E-06,0.060
5.180E-06,0.052
5.190E-06,0.052
5.200E-06,0.060
5.210E-06,0.056
5.220E-06,0.060
5.230E-06,0.056
5.240E-06,0.052
5.250E-06,0.056
5.260E-06,0.048
5.270E-06,0.048
5.280E-06,0.040
5.290E-06,0.044
5.300E-06,0.048
5.310E-06,0.048
5.320E-06,0.044
5.330E-06,0.048
5.340E-06,0.044
5.350E-06,0.044
5.360E-06,0.040
5.370E-06,0.040
5.380E-06,0.044
5.390E-06,0.044
5.400E-06,0.044
5.410E-06,0.048
5.420E-06,0.044
5.430E-06,0.036
5.440E-06,0.036
5.450E-06,0.036
5.460E-06,0.032
5.470E-06,0.028
5.480E-06,0.028
5.490E-06,0.040
5.500E-06,0.040
5.510E-06,0.036
5.520E-06,0.036
5.530E-06,0.032
5.540E-06,0.024
5.550E-06,0.032
5.560E-06,0.036
5.570E-06,0.036
5.580E-06,0.036
5.590E-06,0.044
5.600E-06,0.040
5.610E-06,0.028
5.620E-06,0.032
5.630E-06,0.036
5.640E-06,0.032
5.650E-06,0.032
5.660E-06,0.036
5.670E-06,0.036
5.680E-06,0.032
5.690E-06,0.032
5.700E-06,0.032
5.710E-06,0.036
5.720E-06,0.032
5.730E-06,0.028
5.740E-06,0.028
5.750E-06,0.032
5.760E-06,0.032
5.770E-06,0.036
5.780E-06,0.040
5.790E-06,0.032
5.800E-06,0.036
5.810E-06,0.028
5.820E-06,0.024
5.830E-06,0.028
5.840E-06,0.032
5.850E-06,0.032
5.860E-06,0.028
5.870E-06,0.028
5.880E-06,0.024
5.890E-06,0.024
5.900E-06,0.032
5.910E-06,0.028
5.920E-06,0.020
5.930E-06,0.028
5.940E-06,0.028
5.950E-06,0.028
5.960E-06,0.028
5.970E-06,0.024
5.980E-06,0.020
5.990E-06,0.020
6.000E-06,0.024
6.010E-06,0.020
6.020E-06,0.020
6.030E-06,0.024
6.040E-06,0.028
6.050E-06,0.028
6.060E-06,0.020
6.070E-06,0.020
6.080E-06,0.024
6.090E-06,0.020
6.100E-06,0.024
6.110E-06,0.020
6.120E-06,0.024
6.130E-06,0.020
6.140E-06,0.020
6.150E-06,0.028
6.160E-06,0.024
6.170E-06,0.024
6.180E-06,0.024
6.190E-06,0.020
6.200E-06,0.024
6.210E-06,0.020
6.220E-06,0.020
6.230E-06,0.024
6.240E-06,0.024
6.250E-06,0.024
6.260E-06,0.016
6.270E-06,0.020
6.280E-06,0.016
6.290E-06,0.016
6.300E-06,0.012
6.310E-06,0.016
6.320E-06,0.024
6.330E-06,0.020
6.340E-06,0.016
6.350E-06,0.016
6.360E-06,0.012
6.370E-06,0.012
6.380E-06,0.012
6.390E-06,0.020
6.400E-06,0.016
6.410E-06,0.016
6.420E-06,0.016
6.430E-06,0.016
6.440E-06,0.012
6.450E-06,0.012
6.460E-06,0.008
6.470E-06,0.008
6.480E-06,0.012
6.490E-06,0.012
6.500E-06,0.012
6.510E-06,0.012
6.520E-06,0.008
6.530E-06,0.008
6.540E-06,0.008
6.550E-06,0.012
6.560E-06,0.008
6.570E-06,0.012
6.580E-06,0.016
6.590E-06,0.016
6.600E-06,0.008
6.610E-06,0.004
6.620E-06,0.008
6.630E-06,0.004
6.640E-06,0.012
6.650E-06,0.008
6.660E-06,0.008
6.670E-06,0.012
6.680E-06,0.004
6.690E-06,0.008
6.700E-06,0.004
6.710E-06,0.008
6.720E-06,0.008
6.730E-06,0.004
6.740E-06,0.004
6.750E-06,0.004
6.760E-06,0.008
6.770E-06,0.004
6.780E-06,0.004
6.790E-06,0.000
6.800E-06,0.000
6.810E-06,0.000
6.820E-06,0.004
6.830E-06,0.008
6.840E-06,0.012
6.850E-06,0.000
6.860E-06,0.004
6.870E-06,0.000
6.880E-06,0.000
6.890E-06,0.000
6.900E-06,-0.004
6.910E-06,0.000
6.920E-06,0.004
6.930E-06,0.000
6.940E-06,0.000
6.950E-06,0.000
6.960E-06,-0.004
6.970E-06,0.000
6.980E-06,0.000
6.990E-06,0.000
7.000E-06,0.000
7.010E-06,0.000
7.020E-06,0.000
7.030E-06,0.000
7.040E-06,-0.004
7.050E-06,-0.004
7.060E-06,-0.004
7.070E-06,0.004
7.080E-06,0.000
7.090E-06,-0.004
7.100E-06,-0.004
7.110E-06,-0.004
7.120E-06,-0.008
7.130E-06,0.000
7.140E-06,0.000
7.150E-06,-0.004
7.160E-06,-0.004
7.170E-06,-0.004
7.180E-06,-0.004
7.190E-06,-0.004
7.200E-06,-0.004
7.210E-06,-0.004
7.220E-06,-0.008
7.230E-06,-0.004
7.240E-06,-0.004
7.250E-06,-0.004
7.260E-06,-0.004
7.270E-06,-0.004
7.280E-06,-0.004
7.290E-06,-0.008
7.300E-06,-0.008
7.310E-06,-0.012
7.320E-06,-0.004
7.330E-06,-0.008
7.340E-06,-0.008
7.350E-06,-0.008
7.360E-06,-0.004
7.370E-06,-0.008
7.380E-06,-0.008
7.390E-06,-0.008
7.400E-06,-0.004
7.410E-06,-0.008
7.420E-06,-0.008
7.430E-06,-0.008
7.440E-06,-0.008
7.450E-06,-0.008
7.460E-06,-0.008
7.470E-06,-0.008
7.480E-06,-0.008
7.490E-06,-0.008
7.500E-06,-0.008
7.510E-06,-0.008
7.520E-06,-0.016
7.530E-06,-0.012
7.540E-06,-0.004
7.550E-06,-0.008
7.560E-06,-0.008
7.570E-06,-0.012
7.580E-06,-0.012
7.590E-06,-0.012
7.600E-06,-0.008
7.610E-06,-0.012
7.620E-06,-0.012
7.630E-06,-0.012
7.640E-06,-0.004
7.650E-06,-0.012
7.660E-06,-0.008
7.670E-06,-0.012
7.680E-06,-0.012
7.690E-06,-0.012
7.700E-06,-0.008
7.710E-06,-0.012
7.720E-06,-0.008
7.730E-06,-0.016
7.740E-06,-0.012
7.750E-06,-0.016
7.760E-06,-0.024
7.770E-06,-0.016
7.780E-06,-0.016
7.790E-06,-0.016
7.800E-06,-0.016
7.810E-06,-0.016
7.820E-06,-0.016
7.830E-06,-0.016
7.840E-06,-0.024
