mediciones/Mediciones filtradas (saque las feas)/6-10/5.8/WaveData5650.csv

#timebase=2000000(ps)
,#voltbase=200000(mv/100)
#size=4000
-4.200E-06,0.024
-4.190E-06,0.000
-4.180E-06,-0.032
-4.170E-06,-0.048
-4.160E-06,-0.032
-4.150E-06,0.000
-4.140E-06,0.000
-4.130E-06,-0.016
-4.120E-06,-0.032
-4.110E-06,-0.056
-4.100E-06,-0.048
-4.090E-06,-0.024
-4.080E-06,-0.008
-4.070E-06,0.000
-4.060E-06,-0.016
-4.050E-06,0.024
-4.040E-06,-0.024
-4.030E-06,-0.016
-4.020E-06,0.024
-4.010E-06,-0.056
-4.000E-06,-0.016
-3.990E-06,0.000
-3.980E-06,-0.008
-3.970E-06,0.024
-3.960E-06,0.048
-3.950E-06,0.056
-3.940E-06,0.072
-3.930E-06,0.032
-3.920E-06,0.056
-3.910E-06,0.064
-3.900E-06,0.056
-3.890E-06,0.048
-3.880E-06,0.048
-3.870E-06,0.040
-3.860E-06,0.008
-3.850E-06,0.008
-3.840E-06,-0.008
-3.830E-06,0.032
-3.820E-06,0.016
-3.810E-06,0.008
-3.800E-06,0.032
-3.790E-06,-0.024
-3.780E-06,-0.032
-3.770E-06,-0.008
-3.760E-06,-0.024
-3.750E-06,0.000
-3.740E-06,0.024
-3.730E-06,-0.016
-3.720E-06,0.016
-3.710E-06,0.008
-3.700E-06,0.000
-3.690E-06,0.024
-3.680E-06,0.008
-3.670E-06,0.008
-3.660E-06,-0.008
-3.650E-06,-0.048
-3.640E-06,-0.008
-3.630E-06,0.008
-3.620E-06,0.048
-3.610E-06,0.088
-3.600E-06,0.072
-3.590E-06,0.048
-3.580E-06,0.008
-3.570E-06,0.032
-3.560E-06,0.064
-3.550E-06,0.048
-3.540E-06,0.104
-3.530E-06,0.072
-3.520E-06,0.072
-3.510E-06,0.040
-3.500E-06,0.056
-3.490E-06,0.072
-3.480E-06,0.008
-3.470E-06,0.008
-3.460E-06,0.024
-3.450E-06,0.016
-3.440E-06,0.032
-3.430E-06,0.016
-3.420E-06,-0.016
-3.410E-06,-0.040
-3.400E-06,-0.064
-3.390E-06,-0.048
-3.380E-06,-0.016
-3.370E-06,0.056
-3.360E-06,-0.008
-3.350E-06,-0.008
-3.340E-06,-0.056
-3.330E-06,-0.040
-3.320E-06,-0.024
-3.310E-06,-0.032
-3.300E-06,0.056
-3.290E-06,0.016
-3.280E-06,-0.016
-3.270E-06,0.008
-3.260E-06,0.000
-3.250E-06,0.000
-3.240E-06,0.088
-3.230E-06,0.040
-3.220E-06,0.088
-3.210E-06,-0.016
-3.200E-06,0.032
-3.190E-06,0.024
-3.180E-06,0.016
-3.170E-06,0.128
-3.160E-06,0.088
-3.150E-06,0.120
-3.140E-06,0.064
-3.130E-06,0.032
-3.120E-06,0.032
-3.110E-06,0.064
-3.100E-06,0.096
-3.090E-06,0.096
-3.080E-06,0.064
-3.070E-06,0.040
-3.060E-06,0.024
-3.050E-06,0.032
-3.040E-06,0.072
-3.030E-06,0.096
-3.020E-06,0.136
-3.010E-06,0.128
-3.000E-06,0.160
-2.990E-06,0.152
-2.980E-06,0.168
-2.970E-06,0.136
-2.960E-06,0.104
-2.950E-06,0.080
-2.940E-06,0.096
-2.930E-06,0.320
-2.920E-06,-0.080
-2.910E-06,0.416
-2.900E-06,-0.192
-2.890E-06,0.000
-2.880E-06,0.000
-2.870E-06,0.168
-2.860E-06,0.360
-2.850E-06,0.240
-2.840E-06,0.312
-2.830E-06,-0.016
-2.820E-06,0.096
-2.810E-06,-0.176
-2.800E-06,0.112
-2.790E-06,0.120
-2.780E-06,0.096
-2.770E-06,0.176
-2.760E-06,0.048
-2.750E-06,0.016
-2.740E-06,-0.016
-2.730E-06,0.040
-2.720E-06,-0.016
-2.710E-06,0.080
-2.700E-06,0.064
-2.690E-06,0.032
-2.680E-06,0.024
-2.670E-06,0.016
-2.660E-06,-0.032
-2.650E-06,-0.016
-2.640E-06,-0.016
-2.630E-06,0.008
-2.620E-06,0.016
-2.610E-06,0.032
-2.600E-06,0.008
-2.590E-06,-0.032
-2.580E-06,-0.056
-2.570E-06,-0.048
-2.560E-06,0.008
-2.550E-06,0.056
-2.540E-06,0.112
-2.530E-06,0.120
-2.520E-06,0.104
-2.510E-06,0.104
-2.500E-06,0.088
-2.490E-06,0.112
-2.480E-06,0.080
-2.470E-06,0.096
-2.460E-06,0.104
-2.450E-06,0.144
-2.440E-06,0.208
-2.430E-06,0.264
-2.420E-06,0.216
-2.410E-06,0.192
-2.400E-06,0.112
-2.390E-06,0.080
-2.380E-06,0.072
-2.370E-06,0.144
-2.360E-06,0.200
-2.350E-06,0.288
-2.340E-06,0.272
-2.330E-06,0.216
-2.320E-06,0.192
-2.310E-06,0.200
-2.300E-06,0.176
-2.290E-06,0.216
-2.280E-06,0.200
-2.270E-06,0.120
-2.260E-06,0.160
-2.250E-06,0.344
-2.240E-06,0.304
-2.230E-06,0.336
-2.220E-06,0.304
-2.210E-06,0.016
-2.200E-06,0.056
-2.190E-06,0.104
-2.180E-06,0.160
-2.170E-06,0.304
-2.160E-06,0.304
-2.150E-06,0.240
-2.140E-06,0.320
-2.130E-06,0.288
-2.120E-06,0.376
-2.110E-06,0.600
-2.100E-06,0.544
-2.090E-06,0.592
-2.080E-06,0.488
-2.070E-06,0.384
-2.060E-06,0.376
-2.050E-06,0.352
-2.040E-06,0.336
-2.030E-06,0.400
-2.020E-06,0.352
-2.010E-06,0.264
-2.000E-06,0.280
-1.990E-06,0.200
-1.980E-06,0.200
-1.970E-06,0.176
-1.960E-06,0.240
-1.950E-06,0.376
-1.940E-06,0.064
-1.930E-06,-0.104
-1.920E-06,-0.352
-1.910E-06,-0.328
-1.900E-06,-0.128
-1.890E-06,0.376
-1.880E-06,0.544
-1.870E-06,0.800
-1.860E-06,0.464
-1.850E-06,0.160
-1.840E-06,-0.016
-1.830E-06,-0.112
-1.820E-06,0.232
-1.810E-06,0.384
-1.800E-06,0.496
-1.790E-06,0.408
-1.780E-06,0.176
-1.770E-06,0.160
-1.760E-06,-0.040
-1.750E-06,0.232
-1.740E-06,0.296
-1.730E-06,0.312
-1.720E-06,0.392
-1.710E-06,0.160
-1.700E-06,0.080
-1.690E-06,0.096
-1.680E-06,0.104
-1.670E-06,0.288
-1.660E-06,0.440
-1.650E-06,0.432
-1.640E-06,0.616
-1.630E-06,0.368
-1.620E-06,0.344
-1.610E-06,0.112
-1.600E-06,-0.032
-1.590E-06,0.000
-1.580E-06,-0.072
-1.570E-06,0.136
-1.560E-06,0.200
-1.550E-06,0.216
-1.540E-06,0.232
-1.530E-06,0.120
-1.520E-06,0.120
-1.510E-06,0.160
-1.500E-06,0.136
-1.490E-06,0.168
-1.480E-06,0.184
-1.470E-06,0.072
-1.460E-06,-0.008
-1.450E-06,-0.104
-1.440E-06,-0.128
-1.430E-06,-0.088
-1.420E-06,0.000
-1.410E-06,0.096
-1.400E-06,0.192
-1.390E-06,0.216
-1.380E-06,0.224
-1.370E-06,0.176
-1.360E-06,0.120
-1.350E-06,0.064
-1.340E-06,0.088
-1.330E-06,0.168
-1.320E-06,0.240
-1.310E-06,0.264
-1.300E-06,0.200
-1.290E-06,0.152
-1.280E-06,0.120
-1.270E-06,0.104
-1.260E-06,0.168
-1.250E-06,0.240
-1.240E-06,0.128
-1.230E-06,0.088
-1.220E-06,0.056
-1.210E-06,-0.232
-1.200E-06,-0.120
-1.190E-06,-0.184
-1.180E-06,-0.216
-1.170E-06,0.160
-1.160E-06,0.280
-1.150E-06,0.504
-1.140E-06,0.592
-1.130E-06,0.288
-1.120E-06,0.112
-1.110E-06,0.056
-1.100E-06,0.008
-1.090E-06,0.176
-1.080E-06,0.288
-1.070E-06,0.376
-1.060E-06,0.320
-1.050E-06,0.112
-1.040E-06,0.032
-1.030E-06,0.000
-1.020E-06,0.024
-1.010E-06,0.160
-1.000E-06,0.232
-9.900E-07,0.288
-9.800E-07,0.344
-9.700E-07,0.368
-9.600E-07,0.224
-9.500E-07,0.168
-9.400E-07,0.120
-9.300E-07,0.024
-9.200E-07,0.032
-9.100E-07,0.080
-9.000E-07,0.144
-8.900E-07,0.200
-8.800E-07,0.144
-8.700E-07,0.088
-8.600E-07,0.024
-8.500E-07,-0.064
-8.400E-07,-0.056
-8.300E-07,-0.104
-8.200E-07,-0.032
-8.100E-07,0.048
-8.000E-07,0.080
-7.900E-07,0.096
-7.800E-07,0.120
-7.700E-07,0.168
-7.600E-07,0.040
-7.500E-07,0.152
-7.400E-07,0.008
-7.300E-07,-0.040
-7.200E-07,0.048
-7.100E-07,0.064
-7.000E-07,0.240
-6.900E-07,0.432
-6.800E-07,0.384
-6.700E-07,0.304
-6.600E-07,0.296
-6.500E-07,0.128
-6.400E-07,0.296
-6.300E-07,0.368
-6.200E-07,0.400
-6.100E-07,0.432
-6.000E-07,0.304
-5.900E-07,0.392
-5.800E-07,0.336
-5.700E-07,0.176
-5.600E-07,0.376
-5.500E-07,0.400
-5.400E-07,0.424
-5.300E-07,0.568
-5.200E-07,0.400
-5.100E-07,0.216
-5.000E-07,0.368
-4.900E-07,0.248
-4.800E-07,0.256
-4.700E-07,0.264
-4.600E-07,0.104
-4.500E-07,0.112
-4.400E-07,0.096
-4.300E-07,0.088
-4.200E-07,0.104
-4.100E-07,0.056
-4.000E-07,-0.040
-3.900E-07,-0.080
-3.800E-07,-0.088
-3.700E-07,-0.072
-3.600E-07,0.040
-3.500E-07,0.040
-3.400E-07,0.096
-3.300E-07,0.032
-3.200E-07,-0.048
-3.100E-07,-0.048
-3.000E-07,-0.096
-2.900E-07,-0.040
-2.800E-07,-0.032
-2.700E-07,-0.024
-2.600E-07,-0.040
-2.500E-07,-0.024
-2.400E-07,-0.024
-2.300E-07,0.008
-2.200E-07,0.088
-2.100E-07,0.064
-2.000E-07,0.096
-1.900E-07,0.096
-1.800E-07,0.064
-1.700E-07,0.128
-1.600E-07,0.112
-1.500E-07,0.112
-1.400E-07,0.176
-1.300E-07,0.160
-1.200E-07,0.168
-1.100E-07,0.184
-1.000E-07,0.184
-9.000E-08,0.216
-8.000E-08,0.288
-7.000E-08,0.240
-6.000E-08,-0.048
-5.000E-08,0.200
-4.000E-08,-0.096
-3.000E-08,0.032
-2.000E-08,-0.304
-1.000E-08,-0.960
0.000E+00,-0.544
1.000E-08,-0.184
2.000E-08,0.792
3.000E-08,1.080
4.000E-08,1.088
5.000E-08,0.880
6.000E-08,0.064
7.000E-08,-1.040
8.000E-08,-1.040
9.000E-08,0.224
1.000E-07,0.928
1.100E-07,1.088
1.200E-07,1.088
1.300E-07,0.600
1.400E-07,-1.000
1.500E-07,-1.008
1.600E-07,-0.616
1.700E-07,0.064
1.800E-07,1.072
1.900E-07,1.080
2.000E-07,1.016
2.100E-07,0.440
2.200E-07,-0.512
2.300E-07,-0.624
2.400E-07,-0.272
2.500E-07,-0.056
2.600E-07,0.728
2.700E-07,0.800
2.800E-07,0.456
2.900E-07,0.200
3.000E-07,-0.336
3.100E-07,-0.488
3.200E-07,-0.392
3.300E-07,-0.232
3.400E-07,-0.088
3.500E-07,0.000
3.600E-07,-0.136
3.700E-07,-0.208
3.800E-07,-0.384
3.900E-07,-0.400
4.000E-07,-0.456
4.100E-07,-0.440
4.200E-07,-0.296
4.300E-07,-0.272
4.400E-07,-0.104
4.500E-07,-0.128
4.600E-07,-0.248
4.700E-07,-0.352
4.800E-07,-0.360
4.900E-07,-0.296
5.000E-07,-0.048
5.100E-07,0.136
5.200E-07,0.224
5.300E-07,0.232
5.400E-07,0.096
5.500E-07,-0.024
5.600E-07,-0.080
5.700E-07,-0.048
5.800E-07,0.088
5.900E-07,0.296
6.000E-07,0.312
6.100E-07,0.312
6.200E-07,0.136
6.300E-07,0.008
6.400E-07,-0.016
6.500E-07,-0.032
6.600E-07,-0.008
6.700E-07,-0.008
6.800E-07,-0.008
6.900E-07,-0.048
7.000E-07,-0.064
7.100E-07,-0.040
7.200E-07,-0.040
7.300E-07,0.000
7.400E-07,0.088
7.500E-07,0.120
7.600E-07,0.240
7.700E-07,0.200
7.800E-07,0.360
7.900E-07,0.360
8.000E-07,0.304
8.100E-07,0.368
8.200E-07,0.208
8.300E-07,0.304
8.400E-07,0.152
8.500E-07,0.248
8.600E-07,0.288
8.700E-07,0.224
8.800E-07,0.344
8.900E-07,0.176
9.000E-07,0.312
9.100E-07,0.240
9.200E-07,0.144
9.300E-07,0.152
9.400E-07,0.088
9.500E-07,0.232
9.600E-07,0.192
9.700E-07,0.256
9.800E-07,0.384
9.900E-07,0.096
1.000E-06,0.304
1.010E-06,-0.032
1.020E-06,0.136
1.030E-06,0.256
1.040E-06,0.088
1.050E-06,0.344
1.060E-06,0.296
1.070E-06,0.304
1.080E-06,0.528
1.090E-06,0.360
1.100E-06,0.440
1.110E-06,0.432
1.120E-06,0.408
1.130E-06,0.504
1.140E-06,0.568
1.150E-06,0.384
1.160E-06,0.464
1.170E-06,0.400
1.180E-06,0.192
1.190E-06,0.104
1.200E-06,-0.096
1.210E-06,-0.016
1.220E-06,-0.096
1.230E-06,0.544
1.240E-06,0.264
1.250E-06,0.928
1.260E-06,0.240
1.270E-06,0.136
1.280E-06,-0.208
1.290E-06,-0.696
1.300E-06,-0.208
1.310E-06,0.040
1.320E-06,1.080
1.330E-06,1.080
1.340E-06,0.840
1.350E-06,1.080
1.360E-06,-0.688
1.370E-06,-0.248
1.380E-06,0.144
1.390E-06,0.112
1.400E-06,1.080
1.410E-06,0.808
1.420E-06,0.896
1.430E-06,0.984
1.440E-06,0.560
1.450E-06,0.624
1.460E-06,0.712
1.470E-06,0.648
1.480E-06,0.648
1.490E-06,0.688
1.500E-06,0.472
1.510E-06,0.456
1.520E-06,0.408
1.530E-06,0.056
1.540E-06,0.312
1.550E-06,0.136
1.560E-06,0.080
1.570E-06,0.240
1.580E-06,0.576
1.590E-06,0.008
1.600E-06,0.024
1.610E-06,-0.576
1.620E-06,-0.688
1.630E-06,-1.016
1.640E-06,-0.960
1.650E-06,-0.728
1.660E-06,-0.648
1.670E-06,-0.104
1.680E-06,-0.080
1.690E-06,0.296
1.700E-06,0.320
1.710E-06,0.152
1.720E-06,0.176
1.730E-06,0.064
1.740E-06,0.248
1.750E-06,0.568
1.760E-06,0.720
1.770E-06,0.912
1.780E-06,0.784
1.790E-06,0.592
1.800E-06,0.536
1.810E-06,0.272
1.820E-06,0.296
1.830E-06,0.256
1.840E-06,-0.040
1.850E-06,-0.224
1.860E-06,-0.560
1.870E-06,-0.536
1.880E-06,-0.824
1.890E-06,-0.848
1.900E-06,-0.848
1.910E-06,-0.840
1.920E-06,-0.392
1.930E-06,-0.248
1.940E-06,0.000
1.950E-06,-0.016
1.960E-06,-0.528
1.970E-06,-0.400
1.980E-06,-0.440
1.990E-06,-0.432
2.000E-06,0.280
2.010E-06,-0.080
2.020E-06,-0.152
2.030E-06,-0.312
2.040E-06,-0.520
2.050E-06,-0.344
2.060E-06,0.016
2.070E-06,-0.248
2.080E-06,0.064
2.090E-06,0.080
2.100E-06,-0.072
2.110E-06,0.336
2.120E-06,0.504
2.130E-06,0.024
2.140E-06,0.528
2.150E-06,-0.096
2.160E-06,-0.120
2.170E-06,-0.200
2.180E-06,-0.272
2.190E-06,-0.392
2.200E-06,-0.328
2.210E-06,-0.576
2.220E-06,-0.624
2.230E-06,-0.688
2.240E-06,-0.912
2.250E-06,-0.968
2.260E-06,-1.032
2.270E-06,-1.040
2.280E-06,-1.048
2.290E-06,-1.048
2.300E-06,-1.048
2.310E-06,-1.032
2.320E-06,-1.040
2.330E-06,-1.040
2.340E-06,-1.048
2.350E-06,-1.040
2.360E-06,-1.032
2.370E-06,-1.040
2.380E-06,-1.032
2.390E-06,-1.040
2.400E-06,-1.040
2.410E-06,-1.048
2.420E-06,-1.040
2.430E-06,-1.048
2.440E-06,-1.032
2.450E-06,-1.040
2.460E-06,-1.048
2.470E-06,-1.040
2.480E-06,-1.040
2.490E-06,-1.048
2.500E-06,-1.040
2.510E-06,-1.048
2.520E-06,-1.032
2.530E-06,-1.040
2.540E-06,-1.040
2.550E-06,-0.976
2.560E-06,-0.872
2.570E-06,-0.656
2.580E-06,-0.344
2.590E-06,-0.400
2.600E-06,-0.248
2.610E-06,0.072
2.620E-06,-0.072
2.630E-06,-0.008
2.640E-06,-0.080
2.650E-06,-0.336
2.660E-06,-0.416
2.670E-06,-0.456
2.680E-06,-0.600
2.690E-06,-0.656
2.700E-06,-0.864
2.710E-06,-1.024
2.720E-06,-1.040
2.730E-06,-1.040
2.740E-06,-1.040
2.750E-06,-1.040
2.760E-06,-1.048
2.770E-06,-1.040
2.780E-06,-1.040
2.790E-06,-0.992
2.800E-06,-1.048
2.810E-06,-1.008
2.820E-06,-1.008
2.830E-06,-1.048
2.840E-06,-0.640
2.850E-06,-0.552
2.860E-06,-0.032
2.870E-06,0.192
2.880E-06,0.216
2.890E-06,0.168
2.900E-06,0.008
2.910E-06,0.016
2.920E-06,0.120
2.930E-06,0.336
2.940E-06,0.464
2.950E-06,0.544
2.960E-06,0.512
2.970E-06,0.488
2.980E-06,0.448
2.990E-06,0.400
3.000E-06,0.472
3.010E-06,0.488
3.020E-06,0.624
3.030E-06,0.568
3.040E-06,0.528
3.050E-06,0.320
3.060E-06,0.152
3.070E-06,0.000
3.080E-06,-0.016
3.090E-06,-0.096
3.100E-06,-0.432
3.110E-06,-0.624
3.120E-06,-1.048
3.130E-06,-1.032
3.140E-06,-1.040
3.150E-06,-1.048
3.160E-06,-1.040
3.170E-06,-0.968
3.180E-06,-0.600
3.190E-06,0.064
3.200E-06,0.472
3.210E-06,0.976
3.220E-06,1.088
3.230E-06,1.080
3.240E-06,1.072
3.250E-06,1.080
3.260E-06,1.080
3.270E-06,1.080
3.280E-06,1.080
3.290E-06,0.968
3.300E-06,0.824
3.310E-06,0.880
3.320E-06,0.248
3.330E-06,0.600
3.340E-06,0.160
3.350E-06,-0.032
3.360E-06,0.176
3.370E-06,-0.416
3.380E-06,-0.328
3.390E-06,-0.736
3.400E-06,-1.032
3.410E-06,-1.040
3.420E-06,-1.048
3.430E-06,-1.048
3.440E-06,-1.032
3.450E-06,-1.032
3.460E-06,-1.032
3.470E-06,-0.600
3.480E-06,-0.544
3.490E-06,-0.304
3.500E-06,-0.152
3.510E-06,-0.136
3.520E-06,0.016
3.530E-06,0.136
3.540E-06,0.136
3.550E-06,0.256
3.560E-06,0.192
3.570E-06,0.144
3.580E-06,0.104
3.590E-06,0.032
3.600E-06,0.000
3.610E-06,-0.008
3.620E-06,-0.088
3.630E-06,-0.160
3.640E-06,-0.192
3.650E-06,-0.280
3.660E-06,-0.288
3.670E-06,-0.288
3.680E-06,-0.232
3.690E-06,-0.216
3.700E-06,-0.128
3.710E-06,-0.096
3.720E-06,-0.056
3.730E-06,-0.032
3.740E-06,0.000
3.750E-06,0.000
3.760E-06,-0.008
3.770E-06,-0.056
3.780E-06,-0.144
3.790E-06,-0.248
3.800E-06,-0.360
3.810E-06,-0.488
3.820E-06,-0.616
3.830E-06,-0.704
3.840E-06,-0.848
3.850E-06,-0.920
3.860E-06,-1.024
3.870E-06,-1.032
3.880E-06,-1.040
3.890E-06,-1.048
3.900E-06,-1.040
3.910E-06,-1.032
3.920E-06,-1.032
3.930E-06,-0.984
3.940E-06,-0.888
3.950E-06,-0.784
3.960E-06,-0.664
3.970E-06,-0.520
3.980E-06,-0.416
3.990E-06,-0.336
4.000E-06,-0.248
4.010E-06,-0.160
4.020E-06,-0.048
4.030E-06,0.016
4.040E-06,0.072
4.050E-06,0.064
4.060E-06,0.016
4.070E-06,-0.024
4.080E-06,-0.104
4.090E-06,-0.160
4.100E-06,-0.216
4.110E-06,-0.280
4.120E-06,-0.368
4.130E-06,-0.408
4.140E-06,-0.456
4.150E-06,-0.488
4.160E-06,-0.472
4.170E-06,-0.472
4.180E-06,-0.440
4.190E-06,-0.448
4.200E-06,-0.488
4.210E-06,-0.496
4.220E-06,-0.496
4.230E-06,-0.496
4.240E-06,-0.504
4.250E-06,-0.528
4.260E-06,-0.512
4.270E-06,-0.480
4.280E-06,-0.424
4.290E-06,-0.384
4.300E-06,-0.336
4.310E-06,-0.296
4.320E-06,-0.240
4.330E-06,-0.224
4.340E-06,-0.160
4.350E-06,-0.112
4.360E-06,-0.096
4.370E-06,-0.072
4.380E-06,-0.016
4.390E-06,-0.016
4.400E-06,-0.024
4.410E-06,-0.056
4.420E-06,-0.104
4.430E-06,-0.104
4.440E-06,-0.120
4.450E-06,-0.128
4.460E-06,-0.112
4.470E-06,-0.168
4.480E-06,-0.240
4.490E-06,-0.336
4.500E-06,-0.448
4.510E-06,-0.456
4.520E-06,-0.504
4.530E-06,-0.536
4.540E-06,-0.552
4.550E-06,-0.608
4.560E-06,-0.624
4.570E-06,-0.648
4.580E-06,-0.624
4.590E-06,-0.600
4.600E-06,-0.560
4.610E-06,-0.552
4.620E-06,-0.536
4.630E-06,-0.512
4.640E-06,-0.496
4.650E-06,-0.432
4.660E-06,-0.360
4.670E-06,-0.312
4.680E-06,-0.256
4.690E-06,-0.264
4.700E-06,-0.240
4.710E-06,-0.256
4.720E-06,-0.256
4.730E-06,-0.224
4.740E-06,-0.240
4.750E-06,-0.208
4.760E-06,-0.224
4.770E-06,-0.208
4.780E-06,-0.128
4.790E-06,-0.080
4.800E-06,0.032
4.810E-06,0.104
4.820E-06,0.120
4.830E-06,0.168
4.840E-06,0.120
4.850E-06,0.120
4.860E-06,0.112
4.870E-06,0.072
4.880E-06,0.024
4.890E-06,-0.008
4.900E-06,-0.088
4.910E-06,-0.200
4.920E-06,-0.304
4.930E-06,-0.400
4.940E-06,-0.496
4.950E-06,-0.560
4.960E-06,-0.592
4.970E-06,-0.632
4.980E-06,-0.632
4.990E-06,-0.648
5.000E-06,-0.656
5.010E-06,-0.640
5.020E-06,-0.624
5.030E-06,-0.560
5.040E-06,-0.496
5.050E-06,-0.440
5.060E-06,-0.368
5.070E-06,-0.336
5.080E-06,-0.264
5.090E-06,-0.224
5.100E-06,-0.224
5.110E-06,-0.168
5.120E-06,-0.168
5.130E-06,-0.136
5.140E-06,-0.104
5.150E-06,-0.088
5.160E-06,-0.024
5.170E-06,0.008
5.180E-06,0.016
5.190E-06,0.072
5.200E-06,0.048
5.210E-06,0.072
5.220E-06,0.072
5.230E-06,0.040
5.240E-06,0.064
5.250E-06,0.016
5.260E-06,-0.008
5.270E-06,-0.024
5.280E-06,-0.072
5.290E-06,-0.088
5.300E-06,-0.064
5.310E-06,-0.080
5.320E-06,-0.064
5.330E-06,-0.056
5.340E-06,-0.064
5.350E-06,-0.080
5.360E-06,-0.080
5.370E-06,-0.096
5.380E-06,-0.136
5.390E-06,-0.136
5.400E-06,-0.168
5.410E-06,-0.168
5.420E-06,-0.168
5.430E-06,-0.216
5.440E-06,-0.232
5.450E-06,-0.264
5.460E-06,-0.296
5.470E-06,-0.304
5.480E-06,-0.328
5.490E-06,-0.312
5.500E-06,-0.304
5.510E-06,-0.280
5.520E-06,-0.256
5.530E-06,-0.232
5.540E-06,-0.184
5.550E-06,-0.160
5.560E-06,-0.152
5.570E-06,-0.136
5.580E-06,-0.096
5.590E-06,-0.072
5.600E-06,-0.032
5.610E-06,0.000
5.620E-06,0.000
5.630E-06,-0.024
5.640E-06,0.000
5.650E-06,-0.024
5.660E-06,-0.032
5.670E-06,-0.048
5.680E-06,-0.088
5.690E-06,-0.120
5.700E-06,-0.144
5.710E-06,-0.160
5.720E-06,-0.184
5.730E-06,-0.184
5.740E-06,-0.208
5.750E-06,-0.200
5.760E-06,-0.192
5.770E-06,-0.168
5.780E-06,-0.160
5.790E-06,-0.160
5.800E-06,-0.160
5.810E-06,-0.160
5.820E-06,-0.168
5.830E-06,-0.144
5.840E-06,-0.120
5.850E-06,-0.104
5.860E-06,-0.088
5.870E-06,-0.088
5.880E-06,-0.096
5.890E-06,-0.088
5.900E-06,-0.088
5.910E-06,-0.072
5.920E-06,-0.064
5.930E-06,-0.016
5.940E-06,-0.008
5.950E-06,0.008
5.960E-06,0.040
5.970E-06,0.056
5.980E-06,0.088
5.990E-06,0.136
6.000E-06,0.168
6.010E-06,0.192
6.020E-06,0.208
6.030E-06,0.224
6.040E-06,0.216
6.050E-06,0.208
6.060E-06,0.200
6.070E-06,0.168
6.080E-06,0.160
6.090E-06,0.144
6.100E-06,0.136
6.110E-06,0.120
6.120E-06,0.080
6.130E-06,0.040
6.140E-06,-0.024
6.150E-06,-0.064
6.160E-06,-0.136
6.170E-06,-0.200
6.180E-06,-0.272
6.190E-06,-0.312
6.200E-06,-0.352
6.210E-06,-0.360
6.220E-06,-0.328
6.230E-06,-0.248
6.240E-06,-0.136
6.250E-06,-0.008
6.260E-06,0.104
6.270E-06,0.224
6.280E-06,0.288
6.290E-06,0.312
6.300E-06,0.280
6.310E-06,0.216
6.320E-06,0.152
6.330E-06,0.080
6.340E-06,0.048
6.350E-06,0.040
6.360E-06,0.088
6.370E-06,0.160
6.380E-06,0.192
6.390E-06,0.208
6.400E-06,0.216
6.410E-06,0.208
6.420E-06,0.224
6.430E-06,0.232
6.440E-06,0.240
6.450E-06,0.240
6.460E-06,0.240
6.470E-06,0.248
6.480E-06,0.200
6.490E-06,0.152
6.500E-06,0.080
6.510E-06,-0.008
6.520E-06,-0.112
6.530E-06,-0.240
6.540E-06,-0.296
6.550E-06,-0.320
6.560E-06,-0.304
6.570E-06,-0.232
6.580E-06,-0.136
6.590E-06,-0.048
6.600E-06,0.048
6.610E-06,0.144
6.620E-06,0.224
6.630E-06,0.304
6.640E-06,0.344
6.650E-06,0.400
6.660E-06,0.440
6.670E-06,0.488
6.680E-06,0.528
6.690E-06,0.544
6.700E-06,0.568
6.710E-06,0.568
6.720E-06,0.536
6.730E-06,0.512
6.740E-06,0.480
6.750E-06,0.440
6.760E-06,0.424
6.770E-06,0.416
6.780E-06,0.424
6.790E-06,0.448
6.800E-06,0.448
6.810E-06,0.432
6.820E-06,0.400
6.830E-06,0.344
6.840E-06,0.304
6.850E-06,0.264
6.860E-06,0.224
6.870E-06,0.200
6.880E-06,0.176
6.890E-06,0.160
6.900E-06,0.160
6.910E-06,0.160
6.920E-06,0.184
6.930E-06,0.216
6.940E-06,0.232
6.950E-06,0.272
6.960E-06,0.288
6.970E-06,0.312
6.980E-06,0.320
6.990E-06,0.344
7.000E-06,0.360
7.010E-06,0.352
7.020E-06,0.328
7.030E-06,0.312
7.040E-06,0.264
7.050E-06,0.200
7.060E-06,0.120
7.070E-06,0.040
7.080E-06,-0.024
7.090E-06,-0.072
7.100E-06,-0.080
7.110E-06,-0.048
7.120E-06,0.008
7.130E-06,0.088
7.140E-06,0.152
7.150E-06,0.216
7.160E-06,0.256
7.170E-06,0.272
7.180E-06,0.248
7.190E-06,0.216
7.200E-06,0.168
7.210E-06,0.112
7.220E-06,0.064
7.230E-06,0.040
7.240E-06,0.016
7.250E-06,0.024
7.260E-06,0.008
7.270E-06,0.008
7.280E-06,0.008
7.290E-06,0.032
7.300E-06,0.080
7.310E-06,0.136
7.320E-06,0.216
7.330E-06,0.296
7.340E-06,0.392
7.350E-06,0.488
7.360E-06,0.560
7.370E-06,0.632
7.380E-06,0.664
7.390E-06,0.688
7.400E-06,0.672
7.410E-06,0.648
7.420E-06,0.576
7.430E-06,0.504
7.440E-06,0.408
7.450E-06,0.320
7.460E-06,0.240
7.470E-06,0.200
7.480E-06,0.160
7.490E-06,0.152
7.500E-06,0.176
7.510E-06,0.240
7.520E-06,0.312
7.530E-06,0.400
7.540E-06,0.488
7.550E-06,0.560
7.560E-06,0.600
7.570E-06,0.616
7.580E-06,0.608
7.590E-06,0.576
7.600E-06,0.544
7.610E-06,0.512
7.620E-06,0.496
7.630E-06,0.488
7.640E-06,0.504
7.650E-06,0.528
7.660E-06,0.520
7.670E-06,0.512
