mediciones/Mediciones filtradas (saque las feas)/6-10/36.2/WaveData55147.csv

#timebase=2000000(ps)
,#voltbase=500000(mv/100)
#size=4000
-4.250E-06,0.040
-4.240E-06,0.040
-4.230E-06,0.060
-4.220E-06,0.060
-4.210E-06,0.060
-4.200E-06,0.060
-4.190E-06,0.040
-4.180E-06,0.020
-4.170E-06,0.060
-4.160E-06,0.040
-4.150E-06,0.040
-4.140E-06,0.060
-4.130E-06,0.060
-4.120E-06,0.020
-4.110E-06,0.060
-4.100E-06,0.080
-4.090E-06,0.080
-4.080E-06,0.040
-4.070E-06,0.040
-4.060E-06,0.080
-4.050E-06,0.040
-4.040E-06,0.020
-4.030E-06,0.040
-4.020E-06,0.020
-4.010E-06,0.040
-4.000E-06,0.020
-3.990E-06,0.060
-3.980E-06,0.060
-3.970E-06,0.020
-3.960E-06,0.060
-3.950E-06,0.060
-3.940E-06,0.080
-3.930E-06,0.080
-3.920E-06,0.080
-3.910E-06,0.020
-3.900E-06,0.020
-3.890E-06,0.040
-3.880E-06,0.080
-3.870E-06,0.060
-3.860E-06,0.080
-3.850E-06,0.020
-3.840E-06,0.020
-3.830E-06,0.040
-3.820E-06,0.020
-3.810E-06,0.060
-3.800E-06,0.060
-3.790E-06,0.040
-3.780E-06,0.020
-3.770E-06,0.040
-3.760E-06,0.040
-3.750E-06,0.020
-3.740E-06,0.040
-3.730E-06,0.020
-3.720E-06,0.040
-3.710E-06,0.080
-3.700E-06,0.080
-3.690E-06,0.040
-3.680E-06,0.040
-3.670E-06,0.060
-3.660E-06,0.080
-3.650E-06,0.040
-3.640E-06,0.040
-3.630E-06,0.060
-3.620E-06,0.060
-3.610E-06,0.060
-3.600E-06,0.040
-3.590E-06,0.060
-3.580E-06,0.040
-3.570E-06,0.080
-3.560E-06,0.040
-3.550E-06,0.040
-3.540E-06,0.040
-3.530E-06,0.020
-3.520E-06,0.060
-3.510E-06,0.080
-3.500E-06,0.040
-3.490E-06,0.060
-3.480E-06,0.080
-3.470E-06,0.060
-3.460E-06,0.060
-3.450E-06,0.080
-3.440E-06,0.040
-3.430E-06,0.060
-3.420E-06,0.060
-3.410E-06,0.060
-3.400E-06,0.020
-3.390E-06,0.020
-3.380E-06,0.060
-3.370E-06,0.060
-3.360E-06,0.060
-3.350E-06,0.060
-3.340E-06,0.080
-3.330E-06,0.020
-3.320E-06,0.040
-3.310E-06,0.060
-3.300E-06,0.040
-3.290E-06,0.060
-3.280E-06,0.080
-3.270E-06,0.060
-3.260E-06,0.040
-3.250E-06,0.020
-3.240E-06,0.060
-3.230E-06,0.060
-3.220E-06,0.040
-3.210E-06,0.020
-3.200E-06,0.060
-3.190E-06,0.020
-3.180E-06,0.020
-3.170E-06,0.060
-3.160E-06,0.060
-3.150E-06,0.060
-3.140E-06,0.060
-3.130E-06,0.040
-3.120E-06,0.040
-3.110E-06,0.040
-3.100E-06,0.060
-3.090E-06,0.080
-3.080E-06,0.040
-3.070E-06,0.040
-3.060E-06,0.060
-3.050E-06,0.060
-3.040E-06,0.060
-3.030E-06,0.100
-3.020E-06,0.040
-3.010E-06,0.040
-3.000E-06,0.040
-2.990E-06,0.060
-2.980E-06,0.040
-2.970E-06,0.040
-2.960E-06,0.080
-2.950E-06,0.040
-2.940E-06,0.040
-2.930E-06,0.000
-2.920E-06,0.140
-2.910E-06,0.520
-2.900E-06,1.240
-2.890E-06,1.980
-2.880E-06,2.560
-2.870E-06,2.720
-2.860E-06,2.280
-2.850E-06,1.520
-2.840E-06,-0.360
-2.830E-06,-1.180
-2.820E-06,-1.740
-2.810E-06,-2.560
-2.800E-06,-2.200
-2.790E-06,-2.580
-2.780E-06,-2.660
-2.770E-06,-2.660
-2.760E-06,-2.540
-2.750E-06,-1.720
-2.740E-06,-0.940
-2.730E-06,-0.100
-2.720E-06,0.240
-2.710E-06,0.360
-2.700E-06,0.160
-2.690E-06,0.140
-2.680E-06,0.340
-2.670E-06,0.520
-2.660E-06,0.700
-2.650E-06,0.860
-2.640E-06,0.820
-2.630E-06,0.880
-2.620E-06,1.020
-2.610E-06,1.100
-2.600E-06,1.200
-2.590E-06,1.200
-2.580E-06,1.000
-2.570E-06,0.660
-2.560E-06,0.500
-2.550E-06,0.280
-2.540E-06,0.080
-2.530E-06,-0.080
-2.520E-06,-0.360
-2.510E-06,-0.580
-2.500E-06,-0.700
-2.490E-06,-0.720
-2.480E-06,-0.560
-2.470E-06,-0.240
-2.460E-06,0.120
-2.450E-06,0.360
-2.440E-06,0.600
-2.430E-06,0.740
-2.420E-06,0.780
-2.410E-06,0.820
-2.400E-06,0.760
-2.390E-06,0.720
-2.380E-06,0.620
-2.370E-06,0.480
-2.360E-06,0.360
-2.350E-06,0.240
-2.340E-06,0.100
-2.330E-06,-0.080
-2.320E-06,-0.220
-2.310E-06,-0.460
-2.300E-06,-0.760
-2.290E-06,-0.920
-2.280E-06,-1.100
-2.270E-06,-1.220
-2.260E-06,-1.140
-2.250E-06,-1.160
-2.240E-06,-1.100
-2.230E-06,-0.920
-2.220E-06,-0.740
-2.210E-06,-0.500
-2.200E-06,-0.160
-2.190E-06,0.100
-2.180E-06,0.340
-2.170E-06,0.520
-2.160E-06,0.600
-2.150E-06,0.780
-2.140E-06,0.860
-2.130E-06,0.940
-2.120E-06,0.880
-2.110E-06,0.780
-2.100E-06,0.660
-2.090E-06,0.520
-2.080E-06,0.380
-2.070E-06,0.320
-2.060E-06,0.240
-2.050E-06,0.140
-2.040E-06,0.080
-2.030E-06,-0.020
-2.020E-06,-0.080
-2.010E-06,-0.160
-2.000E-06,-0.260
-1.990E-06,-0.280
-1.980E-06,-0.320
-1.970E-06,-0.320
-1.960E-06,-0.320
-1.950E-06,-0.280
-1.940E-06,-0.220
-1.930E-06,-0.160
-1.920E-06,-0.040
-1.910E-06,0.100
-1.900E-06,0.240
-1.890E-06,0.320
-1.880E-06,0.420
-1.870E-06,0.460
-1.860E-06,0.460
-1.850E-06,0.460
-1.840E-06,0.380
-1.830E-06,0.360
-1.820E-06,0.460
-1.810E-06,0.440
-1.800E-06,0.160
-1.790E-06,0.260
-1.780E-06,0.120
-1.770E-06,0.000
-1.760E-06,0.080
-1.750E-06,-0.080
-1.740E-06,-0.140
-1.730E-06,-0.160
-1.720E-06,-0.260
-1.710E-06,-0.160
-1.700E-06,-0.160
-1.690E-06,-0.160
-1.680E-06,-0.160
-1.670E-06,-0.180
-1.660E-06,-0.220
-1.650E-06,-0.200
-1.640E-06,-0.140
-1.630E-06,-0.120
-1.620E-06,-0.140
-1.610E-06,0.020
-1.600E-06,-0.040
-1.590E-06,-0.080
-1.580E-06,0.060
-1.570E-06,0.000
-1.560E-06,0.160
-1.550E-06,0.220
-1.540E-06,0.260
-1.530E-06,0.260
-1.520E-06,0.300
-1.510E-06,0.120
-1.500E-06,0.160
-1.490E-06,0.300
-1.480E-06,0.240
-1.470E-06,0.340
-1.460E-06,0.300
-1.450E-06,0.200
-1.440E-06,0.160
-1.430E-06,0.180
-1.420E-06,0.160
-1.410E-06,0.240
-1.400E-06,0.180
-1.390E-06,0.080
-1.380E-06,0.060
-1.370E-06,0.000
-1.360E-06,-0.020
-1.350E-06,0.000
-1.340E-06,0.020
-1.330E-06,0.000
-1.320E-06,-0.020
-1.310E-06,-0.080
-1.300E-06,-0.060
-1.290E-06,0.000
-1.280E-06,0.040
-1.270E-06,0.060
-1.260E-06,0.040
-1.250E-06,0.080
-1.240E-06,0.080
-1.230E-06,0.140
-1.220E-06,0.160
-1.210E-06,0.200
-1.200E-06,0.240
-1.190E-06,0.140
-1.180E-06,0.100
-1.170E-06,0.000
-1.160E-06,0.000
-1.150E-06,0.100
-1.140E-06,0.120
-1.130E-06,0.140
-1.120E-06,0.080
-1.110E-06,-0.020
-1.100E-06,-0.180
-1.090E-06,-0.320
-1.080E-06,-0.560
-1.070E-06,-0.600
-1.060E-06,-0.500
-1.050E-06,-0.260
-1.040E-06,0.080
-1.030E-06,0.320
-1.020E-06,0.480
-1.010E-06,0.540
-1.000E-06,0.560
-9.900E-07,0.620
-9.800E-07,0.640
-9.700E-07,0.700
-9.600E-07,0.760
-9.500E-07,0.780
-9.400E-07,0.700
-9.300E-07,0.620
-9.200E-07,0.520
-9.100E-07,0.400
-9.000E-07,0.320
-8.900E-07,0.240
-8.800E-07,0.180
-8.700E-07,0.160
-8.600E-07,0.120
-8.500E-07,0.160
-8.400E-07,0.040
-8.300E-07,0.000
-8.200E-07,-0.060
-8.100E-07,-0.240
-8.000E-07,-0.220
-7.900E-07,-0.260
-7.800E-07,-0.220
-7.700E-07,-0.060
-7.600E-07,0.020
-7.500E-07,0.180
-7.400E-07,0.220
-7.300E-07,0.280
-7.200E-07,0.340
-7.100E-07,0.360
-7.000E-07,0.440
-6.900E-07,0.520
-6.800E-07,0.500
-6.700E-07,0.520
-6.600E-07,0.380
-6.500E-07,0.340
-6.400E-07,0.220
-6.300E-07,0.080
-6.200E-07,0.000
-6.100E-07,-0.120
-6.000E-07,-0.100
-5.900E-07,-0.040
-5.800E-07,-0.060
-5.700E-07,-0.020
-5.600E-07,-0.020
-5.500E-07,0.000
-5.400E-07,0.000
-5.300E-07,0.060
-5.200E-07,0.160
-5.100E-07,0.320
-5.000E-07,0.400
-4.900E-07,0.480
-4.800E-07,0.540
-4.700E-07,0.560
-4.600E-07,0.520
-4.500E-07,0.500
-4.400E-07,0.500
-4.300E-07,0.580
-4.200E-07,0.580
-4.100E-07,0.580
-4.000E-07,0.580
-3.900E-07,0.520
-3.800E-07,0.420
-3.700E-07,0.380
-3.600E-07,0.320
-3.500E-07,0.260
-3.400E-07,0.220
-3.300E-07,0.180
-3.200E-07,0.160
-3.100E-07,0.180
-3.000E-07,0.080
-2.900E-07,0.160
-2.800E-07,0.040
-2.700E-07,0.020
-2.600E-07,0.080
-2.500E-07,0.080
-2.400E-07,0.140
-2.300E-07,0.220
-2.200E-07,0.220
-2.100E-07,0.220
-2.000E-07,0.160
-1.900E-07,0.140
-1.800E-07,0.100
-1.700E-07,0.160
-1.600E-07,0.160
-1.500E-07,0.200
-1.400E-07,0.180
-1.300E-07,0.200
-1.200E-07,0.220
-1.100E-07,0.120
-1.000E-07,0.180
-9.000E-08,0.160
-8.000E-08,-0.180
-7.000E-08,0.600
-6.000E-08,0.220
-5.000E-08,0.000
-4.000E-08,0.320
-3.000E-08,-1.100
-2.000E-08,-0.840
-1.000E-08,-0.540
0.000E+00,-0.060
1.000E-08,0.720
2.000E-08,0.960
3.000E-08,0.340
4.000E-08,-0.060
5.000E-08,-0.220
6.000E-08,-0.860
7.000E-08,0.500
8.000E-08,0.980
9.000E-08,0.420
1.000E-07,1.280
1.100E-07,0.260
1.200E-07,-0.020
1.300E-07,0.080
1.400E-07,0.280
1.500E-07,0.240
1.600E-07,0.480
1.700E-07,-0.180
1.800E-07,-0.580
1.900E-07,0.320
2.000E-07,-0.280
2.100E-07,0.220
2.200E-07,0.740
2.300E-07,-0.240
2.400E-07,0.320
2.500E-07,0.080
2.600E-07,0.000
2.700E-07,0.860
2.800E-07,0.720
2.900E-07,0.300
3.000E-07,0.820
3.100E-07,0.160
3.200E-07,0.380
3.300E-07,0.900
3.400E-07,0.560
3.500E-07,0.500
3.600E-07,0.380
3.700E-07,-0.180
3.800E-07,0.180
3.900E-07,0.360
4.000E-07,0.400
4.100E-07,0.480
4.200E-07,-0.120
4.300E-07,-0.460
4.400E-07,-0.380
4.500E-07,-0.460
4.600E-07,0.040
4.700E-07,0.380
4.800E-07,0.300
4.900E-07,0.460
5.000E-07,0.280
5.100E-07,0.260
5.200E-07,0.440
5.300E-07,0.300
5.400E-07,0.440
5.500E-07,0.420
5.600E-07,0.360
5.700E-07,0.520
5.800E-07,0.240
5.900E-07,0.380
6.000E-07,0.280
6.100E-07,0.040
6.200E-07,0.140
6.300E-07,0.000
6.400E-07,0.040
6.500E-07,0.040
6.600E-07,-0.100
6.700E-07,0.000
6.800E-07,0.020
6.900E-07,0.120
7.000E-07,0.180
7.100E-07,0.240
7.200E-07,0.340
7.300E-07,0.220
7.400E-07,0.300
7.500E-07,0.360
7.600E-07,0.300
7.700E-07,0.320
7.800E-07,0.300
7.900E-07,0.240
8.000E-07,0.180
8.100E-07,0.160
8.200E-07,0.120
8.300E-07,0.080
8.400E-07,0.060
8.500E-07,0.000
8.600E-07,0.000
8.700E-07,0.000
8.800E-07,0.040
8.900E-07,0.020
9.000E-07,0.040
9.100E-07,0.080
9.200E-07,0.140
9.300E-07,0.260
9.400E-07,0.240
9.500E-07,0.260
9.600E-07,0.320
9.700E-07,0.380
9.800E-07,0.380
9.900E-07,0.380
1.000E-06,0.420
1.010E-06,0.460
1.020E-06,0.440
1.030E-06,0.460
1.040E-06,0.340
1.050E-06,0.360
1.060E-06,0.280
1.070E-06,0.180
1.080E-06,0.240
1.090E-06,0.120
1.100E-06,0.160
1.110E-06,0.260
1.120E-06,0.200
1.130E-06,0.260
1.140E-06,0.320
1.150E-06,0.260
1.160E-06,0.340
1.170E-06,0.320
1.180E-06,0.240
1.190E-06,0.220
1.200E-06,0.160
1.210E-06,0.100
1.220E-06,0.160
1.230E-06,0.160
1.240E-06,-0.020
1.250E-06,0.060
1.260E-06,0.120
1.270E-06,-0.040
1.280E-06,-0.320
1.290E-06,0.100
1.300E-06,-0.060
1.310E-06,0.060
1.320E-06,0.620
1.330E-06,0.000
1.340E-06,0.840
1.350E-06,0.080
1.360E-06,-0.060
1.370E-06,0.820
1.380E-06,0.360
1.390E-06,0.840
1.400E-06,0.320
1.410E-06,-0.380
1.420E-06,-1.100
1.430E-06,-1.120
1.440E-06,-0.720
1.450E-06,-0.160
1.460E-06,1.780
1.470E-06,0.980
1.480E-06,1.560
1.490E-06,0.800
1.500E-06,0.300
1.510E-06,0.640
1.520E-06,0.140
1.530E-06,0.840
1.540E-06,0.820
1.550E-06,0.440
1.560E-06,0.400
1.570E-06,0.440
1.580E-06,0.300
1.590E-06,0.080
1.600E-06,-0.300
1.610E-06,-1.300
1.620E-06,-2.020
1.630E-06,-2.660
1.640E-06,-2.660
1.650E-06,-2.660
1.660E-06,-2.660
1.670E-06,-2.660
1.680E-06,-2.660
1.690E-06,-2.640
1.700E-06,-2.640
1.710E-06,-2.640
1.720E-06,-2.640
1.730E-06,-2.640
1.740E-06,-2.660
1.750E-06,-2.660
1.760E-06,-2.660
1.770E-06,-2.660
1.780E-06,-2.660
1.790E-06,-2.660
1.800E-06,-2.660
1.810E-06,-2.660
1.820E-06,-2.680
1.830E-06,-2.660
1.840E-06,-2.620
1.850E-06,-2.280
1.860E-06,-1.820
1.870E-06,-1.480
1.880E-06,-1.120
1.890E-06,-0.840
1.900E-06,-0.760
1.910E-06,-0.620
1.920E-06,-0.740
1.930E-06,-0.680
1.940E-06,-0.680
1.950E-06,-0.780
1.960E-06,-0.700
1.970E-06,-0.740
1.980E-06,-0.740
1.990E-06,-0.700
2.000E-06,-0.760
2.010E-06,-0.800
2.020E-06,-0.800
2.030E-06,-0.840
2.040E-06,-0.820
2.050E-06,-0.860
2.060E-06,-0.880
2.070E-06,-0.920
2.080E-06,-0.920
2.090E-06,-0.940
2.100E-06,-0.940
2.110E-06,-0.860
2.120E-06,-0.840
2.130E-06,-0.760
2.140E-06,-0.660
2.150E-06,-0.600
2.160E-06,-0.480
2.170E-06,-0.340
2.180E-06,-0.220
2.190E-06,0.000
2.200E-06,0.100
2.210E-06,0.160
2.220E-06,0.140
2.230E-06,0.200
2.240E-06,0.220
2.250E-06,0.180
2.260E-06,0.400
2.270E-06,0.360
2.280E-06,0.480
2.290E-06,0.520
2.300E-06,0.340
2.310E-06,0.300
2.320E-06,0.200
2.330E-06,0.160
2.340E-06,0.320
2.350E-06,0.300
2.360E-06,0.280
2.370E-06,0.240
2.380E-06,0.120
2.390E-06,0.080
2.400E-06,0.060
2.410E-06,0.080
2.420E-06,0.080
2.430E-06,0.000
2.440E-06,0.000
2.450E-06,-0.040
2.460E-06,-0.080
2.470E-06,-0.120
2.480E-06,-0.140
2.490E-06,-0.200
2.500E-06,-0.260
2.510E-06,-0.280
2.520E-06,-0.320
2.530E-06,-0.360
2.540E-06,-0.380
2.550E-06,-0.420
2.560E-06,-0.420
2.570E-06,-0.440
2.580E-06,-0.400
2.590E-06,-0.420
2.600E-06,-0.400
2.610E-06,-0.400
2.620E-06,-0.360
2.630E-06,-0.320
2.640E-06,-0.260
2.650E-06,-0.160
2.660E-06,-0.120
2.670E-06,-0.020
2.680E-06,0.100
2.690E-06,0.180
2.700E-06,0.260
2.710E-06,0.300
2.720E-06,0.320
2.730E-06,0.320
2.740E-06,0.320
2.750E-06,0.300
2.760E-06,0.320
2.770E-06,0.340
2.780E-06,0.340
2.790E-06,0.300
2.800E-06,0.260
2.810E-06,0.220
2.820E-06,0.220
2.830E-06,0.240
2.840E-06,0.240
2.850E-06,0.260
2.860E-06,0.240
2.870E-06,0.240
2.880E-06,0.260
2.890E-06,0.240
2.900E-06,0.200
2.910E-06,0.200
2.920E-06,0.160
2.930E-06,0.140
2.940E-06,0.180
2.950E-06,0.140
2.960E-06,0.160
2.970E-06,0.160
2.980E-06,0.100
2.990E-06,0.140
3.000E-06,0.160
3.010E-06,0.160
3.020E-06,0.160
3.030E-06,0.120
3.040E-06,0.060
3.050E-06,0.020
3.060E-06,0.000
3.070E-06,0.000
3.080E-06,-0.060
3.090E-06,-0.120
3.100E-06,-0.160
3.110E-06,-0.180
3.120E-06,-0.180
3.130E-06,-0.200
3.140E-06,-0.180
3.150E-06,-0.160
3.160E-06,-0.120
3.170E-06,-0.100
3.180E-06,-0.060
3.190E-06,0.000
3.200E-06,0.000
3.210E-06,0.020
3.220E-06,0.060
3.230E-06,0.060
3.240E-06,0.100
3.250E-06,0.080
3.260E-06,0.020
3.270E-06,0.020
3.280E-06,0.020
3.290E-06,0.020
3.300E-06,0.020
3.310E-06,0.020
3.320E-06,0.020
3.330E-06,0.020
3.340E-06,-0.060
3.350E-06,-0.120
3.360E-06,-0.160
3.370E-06,-0.180
3.380E-06,-0.180
3.390E-06,-0.240
3.400E-06,-0.240
3.410E-06,-0.240
3.420E-06,-0.300
3.430E-06,-0.300
3.440E-06,-0.280
3.450E-06,-0.280
3.460E-06,-0.240
3.470E-06,-0.180
3.480E-06,-0.180
3.490E-06,-0.100
3.500E-06,-0.080
3.510E-06,-0.060
3.520E-06,0.020
3.530E-06,-0.020
3.540E-06,0.040
3.550E-06,0.040
3.560E-06,0.000
3.570E-06,0.060
3.580E-06,0.100
3.590E-06,0.040
3.600E-06,0.060
3.610E-06,0.060
3.620E-06,0.000
3.630E-06,-0.040
3.640E-06,-0.080
3.650E-06,-0.100
3.660E-06,-0.120
3.670E-06,-0.160
3.680E-06,-0.200
3.690E-06,-0.180
3.700E-06,-0.220
3.710E-06,-0.240
3.720E-06,-0.200
3.730E-06,-0.240
3.740E-06,-0.180
3.750E-06,-0.160
3.760E-06,-0.120
3.770E-06,-0.080
3.780E-06,0.000
3.790E-06,0.040
3.800E-06,0.140
3.810E-06,0.160
3.820E-06,0.140
3.830E-06,0.160
3.840E-06,0.120
3.850E-06,0.160
3.860E-06,0.180
3.870E-06,0.120
3.880E-06,0.100
3.890E-06,0.080
3.900E-06,0.060
3.910E-06,0.060
3.920E-06,0.040
3.930E-06,0.000
3.940E-06,0.040
3.950E-06,0.040
3.960E-06,0.020
3.970E-06,0.040
3.980E-06,0.080
3.990E-06,0.080
4.000E-06,0.080
4.010E-06,0.120
4.020E-06,0.140
4.030E-06,0.100
4.040E-06,0.140
4.050E-06,0.140
4.060E-06,0.120
4.070E-06,0.160
4.080E-06,0.100
4.090E-06,0.040
4.100E-06,0.060
4.110E-06,0.000
4.120E-06,0.000
4.130E-06,0.000
4.140E-06,0.000
4.150E-06,-0.040
4.160E-06,-0.040
4.170E-06,-0.060
4.180E-06,-0.040
4.190E-06,-0.040
4.200E-06,0.020
4.210E-06,0.020
4.220E-06,0.060
4.230E-06,0.080
4.240E-06,0.020
4.250E-06,0.040
4.260E-06,0.040
4.270E-06,0.060
4.280E-06,0.060
4.290E-06,0.060
4.300E-06,0.080
4.310E-06,0.080
4.320E-06,0.100
4.330E-06,0.120
4.340E-06,0.160
4.350E-06,0.160
4.360E-06,0.180
4.370E-06,0.160
4.380E-06,0.180
4.390E-06,0.160
4.400E-06,0.160
4.410E-06,0.200
4.420E-06,0.240
4.430E-06,0.260
4.440E-06,0.280
4.450E-06,0.300
4.460E-06,0.340
4.470E-06,0.360
4.480E-06,0.340
4.490E-06,0.260
4.500E-06,0.280
4.510E-06,0.260
4.520E-06,0.220
4.530E-06,0.180
4.540E-06,0.120
4.550E-06,0.120
4.560E-06,0.040
4.570E-06,0.040
4.580E-06,0.000
4.590E-06,-0.020
4.600E-06,-0.060
4.610E-06,-0.060
4.620E-06,-0.100
4.630E-06,-0.140
4.640E-06,-0.160
4.650E-06,-0.120
4.660E-06,-0.100
4.670E-06,-0.080
4.680E-06,-0.080
4.690E-06,-0.060
4.700E-06,-0.020
4.710E-06,0.040
4.720E-06,0.080
4.730E-06,0.180
4.740E-06,0.260
4.750E-06,0.360
4.760E-06,0.440
4.770E-06,0.520
4.780E-06,0.560
4.790E-06,0.620
4.800E-06,0.660
4.810E-06,0.660
4.820E-06,0.700
4.830E-06,0.680
4.840E-06,0.660
4.850E-06,0.620
4.860E-06,0.560
4.870E-06,0.560
4.880E-06,0.500
4.890E-06,0.420
4.900E-06,0.420
4.910E-06,0.400
4.920E-06,0.400
4.930E-06,0.340
4.940E-06,0.340
4.950E-06,0.380
4.960E-06,0.380
4.970E-06,0.420
4.980E-06,0.420
4.990E-06,0.420
5.000E-06,0.380
5.010E-06,0.400
5.020E-06,0.380
5.030E-06,0.300
5.040E-06,0.300
5.050E-06,0.220
5.060E-06,0.180
5.070E-06,0.100
5.080E-06,0.040
5.090E-06,-0.020
5.100E-06,-0.100
5.110E-06,-0.140
5.120E-06,-0.180
5.130E-06,-0.240
5.140E-06,-0.280
5.150E-06,-0.300
5.160E-06,-0.320
5.170E-06,-0.320
5.180E-06,-0.360
5.190E-06,-0.320
5.200E-06,-0.320
5.210E-06,-0.220
5.220E-06,-0.160
5.230E-06,-0.100
5.240E-06,-0.020
5.250E-06,0.000
5.260E-06,0.020
5.270E-06,0.040
5.280E-06,0.060
5.290E-06,0.100
5.300E-06,0.160
5.310E-06,0.220
5.320E-06,0.260
5.330E-06,0.320
5.340E-06,0.380
5.350E-06,0.380
5.360E-06,0.420
5.370E-06,0.440
5.380E-06,0.500
5.390E-06,0.540
5.400E-06,0.580
5.410E-06,0.580
5.420E-06,0.600
5.430E-06,0.600
5.440E-06,0.600
5.450E-06,0.560
5.460E-06,0.560
5.470E-06,0.540
5.480E-06,0.540
5.490E-06,0.540
5.500E-06,0.560
5.510E-06,0.540
5.520E-06,0.540
5.530E-06,0.500
5.540E-06,0.460
5.550E-06,0.420
5.560E-06,0.400
5.570E-06,0.380
5.580E-06,0.420
5.590E-06,0.440
5.600E-06,0.460
5.610E-06,0.500
5.620E-06,0.520
5.630E-06,0.560
5.640E-06,0.520
5.650E-06,0.560
5.660E-06,0.580
5.670E-06,0.560
5.680E-06,0.580
5.690E-06,0.560
5.700E-06,0.580
5.710E-06,0.580
5.720E-06,0.580
5.730E-06,0.640
5.740E-06,0.680
5.750E-06,0.780
5.760E-06,0.860
5.770E-06,0.940
5.780E-06,1.060
5.790E-06,1.160
5.800E-06,1.300
5.810E-06,1.460
5.820E-06,1.640
5.830E-06,1.900
5.840E-06,2.140
5.850E-06,2.400
5.860E-06,2.720
5.870E-06,2.740
5.880E-06,2.760
5.890E-06,2.760
5.900E-06,2.780
5.910E-06,2.760
5.920E-06,2.760
5.930E-06,2.740
5.940E-06,2.760
5.950E-06,2.780
5.960E-06,2.760
5.970E-06,2.780
5.980E-06,2.760
5.990E-06,2.780
6.000E-06,2.760
6.010E-06,2.760
6.020E-06,2.620
6.030E-06,2.420
6.040E-06,2.200
6.050E-06,2.020
6.060E-06,1.860
6.070E-06,1.660
6.080E-06,1.520
6.090E-06,1.360
6.100E-06,1.180
6.110E-06,1.100
6.120E-06,0.940
6.130E-06,0.800
6.140E-06,0.680
6.150E-06,0.580
6.160E-06,0.480
6.170E-06,0.380
6.180E-06,0.320
6.190E-06,0.240
6.200E-06,0.220
6.210E-06,0.160
6.220E-06,0.200
6.230E-06,0.240
6.240E-06,0.260
6.250E-06,0.320
6.260E-06,0.420
6.270E-06,0.500
6.280E-06,0.520
6.290E-06,0.520
6.300E-06,0.500
6.310E-06,0.520
6.320E-06,0.500
6.330E-06,0.480
6.340E-06,0.500
6.350E-06,0.480
6.360E-06,0.540
6.370E-06,0.560
6.380E-06,0.600
6.390E-06,0.640
6.400E-06,0.640
6.410E-06,0.660
6.420E-06,0.680
6.430E-06,0.700
6.440E-06,0.700
6.450E-06,0.760
6.460E-06,0.780
6.470E-06,0.780
6.480E-06,0.760
6.490E-06,0.740
6.500E-06,0.760
6.510E-06,0.780
6.520E-06,0.780
6.530E-06,0.800
6.540E-06,0.820
6.550E-06,0.800
6.560E-06,0.820
6.570E-06,0.820
6.580E-06,0.800
6.590E-06,0.820
6.600E-06,0.840
6.610E-06,0.840
6.620E-06,0.900
6.630E-06,0.880
6.640E-06,0.880
6.650E-06,0.880
6.660E-06,0.860
6.670E-06,0.800
6.680E-06,0.740
6.690E-06,0.640
6.700E-06,0.540
6.710E-06,0.440
6.720E-06,0.340
6.730E-06,0.220
6.740E-06,0.160
6.750E-06,0.080
6.760E-06,0.020
6.770E-06,-0.060
6.780E-06,-0.060
6.790E-06,-0.040
6.800E-06,-0.060
6.810E-06,0.000
6.820E-06,0.000
6.830E-06,0.040
6.840E-06,0.100
6.850E-06,0.160
6.860E-06,0.240
6.870E-06,0.320
6.880E-06,0.400
6.890E-06,0.500
6.900E-06,0.540
6.910E-06,0.560
6.920E-06,0.620
6.930E-06,0.660
6.940E-06,0.680
6.950E-06,0.660
6.960E-06,0.720
6.970E-06,0.720
6.980E-06,0.740
6.990E-06,0.760
7.000E-06,0.780
7.010E-06,0.780
7.020E-06,0.820
7.030E-06,0.860
7.040E-06,0.900
7.050E-06,0.880
7.060E-06,0.880
7.070E-06,0.900
7.080E-06,0.860
7.090E-06,0.820
7.100E-06,0.760
7.110E-06,0.700
7.120E-06,0.680
7.130E-06,0.640
7.140E-06,0.580
7.150E-06,0.540
7.160E-06,0.520
7.170E-06,0.520
7.180E-06,0.480
7.190E-06,0.520
7.200E-06,0.480
7.210E-06,0.500
7.220E-06,0.520
7.230E-06,0.540
7.240E-06,0.580
7.250E-06,0.600
7.260E-06,0.620
7.270E-06,0.620
7.280E-06,0.600
7.290E-06,0.580
7.300E-06,0.560
7.310E-06,0.540
7.320E-06,0.520
7.330E-06,0.500
7.340E-06,0.520
7.350E-06,0.520
7.360E-06,0.480
7.370E-06,0.480
7.380E-06,0.440
7.390E-06,0.420
7.400E-06,0.420
7.410E-06,0.420
7.420E-06,0.420
7.430E-06,0.440
7.440E-06,0.460
7.450E-06,0.460
7.460E-06,0.460
7.470E-06,0.480
7.480E-06,0.480
7.490E-06,0.500
7.500E-06,0.520
7.510E-06,0.480
7.520E-06,0.500
7.530E-06,0.460
7.540E-06,0.480
7.550E-06,0.460
7.560E-06,0.480
7.570E-06,0.460
7.580E-06,0.500
7.590E-06,0.480
7.600E-06,0.480
7.610E-06,0.520
7.620E-06,0.540
7.630E-06,0.580
7.640E-06,0.600
7.650E-06,0.660
7.660E-06,0.720
7.670E-06,0.720
7.680E-06,0.760
7.690E-06,0.740
7.700E-06,0.760
7.710E-06,0.780
7.720E-06,0.800
7.730E-06,0.780
7.740E-06,0.800
7.750E-06,0.840
7.760E-06,0.860
