mediciones/Mediciones filtradas (saque las feas)/6-10/36.2/WaveData55145.csv

#timebase=2000000(ps)
,#voltbase=500000(mv/100)
#size=4000
-4.250E-06,0.060
-4.240E-06,0.080
-4.230E-06,0.080
-4.220E-06,0.080
-4.210E-06,0.040
-4.200E-06,0.040
-4.190E-06,0.080
-4.180E-06,0.040
-4.170E-06,0.060
-4.160E-06,0.060
-4.150E-06,0.060
-4.140E-06,0.080
-4.130E-06,0.060
-4.120E-06,0.040
-4.110E-06,0.080
-4.100E-06,0.100
-4.090E-06,0.080
-4.080E-06,0.080
-4.070E-06,0.080
-4.060E-06,0.040
-4.050E-06,0.080
-4.040E-06,0.060
-4.030E-06,0.060
-4.020E-06,0.100
-4.010E-06,0.080
-4.000E-06,0.080
-3.990E-06,0.080
-3.980E-06,0.080
-3.970E-06,0.060
-3.960E-06,0.040
-3.950E-06,0.040
-3.940E-06,0.060
-3.930E-06,0.080
-3.920E-06,0.100
-3.910E-06,0.100
-3.900E-06,0.040
-3.890E-06,0.060
-3.880E-06,0.020
-3.870E-06,0.060
-3.860E-06,0.020
-3.850E-06,0.040
-3.840E-06,0.100
-3.830E-06,0.080
-3.820E-06,0.060
-3.810E-06,0.100
-3.800E-06,0.060
-3.790E-06,0.020
-3.780E-06,0.060
-3.770E-06,0.020
-3.760E-06,0.000
-3.750E-06,0.040
-3.740E-06,0.000
-3.730E-06,0.000
-3.720E-06,0.020
-3.710E-06,-0.020
-3.700E-06,0.060
-3.690E-06,0.040
-3.680E-06,0.040
-3.670E-06,0.100
-3.660E-06,0.100
-3.650E-06,0.100
-3.640E-06,0.080
-3.630E-06,0.100
-3.620E-06,0.080
-3.610E-06,0.140
-3.600E-06,0.120
-3.590E-06,0.080
-3.580E-06,0.140
-3.570E-06,0.040
-3.560E-06,0.080
-3.550E-06,0.100
-3.540E-06,0.100
-3.530E-06,0.120
-3.520E-06,0.080
-3.510E-06,0.060
-3.500E-06,0.060
-3.490E-06,0.060
-3.480E-06,0.060
-3.470E-06,0.080
-3.460E-06,0.080
-3.450E-06,0.080
-3.440E-06,0.080
-3.430E-06,0.060
-3.420E-06,0.080
-3.410E-06,0.100
-3.400E-06,0.020
-3.390E-06,0.040
-3.380E-06,0.020
-3.370E-06,0.020
-3.360E-06,0.020
-3.350E-06,0.040
-3.340E-06,0.040
-3.330E-06,-0.020
-3.320E-06,0.000
-3.310E-06,0.020
-3.300E-06,0.000
-3.290E-06,-0.020
-3.280E-06,0.000
-3.270E-06,0.020
-3.260E-06,0.040
-3.250E-06,0.020
-3.240E-06,0.040
-3.230E-06,0.060
-3.220E-06,0.040
-3.210E-06,0.040
-3.200E-06,0.060
-3.190E-06,0.080
-3.180E-06,0.080
-3.170E-06,0.060
-3.160E-06,0.060
-3.150E-06,0.080
-3.140E-06,0.060
-3.130E-06,0.100
-3.120E-06,0.100
-3.110E-06,0.100
-3.100E-06,0.060
-3.090E-06,0.080
-3.080E-06,0.100
-3.070E-06,0.080
-3.060E-06,0.060
-3.050E-06,0.080
-3.040E-06,0.100
-3.030E-06,0.100
-3.020E-06,0.100
-3.010E-06,0.040
-3.000E-06,0.060
-2.990E-06,0.080
-2.980E-06,0.100
-2.970E-06,0.100
-2.960E-06,0.100
-2.950E-06,0.080
-2.940E-06,0.060
-2.930E-06,0.060
-2.920E-06,0.100
-2.910E-06,0.080
-2.900E-06,0.100
-2.890E-06,0.080
-2.880E-06,0.060
-2.870E-06,0.040
-2.860E-06,0.080
-2.850E-06,0.080
-2.840E-06,0.100
-2.830E-06,0.120
-2.820E-06,0.080
-2.810E-06,0.080
-2.800E-06,0.040
-2.790E-06,0.040
-2.780E-06,0.100
-2.770E-06,0.120
-2.760E-06,0.160
-2.750E-06,0.160
-2.740E-06,0.160
-2.730E-06,0.120
-2.720E-06,0.140
-2.710E-06,0.120
-2.700E-06,0.140
-2.690E-06,0.160
-2.680E-06,0.160
-2.670E-06,0.140
-2.660E-06,0.140
-2.650E-06,0.140
-2.640E-06,0.120
-2.630E-06,0.100
-2.620E-06,0.120
-2.610E-06,0.120
-2.600E-06,0.140
-2.590E-06,0.120
-2.580E-06,0.080
-2.570E-06,0.120
-2.560E-06,0.140
-2.550E-06,0.180
-2.540E-06,0.200
-2.530E-06,0.160
-2.520E-06,0.160
-2.510E-06,0.160
-2.500E-06,0.180
-2.490E-06,0.220
-2.480E-06,0.220
-2.470E-06,0.200
-2.460E-06,0.160
-2.450E-06,0.160
-2.440E-06,0.180
-2.430E-06,0.140
-2.420E-06,0.200
-2.410E-06,0.180
-2.400E-06,0.160
-2.390E-06,0.160
-2.380E-06,0.180
-2.370E-06,0.200
-2.360E-06,0.200
-2.350E-06,0.220
-2.340E-06,0.220
-2.330E-06,0.240
-2.320E-06,0.220
-2.310E-06,0.240
-2.300E-06,0.220
-2.290E-06,0.240
-2.280E-06,0.220
-2.270E-06,0.200
-2.260E-06,0.160
-2.250E-06,0.180
-2.240E-06,0.160
-2.230E-06,0.180
-2.220E-06,0.200
-2.210E-06,0.160
-2.200E-06,0.120
-2.190E-06,0.080
-2.180E-06,0.080
-2.170E-06,0.040
-2.160E-06,0.040
-2.150E-06,0.060
-2.140E-06,0.040
-2.130E-06,0.060
-2.120E-06,0.020
-2.110E-06,-0.020
-2.100E-06,0.040
-2.090E-06,0.020
-2.080E-06,0.100
-2.070E-06,0.060
-2.060E-06,0.060
-2.050E-06,0.080
-2.040E-06,0.060
-2.030E-06,0.100
-2.020E-06,0.060
-2.010E-06,0.100
-2.000E-06,0.160
-1.990E-06,0.120
-1.980E-06,0.120
-1.970E-06,0.080
-1.960E-06,0.140
-1.950E-06,0.060
-1.940E-06,0.160
-1.930E-06,0.000
-1.920E-06,0.020
-1.910E-06,0.140
-1.900E-06,0.080
-1.890E-06,0.240
-1.880E-06,0.100
-1.870E-06,0.160
-1.860E-06,0.160
-1.850E-06,0.180
-1.840E-06,0.260
-1.830E-06,0.240
-1.820E-06,0.240
-1.810E-06,0.220
-1.800E-06,0.180
-1.790E-06,0.160
-1.780E-06,0.240
-1.770E-06,0.260
-1.760E-06,0.240
-1.750E-06,0.160
-1.740E-06,0.180
-1.730E-06,0.160
-1.720E-06,0.200
-1.710E-06,0.240
-1.700E-06,0.200
-1.690E-06,0.140
-1.680E-06,0.100
-1.670E-06,0.120
-1.660E-06,0.160
-1.650E-06,0.240
-1.640E-06,0.160
-1.630E-06,0.200
-1.620E-06,0.100
-1.610E-06,0.120
-1.600E-06,0.260
-1.590E-06,0.160
-1.580E-06,0.320
-1.570E-06,0.200
-1.560E-06,0.160
-1.550E-06,0.180
-1.540E-06,0.160
-1.530E-06,0.100
-1.520E-06,0.060
-1.510E-06,0.040
-1.500E-06,-0.020
-1.490E-06,0.000
-1.480E-06,0.040
-1.470E-06,0.040
-1.460E-06,0.240
-1.450E-06,0.340
-1.440E-06,0.380
-1.430E-06,0.440
-1.420E-06,0.300
-1.410E-06,0.220
-1.400E-06,0.240
-1.390E-06,0.220
-1.380E-06,0.260
-1.370E-06,0.360
-1.360E-06,0.400
-1.350E-06,0.260
-1.340E-06,0.320
-1.330E-06,0.340
-1.320E-06,0.280
-1.310E-06,0.360
-1.300E-06,0.320
-1.290E-06,0.420
-1.280E-06,0.340
-1.270E-06,0.400
-1.260E-06,0.280
-1.250E-06,0.180
-1.240E-06,0.040
-1.230E-06,0.040
-1.220E-06,0.160
-1.210E-06,0.080
-1.200E-06,0.260
-1.190E-06,0.260
-1.180E-06,0.180
-1.170E-06,0.220
-1.160E-06,0.240
-1.150E-06,0.040
-1.140E-06,0.160
-1.130E-06,0.140
-1.120E-06,0.180
-1.110E-06,0.340
-1.100E-06,0.100
-1.090E-06,0.180
-1.080E-06,0.080
-1.070E-06,-0.060
-1.060E-06,-0.040
-1.050E-06,-0.240
-1.040E-06,-0.360
-1.030E-06,-0.420
-1.020E-06,-0.460
-1.010E-06,-0.340
-1.000E-06,-0.160
-9.900E-07,0.040
-9.800E-07,0.120
-9.700E-07,0.160
-9.600E-07,0.040
-9.500E-07,0.020
-9.400E-07,0.140
-9.300E-07,0.160
-9.200E-07,0.300
-9.100E-07,0.340
-9.000E-07,0.260
-8.900E-07,0.240
-8.800E-07,0.180
-8.700E-07,0.160
-8.600E-07,0.160
-8.500E-07,0.160
-8.400E-07,0.120
-8.300E-07,0.100
-8.200E-07,0.040
-8.100E-07,0.080
-8.000E-07,0.040
-7.900E-07,0.080
-7.800E-07,0.120
-7.700E-07,0.140
-7.600E-07,0.160
-7.500E-07,0.120
-7.400E-07,0.140
-7.300E-07,0.160
-7.200E-07,0.160
-7.100E-07,0.260
-7.000E-07,0.280
-6.900E-07,0.240
-6.800E-07,0.240
-6.700E-07,0.200
-6.600E-07,0.220
-6.500E-07,0.200
-6.400E-07,0.120
-6.300E-07,0.080
-6.200E-07,0.060
-6.100E-07,0.020
-6.000E-07,0.000
-5.900E-07,0.000
-5.800E-07,0.000
-5.700E-07,-0.080
-5.600E-07,-0.080
-5.500E-07,-0.020
-5.400E-07,0.040
-5.300E-07,0.080
-5.200E-07,-0.060
-5.100E-07,0.220
-5.000E-07,0.220
-4.900E-07,0.340
-4.800E-07,0.260
-4.700E-07,0.580
-4.600E-07,0.200
-4.500E-07,0.360
-4.400E-07,0.180
-4.300E-07,0.160
-4.200E-07,0.440
-4.100E-07,0.120
-4.000E-07,0.080
-3.900E-07,0.220
-3.800E-07,0.020
-3.700E-07,0.300
-3.600E-07,0.300
-3.500E-07,0.180
-3.400E-07,0.500
-3.300E-07,0.340
-3.200E-07,0.620
-3.100E-07,0.740
-3.000E-07,0.560
-2.900E-07,0.720
-2.800E-07,0.460
-2.700E-07,0.460
-2.600E-07,0.520
-2.500E-07,0.500
-2.400E-07,0.440
-2.300E-07,0.240
-2.200E-07,0.160
-2.100E-07,0.040
-2.000E-07,-0.220
-1.900E-07,0.060
-1.800E-07,-0.160
-1.700E-07,-0.180
-1.600E-07,0.000
-1.500E-07,-0.260
-1.400E-07,-0.060
-1.300E-07,-0.060
-1.200E-07,-0.020
-1.100E-07,-0.180
-1.000E-07,-0.020
-9.000E-08,-0.200
-8.000E-08,0.060
-7.000E-08,-0.040
-6.000E-08,-0.060
-5.000E-08,0.100
-4.000E-08,-0.180
-3.000E-08,0.000
-2.000E-08,-0.160
-1.000E-08,-0.260
0.000E+00,-0.120
1.000E-08,0.160
2.000E-08,0.500
3.000E-08,1.080
4.000E-08,0.880
5.000E-08,0.840
6.000E-08,0.300
7.000E-08,-0.340
8.000E-08,-0.440
9.000E-08,-0.820
1.000E-07,0.360
1.100E-07,0.380
1.200E-07,0.860
1.300E-07,1.640
1.400E-07,1.160
1.500E-07,1.100
1.600E-07,0.400
1.700E-07,0.760
1.800E-07,0.600
1.900E-07,1.220
2.000E-07,0.100
2.100E-07,0.020
2.200E-07,-0.240
2.300E-07,-0.580
2.400E-07,-0.180
2.500E-07,0.440
2.600E-07,1.340
2.700E-07,0.900
2.800E-07,0.660
2.900E-07,0.360
3.000E-07,-0.180
3.100E-07,0.360
3.200E-07,0.640
3.300E-07,0.780
3.400E-07,0.940
3.500E-07,0.320
3.600E-07,-0.260
3.700E-07,-0.360
3.800E-07,-0.340
3.900E-07,-0.060
4.000E-07,0.300
4.100E-07,0.140
4.200E-07,-0.060
4.300E-07,-0.020
4.400E-07,-0.640
4.500E-07,-0.500
4.600E-07,-0.600
4.700E-07,-0.420
4.800E-07,-0.400
4.900E-07,-0.200
5.000E-07,-0.380
5.100E-07,-0.360
5.200E-07,-0.400
5.300E-07,-0.840
5.400E-07,-0.860
5.500E-07,-1.040
5.600E-07,-0.580
5.700E-07,-0.440
5.800E-07,-0.280
5.900E-07,-0.280
6.000E-07,-0.260
6.100E-07,-0.220
6.200E-07,-0.240
6.300E-07,-0.080
6.400E-07,0.080
6.500E-07,0.080
6.600E-07,-0.060
6.700E-07,-0.140
6.800E-07,-0.200
6.900E-07,-0.180
7.000E-07,-0.180
7.100E-07,-0.120
7.200E-07,-0.060
7.300E-07,0.000
7.400E-07,0.060
7.500E-07,0.000
7.600E-07,0.000
7.700E-07,-0.040
7.800E-07,-0.100
7.900E-07,-0.100
8.000E-07,-0.180
8.100E-07,-0.320
8.200E-07,-0.500
8.300E-07,-0.860
8.400E-07,-1.100
8.500E-07,-1.380
8.600E-07,-1.660
8.700E-07,-1.960
8.800E-07,-2.340
8.900E-07,-2.660
9.000E-07,-2.660
9.100E-07,-2.660
9.200E-07,-2.660
9.300E-07,-2.660
9.400E-07,-2.680
9.500E-07,-2.660
9.600E-07,-2.660
9.700E-07,-2.660
9.800E-07,-2.660
9.900E-07,-2.660
1.000E-06,-2.660
1.010E-06,-2.660
1.020E-06,-2.680
1.030E-06,-2.660
1.040E-06,-2.660
1.050E-06,-2.480
1.060E-06,-2.520
1.070E-06,-2.500
1.080E-06,-2.500
1.090E-06,-2.440
1.100E-06,-2.160
1.110E-06,-1.940
1.120E-06,-1.640
1.130E-06,-1.360
1.140E-06,-1.600
1.150E-06,-1.240
1.160E-06,-1.140
1.170E-06,-1.020
1.180E-06,-0.600
1.190E-06,-0.560
1.200E-06,-0.100
1.210E-06,-0.020
1.220E-06,0.140
1.230E-06,-0.080
1.240E-06,-0.160
1.250E-06,-0.260
1.260E-06,-0.160
1.270E-06,0.120
1.280E-06,0.100
1.290E-06,0.240
1.300E-06,0.080
1.310E-06,-0.020
1.320E-06,-0.080
1.330E-06,-0.180
1.340E-06,-0.180
1.350E-06,-0.180
1.360E-06,-0.220
1.370E-06,-0.220
1.380E-06,-0.220
1.390E-06,-0.300
1.400E-06,-0.320
1.410E-06,-0.340
1.420E-06,-0.360
1.430E-06,-0.340
1.440E-06,-0.380
1.450E-06,-0.440
1.460E-06,-0.440
1.470E-06,-0.420
1.480E-06,-0.360
1.490E-06,-0.320
1.500E-06,-0.220
1.510E-06,-0.140
1.520E-06,-0.060
1.530E-06,0.000
1.540E-06,0.040
1.550E-06,0.040
1.560E-06,0.120
1.570E-06,0.160
1.580E-06,0.200
1.590E-06,0.180
1.600E-06,0.180
1.610E-06,0.100
1.620E-06,0.100
1.630E-06,0.040
1.640E-06,0.060
1.650E-06,0.020
1.660E-06,0.020
1.670E-06,0.100
1.680E-06,0.120
1.690E-06,0.100
1.700E-06,0.060
1.710E-06,0.020
1.720E-06,0.000
1.730E-06,-0.020
1.740E-06,0.000
1.750E-06,0.020
1.760E-06,0.000
1.770E-06,-0.020
1.780E-06,0.000
1.790E-06,0.040
1.800E-06,0.020
1.810E-06,0.040
1.820E-06,0.080
1.830E-06,0.080
1.840E-06,0.080
1.850E-06,0.100
1.860E-06,0.100
1.870E-06,0.140
1.880E-06,0.120
1.890E-06,0.120
1.900E-06,0.120
1.910E-06,0.080
1.920E-06,0.100
1.930E-06,0.120
1.940E-06,0.080
1.950E-06,0.080
1.960E-06,0.080
1.970E-06,0.080
1.980E-06,0.100
1.990E-06,0.100
2.000E-06,0.120
2.010E-06,0.080
2.020E-06,0.080
2.030E-06,0.080
2.040E-06,0.060
2.050E-06,0.040
2.060E-06,0.060
2.070E-06,0.040
2.080E-06,0.060
2.090E-06,0.080
2.100E-06,0.060
2.110E-06,0.120
2.120E-06,0.140
2.130E-06,0.140
2.140E-06,0.140
2.150E-06,0.200
2.160E-06,0.220
2.170E-06,0.200
2.180E-06,0.200
2.190E-06,0.240
2.200E-06,0.240
2.210E-06,0.260
2.220E-06,0.280
2.230E-06,0.240
2.240E-06,0.260
2.250E-06,0.240
2.260E-06,0.260
2.270E-06,0.260
2.280E-06,0.280
2.290E-06,0.240
2.300E-06,0.240
2.310E-06,0.180
2.320E-06,0.160
2.330E-06,0.140
2.340E-06,0.100
2.350E-06,0.120
2.360E-06,0.080
2.370E-06,0.060
2.380E-06,0.080
2.390E-06,0.100
2.400E-06,0.060
2.410E-06,0.080
2.420E-06,0.040
2.430E-06,0.040
2.440E-06,0.040
2.450E-06,0.040
2.460E-06,0.080
2.470E-06,0.080
2.480E-06,0.040
2.490E-06,0.060
2.500E-06,0.060
2.510E-06,0.000
2.520E-06,0.020
2.530E-06,0.040
2.540E-06,-0.040
2.550E-06,-0.040
2.560E-06,-0.060
2.570E-06,-0.020
2.580E-06,-0.060
2.590E-06,-0.040
2.600E-06,-0.060
2.610E-06,-0.080
2.620E-06,-0.100
2.630E-06,-0.140
2.640E-06,-0.140
2.650E-06,-0.140
2.660E-06,-0.120
2.670E-06,-0.120
2.680E-06,-0.140
2.690E-06,-0.100
2.700E-06,-0.060
2.710E-06,-0.080
2.720E-06,-0.080
2.730E-06,-0.080
2.740E-06,-0.060
2.750E-06,-0.100
2.760E-06,-0.100
2.770E-06,-0.120
2.780E-06,-0.040
2.790E-06,-0.020
2.800E-06,0.000
2.810E-06,0.020
2.820E-06,0.040
2.830E-06,0.040
2.840E-06,0.040
2.850E-06,0.060
2.860E-06,0.040
2.870E-06,0.100
2.880E-06,0.140
2.890E-06,0.140
2.900E-06,0.140
2.910E-06,0.060
2.920E-06,0.100
2.930E-06,0.100
2.940E-06,0.120
2.950E-06,0.160
2.960E-06,0.120
2.970E-06,0.100
2.980E-06,0.080
2.990E-06,0.080
3.000E-06,0.100
3.010E-06,0.120
3.020E-06,0.160
3.030E-06,0.160
3.040E-06,0.140
3.050E-06,0.120
3.060E-06,0.100
3.070E-06,0.020
3.080E-06,-0.020
3.090E-06,-0.100
3.100E-06,-0.240
3.110E-06,-0.320
3.120E-06,-0.500
3.130E-06,-0.600
3.140E-06,-0.620
3.150E-06,-0.500
3.160E-06,-0.300
3.170E-06,-0.080
3.180E-06,0.180
3.190E-06,0.360
3.200E-06,0.480
3.210E-06,0.500
3.220E-06,0.480
3.230E-06,0.440
3.240E-06,0.440
3.250E-06,0.400
3.260E-06,0.360
3.270E-06,0.340
3.280E-06,0.280
3.290E-06,0.240
3.300E-06,0.180
3.310E-06,0.160
3.320E-06,0.100
3.330E-06,0.040
3.340E-06,0.020
3.350E-06,0.000
3.360E-06,0.000
3.370E-06,0.000
3.380E-06,0.020
3.390E-06,0.020
3.400E-06,0.060
3.410E-06,0.120
3.420E-06,0.160
3.430E-06,0.180
3.440E-06,0.160
3.450E-06,0.160
3.460E-06,0.120
3.470E-06,0.040
3.480E-06,0.020
3.490E-06,-0.020
3.500E-06,-0.100
3.510E-06,-0.240
3.520E-06,-0.360
3.530E-06,-0.460
3.540E-06,-0.580
3.550E-06,-0.580
3.560E-06,-0.620
3.570E-06,-0.580
3.580E-06,-0.540
3.590E-06,-0.500
3.600E-06,-0.380
3.610E-06,-0.220
3.620E-06,-0.040
3.630E-06,0.100
3.640E-06,0.260
3.650E-06,0.400
3.660E-06,0.520
3.670E-06,0.600
3.680E-06,0.720
3.690E-06,0.740
3.700E-06,0.740
3.710E-06,0.760
3.720E-06,0.760
3.730E-06,0.760
3.740E-06,0.660
3.750E-06,0.620
3.760E-06,0.560
3.770E-06,0.480
3.780E-06,0.360
3.790E-06,0.260
3.800E-06,0.200
3.810E-06,0.120
3.820E-06,0.100
3.830E-06,0.100
3.840E-06,0.080
3.850E-06,0.080
3.860E-06,0.020
3.870E-06,0.000
3.880E-06,0.020
3.890E-06,0.000
3.900E-06,0.000
3.910E-06,0.000
3.920E-06,-0.020
3.930E-06,0.000
3.940E-06,-0.040
3.950E-06,-0.020
3.960E-06,-0.080
3.970E-06,-0.060
3.980E-06,-0.080
3.990E-06,-0.080
4.000E-06,-0.020
4.010E-06,0.040
4.020E-06,0.120
4.030E-06,0.180
4.040E-06,0.280
4.050E-06,0.360
4.060E-06,0.460
4.070E-06,0.500
4.080E-06,0.520
4.090E-06,0.460
4.100E-06,0.440
4.110E-06,0.420
4.120E-06,0.340
4.130E-06,0.320
4.140E-06,0.320
4.150E-06,0.320
4.160E-06,0.340
4.170E-06,0.360
4.180E-06,0.320
4.190E-06,0.300
4.200E-06,0.260
4.210E-06,0.240
4.220E-06,0.220
4.230E-06,0.180
4.240E-06,0.180
4.250E-06,0.220
4.260E-06,0.240
4.270E-06,0.280
4.280E-06,0.360
4.290E-06,0.340
4.300E-06,0.360
4.310E-06,0.340
4.320E-06,0.300
4.330E-06,0.180
4.340E-06,0.100
4.350E-06,0.000
4.360E-06,-0.100
4.370E-06,-0.180
4.380E-06,-0.260
4.390E-06,-0.340
4.400E-06,-0.420
4.410E-06,-0.480
4.420E-06,-0.540
4.430E-06,-0.540
4.440E-06,-0.580
4.450E-06,-0.540
4.460E-06,-0.540
4.470E-06,-0.440
4.480E-06,-0.380
4.490E-06,-0.320
4.500E-06,-0.240
4.510E-06,-0.160
4.520E-06,-0.020
4.530E-06,0.100
4.540E-06,0.220
4.550E-06,0.320
4.560E-06,0.460
4.570E-06,0.580
4.580E-06,0.680
4.590E-06,0.760
4.600E-06,0.800
4.610E-06,0.840
4.620E-06,0.800
4.630E-06,0.760
4.640E-06,0.740
4.650E-06,0.660
4.660E-06,0.620
4.670E-06,0.520
4.680E-06,0.460
4.690E-06,0.420
4.700E-06,0.440
4.710E-06,0.420
4.720E-06,0.440
4.730E-06,0.520
4.740E-06,0.560
4.750E-06,0.600
4.760E-06,0.620
4.770E-06,0.560
4.780E-06,0.440
4.790E-06,0.260
4.800E-06,0.060
4.810E-06,-0.080
4.820E-06,-0.220
4.830E-06,-0.280
4.840E-06,-0.280
4.850E-06,-0.240
4.860E-06,-0.140
4.870E-06,-0.060
4.880E-06,0.080
4.890E-06,0.140
4.900E-06,0.220
4.910E-06,0.300
4.920E-06,0.320
4.930E-06,0.340
4.940E-06,0.340
4.950E-06,0.360
4.960E-06,0.320
4.970E-06,0.360
4.980E-06,0.340
4.990E-06,0.360
5.000E-06,0.340
5.010E-06,0.380
5.020E-06,0.420
5.030E-06,0.440
5.040E-06,0.500
5.050E-06,0.520
5.060E-06,0.500
5.070E-06,0.520
5.080E-06,0.500
5.090E-06,0.480
5.100E-06,0.480
5.110E-06,0.440
5.120E-06,0.460
5.130E-06,0.460
5.140E-06,0.480
5.150E-06,0.520
5.160E-06,0.560
5.170E-06,0.580
5.180E-06,0.600
5.190E-06,0.640
5.200E-06,0.720
5.210E-06,0.740
5.220E-06,0.760
5.230E-06,0.760
5.240E-06,0.760
5.250E-06,0.820
5.260E-06,0.860
5.270E-06,0.860
5.280E-06,0.880
5.290E-06,0.900
5.300E-06,0.900
5.310E-06,0.900
5.320E-06,0.840
5.330E-06,0.820
5.340E-06,0.760
5.350E-06,0.760
5.360E-06,0.680
5.370E-06,0.660
5.380E-06,0.580
5.390E-06,0.520
5.400E-06,0.460
5.410E-06,0.420
5.420E-06,0.420
5.430E-06,0.380
5.440E-06,0.340
5.450E-06,0.380
5.460E-06,0.480
5.470E-06,0.560
5.480E-06,0.700
5.490E-06,0.940
5.500E-06,1.180
5.510E-06,1.400
5.520E-06,1.660
5.530E-06,1.980
5.540E-06,2.320
5.550E-06,2.640
5.560E-06,2.760
5.570E-06,2.740
5.580E-06,2.760
5.590E-06,2.760
5.600E-06,2.760
5.610E-06,2.760
5.620E-06,2.760
5.630E-06,2.760
5.640E-06,2.740
5.650E-06,2.760
5.660E-06,2.780
5.670E-06,2.760
5.680E-06,2.780
5.690E-06,2.760
5.700E-06,2.760
5.710E-06,2.760
5.720E-06,2.740
5.730E-06,2.760
5.740E-06,2.780
5.750E-06,2.760
5.760E-06,2.780
5.770E-06,2.760
5.780E-06,2.780
5.790E-06,2.660
5.800E-06,2.460
5.810E-06,2.240
5.820E-06,1.940
5.830E-06,1.620
5.840E-06,1.360
5.850E-06,1.140
5.860E-06,1.000
5.870E-06,0.920
5.880E-06,0.820
5.890E-06,0.780
5.900E-06,0.740
5.910E-06,0.780
5.920E-06,0.800
5.930E-06,0.780
5.940E-06,0.820
5.950E-06,0.820
5.960E-06,0.820
5.970E-06,0.820
5.980E-06,0.780
5.990E-06,0.820
6.000E-06,0.780
6.010E-06,0.740
6.020E-06,0.660
6.030E-06,0.580
6.040E-06,0.540
6.050E-06,0.500
6.060E-06,0.500
6.070E-06,0.540
6.080E-06,0.620
6.090E-06,0.680
6.100E-06,0.700
6.110E-06,0.780
6.120E-06,0.780
6.130E-06,0.800
6.140E-06,0.840
6.150E-06,0.820
6.160E-06,0.800
6.170E-06,0.840
6.180E-06,0.760
6.190E-06,0.780
6.200E-06,0.780
6.210E-06,0.740
6.220E-06,0.680
6.230E-06,0.680
6.240E-06,0.700
6.250E-06,0.660
6.260E-06,0.640
6.270E-06,0.580
6.280E-06,0.540
6.290E-06,0.500
6.300E-06,0.440
6.310E-06,0.440
6.320E-06,0.460
6.330E-06,0.480
6.340E-06,0.460
6.350E-06,0.460
6.360E-06,0.480
6.370E-06,0.440
6.380E-06,0.420
6.390E-06,0.400
6.400E-06,0.360
6.410E-06,0.340
6.420E-06,0.320
6.430E-06,0.260
6.440E-06,0.220
6.450E-06,0.160
6.460E-06,0.160
6.470E-06,0.100
6.480E-06,0.080
6.490E-06,0.020
6.500E-06,0.000
6.510E-06,0.000
6.520E-06,0.020
6.530E-06,0.060
6.540E-06,0.120
6.550E-06,0.160
6.560E-06,0.180
6.570E-06,0.240
6.580E-06,0.280
6.590E-06,0.360
6.600E-06,0.380
6.610E-06,0.360
6.620E-06,0.380
6.630E-06,0.340
6.640E-06,0.360
6.650E-06,0.320
6.660E-06,0.320
6.670E-06,0.360
6.680E-06,0.320
6.690E-06,0.380
6.700E-06,0.400
6.710E-06,0.400
6.720E-06,0.400
6.730E-06,0.420
6.740E-06,0.380
6.750E-06,0.360
6.760E-06,0.360
6.770E-06,0.320
6.780E-06,0.340
6.790E-06,0.340
6.800E-06,0.340
6.810E-06,0.340
6.820E-06,0.380
6.830E-06,0.420
6.840E-06,0.420
6.850E-06,0.460
6.860E-06,0.500
6.870E-06,0.540
6.880E-06,0.560
6.890E-06,0.600
6.900E-06,0.600
6.910E-06,0.580
6.920E-06,0.560
6.930E-06,0.540
6.940E-06,0.520
6.950E-06,0.480
6.960E-06,0.460
6.970E-06,0.440
6.980E-06,0.440
6.990E-06,0.380
7.000E-06,0.400
7.010E-06,0.360
7.020E-06,0.380
7.030E-06,0.380
7.040E-06,0.420
7.050E-06,0.440
7.060E-06,0.460
7.070E-06,0.480
7.080E-06,0.440
7.090E-06,0.460
7.100E-06,0.420
7.110E-06,0.440
7.120E-06,0.460
7.130E-06,0.380
7.140E-06,0.400
7.150E-06,0.400
7.160E-06,0.400
7.170E-06,0.360
7.180E-06,0.380
7.190E-06,0.380
7.200E-06,0.420
7.210E-06,0.400
7.220E-06,0.400
7.230E-06,0.380
7.240E-06,0.420
7.250E-06,0.380
7.260E-06,0.360
7.270E-06,0.380
7.280E-06,0.400
7.290E-06,0.420
7.300E-06,0.440
7.310E-06,0.420
7.320E-06,0.440
7.330E-06,0.420
7.340E-06,0.420
7.350E-06,0.420
7.360E-06,0.400
7.370E-06,0.460
7.380E-06,0.460
7.390E-06,0.460
7.400E-06,0.500
7.410E-06,0.500
7.420E-06,0.500
7.430E-06,0.500
7.440E-06,0.500
7.450E-06,0.520
7.460E-06,0.500
7.470E-06,0.500
7.480E-06,0.480
7.490E-06,0.500
7.500E-06,0.520
7.510E-06,0.500
7.520E-06,0.500
7.530E-06,0.520
7.540E-06,0.520
7.550E-06,0.520
7.560E-06,0.560
7.570E-06,0.540
7.580E-06,0.560
7.590E-06,0.540
7.600E-06,0.600
7.610E-06,0.560
7.620E-06,0.580
7.630E-06,0.580
7.640E-06,0.540
7.650E-06,0.540
7.660E-06,0.560
7.670E-06,0.560
7.680E-06,0.540
7.690E-06,0.560
7.700E-06,0.560
7.710E-06,0.600
7.720E-06,0.620
7.730E-06,0.640
7.740E-06,0.680
7.750E-06,0.680
7.760E-06,0.700
7.770E-06,0.700
7.780E-06,0.660
7.790E-06,0.720
