mediciones/Mediciones filtradas (saque las feas)/6-10/36.2/WaveData55146.csv

#timebase=2000000(ps)
,#voltbase=100000(mv/100)
#size=4000
-4.250E-06,0.004
-4.240E-06,0.000
-4.230E-06,0.004
-4.220E-06,0.000
-4.210E-06,0.000
-4.200E-06,0.008
-4.190E-06,0.004
-4.180E-06,0.004
-4.170E-06,0.008
-4.160E-06,0.008
-4.150E-06,0.000
-4.140E-06,0.008
-4.130E-06,-0.004
-4.120E-06,-0.004
-4.110E-06,0.004
-4.100E-06,0.004
-4.090E-06,0.000
-4.080E-06,0.004
-4.070E-06,0.004
-4.060E-06,0.000
-4.050E-06,0.004
-4.040E-06,0.004
-4.030E-06,0.004
-4.020E-06,0.000
-4.010E-06,0.000
-4.000E-06,0.000
-3.990E-06,0.008
-3.980E-06,0.008
-3.970E-06,0.000
-3.960E-06,0.000
-3.950E-06,0.004
-3.940E-06,0.004
-3.930E-06,0.008
-3.920E-06,0.008
-3.910E-06,0.008
-3.900E-06,0.008
-3.890E-06,-0.004
-3.880E-06,0.000
-3.870E-06,0.000
-3.860E-06,0.004
-3.850E-06,0.004
-3.840E-06,0.004
-3.830E-06,0.000
-3.820E-06,0.000
-3.810E-06,0.004
-3.800E-06,0.008
-3.790E-06,-0.004
-3.780E-06,-0.004
-3.770E-06,0.004
-3.760E-06,0.004
-3.750E-06,0.004
-3.740E-06,0.000
-3.730E-06,0.004
-3.720E-06,-0.004
-3.710E-06,0.000
-3.700E-06,0.000
-3.690E-06,0.000
-3.680E-06,0.004
-3.670E-06,0.008
-3.660E-06,-0.004
-3.650E-06,0.004
-3.640E-06,0.004
-3.630E-06,0.004
-3.620E-06,0.000
-3.610E-06,0.000
-3.600E-06,0.004
-3.590E-06,0.008
-3.580E-06,0.008
-3.570E-06,0.008
-3.560E-06,0.000
-3.550E-06,0.000
-3.540E-06,0.000
-3.530E-06,0.008
-3.520E-06,0.004
-3.510E-06,0.000
-3.500E-06,0.004
-3.490E-06,0.004
-3.480E-06,0.004
-3.470E-06,0.004
-3.460E-06,0.004
-3.450E-06,0.004
-3.440E-06,0.000
-3.430E-06,0.000
-3.420E-06,0.004
-3.410E-06,0.004
-3.400E-06,0.004
-3.390E-06,0.004
-3.380E-06,0.008
-3.370E-06,0.008
-3.360E-06,0.000
-3.350E-06,0.004
-3.340E-06,0.000
-3.330E-06,0.004
-3.320E-06,0.000
-3.310E-06,-0.004
-3.300E-06,0.004
-3.290E-06,0.004
-3.280E-06,0.000
-3.270E-06,0.000
-3.260E-06,0.000
-3.250E-06,0.004
-3.240E-06,0.000
-3.230E-06,0.004
-3.220E-06,0.000
-3.210E-06,0.004
-3.200E-06,0.004
-3.190E-06,0.004
-3.180E-06,0.004
-3.170E-06,0.004
-3.160E-06,0.000
-3.150E-06,0.004
-3.140E-06,-0.004
-3.130E-06,0.004
-3.120E-06,0.004
-3.110E-06,0.004
-3.100E-06,0.004
-3.090E-06,0.000
-3.080E-06,0.000
-3.070E-06,0.000
-3.060E-06,0.000
-3.050E-06,0.004
-3.040E-06,0.000
-3.030E-06,0.000
-3.020E-06,0.004
-3.010E-06,0.004
-3.000E-06,0.004
-2.990E-06,0.000
-2.980E-06,0.004
-2.970E-06,0.000
-2.960E-06,0.004
-2.950E-06,0.000
-2.940E-06,0.020
-2.930E-06,0.052
-2.920E-06,0.064
-2.910E-06,0.060
-2.900E-06,0.028
-2.890E-06,-0.028
-2.880E-06,-0.088
-2.870E-06,-0.152
-2.860E-06,-0.020
-2.850E-06,-0.104
-2.840E-06,0.084
-2.830E-06,0.048
-2.820E-06,0.196
-2.810E-06,0.104
-2.800E-06,-0.084
-2.790E-06,-0.068
-2.780E-06,-0.068
-2.770E-06,-0.008
-2.760E-06,0.064
-2.750E-06,0.164
-2.740E-06,0.020
-2.730E-06,-0.044
-2.720E-06,-0.068
-2.710E-06,-0.072
-2.700E-06,-0.036
-2.690E-06,0.024
-2.680E-06,0.064
-2.670E-06,0.040
-2.660E-06,0.068
-2.650E-06,0.024
-2.640E-06,-0.004
-2.630E-06,-0.040
-2.620E-06,-0.012
-2.610E-06,-0.008
-2.600E-06,0.008
-2.590E-06,0.008
-2.580E-06,-0.004
-2.570E-06,0.004
-2.560E-06,-0.004
-2.550E-06,-0.020
-2.540E-06,-0.024
-2.530E-06,0.000
-2.520E-06,0.008
-2.510E-06,0.040
-2.500E-06,0.056
-2.490E-06,0.048
-2.480E-06,0.028
-2.470E-06,0.004
-2.460E-06,-0.012
-2.450E-06,-0.024
-2.440E-06,0.000
-2.430E-06,0.000
-2.420E-06,0.016
-2.410E-06,0.012
-2.400E-06,0.012
-2.390E-06,-0.004
-2.380E-06,-0.004
-2.370E-06,0.000
-2.360E-06,0.012
-2.350E-06,0.032
-2.340E-06,0.044
-2.330E-06,0.036
-2.320E-06,0.016
-2.310E-06,0.000
-2.300E-06,-0.008
-2.290E-06,-0.004
-2.280E-06,0.004
-2.270E-06,0.008
-2.260E-06,0.012
-2.250E-06,0.004
-2.240E-06,0.004
-2.230E-06,-0.004
-2.220E-06,0.000
-2.210E-06,0.012
-2.200E-06,0.004
-2.190E-06,0.012
-2.180E-06,0.016
-2.170E-06,0.020
-2.160E-06,0.012
-2.150E-06,0.000
-2.140E-06,-0.008
-2.130E-06,-0.004
-2.120E-06,-0.004
-2.110E-06,0.000
-2.100E-06,0.004
-2.090E-06,0.016
-2.080E-06,0.012
-2.070E-06,0.004
-2.060E-06,-0.004
-2.050E-06,0.000
-2.040E-06,0.000
-2.030E-06,0.012
-2.020E-06,0.008
-2.010E-06,0.020
-2.000E-06,0.024
-1.990E-06,0.028
-1.980E-06,0.012
-1.970E-06,0.000
-1.960E-06,0.004
-1.950E-06,0.000
-1.940E-06,0.012
-1.930E-06,0.024
-1.920E-06,0.024
-1.910E-06,0.040
-1.900E-06,0.032
-1.890E-06,0.016
-1.880E-06,-0.004
-1.870E-06,-0.004
-1.860E-06,0.000
-1.850E-06,-0.004
-1.840E-06,0.036
-1.830E-06,-0.016
-1.820E-06,-0.016
-1.810E-06,-0.096
-1.800E-06,-0.060
-1.790E-06,-0.020
-1.780E-06,-0.004
-1.770E-06,0.028
-1.760E-06,0.036
-1.750E-06,0.032
-1.740E-06,-0.004
-1.730E-06,-0.016
-1.720E-06,-0.028
-1.710E-06,-0.024
-1.700E-06,0.000
-1.690E-06,0.032
-1.680E-06,0.056
-1.670E-06,0.048
-1.660E-06,0.032
-1.650E-06,-0.012
-1.640E-06,-0.020
-1.630E-06,-0.036
-1.620E-06,-0.028
-1.610E-06,-0.016
-1.600E-06,0.016
-1.590E-06,0.024
-1.580E-06,0.044
-1.570E-06,0.016
-1.560E-06,-0.008
-1.550E-06,-0.024
-1.540E-06,-0.008
-1.530E-06,-0.012
-1.520E-06,0.004
-1.510E-06,0.052
-1.500E-06,0.064
-1.490E-06,0.024
-1.480E-06,0.004
-1.470E-06,-0.024
-1.460E-06,-0.052
-1.450E-06,-0.024
-1.440E-06,0.008
-1.430E-06,0.024
-1.420E-06,0.032
-1.410E-06,0.008
-1.400E-06,0.000
-1.390E-06,-0.020
-1.380E-06,-0.008
-1.370E-06,-0.004
-1.360E-06,0.008
-1.350E-06,0.028
-1.340E-06,0.024
-1.330E-06,0.028
-1.320E-06,0.012
-1.310E-06,0.000
-1.300E-06,-0.008
-1.290E-06,-0.008
-1.280E-06,0.016
-1.270E-06,0.004
-1.260E-06,0.036
-1.250E-06,0.016
-1.240E-06,0.036
-1.230E-06,0.028
-1.220E-06,0.000
-1.210E-06,-0.008
-1.200E-06,-0.004
-1.190E-06,-0.020
-1.180E-06,-0.024
-1.170E-06,0.008
-1.160E-06,0.028
-1.150E-06,0.016
-1.140E-06,0.008
-1.130E-06,-0.008
-1.120E-06,-0.020
-1.110E-06,-0.020
-1.100E-06,0.016
-1.090E-06,0.040
-1.080E-06,0.040
-1.070E-06,0.028
-1.060E-06,0.008
-1.050E-06,-0.004
-1.040E-06,-0.024
-1.030E-06,-0.032
-1.020E-06,-0.024
-1.010E-06,0.008
-1.000E-06,0.028
-9.900E-07,0.040
-9.800E-07,0.008
-9.700E-07,-0.004
-9.600E-07,-0.008
-9.500E-07,-0.036
-9.400E-07,-0.012
-9.300E-07,0.032
-9.200E-07,0.044
-9.100E-07,0.040
-9.000E-07,0.028
-8.900E-07,0.020
-8.800E-07,-0.008
-8.700E-07,0.028
-8.600E-07,0.020
-8.500E-07,-0.004
-8.400E-07,-0.012
-8.300E-07,-0.008
-8.200E-07,-0.028
-8.100E-07,-0.028
-8.000E-07,0.004
-7.900E-07,0.012
-7.800E-07,0.028
-7.700E-07,0.020
-7.600E-07,0.012
-7.500E-07,-0.008
-7.400E-07,-0.004
-7.300E-07,0.004
-7.200E-07,0.012
-7.100E-07,0.024
-7.000E-07,0.028
-6.900E-07,0.028
-6.800E-07,0.012
-6.700E-07,0.004
-6.600E-07,-0.004
-6.500E-07,-0.016
-6.400E-07,-0.032
-6.300E-07,-0.008
-6.200E-07,0.012
-6.100E-07,0.024
-6.000E-07,0.040
-5.900E-07,0.036
-5.800E-07,0.016
-5.700E-07,0.000
-5.600E-07,-0.004
-5.500E-07,0.000
-5.400E-07,0.020
-5.300E-07,0.024
-5.200E-07,0.028
-5.100E-07,0.032
-5.000E-07,0.020
-4.900E-07,0.008
-4.800E-07,0.000
-4.700E-07,-0.008
-4.600E-07,0.000
-4.500E-07,0.016
-4.400E-07,0.028
-4.300E-07,0.036
-4.200E-07,0.036
-4.100E-07,0.028
-4.000E-07,0.020
-3.900E-07,0.016
-3.800E-07,0.020
-3.700E-07,0.028
-3.600E-07,0.032
-3.500E-07,0.044
-3.400E-07,0.052
-3.300E-07,0.036
-3.200E-07,0.028
-3.100E-07,0.016
-3.000E-07,0.012
-2.900E-07,0.024
-2.800E-07,0.056
-2.700E-07,0.072
-2.600E-07,0.076
-2.500E-07,0.068
-2.400E-07,0.032
-2.300E-07,0.008
-2.200E-07,0.004
-2.100E-07,0.004
-2.000E-07,0.024
-1.900E-07,0.024
-1.800E-07,0.056
-1.700E-07,0.052
-1.600E-07,0.032
-1.500E-07,-0.004
-1.400E-07,0.000
-1.300E-07,-0.040
-1.200E-07,-0.020
-1.100E-07,0.008
-1.000E-07,0.128
-9.000E-08,-0.040
-8.000E-08,0.080
-7.000E-08,-0.284
-6.000E-08,-0.400
-5.000E-08,-0.400
-4.000E-08,-0.192
-3.000E-08,0.060
-2.000E-08,0.088
-1.000E-08,0.340
0.000E+00,0.172
1.000E-08,0.068
2.000E-08,-0.104
3.000E-08,-0.072
4.000E-08,-0.064
5.000E-08,-0.028
6.000E-08,0.092
7.000E-08,0.224
8.000E-08,0.192
9.000E-08,0.032
1.000E-07,-0.096
1.100E-07,-0.180
1.200E-07,-0.104
1.300E-07,-0.036
1.400E-07,0.060
1.500E-07,0.144
1.600E-07,0.200
1.700E-07,0.000
1.800E-07,-0.044
1.900E-07,-0.012
2.000E-07,-0.024
2.100E-07,0.092
2.200E-07,-0.064
2.300E-07,0.128
2.400E-07,0.104
2.500E-07,0.152
2.600E-07,0.028
2.700E-07,-0.088
2.800E-07,-0.136
2.900E-07,-0.040
3.000E-07,0.024
3.100E-07,0.028
3.200E-07,0.004
3.300E-07,-0.072
3.400E-07,-0.052
3.500E-07,-0.040
3.600E-07,0.008
3.700E-07,0.084
3.800E-07,0.100
3.900E-07,0.024
4.000E-07,-0.072
4.100E-07,-0.108
4.200E-07,-0.140
4.300E-07,-0.080
4.400E-07,0.020
4.500E-07,0.092
4.600E-07,0.080
4.700E-07,0.088
4.800E-07,0.024
4.900E-07,-0.008
5.000E-07,-0.040
5.100E-07,-0.020
5.200E-07,0.012
5.300E-07,0.040
5.400E-07,0.144
5.500E-07,0.092
5.600E-07,0.080
5.700E-07,0.036
5.800E-07,0.048
5.900E-07,0.048
6.000E-07,0.052
6.100E-07,0.060
6.200E-07,0.060
6.300E-07,0.052
6.400E-07,0.036
6.500E-07,0.040
6.600E-07,0.016
6.700E-07,0.032
6.800E-07,0.056
6.900E-07,0.084
7.000E-07,0.060
7.100E-07,0.056
7.200E-07,0.032
7.300E-07,0.044
7.400E-07,0.060
7.500E-07,0.056
7.600E-07,0.072
7.700E-07,0.080
7.800E-07,0.060
7.900E-07,0.068
8.000E-07,0.068
8.100E-07,0.052
8.200E-07,0.052
8.300E-07,0.056
8.400E-07,0.064
8.500E-07,0.060
8.600E-07,0.072
8.700E-07,0.064
8.800E-07,0.064
8.900E-07,0.056
9.000E-07,0.060
9.100E-07,0.060
9.200E-07,0.052
9.300E-07,0.048
9.400E-07,0.044
9.500E-07,0.056
9.600E-07,0.056
9.700E-07,0.068
9.800E-07,0.096
9.900E-07,0.104
1.000E-06,0.132
1.010E-06,0.112
1.020E-06,0.112
1.030E-06,0.132
1.040E-06,0.128
1.050E-06,0.104
1.060E-06,0.096
1.070E-06,0.108
1.080E-06,0.112
1.090E-06,0.104
1.100E-06,0.108
1.110E-06,0.128
1.120E-06,0.144
1.130E-06,0.156
1.140E-06,0.156
1.150E-06,0.156
1.160E-06,0.140
1.170E-06,0.136
1.180E-06,0.140
1.190E-06,0.160
1.200E-06,0.160
1.210E-06,0.120
1.220E-06,0.092
1.230E-06,0.044
1.240E-06,-0.036
1.250E-06,-0.060
1.260E-06,-0.124
1.270E-06,-0.084
1.280E-06,0.080
1.290E-06,0.016
1.300E-06,-0.120
1.310E-06,0.020
1.320E-06,-0.100
1.330E-06,-0.056
1.340E-06,-0.084
1.350E-06,-0.040
1.360E-06,-0.048
1.370E-06,-0.180
1.380E-06,-0.280
1.390E-06,-0.416
1.400E-06,-0.468
1.410E-06,-0.232
1.420E-06,0.128
1.430E-06,0.396
1.440E-06,0.240
1.450E-06,0.204
1.460E-06,-0.064
1.470E-06,-0.072
1.480E-06,0.012
1.490E-06,0.056
1.500E-06,0.140
1.510E-06,0.168
1.520E-06,0.144
1.530E-06,-0.012
1.540E-06,-0.152
1.550E-06,-0.160
1.560E-06,-0.024
1.570E-06,0.164
1.580E-06,0.204
1.590E-06,0.312
1.600E-06,0.204
1.610E-06,0.024
1.620E-06,-0.140
1.630E-06,-0.236
1.640E-06,-0.152
1.650E-06,0.048
1.660E-06,0.212
1.670E-06,0.336
1.680E-06,0.368
1.690E-06,0.244
1.700E-06,0.104
1.710E-06,0.004
1.720E-06,-0.004
1.730E-06,0.044
1.740E-06,0.204
1.750E-06,0.304
1.760E-06,0.336
1.770E-06,0.296
1.780E-06,0.208
1.790E-06,0.128
1.800E-06,0.076
1.810E-06,0.104
1.820E-06,0.168
1.830E-06,0.272
1.840E-06,0.300
1.850E-06,0.296
1.860E-06,0.216
1.870E-06,0.156
1.880E-06,0.096
1.890E-06,0.096
1.900E-06,0.156
1.910E-06,0.204
1.920E-06,0.260
1.930E-06,0.260
1.940E-06,0.228
1.950E-06,0.172
1.960E-06,0.132
1.970E-06,0.104
1.980E-06,0.144
1.990E-06,0.200
2.000E-06,0.248
2.010E-06,0.260
2.020E-06,0.244
2.030E-06,0.200
2.040E-06,0.156
2.050E-06,0.136
2.060E-06,0.152
2.070E-06,0.188
2.080E-06,0.224
2.090E-06,0.228
2.100E-06,0.212
2.110E-06,0.176
2.120E-06,0.132
2.130E-06,0.112
2.140E-06,0.124
2.150E-06,0.164
2.160E-06,0.204
2.170E-06,0.204
2.180E-06,0.204
2.190E-06,0.144
2.200E-06,0.116
2.210E-06,0.088
2.220E-06,0.104
2.230E-06,0.156
2.240E-06,0.188
2.250E-06,0.240
2.260E-06,0.220
2.270E-06,0.192
2.280E-06,0.148
2.290E-06,0.140
2.300E-06,0.152
2.310E-06,0.184
2.320E-06,0.216
2.330E-06,0.228
2.340E-06,0.232
2.350E-06,0.196
2.360E-06,0.176
2.370E-06,0.164
2.380E-06,0.176
2.390E-06,0.188
2.400E-06,0.204
2.410E-06,0.216
2.420E-06,0.220
2.430E-06,0.204
2.440E-06,0.184
2.450E-06,0.172
2.460E-06,0.176
2.470E-06,0.188
2.480E-06,0.192
2.490E-06,0.208
2.500E-06,0.212
2.510E-06,0.200
2.520E-06,0.192
2.530E-06,0.184
2.540E-06,0.180
2.550E-06,0.188
2.560E-06,0.192
2.570E-06,0.200
2.580E-06,0.204
2.590E-06,0.200
2.600E-06,0.196
2.610E-06,0.184
2.620E-06,0.180
2.630E-06,0.176
2.640E-06,0.184
2.650E-06,0.188
2.660E-06,0.200
2.670E-06,0.200
2.680E-06,0.200
2.690E-06,0.192
2.700E-06,0.184
2.710E-06,0.180
2.720E-06,0.188
2.730E-06,0.192
2.740E-06,0.192
2.750E-06,0.200
2.760E-06,0.188
2.770E-06,0.176
2.780E-06,0.172
2.790E-06,0.168
2.800E-06,0.176
2.810E-06,0.180
2.820E-06,0.188
2.830E-06,0.196
2.840E-06,0.188
2.850E-06,0.176
2.860E-06,0.172
2.870E-06,0.176
2.880E-06,0.180
2.890E-06,0.184
2.900E-06,0.188
2.910E-06,0.192
2.920E-06,0.188
2.930E-06,0.184
2.940E-06,0.176
2.950E-06,0.176
2.960E-06,0.176
2.970E-06,0.176
2.980E-06,0.184
2.990E-06,0.184
3.000E-06,0.184
3.010E-06,0.180
3.020E-06,0.180
3.030E-06,0.180
3.040E-06,0.176
3.050E-06,0.180
3.060E-06,0.184
3.070E-06,0.188
3.080E-06,0.180
3.090E-06,0.176
3.100E-06,0.176
3.110E-06,0.176
3.120E-06,0.176
3.130E-06,0.176
3.140E-06,0.176
3.150E-06,0.176
3.160E-06,0.168
3.170E-06,0.164
3.180E-06,0.164
3.190E-06,0.168
3.200E-06,0.172
3.210E-06,0.176
3.220E-06,0.176
3.230E-06,0.168
3.240E-06,0.172
3.250E-06,0.176
3.260E-06,0.176
3.270E-06,0.176
3.280E-06,0.172
3.290E-06,0.172
3.300E-06,0.176
3.310E-06,0.168
3.320E-06,0.168
3.330E-06,0.172
3.340E-06,0.168
3.350E-06,0.172
3.360E-06,0.168
3.370E-06,0.172
3.380E-06,0.172
3.390E-06,0.172
3.400E-06,0.164
3.410E-06,0.164
3.420E-06,0.176
3.430E-06,0.172
3.440E-06,0.172
3.450E-06,0.164
3.460E-06,0.160
3.470E-06,0.164
3.480E-06,0.164
3.490E-06,0.164
3.500E-06,0.168
3.510E-06,0.172
3.520E-06,0.168
3.530E-06,0.156
3.540E-06,0.160
3.550E-06,0.164
3.560E-06,0.160
3.570E-06,0.160
3.580E-06,0.164
3.590E-06,0.160
3.600E-06,0.156
3.610E-06,0.160
3.620E-06,0.164
3.630E-06,0.160
3.640E-06,0.160
3.650E-06,0.164
3.660E-06,0.164
3.670E-06,0.164
3.680E-06,0.156
3.690E-06,0.160
3.700E-06,0.164
3.710E-06,0.160
3.720E-06,0.160
3.730E-06,0.156
3.740E-06,0.156
3.750E-06,0.164
3.760E-06,0.156
3.770E-06,0.160
3.780E-06,0.148
3.790E-06,0.144
3.800E-06,0.152
3.810E-06,0.156
3.820E-06,0.152
3.830E-06,0.148
3.840E-06,0.148
3.850E-06,0.152
3.860E-06,0.148
3.870E-06,0.144
3.880E-06,0.148
3.890E-06,0.148
3.900E-06,0.152
3.910E-06,0.152
3.920E-06,0.156
3.930E-06,0.144
3.940E-06,0.148
3.950E-06,0.144
3.960E-06,0.148
3.970E-06,0.148
3.980E-06,0.144
3.990E-06,0.152
4.000E-06,0.144
4.010E-06,0.148
4.020E-06,0.144
4.030E-06,0.144
4.040E-06,0.140
4.050E-06,0.144
4.060E-06,0.144
4.070E-06,0.144
4.080E-06,0.140
4.090E-06,0.148
4.100E-06,0.136
4.110E-06,0.136
4.120E-06,0.140
4.130E-06,0.144
4.140E-06,0.136
4.150E-06,0.136
4.160E-06,0.140
4.170E-06,0.136
4.180E-06,0.140
4.190E-06,0.140
4.200E-06,0.132
4.210E-06,0.128
4.220E-06,0.132
4.230E-06,0.132
4.240E-06,0.136
4.250E-06,0.140
4.260E-06,0.140
4.270E-06,0.136
4.280E-06,0.132
4.290E-06,0.132
4.300E-06,0.132
4.310E-06,0.132
4.320E-06,0.128
4.330E-06,0.124
4.340E-06,0.132
4.350E-06,0.132
4.360E-06,0.132
4.370E-06,0.128
4.380E-06,0.136
4.390E-06,0.132
4.400E-06,0.128
4.410E-06,0.128
4.420E-06,0.128
4.430E-06,0.132
4.440E-06,0.128
4.450E-06,0.128
4.460E-06,0.124
4.470E-06,0.124
4.480E-06,0.124
4.490E-06,0.120
4.500E-06,0.124
4.510E-06,0.124
4.520E-06,0.124
4.530E-06,0.124
4.540E-06,0.128
4.550E-06,0.128
4.560E-06,0.124
4.570E-06,0.124
4.580E-06,0.120
4.590E-06,0.128
4.600E-06,0.128
4.610E-06,0.120
4.620E-06,0.124
4.630E-06,0.124
4.640E-06,0.124
4.650E-06,0.120
4.660E-06,0.116
4.670E-06,0.116
4.680E-06,0.116
4.690E-06,0.120
4.700E-06,0.116
4.710E-06,0.120
4.720E-06,0.116
4.730E-06,0.108
4.740E-06,0.108
4.750E-06,0.112
4.760E-06,0.108
4.770E-06,0.108
4.780E-06,0.112
4.790E-06,0.112
4.800E-06,0.108
4.810E-06,0.112
4.820E-06,0.108
4.830E-06,0.104
4.840E-06,0.108
4.850E-06,0.112
4.860E-06,0.104
4.870E-06,0.104
4.880E-06,0.108
4.890E-06,0.108
4.900E-06,0.108
4.910E-06,0.108
4.920E-06,0.104
4.930E-06,0.104
4.940E-06,0.108
4.950E-06,0.108
4.960E-06,0.096
4.970E-06,0.096
4.980E-06,0.100
4.990E-06,0.100
5.000E-06,0.096
5.010E-06,0.100
5.020E-06,0.096
5.030E-06,0.096
5.040E-06,0.100
5.050E-06,0.096
5.060E-06,0.100
5.070E-06,0.100
5.080E-06,0.096
5.090E-06,0.100
5.100E-06,0.096
5.110E-06,0.092
5.120E-06,0.092
5.130E-06,0.096
5.140E-06,0.096
5.150E-06,0.096
5.160E-06,0.096
5.170E-06,0.092
5.180E-06,0.096
5.190E-06,0.096
5.200E-06,0.096
5.210E-06,0.096
5.220E-06,0.096
5.230E-06,0.096
5.240E-06,0.088
5.250E-06,0.092
5.260E-06,0.096
5.270E-06,0.100
5.280E-06,0.092
5.290E-06,0.096
5.300E-06,0.092
5.310E-06,0.092
5.320E-06,0.092
5.330E-06,0.092
5.340E-06,0.088
5.350E-06,0.088
5.360E-06,0.092
5.370E-06,0.088
5.380E-06,0.092
5.390E-06,0.088
5.400E-06,0.084
5.410E-06,0.084
5.420E-06,0.092
5.430E-06,0.088
5.440E-06,0.092
5.450E-06,0.092
5.460E-06,0.092
5.470E-06,0.088
5.480E-06,0.084
5.490E-06,0.080
5.500E-06,0.080
5.510E-06,0.080
5.520E-06,0.080
5.530E-06,0.080
5.540E-06,0.088
5.550E-06,0.088
5.560E-06,0.088
5.570E-06,0.076
5.580E-06,0.080
5.590E-06,0.076
5.600E-06,0.076
5.610E-06,0.076
5.620E-06,0.084
5.630E-06,0.076
5.640E-06,0.076
5.650E-06,0.076
5.660E-06,0.072
5.670E-06,0.076
5.680E-06,0.076
5.690E-06,0.072
5.700E-06,0.072
5.710E-06,0.076
5.720E-06,0.076
5.730E-06,0.076
5.740E-06,0.076
5.750E-06,0.072
5.760E-06,0.068
5.770E-06,0.072
5.780E-06,0.072
5.790E-06,0.072
5.800E-06,0.068
5.810E-06,0.076
5.820E-06,0.072
5.830E-06,0.068
5.840E-06,0.064
5.850E-06,0.068
5.860E-06,0.072
5.870E-06,0.064
5.880E-06,0.068
5.890E-06,0.064
5.900E-06,0.064
5.910E-06,0.068
5.920E-06,0.064
5.930E-06,0.064
5.940E-06,0.060
5.950E-06,0.060
5.960E-06,0.064
5.970E-06,0.064
5.980E-06,0.068
5.990E-06,0.060
6.000E-06,0.064
6.010E-06,0.060
6.020E-06,0.064
6.030E-06,0.060
6.040E-06,0.056
6.050E-06,0.056
6.060E-06,0.060
6.070E-06,0.064
6.080E-06,0.060
6.090E-06,0.056
6.100E-06,0.056
6.110E-06,0.060
6.120E-06,0.060
6.130E-06,0.056
6.140E-06,0.056
6.150E-06,0.056
6.160E-06,0.056
6.170E-06,0.056
6.180E-06,0.056
6.190E-06,0.060
6.200E-06,0.056
6.210E-06,0.056
6.220E-06,0.060
6.230E-06,0.056
6.240E-06,0.052
6.250E-06,0.056
6.260E-06,0.048
6.270E-06,0.052
6.280E-06,0.048
6.290E-06,0.052
6.300E-06,0.052
6.310E-06,0.052
6.320E-06,0.052
6.330E-06,0.048
6.340E-06,0.052
6.350E-06,0.052
6.360E-06,0.048
6.370E-06,0.044
6.380E-06,0.052
6.390E-06,0.044
6.400E-06,0.044
6.410E-06,0.048
6.420E-06,0.048
6.430E-06,0.048
6.440E-06,0.044
6.450E-06,0.040
6.460E-06,0.044
6.470E-06,0.044
6.480E-06,0.044
6.490E-06,0.044
6.500E-06,0.048
6.510E-06,0.048
6.520E-06,0.044
6.530E-06,0.044
6.540E-06,0.040
6.550E-06,0.040
6.560E-06,0.044
6.570E-06,0.044
6.580E-06,0.040
6.590E-06,0.044
6.600E-06,0.044
6.610E-06,0.044
6.620E-06,0.044
6.630E-06,0.032
6.640E-06,0.036
6.650E-06,0.044
6.660E-06,0.044
6.670E-06,0.044
6.680E-06,0.036
6.690E-06,0.040
6.700E-06,0.044
6.710E-06,0.044
6.720E-06,0.040
6.730E-06,0.040
6.740E-06,0.040
6.750E-06,0.040
6.760E-06,0.040
6.770E-06,0.044
6.780E-06,0.036
6.790E-06,0.036
6.800E-06,0.036
6.810E-06,0.032
6.820E-06,0.028
6.830E-06,0.036
6.840E-06,0.036
6.850E-06,0.036
6.860E-06,0.032
6.870E-06,0.032
6.880E-06,0.032
6.890E-06,0.036
6.900E-06,0.032
6.910E-06,0.028
6.920E-06,0.032
6.930E-06,0.032
6.940E-06,0.036
6.950E-06,0.032
6.960E-06,0.028
6.970E-06,0.028
6.980E-06,0.032
6.990E-06,0.032
7.000E-06,0.028
7.010E-06,0.032
7.020E-06,0.028
7.030E-06,0.024
7.040E-06,0.028
7.050E-06,0.032
7.060E-06,0.032
7.070E-06,0.024
7.080E-06,0.024
7.090E-06,0.028
7.100E-06,0.032
7.110E-06,0.028
7.120E-06,0.024
7.130E-06,0.024
7.140E-06,0.032
7.150E-06,0.024
7.160E-06,0.024
7.170E-06,0.024
7.180E-06,0.024
7.190E-06,0.032
7.200E-06,0.024
7.210E-06,0.024
7.220E-06,0.028
7.230E-06,0.024
7.240E-06,0.028
7.250E-06,0.028
7.260E-06,0.028
7.270E-06,0.028
7.280E-06,0.024
7.290E-06,0.020
7.300E-06,0.024
7.310E-06,0.024
7.320E-06,0.016
7.330E-06,0.016
7.340E-06,0.016
7.350E-06,0.024
7.360E-06,0.020
7.370E-06,0.020
7.380E-06,0.016
7.390E-06,0.020
7.400E-06,0.024
7.410E-06,0.020
7.420E-06,0.016
7.430E-06,0.016
7.440E-06,0.016
7.450E-06,0.012
7.460E-06,0.016
7.470E-06,0.012
7.480E-06,0.016
7.490E-06,0.012
7.500E-06,0.016
7.510E-06,0.016
7.520E-06,0.008
7.530E-06,0.012
7.540E-06,0.012
7.550E-06,0.012
7.560E-06,0.012
7.570E-06,0.012
7.580E-06,0.008
7.590E-06,0.012
7.600E-06,0.008
7.610E-06,0.012
7.620E-06,0.016
7.630E-06,0.016
7.640E-06,0.008
7.650E-06,0.008
7.660E-06,0.012
7.670E-06,0.008
7.680E-06,0.012
7.690E-06,0.012
7.700E-06,0.012
7.710E-06,0.012
7.720E-06,0.004
7.730E-06,0.012
7.740E-06,0.012
7.750E-06,0.008
7.760E-06,0.008
7.770E-06,0.008
7.780E-06,0.012
7.790E-06,0.004
7.800E-06,0.008
7.810E-06,0.004
7.820E-06,0.004
7.830E-06,0.008
