mediciones/Mediciones filtradas (saque las feas)/6-10/36.2/WaveData55257.csv

#timebase=2000000(ps)
,#voltbase=100000(mv/100)
#size=4000
-4.200E-06,0.000
-4.190E-06,0.008
-4.180E-06,0.000
-4.170E-06,0.000
-4.160E-06,0.016
-4.150E-06,0.004
-4.140E-06,0.004
-4.130E-06,0.000
-4.120E-06,-0.008
-4.110E-06,-0.008
-4.100E-06,0.004
-4.090E-06,-0.004
-4.080E-06,0.004
-4.070E-06,0.008
-4.060E-06,0.008
-4.050E-06,0.004
-4.040E-06,0.000
-4.030E-06,0.012
-4.020E-06,0.008
-4.010E-06,0.008
-4.000E-06,0.008
-3.990E-06,0.008
-3.980E-06,0.000
-3.970E-06,0.004
-3.960E-06,0.000
-3.950E-06,0.000
-3.940E-06,0.004
-3.930E-06,0.004
-3.920E-06,0.004
-3.910E-06,0.008
-3.900E-06,0.000
-3.890E-06,-0.004
-3.880E-06,0.000
-3.870E-06,0.004
-3.860E-06,0.008
-3.850E-06,0.004
-3.840E-06,0.004
-3.830E-06,0.008
-3.820E-06,0.008
-3.810E-06,0.008
-3.800E-06,0.008
-3.790E-06,0.012
-3.780E-06,0.004
-3.770E-06,0.004
-3.760E-06,0.012
-3.750E-06,0.012
-3.740E-06,0.024
-3.730E-06,-0.004
-3.720E-06,-0.008
-3.710E-06,-0.032
-3.700E-06,-0.012
-3.690E-06,-0.004
-3.680E-06,0.020
-3.670E-06,0.028
-3.660E-06,0.024
-3.650E-06,-0.004
-3.640E-06,-0.012
-3.630E-06,-0.012
-3.620E-06,-0.012
-3.610E-06,-0.004
-3.600E-06,0.012
-3.590E-06,0.016
-3.580E-06,0.020
-3.570E-06,0.008
-3.560E-06,-0.004
-3.550E-06,-0.004
-3.540E-06,-0.008
-3.530E-06,-0.004
-3.520E-06,0.008
-3.510E-06,0.008
-3.500E-06,0.012
-3.490E-06,0.008
-3.480E-06,0.004
-3.470E-06,0.000
-3.460E-06,-0.004
-3.450E-06,-0.004
-3.440E-06,0.000
-3.430E-06,0.004
-3.420E-06,0.012
-3.410E-06,0.004
-3.400E-06,0.004
-3.390E-06,-0.004
-3.380E-06,-0.004
-3.370E-06,0.000
-3.360E-06,0.008
-3.350E-06,0.016
-3.340E-06,0.016
-3.330E-06,0.012
-3.320E-06,0.008
-3.310E-06,0.000
-3.300E-06,0.000
-3.290E-06,0.000
-3.280E-06,0.000
-3.270E-06,0.004
-3.260E-06,0.012
-3.250E-06,0.004
-3.240E-06,0.008
-3.230E-06,0.008
-3.220E-06,0.000
-3.210E-06,0.004
-3.200E-06,0.004
-3.190E-06,0.008
-3.180E-06,0.008
-3.170E-06,0.008
-3.160E-06,0.008
-3.150E-06,0.008
-3.140E-06,0.008
-3.130E-06,0.000
-3.120E-06,-0.004
-3.110E-06,0.000
-3.100E-06,-0.004
-3.090E-06,0.012
-3.080E-06,0.016
-3.070E-06,0.016
-3.060E-06,0.016
-3.050E-06,0.008
-3.040E-06,0.004
-3.030E-06,-0.008
-3.020E-06,-0.004
-3.010E-06,-0.004
-3.000E-06,0.012
-2.990E-06,0.020
-2.980E-06,0.020
-2.970E-06,0.016
-2.960E-06,0.004
-2.950E-06,-0.004
-2.940E-06,0.004
-2.930E-06,0.004
-2.920E-06,0.004
-2.910E-06,0.008
-2.900E-06,0.004
-2.890E-06,0.008
-2.880E-06,0.008
-2.870E-06,0.008
-2.860E-06,0.000
-2.850E-06,0.004
-2.840E-06,0.008
-2.830E-06,0.008
-2.820E-06,0.016
-2.810E-06,0.024
-2.800E-06,0.016
-2.790E-06,0.008
-2.780E-06,0.008
-2.770E-06,0.000
-2.760E-06,0.004
-2.750E-06,0.012
-2.740E-06,0.020
-2.730E-06,0.028
-2.720E-06,0.020
-2.710E-06,0.008
-2.700E-06,0.008
-2.690E-06,0.004
-2.680E-06,0.008
-2.670E-06,0.024
-2.660E-06,0.024
-2.650E-06,0.036
-2.640E-06,0.040
-2.630E-06,0.028
-2.620E-06,0.004
-2.610E-06,-0.004
-2.600E-06,0.000
-2.590E-06,0.020
-2.580E-06,0.032
-2.570E-06,0.040
-2.560E-06,0.016
-2.550E-06,-0.004
-2.540E-06,-0.040
-2.530E-06,-0.048
-2.520E-06,-0.040
-2.510E-06,-0.028
-2.500E-06,0.000
-2.490E-06,0.004
-2.480E-06,0.008
-2.470E-06,-0.004
-2.460E-06,-0.020
-2.450E-06,-0.024
-2.440E-06,-0.024
-2.430E-06,-0.008
-2.420E-06,0.000
-2.410E-06,0.012
-2.400E-06,0.008
-2.390E-06,0.004
-2.380E-06,-0.004
-2.370E-06,-0.004
-2.360E-06,-0.008
-2.350E-06,-0.008
-2.340E-06,0.008
-2.330E-06,0.024
-2.320E-06,0.028
-2.310E-06,0.028
-2.300E-06,0.016
-2.290E-06,0.008
-2.280E-06,0.008
-2.270E-06,0.012
-2.260E-06,0.016
-2.250E-06,0.028
-2.240E-06,0.040
-2.230E-06,0.064
-2.220E-06,0.064
-2.210E-06,0.056
-2.200E-06,0.044
-2.190E-06,0.020
-2.180E-06,0.000
-2.170E-06,-0.008
-2.160E-06,-0.012
-2.150E-06,-0.008
-2.140E-06,-0.004
-2.130E-06,-0.004
-2.120E-06,0.000
-2.110E-06,-0.008
-2.100E-06,-0.012
-2.090E-06,-0.016
-2.080E-06,0.000
-2.070E-06,0.004
-2.060E-06,0.024
-2.050E-06,0.024
-2.040E-06,0.044
-2.030E-06,0.064
-2.020E-06,0.076
-2.010E-06,0.100
-2.000E-06,0.124
-1.990E-06,0.120
-1.980E-06,0.112
-1.970E-06,0.104
-1.960E-06,0.052
-1.950E-06,0.028
-1.940E-06,-0.072
-1.930E-06,-0.116
-1.920E-06,-0.168
-1.910E-06,-0.196
-1.900E-06,-0.076
-1.890E-06,-0.028
-1.880E-06,0.080
-1.870E-06,0.104
-1.860E-06,0.124
-1.850E-06,0.040
-1.840E-06,0.008
-1.830E-06,0.068
-1.820E-06,0.104
-1.810E-06,0.148
-1.800E-06,0.184
-1.790E-06,0.132
-1.780E-06,0.060
-1.770E-06,-0.096
-1.760E-06,-0.244
-1.750E-06,-0.368
-1.740E-06,-0.332
-1.730E-06,-0.168
-1.720E-06,-0.012
-1.710E-06,0.120
-1.700E-06,0.200
-1.690E-06,0.144
-1.680E-06,0.012
-1.670E-06,-0.096
-1.660E-06,-0.120
-1.650E-06,-0.064
-1.640E-06,0.060
-1.630E-06,0.192
-1.620E-06,0.188
-1.610E-06,0.100
-1.600E-06,0.000
-1.590E-06,-0.136
-1.580E-06,-0.152
-1.570E-06,-0.076
-1.560E-06,0.012
-1.550E-06,0.112
-1.540E-06,0.144
-1.530E-06,0.124
-1.520E-06,0.032
-1.510E-06,-0.068
-1.500E-06,-0.124
-1.490E-06,-0.092
-1.480E-06,-0.020
-1.470E-06,0.064
-1.460E-06,0.104
-1.450E-06,0.092
-1.440E-06,0.052
-1.430E-06,0.028
-1.420E-06,-0.004
-1.410E-06,0.024
-1.400E-06,0.056
-1.390E-06,0.128
-1.380E-06,0.132
-1.370E-06,0.120
-1.360E-06,0.044
-1.350E-06,-0.020
-1.340E-06,-0.032
-1.330E-06,-0.052
-1.320E-06,-0.004
-1.310E-06,0.004
-1.300E-06,0.016
-1.290E-06,0.004
-1.280E-06,-0.040
-1.270E-06,-0.040
-1.260E-06,-0.036
-1.250E-06,0.012
-1.240E-06,0.064
-1.230E-06,0.096
-1.220E-06,0.120
-1.210E-06,0.124
-1.200E-06,0.156
-1.190E-06,0.144
-1.180E-06,0.140
-1.170E-06,0.108
-1.160E-06,0.140
-1.150E-06,0.088
-1.140E-06,0.064
-1.130E-06,0.024
-1.120E-06,-0.040
-1.110E-06,-0.124
-1.100E-06,-0.192
-1.090E-06,-0.192
-1.080E-06,-0.152
-1.070E-06,-0.092
-1.060E-06,-0.028
-1.050E-06,-0.012
-1.040E-06,-0.020
-1.030E-06,-0.040
-1.020E-06,-0.068
-1.010E-06,-0.052
-1.000E-06,-0.072
-9.900E-07,-0.072
-9.800E-07,-0.052
-9.700E-07,0.000
-9.600E-07,0.008
-9.500E-07,0.028
-9.400E-07,0.040
-9.300E-07,0.072
-9.200E-07,0.064
-9.100E-07,0.076
-9.000E-07,0.052
-8.900E-07,0.048
-8.800E-07,0.064
-8.700E-07,0.100
-8.600E-07,0.112
-8.500E-07,0.108
-8.400E-07,0.124
-8.300E-07,0.112
-8.200E-07,0.128
-8.100E-07,0.132
-8.000E-07,0.096
-7.900E-07,0.008
-7.800E-07,-0.080
-7.700E-07,-0.168
-7.600E-07,-0.196
-7.500E-07,-0.216
-7.400E-07,-0.140
-7.300E-07,-0.072
-7.200E-07,-0.016
-7.100E-07,0.008
-7.000E-07,-0.012
-6.900E-07,-0.052
-6.800E-07,-0.080
-6.700E-07,-0.056
-6.600E-07,-0.048
-6.500E-07,-0.036
-6.400E-07,-0.032
-6.300E-07,-0.020
-6.200E-07,-0.028
-6.100E-07,0.008
-6.000E-07,0.020
-5.900E-07,0.008
-5.800E-07,0.000
-5.700E-07,0.028
-5.600E-07,0.044
-5.500E-07,0.044
-5.400E-07,0.032
-5.300E-07,0.036
-5.200E-07,0.072
-5.100E-07,0.108
-5.000E-07,0.164
-4.900E-07,0.192
-4.800E-07,0.220
-4.700E-07,0.204
-4.600E-07,0.168
-4.500E-07,0.104
-4.400E-07,0.076
-4.300E-07,0.080
-4.200E-07,0.088
-4.100E-07,0.088
-4.000E-07,0.072
-3.900E-07,0.032
-3.800E-07,-0.004
-3.700E-07,-0.104
-3.600E-07,-0.100
-3.500E-07,-0.084
-3.400E-07,0.020
-3.300E-07,0.108
-3.200E-07,0.140
-3.100E-07,0.072
-3.000E-07,-0.028
-2.900E-07,-0.152
-2.800E-07,-0.220
-2.700E-07,-0.260
-2.600E-07,-0.100
-2.500E-07,0.092
-2.400E-07,0.240
-2.300E-07,0.296
-2.200E-07,0.316
-2.100E-07,0.180
-2.000E-07,0.060
-1.900E-07,0.032
-1.800E-07,0.108
-1.700E-07,0.180
-1.600E-07,0.208
-1.500E-07,0.268
-1.400E-07,0.220
-1.300E-07,0.152
-1.200E-07,0.052
-1.100E-07,-0.136
-1.000E-07,-0.172
-9.000E-08,-0.164
-8.000E-08,-0.160
-7.000E-08,-0.168
-6.000E-08,-0.124
-5.000E-08,-0.056
-4.000E-08,-0.104
-3.000E-08,0.004
-2.000E-08,0.180
-1.000E-08,0.200
0.000E+00,0.228
1.000E-08,0.144
2.000E-08,-0.104
3.000E-08,-0.480
4.000E-08,-0.508
5.000E-08,-0.508
6.000E-08,-0.352
7.000E-08,-0.108
8.000E-08,0.340
9.000E-08,0.428
1.000E-07,0.232
1.100E-07,0.152
1.200E-07,-0.060
1.300E-07,-0.168
1.400E-07,-0.404
1.500E-07,-0.112
1.600E-07,0.236
1.700E-07,0.196
1.800E-07,0.100
1.900E-07,-0.172
2.000E-07,-0.296
2.100E-07,-0.464
2.200E-07,-0.400
2.300E-07,-0.056
2.400E-07,0.200
2.500E-07,0.276
2.600E-07,0.280
2.700E-07,0.160
2.800E-07,0.092
2.900E-07,-0.040
3.000E-07,-0.036
3.100E-07,0.004
3.200E-07,0.164
3.300E-07,0.296
3.400E-07,0.220
3.500E-07,0.188
3.600E-07,0.032
3.700E-07,-0.028
3.800E-07,-0.044
3.900E-07,-0.008
4.000E-07,0.068
4.100E-07,0.096
4.200E-07,0.152
4.300E-07,0.092
4.400E-07,0.064
4.500E-07,0.020
4.600E-07,0.016
4.700E-07,0.052
4.800E-07,0.140
4.900E-07,0.212
5.000E-07,0.240
5.100E-07,0.240
5.200E-07,0.176
5.300E-07,0.124
5.400E-07,0.072
5.500E-07,0.076
5.600E-07,0.104
5.700E-07,0.120
5.800E-07,0.140
5.900E-07,0.136
6.000E-07,0.120
6.100E-07,0.072
6.200E-07,0.040
6.300E-07,0.096
6.400E-07,0.184
6.500E-07,0.244
6.600E-07,0.308
6.700E-07,0.288
6.800E-07,0.196
6.900E-07,0.040
7.000E-07,-0.020
7.100E-07,0.044
7.200E-07,0.112
7.300E-07,0.156
7.400E-07,0.084
7.500E-07,-0.004
7.600E-07,-0.132
7.700E-07,-0.196
7.800E-07,-0.040
7.900E-07,0.124
8.000E-07,0.408
8.100E-07,0.512
8.200E-07,0.412
8.300E-07,0.128
8.400E-07,-0.176
8.500E-07,-0.436
8.600E-07,-0.512
8.700E-07,-0.512
8.800E-07,-0.508
8.900E-07,-0.512
9.000E-07,-0.340
9.100E-07,0.092
9.200E-07,0.304
9.300E-07,0.540
9.400E-07,0.476
9.500E-07,0.108
9.600E-07,-0.112
9.700E-07,-0.188
9.800E-07,-0.128
9.900E-07,0.160
1.000E-06,0.340
1.010E-06,0.320
1.020E-06,0.192
1.030E-06,-0.048
1.040E-06,-0.208
1.050E-06,-0.252
1.060E-06,0.036
1.070E-06,0.156
1.080E-06,0.324
1.090E-06,0.224
1.100E-06,-0.012
1.110E-06,-0.212
1.120E-06,-0.312
1.130E-06,-0.216
1.140E-06,-0.012
1.150E-06,0.252
1.160E-06,0.328
1.170E-06,0.368
1.180E-06,0.316
1.190E-06,0.188
1.200E-06,0.052
1.210E-06,0.044
1.220E-06,0.112
1.230E-06,0.272
1.240E-06,0.316
1.250E-06,0.340
1.260E-06,0.260
1.270E-06,0.128
1.280E-06,0.076
1.290E-06,0.056
1.300E-06,0.120
1.310E-06,0.208
1.320E-06,0.324
1.330E-06,0.344
1.340E-06,0.300
1.350E-06,0.192
1.360E-06,0.084
1.370E-06,0.016
1.380E-06,0.024
1.390E-06,0.088
1.400E-06,0.148
1.410E-06,0.220
1.420E-06,0.240
1.430E-06,0.252
1.440E-06,0.228
1.450E-06,0.192
1.460E-06,0.168
1.470E-06,0.164
1.480E-06,0.184
1.490E-06,0.180
1.500E-06,0.192
1.510E-06,0.144
1.520E-06,0.136
1.530E-06,0.112
1.540E-06,0.104
1.550E-06,0.056
1.560E-06,-0.012
1.570E-06,-0.124
1.580E-06,-0.260
1.590E-06,-0.240
1.600E-06,-0.308
1.610E-06,-0.160
1.620E-06,-0.080
1.630E-06,0.172
1.640E-06,0.364
1.650E-06,0.296
1.660E-06,0.204
1.670E-06,0.144
1.680E-06,0.104
1.690E-06,0.124
1.700E-06,0.172
1.710E-06,0.288
1.720E-06,0.324
1.730E-06,0.300
1.740E-06,0.256
1.750E-06,0.184
1.760E-06,0.092
1.770E-06,0.096
1.780E-06,0.176
1.790E-06,0.240
1.800E-06,0.280
1.810E-06,0.284
1.820E-06,0.256
1.830E-06,0.200
1.840E-06,0.168
1.850E-06,0.160
1.860E-06,0.164
1.870E-06,0.200
1.880E-06,0.244
1.890E-06,0.264
1.900E-06,0.252
1.910E-06,0.220
1.920E-06,0.188
1.930E-06,0.164
1.940E-06,0.172
1.950E-06,0.200
1.960E-06,0.224
1.970E-06,0.228
1.980E-06,0.224
1.990E-06,0.216
2.000E-06,0.192
2.010E-06,0.180
2.020E-06,0.188
2.030E-06,0.200
2.040E-06,0.208
2.050E-06,0.224
2.060E-06,0.220
2.070E-06,0.208
2.080E-06,0.196
2.090E-06,0.184
2.100E-06,0.180
2.110E-06,0.188
2.120E-06,0.196
2.130E-06,0.204
2.140E-06,0.204
2.150E-06,0.208
2.160E-06,0.200
2.170E-06,0.196
2.180E-06,0.192
2.190E-06,0.196
2.200E-06,0.204
2.210E-06,0.196
2.220E-06,0.196
2.230E-06,0.192
2.240E-06,0.188
2.250E-06,0.188
2.260E-06,0.196
2.270E-06,0.196
2.280E-06,0.196
2.290E-06,0.196
2.300E-06,0.192
2.310E-06,0.196
2.320E-06,0.188
2.330E-06,0.196
2.340E-06,0.192
2.350E-06,0.196
2.360E-06,0.204
2.370E-06,0.200
2.380E-06,0.192
2.390E-06,0.192
2.400E-06,0.188
2.410E-06,0.188
2.420E-06,0.188
2.430E-06,0.184
2.440E-06,0.192
2.450E-06,0.188
2.460E-06,0.192
2.470E-06,0.188
2.480E-06,0.192
2.490E-06,0.188
2.500E-06,0.188
2.510E-06,0.192
2.520E-06,0.188
2.530E-06,0.188
2.540E-06,0.188
2.550E-06,0.184
2.560E-06,0.180
2.570E-06,0.176
2.580E-06,0.176
2.590E-06,0.180
2.600E-06,0.192
2.610E-06,0.188
2.620E-06,0.188
2.630E-06,0.192
2.640E-06,0.184
2.650E-06,0.176
2.660E-06,0.176
2.670E-06,0.176
2.680E-06,0.184
2.690E-06,0.184
2.700E-06,0.188
2.710E-06,0.188
2.720E-06,0.184
2.730E-06,0.176
2.740E-06,0.168
2.750E-06,0.176
2.760E-06,0.180
2.770E-06,0.180
2.780E-06,0.180
2.790E-06,0.184
2.800E-06,0.180
2.810E-06,0.176
2.820E-06,0.176
2.830E-06,0.180
2.840E-06,0.180
2.850E-06,0.180
2.860E-06,0.176
2.870E-06,0.176
2.880E-06,0.168
2.890E-06,0.172
2.900E-06,0.168
2.910E-06,0.172
2.920E-06,0.180
2.930E-06,0.176
2.940E-06,0.176
2.950E-06,0.168
2.960E-06,0.168
2.970E-06,0.168
2.980E-06,0.172
2.990E-06,0.168
3.000E-06,0.168
3.010E-06,0.172
3.020E-06,0.168
3.030E-06,0.164
3.040E-06,0.168
3.050E-06,0.172
3.060E-06,0.160
3.070E-06,0.164
3.080E-06,0.168
3.090E-06,0.164
3.100E-06,0.164
3.110E-06,0.168
3.120E-06,0.164
3.130E-06,0.168
3.140E-06,0.168
3.150E-06,0.168
3.160E-06,0.160
3.170E-06,0.160
3.180E-06,0.160
3.190E-06,0.164
3.200E-06,0.164
3.210E-06,0.160
3.220E-06,0.164
3.230E-06,0.164
3.240E-06,0.160
3.250E-06,0.156
3.260E-06,0.160
3.270E-06,0.164
3.280E-06,0.152
3.290E-06,0.156
3.300E-06,0.156
3.310E-06,0.160
3.320E-06,0.156
3.330E-06,0.160
3.340E-06,0.160
3.350E-06,0.152
3.360E-06,0.156
3.370E-06,0.160
3.380E-06,0.156
3.390E-06,0.160
3.400E-06,0.152
3.410E-06,0.156
3.420E-06,0.156
3.430E-06,0.152
3.440E-06,0.156
3.450E-06,0.152
3.460E-06,0.148
3.470E-06,0.148
3.480E-06,0.152
3.490E-06,0.144
3.500E-06,0.140
3.510E-06,0.144
3.520E-06,0.144
3.530E-06,0.148
3.540E-06,0.144
3.550E-06,0.148
3.560E-06,0.152
3.570E-06,0.140
3.580E-06,0.144
3.590E-06,0.144
3.600E-06,0.144
3.610E-06,0.144
3.620E-06,0.136
3.630E-06,0.144
3.640E-06,0.140
3.650E-06,0.140
3.660E-06,0.140
3.670E-06,0.144
3.680E-06,0.140
3.690E-06,0.140
3.700E-06,0.140
3.710E-06,0.140
3.720E-06,0.136
3.730E-06,0.136
3.740E-06,0.136
3.750E-06,0.132
3.760E-06,0.140
3.770E-06,0.132
3.780E-06,0.132
3.790E-06,0.132
3.800E-06,0.132
3.810E-06,0.132
3.820E-06,0.132
3.830E-06,0.132
3.840E-06,0.128
3.850E-06,0.128
3.860E-06,0.124
3.870E-06,0.124
3.880E-06,0.132
3.890E-06,0.132
3.900E-06,0.128
3.910E-06,0.132
3.920E-06,0.132
3.930E-06,0.132
3.940E-06,0.124
3.950E-06,0.128
3.960E-06,0.124
3.970E-06,0.128
3.980E-06,0.128
3.990E-06,0.120
4.000E-06,0.124
4.010E-06,0.120
4.020E-06,0.120
4.030E-06,0.120
4.040E-06,0.124
4.050E-06,0.120
4.060E-06,0.124
4.070E-06,0.124
4.080E-06,0.128
4.090E-06,0.124
4.100E-06,0.124
4.110E-06,0.120
4.120E-06,0.120
4.130E-06,0.120
4.140E-06,0.124
4.150E-06,0.116
4.160E-06,0.116
4.170E-06,0.120
4.180E-06,0.120
4.190E-06,0.120
4.200E-06,0.120
4.210E-06,0.116
4.220E-06,0.116
4.230E-06,0.120
4.240E-06,0.120
4.250E-06,0.120
4.260E-06,0.112
4.270E-06,0.120
4.280E-06,0.116
4.290E-06,0.112
4.300E-06,0.112
4.310E-06,0.108
4.320E-06,0.112
4.330E-06,0.116
4.340E-06,0.112
4.350E-06,0.112
4.360E-06,0.112
4.370E-06,0.112
4.380E-06,0.116
4.390E-06,0.112
4.400E-06,0.112
4.410E-06,0.112
4.420E-06,0.112
4.430E-06,0.108
4.440E-06,0.108
4.450E-06,0.104
4.460E-06,0.108
4.470E-06,0.108
4.480E-06,0.112
4.490E-06,0.112
4.500E-06,0.108
4.510E-06,0.104
4.520E-06,0.104
4.530E-06,0.100
4.540E-06,0.104
4.550E-06,0.104
4.560E-06,0.104
4.570E-06,0.108
4.580E-06,0.104
4.590E-06,0.100
4.600E-06,0.096
4.610E-06,0.104
4.620E-06,0.100
4.630E-06,0.096
4.640E-06,0.096
4.650E-06,0.096
4.660E-06,0.100
4.670E-06,0.096
4.680E-06,0.096
4.690E-06,0.096
4.700E-06,0.096
4.710E-06,0.100
4.720E-06,0.100
4.730E-06,0.092
4.740E-06,0.092
4.750E-06,0.092
4.760E-06,0.088
4.770E-06,0.092
4.780E-06,0.088
4.790E-06,0.088
4.800E-06,0.092
4.810E-06,0.092
4.820E-06,0.092
4.830E-06,0.088
4.840E-06,0.088
4.850E-06,0.092
4.860E-06,0.088
4.870E-06,0.088
4.880E-06,0.092
4.890E-06,0.084
4.900E-06,0.088
4.910E-06,0.088
4.920E-06,0.088
4.930E-06,0.084
4.940E-06,0.088
4.950E-06,0.084
4.960E-06,0.088
4.970E-06,0.076
4.980E-06,0.084
4.990E-06,0.080
5.000E-06,0.080
5.010E-06,0.076
5.020E-06,0.076
5.030E-06,0.076
5.040E-06,0.076
5.050E-06,0.076
5.060E-06,0.076
5.070E-06,0.080
5.080E-06,0.076
5.090E-06,0.076
5.100E-06,0.072
5.110E-06,0.076
5.120E-06,0.068
5.130E-06,0.068
5.140E-06,0.068
5.150E-06,0.068
5.160E-06,0.072
5.170E-06,0.076
5.180E-06,0.076
5.190E-06,0.068
5.200E-06,0.072
5.210E-06,0.072
5.220E-06,0.068
5.230E-06,0.064
5.240E-06,0.064
5.250E-06,0.064
5.260E-06,0.072
5.270E-06,0.068
5.280E-06,0.064
5.290E-06,0.060
5.300E-06,0.060
5.310E-06,0.060
5.320E-06,0.060
5.330E-06,0.060
5.340E-06,0.072
5.350E-06,0.068
5.360E-06,0.064
5.370E-06,0.064
5.380E-06,0.060
5.390E-06,0.060
5.400E-06,0.056
5.410E-06,0.064
5.420E-06,0.064
5.430E-06,0.060
5.440E-06,0.068
5.450E-06,0.060
5.460E-06,0.060
5.470E-06,0.060
5.480E-06,0.060
5.490E-06,0.060
5.500E-06,0.064
5.510E-06,0.064
5.520E-06,0.060
5.530E-06,0.064
5.540E-06,0.056
5.550E-06,0.056
5.560E-06,0.056
5.570E-06,0.064
5.580E-06,0.060
5.590E-06,0.060
5.600E-06,0.060
5.610E-06,0.060
5.620E-06,0.056
5.630E-06,0.056
5.640E-06,0.056
5.650E-06,0.056
5.660E-06,0.060
5.670E-06,0.060
5.680E-06,0.056
5.690E-06,0.060
5.700E-06,0.056
5.710E-06,0.060
5.720E-06,0.060
5.730E-06,0.056
5.740E-06,0.060
5.750E-06,0.060
5.760E-06,0.056
5.770E-06,0.056
5.780E-06,0.052
5.790E-06,0.052
5.800E-06,0.056
5.810E-06,0.060
5.820E-06,0.060
5.830E-06,0.056
5.840E-06,0.056
5.850E-06,0.052
5.860E-06,0.052
5.870E-06,0.056
5.880E-06,0.052
5.890E-06,0.056
5.900E-06,0.060
5.910E-06,0.052
5.920E-06,0.044
5.930E-06,0.044
5.940E-06,0.044
5.950E-06,0.056
5.960E-06,0.052
5.970E-06,0.048
5.980E-06,0.052
5.990E-06,0.044
6.000E-06,0.048
6.010E-06,0.044
6.020E-06,0.044
6.030E-06,0.040
6.040E-06,0.044
6.050E-06,0.040
6.060E-06,0.044
6.070E-06,0.048
6.080E-06,0.044
6.090E-06,0.036
6.100E-06,0.044
6.110E-06,0.036
6.120E-06,0.040
6.130E-06,0.036
6.140E-06,0.040
6.150E-06,0.040
6.160E-06,0.036
6.170E-06,0.040
6.180E-06,0.036
6.190E-06,0.036
6.200E-06,0.040
6.210E-06,0.044
6.220E-06,0.036
6.230E-06,0.032
6.240E-06,0.036
6.250E-06,0.032
6.260E-06,0.036
6.270E-06,0.040
6.280E-06,0.032
6.290E-06,0.028
6.300E-06,0.032
6.310E-06,0.032
6.320E-06,0.032
6.330E-06,0.028
6.340E-06,0.032
6.350E-06,0.032
6.360E-06,0.032
6.370E-06,0.028
6.380E-06,0.028
6.390E-06,0.032
6.400E-06,0.028
6.410E-06,0.032
6.420E-06,0.028
6.430E-06,0.024
6.440E-06,0.028
6.450E-06,0.032
6.460E-06,0.028
6.470E-06,0.024
6.480E-06,0.028
6.490E-06,0.032
6.500E-06,0.020
6.510E-06,0.024
6.520E-06,0.028
6.530E-06,0.024
6.540E-06,0.028
6.550E-06,0.028
6.560E-06,0.024
6.570E-06,0.028
6.580E-06,0.024
6.590E-06,0.024
6.600E-06,0.024
6.610E-06,0.028
6.620E-06,0.024
6.630E-06,0.020
6.640E-06,0.024
6.650E-06,0.028
6.660E-06,0.020
6.670E-06,0.024
6.680E-06,0.024
6.690E-06,0.024
6.700E-06,0.024
6.710E-06,0.024
6.720E-06,0.024
6.730E-06,0.020
6.740E-06,0.024
6.750E-06,0.024
6.760E-06,0.024
6.770E-06,0.024
6.780E-06,0.016
6.790E-06,0.016
6.800E-06,0.020
6.810E-06,0.024
6.820E-06,0.024
6.830E-06,0.024
6.840E-06,0.016
6.850E-06,0.012
6.860E-06,0.016
6.870E-06,0.016
6.880E-06,0.016
6.890E-06,0.016
6.900E-06,0.020
6.910E-06,0.020
6.920E-06,0.016
6.930E-06,0.012
6.940E-06,0.012
6.950E-06,0.012
6.960E-06,0.012
6.970E-06,0.016
6.980E-06,0.012
6.990E-06,0.012
7.000E-06,0.016
7.010E-06,0.012
7.020E-06,0.008
7.030E-06,0.012
7.040E-06,0.008
7.050E-06,0.012
7.060E-06,0.016
7.070E-06,0.016
7.080E-06,0.012
7.090E-06,0.008
7.100E-06,0.008
7.110E-06,0.004
7.120E-06,0.012
7.130E-06,0.008
7.140E-06,0.012
7.150E-06,0.012
7.160E-06,0.008
7.170E-06,0.008
7.180E-06,0.008
7.190E-06,0.008
7.200E-06,0.008
7.210E-06,0.012
7.220E-06,0.012
7.230E-06,0.008
7.240E-06,0.012
7.250E-06,0.012
7.260E-06,0.000
7.270E-06,0.000
7.280E-06,0.008
7.290E-06,0.008
7.300E-06,0.008
7.310E-06,0.004
7.320E-06,0.008
7.330E-06,0.000
7.340E-06,0.004
7.350E-06,0.000
7.360E-06,0.004
7.370E-06,0.008
7.380E-06,0.008
7.390E-06,0.008
7.400E-06,0.008
7.410E-06,0.004
7.420E-06,0.000
7.430E-06,0.000
7.440E-06,0.004
7.450E-06,0.004
7.460E-06,0.004
7.470E-06,0.004
7.480E-06,0.000
7.490E-06,0.000
7.500E-06,0.004
7.510E-06,0.000
7.520E-06,0.000
7.530E-06,0.004
7.540E-06,0.004
7.550E-06,0.000
7.560E-06,0.000
7.570E-06,0.000
7.580E-06,-0.004
7.590E-06,-0.008
7.600E-06,-0.008
7.610E-06,0.000
7.620E-06,-0.004
7.630E-06,0.000
7.640E-06,0.004
7.650E-06,0.004
7.660E-06,0.000
7.670E-06,0.000
7.680E-06,-0.008
7.690E-06,0.000
7.700E-06,0.000
7.710E-06,-0.004
7.720E-06,0.000
7.730E-06,-0.004
7.740E-06,-0.004
7.750E-06,-0.004
7.760E-06,0.000
7.770E-06,-0.004
7.780E-06,-0.004
7.790E-06,-0.004
7.800E-06,0.000
7.810E-06,-0.004
7.820E-06,-0.004
7.830E-06,-0.004
7.840E-06,-0.008
7.850E-06,-0.004
7.860E-06,-0.008
