mediciones/5-27/-35/WaveData5075.csv

#timebase=2000000(ps)
,#voltbase=1000000(mv/100)
#size=4000
-8.400E-06,0.520
-8.390E-06,0.480
-8.380E-06,0.520
-8.370E-06,0.520
-8.360E-06,0.480
-8.350E-06,0.440
-8.340E-06,0.320
-8.330E-06,0.400
-8.320E-06,0.240
-8.310E-06,0.320
-8.300E-06,0.200
-8.290E-06,0.120
-8.280E-06,0.160
-8.270E-06,0.120
-8.260E-06,0.240
-8.250E-06,0.200
-8.240E-06,0.120
-8.230E-06,0.160
-8.220E-06,0.040
-8.210E-06,-0.040
-8.200E-06,0.120
-8.190E-06,0.160
-8.180E-06,0.240
-8.170E-06,0.240
-8.160E-06,0.200
-8.150E-06,0.120
-8.140E-06,0.120
-8.130E-06,0.120
-8.120E-06,0.160
-8.110E-06,0.160
-8.100E-06,0.240
-8.090E-06,0.160
-8.080E-06,0.160
-8.070E-06,0.160
-8.060E-06,0.120
-8.050E-06,0.200
-8.040E-06,0.240
-8.030E-06,0.200
-8.020E-06,0.120
-8.010E-06,0.160
-8.000E-06,0.160
-7.990E-06,0.160
-7.980E-06,0.160
-7.970E-06,0.240
-7.960E-06,0.280
-7.950E-06,0.200
-7.940E-06,0.280
-7.930E-06,0.280
-7.920E-06,0.160
-7.910E-06,0.320
-7.900E-06,0.360
-7.890E-06,0.320
-7.880E-06,0.320
-7.870E-06,0.360
-7.860E-06,0.240
-7.850E-06,0.320
-7.840E-06,0.240
-7.830E-06,0.280
-7.820E-06,0.320
-7.810E-06,0.240
-7.800E-06,0.360
-7.790E-06,0.240
-7.780E-06,0.120
-7.770E-06,0.160
-7.760E-06,-0.040
-7.750E-06,0.040
-7.740E-06,0.040
-7.730E-06,-0.080
-7.720E-06,0.040
-7.710E-06,-0.120
-7.700E-06,-0.160
-7.690E-06,-0.120
-7.680E-06,-0.040
-7.670E-06,0.040
-7.660E-06,-0.040
-7.650E-06,0.000
-7.640E-06,0.000
-7.630E-06,0.000
-7.620E-06,0.120
-7.610E-06,0.200
-7.600E-06,0.200
-7.590E-06,0.160
-7.580E-06,0.200
-7.570E-06,0.200
-7.560E-06,0.160
-7.550E-06,0.240
-7.540E-06,0.320
-7.530E-06,0.280
-7.520E-06,0.240
-7.510E-06,0.200
-7.500E-06,0.320
-7.490E-06,0.000
-7.480E-06,0.000
-7.470E-06,0.160
-7.460E-06,0.000
-7.450E-06,0.280
-7.440E-06,0.440
-7.430E-06,0.240
-7.420E-06,0.320
-7.410E-06,0.000
-7.400E-06,-0.040
-7.390E-06,0.040
-7.380E-06,0.120
-7.370E-06,0.360
-7.360E-06,0.360
-7.350E-06,0.200
-7.340E-06,0.120
-7.330E-06,-0.080
-7.320E-06,-0.040
-7.310E-06,0.040
-7.300E-06,0.040
-7.290E-06,-0.080
-7.280E-06,-0.040
-7.270E-06,-0.200
-7.260E-06,-0.200
-7.250E-06,0.120
-7.240E-06,0.200
-7.230E-06,0.320
-7.220E-06,0.160
-7.210E-06,0.040
-7.200E-06,0.000
-7.190E-06,-0.160
-7.180E-06,0.120
-7.170E-06,0.240
-7.160E-06,0.240
-7.150E-06,0.160
-7.140E-06,0.000
-7.130E-06,0.000
-7.120E-06,-0.080
-7.110E-06,0.000
-7.100E-06,0.080
-7.090E-06,0.040
-7.080E-06,0.120
-7.070E-06,0.000
-7.060E-06,0.080
-7.050E-06,-0.040
-7.040E-06,-0.040
-7.030E-06,-0.040
-7.020E-06,-0.080
-7.010E-06,-0.040
-7.000E-06,0.040
-6.990E-06,0.120
-6.980E-06,0.160
-6.970E-06,0.160
-6.960E-06,0.080
-6.950E-06,0.040
-6.940E-06,0.040
-6.930E-06,0.080
-6.920E-06,0.080
-6.910E-06,0.120
-6.900E-06,0.160
-6.890E-06,0.160
-6.880E-06,0.080
-6.870E-06,0.080
-6.860E-06,0.040
-6.850E-06,0.040
-6.840E-06,0.160
-6.830E-06,-0.080
-6.820E-06,0.080
-6.810E-06,-0.160
-6.800E-06,-0.320
-6.790E-06,-0.160
-6.780E-06,-0.240
-6.770E-06,-0.040
-6.760E-06,0.160
-6.750E-06,0.120
-6.740E-06,0.160
-6.730E-06,-0.040
-6.720E-06,-0.200
-6.710E-06,-0.120
-6.700E-06,-0.040
-6.690E-06,0.200
-6.680E-06,0.360
-6.670E-06,0.320
-6.660E-06,0.360
-6.650E-06,0.160
-6.640E-06,0.120
-6.630E-06,0.160
-6.620E-06,0.120
-6.610E-06,0.280
-6.600E-06,0.360
-6.590E-06,0.160
-6.580E-06,0.160
-6.570E-06,0.080
-6.560E-06,-0.080
-6.550E-06,0.080
-6.540E-06,0.160
-6.530E-06,0.360
-6.520E-06,0.320
-6.510E-06,0.120
-6.500E-06,0.040
-6.490E-06,0.000
-6.480E-06,0.040
-6.470E-06,0.160
-6.460E-06,0.160
-6.450E-06,0.240
-6.440E-06,0.120
-6.430E-06,-0.040
-6.420E-06,-0.040
-6.410E-06,-0.040
-6.400E-06,0.040
-6.390E-06,0.080
-6.380E-06,0.040
-6.370E-06,0.000
-6.360E-06,-0.120
-6.350E-06,-0.040
-6.340E-06,0.000
-6.330E-06,0.000
-6.320E-06,0.000
-6.310E-06,0.000
-6.300E-06,0.040
-6.290E-06,0.000
-6.280E-06,-0.040
-6.270E-06,-0.040
-6.260E-06,0.000
-6.250E-06,0.040
-6.240E-06,0.160
-6.230E-06,0.160
-6.220E-06,0.160
-6.210E-06,0.120
-6.200E-06,0.040
-6.190E-06,0.120
-6.180E-06,0.080
-6.170E-06,0.160
-6.160E-06,0.240
-6.150E-06,0.160
-6.140E-06,0.200
-6.130E-06,0.120
-6.120E-06,0.080
-6.110E-06,0.160
-6.100E-06,-0.040
-6.090E-06,0.120
-6.080E-06,0.080
-6.070E-06,0.000
-6.060E-06,0.160
-6.050E-06,0.160
-6.040E-06,0.240
-6.030E-06,0.320
-6.020E-06,0.080
-6.010E-06,0.160
-6.000E-06,0.040
-5.990E-06,0.000
-5.980E-06,0.200
-5.970E-06,0.240
-5.960E-06,0.320
-5.950E-06,0.200
-5.940E-06,0.120
-5.930E-06,0.120
-5.920E-06,0.000
-5.910E-06,0.080
-5.900E-06,0.160
-5.890E-06,0.160
-5.880E-06,0.120
-5.870E-06,0.040
-5.860E-06,0.000
-5.850E-06,0.000
-5.840E-06,0.000
-5.830E-06,0.000
-5.820E-06,0.040
-5.810E-06,-0.040
-5.800E-06,0.000
-5.790E-06,0.040
-5.780E-06,0.120
-5.770E-06,0.080
-5.760E-06,0.120
-5.750E-06,0.240
-5.740E-06,0.200
-5.730E-06,0.400
-5.720E-06,0.520
-5.710E-06,0.520
-5.700E-06,0.480
-5.690E-06,0.240
-5.680E-06,0.080
-5.670E-06,0.120
-5.660E-06,0.080
-5.650E-06,0.320
-5.640E-06,0.400
-5.630E-06,0.440
-5.620E-06,0.360
-5.610E-06,0.120
-5.600E-06,0.000
-5.590E-06,-0.320
-5.580E-06,-0.160
-5.570E-06,-0.080
-5.560E-06,0.000
-5.550E-06,0.280
-5.540E-06,0.240
-5.530E-06,0.200
-5.520E-06,0.040
-5.510E-06,-0.120
-5.500E-06,-0.040
-5.490E-06,0.000
-5.480E-06,0.200
-5.470E-06,0.280
-5.460E-06,0.160
-5.450E-06,0.120
-5.440E-06,0.000
-5.430E-06,-0.040
-5.420E-06,-0.040
-5.410E-06,0.000
-5.400E-06,-0.040
-5.390E-06,0.000
-5.380E-06,-0.080
-5.370E-06,0.000
-5.360E-06,-0.040
-5.350E-06,0.000
-5.340E-06,0.080
-5.330E-06,0.000
-5.320E-06,-0.040
-5.310E-06,-0.040
-5.300E-06,-0.040
-5.290E-06,0.120
-5.280E-06,0.160
-5.270E-06,0.160
-5.260E-06,0.240
-5.250E-06,0.160
-5.240E-06,0.080
-5.230E-06,0.120
-5.220E-06,0.160
-5.210E-06,0.120
-5.200E-06,0.160
-5.190E-06,0.280
-5.180E-06,-0.120
-5.170E-06,0.200
-5.160E-06,0.160
-5.150E-06,0.120
-5.140E-06,0.680
-5.130E-06,0.440
-5.120E-06,0.400
-5.110E-06,0.200
-5.100E-06,-0.040
-5.090E-06,0.040
-5.080E-06,0.120
-5.070E-06,0.320
-5.060E-06,0.360
-5.050E-06,0.160
-5.040E-06,0.120
-5.030E-06,-0.080
-5.020E-06,-0.040
-5.010E-06,0.000
-5.000E-06,0.040
-4.990E-06,0.040
-4.980E-06,-0.040
-4.970E-06,-0.080
-4.960E-06,-0.120
-4.950E-06,-0.080
-4.940E-06,-0.040
-4.930E-06,-0.040
-4.920E-06,0.000
-4.910E-06,-0.120
-4.900E-06,-0.200
-4.890E-06,-0.240
-4.880E-06,-0.280
-4.870E-06,-0.200
-4.860E-06,-0.160
-4.850E-06,-0.160
-4.840E-06,-0.120
-4.830E-06,-0.160
-4.820E-06,-0.120
-4.810E-06,-0.040
-4.800E-06,-0.200
-4.790E-06,0.040
-4.780E-06,0.120
-4.770E-06,0.000
-4.760E-06,0.640
-4.750E-06,0.480
-4.740E-06,0.600
-4.730E-06,0.680
-4.720E-06,0.160
-4.710E-06,0.200
-4.700E-06,0.360
-4.690E-06,0.240
-4.680E-06,0.520
-4.670E-06,0.560
-4.660E-06,0.480
-4.650E-06,0.480
-4.640E-06,0.440
-4.630E-06,0.480
-4.620E-06,0.360
-4.610E-06,0.240
-4.600E-06,0.040
-4.590E-06,0.000
-4.580E-06,-0.040
-4.570E-06,0.080
-4.560E-06,-0.040
-4.550E-06,0.160
-4.540E-06,-0.360
-4.530E-06,-0.240
-4.520E-06,-0.400
-4.510E-06,-0.520
-4.500E-06,0.000
-4.490E-06,0.040
-4.480E-06,0.200
-4.470E-06,-0.080
-4.460E-06,-0.280
-4.450E-06,-0.520
-4.440E-06,-0.600
-4.430E-06,-0.160
-4.420E-06,-0.040
-4.410E-06,0.240
-4.400E-06,0.160
-4.390E-06,0.080
-4.380E-06,-0.040
-4.370E-06,-0.280
-4.360E-06,0.040
-4.350E-06,0.280
-4.340E-06,0.600
-4.330E-06,0.680
-4.320E-06,0.480
-4.310E-06,0.320
-4.300E-06,0.160
-4.290E-06,0.160
-4.280E-06,0.320
-4.270E-06,0.480
-4.260E-06,0.480
-4.250E-06,0.360
-4.240E-06,0.200
-4.230E-06,0.040
-4.220E-06,0.000
-4.210E-06,0.040
-4.200E-06,0.120
-4.190E-06,0.080
-4.180E-06,-0.040
-4.170E-06,-0.120
-4.160E-06,-0.120
-4.150E-06,-0.200
-4.140E-06,-0.200
-4.130E-06,-0.200
-4.120E-06,-0.360
-4.110E-06,-0.360
-4.100E-06,-0.440
-4.090E-06,-0.320
-4.080E-06,-0.280
-4.070E-06,-0.200
-4.060E-06,-0.120
-4.050E-06,-0.240
-4.040E-06,-0.200
-4.030E-06,-0.240
-4.020E-06,-0.160
-4.010E-06,0.040
-4.000E-06,0.080
-3.990E-06,0.160
-3.980E-06,0.280
-3.970E-06,0.280
-3.960E-06,0.120
-3.950E-06,0.360
-3.940E-06,0.400
-3.930E-06,0.560
-3.920E-06,0.920
-3.910E-06,0.880
-3.900E-06,0.960
-3.890E-06,0.680
-3.880E-06,0.520
-3.870E-06,0.240
-3.860E-06,0.200
-3.850E-06,0.440
-3.840E-06,0.640
-3.830E-06,0.720
-3.820E-06,0.800
-3.810E-06,0.720
-3.800E-06,0.480
-3.790E-06,0.160
-3.780E-06,0.080
-3.770E-06,0.080
-3.760E-06,0.120
-3.750E-06,0.320
-3.740E-06,0.240
-3.730E-06,0.120
-3.720E-06,0.000
-3.710E-06,-0.120
-3.700E-06,-0.160
-3.690E-06,-0.200
-3.680E-06,-0.240
-3.670E-06,-0.200
-3.660E-06,-0.320
-3.650E-06,-0.280
-3.640E-06,-0.200
-3.630E-06,-0.200
-3.620E-06,-0.120
-3.610E-06,-0.200
-3.600E-06,-0.280
-3.590E-06,-0.200
-3.580E-06,-0.120
-3.570E-06,-0.040
-3.560E-06,0.040
-3.550E-06,0.040
-3.540E-06,0.120
-3.530E-06,0.040
-3.520E-06,0.120
-3.510E-06,0.240
-3.500E-06,0.280
-3.490E-06,0.360
-3.480E-06,0.400
-3.470E-06,0.440
-3.460E-06,0.400
-3.450E-06,0.440
-3.440E-06,0.480
-3.430E-06,0.480
-3.420E-06,0.480
-3.410E-06,0.640
-3.400E-06,0.360
-3.390E-06,0.280
-3.380E-06,0.320
-3.370E-06,0.000
-3.360E-06,0.360
-3.350E-06,0.360
-3.340E-06,0.440
-3.330E-06,0.720
-3.320E-06,0.400
-3.310E-06,0.320
-3.300E-06,0.320
-3.290E-06,0.280
-3.280E-06,0.400
-3.270E-06,0.480
-3.260E-06,0.360
-3.250E-06,0.360
-3.240E-06,0.320
-3.230E-06,0.240
-3.220E-06,0.400
-3.210E-06,0.320
-3.200E-06,0.320
-3.190E-06,0.240
-3.180E-06,0.200
-3.170E-06,0.280
-3.160E-06,0.320
-3.150E-06,0.360
-3.140E-06,0.480
-3.130E-06,0.440
-3.120E-06,0.320
-3.110E-06,0.360
-3.100E-06,0.320
-3.090E-06,0.320
-3.080E-06,0.400
-3.070E-06,0.320
-3.060E-06,0.280
-3.050E-06,0.320
-3.040E-06,0.280
-3.030E-06,0.360
-3.020E-06,0.320
-3.010E-06,0.320
-3.000E-06,0.320
-2.990E-06,0.400
-2.980E-06,0.480
-2.970E-06,0.640
-2.960E-06,0.640
-2.950E-06,0.720
-2.940E-06,0.640
-2.930E-06,0.600
-2.920E-06,0.560
-2.910E-06,0.600
-2.900E-06,0.640
-2.890E-06,0.680
-2.880E-06,0.640
-2.870E-06,0.520
-2.860E-06,0.400
-2.850E-06,0.480
-2.840E-06,0.600
-2.830E-06,0.520
-2.820E-06,0.680
-2.810E-06,0.520
-2.800E-06,0.200
-2.790E-06,0.280
-2.780E-06,0.160
-2.770E-06,0.320
-2.760E-06,0.160
-2.750E-06,0.240
-2.740E-06,0.240
-2.730E-06,0.040
-2.720E-06,0.480
-2.710E-06,0.560
-2.700E-06,0.560
-2.690E-06,0.360
-2.680E-06,0.000
-2.670E-06,-0.280
-2.660E-06,-0.240
-2.650E-06,0.000
-2.640E-06,0.400
-2.630E-06,0.520
-2.620E-06,0.160
-2.610E-06,0.080
-2.600E-06,-0.040
-2.590E-06,0.040
-2.580E-06,0.480
-2.570E-06,0.560
-2.560E-06,0.600
-2.550E-06,0.680
-2.540E-06,0.160
-2.530E-06,0.200
-2.520E-06,0.280
-2.510E-06,0.480
-2.500E-06,0.840
-2.490E-06,0.840
-2.480E-06,0.880
-2.470E-06,0.680
-2.460E-06,0.480
-2.450E-06,0.640
-2.440E-06,0.720
-2.430E-06,1.000
-2.420E-06,1.080
-2.410E-06,1.080
-2.400E-06,1.000
-2.390E-06,0.960
-2.380E-06,0.960
-2.370E-06,1.000
-2.360E-06,1.080
-2.350E-06,1.080
-2.340E-06,1.000
-2.330E-06,0.840
-2.320E-06,0.680
-2.310E-06,0.600
-2.300E-06,0.520
-2.290E-06,0.480
-2.280E-06,0.440
-2.270E-06,0.320
-2.260E-06,0.280
-2.250E-06,0.320
-2.240E-06,0.320
-2.230E-06,0.360
-2.220E-06,0.240
-2.210E-06,0.080
-2.200E-06,-0.040
-2.190E-06,-0.200
-2.180E-06,-0.200
-2.170E-06,-0.160
-2.160E-06,-0.120
-2.150E-06,0.000
-2.140E-06,0.000
-2.130E-06,0.080
-2.120E-06,0.080
-2.110E-06,0.240
-2.100E-06,0.200
-2.090E-06,0.200
-2.080E-06,0.240
-2.070E-06,0.160
-2.060E-06,0.240
-2.050E-06,0.000
-2.040E-06,0.080
-2.030E-06,0.360
-2.020E-06,-0.040
-2.010E-06,0.320
-2.000E-06,-0.120
-1.990E-06,-0.320
-1.980E-06,-0.160
-1.970E-06,-0.040
-1.960E-06,0.680
-1.950E-06,0.360
-1.940E-06,0.200
-1.930E-06,-0.120
-1.920E-06,0.080
-1.910E-06,0.200
-1.900E-06,0.240
-1.890E-06,0.640
-1.880E-06,-0.040
-1.870E-06,0.240
-1.860E-06,0.360
-1.850E-06,0.360
-1.840E-06,0.720
-1.830E-06,0.720
-1.820E-06,0.760
-1.810E-06,0.920
-1.800E-06,0.920
-1.790E-06,1.040
-1.780E-06,0.720
-1.770E-06,0.960
-1.760E-06,0.840
-1.750E-06,0.920
-1.740E-06,1.120
-1.730E-06,1.000
-1.720E-06,1.040
-1.710E-06,0.920
-1.700E-06,0.880
-1.690E-06,0.760
-1.680E-06,0.480
-1.670E-06,0.200
-1.660E-06,-0.120
-1.650E-06,-0.200
-1.640E-06,-0.440
-1.630E-06,-0.480
-1.620E-06,-0.600
-1.610E-06,-0.880
-1.600E-06,-0.880
-1.590E-06,-1.040
-1.580E-06,-1.120
-1.570E-06,-1.080
-1.560E-06,-1.240
-1.550E-06,-1.120
-1.540E-06,-0.880
-1.530E-06,-0.560
-1.520E-06,-0.280
-1.510E-06,-0.120
-1.500E-06,-0.080
-1.490E-06,-0.040
-1.480E-06,-0.240
-1.470E-06,-0.200
-1.460E-06,0.040
-1.450E-06,0.320
-1.440E-06,0.640
-1.430E-06,0.840
-1.420E-06,0.880
-1.410E-06,1.000
-1.400E-06,-0.120
-1.390E-06,0.800
-1.380E-06,1.080
-1.370E-06,-2.280
-1.360E-06,-0.440
-1.350E-06,-1.600
-1.340E-06,-3.080
-1.330E-06,1.280
-1.320E-06,0.040
-1.310E-06,1.560
-1.300E-06,1.680
-1.290E-06,-0.920
-1.280E-06,-0.680
-1.270E-06,-0.880
-1.260E-06,0.080
-1.250E-06,1.680
-1.240E-06,1.640
-1.230E-06,1.520
-1.220E-06,0.920
-1.210E-06,-0.200
-1.200E-06,-0.120
-1.190E-06,-0.040
-1.180E-06,0.160
-1.170E-06,0.600
-1.160E-06,0.320
-1.150E-06,-0.320
-1.140E-06,-0.640
-1.130E-06,-1.360
-1.120E-06,-1.720
-1.110E-06,-2.240
-1.100E-06,-2.240
-1.090E-06,-2.480
-1.080E-06,-2.360
-1.070E-06,-2.000
-1.060E-06,-2.040
-1.050E-06,-1.800
-1.040E-06,-2.120
-1.030E-06,-1.960
-1.020E-06,-1.920
-1.010E-06,-1.720
-1.000E-06,-0.800
-9.900E-07,-0.360
-9.800E-07,0.160
-9.700E-07,0.480
-9.600E-07,0.240
-9.500E-07,0.280
-9.400E-07,0.280
-9.300E-07,0.360
-9.200E-07,0.680
-9.100E-07,0.840
-9.000E-07,0.800
-8.900E-07,0.680
-8.800E-07,0.360
-8.700E-07,0.040
-8.600E-07,0.120
-8.500E-07,-0.160
-8.400E-07,-0.280
-8.300E-07,-0.360
-8.200E-07,-0.720
-8.100E-07,-0.920
-8.000E-07,-1.000
-7.900E-07,-1.120
-7.800E-07,-1.120
-7.700E-07,-1.040
-7.600E-07,-1.080
-7.500E-07,-0.920
-7.400E-07,-0.800
-7.300E-07,-0.640
-7.200E-07,-0.440
-7.100E-07,-0.360
-7.000E-07,-0.360
-6.900E-07,-0.240
-6.800E-07,-0.080
-6.700E-07,0.160
-6.600E-07,0.360
-6.500E-07,0.320
-6.400E-07,0.440
-6.300E-07,0.240
-6.200E-07,0.160
-6.100E-07,0.040
-6.000E-07,-0.240
-5.900E-07,-0.160
-5.800E-07,-0.080
-5.700E-07,-0.160
-5.600E-07,-0.400
-5.500E-07,-0.480
-5.400E-07,-1.000
-5.300E-07,-0.880
-5.200E-07,-0.680
-5.100E-07,-0.160
-5.000E-07,0.360
-4.900E-07,-0.280
-4.800E-07,0.160
-4.700E-07,-0.640
-4.600E-07,-0.640
-4.500E-07,-0.080
-4.400E-07,-0.520
-4.300E-07,0.200
-4.200E-07,0.240
-4.100E-07,0.200
-4.000E-07,0.600
-3.900E-07,0.440
-3.800E-07,0.520
-3.700E-07,0.960
-3.600E-07,0.760
-3.500E-07,0.720
-3.400E-07,0.840
-3.300E-07,0.160
-3.200E-07,0.120
-3.100E-07,0.240
-3.000E-07,0.400
-2.900E-07,1.120
-2.800E-07,0.440
-2.700E-07,0.720
-2.600E-07,-0.120
-2.500E-07,-0.920
-2.400E-07,-0.480
-2.300E-07,-0.920
-2.200E-07,-0.040
-2.100E-07,0.400
-2.000E-07,0.360
-1.900E-07,0.680
-1.800E-07,0.560
-1.700E-07,0.760
-1.600E-07,1.080
-1.500E-07,1.280
-1.400E-07,1.360
-1.300E-07,1.400
-1.200E-07,1.520
-1.100E-07,1.160
-1.000E-07,1.320
-9.000E-08,1.320
-8.000E-08,0.760
-7.000E-08,1.200
-6.000E-08,-0.200
-5.000E-08,0.640
-4.000E-08,0.080
-3.000E-08,-1.400
-2.000E-08,-2.480
-1.000E-08,-4.960
0.000E+00,-3.560
1.000E-08,-4.640
2.000E-08,-0.200
3.000E-08,0.160
4.000E-08,1.040
5.000E-08,-0.520
6.000E-08,-2.800
7.000E-08,-3.040
8.000E-08,-2.600
9.000E-08,-0.240
1.000E-07,1.000
1.100E-07,1.600
1.200E-07,0.320
1.300E-07,-0.280
1.400E-07,-1.720
1.500E-07,-1.000
1.600E-07,-0.520
1.700E-07,0.080
1.800E-07,0.720
1.900E-07,0.320
2.000E-07,0.280
2.100E-07,0.120
2.200E-07,-0.120
2.300E-07,-0.040
2.400E-07,-0.560
2.500E-07,-0.440
2.600E-07,-0.520
2.700E-07,-0.880
2.800E-07,-0.560
2.900E-07,-0.600
3.000E-07,-1.080
3.100E-07,-0.480
3.200E-07,-0.280
3.300E-07,0.440
3.400E-07,1.560
3.500E-07,1.680
3.600E-07,1.800
3.700E-07,2.280
3.800E-07,1.760
3.900E-07,2.200
4.000E-07,2.760
4.100E-07,2.040
4.200E-07,2.040
4.300E-07,1.720
4.400E-07,1.320
4.500E-07,2.520
4.600E-07,1.320
4.700E-07,2.000
4.800E-07,0.840
4.900E-07,0.200
5.000E-07,0.360
5.100E-07,1.880
5.200E-07,1.920
5.300E-07,0.880
5.400E-07,1.200
5.500E-07,-1.640
5.600E-07,-2.480
5.700E-07,-0.960
5.800E-07,-1.200
5.900E-07,-0.040
6.000E-07,0.480
6.100E-07,-0.520
6.200E-07,-0.640
6.300E-07,-0.360
6.400E-07,-0.280
6.500E-07,1.000
6.600E-07,1.120
6.700E-07,1.720
6.800E-07,1.800
6.900E-07,1.120
7.000E-07,1.600
7.100E-07,1.680
7.200E-07,2.000
7.300E-07,2.360
7.400E-07,2.400
7.500E-07,1.720
7.600E-07,1.080
7.700E-07,0.600
7.800E-07,0.680
7.900E-07,0.280
8.000E-07,-0.280
8.100E-07,-0.360
8.200E-07,-1.080
8.300E-07,-1.000
8.400E-07,-0.680
8.500E-07,-0.720
8.600E-07,-0.760
8.700E-07,-0.760
8.800E-07,-1.160
8.900E-07,-1.040
9.000E-07,-0.440
9.100E-07,-0.240
9.200E-07,0.360
9.300E-07,0.680
9.400E-07,0.400
9.500E-07,0.520
9.600E-07,0.600
9.700E-07,0.680
9.800E-07,1.120
9.900E-07,1.080
1.000E-06,1.200
1.010E-06,1.040
1.020E-06,0.880
1.030E-06,0.880
1.040E-06,0.760
1.050E-06,0.760
1.060E-06,0.280
1.070E-06,-0.160
1.080E-06,-0.120
1.090E-06,-0.520
1.100E-06,-0.200
1.110E-06,0.000
1.120E-06,-0.040
1.130E-06,0.320
1.140E-06,0.080
1.150E-06,-0.480
1.160E-06,-0.200
1.170E-06,-0.280
1.180E-06,-0.360
1.190E-06,0.160
1.200E-06,-1.200
1.210E-06,-0.960
1.220E-06,-1.000
1.230E-06,-0.560
1.240E-06,0.520
1.250E-06,1.000
1.260E-06,0.160
1.270E-06,-0.600
1.280E-06,-1.880
1.290E-06,-2.520
1.300E-06,-1.800
1.310E-06,-1.520
1.320E-06,-1.640
1.330E-06,-2.000
1.340E-06,-3.440
1.350E-06,-4.320
1.360E-06,-4.840
1.370E-06,-5.280
1.380E-06,-5.320
1.390E-06,-5.320
1.400E-06,-5.320
1.410E-06,-5.320
1.420E-06,-5.320
1.430E-06,-5.320
1.440E-06,-5.320
1.450E-06,-5.280
1.460E-06,-5.280
1.470E-06,-5.320
1.480E-06,-5.320
1.490E-06,-5.360
1.500E-06,-5.320
1.510E-06,-5.320
1.520E-06,-5.320
1.530E-06,-5.320
1.540E-06,-5.320
1.550E-06,-5.320
1.560E-06,-5.320
1.570E-06,-5.320
1.580E-06,-5.280
1.590E-06,-5.320
1.600E-06,-5.320
1.610E-06,-5.320
1.620E-06,-5.280
1.630E-06,-5.320
1.640E-06,-5.320
1.650E-06,-5.320
1.660E-06,-5.320
1.670E-06,-5.280
1.680E-06,-5.280
1.690E-06,-5.320
1.700E-06,-5.320
1.710E-06,-5.360
1.720E-06,-5.360
1.730E-06,-5.360
1.740E-06,-5.360
1.750E-06,-5.320
1.760E-06,-5.320
1.770E-06,-5.320
1.780E-06,-5.320
1.790E-06,-5.320
1.800E-06,-5.320
1.810E-06,-5.320
1.820E-06,-5.320
1.830E-06,-5.320
1.840E-06,-5.320
1.850E-06,-5.320
1.860E-06,-5.320
1.870E-06,-5.320
1.880E-06,-5.320
1.890E-06,-5.320
1.900E-06,-5.320
1.910E-06,-5.360
1.920E-06,-5.320
1.930E-06,-5.320
1.940E-06,-5.320
1.950E-06,-5.360
1.960E-06,-5.360
1.970E-06,-5.320
1.980E-06,-5.320
1.990E-06,-5.320
2.000E-06,-5.320
2.010E-06,-5.320
2.020E-06,-5.360
2.030E-06,-5.320
2.040E-06,-5.320
2.050E-06,-5.320
2.060E-06,-5.360
2.070E-06,-5.320
2.080E-06,-5.320
2.090E-06,-5.280
2.100E-06,-5.280
2.110E-06,-5.320
2.120E-06,-5.320
2.130E-06,-5.320
2.140E-06,-5.320
2.150E-06,-5.320
2.160E-06,-5.360
2.170E-06,-5.360
2.180E-06,-5.360
2.190E-06,-5.320
2.200E-06,-5.320
2.210E-06,-5.320
2.220E-06,-5.320
2.230E-06,-5.320
2.240E-06,-5.320
2.250E-06,-5.360
2.260E-06,-5.320
2.270E-06,-5.320
2.280E-06,-5.320
2.290E-06,-5.320
2.300E-06,-5.320
2.310E-06,-5.360
2.320E-06,-5.360
2.330E-06,-5.360
2.340E-06,-5.360
2.350E-06,-5.240
2.360E-06,-5.200
2.370E-06,-5.200
2.380E-06,-5.240
2.390E-06,-5.200
2.400E-06,-5.320
2.410E-06,-5.320
2.420E-06,-5.320
2.430E-06,-5.320
2.440E-06,-5.320
2.450E-06,-5.320
2.460E-06,-5.320
2.470E-06,-5.320
2.480E-06,-5.360
2.490E-06,-5.320
2.500E-06,-5.320
2.510E-06,-5.320
2.520E-06,-5.320
2.530E-06,-5.320
2.540E-06,-5.320
2.550E-06,-5.320
2.560E-06,-5.320
2.570E-06,-5.320
2.580E-06,-5.320
2.590E-06,-5.240
2.600E-06,-4.920
2.610E-06,-4.560
2.620E-06,-4.120
2.630E-06,-3.880
2.640E-06,-3.480
2.650E-06,-3.360
2.660E-06,-3.120
2.670E-06,-3.000
2.680E-06,-2.800
2.690E-06,-2.640
2.700E-06,-2.600
2.710E-06,-2.480
2.720E-06,-2.480
2.730E-06,-2.600
2.740E-06,-2.520
2.750E-06,-2.640
2.760E-06,-2.720
2.770E-06,-2.840
2.780E-06,-3.040
2.790E-06,-3.280
2.800E-06,-3.600
2.810E-06,-3.960
2.820E-06,-4.240
2.830E-06,-4.520
2.840E-06,-4.760
2.850E-06,-4.920
2.860E-06,-5.080
2.870E-06,-5.160
2.880E-06,-5.320
2.890E-06,-5.320
2.900E-06,-5.360
2.910E-06,-5.320
2.920E-06,-5.320
2.930E-06,-5.320
2.940E-06,-5.320
2.950E-06,-5.320
2.960E-06,-5.320
2.970E-06,-5.320
2.980E-06,-5.320
2.990E-06,-5.320
3.000E-06,-5.360
3.010E-06,-5.320
3.020E-06,-5.320
3.030E-06,-5.280
3.040E-06,-5.320
3.050E-06,-5.240
3.060E-06,-5.040
3.070E-06,-4.800
3.080E-06,-4.480
3.090E-06,-4.240
3.100E-06,-3.880
3.110E-06,-3.560
3.120E-06,-3.360
3.130E-06,-3.240
3.140E-06,-3.200
3.150E-06,-3.360
3.160E-06,-3.680
3.170E-06,-4.160
3.180E-06,-4.560
3.190E-06,-4.800
3.200E-06,-5.000
3.210E-06,-5.120
3.220E-06,-5.280
