mediciones/5-27/-35/WaveData5098.csv

#timebase=2000000(ps)
,#voltbase=100000(mv/100)
#size=4000
-8.400E-06,0.004
-8.390E-06,0.000
-8.380E-06,0.000
-8.370E-06,0.004
-8.360E-06,0.000
-8.350E-06,-0.004
-8.340E-06,0.004
-8.330E-06,0.000
-8.320E-06,0.004
-8.310E-06,0.000
-8.300E-06,0.004
-8.290E-06,0.004
-8.280E-06,0.008
-8.270E-06,0.008
-8.260E-06,0.004
-8.250E-06,0.004
-8.240E-06,0.004
-8.230E-06,0.000
-8.220E-06,0.000
-8.210E-06,-0.004
-8.200E-06,0.004
-8.190E-06,0.004
-8.180E-06,0.008
-8.170E-06,0.004
-8.160E-06,0.004
-8.150E-06,0.004
-8.140E-06,0.008
-8.130E-06,-0.004
-8.120E-06,0.004
-8.110E-06,0.004
-8.100E-06,0.004
-8.090E-06,0.004
-8.080E-06,0.004
-8.070E-06,0.004
-8.060E-06,0.004
-8.050E-06,0.004
-8.040E-06,0.000
-8.030E-06,0.004
-8.020E-06,0.000
-8.010E-06,0.004
-8.000E-06,0.004
-7.990E-06,0.004
-7.980E-06,0.000
-7.970E-06,0.000
-7.960E-06,0.000
-7.950E-06,0.004
-7.940E-06,0.004
-7.930E-06,0.008
-7.920E-06,0.004
-7.910E-06,0.000
-7.900E-06,0.000
-7.890E-06,0.000
-7.880E-06,0.004
-7.870E-06,0.000
-7.860E-06,0.004
-7.850E-06,0.004
-7.840E-06,-0.004
-7.830E-06,-0.004
-7.820E-06,0.000
-7.810E-06,0.000
-7.800E-06,0.004
-7.790E-06,0.004
-7.780E-06,0.004
-7.770E-06,0.000
-7.760E-06,0.000
-7.750E-06,0.000
-7.740E-06,0.008
-7.730E-06,0.008
-7.720E-06,0.004
-7.710E-06,0.004
-7.700E-06,0.004
-7.690E-06,0.000
-7.680E-06,0.000
-7.670E-06,0.000
-7.660E-06,0.004
-7.650E-06,0.008
-7.640E-06,0.000
-7.630E-06,0.004
-7.620E-06,0.000
-7.610E-06,0.004
-7.600E-06,0.004
-7.590E-06,0.008
-7.580E-06,0.008
-7.570E-06,0.000
-7.560E-06,0.004
-7.550E-06,0.000
-7.540E-06,0.000
-7.530E-06,0.004
-7.520E-06,0.004
-7.510E-06,0.000
-7.500E-06,0.004
-7.490E-06,-0.004
-7.480E-06,0.004
-7.470E-06,0.004
-7.460E-06,0.004
-7.450E-06,0.004
-7.440E-06,0.004
-7.430E-06,0.000
-7.420E-06,0.000
-7.410E-06,0.000
-7.400E-06,0.004
-7.390E-06,0.004
-7.380E-06,0.004
-7.370E-06,0.004
-7.360E-06,-0.004
-7.350E-06,0.000
-7.340E-06,0.004
-7.330E-06,0.004
-7.320E-06,0.004
-7.310E-06,0.004
-7.300E-06,0.004
-7.290E-06,0.004
-7.280E-06,0.004
-7.270E-06,0.000
-7.260E-06,0.000
-7.250E-06,0.004
-7.240E-06,0.008
-7.230E-06,0.008
-7.220E-06,0.000
-7.210E-06,0.000
-7.200E-06,0.004
-7.190E-06,0.000
-7.180E-06,0.004
-7.170E-06,0.004
-7.160E-06,0.004
-7.150E-06,0.000
-7.140E-06,0.004
-7.130E-06,0.000
-7.120E-06,0.000
-7.110E-06,0.004
-7.100E-06,0.000
-7.090E-06,0.000
-7.080E-06,0.000
-7.070E-06,0.004
-7.060E-06,0.004
-7.050E-06,0.004
-7.040E-06,-0.004
-7.030E-06,-0.004
-7.020E-06,0.000
-7.010E-06,0.004
-7.000E-06,0.004
-6.990E-06,0.004
-6.980E-06,0.004
-6.970E-06,0.004
-6.960E-06,0.000
-6.950E-06,0.000
-6.940E-06,0.004
-6.930E-06,0.004
-6.920E-06,0.008
-6.910E-06,0.004
-6.900E-06,0.000
-6.890E-06,-0.004
-6.880E-06,0.004
-6.870E-06,0.004
-6.860E-06,0.000
-6.850E-06,0.004
-6.840E-06,0.000
-6.830E-06,0.004
-6.820E-06,0.004
-6.810E-06,0.004
-6.800E-06,0.000
-6.790E-06,0.004
-6.780E-06,-0.004
-6.770E-06,0.000
-6.760E-06,0.000
-6.750E-06,0.000
-6.740E-06,0.004
-6.730E-06,0.004
-6.720E-06,0.004
-6.710E-06,0.004
-6.700E-06,0.004
-6.690E-06,0.008
-6.680E-06,-0.004
-6.670E-06,0.000
-6.660E-06,0.004
-6.650E-06,0.000
-6.640E-06,0.000
-6.630E-06,0.004
-6.620E-06,0.000
-6.610E-06,0.004
-6.600E-06,0.004
-6.590E-06,0.004
-6.580E-06,0.000
-6.570E-06,0.000
-6.560E-06,0.000
-6.550E-06,0.004
-6.540E-06,0.000
-6.530E-06,0.004
-6.520E-06,0.000
-6.510E-06,0.000
-6.500E-06,0.000
-6.490E-06,-0.004
-6.480E-06,0.000
-6.470E-06,0.004
-6.460E-06,0.004
-6.450E-06,0.004
-6.440E-06,0.004
-6.430E-06,0.008
-6.420E-06,0.000
-6.410E-06,0.000
-6.400E-06,0.000
-6.390E-06,-0.004
-6.380E-06,0.004
-6.370E-06,0.000
-6.360E-06,0.000
-6.350E-06,0.004
-6.340E-06,0.000
-6.330E-06,0.000
-6.320E-06,0.000
-6.310E-06,0.000
-6.300E-06,0.008
-6.290E-06,0.004
-6.280E-06,0.004
-6.270E-06,0.004
-6.260E-06,0.008
-6.250E-06,0.000
-6.240E-06,0.000
-6.230E-06,0.004
-6.220E-06,0.004
-6.210E-06,0.004
-6.200E-06,0.004
-6.190E-06,0.004
-6.180E-06,0.004
-6.170E-06,0.000
-6.160E-06,0.000
-6.150E-06,0.000
-6.140E-06,0.000
-6.130E-06,0.000
-6.120E-06,0.008
-6.110E-06,0.004
-6.100E-06,0.004
-6.090E-06,0.004
-6.080E-06,0.004
-6.070E-06,0.004
-6.060E-06,0.004
-6.050E-06,0.004
-6.040E-06,0.004
-6.030E-06,0.000
-6.020E-06,0.004
-6.010E-06,0.004
-6.000E-06,-0.004
-5.990E-06,0.000
-5.980E-06,0.008
-5.970E-06,0.008
-5.960E-06,0.008
-5.950E-06,0.008
-5.940E-06,0.008
-5.930E-06,0.008
-5.920E-06,0.008
-5.910E-06,0.004
-5.900E-06,0.004
-5.890E-06,0.000
-5.880E-06,0.004
-5.870E-06,0.004
-5.860E-06,0.004
-5.850E-06,0.000
-5.840E-06,0.000
-5.830E-06,0.004
-5.820E-06,0.004
-5.810E-06,0.004
-5.800E-06,0.004
-5.790E-06,0.004
-5.780E-06,0.004
-5.770E-06,0.000
-5.760E-06,-0.004
-5.750E-06,-0.004
-5.740E-06,0.004
-5.730E-06,0.004
-5.720E-06,0.004
-5.710E-06,0.004
-5.700E-06,0.000
-5.690E-06,0.000
-5.680E-06,0.004
-5.670E-06,0.000
-5.660E-06,0.004
-5.650E-06,0.008
-5.640E-06,0.008
-5.630E-06,0.012
-5.620E-06,0.000
-5.610E-06,0.000
-5.600E-06,0.000
-5.590E-06,-0.004
-5.580E-06,0.000
-5.570E-06,0.004
-5.560E-06,0.008
-5.550E-06,0.012
-5.540E-06,0.004
-5.530E-06,0.004
-5.520E-06,0.000
-5.510E-06,0.000
-5.500E-06,-0.004
-5.490E-06,0.000
-5.480E-06,0.004
-5.470E-06,0.008
-5.460E-06,0.004
-5.450E-06,0.004
-5.440E-06,0.004
-5.430E-06,0.004
-5.420E-06,0.000
-5.410E-06,0.004
-5.400E-06,0.000
-5.390E-06,0.000
-5.380E-06,0.000
-5.370E-06,0.004
-5.360E-06,0.000
-5.350E-06,0.004
-5.340E-06,0.000
-5.330E-06,0.004
-5.320E-06,0.008
-5.310E-06,0.000
-5.300E-06,0.000
-5.290E-06,0.004
-5.280E-06,0.004
-5.270E-06,0.004
-5.260E-06,0.004
-5.250E-06,0.004
-5.240E-06,0.004
-5.230E-06,0.004
-5.220E-06,0.004
-5.210E-06,0.004
-5.200E-06,0.004
-5.190E-06,-0.004
-5.180E-06,0.004
-5.170E-06,0.004
-5.160E-06,0.004
-5.150E-06,0.000
-5.140E-06,0.004
-5.130E-06,0.004
-5.120E-06,0.004
-5.110E-06,0.004
-5.100E-06,0.000
-5.090E-06,0.000
-5.080E-06,0.000
-5.070E-06,0.004
-5.060E-06,0.004
-5.050E-06,0.000
-5.040E-06,0.004
-5.030E-06,0.004
-5.020E-06,0.000
-5.010E-06,0.000
-5.000E-06,0.004
-4.990E-06,0.008
-4.980E-06,0.012
-4.970E-06,0.008
-4.960E-06,0.000
-4.950E-06,0.004
-4.940E-06,0.008
-4.930E-06,0.008
-4.920E-06,0.008
-4.910E-06,0.004
-4.900E-06,0.000
-4.890E-06,0.000
-4.880E-06,0.004
-4.870E-06,0.000
-4.860E-06,0.004
-4.850E-06,0.012
-4.840E-06,0.004
-4.830E-06,0.008
-4.820E-06,0.008
-4.810E-06,0.004
-4.800E-06,0.008
-4.790E-06,0.004
-4.780E-06,0.004
-4.770E-06,0.008
-4.760E-06,0.012
-4.750E-06,0.012
-4.740E-06,0.008
-4.730E-06,0.008
-4.720E-06,0.012
-4.710E-06,0.008
-4.700E-06,0.008
-4.690E-06,0.008
-4.680E-06,0.008
-4.670E-06,0.012
-4.660E-06,0.016
-4.650E-06,0.020
-4.640E-06,0.020
-4.630E-06,0.016
-4.620E-06,0.016
-4.610E-06,0.012
-4.600E-06,0.004
-4.590E-06,0.004
-4.580E-06,0.004
-4.570E-06,0.012
-4.560E-06,0.024
-4.550E-06,0.020
-4.540E-06,0.012
-4.530E-06,-0.008
-4.520E-06,-0.004
-4.510E-06,-0.004
-4.500E-06,0.008
-4.490E-06,-0.004
-4.480E-06,-0.008
-4.470E-06,-0.024
-4.460E-06,-0.024
-4.450E-06,-0.024
-4.440E-06,-0.004
-4.430E-06,0.004
-4.420E-06,0.012
-4.410E-06,0.012
-4.400E-06,-0.004
-4.390E-06,-0.004
-4.380E-06,-0.004
-4.370E-06,0.000
-4.360E-06,0.008
-4.350E-06,0.016
-4.340E-06,0.020
-4.330E-06,0.012
-4.320E-06,0.004
-4.310E-06,0.008
-4.300E-06,0.012
-4.290E-06,0.004
-4.280E-06,0.000
-4.270E-06,-0.004
-4.260E-06,0.000
-4.250E-06,0.008
-4.240E-06,0.012
-4.230E-06,0.016
-4.220E-06,0.008
-4.210E-06,0.012
-4.200E-06,0.008
-4.190E-06,0.008
-4.180E-06,0.004
-4.170E-06,0.008
-4.160E-06,0.012
-4.150E-06,0.008
-4.140E-06,0.008
-4.130E-06,0.004
-4.120E-06,0.008
-4.110E-06,0.016
-4.100E-06,0.024
-4.090E-06,0.024
-4.080E-06,0.012
-4.070E-06,0.012
-4.060E-06,0.008
-4.050E-06,0.008
-4.040E-06,0.008
-4.030E-06,0.012
-4.020E-06,0.012
-4.010E-06,0.012
-4.000E-06,0.004
-3.990E-06,0.004
-3.980E-06,0.008
-3.970E-06,0.016
-3.960E-06,0.032
-3.950E-06,0.032
-3.940E-06,0.032
-3.930E-06,0.036
-3.920E-06,0.020
-3.910E-06,0.008
-3.900E-06,0.000
-3.890E-06,-0.004
-3.880E-06,-0.016
-3.870E-06,-0.024
-3.860E-06,-0.036
-3.850E-06,-0.040
-3.840E-06,-0.024
-3.830E-06,-0.012
-3.820E-06,-0.004
-3.810E-06,-0.004
-3.800E-06,-0.004
-3.790E-06,-0.004
-3.780E-06,-0.008
-3.770E-06,0.004
-3.760E-06,0.012
-3.750E-06,0.012
-3.740E-06,-0.004
-3.730E-06,0.000
-3.720E-06,-0.004
-3.710E-06,0.004
-3.700E-06,0.012
-3.690E-06,0.024
-3.680E-06,0.020
-3.670E-06,0.024
-3.660E-06,0.012
-3.650E-06,0.012
-3.640E-06,0.012
-3.630E-06,0.020
-3.620E-06,0.024
-3.610E-06,0.040
-3.600E-06,0.048
-3.590E-06,0.056
-3.580E-06,0.064
-3.570E-06,0.060
-3.560E-06,0.056
-3.550E-06,0.036
-3.540E-06,0.012
-3.530E-06,0.000
-3.520E-06,-0.004
-3.510E-06,0.008
-3.500E-06,0.016
-3.490E-06,0.044
-3.480E-06,0.044
-3.470E-06,0.036
-3.460E-06,-0.004
-3.450E-06,-0.056
-3.440E-06,-0.056
-3.430E-06,-0.040
-3.420E-06,-0.084
-3.410E-06,-0.108
-3.400E-06,-0.132
-3.390E-06,-0.116
-3.380E-06,-0.052
-3.370E-06,0.032
-3.360E-06,0.108
-3.350E-06,0.064
-3.340E-06,0.012
-3.330E-06,-0.044
-3.320E-06,-0.072
-3.310E-06,-0.044
-3.300E-06,-0.020
-3.290E-06,0.024
-3.280E-06,0.032
-3.270E-06,0.020
-3.260E-06,0.012
-3.250E-06,0.008
-3.240E-06,0.000
-3.230E-06,-0.004
-3.220E-06,-0.008
-3.210E-06,-0.012
-3.200E-06,-0.004
-3.190E-06,0.000
-3.180E-06,0.008
-3.170E-06,0.008
-3.160E-06,0.004
-3.150E-06,0.000
-3.140E-06,-0.004
-3.130E-06,-0.008
-3.120E-06,-0.004
-3.110E-06,-0.004
-3.100E-06,0.004
-3.090E-06,0.012
-3.080E-06,0.004
-3.070E-06,0.000
-3.060E-06,0.000
-3.050E-06,-0.004
-3.040E-06,0.000
-3.030E-06,0.008
-3.020E-06,0.012
-3.010E-06,0.012
-3.000E-06,0.012
-2.990E-06,0.004
-2.980E-06,0.000
-2.970E-06,-0.004
-2.960E-06,0.000
-2.950E-06,0.008
-2.940E-06,0.008
-2.930E-06,0.008
-2.920E-06,0.004
-2.910E-06,0.004
-2.900E-06,0.004
-2.890E-06,0.004
-2.880E-06,0.008
-2.870E-06,0.004
-2.860E-06,0.012
-2.850E-06,0.008
-2.840E-06,0.012
-2.830E-06,0.008
-2.820E-06,0.012
-2.810E-06,0.012
-2.800E-06,0.016
-2.790E-06,0.024
-2.780E-06,0.024
-2.770E-06,0.040
-2.760E-06,0.044
-2.750E-06,0.056
-2.740E-06,0.056
-2.730E-06,0.056
-2.720E-06,0.068
-2.710E-06,0.072
-2.700E-06,0.076
-2.690E-06,0.076
-2.680E-06,0.060
-2.670E-06,0.040
-2.660E-06,0.012
-2.650E-06,0.008
-2.640E-06,0.016
-2.630E-06,0.032
-2.620E-06,0.060
-2.610E-06,0.072
-2.600E-06,0.044
-2.590E-06,0.016
-2.580E-06,-0.008
-2.570E-06,-0.008
-2.560E-06,-0.004
-2.550E-06,0.028
-2.540E-06,0.028
-2.530E-06,-0.004
-2.520E-06,-0.124
-2.510E-06,-0.264
-2.500E-06,-0.296
-2.490E-06,-0.268
-2.480E-06,-0.084
-2.470E-06,0.128
-2.460E-06,0.208
-2.450E-06,0.176
-2.440E-06,0.072
-2.430E-06,-0.060
-2.420E-06,-0.108
-2.410E-06,-0.056
-2.400E-06,0.000
-2.390E-06,0.092
-2.380E-06,0.088
-2.370E-06,0.024
-2.360E-06,-0.068
-2.350E-06,-0.092
-2.340E-06,-0.072
-2.330E-06,-0.032
-2.320E-06,-0.004
-2.310E-06,0.000
-2.300E-06,0.012
-2.290E-06,0.024
-2.280E-06,0.028
-2.270E-06,0.004
-2.260E-06,-0.016
-2.250E-06,-0.028
-2.240E-06,-0.016
-2.230E-06,0.000
-2.220E-06,0.024
-2.210E-06,0.032
-2.200E-06,0.020
-2.190E-06,0.000
-2.180E-06,-0.008
-2.170E-06,-0.012
-2.160E-06,-0.004
-2.150E-06,0.020
-2.140E-06,0.028
-2.130E-06,0.032
-2.120E-06,0.020
-2.110E-06,0.012
-2.100E-06,0.008
-2.090E-06,0.004
-2.080E-06,0.000
-2.070E-06,0.012
-2.060E-06,0.020
-2.050E-06,0.024
-2.040E-06,0.024
-2.030E-06,0.012
-2.020E-06,0.012
-2.010E-06,0.020
-2.000E-06,0.028
-1.990E-06,0.048
-1.980E-06,0.056
-1.970E-06,0.064
-1.960E-06,0.080
-1.950E-06,0.084
-1.940E-06,0.088
-1.930E-06,0.092
-1.920E-06,0.092
-1.910E-06,0.088
-1.900E-06,0.064
-1.890E-06,0.056
-1.880E-06,0.032
-1.870E-06,0.036
-1.860E-06,0.028
-1.850E-06,0.024
-1.840E-06,0.016
-1.830E-06,0.004
-1.820E-06,0.004
-1.810E-06,0.028
-1.800E-06,0.044
-1.790E-06,0.096
-1.780E-06,-0.012
-1.770E-06,-0.076
-1.760E-06,-0.236
-1.750E-06,-0.248
-1.740E-06,-0.176
-1.730E-06,-0.036
-1.720E-06,0.044
-1.710E-06,0.020
-1.700E-06,-0.016
-1.690E-06,-0.104
-1.680E-06,-0.124
-1.670E-06,-0.072
-1.660E-06,0.012
-1.650E-06,0.076
-1.640E-06,0.100
-1.630E-06,0.060
-1.620E-06,-0.024
-1.610E-06,-0.076
-1.600E-06,-0.080
-1.590E-06,-0.032
-1.580E-06,0.012
-1.570E-06,0.056
-1.560E-06,0.040
-1.550E-06,0.028
-1.540E-06,-0.008
-1.530E-06,-0.040
-1.520E-06,-0.040
-1.510E-06,-0.016
-1.500E-06,0.008
-1.490E-06,0.020
-1.480E-06,0.020
-1.470E-06,0.000
-1.460E-06,-0.008
-1.450E-06,-0.028
-1.440E-06,-0.024
-1.430E-06,-0.004
-1.420E-06,0.004
-1.410E-06,0.012
-1.400E-06,0.016
-1.390E-06,0.008
-1.380E-06,-0.004
-1.370E-06,0.000
-1.360E-06,-0.004
-1.350E-06,0.000
-1.340E-06,0.008
-1.330E-06,0.012
-1.320E-06,0.008
-1.310E-06,0.004
-1.300E-06,0.008
-1.290E-06,-0.004
-1.280E-06,0.000
-1.270E-06,-0.008
-1.260E-06,0.000
-1.250E-06,0.000
-1.240E-06,0.008
-1.230E-06,0.016
-1.220E-06,0.008
-1.210E-06,0.008
-1.200E-06,0.016
-1.190E-06,0.008
-1.180E-06,0.008
-1.170E-06,0.016
-1.160E-06,0.012
-1.150E-06,0.016
-1.140E-06,0.024
-1.130E-06,0.020
-1.120E-06,0.016
-1.110E-06,0.004
-1.100E-06,-0.008
-1.090E-06,-0.020
-1.080E-06,-0.016
-1.070E-06,-0.008
-1.060E-06,0.012
-1.050E-06,0.020
-1.040E-06,0.024
-1.030E-06,0.024
-1.020E-06,0.012
-1.010E-06,-0.004
-1.000E-06,-0.004
-9.900E-07,0.004
-9.800E-07,0.024
-9.700E-07,0.044
-9.600E-07,0.056
-9.500E-07,0.060
-9.400E-07,0.060
-9.300E-07,0.056
-9.200E-07,0.056
-9.100E-07,0.060
-9.000E-07,0.064
-8.900E-07,0.072
-8.800E-07,0.088
-8.700E-07,0.092
-8.600E-07,0.100
-8.500E-07,0.104
-8.400E-07,0.088
-8.300E-07,0.064
-8.200E-07,0.032
-8.100E-07,0.012
-8.000E-07,0.012
-7.900E-07,0.036
-7.800E-07,0.048
-7.700E-07,0.052
-7.600E-07,0.032
-7.500E-07,0.000
-7.400E-07,-0.052
-7.300E-07,-0.104
-7.200E-07,-0.092
-7.100E-07,-0.084
-7.000E-07,-0.036
-6.900E-07,-0.008
-6.800E-07,0.016
-6.700E-07,0.020
-6.600E-07,0.020
-6.500E-07,0.020
-6.400E-07,0.028
-6.300E-07,0.024
-6.200E-07,0.044
-6.100E-07,0.068
-6.000E-07,0.088
-5.900E-07,0.096
-5.800E-07,0.100
-5.700E-07,0.096
-5.600E-07,0.088
-5.500E-07,0.064
-5.400E-07,0.056
-5.300E-07,0.040
-5.200E-07,0.036
-5.100E-07,0.032
-5.000E-07,0.024
-4.900E-07,0.040
-4.800E-07,0.060
-4.700E-07,0.084
-4.600E-07,0.096
-4.500E-07,0.124
-4.400E-07,0.144
-4.300E-07,0.136
-4.200E-07,0.136
-4.100E-07,0.116
-4.000E-07,0.108
-3.900E-07,0.104
-3.800E-07,0.100
-3.700E-07,0.100
-3.600E-07,0.096
-3.500E-07,0.096
-3.400E-07,0.092
-3.300E-07,0.092
-3.200E-07,0.084
-3.100E-07,0.076
-3.000E-07,0.072
-2.900E-07,0.084
-2.800E-07,0.084
-2.700E-07,0.088
-2.600E-07,0.076
-2.500E-07,0.068
-2.400E-07,0.060
-2.300E-07,0.084
-2.200E-07,0.100
-2.100E-07,0.136
-2.000E-07,0.152
-1.900E-07,0.160
-1.800E-07,0.112
-1.700E-07,0.012
-1.600E-07,-0.004
-1.500E-07,-0.080
-1.400E-07,-0.036
-1.300E-07,-0.080
-1.200E-07,-0.124
-1.100E-07,-0.180
-1.000E-07,-0.112
-9.000E-08,-0.004
-8.000E-08,0.112
-7.000E-08,0.176
-6.000E-08,0.140
-5.000E-08,0.040
-4.000E-08,-0.072
-3.000E-08,-0.072
-2.000E-08,-0.008
-1.000E-08,0.160
0.000E+00,0.256
1.000E-08,0.200
2.000E-08,0.056
3.000E-08,-0.188
4.000E-08,-0.352
5.000E-08,-0.380
6.000E-08,-0.240
7.000E-08,-0.036
8.000E-08,0.044
9.000E-08,-0.052
1.000E-07,-0.276
1.100E-07,-0.468
1.200E-07,-0.476
1.300E-07,-0.400
1.400E-07,-0.168
1.500E-07,0.012
1.600E-07,0.052
1.700E-07,0.020
1.800E-07,-0.140
1.900E-07,-0.248
2.000E-07,-0.172
2.100E-07,-0.056
2.200E-07,0.092
2.300E-07,0.164
2.400E-07,0.160
2.500E-07,0.028
2.600E-07,-0.056
2.700E-07,-0.120
2.800E-07,-0.064
2.900E-07,0.048
3.000E-07,0.124
3.100E-07,0.144
3.200E-07,0.080
3.300E-07,0.032
3.400E-07,-0.008
3.500E-07,-0.016
3.600E-07,0.000
3.700E-07,0.060
3.800E-07,0.156
3.900E-07,0.192
4.000E-07,0.172
4.100E-07,0.140
4.200E-07,0.092
4.300E-07,0.076
4.400E-07,0.068
4.500E-07,0.104
4.600E-07,0.156
4.700E-07,0.192
4.800E-07,0.192
4.900E-07,0.160
5.000E-07,0.128
5.100E-07,0.092
5.200E-07,0.100
5.300E-07,0.124
5.400E-07,0.172
5.500E-07,0.200
5.600E-07,0.192
5.700E-07,0.164
5.800E-07,0.136
5.900E-07,0.124
6.000E-07,0.132
6.100E-07,0.140
6.200E-07,0.160
6.300E-07,0.192
6.400E-07,0.188
6.500E-07,0.172
6.600E-07,0.156
6.700E-07,0.132
6.800E-07,0.104
6.900E-07,0.072
7.000E-07,0.032
7.100E-07,0.008
7.200E-07,-0.024
7.300E-07,0.036
7.400E-07,0.124
7.500E-07,0.204
7.600E-07,0.272
7.700E-07,0.264
7.800E-07,0.188
7.900E-07,0.128
8.000E-07,0.080
8.100E-07,0.072
8.200E-07,0.116
8.300E-07,0.136
8.400E-07,0.156
8.500E-07,0.124
8.600E-07,0.108
8.700E-07,0.076
8.800E-07,0.072
8.900E-07,0.088
9.000E-07,0.064
9.100E-07,0.068
9.200E-07,0.084
9.300E-07,0.156
9.400E-07,0.188
9.500E-07,0.216
9.600E-07,0.184
9.700E-07,0.136
9.800E-07,0.080
9.900E-07,0.052
1.000E-06,0.056
1.010E-06,0.076
1.020E-06,0.092
1.030E-06,0.024
1.040E-06,0.000
1.050E-06,-0.016
1.060E-06,-0.020
1.070E-06,-0.004
1.080E-06,-0.032
1.090E-06,-0.060
1.100E-06,-0.056
1.110E-06,-0.036
1.120E-06,0.024
1.130E-06,0.112
1.140E-06,0.180
1.150E-06,0.204
1.160E-06,0.196
1.170E-06,0.164
1.180E-06,0.148
1.190E-06,0.152
1.200E-06,0.156
1.210E-06,0.164
1.220E-06,0.160
1.230E-06,0.172
1.240E-06,0.164
1.250E-06,0.156
1.260E-06,0.156
1.270E-06,0.148
1.280E-06,0.156
1.290E-06,0.160
1.300E-06,0.160
1.310E-06,0.164
1.320E-06,0.168
1.330E-06,0.172
1.340E-06,0.164
1.350E-06,0.160
1.360E-06,0.164
1.370E-06,0.160
1.380E-06,0.164
1.390E-06,0.168
1.400E-06,0.156
1.410E-06,0.160
1.420E-06,0.160
1.430E-06,0.156
1.440E-06,0.156
1.450E-06,0.160
1.460E-06,0.160
1.470E-06,0.160
1.480E-06,0.152
1.490E-06,0.156
1.500E-06,0.160
1.510E-06,0.160
1.520E-06,0.160
1.530E-06,0.164
1.540E-06,0.156
1.550E-06,0.156
1.560E-06,0.156
1.570E-06,0.148
1.580E-06,0.156
1.590E-06,0.164
1.600E-06,0.160
1.610E-06,0.156
1.620E-06,0.152
1.630E-06,0.148
1.640E-06,0.152
1.650E-06,0.152
1.660E-06,0.160
1.670E-06,0.156
1.680E-06,0.152
1.690E-06,0.156
1.700E-06,0.148
1.710E-06,0.148
1.720E-06,0.148
1.730E-06,0.148
1.740E-06,0.140
1.750E-06,0.140
1.760E-06,0.152
1.770E-06,0.152
1.780E-06,0.156
1.790E-06,0.144
1.800E-06,0.148
1.810E-06,0.144
1.820E-06,0.148
1.830E-06,0.152
1.840E-06,0.152
1.850E-06,0.148
1.860E-06,0.148
1.870E-06,0.148
1.880E-06,0.148
1.890E-06,0.140
1.900E-06,0.148
1.910E-06,0.152
1.920E-06,0.148
1.930E-06,0.144
1.940E-06,0.144
1.950E-06,0.148
1.960E-06,0.148
1.970E-06,0.144
1.980E-06,0.144
1.990E-06,0.152
2.000E-06,0.156
2.010E-06,0.156
2.020E-06,0.152
2.030E-06,0.152
2.040E-06,0.148
2.050E-06,0.140
2.060E-06,0.148
2.070E-06,0.148
2.080E-06,0.148
2.090E-06,0.148
2.100E-06,0.148
2.110E-06,0.148
2.120E-06,0.144
2.130E-06,0.140
2.140E-06,0.144
2.150E-06,0.140
2.160E-06,0.140
2.170E-06,0.144
2.180E-06,0.140
2.190E-06,0.140
2.200E-06,0.144
2.210E-06,0.144
2.220E-06,0.144
2.230E-06,0.144
2.240E-06,0.144
2.250E-06,0.148
2.260E-06,0.140
2.270E-06,0.136
2.280E-06,0.140
2.290E-06,0.136
2.300E-06,0.136
2.310E-06,0.140
2.320E-06,0.136
2.330E-06,0.140
2.340E-06,0.136
2.350E-06,0.132
2.360E-06,0.132
2.370E-06,0.132
2.380E-06,0.132
2.390E-06,0.136
2.400E-06,0.136
2.410E-06,0.132
2.420E-06,0.132
2.430E-06,0.128
2.440E-06,0.132
2.450E-06,0.136
2.460E-06,0.132
2.470E-06,0.140
2.480E-06,0.140
2.490E-06,0.136
2.500E-06,0.136
2.510E-06,0.140
2.520E-06,0.140
2.530E-06,0.144
2.540E-06,0.136
2.550E-06,0.132
2.560E-06,0.128
2.570E-06,0.128
2.580E-06,0.128
2.590E-06,0.136
2.600E-06,0.136
2.610E-06,0.140
2.620E-06,0.136
2.630E-06,0.136
2.640E-06,0.132
2.650E-06,0.132
2.660E-06,0.132
2.670E-06,0.136
2.680E-06,0.136
2.690E-06,0.132
2.700E-06,0.128
2.710E-06,0.128
2.720E-06,0.132
2.730E-06,0.132
2.740E-06,0.132
2.750E-06,0.132
2.760E-06,0.132
2.770E-06,0.132
2.780E-06,0.128
2.790E-06,0.128
2.800E-06,0.128
2.810E-06,0.124
2.820E-06,0.128
2.830E-06,0.128
2.840E-06,0.132
2.850E-06,0.132
2.860E-06,0.128
2.870E-06,0.128
2.880E-06,0.124
2.890E-06,0.120
2.900E-06,0.128
2.910E-06,0.128
2.920E-06,0.128
2.930E-06,0.128
2.940E-06,0.128
2.950E-06,0.128
2.960E-06,0.124
2.970E-06,0.124
2.980E-06,0.124
2.990E-06,0.124
3.000E-06,0.124
3.010E-06,0.124
3.020E-06,0.124
3.030E-06,0.124
3.040E-06,0.128
3.050E-06,0.124
3.060E-06,0.124
3.070E-06,0.120
3.080E-06,0.124
3.090E-06,0.124
3.100E-06,0.120
3.110E-06,0.120
3.120E-06,0.120
3.130E-06,0.120
3.140E-06,0.108
3.150E-06,0.108
3.160E-06,0.112
3.170E-06,0.112
3.180E-06,0.124
3.190E-06,0.128
3.200E-06,0.128
3.210E-06,0.128
3.220E-06,0.128
3.230E-06,0.124
3.240E-06,0.120
3.250E-06,0.112
3.260E-06,0.112
3.270E-06,0.112
3.280E-06,0.116
3.290E-06,0.108
3.300E-06,0.108
3.310E-06,0.112
3.320E-06,0.108
3.330E-06,0.108
3.340E-06,0.104
3.350E-06,0.108
3.360E-06,0.112
3.370E-06,0.112
3.380E-06,0.112
3.390E-06,0.108
3.400E-06,0.108
3.410E-06,0.108
3.420E-06,0.108
