mediciones/5-27/-35/WaveData50106.csv

#timebase=2000000(ps)
,#voltbase=100000(mv/100)
#size=4000
-8.400E-06,0.000
-8.390E-06,0.004
-8.380E-06,0.008
-8.370E-06,0.012
-8.360E-06,0.008
-8.350E-06,0.000
-8.340E-06,-0.004
-8.330E-06,0.000
-8.320E-06,0.008
-8.310E-06,0.016
-8.300E-06,0.004
-8.290E-06,0.004
-8.280E-06,0.024
-8.270E-06,0.012
-8.260E-06,-0.008
-8.250E-06,-0.004
-8.240E-06,-0.004
-8.230E-06,0.004
-8.220E-06,0.008
-8.210E-06,-0.008
-8.200E-06,-0.012
-8.190E-06,-0.004
-8.180E-06,0.000
-8.170E-06,0.008
-8.160E-06,0.012
-8.150E-06,0.008
-8.140E-06,0.008
-8.130E-06,0.000
-8.120E-06,-0.004
-8.110E-06,-0.004
-8.100E-06,0.004
-8.090E-06,0.008
-8.080E-06,0.004
-8.070E-06,0.008
-8.060E-06,0.000
-8.050E-06,0.000
-8.040E-06,0.004
-8.030E-06,0.000
-8.020E-06,0.000
-8.010E-06,0.000
-8.000E-06,0.004
-7.990E-06,0.004
-7.980E-06,0.000
-7.970E-06,0.004
-7.960E-06,0.004
-7.950E-06,0.004
-7.940E-06,0.000
-7.930E-06,0.000
-7.920E-06,0.000
-7.910E-06,0.008
-7.900E-06,0.012
-7.890E-06,0.008
-7.880E-06,0.000
-7.870E-06,0.000
-7.860E-06,0.000
-7.850E-06,0.000
-7.840E-06,0.008
-7.830E-06,0.012
-7.820E-06,0.016
-7.810E-06,0.008
-7.800E-06,0.012
-7.790E-06,0.008
-7.780E-06,0.000
-7.770E-06,-0.012
-7.760E-06,-0.016
-7.750E-06,-0.012
-7.740E-06,0.012
-7.730E-06,0.024
-7.720E-06,0.024
-7.710E-06,0.008
-7.700E-06,0.000
-7.690E-06,-0.004
-7.680E-06,-0.008
-7.670E-06,0.000
-7.660E-06,0.008
-7.650E-06,0.012
-7.640E-06,0.008
-7.630E-06,0.008
-7.620E-06,0.000
-7.610E-06,-0.004
-7.600E-06,0.000
-7.590E-06,0.008
-7.580E-06,0.008
-7.570E-06,0.012
-7.560E-06,0.004
-7.550E-06,0.000
-7.540E-06,0.004
-7.530E-06,0.008
-7.520E-06,0.008
-7.510E-06,0.004
-7.500E-06,0.004
-7.490E-06,0.004
-7.480E-06,0.008
-7.470E-06,0.008
-7.460E-06,0.008
-7.450E-06,0.008
-7.440E-06,0.012
-7.430E-06,0.008
-7.420E-06,0.012
-7.410E-06,0.016
-7.400E-06,0.008
-7.390E-06,-0.004
-7.380E-06,0.004
-7.370E-06,-0.004
-7.360E-06,0.008
-7.350E-06,0.028
-7.340E-06,-0.012
-7.330E-06,-0.048
-7.320E-06,-0.044
-7.310E-06,-0.020
-7.300E-06,0.008
-7.290E-06,0.040
-7.280E-06,0.032
-7.270E-06,0.024
-7.260E-06,0.000
-7.250E-06,-0.020
-7.240E-06,-0.020
-7.230E-06,-0.012
-7.220E-06,0.008
-7.210E-06,0.012
-7.200E-06,0.008
-7.190E-06,0.008
-7.180E-06,-0.004
-7.170E-06,0.000
-7.160E-06,-0.004
-7.150E-06,0.000
-7.140E-06,0.004
-7.130E-06,0.008
-7.120E-06,0.012
-7.110E-06,0.000
-7.100E-06,0.004
-7.090E-06,-0.004
-7.080E-06,-0.004
-7.070E-06,0.004
-7.060E-06,0.008
-7.050E-06,0.008
-7.040E-06,0.024
-7.030E-06,-0.008
-7.020E-06,0.000
-7.010E-06,-0.008
-7.000E-06,0.000
-6.990E-06,0.020
-6.980E-06,0.008
-6.970E-06,0.008
-6.960E-06,-0.008
-6.950E-06,-0.012
-6.940E-06,-0.012
-6.930E-06,0.004
-6.920E-06,0.012
-6.910E-06,0.012
-6.900E-06,0.000
-6.890E-06,-0.008
-6.880E-06,-0.008
-6.870E-06,0.004
-6.860E-06,0.012
-6.850E-06,0.012
-6.840E-06,0.004
-6.830E-06,-0.004
-6.820E-06,0.000
-6.810E-06,0.000
-6.800E-06,0.008
-6.790E-06,0.008
-6.780E-06,0.008
-6.770E-06,0.004
-6.760E-06,-0.004
-6.750E-06,-0.004
-6.740E-06,0.000
-6.730E-06,0.008
-6.720E-06,0.012
-6.710E-06,0.012
-6.700E-06,0.004
-6.690E-06,-0.004
-6.680E-06,-0.004
-6.670E-06,0.000
-6.660E-06,0.004
-6.650E-06,0.008
-6.640E-06,0.016
-6.630E-06,0.012
-6.620E-06,0.012
-6.610E-06,0.008
-6.600E-06,0.016
-6.590E-06,0.028
-6.580E-06,-0.028
-6.570E-06,-0.028
-6.560E-06,-0.028
-6.550E-06,-0.028
-6.540E-06,0.024
-6.530E-06,0.040
-6.520E-06,0.056
-6.510E-06,0.036
-6.500E-06,0.004
-6.490E-06,-0.012
-6.480E-06,-0.064
-6.470E-06,-0.032
-6.460E-06,-0.008
-6.450E-06,0.032
-6.440E-06,0.072
-6.430E-06,0.020
-6.420E-06,-0.020
-6.410E-06,-0.040
-6.400E-06,-0.056
-6.390E-06,-0.008
-6.380E-06,0.032
-6.370E-06,0.060
-6.360E-06,0.040
-6.350E-06,0.000
-6.340E-06,-0.044
-6.330E-06,-0.048
-6.320E-06,-0.012
-6.310E-06,0.032
-6.300E-06,0.052
-6.290E-06,0.032
-6.280E-06,0.000
-6.270E-06,-0.016
-6.260E-06,-0.024
-6.250E-06,0.000
-6.240E-06,0.016
-6.230E-06,0.028
-6.220E-06,0.028
-6.210E-06,0.008
-6.200E-06,-0.008
-6.190E-06,-0.012
-6.180E-06,0.000
-6.170E-06,0.012
-6.160E-06,0.016
-6.150E-06,0.008
-6.140E-06,0.004
-6.130E-06,-0.004
-6.120E-06,-0.004
-6.110E-06,0.000
-6.100E-06,0.004
-6.090E-06,0.004
-6.080E-06,0.004
-6.070E-06,0.008
-6.060E-06,0.000
-6.050E-06,0.008
-6.040E-06,0.008
-6.030E-06,0.008
-6.020E-06,0.000
-6.010E-06,0.000
-6.000E-06,0.000
-5.990E-06,0.008
-5.980E-06,0.020
-5.970E-06,0.016
-5.960E-06,0.012
-5.950E-06,0.012
-5.940E-06,0.008
-5.930E-06,0.008
-5.920E-06,0.012
-5.910E-06,0.016
-5.900E-06,0.024
-5.890E-06,0.024
-5.880E-06,0.016
-5.870E-06,0.008
-5.860E-06,0.004
-5.850E-06,0.004
-5.840E-06,0.004
-5.830E-06,0.016
-5.820E-06,0.032
-5.810E-06,0.048
-5.800E-06,0.028
-5.790E-06,-0.012
-5.780E-06,-0.036
-5.770E-06,-0.036
-5.760E-06,-0.004
-5.750E-06,0.012
-5.740E-06,0.020
-5.730E-06,0.028
-5.720E-06,0.024
-5.710E-06,-0.008
-5.700E-06,-0.008
-5.690E-06,-0.032
-5.680E-06,-0.028
-5.670E-06,0.012
-5.660E-06,0.028
-5.650E-06,0.028
-5.640E-06,0.016
-5.630E-06,0.012
-5.620E-06,0.000
-5.610E-06,-0.004
-5.600E-06,-0.012
-5.590E-06,-0.008
-5.580E-06,-0.008
-5.570E-06,-0.060
-5.560E-06,-0.052
-5.550E-06,-0.036
-5.540E-06,0.008
-5.530E-06,0.056
-5.520E-06,0.060
-5.510E-06,0.028
-5.500E-06,0.000
-5.490E-06,-0.036
-5.480E-06,-0.052
-5.470E-06,-0.012
-5.460E-06,0.044
-5.450E-06,0.056
-5.440E-06,0.044
-5.430E-06,0.012
-5.420E-06,-0.028
-5.410E-06,-0.044
-5.400E-06,-0.036
-5.390E-06,-0.028
-5.380E-06,0.024
-5.370E-06,0.036
-5.360E-06,0.032
-5.350E-06,0.012
-5.340E-06,-0.012
-5.330E-06,-0.020
-5.320E-06,-0.008
-5.310E-06,0.004
-5.300E-06,0.024
-5.290E-06,0.028
-5.280E-06,0.016
-5.270E-06,0.008
-5.260E-06,0.000
-5.250E-06,0.004
-5.240E-06,0.020
-5.230E-06,0.028
-5.220E-06,0.028
-5.210E-06,0.028
-5.200E-06,0.032
-5.190E-06,0.036
-5.180E-06,-0.004
-5.170E-06,-0.036
-5.160E-06,-0.052
-5.150E-06,-0.056
-5.140E-06,-0.008
-5.130E-06,0.012
-5.120E-06,0.032
-5.110E-06,0.028
-5.100E-06,0.012
-5.090E-06,-0.004
-5.080E-06,-0.012
-5.070E-06,-0.004
-5.060E-06,0.008
-5.050E-06,0.024
-5.040E-06,0.040
-5.030E-06,0.016
-5.020E-06,0.032
-5.010E-06,0.028
-5.000E-06,-0.028
-4.990E-06,-0.068
-4.980E-06,-0.060
-4.970E-06,-0.032
-4.960E-06,0.036
-4.950E-06,0.076
-4.940E-06,0.056
-4.930E-06,0.020
-4.920E-06,-0.008
-4.910E-06,-0.036
-4.900E-06,-0.036
-4.890E-06,0.012
-4.880E-06,0.040
-4.870E-06,0.056
-4.860E-06,0.000
-4.850E-06,-0.040
-4.840E-06,-0.076
-4.830E-06,-0.052
-4.820E-06,-0.004
-4.810E-06,0.036
-4.800E-06,0.060
-4.790E-06,0.032
-4.780E-06,-0.004
-4.770E-06,-0.028
-4.760E-06,-0.032
-4.750E-06,-0.012
-4.740E-06,0.016
-4.730E-06,0.024
-4.720E-06,0.012
-4.710E-06,-0.008
-4.700E-06,-0.020
-4.690E-06,-0.012
-4.680E-06,0.004
-4.670E-06,0.012
-4.660E-06,0.008
-4.650E-06,0.004
-4.640E-06,-0.004
-4.630E-06,-0.008
-4.620E-06,-0.004
-4.610E-06,0.004
-4.600E-06,0.012
-4.590E-06,0.012
-4.580E-06,0.004
-4.570E-06,-0.004
-4.560E-06,-0.004
-4.550E-06,0.004
-4.540E-06,0.004
-4.530E-06,0.008
-4.520E-06,-0.004
-4.510E-06,-0.004
-4.500E-06,0.000
-4.490E-06,0.004
-4.480E-06,0.008
-4.470E-06,0.008
-4.460E-06,0.008
-4.450E-06,0.004
-4.440E-06,0.008
-4.430E-06,0.012
-4.420E-06,0.016
-4.410E-06,0.016
-4.400E-06,0.016
-4.390E-06,0.020
-4.380E-06,0.032
-4.370E-06,0.032
-4.360E-06,0.024
-4.350E-06,-0.016
-4.340E-06,-0.028
-4.330E-06,-0.040
-4.320E-06,-0.020
-4.310E-06,0.024
-4.300E-06,0.064
-4.290E-06,0.088
-4.280E-06,0.052
-4.270E-06,0.008
-4.260E-06,-0.052
-4.250E-06,-0.068
-4.240E-06,-0.056
-4.230E-06,-0.004
-4.220E-06,0.012
-4.210E-06,0.040
-4.200E-06,0.032
-4.190E-06,0.004
-4.180E-06,0.000
-4.170E-06,0.000
-4.160E-06,0.024
-4.150E-06,0.016
-4.140E-06,0.008
-4.130E-06,-0.016
-4.120E-06,-0.016
-4.110E-06,0.008
-4.100E-06,0.028
-4.090E-06,0.032
-4.080E-06,0.008
-4.070E-06,-0.012
-4.060E-06,-0.028
-4.050E-06,-0.024
-4.040E-06,-0.008
-4.030E-06,0.012
-4.020E-06,0.032
-4.010E-06,0.024
-4.000E-06,0.012
-3.990E-06,0.008
-3.980E-06,-0.008
-3.970E-06,-0.020
-3.960E-06,-0.008
-3.950E-06,0.004
-3.940E-06,0.032
-3.930E-06,0.008
-3.920E-06,-0.032
-3.910E-06,-0.036
-3.900E-06,-0.068
-3.890E-06,-0.004
-3.880E-06,-0.004
-3.870E-06,-0.012
-3.860E-06,0.032
-3.850E-06,0.036
-3.840E-06,0.008
-3.830E-06,-0.016
-3.820E-06,-0.012
-3.810E-06,-0.008
-3.800E-06,0.012
-3.790E-06,0.024
-3.780E-06,0.012
-3.770E-06,-0.004
-3.760E-06,-0.012
-3.750E-06,-0.016
-3.740E-06,0.000
-3.730E-06,0.008
-3.720E-06,0.024
-3.710E-06,0.020
-3.700E-06,0.004
-3.690E-06,-0.008
-3.680E-06,-0.008
-3.670E-06,-0.008
-3.660E-06,0.000
-3.650E-06,0.016
-3.640E-06,0.020
-3.630E-06,0.012
-3.620E-06,0.004
-3.610E-06,-0.004
-3.600E-06,-0.012
-3.590E-06,-0.008
-3.580E-06,0.000
-3.570E-06,0.016
-3.560E-06,0.028
-3.550E-06,0.032
-3.540E-06,0.024
-3.530E-06,0.008
-3.520E-06,0.004
-3.510E-06,0.020
-3.500E-06,0.044
-3.490E-06,0.060
-3.480E-06,0.060
-3.470E-06,0.048
-3.460E-06,-0.008
-3.450E-06,-0.064
-3.440E-06,-0.104
-3.430E-06,-0.124
-3.420E-06,-0.028
-3.410E-06,0.036
-3.400E-06,0.080
-3.390E-06,0.092
-3.380E-06,0.048
-3.370E-06,-0.008
-3.360E-06,-0.024
-3.350E-06,-0.156
-3.340E-06,-0.092
-3.330E-06,-0.024
-3.320E-06,0.056
-3.310E-06,0.092
-3.300E-06,0.052
-3.290E-06,0.020
-3.280E-06,-0.004
-3.270E-06,-0.040
-3.260E-06,-0.052
-3.250E-06,-0.012
-3.240E-06,0.024
-3.230E-06,0.036
-3.220E-06,0.028
-3.210E-06,0.000
-3.200E-06,-0.008
-3.190E-06,-0.004
-3.180E-06,0.008
-3.170E-06,0.024
-3.160E-06,0.036
-3.150E-06,0.028
-3.140E-06,0.024
-3.130E-06,0.000
-3.120E-06,-0.028
-3.110E-06,-0.044
-3.100E-06,-0.048
-3.090E-06,-0.004
-3.080E-06,0.032
-3.070E-06,0.032
-3.060E-06,0.016
-3.050E-06,0.004
-3.040E-06,-0.016
-3.030E-06,-0.024
-3.020E-06,-0.016
-3.010E-06,0.000
-3.000E-06,0.024
-2.990E-06,0.020
-2.980E-06,0.008
-2.970E-06,-0.004
-2.960E-06,-0.004
-2.950E-06,0.016
-2.940E-06,0.044
-2.930E-06,0.060
-2.920E-06,0.036
-2.910E-06,0.036
-2.900E-06,-0.008
-2.890E-06,-0.024
-2.880E-06,-0.044
-2.870E-06,-0.068
-2.860E-06,-0.024
-2.850E-06,0.020
-2.840E-06,0.028
-2.830E-06,0.040
-2.820E-06,0.012
-2.810E-06,-0.012
-2.800E-06,-0.032
-2.790E-06,-0.024
-2.780E-06,-0.004
-2.770E-06,0.016
-2.760E-06,0.036
-2.750E-06,0.056
-2.740E-06,0.020
-2.730E-06,0.012
-2.720E-06,-0.036
-2.710E-06,-0.044
-2.700E-06,-0.028
-2.690E-06,-0.012
-2.680E-06,0.024
-2.670E-06,0.032
-2.660E-06,0.032
-2.650E-06,0.016
-2.640E-06,0.012
-2.630E-06,0.008
-2.620E-06,-0.016
-2.610E-06,-0.036
-2.600E-06,-0.036
-2.590E-06,-0.024
-2.580E-06,0.000
-2.570E-06,0.032
-2.560E-06,0.044
-2.550E-06,0.020
-2.540E-06,-0.016
-2.530E-06,-0.040
-2.520E-06,-0.036
-2.510E-06,-0.008
-2.500E-06,0.024
-2.490E-06,0.044
-2.480E-06,0.028
-2.470E-06,0.004
-2.460E-06,-0.016
-2.450E-06,-0.024
-2.440E-06,-0.004
-2.430E-06,0.008
-2.420E-06,0.012
-2.410E-06,0.012
-2.400E-06,0.000
-2.390E-06,0.004
-2.380E-06,0.004
-2.370E-06,0.000
-2.360E-06,0.004
-2.350E-06,0.008
-2.340E-06,0.008
-2.330E-06,-0.004
-2.320E-06,0.000
-2.310E-06,0.008
-2.300E-06,0.008
-2.290E-06,0.008
-2.280E-06,0.004
-2.270E-06,-0.004
-2.260E-06,0.000
-2.250E-06,0.000
-2.240E-06,0.008
-2.230E-06,0.012
-2.220E-06,0.016
-2.210E-06,0.008
-2.200E-06,0.000
-2.190E-06,-0.004
-2.180E-06,-0.004
-2.170E-06,0.004
-2.160E-06,0.008
-2.150E-06,0.004
-2.140E-06,0.008
-2.130E-06,0.004
-2.120E-06,0.004
-2.110E-06,0.004
-2.100E-06,0.004
-2.090E-06,0.000
-2.080E-06,0.000
-2.070E-06,0.004
-2.060E-06,0.000
-2.050E-06,0.004
-2.040E-06,0.008
-2.030E-06,0.008
-2.020E-06,0.008
-2.010E-06,0.004
-2.000E-06,0.004
-1.990E-06,0.004
-1.980E-06,0.004
-1.970E-06,0.012
-1.960E-06,0.016
-1.950E-06,0.008
-1.940E-06,0.008
-1.930E-06,0.012
-1.920E-06,0.008
-1.910E-06,0.012
-1.900E-06,0.016
-1.890E-06,0.024
-1.880E-06,0.024
-1.870E-06,0.032
-1.860E-06,0.036
-1.850E-06,0.032
-1.840E-06,0.036
-1.830E-06,0.028
-1.820E-06,0.028
-1.810E-06,0.044
-1.800E-06,0.048
-1.790E-06,0.056
-1.780E-06,0.044
-1.770E-06,0.036
-1.760E-06,-0.056
-1.750E-06,-0.144
-1.740E-06,-0.240
-1.730E-06,-0.196
-1.720E-06,-0.124
-1.710E-06,0.060
-1.700E-06,0.144
-1.690E-06,0.164
-1.680E-06,0.096
-1.670E-06,-0.024
-1.660E-06,-0.084
-1.650E-06,-0.104
-1.640E-06,-0.052
-1.630E-06,0.012
-1.620E-06,0.076
-1.610E-06,0.076
-1.600E-06,0.052
-1.590E-06,-0.008
-1.580E-06,-0.040
-1.570E-06,-0.040
-1.560E-06,-0.016
-1.550E-06,0.004
-1.540E-06,0.024
-1.530E-06,0.020
-1.520E-06,0.008
-1.510E-06,-0.004
-1.500E-06,-0.016
-1.490E-06,-0.008
-1.480E-06,0.000
-1.470E-06,0.012
-1.460E-06,0.012
-1.450E-06,0.012
-1.440E-06,0.004
-1.430E-06,0.000
-1.420E-06,-0.004
-1.410E-06,0.000
-1.400E-06,-0.004
-1.390E-06,0.008
-1.380E-06,0.008
-1.370E-06,0.008
-1.360E-06,0.008
-1.350E-06,-0.008
-1.340E-06,-0.008
-1.330E-06,-0.008
-1.320E-06,0.000
-1.310E-06,0.012
-1.300E-06,0.024
-1.290E-06,0.016
-1.280E-06,0.004
-1.270E-06,-0.004
-1.260E-06,-0.012
-1.250E-06,-0.004
-1.240E-06,0.000
-1.230E-06,0.008
-1.220E-06,0.016
-1.210E-06,0.008
-1.200E-06,0.008
-1.190E-06,0.004
-1.180E-06,-0.008
-1.170E-06,-0.008
-1.160E-06,0.000
-1.150E-06,0.012
-1.140E-06,0.016
-1.130E-06,0.016
-1.120E-06,0.008
-1.110E-06,0.012
-1.100E-06,0.012
-1.090E-06,0.004
-1.080E-06,0.012
-1.070E-06,0.020
-1.060E-06,0.028
-1.050E-06,0.040
-1.040E-06,0.044
-1.030E-06,0.052
-1.020E-06,0.060
-1.010E-06,0.056
-1.000E-06,0.044
-9.900E-07,0.048
-9.800E-07,0.068
-9.700E-07,0.104
-9.600E-07,0.064
-9.500E-07,-0.016
-9.400E-07,-0.080
-9.300E-07,-0.104
-9.200E-07,-0.012
-9.100E-07,0.064
-9.000E-07,0.072
-8.900E-07,0.096
-8.800E-07,-0.072
-8.700E-07,-0.172
-8.600E-07,-0.220
-8.500E-07,-0.200
-8.400E-07,-0.040
-8.300E-07,0.120
-8.200E-07,0.152
-8.100E-07,0.096
-8.000E-07,0.020
-7.900E-07,-0.124
-7.800E-07,-0.140
-7.700E-07,-0.104
-7.600E-07,-0.024
-7.500E-07,0.068
-7.400E-07,0.124
-7.300E-07,0.076
-7.200E-07,0.008
-7.100E-07,-0.068
-7.000E-07,-0.088
-6.900E-07,-0.036
-6.800E-07,0.012
-6.700E-07,0.064
-6.600E-07,0.064
-6.500E-07,0.028
-6.400E-07,-0.012
-6.300E-07,-0.032
-6.200E-07,-0.036
-6.100E-07,-0.008
-6.000E-07,0.024
-5.900E-07,0.040
-5.800E-07,0.028
-5.700E-07,0.012
-5.600E-07,0.000
-5.500E-07,-0.020
-5.400E-07,-0.020
-5.300E-07,-0.016
-5.200E-07,0.004
-5.100E-07,0.024
-5.000E-07,0.032
-4.900E-07,0.020
-4.800E-07,0.008
-4.700E-07,-0.008
-4.600E-07,-0.016
-4.500E-07,-0.004
-4.400E-07,-0.004
-4.300E-07,0.020
-4.200E-07,0.028
-4.100E-07,0.028
-4.000E-07,0.012
-3.900E-07,-0.004
-3.800E-07,-0.020
-3.700E-07,-0.008
-3.600E-07,0.012
-3.500E-07,0.036
-3.400E-07,0.044
-3.300E-07,0.040
-3.200E-07,0.032
-3.100E-07,0.020
-3.000E-07,0.016
-2.900E-07,0.024
-2.800E-07,0.060
-2.700E-07,0.080
-2.600E-07,0.092
-2.500E-07,0.100
-2.400E-07,0.108
-2.300E-07,0.108
-2.200E-07,0.100
-2.100E-07,0.084
-2.000E-07,0.048
-1.900E-07,0.008
-1.800E-07,-0.040
-1.700E-07,-0.052
-1.600E-07,-0.072
-1.500E-07,-0.036
-1.400E-07,-0.052
-1.300E-07,0.036
-1.200E-07,-0.092
-1.100E-07,-0.156
-1.000E-07,-0.232
-9.000E-08,-0.168
-8.000E-08,0.060
-7.000E-08,0.152
-6.000E-08,0.152
-5.000E-08,-0.084
-4.000E-08,-0.204
-3.000E-08,-0.236
-2.000E-08,-0.080
-1.000E-08,0.120
0.000E+00,0.228
1.000E-08,0.176
2.000E-08,0.016
3.000E-08,-0.100
4.000E-08,-0.136
5.000E-08,-0.044
6.000E-08,0.056
7.000E-08,0.128
8.000E-08,0.076
9.000E-08,0.016
1.000E-07,-0.056
1.100E-07,-0.060
1.200E-07,-0.016
1.300E-07,0.040
1.400E-07,0.060
1.500E-07,0.028
1.600E-07,-0.008
1.700E-07,-0.052
1.800E-07,-0.040
1.900E-07,-0.012
2.000E-07,0.028
2.100E-07,0.048
2.200E-07,0.060
2.300E-07,0.036
2.400E-07,0.028
2.500E-07,0.020
2.600E-07,0.024
2.700E-07,0.040
2.800E-07,0.056
2.900E-07,0.080
3.000E-07,0.096
3.100E-07,0.012
3.200E-07,-0.136
3.300E-07,-0.236
3.400E-07,-0.256
3.500E-07,-0.112
3.600E-07,0.068
3.700E-07,0.156
3.800E-07,0.180
3.900E-07,0.108
4.000E-07,-0.044
4.100E-07,-0.136
4.200E-07,-0.120
4.300E-07,-0.024
4.400E-07,0.040
4.500E-07,0.080
4.600E-07,0.040
4.700E-07,0.004
4.800E-07,-0.020
4.900E-07,-0.024
5.000E-07,0.000
5.100E-07,0.028
5.200E-07,0.028
5.300E-07,0.012
5.400E-07,-0.024
5.500E-07,-0.028
5.600E-07,-0.008
5.700E-07,0.000
5.800E-07,0.020
5.900E-07,0.020
6.000E-07,0.008
6.100E-07,-0.008
6.200E-07,-0.024
6.300E-07,-0.028
6.400E-07,0.000
6.500E-07,0.020
6.600E-07,0.032
6.700E-07,0.016
6.800E-07,-0.004
6.900E-07,-0.020
7.000E-07,-0.024
7.100E-07,-0.004
7.200E-07,0.020
7.300E-07,0.036
7.400E-07,0.032
7.500E-07,0.032
7.600E-07,0.024
7.700E-07,0.012
7.800E-07,0.012
7.900E-07,0.024
8.000E-07,0.040
8.100E-07,0.052
8.200E-07,0.060
8.300E-07,0.060
8.400E-07,0.040
8.500E-07,0.020
8.600E-07,0.008
8.700E-07,-0.016
8.800E-07,-0.004
8.900E-07,-0.012
9.000E-07,0.016
9.100E-07,0.028
9.200E-07,0.064
9.300E-07,0.080
9.400E-07,0.068
9.500E-07,0.032
9.600E-07,0.004
9.700E-07,-0.024
9.800E-07,-0.012
9.900E-07,0.016
1.000E-06,0.092
1.010E-06,0.152
1.020E-06,0.132
1.030E-06,0.064
1.040E-06,-0.008
1.050E-06,-0.084
1.060E-06,-0.060
1.070E-06,0.032
1.080E-06,0.004
1.090E-06,-0.004
1.100E-06,-0.116
1.110E-06,-0.160
1.120E-06,-0.144
1.130E-06,-0.024
1.140E-06,0.100
1.150E-06,0.200
1.160E-06,0.160
1.170E-06,-0.096
1.180E-06,-0.268
1.190E-06,-0.424
1.200E-06,-0.276
1.210E-06,0.004
1.220E-06,0.232
1.230E-06,0.296
1.240E-06,0.228
1.250E-06,0.064
1.260E-06,-0.124
1.270E-06,-0.192
1.280E-06,-0.168
1.290E-06,-0.060
1.300E-06,0.040
1.310E-06,0.068
1.320E-06,0.052
1.330E-06,0.020
1.340E-06,-0.036
1.350E-06,-0.040
1.360E-06,-0.024
1.370E-06,0.016
1.380E-06,0.032
1.390E-06,0.020
1.400E-06,-0.008
1.410E-06,-0.032
1.420E-06,-0.032
1.430E-06,-0.012
1.440E-06,0.024
1.450E-06,0.036
1.460E-06,0.032
1.470E-06,0.012
1.480E-06,-0.008
1.490E-06,-0.032
1.500E-06,-0.032
1.510E-06,-0.008
1.520E-06,0.012
1.530E-06,0.036
1.540E-06,0.032
1.550E-06,0.020
1.560E-06,-0.008
1.570E-06,-0.028
1.580E-06,-0.032
1.590E-06,-0.012
1.600E-06,0.004
1.610E-06,0.024
1.620E-06,0.032
1.630E-06,0.020
1.640E-06,-0.004
1.650E-06,-0.016
1.660E-06,-0.016
1.670E-06,-0.008
1.680E-06,0.004
1.690E-06,0.024
1.700E-06,0.024
1.710E-06,0.016
1.720E-06,0.000
1.730E-06,-0.004
1.740E-06,-0.012
1.750E-06,-0.004
1.760E-06,0.012
1.770E-06,0.020
1.780E-06,0.016
1.790E-06,0.012
1.800E-06,0.004
1.810E-06,0.000
1.820E-06,0.008
1.830E-06,0.016
1.840E-06,0.036
1.850E-06,0.040
1.860E-06,0.044
1.870E-06,0.044
1.880E-06,0.052
1.890E-06,0.060
1.900E-06,0.072
1.910E-06,0.080
1.920E-06,0.080
1.930E-06,0.072
1.940E-06,0.072
1.950E-06,0.076
1.960E-06,0.068
1.970E-06,0.060
1.980E-06,0.056
1.990E-06,0.044
2.000E-06,0.048
2.010E-06,0.056
2.020E-06,0.076
2.030E-06,0.084
2.040E-06,0.120
2.050E-06,0.096
2.060E-06,0.072
2.070E-06,0.116
2.080E-06,0.064
2.090E-06,-0.144
2.100E-06,-0.292
2.110E-06,-0.420
2.120E-06,-0.336
2.130E-06,-0.068
2.140E-06,0.184
2.150E-06,0.312
2.160E-06,0.340
2.170E-06,0.224
2.180E-06,-0.052
2.190E-06,-0.348
2.200E-06,-0.508
2.210E-06,-0.488
2.220E-06,-0.196
2.230E-06,0.148
2.240E-06,0.324
2.250E-06,0.328
2.260E-06,0.176
2.270E-06,-0.052
2.280E-06,-0.260
2.290E-06,-0.308
2.300E-06,-0.164
2.310E-06,0.084
2.320E-06,0.204
2.330E-06,0.160
2.340E-06,0.072
2.350E-06,-0.076
2.360E-06,-0.136
2.370E-06,-0.140
2.380E-06,-0.052
2.390E-06,0.052
2.400E-06,0.120
2.410E-06,0.088
2.420E-06,0.016
2.430E-06,-0.040
2.440E-06,-0.072
2.450E-06,-0.052
2.460E-06,-0.008
2.470E-06,0.040
2.480E-06,0.056
2.490E-06,0.052
2.500E-06,-0.004
2.510E-06,-0.032
2.520E-06,-0.044
2.530E-06,-0.028
2.540E-06,0.012
2.550E-06,0.044
2.560E-06,0.052
2.570E-06,0.024
2.580E-06,0.000
2.590E-06,-0.028
2.600E-06,-0.032
2.610E-06,-0.012
2.620E-06,0.012
2.630E-06,0.044
2.640E-06,0.040
2.650E-06,0.028
2.660E-06,0.008
2.670E-06,-0.020
2.680E-06,-0.020
2.690E-06,-0.008
2.700E-06,0.008
2.710E-06,0.028
2.720E-06,0.040
2.730E-06,0.040
2.740E-06,0.016
2.750E-06,0.000
2.760E-06,-0.004
2.770E-06,-0.004
2.780E-06,0.016
2.790E-06,0.032
2.800E-06,0.040
2.810E-06,0.032
2.820E-06,0.032
2.830E-06,0.028
2.840E-06,0.032
2.850E-06,0.036
2.860E-06,0.048
2.870E-06,0.072
2.880E-06,0.104
2.890E-06,0.128
2.900E-06,0.124
2.910E-06,0.076
2.920E-06,0.008
2.930E-06,-0.056
2.940E-06,-0.024
2.950E-06,0.076
2.960E-06,0.148
2.970E-06,0.108
2.980E-06,0.064
2.990E-06,-0.008
3.000E-06,-0.028
3.010E-06,0.020
3.020E-06,0.088
3.030E-06,0.176
3.040E-06,0.148
3.050E-06,0.016
3.060E-06,-0.104
3.070E-06,-0.188
3.080E-06,-0.104
3.090E-06,0.060
3.100E-06,-0.088
3.110E-06,-0.348
3.120E-06,-0.512
3.130E-06,-0.512
3.140E-06,-0.288
3.150E-06,0.160
3.160E-06,0.388
3.170E-06,0.388
3.180E-06,0.184
3.190E-06,-0.136
3.200E-06,-0.320
3.210E-06,-0.264
3.220E-06,-0.040
3.230E-06,0.180
3.240E-06,0.224
3.250E-06,0.108
3.260E-06,-0.024
3.270E-06,-0.120
