mediciones/5-27/-35/WaveData50107.csv

#timebase=2000000(ps)
,#voltbase=1000000(mv/100)
#size=4000
-8.400E-06,0.000
-8.390E-06,0.000
-8.380E-06,-0.160
-8.370E-06,-0.160
-8.360E-06,-0.120
-8.350E-06,-0.160
-8.340E-06,-0.080
-8.330E-06,-0.160
-8.320E-06,-0.120
-8.310E-06,-0.200
-8.300E-06,-0.240
-8.290E-06,-0.240
-8.280E-06,-0.280
-8.270E-06,-0.200
-8.260E-06,-0.360
-8.250E-06,-0.160
-8.240E-06,-0.320
-8.230E-06,-0.400
-8.220E-06,-0.120
-8.210E-06,-0.240
-8.200E-06,-0.160
-8.190E-06,0.120
-8.180E-06,-0.080
-8.170E-06,0.080
-8.160E-06,0.040
-8.150E-06,0.120
-8.140E-06,0.320
-8.130E-06,0.240
-8.120E-06,0.400
-8.110E-06,0.440
-8.100E-06,0.360
-8.090E-06,0.360
-8.080E-06,0.240
-8.070E-06,0.320
-8.060E-06,0.320
-8.050E-06,0.280
-8.040E-06,0.240
-8.030E-06,0.160
-8.020E-06,0.080
-8.010E-06,0.120
-8.000E-06,0.040
-7.990E-06,0.040
-7.980E-06,0.040
-7.970E-06,0.000
-7.960E-06,-0.040
-7.950E-06,-0.040
-7.940E-06,-0.080
-7.930E-06,-0.120
-7.920E-06,-0.160
-7.910E-06,-0.120
-7.900E-06,-0.120
-7.890E-06,-0.160
-7.880E-06,-0.200
-7.870E-06,-0.200
-7.860E-06,-0.160
-7.850E-06,-0.200
-7.840E-06,-0.160
-7.830E-06,-0.200
-7.820E-06,-0.120
-7.810E-06,0.000
-7.800E-06,-0.080
-7.790E-06,-0.120
-7.780E-06,-0.080
-7.770E-06,-0.080
-7.760E-06,-0.040
-7.750E-06,-0.040
-7.740E-06,-0.120
-7.730E-06,-0.080
-7.720E-06,-0.080
-7.710E-06,0.040
-7.700E-06,0.120
-7.690E-06,0.160
-7.680E-06,0.160
-7.670E-06,0.160
-7.660E-06,0.120
-7.650E-06,0.080
-7.640E-06,0.160
-7.630E-06,0.240
-7.620E-06,0.200
-7.610E-06,0.240
-7.600E-06,0.240
-7.590E-06,0.160
-7.580E-06,0.200
-7.570E-06,0.200
-7.560E-06,0.160
-7.550E-06,0.080
-7.540E-06,0.040
-7.530E-06,0.080
-7.520E-06,0.000
-7.510E-06,0.040
-7.500E-06,0.000
-7.490E-06,-0.040
-7.480E-06,-0.040
-7.470E-06,-0.040
-7.460E-06,-0.080
-7.450E-06,-0.160
-7.440E-06,-0.160
-7.430E-06,-0.040
-7.420E-06,-0.120
-7.410E-06,-0.040
-7.400E-06,-0.040
-7.390E-06,-0.200
-7.380E-06,-0.080
-7.370E-06,-0.200
-7.360E-06,-0.200
-7.350E-06,-0.080
-7.340E-06,-0.160
-7.330E-06,-0.080
-7.320E-06,0.080
-7.310E-06,-0.080
-7.300E-06,0.120
-7.290E-06,0.200
-7.280E-06,0.120
-7.270E-06,0.320
-7.260E-06,0.400
-7.250E-06,0.480
-7.240E-06,0.480
-7.230E-06,0.320
-7.220E-06,0.320
-7.210E-06,0.160
-7.200E-06,0.240
-7.190E-06,0.320
-7.180E-06,0.280
-7.170E-06,0.280
-7.160E-06,0.200
-7.150E-06,0.120
-7.140E-06,0.120
-7.130E-06,0.000
-7.120E-06,0.080
-7.110E-06,0.080
-7.100E-06,0.040
-7.090E-06,-0.040
-7.080E-06,-0.080
-7.070E-06,-0.040
-7.060E-06,-0.160
-7.050E-06,-0.160
-7.040E-06,-0.200
-7.030E-06,-0.320
-7.020E-06,-0.360
-7.010E-06,-0.080
-7.000E-06,-0.560
-6.990E-06,-0.200
-6.980E-06,-0.400
-6.970E-06,-0.440
-6.960E-06,0.000
-6.950E-06,-0.320
-6.940E-06,0.000
-6.930E-06,0.000
-6.920E-06,-0.160
-6.910E-06,0.160
-6.900E-06,0.080
-6.890E-06,0.320
-6.880E-06,0.320
-6.870E-06,0.080
-6.860E-06,0.160
-6.850E-06,0.120
-6.840E-06,0.240
-6.830E-06,0.320
-6.820E-06,0.320
-6.810E-06,0.240
-6.800E-06,0.160
-6.790E-06,0.120
-6.780E-06,0.160
-6.770E-06,0.160
-6.760E-06,0.160
-6.750E-06,0.160
-6.740E-06,0.080
-6.730E-06,0.040
-6.720E-06,-0.040
-6.710E-06,-0.040
-6.700E-06,-0.080
-6.690E-06,-0.040
-6.680E-06,-0.040
-6.670E-06,-0.160
-6.660E-06,-0.120
-6.650E-06,-0.200
-6.640E-06,-0.240
-6.630E-06,-0.120
-6.620E-06,-0.240
-6.610E-06,-0.200
-6.600E-06,-0.120
-6.590E-06,-0.320
-6.580E-06,-0.120
-6.570E-06,-0.360
-6.560E-06,0.040
-6.550E-06,-0.360
-6.540E-06,-0.160
-6.530E-06,-0.040
-6.520E-06,-0.320
-6.510E-06,0.160
-6.500E-06,0.160
-6.490E-06,0.320
-6.480E-06,0.320
-6.470E-06,0.160
-6.460E-06,0.080
-6.450E-06,-0.400
-6.440E-06,-0.040
-6.430E-06,-0.080
-6.420E-06,0.000
-6.410E-06,0.680
-6.400E-06,0.120
-6.390E-06,0.240
-6.380E-06,0.080
-6.370E-06,-0.400
-6.360E-06,0.080
-6.350E-06,0.240
-6.340E-06,0.520
-6.330E-06,0.560
-6.320E-06,0.080
-6.310E-06,-0.120
-6.300E-06,-0.320
-6.290E-06,-0.200
-6.280E-06,0.120
-6.270E-06,0.240
-6.260E-06,0.200
-6.250E-06,0.000
-6.240E-06,-0.160
-6.230E-06,-0.240
-6.220E-06,-0.160
-6.210E-06,-0.040
-6.200E-06,0.000
-6.190E-06,0.040
-6.180E-06,-0.080
-6.170E-06,-0.120
-6.160E-06,-0.160
-6.150E-06,-0.160
-6.140E-06,-0.080
-6.130E-06,-0.120
-6.120E-06,-0.040
-6.110E-06,-0.080
-6.100E-06,-0.160
-6.090E-06,-0.080
-6.080E-06,-0.080
-6.070E-06,-0.080
-6.060E-06,-0.080
-6.050E-06,-0.080
-6.040E-06,-0.200
-6.030E-06,-0.040
-6.020E-06,0.000
-6.010E-06,0.000
-6.000E-06,-0.040
-5.990E-06,0.000
-5.980E-06,-0.040
-5.970E-06,-0.040
-5.960E-06,0.000
-5.950E-06,0.000
-5.940E-06,0.080
-5.930E-06,0.040
-5.920E-06,-0.040
-5.910E-06,-0.040
-5.900E-06,-0.040
-5.890E-06,-0.040
-5.880E-06,-0.040
-5.870E-06,0.000
-5.860E-06,-0.040
-5.850E-06,-0.040
-5.840E-06,0.000
-5.830E-06,-0.040
-5.820E-06,0.000
-5.810E-06,0.000
-5.800E-06,0.080
-5.790E-06,0.160
-5.780E-06,0.200
-5.770E-06,0.080
-5.760E-06,0.200
-5.750E-06,0.160
-5.740E-06,0.160
-5.730E-06,0.240
-5.720E-06,0.320
-5.710E-06,0.240
-5.700E-06,0.240
-5.690E-06,0.320
-5.680E-06,0.200
-5.670E-06,0.320
-5.660E-06,0.440
-5.650E-06,0.360
-5.640E-06,0.440
-5.630E-06,0.360
-5.620E-06,0.240
-5.610E-06,0.200
-5.600E-06,0.080
-5.590E-06,0.120
-5.580E-06,0.120
-5.570E-06,0.240
-5.560E-06,0.280
-5.550E-06,0.480
-5.540E-06,-0.040
-5.530E-06,0.040
-5.520E-06,-0.120
-5.510E-06,-0.320
-5.500E-06,0.360
-5.490E-06,0.440
-5.480E-06,0.600
-5.470E-06,0.480
-5.460E-06,0.000
-5.450E-06,-0.040
-5.440E-06,-0.080
-5.430E-06,0.240
-5.420E-06,0.280
-5.410E-06,0.080
-5.400E-06,0.280
-5.390E-06,-0.320
-5.380E-06,-0.280
-5.370E-06,-0.320
-5.360E-06,-0.360
-5.350E-06,0.040
-5.340E-06,0.000
-5.330E-06,0.160
-5.320E-06,0.200
-5.310E-06,-0.040
-5.300E-06,-0.040
-5.290E-06,-0.160
-5.280E-06,-0.160
-5.270E-06,0.040
-5.260E-06,-0.040
-5.250E-06,-0.040
-5.240E-06,-0.040
-5.230E-06,-0.160
-5.220E-06,-0.120
-5.210E-06,-0.160
-5.200E-06,-0.120
-5.190E-06,-0.080
-5.180E-06,-0.200
-5.170E-06,-0.080
-5.160E-06,0.000
-5.150E-06,-0.160
-5.140E-06,0.000
-5.130E-06,-0.040
-5.120E-06,-0.120
-5.110E-06,0.000
-5.100E-06,0.080
-5.090E-06,0.200
-5.080E-06,0.240
-5.070E-06,0.120
-5.060E-06,0.120
-5.050E-06,0.080
-5.040E-06,0.080
-5.030E-06,0.160
-5.020E-06,0.200
-5.010E-06,0.280
-5.000E-06,0.080
-4.990E-06,0.080
-4.980E-06,0.080
-4.970E-06,0.120
-4.960E-06,0.040
-4.950E-06,0.120
-4.940E-06,0.080
-4.930E-06,0.200
-4.920E-06,0.480
-4.910E-06,0.520
-4.900E-06,0.440
-4.890E-06,0.240
-4.880E-06,-0.040
-4.870E-06,-0.080
-4.860E-06,-0.160
-4.850E-06,0.160
-4.840E-06,0.200
-4.830E-06,-0.200
-4.820E-06,-0.160
-4.810E-06,-0.520
-4.800E-06,-0.520
-4.790E-06,-0.200
-4.780E-06,-0.200
-4.770E-06,0.200
-4.760E-06,0.080
-4.750E-06,-0.080
-4.740E-06,-0.120
-4.730E-06,-0.360
-4.720E-06,-0.200
-4.710E-06,-0.160
-4.700E-06,-0.120
-4.690E-06,-0.120
-4.680E-06,-0.360
-4.670E-06,-0.400
-4.660E-06,-0.240
-4.650E-06,-0.160
-4.640E-06,-0.080
-4.630E-06,0.000
-4.620E-06,-0.080
-4.610E-06,-0.120
-4.600E-06,-0.120
-4.590E-06,-0.080
-4.580E-06,0.000
-4.570E-06,0.040
-4.560E-06,0.080
-4.550E-06,0.080
-4.540E-06,0.040
-4.530E-06,0.040
-4.520E-06,-0.040
-4.510E-06,0.040
-4.500E-06,0.040
-4.490E-06,0.000
-4.480E-06,0.000
-4.470E-06,-0.040
-4.460E-06,-0.040
-4.450E-06,-0.080
-4.440E-06,-0.120
-4.430E-06,-0.160
-4.420E-06,-0.160
-4.410E-06,-0.200
-4.400E-06,-0.240
-4.390E-06,-0.120
-4.380E-06,-0.120
-4.370E-06,-0.160
-4.360E-06,-0.240
-4.350E-06,-0.280
-4.340E-06,-0.200
-4.330E-06,-0.320
-4.320E-06,-0.400
-4.310E-06,-0.320
-4.300E-06,-0.440
-4.290E-06,-0.400
-4.280E-06,-0.280
-4.270E-06,-0.120
-4.260E-06,0.160
-4.250E-06,0.160
-4.240E-06,0.120
-4.230E-06,0.080
-4.220E-06,-0.160
-4.210E-06,0.000
-4.200E-06,0.200
-4.190E-06,0.360
-4.180E-06,0.560
-4.170E-06,0.520
-4.160E-06,0.440
-4.150E-06,0.360
-4.140E-06,0.480
-4.130E-06,0.600
-4.120E-06,0.680
-4.110E-06,0.640
-4.100E-06,0.680
-4.090E-06,0.640
-4.080E-06,0.520
-4.070E-06,0.520
-4.060E-06,0.600
-4.050E-06,0.440
-4.040E-06,0.520
-4.030E-06,0.280
-4.020E-06,0.240
-4.010E-06,0.320
-4.000E-06,0.200
-3.990E-06,0.440
-3.980E-06,0.600
-3.970E-06,0.440
-3.960E-06,0.160
-3.950E-06,0.000
-3.940E-06,-0.360
-3.930E-06,-0.080
-3.920E-06,-0.360
-3.910E-06,0.200
-3.900E-06,-0.040
-3.890E-06,-0.560
-3.880E-06,0.160
-3.870E-06,-1.040
-3.860E-06,-0.400
-3.850E-06,0.080
-3.840E-06,-0.360
-3.830E-06,0.520
-3.820E-06,0.160
-3.810E-06,0.000
-3.800E-06,0.080
-3.790E-06,-0.400
-3.780E-06,-0.160
-3.770E-06,-0.040
-3.760E-06,-0.040
-3.750E-06,0.200
-3.740E-06,0.080
-3.730E-06,-0.040
-3.720E-06,-0.040
-3.710E-06,-0.200
-3.700E-06,-0.160
-3.690E-06,0.040
-3.680E-06,0.040
-3.670E-06,0.040
-3.660E-06,-0.040
-3.650E-06,-0.080
-3.640E-06,-0.120
-3.630E-06,-0.160
-3.620E-06,-0.280
-3.610E-06,-0.240
-3.600E-06,-0.240
-3.590E-06,-0.280
-3.580E-06,-0.240
-3.570E-06,-0.320
-3.560E-06,-0.400
-3.550E-06,-0.440
-3.540E-06,-0.440
-3.530E-06,-0.320
-3.520E-06,-0.280
-3.510E-06,-0.280
-3.500E-06,-0.320
-3.490E-06,-0.320
-3.480E-06,-0.400
-3.470E-06,-0.160
-3.460E-06,-0.240
-3.450E-06,-0.200
-3.440E-06,-0.080
-3.430E-06,-0.240
-3.420E-06,-0.200
-3.410E-06,-0.360
-3.400E-06,-0.640
-3.390E-06,-0.080
-3.380E-06,0.080
-3.370E-06,0.280
-3.360E-06,0.960
-3.350E-06,0.440
-3.340E-06,0.200
-3.330E-06,0.080
-3.320E-06,-0.840
-3.310E-06,-0.120
-3.300E-06,0.040
-3.290E-06,0.080
-3.280E-06,1.080
-3.270E-06,0.520
-3.260E-06,0.600
-3.250E-06,0.400
-3.240E-06,-0.040
-3.230E-06,0.160
-3.220E-06,0.200
-3.210E-06,0.360
-3.200E-06,0.520
-3.190E-06,0.360
-3.180E-06,0.160
-3.170E-06,0.040
-3.160E-06,-0.240
-3.150E-06,-0.200
-3.140E-06,-0.320
-3.130E-06,-0.280
-3.120E-06,-0.520
-3.110E-06,-0.360
-3.100E-06,-0.720
-3.090E-06,-0.920
-3.080E-06,-0.760
-3.070E-06,-1.200
-3.060E-06,-0.840
-3.050E-06,-0.680
-3.040E-06,-0.680
-3.030E-06,-0.400
-3.020E-06,-0.520
-3.010E-06,-0.680
-3.000E-06,-0.520
-2.990E-06,-0.520
-2.980E-06,-0.240
-2.970E-06,-0.040
-2.960E-06,-0.080
-2.950E-06,0.000
-2.940E-06,-0.160
-2.930E-06,-0.200
-2.920E-06,0.040
-2.910E-06,0.040
-2.900E-06,0.160
-2.890E-06,0.000
-2.880E-06,0.280
-2.870E-06,0.040
-2.860E-06,0.000
-2.850E-06,0.320
-2.840E-06,-0.160
-2.830E-06,0.080
-2.820E-06,0.160
-2.810E-06,0.000
-2.800E-06,0.320
-2.790E-06,0.080
-2.780E-06,0.080
-2.770E-06,-0.040
-2.760E-06,-0.160
-2.750E-06,0.040
-2.740E-06,-0.200
-2.730E-06,-0.120
-2.720E-06,0.120
-2.710E-06,-0.520
-2.700E-06,-0.080
-2.690E-06,-0.040
-2.680E-06,-0.160
-2.670E-06,0.480
-2.660E-06,0.160
-2.650E-06,0.360
-2.640E-06,0.240
-2.630E-06,-0.240
-2.620E-06,0.000
-2.610E-06,-0.080
-2.600E-06,0.080
-2.590E-06,0.080
-2.580E-06,-0.160
-2.570E-06,-0.240
-2.560E-06,-0.480
-2.550E-06,-0.520
-2.540E-06,-0.360
-2.530E-06,-0.320
-2.520E-06,-0.280
-2.510E-06,-0.360
-2.500E-06,-0.600
-2.490E-06,-0.520
-2.480E-06,-0.480
-2.470E-06,-0.320
-2.460E-06,-0.240
-2.450E-06,-0.320
-2.440E-06,-0.400
-2.430E-06,-0.520
-2.420E-06,-0.520
-2.410E-06,-0.320
-2.400E-06,-0.280
-2.390E-06,-0.160
-2.380E-06,-0.240
-2.370E-06,-0.360
-2.360E-06,-0.360
-2.350E-06,-0.320
-2.340E-06,-0.240
-2.330E-06,-0.200
-2.320E-06,-0.200
-2.310E-06,-0.160
-2.300E-06,-0.240
-2.290E-06,-0.200
-2.280E-06,-0.160
-2.270E-06,-0.200
-2.260E-06,-0.160
-2.250E-06,-0.200
-2.240E-06,-0.240
-2.230E-06,-0.320
-2.220E-06,-0.240
-2.210E-06,-0.240
-2.200E-06,-0.160
-2.190E-06,-0.120
-2.180E-06,-0.160
-2.170E-06,-0.160
-2.160E-06,-0.200
-2.150E-06,-0.160
-2.140E-06,-0.160
-2.130E-06,-0.080
-2.120E-06,-0.120
-2.110E-06,-0.120
-2.100E-06,-0.160
-2.090E-06,-0.200
-2.080E-06,-0.160
-2.070E-06,-0.120
-2.060E-06,-0.160
-2.050E-06,-0.080
-2.040E-06,-0.120
-2.030E-06,-0.200
-2.020E-06,-0.160
-2.010E-06,-0.160
-2.000E-06,-0.160
-1.990E-06,-0.120
-1.980E-06,-0.080
-1.970E-06,-0.160
-1.960E-06,-0.200
-1.950E-06,-0.200
-1.940E-06,-0.280
-1.930E-06,-0.240
-1.920E-06,-0.240
-1.910E-06,-0.240
-1.900E-06,-0.200
-1.890E-06,-0.240
-1.880E-06,-0.280
-1.870E-06,-0.280
-1.860E-06,-0.200
-1.850E-06,-0.240
-1.840E-06,-0.200
-1.830E-06,-0.120
-1.820E-06,-0.120
-1.810E-06,-0.120
-1.800E-06,-0.080
-1.790E-06,-0.080
-1.780E-06,-0.080
-1.770E-06,-0.080
-1.760E-06,-0.280
-1.750E-06,-0.200
-1.740E-06,-0.320
-1.730E-06,-0.400
-1.720E-06,-0.640
-1.710E-06,-0.520
-1.700E-06,-0.600
-1.690E-06,-0.560
-1.680E-06,0.000
-1.670E-06,0.080
-1.660E-06,0.360
-1.650E-06,0.400
-1.640E-06,0.000
-1.630E-06,0.000
-1.620E-06,-0.120
-1.610E-06,-0.040
-1.600E-06,0.240
-1.590E-06,0.320
-1.580E-06,0.400
-1.570E-06,0.320
-1.560E-06,0.080
-1.550E-06,-0.040
-1.540E-06,-0.040
-1.530E-06,0.080
-1.520E-06,0.160
-1.510E-06,0.120
-1.500E-06,0.080
-1.490E-06,0.000
-1.480E-06,-0.080
-1.470E-06,-0.320
-1.460E-06,-0.360
-1.450E-06,-0.480
-1.440E-06,-0.440
-1.430E-06,-0.440
-1.420E-06,-0.440
-1.410E-06,-0.440
-1.400E-06,-0.480
-1.390E-06,-0.520
-1.380E-06,-0.600
-1.370E-06,-0.640
-1.360E-06,-0.640
-1.350E-06,-0.520
-1.340E-06,-0.520
-1.330E-06,-0.440
-1.320E-06,-0.400
-1.310E-06,-0.440
-1.300E-06,-0.360
-1.290E-06,-0.400
-1.280E-06,-0.360
-1.270E-06,-0.200
-1.260E-06,-0.160
-1.250E-06,-0.200
-1.240E-06,-0.240
-1.230E-06,-0.320
-1.220E-06,-0.280
-1.210E-06,-0.360
-1.200E-06,-0.360
-1.190E-06,-0.320
-1.180E-06,-0.280
-1.170E-06,-0.280
-1.160E-06,-0.240
-1.150E-06,-0.280
-1.140E-06,-0.280
-1.130E-06,-0.240
-1.120E-06,-0.160
-1.110E-06,-0.160
-1.100E-06,-0.160
-1.090E-06,-0.200
-1.080E-06,-0.160
-1.070E-06,-0.080
-1.060E-06,-0.080
-1.050E-06,-0.080
-1.040E-06,-0.040
-1.030E-06,0.000
-1.020E-06,0.000
-1.010E-06,0.160
-1.000E-06,0.200
-9.900E-07,0.320
-9.800E-07,0.400
-9.700E-07,0.320
-9.600E-07,0.440
-9.500E-07,0.080
-9.400E-07,0.400
-9.300E-07,0.360
-9.200E-07,0.280
-9.100E-07,0.440
-9.000E-07,-0.160
-8.900E-07,0.200
-8.800E-07,0.000
-8.700E-07,0.160
-8.600E-07,0.680
-8.500E-07,-0.040
-8.400E-07,-0.040
-8.300E-07,-0.160
-8.200E-07,-0.400
-8.100E-07,-0.320
-8.000E-07,0.680
-7.900E-07,0.520
-7.800E-07,0.680
-7.700E-07,0.920
-7.600E-07,0.000
-7.500E-07,0.120
-7.400E-07,-0.040
-7.300E-07,-0.040
-7.200E-07,0.560
-7.100E-07,0.680
-7.000E-07,0.680
-6.900E-07,0.440
-6.800E-07,-0.040
-6.700E-07,-0.120
-6.600E-07,-0.240
-6.500E-07,-0.160
-6.400E-07,0.080
-6.300E-07,0.040
-6.200E-07,-0.040
-6.100E-07,-0.240
-6.000E-07,-0.560
-5.900E-07,-0.680
-5.800E-07,-0.880
-5.700E-07,-0.960
-5.600E-07,-0.880
-5.500E-07,-0.880
-5.400E-07,-0.840
-5.300E-07,-0.760
-5.200E-07,-0.920
-5.100E-07,-0.920
-5.000E-07,-1.000
-4.900E-07,-1.040
-4.800E-07,-0.880
-4.700E-07,-0.680
-4.600E-07,-0.440
-4.500E-07,-0.280
-4.400E-07,-0.200
-4.300E-07,-0.240
-4.200E-07,-0.240
-4.100E-07,-0.080
-4.000E-07,-0.040
-3.900E-07,0.200
-3.800E-07,0.320
-3.700E-07,0.360
-3.600E-07,0.320
-3.500E-07,0.200
-3.400E-07,0.120
-3.300E-07,0.160
-3.200E-07,0.200
-3.100E-07,0.200
-3.000E-07,0.240
-2.900E-07,0.200
-2.800E-07,0.200
-2.700E-07,0.120
-2.600E-07,0.080
-2.500E-07,0.120
-2.400E-07,0.160
-2.300E-07,0.200
-2.200E-07,0.280
-2.100E-07,0.280
-2.000E-07,0.320
-1.900E-07,0.320
-1.800E-07,0.280
-1.700E-07,0.120
-1.600E-07,0.040
-1.500E-07,-0.160
-1.400E-07,-0.240
-1.300E-07,-0.160
-1.200E-07,-0.640
-1.100E-07,0.040
-1.000E-07,0.320
-9.000E-08,-1.240
-8.000E-08,0.000
-7.000E-08,-1.000
-6.000E-08,-1.280
-5.000E-08,0.680
-4.000E-08,-0.400
-3.000E-08,0.320
-2.000E-08,-0.880
-1.000E-08,-2.120
0.000E+00,-1.440
1.000E-08,-1.320
2.000E-08,0.480
3.000E-08,1.400
4.000E-08,0.920
5.000E-08,0.440
6.000E-08,-0.800
7.000E-08,-1.000
8.000E-08,-0.440
9.000E-08,0.320
1.000E-07,0.880
1.100E-07,1.000
1.200E-07,0.320
1.300E-07,-0.200
1.400E-07,-0.560
1.500E-07,-0.720
1.600E-07,-0.480
1.700E-07,-0.320
1.800E-07,-0.360
1.900E-07,-0.320
2.000E-07,-0.400
2.100E-07,-0.480
2.200E-07,-0.560
2.300E-07,-0.760
2.400E-07,-0.960
2.500E-07,-0.880
2.600E-07,-0.800
2.700E-07,-0.600
2.800E-07,-0.280
2.900E-07,-0.120
3.000E-07,-0.160
3.100E-07,-0.320
3.200E-07,-0.240
3.300E-07,0.040
3.400E-07,-0.040
3.500E-07,-0.680
3.600E-07,-0.680
3.700E-07,-1.200
3.800E-07,-1.240
3.900E-07,0.000
4.000E-07,0.360
4.100E-07,0.640
4.200E-07,0.440
4.300E-07,-0.400
4.400E-07,-0.520
4.500E-07,-0.160
4.600E-07,0.160
4.700E-07,0.800
4.800E-07,0.720
4.900E-07,0.600
5.000E-07,0.200
5.100E-07,0.080
5.200E-07,0.160
5.300E-07,0.440
5.400E-07,0.560
5.500E-07,0.680
5.600E-07,0.600
5.700E-07,0.080
5.800E-07,-0.040
5.900E-07,-0.240
6.000E-07,-0.320
6.100E-07,-0.120
6.200E-07,-0.280
6.300E-07,-0.280
6.400E-07,-0.520
6.500E-07,-0.840
6.600E-07,-0.920
6.700E-07,-1.000
6.800E-07,-0.920
6.900E-07,-0.760
7.000E-07,-0.760
7.100E-07,-0.840
7.200E-07,-0.800
7.300E-07,-0.920
7.400E-07,-0.880
7.500E-07,-0.760
7.600E-07,-0.680
7.700E-07,-0.520
7.800E-07,-0.480
7.900E-07,-0.440
8.000E-07,-0.480
8.100E-07,-0.600
8.200E-07,-0.760
8.300E-07,-0.840
8.400E-07,-0.880
8.500E-07,-0.920
8.600E-07,-0.760
8.700E-07,-0.760
8.800E-07,-0.640
8.900E-07,-0.520
9.000E-07,-0.560
9.100E-07,-0.320
9.200E-07,-0.320
9.300E-07,0.000
9.400E-07,0.240
9.500E-07,0.320
9.600E-07,0.480
9.700E-07,0.640
9.800E-07,0.560
9.900E-07,0.720
1.000E-06,0.560
1.010E-06,0.520
1.020E-06,0.640
1.030E-06,0.680
1.040E-06,0.840
1.050E-06,1.200
1.060E-06,1.000
1.070E-06,0.840
1.080E-06,0.480
1.090E-06,0.400
1.100E-06,0.720
1.110E-06,1.160
1.120E-06,0.960
1.130E-06,1.240
1.140E-06,0.600
1.150E-06,0.600
1.160E-06,0.600
1.170E-06,0.560
1.180E-06,1.400
1.190E-06,1.280
1.200E-06,0.360
1.210E-06,0.080
1.220E-06,-1.160
1.230E-06,-1.520
1.240E-06,-0.720
1.250E-06,-0.240
1.260E-06,0.680
1.270E-06,0.840
1.280E-06,0.240
1.290E-06,-0.600
1.300E-06,-0.800
1.310E-06,-0.680
1.320E-06,-0.040
1.330E-06,0.800
1.340E-06,1.120
1.350E-06,1.320
1.360E-06,1.160
1.370E-06,0.760
1.380E-06,0.640
1.390E-06,0.560
1.400E-06,0.800
1.410E-06,0.960
1.420E-06,1.000
1.430E-06,0.880
1.440E-06,0.600
1.450E-06,0.200
1.460E-06,-0.120
1.470E-06,-0.320
1.480E-06,-0.440
1.490E-06,-0.440
1.500E-06,-0.520
1.510E-06,-0.600
1.520E-06,-0.800
1.530E-06,-1.080
1.540E-06,-1.120
1.550E-06,-1.280
1.560E-06,-1.280
1.570E-06,-1.160
1.580E-06,-1.160
1.590E-06,-1.080
1.600E-06,-1.120
1.610E-06,-1.200
1.620E-06,-1.120
1.630E-06,-0.960
1.640E-06,-0.840
1.650E-06,-0.680
1.660E-06,-0.560
1.670E-06,-0.560
1.680E-06,-0.560
1.690E-06,-0.640
1.700E-06,-0.600
1.710E-06,-0.560
1.720E-06,-0.440
1.730E-06,-0.440
1.740E-06,-0.320
1.750E-06,-0.360
1.760E-06,-0.360
1.770E-06,-0.360
1.780E-06,-0.360
1.790E-06,-0.320
1.800E-06,-0.280
1.810E-06,-0.360
1.820E-06,-0.320
1.830E-06,-0.360
1.840E-06,-0.400
1.850E-06,-0.320
1.860E-06,-0.280
1.870E-06,-0.120
1.880E-06,-0.080
1.890E-06,-0.160
1.900E-06,-0.160
1.910E-06,-0.120
1.920E-06,-0.040
1.930E-06,0.000
1.940E-06,0.040
1.950E-06,0.000
1.960E-06,-0.080
1.970E-06,-0.160
1.980E-06,-0.280
1.990E-06,-0.280
2.000E-06,-0.240
2.010E-06,-0.280
2.020E-06,-0.320
2.030E-06,-0.280
2.040E-06,-0.400
2.050E-06,-0.400
2.060E-06,-0.480
2.070E-06,-0.360
2.080E-06,-0.320
2.090E-06,-1.000
2.100E-06,-0.640
2.110E-06,-0.800
2.120E-06,-1.400
2.130E-06,-1.040
2.140E-06,-1.360
2.150E-06,-1.840
2.160E-06,-1.040
2.170E-06,-0.560
2.180E-06,-0.040
2.190E-06,0.280
2.200E-06,0.320
2.210E-06,-0.320
2.220E-06,-1.360
2.230E-06,-1.480
2.240E-06,-2.040
2.250E-06,-1.360
2.260E-06,-0.360
2.270E-06,0.480
2.280E-06,1.320
2.290E-06,1.280
2.300E-06,0.320
2.310E-06,-0.800
2.320E-06,-0.800
2.330E-06,-0.800
2.340E-06,0.560
2.350E-06,1.360
2.360E-06,1.720
2.370E-06,2.000
2.380E-06,1.160
2.390E-06,0.680
2.400E-06,0.480
2.410E-06,0.400
2.420E-06,0.680
2.430E-06,0.960
2.440E-06,1.080
2.450E-06,0.880
2.460E-06,0.480
2.470E-06,0.120
2.480E-06,-0.480
2.490E-06,-0.720
2.500E-06,-0.760
2.510E-06,-0.760
2.520E-06,-0.680
2.530E-06,-0.800
2.540E-06,-1.000
2.550E-06,-1.240
2.560E-06,-1.480
2.570E-06,-1.480
2.580E-06,-1.480
2.590E-06,-1.560
2.600E-06,-1.600
2.610E-06,-1.640
2.620E-06,-1.680
2.630E-06,-1.720
2.640E-06,-1.560
2.650E-06,-1.560
2.660E-06,-1.360
2.670E-06,-1.200
2.680E-06,-1.120
2.690E-06,-1.120
2.700E-06,-1.120
2.710E-06,-1.120
2.720E-06,-1.040
2.730E-06,-1.000
2.740E-06,-0.880
2.750E-06,-0.880
2.760E-06,-0.760
2.770E-06,-0.720
2.780E-06,-0.680
2.790E-06,-0.680
2.800E-06,-0.680
2.810E-06,-0.600
2.820E-06,-0.520
2.830E-06,-0.480
2.840E-06,-0.400
2.850E-06,-0.400
2.860E-06,-0.400
2.870E-06,-0.360
2.880E-06,-0.360
2.890E-06,-0.400
2.900E-06,-0.320
2.910E-06,-0.320
2.920E-06,-0.320
2.930E-06,-0.080
2.940E-06,-0.320
2.950E-06,-0.280
2.960E-06,-0.520
2.970E-06,-0.840
2.980E-06,-0.880
2.990E-06,-0.680
3.000E-06,-0.640
3.010E-06,-0.800
3.020E-06,-0.960
3.030E-06,-1.360
3.040E-06,-1.280
3.050E-06,-1.280
3.060E-06,-0.600
3.070E-06,-0.440
3.080E-06,-0.760
3.090E-06,-0.640
