mediciones/6-26/15.0/WaveData59125.csv

#timebase=2000000(ps)
,#voltbase=100000(mv/100)
#size=4000
-8.150E-06,-0.004
-8.140E-06,0.000
-8.130E-06,0.000
-8.120E-06,0.000
-8.110E-06,0.000
-8.100E-06,-0.004
-8.090E-06,0.000
-8.080E-06,0.004
-8.070E-06,0.008
-8.060E-06,0.004
-8.050E-06,0.004
-8.040E-06,-0.004
-8.030E-06,-0.004
-8.020E-06,0.000
-8.010E-06,0.004
-8.000E-06,0.000
-7.990E-06,-0.004
-7.980E-06,0.000
-7.970E-06,0.000
-7.960E-06,0.000
-7.950E-06,0.000
-7.940E-06,0.000
-7.930E-06,-0.004
-7.920E-06,0.004
-7.910E-06,-0.004
-7.900E-06,0.000
-7.890E-06,0.004
-7.880E-06,0.004
-7.870E-06,0.000
-7.860E-06,0.000
-7.850E-06,0.004
-7.840E-06,0.004
-7.830E-06,0.000
-7.820E-06,-0.004
-7.810E-06,-0.004
-7.800E-06,0.000
-7.790E-06,0.000
-7.780E-06,0.000
-7.770E-06,0.000
-7.760E-06,0.004
-7.750E-06,0.000
-7.740E-06,0.000
-7.730E-06,0.000
-7.720E-06,0.000
-7.710E-06,0.000
-7.700E-06,0.000
-7.690E-06,0.004
-7.680E-06,0.008
-7.670E-06,-0.004
-7.660E-06,-0.004
-7.650E-06,0.004
-7.640E-06,-0.004
-7.630E-06,0.000
-7.620E-06,0.004
-7.610E-06,0.004
-7.600E-06,0.004
-7.590E-06,-0.004
-7.580E-06,0.000
-7.570E-06,0.000
-7.560E-06,0.000
-7.550E-06,0.000
-7.540E-06,0.000
-7.530E-06,0.000
-7.520E-06,0.000
-7.510E-06,-0.004
-7.500E-06,0.000
-7.490E-06,0.000
-7.480E-06,0.000
-7.470E-06,0.008
-7.460E-06,0.004
-7.450E-06,0.004
-7.440E-06,-0.004
-7.430E-06,-0.004
-7.420E-06,0.004
-7.410E-06,0.000
-7.400E-06,-0.004
-7.390E-06,0.004
-7.380E-06,0.004
-7.370E-06,0.000
-7.360E-06,0.004
-7.350E-06,0.000
-7.340E-06,0.008
-7.330E-06,0.008
-7.320E-06,0.000
-7.310E-06,-0.004
-7.300E-06,0.000
-7.290E-06,0.000
-7.280E-06,0.000
-7.270E-06,0.000
-7.260E-06,0.004
-7.250E-06,0.000
-7.240E-06,0.004
-7.230E-06,0.004
-7.220E-06,0.004
-7.210E-06,0.004
-7.200E-06,0.004
-7.190E-06,0.000
-7.180E-06,0.000
-7.170E-06,0.004
-7.160E-06,0.000
-7.150E-06,0.000
-7.140E-06,0.004
-7.130E-06,0.000
-7.120E-06,0.000
-7.110E-06,0.004
-7.100E-06,0.000
-7.090E-06,0.004
-7.080E-06,0.000
-7.070E-06,0.000
-7.060E-06,0.000
-7.050E-06,0.000
-7.040E-06,0.000
-7.030E-06,0.004
-7.020E-06,0.000
-7.010E-06,-0.004
-7.000E-06,0.000
-6.990E-06,0.000
-6.980E-06,0.000
-6.970E-06,0.000
-6.960E-06,0.000
-6.950E-06,-0.004
-6.940E-06,0.000
-6.930E-06,0.004
-6.920E-06,0.000
-6.910E-06,-0.004
-6.900E-06,0.000
-6.890E-06,0.004
-6.880E-06,0.000
-6.870E-06,0.004
-6.860E-06,0.000
-6.850E-06,0.004
-6.840E-06,0.000
-6.830E-06,0.004
-6.820E-06,0.004
-6.810E-06,0.000
-6.800E-06,0.004
-6.790E-06,0.008
-6.780E-06,0.008
-6.770E-06,0.008
-6.760E-06,0.000
-6.750E-06,0.000
-6.740E-06,0.004
-6.730E-06,0.000
-6.720E-06,0.004
-6.710E-06,0.000
-6.700E-06,0.000
-6.690E-06,0.000
-6.680E-06,0.004
-6.670E-06,0.004
-6.660E-06,0.004
-6.650E-06,0.008
-6.640E-06,0.000
-6.630E-06,0.000
-6.620E-06,0.000
-6.610E-06,0.004
-6.600E-06,0.000
-6.590E-06,0.004
-6.580E-06,0.008
-6.570E-06,0.008
-6.560E-06,0.004
-6.550E-06,-0.004
-6.540E-06,0.004
-6.530E-06,0.000
-6.520E-06,0.000
-6.510E-06,0.000
-6.500E-06,0.000
-6.490E-06,0.000
-6.480E-06,-0.004
-6.470E-06,0.000
-6.460E-06,-0.004
-6.450E-06,0.000
-6.440E-06,0.004
-6.430E-06,0.008
-6.420E-06,-0.004
-6.410E-06,0.000
-6.400E-06,0.000
-6.390E-06,0.008
-6.380E-06,0.000
-6.370E-06,0.000
-6.360E-06,0.000
-6.350E-06,0.000
-6.340E-06,-0.004
-6.330E-06,0.000
-6.320E-06,0.000
-6.310E-06,0.000
-6.300E-06,0.000
-6.290E-06,0.000
-6.280E-06,0.000
-6.270E-06,0.008
-6.260E-06,-0.004
-6.250E-06,-0.004
-6.240E-06,0.000
-6.230E-06,0.004
-6.220E-06,0.004
-6.210E-06,0.004
-6.200E-06,-0.004
-6.190E-06,0.004
-6.180E-06,0.000
-6.170E-06,0.000
-6.160E-06,0.000
-6.150E-06,0.004
-6.140E-06,0.000
-6.130E-06,0.000
-6.120E-06,0.004
-6.110E-06,-0.004
-6.100E-06,-0.004
-6.090E-06,0.004
-6.080E-06,0.004
-6.070E-06,-0.004
-6.060E-06,0.000
-6.050E-06,0.000
-6.040E-06,0.000
-6.030E-06,-0.004
-6.020E-06,-0.004
-6.010E-06,0.004
-6.000E-06,0.000
-5.990E-06,-0.004
-5.980E-06,0.004
-5.970E-06,0.004
-5.960E-06,0.004
-5.950E-06,-0.004
-5.940E-06,0.000
-5.930E-06,0.000
-5.920E-06,0.000
-5.910E-06,0.000
-5.900E-06,0.000
-5.890E-06,0.000
-5.880E-06,0.000
-5.870E-06,0.000
-5.860E-06,0.000
-5.850E-06,0.000
-5.840E-06,0.000
-5.830E-06,0.004
-5.820E-06,0.000
-5.810E-06,0.000
-5.800E-06,0.000
-5.790E-06,0.000
-5.780E-06,0.000
-5.770E-06,0.004
-5.760E-06,0.000
-5.750E-06,0.000
-5.740E-06,0.000
-5.730E-06,0.000
-5.720E-06,0.000
-5.710E-06,-0.004
-5.700E-06,-0.004
-5.690E-06,0.000
-5.680E-06,0.000
-5.670E-06,-0.004
-5.660E-06,0.000
-5.650E-06,0.000
-5.640E-06,0.000
-5.630E-06,0.000
-5.620E-06,0.000
-5.610E-06,-0.004
-5.600E-06,-0.004
-5.590E-06,0.000
-5.580E-06,-0.004
-5.570E-06,0.000
-5.560E-06,0.000
-5.550E-06,0.000
-5.540E-06,0.000
-5.530E-06,0.000
-5.520E-06,0.000
-5.510E-06,0.000
-5.500E-06,-0.004
-5.490E-06,0.000
-5.480E-06,-0.004
-5.470E-06,0.000
-5.460E-06,0.000
-5.450E-06,0.000
-5.440E-06,0.000
-5.430E-06,-0.004
-5.420E-06,0.000
-5.410E-06,-0.004
-5.400E-06,0.000
-5.390E-06,0.000
-5.380E-06,0.000
-5.370E-06,-0.004
-5.360E-06,0.004
-5.350E-06,0.000
-5.340E-06,0.004
-5.330E-06,0.000
-5.320E-06,0.000
-5.310E-06,0.000
-5.300E-06,0.000
-5.290E-06,0.000
-5.280E-06,0.000
-5.270E-06,-0.004
-5.260E-06,0.004
-5.250E-06,-0.004
-5.240E-06,-0.004
-5.230E-06,0.000
-5.220E-06,0.004
-5.210E-06,0.000
-5.200E-06,-0.004
-5.190E-06,0.000
-5.180E-06,0.000
-5.170E-06,0.000
-5.160E-06,0.000
-5.150E-06,0.004
-5.140E-06,-0.004
-5.130E-06,0.000
-5.120E-06,0.000
-5.110E-06,0.000
-5.100E-06,0.004
-5.090E-06,0.004
-5.080E-06,0.004
-5.070E-06,-0.004
-5.060E-06,-0.004
-5.050E-06,0.000
-5.040E-06,-0.004
-5.030E-06,0.000
-5.020E-06,0.004
-5.010E-06,0.008
-5.000E-06,0.004
-4.990E-06,0.004
-4.980E-06,0.004
-4.970E-06,0.004
-4.960E-06,-0.004
-4.950E-06,0.004
-4.940E-06,0.004
-4.930E-06,0.004
-4.920E-06,0.000
-4.910E-06,-0.004
-4.900E-06,0.000
-4.890E-06,0.004
-4.880E-06,0.000
-4.870E-06,0.004
-4.860E-06,0.000
-4.850E-06,0.000
-4.840E-06,0.000
-4.830E-06,-0.004
-4.820E-06,0.000
-4.810E-06,0.000
-4.800E-06,0.000
-4.790E-06,0.000
-4.780E-06,0.000
-4.770E-06,0.000
-4.760E-06,0.000
-4.750E-06,-0.004
-4.740E-06,0.004
-4.730E-06,-0.004
-4.720E-06,-0.004
-4.710E-06,0.000
-4.700E-06,0.000
-4.690E-06,0.000
-4.680E-06,0.000
-4.670E-06,0.000
-4.660E-06,-0.004
-4.650E-06,0.000
-4.640E-06,0.000
-4.630E-06,0.000
-4.620E-06,-0.004
-4.610E-06,0.000
-4.600E-06,0.000
-4.590E-06,0.000
-4.580E-06,-0.004
-4.570E-06,0.004
-4.560E-06,0.000
-4.550E-06,0.004
-4.540E-06,0.008
-4.530E-06,-0.004
-4.520E-06,-0.004
-4.510E-06,0.000
-4.500E-06,0.004
-4.490E-06,-0.004
-4.480E-06,0.000
-4.470E-06,0.004
-4.460E-06,0.008
-4.450E-06,-0.004
-4.440E-06,0.000
-4.430E-06,0.000
-4.420E-06,0.000
-4.410E-06,-0.004
-4.400E-06,0.004
-4.390E-06,0.004
-4.380E-06,0.008
-4.370E-06,0.008
-4.360E-06,0.008
-4.350E-06,0.008
-4.340E-06,0.008
-4.330E-06,0.000
-4.320E-06,-0.004
-4.310E-06,0.000
-4.300E-06,0.004
-4.290E-06,-0.004
-4.280E-06,-0.020
-4.270E-06,-0.008
-4.260E-06,0.076
-4.250E-06,0.388
-4.240E-06,0.540
-4.230E-06,0.540
-4.220E-06,0.544
-4.210E-06,0.544
-4.200E-06,0.540
-4.190E-06,0.152
-4.180E-06,-0.524
-4.170E-06,-0.516
-4.160E-06,-0.520
-4.150E-06,-0.520
-4.140E-06,-0.524
-4.130E-06,-0.520
-4.120E-06,-0.524
-4.110E-06,-0.524
-4.100E-06,-0.524
-4.090E-06,-0.516
-4.080E-06,-0.324
-4.070E-06,0.244
-4.060E-06,0.376
-4.050E-06,0.256
-4.040E-06,0.196
-4.030E-06,0.264
-4.020E-06,0.384
-4.010E-06,0.540
-4.000E-06,0.544
-3.990E-06,0.540
-3.980E-06,0.540
-3.970E-06,0.512
-3.960E-06,0.536
-3.950E-06,0.540
-3.940E-06,0.544
-3.930E-06,0.540
-3.920E-06,0.540
-3.910E-06,0.284
-3.900E-06,-0.004
-3.890E-06,-0.260
-3.880E-06,-0.416
-3.870E-06,-0.448
-3.860E-06,-0.416
-3.850E-06,-0.320
-3.840E-06,-0.200
-3.830E-06,-0.060
-3.820E-06,0.100
-3.810E-06,0.284
-3.800E-06,0.488
-3.790E-06,0.540
-3.780E-06,0.540
-3.770E-06,0.540
-3.760E-06,0.540
-3.750E-06,0.540
-3.740E-06,0.472
-3.730E-06,0.264
-3.720E-06,0.080
-3.710E-06,-0.120
-3.700E-06,-0.264
-3.690E-06,-0.404
-3.680E-06,-0.520
-3.670E-06,-0.524
-3.660E-06,-0.516
-3.650E-06,-0.520
-3.640E-06,-0.524
-3.630E-06,-0.520
-3.620E-06,-0.516
-3.610E-06,-0.516
-3.600E-06,-0.520
-3.590E-06,-0.524
-3.580E-06,-0.348
-3.570E-06,-0.164
-3.560E-06,0.028
-3.550E-06,0.220
-3.540E-06,0.404
-3.530E-06,0.540
-3.520E-06,0.544
-3.510E-06,0.540
-3.500E-06,0.544
-3.490E-06,0.508
-3.480E-06,0.404
-3.470E-06,0.300
-3.460E-06,0.200
-3.450E-06,0.100
-3.440E-06,-0.008
-3.430E-06,-0.108
-3.420E-06,-0.168
-3.410E-06,-0.188
-3.400E-06,-0.172
-3.390E-06,-0.156
-3.380E-06,-0.148
-3.370E-06,-0.168
-3.360E-06,-0.204
-3.350E-06,-0.208
-3.340E-06,-0.184
-3.330E-06,-0.120
-3.320E-06,-0.028
-3.310E-06,0.052
-3.300E-06,0.116
-3.290E-06,0.176
-3.280E-06,0.232
-3.270E-06,0.280
-3.260E-06,0.312
-3.250E-06,0.316
-3.240E-06,0.284
-3.230E-06,0.212
-3.220E-06,0.144
-3.210E-06,0.080
-3.200E-06,0.016
-3.190E-06,-0.028
-3.180E-06,-0.056
-3.170E-06,-0.084
-3.160E-06,-0.100
-3.150E-06,-0.108
-3.140E-06,-0.112
-3.130E-06,-0.128
-3.120E-06,-0.116
-3.110E-06,-0.112
-3.100E-06,-0.096
-3.090E-06,-0.080
-3.080E-06,-0.084
-3.070E-06,-0.084
-3.060E-06,-0.084
-3.050E-06,-0.092
-3.040E-06,-0.076
-3.030E-06,-0.064
-3.020E-06,-0.036
-3.010E-06,-0.020
-3.000E-06,-0.020
-2.990E-06,-0.024
-2.980E-06,-0.020
-2.970E-06,-0.012
-2.960E-06,0.020
-2.950E-06,0.060
-2.940E-06,0.080
-2.930E-06,0.100
-2.920E-06,0.100
-2.910E-06,0.088
-2.900E-06,0.088
-2.890E-06,0.080
-2.880E-06,0.084
-2.870E-06,0.068
-2.860E-06,0.072
-2.850E-06,0.068
-2.840E-06,0.072
-2.830E-06,0.068
-2.820E-06,0.044
-2.810E-06,0.036
-2.800E-06,0.036
-2.790E-06,0.068
-2.780E-06,0.080
-2.770E-06,0.116
-2.760E-06,0.076
-2.750E-06,0.092
-2.740E-06,0.148
-2.730E-06,0.096
-2.720E-06,0.140
-2.710E-06,0.096
-2.700E-06,0.080
-2.690E-06,0.104
-2.680E-06,0.176
-2.670E-06,0.148
-2.660E-06,0.152
-2.650E-06,0.092
-2.640E-06,0.036
-2.630E-06,0.036
-2.620E-06,0.032
-2.610E-06,0.032
-2.600E-06,0.036
-2.590E-06,-0.056
-2.580E-06,-0.076
-2.570E-06,-0.144
-2.560E-06,-0.176
-2.550E-06,-0.108
-2.540E-06,-0.140
-2.530E-06,-0.008
-2.520E-06,-0.220
-2.510E-06,0.044
-2.500E-06,-0.180
-2.490E-06,0.012
-2.480E-06,0.228
-2.470E-06,0.276
-2.460E-06,0.344
-2.450E-06,0.416
-2.440E-06,0.236
-2.430E-06,0.260
-2.420E-06,0.236
-2.410E-06,0.252
-2.400E-06,0.336
-2.390E-06,0.296
-2.380E-06,0.232
-2.370E-06,0.204
-2.360E-06,0.072
-2.350E-06,0.076
-2.340E-06,0.072
-2.330E-06,0.064
-2.320E-06,0.024
-2.310E-06,0.016
-2.300E-06,-0.036
-2.290E-06,-0.048
-2.280E-06,-0.112
-2.270E-06,-0.068
-2.260E-06,0.132
-2.250E-06,0.152
-2.240E-06,0.020
-2.230E-06,-0.024
-2.220E-06,-0.092
-2.210E-06,-0.052
-2.200E-06,0.172
-2.190E-06,0.532
-2.180E-06,0.436
-2.170E-06,0.364
-2.160E-06,0.140
-2.150E-06,0.000
-2.140E-06,0.164
-2.130E-06,0.180
-2.120E-06,0.320
-2.110E-06,0.424
-2.100E-06,0.328
-2.090E-06,0.180
-2.080E-06,0.188
-2.070E-06,0.088
-2.060E-06,0.152
-2.050E-06,0.152
-2.040E-06,0.120
-2.030E-06,0.132
-2.020E-06,0.016
-2.010E-06,-0.280
-2.000E-06,-0.516
-1.990E-06,-0.520
-1.980E-06,-0.524
-1.970E-06,-0.520
-1.960E-06,-0.524
-1.950E-06,-0.524
-1.940E-06,-0.496
-1.930E-06,0.412
-1.920E-06,0.540
-1.910E-06,0.540
-1.900E-06,0.540
-1.890E-06,0.536
-1.880E-06,0.540
-1.870E-06,0.544
-1.860E-06,0.544
-1.850E-06,0.540
-1.840E-06,0.540
-1.830E-06,0.536
-1.820E-06,0.540
-1.810E-06,0.544
-1.800E-06,0.408
-1.790E-06,0.468
-1.780E-06,0.388
-1.770E-06,0.036
-1.760E-06,-0.188
-1.750E-06,-0.524
-1.740E-06,-0.524
-1.730E-06,-0.516
-1.720E-06,-0.516
-1.710E-06,-0.520
-1.700E-06,-0.516
-1.690E-06,-0.520
-1.680E-06,-0.520
-1.670E-06,-0.520
-1.660E-06,0.000
-1.650E-06,0.540
-1.640E-06,0.544
-1.630E-06,0.540
-1.620E-06,0.536
-1.610E-06,0.540
-1.600E-06,0.544
-1.590E-06,0.544
-1.580E-06,0.540
-1.570E-06,0.540
-1.560E-06,0.540
-1.550E-06,0.436
-1.540E-06,-0.084
-1.530E-06,-0.516
-1.520E-06,-0.520
-1.510E-06,-0.524
-1.500E-06,-0.516
-1.490E-06,-0.520
-1.480E-06,-0.524
-1.470E-06,-0.520
-1.460E-06,-0.516
-1.450E-06,-0.520
-1.440E-06,-0.520
-1.430E-06,-0.516
-1.420E-06,0.072
-1.410E-06,0.544
-1.400E-06,0.540
-1.390E-06,0.540
-1.380E-06,0.536
-1.370E-06,0.540
-1.360E-06,0.544
-1.350E-06,0.540
-1.340E-06,0.540
-1.330E-06,0.544
-1.320E-06,0.540
-1.310E-06,0.540
-1.300E-06,0.540
-1.290E-06,0.412
-1.280E-06,-0.448
-1.270E-06,-0.520
-1.260E-06,-0.524
-1.250E-06,-0.520
-1.240E-06,-0.520
-1.230E-06,-0.120
-1.220E-06,0.292
-1.210E-06,-0.140
-1.200E-06,0.424
-1.190E-06,0.544
-1.180E-06,0.540
-1.170E-06,0.540
-1.160E-06,0.540
-1.150E-06,0.540
-1.140E-06,0.540
-1.130E-06,0.536
-1.120E-06,0.540
-1.110E-06,0.540
-1.100E-06,0.540
-1.090E-06,0.540
-1.080E-06,-0.268
-1.070E-06,-0.508
-1.060E-06,-0.468
-1.050E-06,-0.524
-1.040E-06,-0.524
-1.030E-06,-0.516
-1.020E-06,-0.516
-1.010E-06,-0.520
-1.000E-06,-0.516
-9.900E-07,-0.520
-9.800E-07,-0.516
-9.700E-07,-0.520
-9.600E-07,-0.388
-9.500E-07,-0.060
-9.400E-07,0.100
-9.300E-07,0.184
-9.200E-07,0.152
-9.100E-07,0.112
-9.000E-07,0.164
-8.900E-07,0.180
-8.800E-07,0.168
-8.700E-07,0.052
-8.600E-07,-0.148
-8.500E-07,-0.196
-8.400E-07,-0.128
-8.300E-07,0.092
-8.200E-07,0.184
-8.100E-07,0.120
-8.000E-07,-0.032
-7.900E-07,-0.356
-7.800E-07,-0.456
-7.700E-07,-0.396
-7.600E-07,-0.256
-7.500E-07,-0.096
-7.400E-07,0.356
-7.300E-07,0.540
-7.200E-07,0.540
-7.100E-07,0.460
-7.000E-07,0.244
-6.900E-07,0.132
-6.800E-07,0.352
-6.700E-07,0.540
-6.600E-07,0.544
-6.500E-07,0.540
-6.400E-07,0.540
-6.300E-07,0.540
-6.200E-07,0.536
-6.100E-07,0.396
-6.000E-07,0.064
-5.900E-07,0.116
-5.800E-07,-0.024
-5.700E-07,-0.148
-5.600E-07,-0.016
-5.500E-07,-0.144
-5.400E-07,-0.356
-5.300E-07,-0.276
-5.200E-07,-0.204
-5.100E-07,-0.188
-5.000E-07,-0.188
-4.900E-07,-0.516
-4.800E-07,-0.520
-4.700E-07,-0.516
-4.600E-07,0.044
-4.500E-07,0.540
-4.400E-07,0.540
-4.300E-07,0.540
-4.200E-07,0.544
-4.100E-07,0.544
-4.000E-07,0.540
-3.900E-07,0.540
-3.800E-07,0.540
-3.700E-07,0.540
-3.600E-07,0.540
-3.500E-07,0.540
-3.400E-07,0.428
-3.300E-07,-0.232
-3.200E-07,-0.524
-3.100E-07,-0.524
-3.000E-07,-0.516
-2.900E-07,-0.520
-2.800E-07,-0.520
-2.700E-07,-0.520
-2.600E-07,-0.520
-2.500E-07,-0.524
-2.400E-07,-0.520
-2.300E-07,-0.520
-2.200E-07,-0.520
-2.100E-07,-0.520
-2.000E-07,-0.520
-1.900E-07,-0.524
-1.800E-07,-0.520
-1.700E-07,-0.516
-1.600E-07,-0.516
-1.500E-07,-0.520
-1.400E-07,-0.524
-1.300E-07,-0.376
-1.200E-07,-0.136
-1.100E-07,-0.520
-1.000E-07,0.016
-9.000E-08,-0.516
-8.000E-08,-0.520
-7.000E-08,0.540
-6.000E-08,0.540
-5.000E-08,0.540
-4.000E-08,0.536
-3.000E-08,0.540
-2.000E-08,0.540
-1.000E-08,0.540
0.000E+00,0.540
1.000E-08,0.536
2.000E-08,0.540
3.000E-08,0.540
4.000E-08,0.544
5.000E-08,0.544
6.000E-08,0.540
7.000E-08,0.540
8.000E-08,0.536
9.000E-08,0.540
1.000E-07,0.540
1.100E-07,0.364
1.200E-07,-0.376
1.300E-07,-0.524
1.400E-07,-0.520
1.500E-07,-0.520
1.600E-07,-0.524
1.700E-07,-0.520
1.800E-07,-0.520
1.900E-07,-0.524
2.000E-07,-0.520
2.100E-07,-0.520
2.200E-07,-0.520
2.300E-07,-0.524
2.400E-07,-0.520
2.500E-07,-0.516
2.600E-07,-0.520
2.700E-07,-0.520
2.800E-07,-0.520
2.900E-07,-0.520
3.000E-07,-0.520
3.100E-07,-0.520
3.200E-07,-0.508
3.300E-07,-0.472
3.400E-07,-0.520
3.500E-07,-0.524
3.600E-07,-0.516
3.700E-07,-0.120
3.800E-07,0.540
3.900E-07,0.536
4.000E-07,0.328
4.100E-07,-0.524
4.200E-07,-0.520
4.300E-07,-0.520
4.400E-07,-0.524
4.500E-07,-0.520
4.600E-07,-0.516
4.700E-07,-0.344
4.800E-07,0.544
4.900E-07,0.540
5.000E-07,0.536
5.100E-07,0.540
5.200E-07,0.544
5.300E-07,0.540
5.400E-07,0.544
5.500E-07,0.540
5.600E-07,0.544
5.700E-07,0.544
5.800E-07,0.540
5.900E-07,0.540
6.000E-07,0.540
6.100E-07,0.540
6.200E-07,-0.044
6.300E-07,-0.520
6.400E-07,-0.524
6.500E-07,-0.516
6.600E-07,-0.516
6.700E-07,-0.520
6.800E-07,-0.516
6.900E-07,-0.520
7.000E-07,-0.524
7.100E-07,-0.520
7.200E-07,-0.516
7.300E-07,-0.520
7.400E-07,-0.524
7.500E-07,-0.516
7.600E-07,-0.520
7.700E-07,-0.524
7.800E-07,-0.520
7.900E-07,-0.516
8.000E-07,-0.516
8.100E-07,-0.520
8.200E-07,-0.516
8.300E-07,-0.520
8.400E-07,-0.516
8.500E-07,-0.136
8.600E-07,0.544
8.700E-07,0.544
8.800E-07,0.540
8.900E-07,0.544
9.000E-07,0.540
9.100E-07,0.544
9.200E-07,0.540
9.300E-07,0.320
9.400E-07,0.208
9.500E-07,-0.388
9.600E-07,-0.128
9.700E-07,0.000
9.800E-07,0.360
9.900E-07,0.388
1.000E-06,0.388
1.010E-06,0.540
1.020E-06,0.540
1.030E-06,0.540
1.040E-06,0.540
1.050E-06,0.540
1.060E-06,0.540
1.070E-06,0.536
1.080E-06,0.540
1.090E-06,0.544
1.100E-06,0.540
1.110E-06,0.540
1.120E-06,0.536
1.130E-06,0.540
1.140E-06,-0.084
1.150E-06,-0.520
1.160E-06,-0.520
1.170E-06,-0.520
1.180E-06,-0.524
1.190E-06,-0.520
1.200E-06,-0.520
1.210E-06,-0.524
1.220E-06,-0.520
1.230E-06,-0.524
1.240E-06,-0.516
1.250E-06,-0.516
1.260E-06,-0.520
1.270E-06,-0.520
1.280E-06,-0.520
1.290E-06,-0.520
1.300E-06,-0.360
1.310E-06,0.544
1.320E-06,0.544
1.330E-06,0.540
1.340E-06,0.540
1.350E-06,0.536
1.360E-06,0.540
1.370E-06,0.544
1.380E-06,0.540
1.390E-06,0.540
1.400E-06,0.540
1.410E-06,0.544
1.420E-06,0.540
1.430E-06,0.536
1.440E-06,0.540
1.450E-06,0.540
1.460E-06,-0.424
1.470E-06,-0.520
1.480E-06,-0.516
1.490E-06,-0.520
1.500E-06,-0.520
1.510E-06,-0.520
1.520E-06,-0.520
1.530E-06,-0.524
1.540E-06,-0.520
1.550E-06,-0.516
1.560E-06,-0.516
1.570E-06,-0.520
1.580E-06,-0.448
1.590E-06,-0.056
1.600E-06,-0.040
1.610E-06,-0.184
1.620E-06,-0.396
1.630E-06,-0.520
1.640E-06,-0.520
1.650E-06,-0.524
1.660E-06,-0.520
1.670E-06,-0.524
1.680E-06,-0.524
1.690E-06,-0.524
1.700E-06,-0.516
1.710E-06,-0.520
1.720E-06,-0.524
1.730E-06,-0.520
1.740E-06,-0.524
1.750E-06,-0.516
1.760E-06,-0.464
1.770E-06,-0.440
1.780E-06,-0.204
1.790E-06,0.076
1.800E-06,0.524
1.810E-06,0.540
1.820E-06,0.540
1.830E-06,0.540
1.840E-06,0.536
1.850E-06,0.540
1.860E-06,0.540
1.870E-06,0.536
1.880E-06,0.540
1.890E-06,0.544
1.900E-06,0.540
1.910E-06,0.540
1.920E-06,0.540
1.930E-06,0.544
1.940E-06,0.540
1.950E-06,0.540
1.960E-06,0.536
1.970E-06,0.540
1.980E-06,0.544
1.990E-06,0.540
2.000E-06,0.544
2.010E-06,0.544
2.020E-06,0.540
2.030E-06,0.540
2.040E-06,0.540
2.050E-06,0.208
2.060E-06,-0.520
2.070E-06,-0.520
2.080E-06,-0.524
2.090E-06,-0.520
2.100E-06,-0.484
2.110E-06,0.544
2.120E-06,0.544
2.130E-06,0.540
2.140E-06,0.544
2.150E-06,0.544
2.160E-06,0.540
2.170E-06,0.540
2.180E-06,0.544
2.190E-06,0.544
2.200E-06,0.540
2.210E-06,0.540
2.220E-06,0.540
2.230E-06,0.540
2.240E-06,0.288
2.250E-06,-0.520
2.260E-06,-0.520
2.270E-06,-0.520
2.280E-06,-0.524
2.290E-06,-0.520
2.300E-06,-0.524
2.310E-06,-0.524
2.320E-06,-0.524
2.330E-06,0.536
2.340E-06,0.540
2.350E-06,0.544
2.360E-06,0.540
2.370E-06,0.540
2.380E-06,0.540
2.390E-06,0.544
2.400E-06,0.540
2.410E-06,0.536
2.420E-06,0.048
2.430E-06,-0.520
2.440E-06,-0.524
2.450E-06,-0.516
2.460E-06,-0.520
2.470E-06,-0.520
2.480E-06,-0.520
2.490E-06,-0.520
2.500E-06,-0.520
2.510E-06,-0.524
2.520E-06,-0.520
2.530E-06,-0.524
2.540E-06,-0.516
2.550E-06,-0.516
2.560E-06,-0.520
2.570E-06,-0.516
2.580E-06,-0.520
2.590E-06,-0.388
2.600E-06,0.080
2.610E-06,0.536
2.620E-06,0.540
2.630E-06,0.540
2.640E-06,0.536
2.650E-06,0.540
2.660E-06,0.544
2.670E-06,0.192
2.680E-06,-0.184
2.690E-06,-0.504
2.700E-06,-0.520
2.710E-06,-0.520
2.720E-06,-0.520
2.730E-06,-0.524
2.740E-06,-0.204
2.750E-06,0.400
2.760E-06,0.544
2.770E-06,0.544
2.780E-06,0.540
2.790E-06,0.540
2.800E-06,0.544
2.810E-06,0.540
2.820E-06,0.536
2.830E-06,0.540
2.840E-06,0.544
2.850E-06,0.540
2.860E-06,0.540
2.870E-06,0.536
2.880E-06,0.540
2.890E-06,0.540
2.900E-06,0.544
2.910E-06,0.540
2.920E-06,0.536
2.930E-06,0.540
2.940E-06,0.544
2.950E-06,0.540
2.960E-06,0.540
2.970E-06,0.544
2.980E-06,0.544
2.990E-06,0.540
3.000E-06,0.540
3.010E-06,0.540
3.020E-06,0.540
3.030E-06,0.544
3.040E-06,0.536
3.050E-06,0.420
3.060E-06,0.456
3.070E-06,0.528
3.080E-06,0.544
3.090E-06,0.540
3.100E-06,0.540
3.110E-06,0.540
3.120E-06,0.536
3.130E-06,0.540
3.140E-06,0.540
3.150E-06,0.540
3.160E-06,0.536
3.170E-06,0.540
3.180E-06,0.540
3.190E-06,0.544
3.200E-06,0.544
3.210E-06,0.540
3.220E-06,0.540
3.230E-06,0.536
3.240E-06,0.540
3.250E-06,0.544
3.260E-06,0.540
3.270E-06,0.540
3.280E-06,0.536
3.290E-06,0.540
3.300E-06,0.540
3.310E-06,0.544
3.320E-06,0.544
3.330E-06,0.540
3.340E-06,0.544
3.350E-06,0.540
3.360E-06,0.536
3.370E-06,0.540
3.380E-06,0.544
3.390E-06,0.544
3.400E-06,0.540
3.410E-06,0.540
3.420E-06,0.540
3.430E-06,0.544
3.440E-06,0.540
3.450E-06,0.536
3.460E-06,0.540
3.470E-06,0.544
3.480E-06,0.540
3.490E-06,0.540
3.500E-06,0.544
3.510E-06,0.544
3.520E-06,0.540
3.530E-06,0.544
3.540E-06,0.540
