mediciones/6-26/15.0/WaveData59120.csv

#timebase=2000000(ps)
,#voltbase=200000(mv/100)
#size=4000
-8.150E-06,0.000
-8.140E-06,0.000
-8.130E-06,0.008
-8.120E-06,0.000
-8.110E-06,0.008
-8.100E-06,0.008
-8.090E-06,0.008
-8.080E-06,0.000
-8.070E-06,0.000
-8.060E-06,0.008
-8.050E-06,0.000
-8.040E-06,0.008
-8.030E-06,0.016
-8.020E-06,-0.008
-8.010E-06,0.008
-8.000E-06,0.008
-7.990E-06,0.000
-7.980E-06,0.000
-7.970E-06,0.008
-7.960E-06,0.000
-7.950E-06,0.000
-7.940E-06,-0.008
-7.930E-06,0.000
-7.920E-06,-0.008
-7.910E-06,0.008
-7.900E-06,0.000
-7.890E-06,0.008
-7.880E-06,0.008
-7.870E-06,0.008
-7.860E-06,0.000
-7.850E-06,0.000
-7.840E-06,0.000
-7.830E-06,0.008
-7.820E-06,0.000
-7.810E-06,0.000
-7.800E-06,0.016
-7.790E-06,0.008
-7.780E-06,0.016
-7.770E-06,0.000
-7.760E-06,0.008
-7.750E-06,0.000
-7.740E-06,0.000
-7.730E-06,0.016
-7.720E-06,0.016
-7.710E-06,-0.008
-7.700E-06,0.008
-7.690E-06,0.000
-7.680E-06,0.008
-7.670E-06,0.000
-7.660E-06,0.008
-7.650E-06,0.008
-7.640E-06,0.016
-7.630E-06,-0.008
-7.620E-06,-0.008
-7.610E-06,0.000
-7.600E-06,0.000
-7.590E-06,0.000
-7.580E-06,0.008
-7.570E-06,0.000
-7.560E-06,0.000
-7.550E-06,0.000
-7.540E-06,0.000
-7.530E-06,0.000
-7.520E-06,0.008
-7.510E-06,0.000
-7.500E-06,0.008
-7.490E-06,0.000
-7.480E-06,0.000
-7.470E-06,0.008
-7.460E-06,0.000
-7.450E-06,-0.008
-7.440E-06,0.008
-7.430E-06,0.000
-7.420E-06,0.000
-7.410E-06,0.000
-7.400E-06,0.008
-7.390E-06,0.008
-7.380E-06,-0.008
-7.370E-06,0.008
-7.360E-06,0.000
-7.350E-06,0.008
-7.340E-06,0.008
-7.330E-06,0.000
-7.320E-06,0.008
-7.310E-06,0.000
-7.300E-06,0.008
-7.290E-06,0.016
-7.280E-06,0.008
-7.270E-06,0.008
-7.260E-06,0.000
-7.250E-06,0.000
-7.240E-06,0.000
-7.230E-06,0.000
-7.220E-06,0.000
-7.210E-06,0.000
-7.200E-06,0.000
-7.190E-06,0.000
-7.180E-06,0.016
-7.170E-06,0.016
-7.160E-06,-0.008
-7.150E-06,-0.008
-7.140E-06,0.000
-7.130E-06,0.000
-7.120E-06,0.000
-7.110E-06,0.008
-7.100E-06,0.008
-7.090E-06,0.000
-7.080E-06,0.008
-7.070E-06,0.000
-7.060E-06,0.000
-7.050E-06,0.008
-7.040E-06,0.000
-7.030E-06,0.008
-7.020E-06,0.000
-7.010E-06,0.008
-7.000E-06,0.000
-6.990E-06,0.016
-6.980E-06,-0.008
-6.970E-06,0.008
-6.960E-06,0.008
-6.950E-06,0.000
-6.940E-06,0.000
-6.930E-06,0.000
-6.920E-06,0.000
-6.910E-06,0.000
-6.900E-06,0.008
-6.890E-06,0.008
-6.880E-06,0.000
-6.870E-06,0.000
-6.860E-06,0.008
-6.850E-06,0.008
-6.840E-06,0.000
-6.830E-06,0.000
-6.820E-06,0.000
-6.810E-06,0.000
-6.800E-06,0.008
-6.790E-06,0.008
-6.780E-06,-0.008
-6.770E-06,-0.008
-6.760E-06,0.008
-6.750E-06,0.000
-6.740E-06,0.000
-6.730E-06,0.000
-6.720E-06,0.008
-6.710E-06,-0.008
-6.700E-06,-0.008
-6.690E-06,0.000
-6.680E-06,0.008
-6.670E-06,-0.008
-6.660E-06,0.008
-6.650E-06,0.000
-6.640E-06,0.008
-6.630E-06,0.000
-6.620E-06,0.000
-6.610E-06,0.008
-6.600E-06,-0.008
-6.590E-06,0.008
-6.580E-06,-0.008
-6.570E-06,0.000
-6.560E-06,0.008
-6.550E-06,-0.008
-6.540E-06,0.000
-6.530E-06,0.000
-6.520E-06,0.000
-6.510E-06,0.008
-6.500E-06,0.000
-6.490E-06,0.008
-6.480E-06,0.000
-6.470E-06,0.000
-6.460E-06,0.000
-6.450E-06,0.000
-6.440E-06,0.000
-6.430E-06,0.008
-6.420E-06,0.000
-6.410E-06,0.008
-6.400E-06,0.008
-6.390E-06,0.000
-6.380E-06,0.000
-6.370E-06,0.008
-6.360E-06,0.000
-6.350E-06,0.008
-6.340E-06,0.000
-6.330E-06,0.016
-6.320E-06,0.008
-6.310E-06,0.016
-6.300E-06,0.008
-6.290E-06,0.000
-6.280E-06,0.000
-6.270E-06,0.008
-6.260E-06,0.000
-6.250E-06,0.000
-6.240E-06,0.000
-6.230E-06,0.008
-6.220E-06,0.008
-6.210E-06,-0.008
-6.200E-06,0.000
-6.190E-06,-0.008
-6.180E-06,-0.008
-6.170E-06,0.008
-6.160E-06,-0.008
-6.150E-06,0.000
-6.140E-06,0.000
-6.130E-06,0.008
-6.120E-06,0.000
-6.110E-06,0.008
-6.100E-06,0.000
-6.090E-06,0.000
-6.080E-06,0.000
-6.070E-06,0.000
-6.060E-06,0.000
-6.050E-06,0.008
-6.040E-06,0.008
-6.030E-06,0.008
-6.020E-06,0.000
-6.010E-06,0.008
-6.000E-06,0.008
-5.990E-06,0.000
-5.980E-06,0.000
-5.970E-06,0.008
-5.960E-06,0.016
-5.950E-06,0.008
-5.940E-06,-0.008
-5.930E-06,-0.008
-5.920E-06,0.000
-5.910E-06,0.008
-5.900E-06,0.008
-5.890E-06,0.000
-5.880E-06,-0.008
-5.870E-06,0.000
-5.860E-06,0.008
-5.850E-06,0.000
-5.840E-06,-0.008
-5.830E-06,0.000
-5.820E-06,0.000
-5.810E-06,0.008
-5.800E-06,0.000
-5.790E-06,-0.008
-5.780E-06,0.000
-5.770E-06,0.008
-5.760E-06,0.008
-5.750E-06,0.008
-5.740E-06,0.008
-5.730E-06,0.008
-5.720E-06,0.000
-5.710E-06,0.008
-5.700E-06,0.000
-5.690E-06,0.008
-5.680E-06,0.000
-5.670E-06,0.000
-5.660E-06,0.000
-5.650E-06,0.008
-5.640E-06,0.008
-5.630E-06,0.000
-5.620E-06,0.000
-5.610E-06,0.000
-5.600E-06,0.000
-5.590E-06,0.000
-5.580E-06,-0.008
-5.570E-06,0.008
-5.560E-06,0.000
-5.550E-06,0.000
-5.540E-06,0.000
-5.530E-06,0.000
-5.520E-06,-0.008
-5.510E-06,0.000
-5.500E-06,0.008
-5.490E-06,-0.008
-5.480E-06,0.000
-5.470E-06,0.008
-5.460E-06,0.000
-5.450E-06,0.016
-5.440E-06,0.016
-5.430E-06,0.000
-5.420E-06,0.008
-5.410E-06,0.000
-5.400E-06,0.000
-5.390E-06,0.000
-5.380E-06,0.000
-5.370E-06,0.000
-5.360E-06,-0.008
-5.350E-06,0.008
-5.340E-06,0.000
-5.330E-06,0.008
-5.320E-06,-0.008
-5.310E-06,-0.008
-5.300E-06,0.008
-5.290E-06,-0.008
-5.280E-06,0.008
-5.270E-06,0.008
-5.260E-06,-0.008
-5.250E-06,0.008
-5.240E-06,0.008
-5.230E-06,0.000
-5.220E-06,0.000
-5.210E-06,0.008
-5.200E-06,-0.008
-5.190E-06,0.000
-5.180E-06,0.008
-5.170E-06,0.008
-5.160E-06,0.000
-5.150E-06,0.000
-5.140E-06,0.000
-5.130E-06,-0.008
-5.120E-06,0.000
-5.110E-06,0.008
-5.100E-06,0.000
-5.090E-06,-0.008
-5.080E-06,0.008
-5.070E-06,0.000
-5.060E-06,0.008
-5.050E-06,0.000
-5.040E-06,0.008
-5.030E-06,0.000
-5.020E-06,0.000
-5.010E-06,0.008
-5.000E-06,0.016
-4.990E-06,0.048
-4.980E-06,0.112
-4.970E-06,0.000
-4.960E-06,0.136
-4.950E-06,-0.072
-4.940E-06,-0.048
-4.930E-06,-0.248
-4.920E-06,-0.120
-4.910E-06,0.112
-4.900E-06,0.072
-4.890E-06,0.112
-4.880E-06,0.056
-4.870E-06,0.024
-4.860E-06,-0.096
-4.850E-06,-0.016
-4.840E-06,-0.016
-4.830E-06,0.056
-4.820E-06,0.064
-4.810E-06,0.088
-4.800E-06,-0.008
-4.790E-06,-0.040
-4.780E-06,-0.056
-4.770E-06,-0.048
-4.760E-06,0.000
-4.750E-06,0.024
-4.740E-06,0.064
-4.730E-06,0.048
-4.720E-06,0.064
-4.710E-06,0.000
-4.700E-06,-0.008
-4.690E-06,-0.024
-4.680E-06,-0.008
-4.670E-06,0.000
-4.660E-06,0.000
-4.650E-06,0.016
-4.640E-06,-0.008
-4.630E-06,-0.008
-4.620E-06,-0.032
-4.610E-06,-0.008
-4.600E-06,-0.008
-4.590E-06,0.016
-4.580E-06,0.024
-4.570E-06,0.048
-4.560E-06,0.048
-4.550E-06,0.024
-4.540E-06,0.016
-4.530E-06,-0.016
-4.520E-06,-0.016
-4.510E-06,0.000
-4.500E-06,-0.008
-4.490E-06,0.000
-4.480E-06,0.008
-4.470E-06,0.000
-4.460E-06,0.000
-4.450E-06,-0.008
-4.440E-06,0.000
-4.430E-06,0.016
-4.420E-06,0.016
-4.410E-06,0.024
-4.400E-06,0.024
-4.390E-06,0.008
-4.380E-06,0.008
-4.370E-06,0.000
-4.360E-06,-0.008
-4.350E-06,-0.008
-4.340E-06,-0.008
-4.330E-06,0.000
-4.320E-06,0.016
-4.310E-06,0.008
-4.300E-06,0.008
-4.290E-06,0.000
-4.280E-06,0.008
-4.270E-06,0.000
-4.260E-06,0.008
-4.250E-06,0.008
-4.240E-06,0.008
-4.230E-06,0.000
-4.220E-06,0.008
-4.210E-06,0.000
-4.200E-06,-0.008
-4.190E-06,0.000
-4.180E-06,-0.008
-4.170E-06,0.000
-4.160E-06,-0.008
-4.150E-06,0.008
-4.140E-06,0.008
-4.130E-06,0.008
-4.120E-06,0.008
-4.110E-06,0.008
-4.100E-06,-0.008
-4.090E-06,0.016
-4.080E-06,0.016
-4.070E-06,0.008
-4.060E-06,0.016
-4.050E-06,0.000
-4.040E-06,0.008
-4.030E-06,0.000
-4.020E-06,0.000
-4.010E-06,0.000
-4.000E-06,0.008
-3.990E-06,0.000
-3.980E-06,0.000
-3.970E-06,0.008
-3.960E-06,0.016
-3.950E-06,0.008
-3.940E-06,-0.008
-3.930E-06,0.008
-3.920E-06,0.016
-3.910E-06,0.016
-3.900E-06,0.008
-3.890E-06,-0.008
-3.880E-06,-0.008
-3.870E-06,0.008
-3.860E-06,0.000
-3.850E-06,0.008
-3.840E-06,0.008
-3.830E-06,0.016
-3.820E-06,0.016
-3.810E-06,0.008
-3.800E-06,0.008
-3.790E-06,0.008
-3.780E-06,0.008
-3.770E-06,0.008
-3.760E-06,0.016
-3.750E-06,0.008
-3.740E-06,0.008
-3.730E-06,0.016
-3.720E-06,0.008
-3.710E-06,0.008
-3.700E-06,0.008
-3.690E-06,0.000
-3.680E-06,0.008
-3.670E-06,0.016
-3.660E-06,0.016
-3.650E-06,0.016
-3.640E-06,0.016
-3.630E-06,0.008
-3.620E-06,0.008
-3.610E-06,0.008
-3.600E-06,0.024
-3.590E-06,0.008
-3.580E-06,-0.008
-3.570E-06,0.000
-3.560E-06,-0.048
-3.550E-06,0.008
-3.540E-06,-0.008
-3.530E-06,0.016
-3.520E-06,0.016
-3.510E-06,0.000
-3.500E-06,-0.008
-3.490E-06,-0.048
-3.480E-06,-0.008
-3.470E-06,0.016
-3.460E-06,0.056
-3.450E-06,0.056
-3.440E-06,0.024
-3.430E-06,-0.024
-3.420E-06,-0.048
-3.410E-06,-0.040
-3.400E-06,-0.016
-3.390E-06,0.024
-3.380E-06,0.048
-3.370E-06,0.048
-3.360E-06,0.024
-3.350E-06,0.000
-3.340E-06,-0.048
-3.330E-06,-0.048
-3.320E-06,-0.016
-3.310E-06,0.032
-3.300E-06,0.040
-3.290E-06,0.032
-3.280E-06,0.024
-3.270E-06,0.000
-3.260E-06,-0.016
-3.250E-06,-0.024
-3.240E-06,0.008
-3.230E-06,0.024
-3.220E-06,0.032
-3.210E-06,0.040
-3.200E-06,0.024
-3.190E-06,0.000
-3.180E-06,0.000
-3.170E-06,-0.008
-3.160E-06,-0.008
-3.150E-06,0.008
-3.140E-06,0.016
-3.130E-06,0.032
-3.120E-06,0.024
-3.110E-06,0.032
-3.100E-06,0.024
-3.090E-06,0.040
-3.080E-06,-0.008
-3.070E-06,0.040
-3.060E-06,0.024
-3.050E-06,0.040
-3.040E-06,-0.008
-3.030E-06,-0.040
-3.020E-06,-0.032
-3.010E-06,-0.056
-3.000E-06,0.000
-2.990E-06,0.064
-2.980E-06,0.072
-2.970E-06,0.048
-2.960E-06,0.008
-2.950E-06,-0.032
-2.940E-06,-0.056
-2.930E-06,-0.056
-2.920E-06,-0.008
-2.910E-06,0.056
-2.900E-06,0.072
-2.890E-06,0.048
-2.880E-06,0.008
-2.870E-06,-0.032
-2.860E-06,-0.048
-2.850E-06,-0.040
-2.840E-06,-0.016
-2.830E-06,0.040
-2.820E-06,0.064
-2.810E-06,0.056
-2.800E-06,0.024
-2.790E-06,-0.016
-2.780E-06,-0.024
-2.770E-06,-0.008
-2.760E-06,0.016
-2.750E-06,0.040
-2.740E-06,0.016
-2.730E-06,0.024
-2.720E-06,-0.008
-2.710E-06,0.016
-2.700E-06,0.016
-2.690E-06,0.024
-2.680E-06,0.024
-2.670E-06,0.024
-2.660E-06,-0.008
-2.650E-06,-0.016
-2.640E-06,-0.024
-2.630E-06,-0.024
-2.620E-06,0.016
-2.610E-06,0.040
-2.600E-06,0.056
-2.590E-06,0.024
-2.580E-06,0.016
-2.570E-06,-0.024
-2.560E-06,-0.016
-2.550E-06,0.000
-2.540E-06,0.024
-2.530E-06,0.048
-2.520E-06,0.048
-2.510E-06,0.032
-2.500E-06,0.032
-2.490E-06,0.032
-2.480E-06,0.032
-2.470E-06,0.032
-2.460E-06,0.048
-2.450E-06,0.056
-2.440E-06,0.048
-2.430E-06,0.048
-2.420E-06,0.056
-2.410E-06,0.088
-2.400E-06,0.112
-2.390E-06,0.168
-2.380E-06,0.168
-2.370E-06,0.088
-2.360E-06,0.064
-2.350E-06,-0.016
-2.340E-06,-0.152
-2.330E-06,-0.152
-2.320E-06,-0.144
-2.310E-06,-0.216
-2.300E-06,-0.256
-2.290E-06,0.008
-2.280E-06,0.112
-2.270E-06,0.248
-2.260E-06,0.136
-2.250E-06,0.056
-2.240E-06,-0.080
-2.230E-06,-0.216
-2.220E-06,-0.224
-2.210E-06,-0.112
-2.200E-06,0.064
-2.190E-06,0.200
-2.180E-06,0.224
-2.170E-06,0.008
-2.160E-06,-0.120
-2.150E-06,-0.264
-2.140E-06,-0.144
-2.130E-06,0.000
-2.120E-06,0.144
-2.110E-06,0.216
-2.100E-06,0.216
-2.090E-06,0.136
-2.080E-06,0.056
-2.070E-06,-0.016
-2.060E-06,-0.016
-2.050E-06,0.072
-2.040E-06,0.040
-2.030E-06,0.128
-2.020E-06,0.096
-2.010E-06,0.080
-2.000E-06,-0.040
-1.990E-06,-0.080
-1.980E-06,-0.112
-1.970E-06,-0.144
-1.960E-06,-0.008
-1.950E-06,0.008
-1.940E-06,0.144
-1.930E-06,0.184
-1.920E-06,0.128
-1.910E-06,0.032
-1.900E-06,-0.008
-1.890E-06,-0.032
-1.880E-06,-0.016
-1.870E-06,0.024
-1.860E-06,0.176
-1.850E-06,0.248
-1.840E-06,0.264
-1.830E-06,0.152
-1.820E-06,0.112
-1.810E-06,0.112
-1.800E-06,-0.080
-1.790E-06,-0.080
-1.780E-06,-0.208
-1.770E-06,-0.144
-1.760E-06,-0.064
-1.750E-06,-0.192
-1.740E-06,-0.152
-1.730E-06,-0.200
-1.720E-06,0.056
-1.710E-06,0.120
-1.700E-06,0.080
-1.690E-06,0.048
-1.680E-06,-0.008
-1.670E-06,-0.072
-1.660E-06,-0.128
-1.650E-06,-0.144
-1.640E-06,-0.024
-1.630E-06,0.128
-1.620E-06,0.120
-1.610E-06,0.112
-1.600E-06,0.040
-1.590E-06,-0.072
-1.580E-06,-0.192
-1.570E-06,-0.112
-1.560E-06,-0.016
-1.550E-06,0.184
-1.540E-06,0.280
-1.530E-06,0.176
-1.520E-06,0.072
-1.510E-06,-0.120
-1.500E-06,-0.152
-1.490E-06,-0.112
-1.480E-06,0.112
-1.470E-06,0.248
-1.460E-06,0.360
-1.450E-06,0.288
-1.440E-06,0.160
-1.430E-06,0.016
-1.420E-06,-0.104
-1.410E-06,-0.040
-1.400E-06,0.136
-1.390E-06,0.256
-1.380E-06,0.312
-1.370E-06,0.128
-1.360E-06,-0.064
-1.350E-06,-0.128
-1.340E-06,-0.160
-1.330E-06,0.000
-1.320E-06,0.160
-1.310E-06,0.320
-1.300E-06,0.352
-1.290E-06,0.216
-1.280E-06,0.064
-1.270E-06,-0.064
-1.260E-06,-0.144
-1.250E-06,-0.136
-1.240E-06,-0.104
-1.230E-06,-0.064
-1.220E-06,0.032
-1.210E-06,-0.144
-1.200E-06,-0.224
-1.190E-06,-0.224
-1.180E-06,-0.208
-1.170E-06,-0.208
-1.160E-06,-0.112
-1.150E-06,0.032
-1.140E-06,0.048
-1.130E-06,0.096
-1.120E-06,0.128
-1.110E-06,-0.024
-1.100E-06,-0.088
-1.090E-06,-0.176
-1.080E-06,-0.072
-1.070E-06,0.024
-1.060E-06,0.136
-1.050E-06,0.240
-1.040E-06,0.184
-1.030E-06,0.192
-1.020E-06,0.048
-1.010E-06,-0.008
-1.000E-06,0.120
-9.900E-07,0.112
-9.800E-07,0.184
-9.700E-07,0.288
-9.600E-07,0.344
-9.500E-07,0.296
-9.400E-07,0.184
-9.300E-07,0.120
-9.200E-07,0.112
-9.100E-07,0.200
-9.000E-07,0.256
-8.900E-07,0.368
-8.800E-07,0.344
-8.700E-07,0.288
-8.600E-07,0.240
-8.500E-07,0.184
-8.400E-07,0.136
-8.300E-07,0.184
-8.200E-07,0.248
-8.100E-07,0.312
-8.000E-07,0.312
-7.900E-07,0.264
-7.800E-07,0.184
-7.700E-07,0.160
-7.600E-07,0.176
-7.500E-07,0.200
-7.400E-07,0.256
-7.300E-07,0.296
-7.200E-07,0.320
-7.100E-07,0.304
-7.000E-07,0.272
-6.900E-07,0.224
-6.800E-07,0.200
-6.700E-07,0.224
-6.600E-07,0.264
-6.500E-07,0.280
-6.400E-07,0.280
-6.300E-07,0.280
-6.200E-07,0.272
-6.100E-07,0.248
-6.000E-07,0.168
-5.900E-07,0.128
-5.800E-07,0.192
-5.700E-07,0.248
-5.600E-07,0.248
-5.500E-07,0.248
-5.400E-07,0.248
-5.300E-07,0.112
-5.200E-07,0.080
-5.100E-07,0.120
-5.000E-07,0.248
-4.900E-07,0.312
-4.800E-07,0.224
-4.700E-07,0.256
-4.600E-07,0.264
-4.500E-07,0.216
-4.400E-07,0.192
-4.300E-07,0.224
-4.200E-07,0.296
-4.100E-07,0.312
-4.000E-07,0.288
-3.900E-07,0.264
-3.800E-07,0.240
-3.700E-07,0.216
-3.600E-07,0.240
-3.500E-07,0.256
-3.400E-07,0.280
-3.300E-07,0.312
-3.200E-07,0.336
-3.100E-07,0.312
-3.000E-07,0.256
-2.900E-07,0.216
-2.800E-07,0.248
-2.700E-07,0.280
-2.600E-07,0.320
-2.500E-07,0.328
-2.400E-07,0.336
-2.300E-07,0.320
-2.200E-07,0.280
-2.100E-07,0.248
-2.000E-07,0.240
-1.900E-07,0.256
-1.800E-07,0.280
-1.700E-07,0.280
-1.600E-07,0.264
-1.500E-07,0.224
-1.400E-07,0.248
-1.300E-07,0.248
-1.200E-07,0.264
-1.100E-07,0.264
-1.000E-07,0.256
-9.000E-08,0.216
-8.000E-08,0.144
-7.000E-08,0.104
-6.000E-08,-0.024
-5.000E-08,-0.032
-4.000E-08,0.048
-3.000E-08,0.344
-2.000E-08,0.512
-1.000E-08,0.504
0.000E+00,0.472
1.000E-08,0.288
2.000E-08,0.088
3.000E-08,-0.056
4.000E-08,-0.008
5.000E-08,0.112
6.000E-08,0.296
7.000E-08,0.304
8.000E-08,0.272
9.000E-08,0.016
1.000E-07,-0.168
1.100E-07,-0.160
1.200E-07,-0.024
1.300E-07,0.312
1.400E-07,0.504
1.500E-07,0.672
1.600E-07,0.576
1.700E-07,0.360
1.800E-07,0.064
1.900E-07,-0.112
2.000E-07,-0.064
2.100E-07,0.128
2.200E-07,0.384
2.300E-07,0.496
2.400E-07,0.464
2.500E-07,0.296
2.600E-07,0.120
2.700E-07,-0.016
2.800E-07,0.016
2.900E-07,0.160
3.000E-07,0.344
3.100E-07,0.480
3.200E-07,0.488
3.300E-07,0.400
3.400E-07,0.256
3.500E-07,0.144
3.600E-07,0.104
3.700E-07,0.176
3.800E-07,0.280
3.900E-07,0.392
4.000E-07,0.432
4.100E-07,0.376
4.200E-07,0.264
4.300E-07,0.144
4.400E-07,0.080
4.500E-07,0.096
4.600E-07,0.192
4.700E-07,0.320
4.800E-07,0.392
4.900E-07,0.400
5.000E-07,0.352
5.100E-07,0.256
5.200E-07,0.192
5.300E-07,0.176
5.400E-07,0.208
5.500E-07,0.272
5.600E-07,0.344
5.700E-07,0.360
5.800E-07,0.328
5.900E-07,0.272
6.000E-07,0.200
6.100E-07,0.152
6.200E-07,0.168
6.300E-07,0.216
6.400E-07,0.272
6.500E-07,0.320
6.600E-07,0.304
6.700E-07,0.280
6.800E-07,0.248
6.900E-07,0.208
7.000E-07,0.200
7.100E-07,0.224
7.200E-07,0.264
7.300E-07,0.280
7.400E-07,0.296
7.500E-07,0.280
7.600E-07,0.248
7.700E-07,0.216
7.800E-07,0.192
7.900E-07,0.216
8.000E-07,0.248
8.100E-07,0.264
8.200E-07,0.288
8.300E-07,0.280
8.400E-07,0.264
8.500E-07,0.216
8.600E-07,0.216
8.700E-07,0.216
8.800E-07,0.240
8.900E-07,0.264
9.000E-07,0.280
9.100E-07,0.288
9.200E-07,0.264
9.300E-07,0.248
9.400E-07,0.224
9.500E-07,0.216
9.600E-07,0.216
9.700E-07,0.248
9.800E-07,0.264
9.900E-07,0.264
1.000E-06,0.256
1.010E-06,0.240
1.020E-06,0.224
1.030E-06,0.216
1.040E-06,0.216
1.050E-06,0.240
1.060E-06,0.248
1.070E-06,0.248
1.080E-06,0.256
1.090E-06,0.248
1.100E-06,0.240
1.110E-06,0.224
1.120E-06,0.224
1.130E-06,0.240
1.140E-06,0.248
1.150E-06,0.240
1.160E-06,0.240
1.170E-06,0.232
1.180E-06,0.232
1.190E-06,0.224
1.200E-06,0.224
1.210E-06,0.224
1.220E-06,0.232
1.230E-06,0.240
1.240E-06,0.248
1.250E-06,0.240
1.260E-06,0.240
1.270E-06,0.224
1.280E-06,0.224
1.290E-06,0.224
1.300E-06,0.224
1.310E-06,0.224
1.320E-06,0.232
1.330E-06,0.224
1.340E-06,0.232
1.350E-06,0.224
1.360E-06,0.216
1.370E-06,0.216
1.380E-06,0.216
1.390E-06,0.216
1.400E-06,0.216
1.410E-06,0.216
1.420E-06,0.216
1.430E-06,0.216
1.440E-06,0.216
1.450E-06,0.216
1.460E-06,0.216
1.470E-06,0.216
1.480E-06,0.208
1.490E-06,0.216
1.500E-06,0.208
1.510E-06,0.216
1.520E-06,0.216
1.530E-06,0.208
1.540E-06,0.224
1.550E-06,0.216
1.560E-06,0.216
1.570E-06,0.216
1.580E-06,0.216
1.590E-06,0.192
1.600E-06,0.192
1.610E-06,0.192
1.620E-06,0.208
1.630E-06,0.216
1.640E-06,0.224
1.650E-06,0.216
1.660E-06,0.208
1.670E-06,0.200
1.680E-06,0.184
1.690E-06,0.192
1.700E-06,0.208
1.710E-06,0.208
1.720E-06,0.216
1.730E-06,0.216
1.740E-06,0.216
1.750E-06,0.200
1.760E-06,0.200
1.770E-06,0.184
1.780E-06,0.192
1.790E-06,0.192
1.800E-06,0.200
1.810E-06,0.208
1.820E-06,0.208
1.830E-06,0.192
1.840E-06,0.200
1.850E-06,0.192
1.860E-06,0.184
1.870E-06,0.184
1.880E-06,0.192
1.890E-06,0.200
1.900E-06,0.184
1.910E-06,0.200
1.920E-06,0.192
1.930E-06,0.192
1.940E-06,0.184
1.950E-06,0.176
1.960E-06,0.184
1.970E-06,0.184
1.980E-06,0.192
1.990E-06,0.184
2.000E-06,0.192
2.010E-06,0.192
2.020E-06,0.176
2.030E-06,0.176
2.040E-06,0.184
2.050E-06,0.176
2.060E-06,0.176
2.070E-06,0.176
2.080E-06,0.184
2.090E-06,0.184
2.100E-06,0.184
2.110E-06,0.176
2.120E-06,0.176
2.130E-06,0.176
2.140E-06,0.184
2.150E-06,0.176
2.160E-06,0.176
2.170E-06,0.184
2.180E-06,0.176
2.190E-06,0.176
2.200E-06,0.168
2.210E-06,0.176
2.220E-06,0.168
2.230E-06,0.168
2.240E-06,0.184
2.250E-06,0.176
2.260E-06,0.176
2.270E-06,0.176
2.280E-06,0.160
2.290E-06,0.176
2.300E-06,0.168
2.310E-06,0.168
2.320E-06,0.160
2.330E-06,0.168
2.340E-06,0.176
2.350E-06,0.168
2.360E-06,0.176
2.370E-06,0.168
2.380E-06,0.160
2.390E-06,0.152
2.400E-06,0.160
2.410E-06,0.152
2.420E-06,0.152
2.430E-06,0.160
2.440E-06,0.160
2.450E-06,0.152
2.460E-06,0.160
2.470E-06,0.152
2.480E-06,0.152
2.490E-06,0.152
2.500E-06,0.152
2.510E-06,0.144
2.520E-06,0.152
2.530E-06,0.144
2.540E-06,0.152
2.550E-06,0.152
2.560E-06,0.152
2.570E-06,0.160
2.580E-06,0.152
2.590E-06,0.144
2.600E-06,0.144
2.610E-06,0.152
2.620E-06,0.136
2.630E-06,0.128
2.640E-06,0.128
2.650E-06,0.128
2.660E-06,0.136
2.670E-06,0.152
2.680E-06,0.160
2.690E-06,0.144
2.700E-06,0.136
2.710E-06,0.136
2.720E-06,0.128
2.730E-06,0.136
2.740E-06,0.144
2.750E-06,0.152
2.760E-06,0.144
2.770E-06,0.144
2.780E-06,0.136
2.790E-06,0.128
2.800E-06,0.120
2.810E-06,0.120
2.820E-06,0.128
2.830E-06,0.144
2.840E-06,0.152
2.850E-06,0.144
2.860E-06,0.144
2.870E-06,0.136
2.880E-06,0.120
2.890E-06,0.112
2.900E-06,0.112
2.910E-06,0.112
2.920E-06,0.128
2.930E-06,0.144
2.940E-06,0.144
2.950E-06,0.144
2.960E-06,0.136
2.970E-06,0.120
2.980E-06,0.120
2.990E-06,0.120
3.000E-06,0.112
3.010E-06,0.112
3.020E-06,0.120
3.030E-06,0.136
3.040E-06,0.144
3.050E-06,0.128
3.060E-06,0.136
3.070E-06,0.112
3.080E-06,0.112
3.090E-06,0.120
3.100E-06,0.112
3.110E-06,0.120
3.120E-06,0.136
3.130E-06,0.120
3.140E-06,0.128
3.150E-06,0.120
3.160E-06,0.112
3.170E-06,0.104
3.180E-06,0.112
3.190E-06,0.112
3.200E-06,0.120
3.210E-06,0.120
3.220E-06,0.112
3.230E-06,0.120
3.240E-06,0.120
3.250E-06,0.104
3.260E-06,0.104
3.270E-06,0.112
3.280E-06,0.112
3.290E-06,0.112
3.300E-06,0.112
3.310E-06,0.112
3.320E-06,0.112
3.330E-06,0.104
3.340E-06,0.112
3.350E-06,0.112
3.360E-06,0.104
3.370E-06,0.112
3.380E-06,0.120
3.390E-06,0.112
3.400E-06,0.112
3.410E-06,0.104
3.420E-06,0.112
3.430E-06,0.112
3.440E-06,0.088
3.450E-06,0.104
3.460E-06,0.104
3.470E-06,0.112
3.480E-06,0.112
3.490E-06,0.088
3.500E-06,0.088
3.510E-06,0.096
3.520E-06,0.088
3.530E-06,0.088
3.540E-06,0.088
3.550E-06,0.104
3.560E-06,0.104
3.570E-06,0.096
3.580E-06,0.096
3.590E-06,0.088
3.600E-06,0.096
3.610E-06,0.096
3.620E-06,0.088
3.630E-06,0.096
3.640E-06,0.088
3.650E-06,0.088
3.660E-06,0.088
3.670E-06,0.096
