mediciones/Mediciones filtradas (saque las feas)/5-15/-64.25/WaveData47627.csv

#timebase=2000000(ps)
,#voltbase=100000(mv/100)
#size=4000
-8.400E-06,0.000
-8.390E-06,-0.008
-8.380E-06,-0.012
-8.370E-06,0.012
-8.360E-06,0.024
-8.350E-06,0.004
-8.340E-06,-0.012
-8.330E-06,0.016
-8.320E-06,0.008
-8.310E-06,0.000
-8.300E-06,0.000
-8.290E-06,0.012
-8.280E-06,0.008
-8.270E-06,-0.004
-8.260E-06,0.000
-8.250E-06,-0.004
-8.240E-06,0.004
-8.230E-06,0.000
-8.220E-06,0.004
-8.210E-06,0.000
-8.200E-06,0.004
-8.190E-06,0.000
-8.180E-06,0.004
-8.170E-06,0.004
-8.160E-06,0.004
-8.150E-06,0.000
-8.140E-06,0.000
-8.130E-06,-0.004
-8.120E-06,0.024
-8.110E-06,0.004
-8.100E-06,-0.008
-8.090E-06,-0.008
-8.080E-06,-0.020
-8.070E-06,0.024
-8.060E-06,0.044
-8.050E-06,-0.004
-8.040E-06,-0.028
-8.030E-06,0.044
-8.020E-06,0.016
-8.010E-06,-0.036
-8.000E-06,0.024
-7.990E-06,-0.048
-7.980E-06,0.000
-7.970E-06,0.056
-7.960E-06,0.020
-7.950E-06,0.004
-7.940E-06,0.028
-7.930E-06,-0.028
-7.920E-06,-0.056
-7.910E-06,0.048
-7.900E-06,0.040
-7.890E-06,-0.012
-7.880E-06,0.004
-7.870E-06,0.040
-7.860E-06,-0.028
-7.850E-06,-0.020
-7.840E-06,-0.004
-7.830E-06,-0.004
-7.820E-06,0.064
-7.810E-06,0.052
-7.800E-06,0.060
-7.790E-06,-0.092
-7.780E-06,-0.080
-7.770E-06,-0.072
-7.760E-06,0.000
-7.750E-06,0.140
-7.740E-06,0.096
-7.730E-06,-0.020
-7.720E-06,-0.008
-7.710E-06,0.000
-7.700E-06,-0.148
-7.690E-06,-0.056
-7.680E-06,0.104
-7.670E-06,0.088
-7.660E-06,0.008
-7.650E-06,0.056
-7.640E-06,-0.008
-7.630E-06,-0.112
-7.620E-06,-0.040
-7.610E-06,0.028
-7.600E-06,0.028
-7.590E-06,0.016
-7.580E-06,0.056
-7.570E-06,0.012
-7.560E-06,-0.008
-7.550E-06,-0.020
-7.540E-06,-0.008
-7.530E-06,-0.020
-7.520E-06,-0.024
-7.510E-06,0.012
-7.500E-06,0.024
-7.490E-06,0.040
-7.480E-06,0.004
-7.470E-06,0.016
-7.460E-06,-0.024
-7.450E-06,-0.040
-7.440E-06,-0.024
-7.430E-06,0.012
-7.420E-06,0.040
-7.410E-06,0.036
-7.400E-06,0.024
-7.390E-06,-0.012
-7.380E-06,-0.028
-7.370E-06,-0.020
-7.360E-06,0.000
-7.350E-06,0.008
-7.340E-06,0.024
-7.330E-06,0.024
-7.320E-06,0.000
-7.310E-06,0.008
-7.300E-06,-0.008
-7.290E-06,-0.012
-7.280E-06,-0.004
-7.270E-06,0.012
-7.260E-06,0.016
-7.250E-06,0.004
-7.240E-06,-0.004
-7.230E-06,-0.008
-7.220E-06,0.012
-7.210E-06,-0.004
-7.200E-06,0.004
-7.190E-06,-0.004
-7.180E-06,0.000
-7.170E-06,0.008
-7.160E-06,0.012
-7.150E-06,0.000
-7.140E-06,-0.012
-7.130E-06,0.024
-7.120E-06,0.000
-7.110E-06,-0.012
-7.100E-06,0.000
-7.090E-06,0.020
-7.080E-06,0.004
-7.070E-06,0.000
-7.060E-06,0.008
-7.050E-06,-0.008
-7.040E-06,-0.008
-7.030E-06,0.000
-7.020E-06,0.012
-7.010E-06,0.004
-7.000E-06,0.020
-6.990E-06,0.012
-6.980E-06,-0.004
-6.970E-06,0.000
-6.960E-06,0.000
-6.950E-06,0.004
-6.940E-06,-0.004
-6.930E-06,0.000
-6.920E-06,-0.004
-6.910E-06,0.020
-6.900E-06,0.028
-6.890E-06,0.012
-6.880E-06,0.000
-6.870E-06,-0.020
-6.860E-06,-0.008
-6.850E-06,0.012
-6.840E-06,0.016
-6.830E-06,0.004
-6.820E-06,0.048
-6.810E-06,0.004
-6.800E-06,-0.016
-6.790E-06,-0.028
-6.780E-06,-0.060
-6.770E-06,0.040
-6.760E-06,0.088
-6.750E-06,0.032
-6.740E-06,-0.032
-6.730E-06,-0.044
-6.720E-06,-0.004
-6.710E-06,-0.068
-6.700E-06,0.088
-6.690E-06,0.044
-6.680E-06,-0.060
-6.670E-06,-0.024
-6.660E-06,0.124
-6.650E-06,-0.012
-6.640E-06,-0.080
-6.630E-06,-0.004
-6.620E-06,0.024
-6.610E-06,0.016
-6.600E-06,0.012
-6.590E-06,0.036
-6.580E-06,-0.036
-6.570E-06,-0.004
-6.560E-06,0.004
-6.550E-06,0.000
-6.540E-06,0.000
-6.530E-06,0.008
-6.520E-06,0.008
-6.510E-06,0.008
-6.500E-06,0.016
-6.490E-06,-0.004
-6.480E-06,0.004
-6.470E-06,-0.008
-6.460E-06,-0.004
-6.450E-06,0.000
-6.440E-06,0.028
-6.430E-06,0.008
-6.420E-06,0.000
-6.410E-06,0.000
-6.400E-06,-0.020
-6.390E-06,0.044
-6.380E-06,0.016
-6.370E-06,-0.024
-6.360E-06,-0.020
-6.350E-06,0.036
-6.340E-06,0.012
-6.330E-06,-0.004
-6.320E-06,0.004
-6.310E-06,-0.008
-6.300E-06,0.020
-6.290E-06,0.000
-6.280E-06,0.024
-6.270E-06,0.000
-6.260E-06,-0.020
-6.250E-06,-0.008
-6.240E-06,0.060
-6.230E-06,0.020
-6.220E-06,-0.040
-6.210E-06,-0.024
-6.200E-06,-0.028
-6.190E-06,0.044
-6.180E-06,0.036
-6.170E-06,0.008
-6.160E-06,-0.036
-6.150E-06,0.020
-6.140E-06,0.008
-6.130E-06,-0.024
-6.120E-06,-0.004
-6.110E-06,0.012
-6.100E-06,0.016
-6.090E-06,0.004
-6.080E-06,0.020
-6.070E-06,-0.028
-6.060E-06,0.008
-6.050E-06,0.040
-6.040E-06,0.000
-6.030E-06,-0.080
-6.020E-06,0.024
-6.010E-06,-0.060
-6.000E-06,0.144
-5.990E-06,0.016
-5.980E-06,-0.012
-5.970E-06,-0.080
-5.960E-06,-0.036
-5.950E-06,0.024
-5.940E-06,0.064
-5.930E-06,0.064
-5.920E-06,-0.056
-5.910E-06,0.016
-5.900E-06,-0.008
-5.890E-06,-0.008
-5.880E-06,-0.040
-5.870E-06,0.056
-5.860E-06,0.004
-5.850E-06,0.012
-5.840E-06,0.028
-5.830E-06,-0.004
-5.820E-06,-0.004
-5.810E-06,-0.008
-5.800E-06,0.028
-5.790E-06,-0.008
-5.780E-06,0.016
-5.770E-06,-0.012
-5.760E-06,0.012
-5.750E-06,0.004
-5.740E-06,0.012
-5.730E-06,0.020
-5.720E-06,0.008
-5.710E-06,0.012
-5.700E-06,-0.040
-5.690E-06,-0.036
-5.680E-06,0.012
-5.670E-06,0.076
-5.660E-06,0.012
-5.650E-06,-0.008
-5.640E-06,0.000
-5.630E-06,-0.004
-5.620E-06,-0.016
-5.610E-06,-0.004
-5.600E-06,0.024
-5.590E-06,0.012
-5.580E-06,0.024
-5.570E-06,0.012
-5.560E-06,0.048
-5.550E-06,-0.040
-5.540E-06,-0.060
-5.530E-06,-0.028
-5.520E-06,-0.104
-5.510E-06,0.132
-5.500E-06,0.160
-5.490E-06,-0.020
-5.480E-06,-0.144
-5.470E-06,0.072
-5.460E-06,0.004
-5.450E-06,-0.052
-5.440E-06,0.016
-5.430E-06,0.024
-5.420E-06,0.008
-5.410E-06,0.024
-5.400E-06,0.056
-5.390E-06,-0.068
-5.380E-06,-0.032
-5.370E-06,0.020
-5.360E-06,0.012
-5.350E-06,0.024
-5.340E-06,0.076
-5.330E-06,-0.084
-5.320E-06,0.004
-5.310E-06,0.024
-5.300E-06,0.036
-5.290E-06,-0.040
-5.280E-06,-0.020
-5.270E-06,-0.012
-5.260E-06,0.040
-5.250E-06,0.096
-5.240E-06,0.012
-5.230E-06,-0.044
-5.220E-06,-0.064
-5.210E-06,0.012
-5.200E-06,-0.016
-5.190E-06,0.048
-5.180E-06,0.008
-5.170E-06,0.060
-5.160E-06,0.000
-5.150E-06,-0.036
-5.140E-06,-0.028
-5.130E-06,0.004
-5.120E-06,0.004
-5.110E-06,0.000
-5.100E-06,0.036
-5.090E-06,0.000
-5.080E-06,0.020
-5.070E-06,-0.008
-5.060E-06,0.000
-5.050E-06,-0.024
-5.040E-06,0.008
-5.030E-06,-0.004
-5.020E-06,0.008
-5.010E-06,0.028
-5.000E-06,0.012
-4.990E-06,0.016
-4.980E-06,-0.004
-4.970E-06,-0.004
-4.960E-06,-0.024
-4.950E-06,0.012
-4.940E-06,0.012
-4.930E-06,0.020
-4.920E-06,0.004
-4.910E-06,-0.008
-4.900E-06,-0.012
-4.890E-06,0.012
-4.880E-06,0.016
-4.870E-06,0.004
-4.860E-06,-0.008
-4.850E-06,0.004
-4.840E-06,-0.004
-4.830E-06,0.024
-4.820E-06,0.008
-4.810E-06,-0.004
-4.800E-06,0.000
-4.790E-06,0.020
-4.780E-06,0.000
-4.770E-06,-0.020
-4.760E-06,0.008
-4.750E-06,0.008
-4.740E-06,0.012
-4.730E-06,0.008
-4.720E-06,0.012
-4.710E-06,-0.008
-4.700E-06,-0.008
-4.690E-06,0.008
-4.680E-06,0.008
-4.670E-06,0.004
-4.660E-06,0.008
-4.650E-06,0.000
-4.640E-06,-0.008
-4.630E-06,0.000
-4.620E-06,0.008
-4.610E-06,0.032
-4.600E-06,0.000
-4.590E-06,-0.016
-4.580E-06,-0.004
-4.570E-06,0.008
-4.560E-06,0.000
-4.550E-06,0.008
-4.540E-06,0.020
-4.530E-06,0.016
-4.520E-06,-0.004
-4.510E-06,0.000
-4.500E-06,0.008
-4.490E-06,-0.008
-4.480E-06,0.000
-4.470E-06,0.024
-4.460E-06,0.012
-4.450E-06,-0.008
-4.440E-06,-0.004
-4.430E-06,-0.004
-4.420E-06,0.000
-4.410E-06,0.012
-4.400E-06,0.008
-4.390E-06,0.004
-4.380E-06,-0.008
-4.370E-06,0.016
-4.360E-06,0.004
-4.350E-06,0.000
-4.340E-06,-0.012
-4.330E-06,-0.004
-4.320E-06,0.012
-4.310E-06,0.008
-4.300E-06,0.004
-4.290E-06,0.000
-4.280E-06,0.008
-4.270E-06,-0.004
-4.260E-06,0.000
-4.250E-06,0.000
-4.240E-06,0.012
-4.230E-06,0.004
-4.220E-06,-0.004
-4.210E-06,-0.004
-4.200E-06,-0.004
-4.190E-06,0.012
-4.180E-06,0.004
-4.170E-06,0.000
-4.160E-06,-0.004
-4.150E-06,0.008
-4.140E-06,0.008
-4.130E-06,0.004
-4.120E-06,0.000
-4.110E-06,0.000
-4.100E-06,0.004
-4.090E-06,0.000
-4.080E-06,-0.004
-4.070E-06,0.004
-4.060E-06,0.012
-4.050E-06,0.012
-4.040E-06,0.004
-4.030E-06,-0.004
-4.020E-06,-0.004
-4.010E-06,-0.008
-4.000E-06,0.008
-3.990E-06,0.020
-3.980E-06,0.020
-3.970E-06,-0.008
-3.960E-06,-0.008
-3.950E-06,-0.016
-3.940E-06,-0.028
-3.930E-06,0.036
-3.920E-06,0.032
-3.910E-06,0.008
-3.900E-06,-0.016
-3.890E-06,0.024
-3.880E-06,-0.008
-3.870E-06,-0.008
-3.860E-06,0.012
-3.850E-06,0.004
-3.840E-06,0.008
-3.830E-06,-0.004
-3.820E-06,0.008
-3.810E-06,-0.008
-3.800E-06,0.008
-3.790E-06,0.008
-3.780E-06,0.024
-3.770E-06,0.004
-3.760E-06,0.000
-3.750E-06,0.000
-3.740E-06,0.004
-3.730E-06,-0.004
-3.720E-06,0.004
-3.710E-06,0.004
-3.700E-06,0.004
-3.690E-06,-0.004
-3.680E-06,-0.020
-3.670E-06,-0.016
-3.660E-06,-0.024
-3.650E-06,0.004
-3.640E-06,0.032
-3.630E-06,0.056
-3.620E-06,0.048
-3.610E-06,0.028
-3.600E-06,-0.004
-3.590E-06,-0.044
-3.580E-06,-0.056
-3.570E-06,0.000
-3.560E-06,0.052
-3.550E-06,0.112
-3.540E-06,0.028
-3.530E-06,-0.008
-3.520E-06,-0.112
-3.510E-06,-0.088
-3.500E-06,0.004
-3.490E-06,0.008
-3.480E-06,0.044
-3.470E-06,0.124
-3.460E-06,0.044
-3.450E-06,-0.060
-3.440E-06,-0.028
-3.430E-06,-0.036
-3.420E-06,-0.028
-3.410E-06,0.004
-3.400E-06,0.016
-3.390E-06,0.020
-3.380E-06,0.028
-3.370E-06,0.024
-3.360E-06,0.028
-3.350E-06,0.008
-3.340E-06,-0.052
-3.330E-06,-0.048
-3.320E-06,-0.036
-3.310E-06,0.004
-3.300E-06,0.068
-3.290E-06,0.092
-3.280E-06,0.060
-3.270E-06,0.012
-3.260E-06,-0.048
-3.250E-06,-0.068
-3.240E-06,-0.028
-3.230E-06,0.004
-3.220E-06,0.044
-3.210E-06,0.052
-3.200E-06,0.020
-3.190E-06,-0.004
-3.180E-06,-0.028
-3.170E-06,-0.040
-3.160E-06,-0.024
-3.150E-06,-0.008
-3.140E-06,0.008
-3.130E-06,0.028
-3.120E-06,0.032
-3.110E-06,0.032
-3.100E-06,0.016
-3.090E-06,-0.004
-3.080E-06,-0.028
-3.070E-06,-0.024
-3.060E-06,-0.020
-3.050E-06,0.012
-3.040E-06,0.036
-3.030E-06,0.036
-3.020E-06,0.020
-3.010E-06,-0.004
-3.000E-06,-0.032
-2.990E-06,-0.028
-2.980E-06,-0.020
-2.970E-06,0.012
-2.960E-06,0.032
-2.950E-06,0.040
-2.940E-06,0.028
-2.930E-06,0.008
-2.920E-06,-0.016
-2.910E-06,-0.024
-2.900E-06,-0.012
-2.890E-06,-0.004
-2.880E-06,0.012
-2.870E-06,0.020
-2.860E-06,0.012
-2.850E-06,0.008
-2.840E-06,-0.012
-2.830E-06,-0.020
-2.820E-06,-0.016
-2.810E-06,0.000
-2.800E-06,0.004
-2.790E-06,0.020
-2.780E-06,0.016
-2.770E-06,0.016
-2.760E-06,0.008
-2.750E-06,-0.008
-2.740E-06,-0.008
-2.730E-06,-0.004
-2.720E-06,0.004
-2.710E-06,0.008
-2.700E-06,0.016
-2.690E-06,0.008
-2.680E-06,0.000
-2.670E-06,-0.004
-2.660E-06,-0.004
-2.650E-06,-0.004
-2.640E-06,0.000
-2.630E-06,0.012
-2.620E-06,0.012
-2.610E-06,0.012
-2.600E-06,0.004
-2.590E-06,-0.004
-2.580E-06,0.000
-2.570E-06,-0.004
-2.560E-06,0.000
-2.550E-06,0.008
-2.540E-06,0.004
-2.530E-06,0.004
-2.520E-06,0.000
-2.510E-06,-0.004
-2.500E-06,-0.004
-2.490E-06,0.000
-2.480E-06,0.000
-2.470E-06,0.000
-2.460E-06,0.004
-2.450E-06,0.008
-2.440E-06,0.004
-2.430E-06,0.004
-2.420E-06,0.004
-2.410E-06,0.004
-2.400E-06,-0.004
-2.390E-06,0.000
-2.380E-06,0.008
-2.370E-06,0.008
-2.360E-06,0.008
-2.350E-06,0.000
-2.340E-06,0.000
-2.330E-06,-0.004
-2.320E-06,0.004
-2.310E-06,0.000
-2.300E-06,0.008
-2.290E-06,0.008
-2.280E-06,0.004
-2.270E-06,0.004
-2.260E-06,0.000
-2.250E-06,0.000
-2.240E-06,0.000
-2.230E-06,0.000
-2.220E-06,0.004
-2.210E-06,0.004
-2.200E-06,0.004
-2.190E-06,0.004
-2.180E-06,0.000
-2.170E-06,0.000
-2.160E-06,0.000
-2.150E-06,-0.004
-2.140E-06,0.000
-2.130E-06,0.008
-2.120E-06,0.008
-2.110E-06,0.008
-2.100E-06,0.004
-2.090E-06,0.004
-2.080E-06,-0.004
-2.070E-06,0.004
-2.060E-06,0.004
-2.050E-06,0.004
-2.040E-06,0.008
-2.030E-06,0.000
-2.020E-06,0.000
-2.010E-06,-0.004
-2.000E-06,-0.004
-1.990E-06,0.000
-1.980E-06,0.008
-1.970E-06,0.000
-1.960E-06,0.004
-1.950E-06,0.008
-1.940E-06,0.004
-1.930E-06,0.000
-1.920E-06,0.000
-1.910E-06,0.000
-1.900E-06,0.004
-1.890E-06,0.004
-1.880E-06,0.004
-1.870E-06,0.004
-1.860E-06,0.004
-1.850E-06,0.000
-1.840E-06,0.000
-1.830E-06,-0.004
-1.820E-06,0.000
-1.810E-06,0.004
-1.800E-06,0.004
-1.790E-06,0.004
-1.780E-06,0.008
-1.770E-06,0.004
-1.760E-06,0.000
-1.750E-06,0.000
-1.740E-06,0.000
-1.730E-06,0.004
-1.720E-06,0.004
-1.710E-06,0.004
-1.700E-06,0.004
-1.690E-06,0.004
-1.680E-06,0.000
-1.670E-06,0.000
-1.660E-06,0.000
-1.650E-06,0.000
-1.640E-06,0.004
-1.630E-06,0.004
-1.620E-06,0.008
-1.610E-06,0.004
-1.600E-06,0.008
-1.590E-06,0.008
-1.580E-06,0.004
-1.570E-06,0.004
-1.560E-06,0.000
-1.550E-06,0.004
-1.540E-06,0.008
-1.530E-06,0.004
-1.520E-06,0.004
-1.510E-06,0.008
-1.500E-06,0.000
-1.490E-06,0.004
-1.480E-06,0.004
-1.470E-06,0.004
-1.460E-06,0.000
-1.450E-06,0.000
-1.440E-06,0.004
-1.430E-06,0.000
-1.420E-06,0.004
-1.410E-06,0.000
-1.400E-06,0.000
-1.390E-06,0.004
-1.380E-06,0.004
-1.370E-06,0.008
-1.360E-06,0.020
-1.350E-06,0.028
-1.340E-06,0.032
-1.330E-06,0.024
-1.320E-06,0.012
-1.310E-06,-0.008
-1.300E-06,-0.020
-1.290E-06,-0.028
-1.280E-06,-0.016
-1.270E-06,-0.004
-1.260E-06,0.000
-1.250E-06,0.008
-1.240E-06,0.016
-1.230E-06,0.024
-1.220E-06,0.012
-1.210E-06,0.008
-1.200E-06,-0.008
-1.190E-06,-0.028
-1.180E-06,-0.012
-1.170E-06,0.020
-1.160E-06,-0.004
-1.150E-06,0.008
-1.140E-06,0.012
-1.130E-06,0.008
-1.120E-06,0.040
-1.110E-06,0.020
-1.100E-06,-0.020
-1.090E-06,-0.048
-1.080E-06,-0.020
-1.070E-06,-0.004
-1.060E-06,0.032
-1.050E-06,0.056
-1.040E-06,0.052
-1.030E-06,0.008
-1.020E-06,-0.028
-1.010E-06,-0.044
-1.000E-06,-0.040
-9.900E-07,-0.004
-9.800E-07,0.024
-9.700E-07,0.024
-9.600E-07,-0.004
-9.500E-07,-0.032
-9.400E-07,-0.056
-9.300E-07,-0.024
-9.200E-07,0.008
-9.100E-07,0.064
-9.000E-07,0.036
-8.900E-07,0.016
-8.800E-07,0.004
-8.700E-07,-0.020
-8.600E-07,-0.040
-8.500E-07,0.004
-8.400E-07,0.056
-8.300E-07,0.040
-8.200E-07,0.016
-8.100E-07,0.000
-8.000E-07,0.000
-7.900E-07,-0.016
-7.800E-07,0.008
-7.700E-07,0.016
-7.600E-07,0.020
-7.500E-07,0.008
-7.400E-07,0.012
-7.300E-07,0.024
-7.200E-07,0.016
-7.100E-07,0.020
-7.000E-07,0.004
-6.900E-07,-0.004
-6.800E-07,-0.004
-6.700E-07,0.016
-6.600E-07,0.024
-6.500E-07,0.040
-6.400E-07,0.032
-6.300E-07,0.000
-6.200E-07,-0.012
-6.100E-07,-0.012
-6.000E-07,0.008
-5.900E-07,0.040
-5.800E-07,0.060
-5.700E-07,0.052
-5.600E-07,0.028
-5.500E-07,0.004
-5.400E-07,0.000
-5.300E-07,0.000
-5.200E-07,0.020
-5.100E-07,0.036
-5.000E-07,0.048
-4.900E-07,0.044
-4.800E-07,0.040
-4.700E-07,0.028
-4.600E-07,0.024
-4.500E-07,0.024
-4.400E-07,0.028
-4.300E-07,0.032
-4.200E-07,0.044
-4.100E-07,0.056
-4.000E-07,0.044
-3.900E-07,0.056
-3.800E-07,0.040
-3.700E-07,0.024
-3.600E-07,0.016
-3.500E-07,0.008
-3.400E-07,-0.012
-3.300E-07,-0.052
-3.200E-07,-0.096
-3.100E-07,-0.108
-3.000E-07,-0.064
-2.900E-07,0.024
-2.800E-07,0.124
-2.700E-07,0.160
-2.600E-07,0.124
-2.500E-07,0.060
-2.400E-07,0.024
-2.300E-07,0.020
-2.200E-07,0.056
-2.100E-07,0.104
-2.000E-07,0.092
-1.900E-07,0.052
-1.800E-07,0.044
-1.700E-07,0.040
-1.600E-07,0.036
-1.500E-07,0.032
-1.400E-07,-0.060
-1.300E-07,-0.232
-1.200E-07,-0.332
-1.100E-07,-0.256
-1.000E-07,-0.072
-9.000E-08,0.140
-8.000E-08,0.328
-7.000E-08,0.328
-6.000E-08,0.124
-5.000E-08,-0.148
-4.000E-08,-0.304
-3.000E-08,-0.256
-2.000E-08,-0.020
-1.000E-08,0.284
0.000E+00,0.472
1.000E-08,0.452
2.000E-08,0.272
3.000E-08,0.056
4.000E-08,-0.128
5.000E-08,-0.168
6.000E-08,-0.028
7.000E-08,0.172
8.000E-08,0.296
9.000E-08,0.336
1.000E-07,0.228
1.100E-07,0.048
1.200E-07,-0.100
1.300E-07,-0.092
1.400E-07,0.044
1.500E-07,0.240
1.600E-07,0.376
1.700E-07,0.376
1.800E-07,0.240
1.900E-07,0.012
2.000E-07,-0.152
2.100E-07,-0.144
2.200E-07,0.000
2.300E-07,0.200
2.400E-07,0.384
2.500E-07,0.428
2.600E-07,0.336
2.700E-07,0.152
2.800E-07,0.012
2.900E-07,-0.044
3.000E-07,0.008
3.100E-07,0.140
3.200E-07,0.284
3.300E-07,0.356
3.400E-07,0.328
3.500E-07,0.220
3.600E-07,0.084
3.700E-07,0.000
3.800E-07,-0.004
3.900E-07,0.072
4.000E-07,0.208
4.100E-07,0.328
4.200E-07,0.340
4.300E-07,0.108
4.400E-07,0.072
4.500E-07,0.000
4.600E-07,0.128
4.700E-07,0.220
4.800E-07,0.256
4.900E-07,0.256
5.000E-07,0.292
5.100E-07,0.224
5.200E-07,0.128
5.300E-07,0.096
5.400E-07,0.092
5.500E-07,0.120
5.600E-07,0.196
5.700E-07,0.260
5.800E-07,0.216
5.900E-07,0.188
6.000E-07,0.144
6.100E-07,0.124
6.200E-07,0.096
6.300E-07,0.152
6.400E-07,0.208
6.500E-07,0.248
6.600E-07,0.260
6.700E-07,0.240
6.800E-07,0.192
6.900E-07,0.124
7.000E-07,0.112
7.100E-07,0.136
7.200E-07,0.188
7.300E-07,0.228
7.400E-07,0.256
7.500E-07,0.244
7.600E-07,0.200
7.700E-07,0.140
7.800E-07,0.120
7.900E-07,0.132
8.000E-07,0.164
8.100E-07,0.208
8.200E-07,0.240
8.300E-07,0.240
8.400E-07,0.208
8.500E-07,0.172
8.600E-07,0.152
8.700E-07,0.152
8.800E-07,0.160
8.900E-07,0.196
9.000E-07,0.224
9.100E-07,0.220
9.200E-07,0.216
9.300E-07,0.188
9.400E-07,0.164
9.500E-07,0.144
9.600E-07,0.156
9.700E-07,0.164
9.800E-07,0.196
9.900E-07,0.204
1.000E-06,0.208
1.010E-06,0.204
1.020E-06,0.184
1.030E-06,0.164
1.040E-06,0.160
1.050E-06,0.188
1.060E-06,0.196
1.070E-06,0.212
1.080E-06,0.208
1.090E-06,0.192
1.100E-06,0.176
1.110E-06,0.164
1.120E-06,0.176
1.130E-06,0.192
1.140E-06,0.196
1.150E-06,0.208
1.160E-06,0.200
1.170E-06,0.192
1.180E-06,0.184
1.190E-06,0.176
1.200E-06,0.172
1.210E-06,0.180
1.220E-06,0.188
1.230E-06,0.192
1.240E-06,0.200
1.250E-06,0.196
1.260E-06,0.184
1.270E-06,0.172
1.280E-06,0.176
1.290E-06,0.180
1.300E-06,0.192
1.310E-06,0.192
1.320E-06,0.196
1.330E-06,0.192
1.340E-06,0.184
1.350E-06,0.180
1.360E-06,0.172
1.370E-06,0.180
1.380E-06,0.184
1.390E-06,0.188
1.400E-06,0.192
1.410E-06,0.192
1.420E-06,0.184
1.430E-06,0.176
1.440E-06,0.176
1.450E-06,0.180
1.460E-06,0.176
1.470E-06,0.176
1.480E-06,0.180
1.490E-06,0.188
1.500E-06,0.192
1.510E-06,0.184
1.520E-06,0.184
1.530E-06,0.176
1.540E-06,0.176
1.550E-06,0.180
1.560E-06,0.188
1.570E-06,0.188
1.580E-06,0.184
1.590E-06,0.184
1.600E-06,0.176
1.610E-06,0.176
1.620E-06,0.176
1.630E-06,0.172
1.640E-06,0.180
1.650E-06,0.188
1.660E-06,0.184
1.670E-06,0.184
1.680E-06,0.176
1.690E-06,0.176
1.700E-06,0.176
1.710E-06,0.180
1.720E-06,0.176
1.730E-06,0.176
1.740E-06,0.172
1.750E-06,0.176
1.760E-06,0.180
1.770E-06,0.176
1.780E-06,0.172
1.790E-06,0.172
1.800E-06,0.172
1.810E-06,0.172
1.820E-06,0.168
1.830E-06,0.172
1.840E-06,0.176
1.850E-06,0.172
1.860E-06,0.172
1.870E-06,0.176
1.880E-06,0.176
1.890E-06,0.172
1.900E-06,0.172
1.910E-06,0.172
1.920E-06,0.164
1.930E-06,0.164
1.940E-06,0.164
1.950E-06,0.160
1.960E-06,0.160
1.970E-06,0.168
1.980E-06,0.172
1.990E-06,0.164
2.000E-06,0.168
2.010E-06,0.168
2.020E-06,0.168
2.030E-06,0.172
2.040E-06,0.164
2.050E-06,0.168
2.060E-06,0.160
2.070E-06,0.164
2.080E-06,0.164
2.090E-06,0.168
2.100E-06,0.168
2.110E-06,0.160
2.120E-06,0.164
2.130E-06,0.164
2.140E-06,0.160
2.150E-06,0.156
2.160E-06,0.164
2.170E-06,0.160
2.180E-06,0.164
2.190E-06,0.160
2.200E-06,0.164
2.210E-06,0.160
2.220E-06,0.164
2.230E-06,0.160
2.240E-06,0.160
2.250E-06,0.164
2.260E-06,0.160
2.270E-06,0.164
2.280E-06,0.164
2.290E-06,0.152
2.300E-06,0.156
2.310E-06,0.160
2.320E-06,0.156
2.330E-06,0.152
2.340E-06,0.156
2.350E-06,0.152
2.360E-06,0.156
2.370E-06,0.152
2.380E-06,0.156
2.390E-06,0.156
2.400E-06,0.148
2.410E-06,0.148
2.420E-06,0.152
2.430E-06,0.156
2.440E-06,0.156
2.450E-06,0.156
2.460E-06,0.148
2.470E-06,0.152
2.480E-06,0.148
2.490E-06,0.148
2.500E-06,0.148
2.510E-06,0.144
2.520E-06,0.148
2.530E-06,0.152
2.540E-06,0.152
2.550E-06,0.144
2.560E-06,0.144
2.570E-06,0.144
2.580E-06,0.148
2.590E-06,0.140
2.600E-06,0.144
2.610E-06,0.144
2.620E-06,0.144
2.630E-06,0.144
2.640E-06,0.144
2.650E-06,0.140
2.660E-06,0.140
2.670E-06,0.140
2.680E-06,0.140
2.690E-06,0.140
2.700E-06,0.148
2.710E-06,0.136
2.720E-06,0.136
2.730E-06,0.140
2.740E-06,0.136
2.750E-06,0.136
2.760E-06,0.136
2.770E-06,0.136
2.780E-06,0.140
2.790E-06,0.136
2.800E-06,0.140
2.810E-06,0.136
2.820E-06,0.136
2.830E-06,0.132
2.840E-06,0.136
2.850E-06,0.136
2.860E-06,0.136
2.870E-06,0.140
2.880E-06,0.140
2.890E-06,0.136
2.900E-06,0.136
2.910E-06,0.132
2.920E-06,0.132
2.930E-06,0.136
2.940E-06,0.132
2.950E-06,0.132
2.960E-06,0.128
2.970E-06,0.132
2.980E-06,0.140
2.990E-06,0.128
3.000E-06,0.128
3.010E-06,0.132
3.020E-06,0.128
3.030E-06,0.128
3.040E-06,0.128
3.050E-06,0.128
3.060E-06,0.124
3.070E-06,0.124
3.080E-06,0.128
3.090E-06,0.132
3.100E-06,0.128
3.110E-06,0.128
3.120E-06,0.124
3.130E-06,0.124
3.140E-06,0.124
3.150E-06,0.128
3.160E-06,0.128
3.170E-06,0.128
3.180E-06,0.128
3.190E-06,0.132
3.200E-06,0.124
3.210E-06,0.124
3.220E-06,0.124
3.230E-06,0.124
3.240E-06,0.124
3.250E-06,0.128
3.260E-06,0.128
3.270E-06,0.120
3.280E-06,0.120
3.290E-06,0.116
3.300E-06,0.116
3.310E-06,0.120
3.320E-06,0.124
3.330E-06,0.124
3.340E-06,0.124
3.350E-06,0.124
