mediciones/Mediciones filtradas (saque las feas)/5-15/-64.25/WaveData47626.csv

#timebase=2000000(ps)
,#voltbase=2000000(mv/100)
#size=4000
-8.400E-06,0.080
-8.390E-06,-0.080
-8.380E-06,0.000
-8.370E-06,0.080
-8.360E-06,0.000
-8.350E-06,0.080
-8.340E-06,0.080
-8.330E-06,0.080
-8.320E-06,0.080
-8.310E-06,0.080
-8.300E-06,0.160
-8.290E-06,0.000
-8.280E-06,0.000
-8.270E-06,0.080
-8.260E-06,0.080
-8.250E-06,0.080
-8.240E-06,0.080
-8.230E-06,0.080
-8.220E-06,0.000
-8.210E-06,0.080
-8.200E-06,0.080
-8.190E-06,0.080
-8.180E-06,0.080
-8.170E-06,-0.080
-8.160E-06,0.080
-8.150E-06,0.000
-8.140E-06,0.080
-8.130E-06,0.080
-8.120E-06,0.160
-8.110E-06,0.160
-8.100E-06,0.000
-8.090E-06,0.000
-8.080E-06,0.080
-8.070E-06,-0.080
-8.060E-06,0.000
-8.050E-06,0.000
-8.040E-06,0.080
-8.030E-06,0.000
-8.020E-06,0.080
-8.010E-06,0.080
-8.000E-06,0.080
-7.990E-06,0.080
-7.980E-06,0.000
-7.970E-06,0.080
-7.960E-06,0.080
-7.950E-06,0.080
-7.940E-06,0.000
-7.930E-06,0.080
-7.920E-06,0.080
-7.910E-06,0.080
-7.900E-06,0.080
-7.890E-06,0.000
-7.880E-06,0.160
-7.870E-06,0.000
-7.860E-06,0.080
-7.850E-06,0.080
-7.840E-06,0.080
-7.830E-06,0.080
-7.820E-06,0.000
-7.810E-06,0.080
-7.800E-06,-0.080
-7.790E-06,0.080
-7.780E-06,0.160
-7.770E-06,0.000
-7.760E-06,0.080
-7.750E-06,0.080
-7.740E-06,0.080
-7.730E-06,0.080
-7.720E-06,0.000
-7.710E-06,0.080
-7.700E-06,-0.080
-7.690E-06,0.080
-7.680E-06,0.000
-7.670E-06,0.000
-7.660E-06,0.000
-7.650E-06,0.080
-7.640E-06,0.080
-7.630E-06,0.080
-7.620E-06,0.080
-7.610E-06,0.160
-7.600E-06,-0.080
-7.590E-06,0.080
-7.580E-06,0.080
-7.570E-06,0.080
-7.560E-06,0.000
-7.550E-06,0.080
-7.540E-06,0.080
-7.530E-06,0.080
-7.520E-06,0.080
-7.510E-06,0.080
-7.500E-06,0.080
-7.490E-06,0.000
-7.480E-06,0.080
-7.470E-06,0.080
-7.460E-06,0.000
-7.450E-06,0.000
-7.440E-06,-0.080
-7.430E-06,0.080
-7.420E-06,0.000
-7.410E-06,0.080
-7.400E-06,0.080
-7.390E-06,0.000
-7.380E-06,0.080
-7.370E-06,0.000
-7.360E-06,0.080
-7.350E-06,0.000
-7.340E-06,0.080
-7.330E-06,0.000
-7.320E-06,0.000
-7.310E-06,0.000
-7.300E-06,0.000
-7.290E-06,0.080
-7.280E-06,0.000
-7.270E-06,0.080
-7.260E-06,0.000
-7.250E-06,0.000
-7.240E-06,0.080
-7.230E-06,0.160
-7.220E-06,0.000
-7.210E-06,0.080
-7.200E-06,0.080
-7.190E-06,0.080
-7.180E-06,0.080
-7.170E-06,0.080
-7.160E-06,0.160
-7.150E-06,0.160
-7.140E-06,0.000
-7.130E-06,0.080
-7.120E-06,0.080
-7.110E-06,0.080
-7.100E-06,0.000
-7.090E-06,0.080
-7.080E-06,0.080
-7.070E-06,0.080
-7.060E-06,0.080
-7.050E-06,0.000
-7.040E-06,0.080
-7.030E-06,0.160
-7.020E-06,0.160
-7.010E-06,0.160
-7.000E-06,0.000
-6.990E-06,0.080
-6.980E-06,0.080
-6.970E-06,0.080
-6.960E-06,0.080
-6.950E-06,0.160
-6.940E-06,0.160
-6.930E-06,0.160
-6.920E-06,0.000
-6.910E-06,-0.080
-6.900E-06,0.080
-6.890E-06,0.160
-6.880E-06,0.080
-6.870E-06,0.000
-6.860E-06,0.080
-6.850E-06,0.080
-6.840E-06,0.080
-6.830E-06,0.080
-6.820E-06,0.080
-6.810E-06,0.160
-6.800E-06,0.000
-6.790E-06,0.000
-6.780E-06,0.080
-6.770E-06,0.000
-6.760E-06,0.080
-6.750E-06,0.000
-6.740E-06,0.000
-6.730E-06,0.000
-6.720E-06,0.080
-6.710E-06,0.000
-6.700E-06,0.080
-6.690E-06,0.000
-6.680E-06,0.080
-6.670E-06,0.080
-6.660E-06,0.000
-6.650E-06,0.000
-6.640E-06,0.080
-6.630E-06,0.000
-6.620E-06,0.000
-6.610E-06,0.160
-6.600E-06,-0.080
-6.590E-06,0.000
-6.580E-06,0.080
-6.570E-06,0.080
-6.560E-06,0.160
-6.550E-06,0.000
-6.540E-06,0.000
-6.530E-06,0.080
-6.520E-06,0.080
-6.510E-06,0.160
-6.500E-06,0.000
-6.490E-06,0.000
-6.480E-06,0.080
-6.470E-06,-0.080
-6.460E-06,0.080
-6.450E-06,0.000
-6.440E-06,0.000
-6.430E-06,0.000
-6.420E-06,0.080
-6.410E-06,0.160
-6.400E-06,0.000
-6.390E-06,0.080
-6.380E-06,0.080
-6.370E-06,0.080
-6.360E-06,0.000
-6.350E-06,0.000
-6.340E-06,0.080
-6.330E-06,0.080
-6.320E-06,0.000
-6.310E-06,0.080
-6.300E-06,0.080
-6.290E-06,-0.080
-6.280E-06,0.080
-6.270E-06,0.080
-6.260E-06,0.080
-6.250E-06,0.080
-6.240E-06,0.080
-6.230E-06,0.080
-6.220E-06,0.080
-6.210E-06,0.000
-6.200E-06,0.080
-6.190E-06,0.080
-6.180E-06,0.080
-6.170E-06,0.080
-6.160E-06,0.080
-6.150E-06,0.160
-6.140E-06,0.000
-6.130E-06,0.080
-6.120E-06,0.080
-6.110E-06,0.000
-6.100E-06,0.080
-6.090E-06,0.080
-6.080E-06,0.080
-6.070E-06,0.080
-6.060E-06,0.000
-6.050E-06,0.000
-6.040E-06,0.080
-6.030E-06,0.080
-6.020E-06,0.080
-6.010E-06,0.080
-6.000E-06,0.080
-5.990E-06,0.000
-5.980E-06,0.080
-5.970E-06,0.000
-5.960E-06,0.000
-5.950E-06,0.080
-5.940E-06,0.000
-5.930E-06,0.080
-5.920E-06,0.000
-5.910E-06,0.080
-5.900E-06,0.080
-5.890E-06,0.080
-5.880E-06,0.080
-5.870E-06,0.160
-5.860E-06,0.160
-5.850E-06,0.160
-5.840E-06,0.160
-5.830E-06,0.160
-5.820E-06,0.160
-5.810E-06,0.160
-5.800E-06,0.160
-5.790E-06,0.160
-5.780E-06,0.000
-5.770E-06,0.080
-5.760E-06,0.000
-5.750E-06,0.080
-5.740E-06,0.080
-5.730E-06,0.000
-5.720E-06,0.080
-5.710E-06,0.080
-5.700E-06,0.080
-5.690E-06,0.000
-5.680E-06,0.080
-5.670E-06,0.000
-5.660E-06,0.080
-5.650E-06,0.000
-5.640E-06,0.080
-5.630E-06,0.080
-5.620E-06,0.000
-5.610E-06,0.080
-5.600E-06,0.000
-5.590E-06,0.080
-5.580E-06,0.080
-5.570E-06,0.000
-5.560E-06,0.000
-5.550E-06,0.080
-5.540E-06,0.080
-5.530E-06,0.000
-5.520E-06,0.000
-5.510E-06,0.000
-5.500E-06,0.000
-5.490E-06,0.000
-5.480E-06,0.080
-5.470E-06,0.080
-5.460E-06,0.000
-5.450E-06,0.080
-5.440E-06,0.160
-5.430E-06,0.160
-5.420E-06,0.160
-5.410E-06,0.080
-5.400E-06,0.000
-5.390E-06,0.000
-5.380E-06,0.080
-5.370E-06,0.000
-5.360E-06,0.080
-5.350E-06,0.000
-5.340E-06,0.080
-5.330E-06,0.080
-5.320E-06,0.080
-5.310E-06,0.080
-5.300E-06,0.000
-5.290E-06,0.000
-5.280E-06,0.080
-5.270E-06,0.080
-5.260E-06,0.080
-5.250E-06,0.080
-5.240E-06,0.080
-5.230E-06,0.080
-5.220E-06,0.080
-5.210E-06,0.080
-5.200E-06,0.160
-5.190E-06,-0.080
-5.180E-06,0.000
-5.170E-06,0.080
-5.160E-06,-0.080
-5.150E-06,0.000
-5.140E-06,0.080
-5.130E-06,0.000
-5.120E-06,0.080
-5.110E-06,0.000
-5.100E-06,0.000
-5.090E-06,0.080
-5.080E-06,0.080
-5.070E-06,0.000
-5.060E-06,0.000
-5.050E-06,0.000
-5.040E-06,0.080
-5.030E-06,0.080
-5.020E-06,0.080
-5.010E-06,0.000
-5.000E-06,0.080
-4.990E-06,0.000
-4.980E-06,0.080
-4.970E-06,0.000
-4.960E-06,0.080
-4.950E-06,0.080
-4.940E-06,0.000
-4.930E-06,0.080
-4.920E-06,0.000
-4.910E-06,0.080
-4.900E-06,0.080
-4.890E-06,-0.080
-4.880E-06,0.000
-4.870E-06,0.080
-4.860E-06,0.000
-4.850E-06,0.000
-4.840E-06,0.080
-4.830E-06,0.080
-4.820E-06,0.080
-4.810E-06,0.000
-4.800E-06,0.080
-4.790E-06,0.080
-4.780E-06,0.080
-4.770E-06,0.000
-4.760E-06,0.080
-4.750E-06,0.080
-4.740E-06,0.080
-4.730E-06,0.080
-4.720E-06,0.080
-4.710E-06,0.080
-4.700E-06,0.080
-4.690E-06,0.080
-4.680E-06,0.080
-4.670E-06,0.000
-4.660E-06,0.000
-4.650E-06,0.080
-4.640E-06,0.080
-4.630E-06,0.000
-4.620E-06,0.000
-4.610E-06,0.080
-4.600E-06,0.160
-4.590E-06,0.160
-4.580E-06,0.080
-4.570E-06,0.000
-4.560E-06,0.000
-4.550E-06,0.080
-4.540E-06,0.080
-4.530E-06,0.080
-4.520E-06,0.080
-4.510E-06,0.080
-4.500E-06,0.080
-4.490E-06,0.000
-4.480E-06,0.080
-4.470E-06,0.000
-4.460E-06,0.080
-4.450E-06,0.000
-4.440E-06,0.080
-4.430E-06,0.080
-4.420E-06,0.080
-4.410E-06,0.080
-4.400E-06,0.080
-4.390E-06,0.080
-4.380E-06,0.000
-4.370E-06,0.080
-4.360E-06,0.080
-4.350E-06,-0.080
-4.340E-06,0.080
-4.330E-06,0.160
-4.320E-06,0.160
-4.310E-06,0.160
-4.300E-06,0.160
-4.290E-06,-0.080
-4.280E-06,0.080
-4.270E-06,0.080
-4.260E-06,0.080
-4.250E-06,0.080
-4.240E-06,0.080
-4.230E-06,0.000
-4.220E-06,0.080
-4.210E-06,0.080
-4.200E-06,0.000
-4.190E-06,0.080
-4.180E-06,0.000
-4.170E-06,0.080
-4.160E-06,0.000
-4.150E-06,0.080
-4.140E-06,0.000
-4.130E-06,0.080
-4.120E-06,0.160
-4.110E-06,0.000
-4.100E-06,0.000
-4.090E-06,0.080
-4.080E-06,0.000
-4.070E-06,0.080
-4.060E-06,0.080
-4.050E-06,0.000
-4.040E-06,0.000
-4.030E-06,0.000
-4.020E-06,0.000
-4.010E-06,-0.240
-4.000E-06,-0.720
-3.990E-06,-1.520
-3.980E-06,-2.400
-3.970E-06,-2.880
-3.960E-06,-3.040
-3.950E-06,-2.800
-3.940E-06,-2.240
-3.930E-06,-1.520
-3.920E-06,-0.880
-3.910E-06,0.000
-3.900E-06,0.880
-3.890E-06,1.920
-3.880E-06,2.800
-3.870E-06,2.960
-3.860E-06,2.640
-3.850E-06,2.400
-3.840E-06,2.080
-3.830E-06,1.840
-3.820E-06,1.760
-3.810E-06,1.680
-3.800E-06,1.440
-3.790E-06,1.200
-3.780E-06,1.040
-3.770E-06,0.960
-3.760E-06,1.040
-3.750E-06,0.960
-3.740E-06,0.880
-3.730E-06,0.480
-3.720E-06,0.000
-3.710E-06,-0.480
-3.700E-06,-0.880
-3.690E-06,-1.040
-3.680E-06,-1.440
-3.670E-06,-1.760
-3.660E-06,-1.840
-3.650E-06,-1.920
-3.640E-06,-1.760
-3.630E-06,-1.520
-3.620E-06,-1.040
-3.610E-06,-0.720
-3.600E-06,-0.240
-3.590E-06,0.000
-3.580E-06,0.240
-3.570E-06,0.560
-3.560E-06,0.720
-3.550E-06,0.640
-3.540E-06,0.720
-3.530E-06,0.400
-3.520E-06,0.160
-3.510E-06,0.080
-3.500E-06,-0.080
-3.490E-06,-0.240
-3.480E-06,-0.240
-3.470E-06,-0.320
-3.460E-06,-0.160
-3.450E-06,-0.080
-3.440E-06,-0.080
-3.430E-06,0.000
-3.420E-06,0.080
-3.410E-06,0.240
-3.400E-06,0.080
-3.390E-06,0.160
-3.380E-06,0.160
-3.370E-06,0.000
-3.360E-06,0.000
-3.350E-06,0.080
-3.340E-06,0.000
-3.330E-06,0.080
-3.320E-06,0.160
-3.310E-06,0.240
-3.300E-06,0.400
-3.290E-06,0.560
-3.280E-06,0.720
-3.270E-06,0.720
-3.260E-06,0.880
-3.250E-06,0.880
-3.240E-06,0.880
-3.230E-06,0.800
-3.220E-06,0.640
-3.210E-06,0.640
-3.200E-06,0.400
-3.190E-06,0.080
-3.180E-06,0.080
-3.170E-06,-0.080
-3.160E-06,-0.240
-3.150E-06,-0.320
-3.140E-06,-0.320
-3.130E-06,-0.320
-3.120E-06,-0.240
-3.110E-06,-0.240
-3.100E-06,-0.080
-3.090E-06,0.000
-3.080E-06,0.000
-3.070E-06,0.080
-3.060E-06,0.080
-3.050E-06,0.160
-3.040E-06,0.080
-3.030E-06,0.080
-3.020E-06,0.160
-3.010E-06,0.000
-3.000E-06,0.160
-2.990E-06,0.080
-2.980E-06,0.080
-2.970E-06,0.160
-2.960E-06,0.160
-2.950E-06,0.240
-2.940E-06,0.160
-2.930E-06,0.160
-2.920E-06,0.160
-2.910E-06,0.080
-2.900E-06,0.080
-2.890E-06,0.080
-2.880E-06,0.080
-2.870E-06,-0.080
-2.860E-06,0.000
-2.850E-06,-0.160
-2.840E-06,-0.080
-2.830E-06,-0.160
-2.820E-06,-0.080
-2.810E-06,-0.160
-2.800E-06,-0.080
-2.790E-06,0.000
-2.780E-06,-0.080
-2.770E-06,0.000
-2.760E-06,0.000
-2.750E-06,0.000
-2.740E-06,0.080
-2.730E-06,0.240
-2.720E-06,0.160
-2.710E-06,0.240
-2.700E-06,0.320
-2.690E-06,0.240
-2.680E-06,0.160
-2.670E-06,0.160
-2.660E-06,0.400
-2.650E-06,0.320
-2.640E-06,0.240
-2.630E-06,0.320
-2.620E-06,0.240
-2.610E-06,0.160
-2.600E-06,0.080
-2.590E-06,0.160
-2.580E-06,0.080
-2.570E-06,0.160
-2.560E-06,0.080
-2.550E-06,0.080
-2.540E-06,0.000
-2.530E-06,0.000
-2.520E-06,0.000
-2.510E-06,-0.080
-2.500E-06,0.000
-2.490E-06,-0.160
-2.480E-06,-0.320
-2.470E-06,-0.320
-2.460E-06,-0.240
-2.450E-06,-0.240
-2.440E-06,-0.320
-2.430E-06,-0.160
-2.420E-06,-0.320
-2.410E-06,-0.240
-2.400E-06,-0.160
-2.390E-06,-0.160
-2.380E-06,-0.080
-2.370E-06,-0.080
-2.360E-06,-0.080
-2.350E-06,-0.080
-2.340E-06,-0.240
-2.330E-06,0.000
-2.320E-06,-0.080
-2.310E-06,-0.080
-2.300E-06,0.080
-2.290E-06,-0.080
-2.280E-06,0.000
-2.270E-06,-0.080
-2.260E-06,-0.080
-2.250E-06,0.000
-2.240E-06,0.160
-2.230E-06,-0.080
-2.220E-06,-0.080
-2.210E-06,0.000
-2.200E-06,0.080
-2.190E-06,0.080
-2.180E-06,0.080
-2.170E-06,0.080
-2.160E-06,0.080
-2.150E-06,-0.080
-2.140E-06,0.000
-2.130E-06,0.000
-2.120E-06,0.000
-2.110E-06,0.080
-2.100E-06,0.080
-2.090E-06,0.080
-2.080E-06,-0.080
-2.070E-06,-0.080
-2.060E-06,0.000
-2.050E-06,0.000
-2.040E-06,0.000
-2.030E-06,0.000
-2.020E-06,0.080
-2.010E-06,-0.080
-2.000E-06,-0.080
-1.990E-06,-0.080
-1.980E-06,-0.160
-1.970E-06,-0.160
-1.960E-06,-0.080
-1.950E-06,-0.160
-1.940E-06,-0.160
-1.930E-06,-0.240
-1.920E-06,-0.160
-1.910E-06,-0.240
-1.900E-06,-0.080
-1.890E-06,-0.080
-1.880E-06,-0.160
-1.870E-06,-0.240
-1.860E-06,0.000
-1.850E-06,-0.080
-1.840E-06,-0.080
-1.830E-06,-0.080
-1.820E-06,-0.080
-1.810E-06,0.000
-1.800E-06,-0.080
-1.790E-06,-0.080
-1.780E-06,0.000
-1.770E-06,0.000
-1.760E-06,0.080
-1.750E-06,0.080
-1.740E-06,-0.080
-1.730E-06,-0.080
-1.720E-06,-0.080
-1.710E-06,-0.080
-1.700E-06,0.000
-1.690E-06,-0.080
-1.680E-06,0.000
-1.670E-06,-0.080
-1.660E-06,-0.240
-1.650E-06,-0.080
-1.640E-06,-0.160
-1.630E-06,-0.240
-1.620E-06,-0.320
-1.610E-06,-0.400
-1.600E-06,-0.400
-1.590E-06,-0.320
-1.580E-06,-0.400
-1.570E-06,-0.480
-1.560E-06,-0.400
-1.550E-06,-0.400
-1.540E-06,-0.400
-1.530E-06,-0.480
-1.520E-06,-0.400
-1.510E-06,-0.400
-1.500E-06,-0.480
-1.490E-06,-0.480
-1.480E-06,-0.400
-1.470E-06,-0.400
-1.460E-06,-0.480
-1.450E-06,-0.480
-1.440E-06,-0.400
-1.430E-06,-0.400
-1.420E-06,-0.480
-1.410E-06,-0.400
-1.400E-06,-0.400
-1.390E-06,-0.560
-1.380E-06,-0.480
-1.370E-06,-0.560
-1.360E-06,-0.480
-1.350E-06,-0.640
-1.340E-06,-0.480
-1.330E-06,-0.480
-1.320E-06,-0.640
-1.310E-06,-0.560
-1.300E-06,-0.720
-1.290E-06,-0.640
-1.280E-06,-0.720
-1.270E-06,-0.720
-1.260E-06,-0.640
-1.250E-06,-0.480
-1.240E-06,-0.560
-1.230E-06,-0.560
-1.220E-06,-0.400
-1.210E-06,-0.400
-1.200E-06,-0.480
-1.190E-06,-0.640
-1.180E-06,-0.640
-1.170E-06,-0.560
-1.160E-06,-0.720
-1.150E-06,-0.960
-1.140E-06,-1.040
-1.130E-06,-1.040
-1.120E-06,-0.960
-1.110E-06,-0.960
-1.100E-06,-1.120
-1.090E-06,-1.120
-1.080E-06,-1.200
-1.070E-06,-1.280
-1.060E-06,-1.440
-1.050E-06,-1.280
-1.040E-06,-1.280
-1.030E-06,-1.360
-1.020E-06,-1.440
-1.010E-06,-1.360
-1.000E-06,-1.520
-9.900E-07,-1.520
-9.800E-07,-1.600
-9.700E-07,-1.360
-9.600E-07,-1.440
-9.500E-07,-1.600
-9.400E-07,-1.440
-9.300E-07,-1.440
-9.200E-07,-1.440
-9.100E-07,-1.360
-9.000E-07,-1.440
-8.900E-07,-1.360
-8.800E-07,-1.280
-8.700E-07,-1.360
-8.600E-07,-1.360
-8.500E-07,-1.120
-8.400E-07,-1.040
-8.300E-07,-1.120
-8.200E-07,-1.120
-8.100E-07,-0.960
-8.000E-07,-1.040
-7.900E-07,-1.120
-7.800E-07,-1.120
-7.700E-07,-1.200
-7.600E-07,-1.200
-7.500E-07,-1.040
-7.400E-07,-1.120
-7.300E-07,-1.120
-7.200E-07,-1.200
-7.100E-07,-1.280
-7.000E-07,-1.280
-6.900E-07,-1.440
-6.800E-07,-1.520
-6.700E-07,-1.360
-6.600E-07,-1.440
-6.500E-07,-1.360
-6.400E-07,-1.360
-6.300E-07,-1.360
-6.200E-07,-1.280
-6.100E-07,-1.360
-6.000E-07,-1.440
-5.900E-07,-1.360
-5.800E-07,-1.280
-5.700E-07,-1.360
-5.600E-07,-1.280
-5.500E-07,-1.280
-5.400E-07,-1.200
-5.300E-07,-1.200
-5.200E-07,-1.280
-5.100E-07,-1.040
-5.000E-07,-1.120
-4.900E-07,-1.120
-4.800E-07,-1.040
-4.700E-07,-1.120
-4.600E-07,-1.200
-4.500E-07,-1.120
-4.400E-07,-1.120
-4.300E-07,-1.040
-4.200E-07,-1.040
-4.100E-07,-1.120
-4.000E-07,-1.120
-3.900E-07,-1.120
-3.800E-07,-1.120
-3.700E-07,-1.040
-3.600E-07,-1.040
-3.500E-07,-1.040
-3.400E-07,-1.040
-3.300E-07,-1.120
-3.200E-07,-1.120
-3.100E-07,-1.120
-3.000E-07,-1.120
-2.900E-07,-1.040
-2.800E-07,-1.040
-2.700E-07,-1.040
-2.600E-07,-1.040
-2.500E-07,-1.040
-2.400E-07,-1.040
-2.300E-07,-0.960
-2.200E-07,-0.960
-2.100E-07,-0.960
-2.000E-07,-0.960
-1.900E-07,-0.960
-1.800E-07,-0.960
-1.700E-07,-0.960
-1.600E-07,-0.960
-1.500E-07,-0.960
-1.400E-07,-0.960
-1.300E-07,-1.040
-1.200E-07,-1.040
-1.100E-07,-1.040
-1.000E-07,-1.040
-9.000E-08,-1.040
-8.000E-08,-1.120
-7.000E-08,-0.960
-6.000E-08,-0.960
-5.000E-08,-0.880
-4.000E-08,-0.720
-3.000E-08,-0.960
-2.000E-08,-1.040
-1.000E-08,-1.120
0.000E+00,-1.440
1.000E-08,-1.920
2.000E-08,-1.920
3.000E-08,-1.360
4.000E-08,-1.200
5.000E-08,-1.120
6.000E-08,-1.120
7.000E-08,-1.440
8.000E-08,-1.440
9.000E-08,-1.520
1.000E-07,-1.440
1.100E-07,-1.360
1.200E-07,-1.600
1.300E-07,-1.920
1.400E-07,-2.240
1.500E-07,-2.560
1.600E-07,-2.400
1.700E-07,-2.240
1.800E-07,-2.400
1.900E-07,-2.560
2.000E-07,-2.800
2.100E-07,-3.120
2.200E-07,-3.200
2.300E-07,-3.440
2.400E-07,-3.520
2.500E-07,-3.680
2.600E-07,-3.760
2.700E-07,-3.920
2.800E-07,-4.160
2.900E-07,-4.160
3.000E-07,-4.160
3.100E-07,-4.160
3.200E-07,-4.080
3.300E-07,-3.920
3.400E-07,-3.840
3.500E-07,-3.840
3.600E-07,-3.920
3.700E-07,-3.760
3.800E-07,-3.920
3.900E-07,-4.000
4.000E-07,-3.920
4.100E-07,-3.840
4.200E-07,-4.160
4.300E-07,-4.160
4.400E-07,-4.240
4.500E-07,-4.400
4.600E-07,-4.480
4.700E-07,-4.800
4.800E-07,-5.040
4.900E-07,-5.200
5.000E-07,-5.440
5.100E-07,-5.520
5.200E-07,-5.600
5.300E-07,-5.680
5.400E-07,-5.680
5.500E-07,-5.600
5.600E-07,-5.360
5.700E-07,-5.440
5.800E-07,-5.520
5.900E-07,-5.440
6.000E-07,-5.520
6.100E-07,-5.600
6.200E-07,-5.680
6.300E-07,-5.680
6.400E-07,-5.600
6.500E-07,-5.440
6.600E-07,-5.520
6.700E-07,-5.600
6.800E-07,-5.520
6.900E-07,-5.600
7.000E-07,-5.680
7.100E-07,-5.680
7.200E-07,-5.680
7.300E-07,-6.000
7.400E-07,-6.320
7.500E-07,-6.400
7.600E-07,-6.400
7.700E-07,-6.800
7.800E-07,-5.920
7.900E-07,-4.720
8.000E-07,-5.040
8.100E-07,-5.360
8.200E-07,-5.920
8.300E-07,-6.160
8.400E-07,-6.640
8.500E-07,-6.160
8.600E-07,-5.840
8.700E-07,-5.920
8.800E-07,-6.160
8.900E-07,-6.880
9.000E-07,-6.800
9.100E-07,-7.120
9.200E-07,-6.640
9.300E-07,-6.800
9.400E-07,-6.960
9.500E-07,-7.680
9.600E-07,-8.080
9.700E-07,-8.480
9.800E-07,-9.200
9.900E-07,-9.360
1.000E-06,-9.360
1.010E-06,-9.200
1.020E-06,-9.760
1.030E-06,-9.840
1.040E-06,-9.520
1.050E-06,-9.280
1.060E-06,-9.440
1.070E-06,-8.960
1.080E-06,-7.920
1.090E-06,-7.840
1.100E-06,-8.000
1.110E-06,-8.080
1.120E-06,-8.080
1.130E-06,-8.320
1.140E-06,-8.560
1.150E-06,-8.240
1.160E-06,-8.400
1.170E-06,-8.640
1.180E-06,-8.880
1.190E-06,-9.040
1.200E-06,-9.840
1.210E-06,-10.240
1.220E-06,-10.240
1.230E-06,-10.080
1.240E-06,-10.320
1.250E-06,-10.320
1.260E-06,-10.400
1.270E-06,-10.640
1.280E-06,-10.640
1.290E-06,-10.400
1.300E-06,-10.080
1.310E-06,-9.600
1.320E-06,-9.200
1.330E-06,-8.800
1.340E-06,-8.240
1.350E-06,-7.840
1.360E-06,-7.440
1.370E-06,-7.040
1.380E-06,-6.800
1.390E-06,-6.480
1.400E-06,-6.160
1.410E-06,-6.160
1.420E-06,-6.160
1.430E-06,-6.240
1.440E-06,-6.160
1.450E-06,-6.000
1.460E-06,-5.920
1.470E-06,-5.680
1.480E-06,-5.600
1.490E-06,-5.280
1.500E-06,-5.040
1.510E-06,-4.800
1.520E-06,-4.560
1.530E-06,-4.080
1.540E-06,-3.760
1.550E-06,-3.360
1.560E-06,-3.200
1.570E-06,-2.880
1.580E-06,-2.720
1.590E-06,-2.480
1.600E-06,-2.480
1.610E-06,-2.320
1.620E-06,-1.920
1.630E-06,-1.920
1.640E-06,-1.680
1.650E-06,-1.680
1.660E-06,-1.680
1.670E-06,-1.680
1.680E-06,-1.680
1.690E-06,-1.600
1.700E-06,-1.520
1.710E-06,-1.680
1.720E-06,-1.760
1.730E-06,-1.680
1.740E-06,-1.840
1.750E-06,-1.840
1.760E-06,-1.760
1.770E-06,-1.840
1.780E-06,-1.680
1.790E-06,-1.600
1.800E-06,-1.520
1.810E-06,-1.440
1.820E-06,-1.360
1.830E-06,-1.360
1.840E-06,-1.200
1.850E-06,-1.040
1.860E-06,-1.040
1.870E-06,-0.960
1.880E-06,-1.040
1.890E-06,-1.040
1.900E-06,-1.120
1.910E-06,-1.200
1.920E-06,-1.280
1.930E-06,-1.360
1.940E-06,-1.280
1.950E-06,-1.440
1.960E-06,-1.440
1.970E-06,-1.520
1.980E-06,-1.520
1.990E-06,-1.600
2.000E-06,-1.520
2.010E-06,-1.600
2.020E-06,-1.600
2.030E-06,-1.600
2.040E-06,-1.440
2.050E-06,-1.520
2.060E-06,-1.520
2.070E-06,-1.600
2.080E-06,-1.600
2.090E-06,-1.600
2.100E-06,-1.520
2.110E-06,-1.760
2.120E-06,-1.600
2.130E-06,-1.600
2.140E-06,-1.600
2.150E-06,-1.600
2.160E-06,-1.680
2.170E-06,-1.600
2.180E-06,-1.680
2.190E-06,-1.680
2.200E-06,-1.600
2.210E-06,-1.680
2.220E-06,-1.680
2.230E-06,-1.600
2.240E-06,-1.680
2.250E-06,-1.600
2.260E-06,-1.600
2.270E-06,-1.680
2.280E-06,-1.680
2.290E-06,-1.760
2.300E-06,-1.760
2.310E-06,-1.680
2.320E-06,-1.680
2.330E-06,-1.680
2.340E-06,-1.760
2.350E-06,-1.760
2.360E-06,-1.680
2.370E-06,-1.760
2.380E-06,-1.840
2.390E-06,-1.920
2.400E-06,-1.920
2.410E-06,-1.840
2.420E-06,-2.000
2.430E-06,-1.920
2.440E-06,-2.080
2.450E-06,-2.000
2.460E-06,-2.080
2.470E-06,-2.080
2.480E-06,-2.080
2.490E-06,-2.000
2.500E-06,-2.080
2.510E-06,-2.080
2.520E-06,-2.080
2.530E-06,-2.160
2.540E-06,-2.240
2.550E-06,-2.240
2.560E-06,-2.400
2.570E-06,-2.400
2.580E-06,-2.480
2.590E-06,-2.720
2.600E-06,-2.720
2.610E-06,-3.040
2.620E-06,-3.200
2.630E-06,-3.360
2.640E-06,-3.360
2.650E-06,-3.600
2.660E-06,-3.760
2.670E-06,-3.920
2.680E-06,-4.080
2.690E-06,-4.320
2.700E-06,-4.480
2.710E-06,-4.560
2.720E-06,-4.800
2.730E-06,-5.040
2.740E-06,-5.200
2.750E-06,-5.280
2.760E-06,-5.600
2.770E-06,-5.520
2.780E-06,-5.440
2.790E-06,-5.520
2.800E-06,-5.520
2.810E-06,-5.520
2.820E-06,-5.520
2.830E-06,-5.520
2.840E-06,-5.600
2.850E-06,-5.520
2.860E-06,-5.680
2.870E-06,-5.920
2.880E-06,-6.080
2.890E-06,-6.160
2.900E-06,-6.240
2.910E-06,-6.160
2.920E-06,-6.160
2.930E-06,-6.080
2.940E-06,-6.000
2.950E-06,-5.760
2.960E-06,-5.600
2.970E-06,-5.440
2.980E-06,-5.440
2.990E-06,-5.120
3.000E-06,-5.120
3.010E-06,-4.880
3.020E-06,-4.880
3.030E-06,-4.640
3.040E-06,-4.400
3.050E-06,-4.400
3.060E-06,-4.240
3.070E-06,-4.160
3.080E-06,-4.080
3.090E-06,-3.920
3.100E-06,-3.760
3.110E-06,-3.760
3.120E-06,-3.680
3.130E-06,-3.600
3.140E-06,-3.520
