mediciones/Mediciones filtradas (saque las feas)/5-15/-64.25/WaveData47630.csv

#timebase=2000000(ps)
,#voltbase=2000000(mv/100)
#size=4000
-8.400E-06,-0.160
-8.390E-06,-0.240
-8.380E-06,0.000
-8.370E-06,-0.080
-8.360E-06,-0.160
-8.350E-06,-0.240
-8.340E-06,-0.320
-8.330E-06,-0.400
-8.320E-06,-0.320
-8.310E-06,-0.160
-8.300E-06,-0.160
-8.290E-06,-0.240
-8.280E-06,-0.320
-8.270E-06,-0.240
-8.260E-06,0.160
-8.250E-06,-0.320
-8.240E-06,-0.640
-8.230E-06,-0.560
-8.220E-06,-0.960
-8.210E-06,-0.720
-8.200E-06,0.000
-8.190E-06,-0.080
-8.180E-06,-0.480
-8.170E-06,-0.560
-8.160E-06,-0.640
-8.150E-06,-0.640
-8.140E-06,-0.560
-8.130E-06,0.000
-8.120E-06,-0.240
-8.110E-06,-0.720
-8.100E-06,-0.720
-8.090E-06,-0.480
-8.080E-06,-0.560
-8.070E-06,-0.160
-8.060E-06,-0.080
-8.050E-06,0.000
-8.040E-06,-0.400
-8.030E-06,-0.320
-8.020E-06,-0.240
-8.010E-06,-0.080
-8.000E-06,0.000
-7.990E-06,0.000
-7.980E-06,0.000
-7.970E-06,-0.080
-7.960E-06,0.000
-7.950E-06,0.000
-7.940E-06,0.160
-7.930E-06,0.240
-7.920E-06,0.080
-7.910E-06,0.160
-7.900E-06,0.160
-7.890E-06,0.160
-7.880E-06,0.160
-7.870E-06,0.080
-7.860E-06,0.000
-7.850E-06,0.080
-7.840E-06,-0.080
-7.830E-06,0.000
-7.820E-06,-0.080
-7.810E-06,-0.080
-7.800E-06,-0.080
-7.790E-06,0.000
-7.780E-06,0.560
-7.770E-06,0.320
-7.760E-06,0.240
-7.750E-06,0.080
-7.740E-06,-0.080
-7.730E-06,-0.240
-7.720E-06,-0.320
-7.710E-06,0.000
-7.700E-06,-0.320
-7.690E-06,-0.480
-7.680E-06,-0.720
-7.670E-06,-0.640
-7.660E-06,-0.640
-7.650E-06,-0.480
-7.640E-06,-0.400
-7.630E-06,-0.480
-7.620E-06,-0.640
-7.610E-06,-0.560
-7.600E-06,-0.400
-7.590E-06,-0.400
-7.580E-06,-0.240
-7.570E-06,-0.240
-7.560E-06,-0.240
-7.550E-06,-0.240
-7.540E-06,-0.160
-7.530E-06,-0.080
-7.520E-06,-0.080
-7.510E-06,0.000
-7.500E-06,0.000
-7.490E-06,0.080
-7.480E-06,0.080
-7.470E-06,-0.080
-7.460E-06,0.080
-7.450E-06,0.000
-7.440E-06,0.080
-7.430E-06,0.080
-7.420E-06,0.080
-7.410E-06,0.080
-7.400E-06,0.240
-7.390E-06,0.320
-7.380E-06,0.560
-7.370E-06,0.400
-7.360E-06,0.080
-7.350E-06,-0.080
-7.340E-06,-0.080
-7.330E-06,-0.080
-7.320E-06,-0.160
-7.310E-06,-0.240
-7.300E-06,-0.160
-7.290E-06,-0.480
-7.280E-06,-0.560
-7.270E-06,-0.480
-7.260E-06,-0.320
-7.250E-06,-0.160
-7.240E-06,-0.320
-7.230E-06,-0.480
-7.220E-06,-0.480
-7.210E-06,-0.560
-7.200E-06,-0.320
-7.190E-06,-0.400
-7.180E-06,-0.320
-7.170E-06,-0.240
-7.160E-06,-0.240
-7.150E-06,-0.160
-7.140E-06,-0.160
-7.130E-06,-0.160
-7.120E-06,0.000
-7.110E-06,-0.080
-7.100E-06,-0.160
-7.090E-06,-0.080
-7.080E-06,-0.080
-7.070E-06,-0.080
-7.060E-06,-0.240
-7.050E-06,-0.160
-7.040E-06,-0.080
-7.030E-06,-0.240
-7.020E-06,-0.320
-7.010E-06,-0.160
-7.000E-06,-0.240
-6.990E-06,-0.080
-6.980E-06,-0.320
-6.970E-06,-0.320
-6.960E-06,-0.400
-6.950E-06,-0.400
-6.940E-06,-0.400
-6.930E-06,-0.320
-6.920E-06,-0.480
-6.910E-06,-0.720
-6.900E-06,-0.080
-6.890E-06,0.080
-6.880E-06,-0.160
-6.870E-06,-0.400
-6.860E-06,-0.400
-6.850E-06,-0.720
-6.840E-06,-0.720
-6.830E-06,-0.560
-6.820E-06,-0.320
-6.810E-06,-0.480
-6.800E-06,-0.720
-6.790E-06,-0.720
-6.780E-06,-0.800
-6.770E-06,-0.480
-6.760E-06,-0.480
-6.750E-06,-0.400
-6.740E-06,-0.640
-6.730E-06,-0.640
-6.720E-06,-0.720
-6.710E-06,-0.560
-6.700E-06,-0.320
-6.690E-06,-0.400
-6.680E-06,-0.240
-6.670E-06,0.000
-6.660E-06,0.000
-6.650E-06,-0.160
-6.640E-06,0.000
-6.630E-06,0.000
-6.620E-06,-0.080
-6.610E-06,-0.320
-6.600E-06,-0.080
-6.590E-06,0.000
-6.580E-06,-0.160
-6.570E-06,-0.480
-6.560E-06,-0.400
-6.550E-06,-0.480
-6.540E-06,-0.480
-6.530E-06,-0.320
-6.520E-06,-0.320
-6.510E-06,-0.720
-6.500E-06,-0.880
-6.490E-06,-0.720
-6.480E-06,-0.720
-6.470E-06,-0.560
-6.460E-06,-0.320
-6.450E-06,-0.160
-6.440E-06,-0.480
-6.430E-06,-0.720
-6.420E-06,-0.800
-6.410E-06,-0.880
-6.400E-06,-0.880
-6.390E-06,-0.720
-6.380E-06,-0.800
-6.370E-06,-1.040
-6.360E-06,-1.120
-6.350E-06,-1.040
-6.340E-06,-0.800
-6.330E-06,-0.720
-6.320E-06,-0.720
-6.310E-06,-0.720
-6.300E-06,-0.640
-6.290E-06,-0.720
-6.280E-06,-0.560
-6.270E-06,-0.480
-6.260E-06,-0.400
-6.250E-06,-0.320
-6.240E-06,-0.320
-6.230E-06,-0.160
-6.220E-06,-0.160
-6.210E-06,-0.240
-6.200E-06,-0.080
-6.190E-06,-0.080
-6.180E-06,0.000
-6.170E-06,0.160
-6.160E-06,0.240
-6.150E-06,0.240
-6.140E-06,0.320
-6.130E-06,0.320
-6.120E-06,0.320
-6.110E-06,0.240
-6.100E-06,0.320
-6.090E-06,0.320
-6.080E-06,0.400
-6.070E-06,0.400
-6.060E-06,0.160
-6.050E-06,0.000
-6.040E-06,-0.160
-6.030E-06,-0.320
-6.020E-06,-0.400
-6.010E-06,-0.560
-6.000E-06,-0.480
-5.990E-06,-0.400
-5.980E-06,0.000
-5.970E-06,-0.160
-5.960E-06,-0.560
-5.950E-06,-0.640
-5.940E-06,-0.640
-5.930E-06,-0.640
-5.920E-06,-0.640
-5.910E-06,-0.720
-5.900E-06,-0.640
-5.890E-06,-0.960
-5.880E-06,-1.040
-5.870E-06,-0.880
-5.860E-06,-0.640
-5.850E-06,-0.560
-5.840E-06,-0.560
-5.830E-06,-0.560
-5.820E-06,-0.720
-5.810E-06,-0.640
-5.800E-06,-0.160
-5.790E-06,0.080
-5.780E-06,0.080
-5.770E-06,-0.080
-5.760E-06,0.000
-5.750E-06,0.000
-5.740E-06,0.000
-5.730E-06,0.080
-5.720E-06,0.240
-5.710E-06,0.080
-5.700E-06,0.000
-5.690E-06,0.000
-5.680E-06,-0.080
-5.670E-06,0.000
-5.660E-06,0.160
-5.650E-06,0.000
-5.640E-06,0.000
-5.630E-06,-0.080
-5.620E-06,0.000
-5.610E-06,0.000
-5.600E-06,0.000
-5.590E-06,0.000
-5.580E-06,0.000
-5.570E-06,-0.080
-5.560E-06,-0.160
-5.550E-06,-0.240
-5.540E-06,-0.160
-5.530E-06,-0.160
-5.520E-06,-0.160
-5.510E-06,0.080
-5.500E-06,0.160
-5.490E-06,0.000
-5.480E-06,-0.080
-5.470E-06,0.000
-5.460E-06,-0.080
-5.450E-06,-0.080
-5.440E-06,-0.080
-5.430E-06,0.080
-5.420E-06,0.080
-5.410E-06,0.000
-5.400E-06,-0.240
-5.390E-06,0.000
-5.380E-06,0.080
-5.370E-06,-0.160
-5.360E-06,-0.320
-5.350E-06,-0.480
-5.340E-06,-0.480
-5.330E-06,-0.560
-5.320E-06,-0.720
-5.310E-06,-0.560
-5.300E-06,-0.720
-5.290E-06,-0.800
-5.280E-06,-0.880
-5.270E-06,-0.720
-5.260E-06,-0.720
-5.250E-06,-0.720
-5.240E-06,-0.640
-5.230E-06,-0.720
-5.220E-06,-0.640
-5.210E-06,-0.560
-5.200E-06,-0.560
-5.190E-06,-0.400
-5.180E-06,-0.400
-5.170E-06,-0.320
-5.160E-06,-0.240
-5.150E-06,-0.240
-5.140E-06,-0.080
-5.130E-06,-0.080
-5.120E-06,0.000
-5.110E-06,-0.080
-5.100E-06,0.000
-5.090E-06,0.160
-5.080E-06,0.240
-5.070E-06,0.160
-5.060E-06,0.160
-5.050E-06,0.160
-5.040E-06,0.240
-5.030E-06,0.240
-5.020E-06,0.320
-5.010E-06,0.240
-5.000E-06,0.240
-4.990E-06,0.320
-4.980E-06,0.160
-4.970E-06,0.240
-4.960E-06,0.240
-4.950E-06,0.000
-4.940E-06,0.080
-4.930E-06,0.080
-4.920E-06,0.000
-4.910E-06,0.000
-4.900E-06,0.000
-4.890E-06,0.000
-4.880E-06,0.000
-4.870E-06,-0.080
-4.860E-06,0.000
-4.850E-06,-0.160
-4.840E-06,-0.160
-4.830E-06,-0.160
-4.820E-06,-0.240
-4.810E-06,-0.320
-4.800E-06,-0.400
-4.790E-06,-0.320
-4.780E-06,-0.400
-4.770E-06,-0.480
-4.760E-06,-0.400
-4.750E-06,-0.560
-4.740E-06,-0.560
-4.730E-06,-0.480
-4.720E-06,-0.560
-4.710E-06,-0.480
-4.700E-06,-0.640
-4.690E-06,-0.640
-4.680E-06,-0.640
-4.670E-06,-0.560
-4.660E-06,-0.160
-4.650E-06,-0.320
-4.640E-06,-0.640
-4.630E-06,-0.720
-4.620E-06,-0.800
-4.610E-06,-0.720
-4.600E-06,-0.720
-4.590E-06,-0.640
-4.580E-06,-0.720
-4.570E-06,-0.960
-4.560E-06,-1.120
-4.550E-06,-0.880
-4.540E-06,-0.720
-4.530E-06,-0.640
-4.520E-06,-0.640
-4.510E-06,-0.640
-4.500E-06,-0.640
-4.490E-06,-0.640
-4.480E-06,-0.400
-4.470E-06,-0.240
-4.460E-06,-0.240
-4.450E-06,-0.240
-4.440E-06,-0.160
-4.430E-06,0.000
-4.420E-06,0.000
-4.410E-06,0.000
-4.400E-06,0.160
-4.390E-06,0.240
-4.380E-06,0.160
-4.370E-06,0.320
-4.360E-06,0.320
-4.350E-06,0.240
-4.340E-06,0.320
-4.330E-06,0.400
-4.320E-06,0.400
-4.310E-06,0.320
-4.300E-06,0.400
-4.290E-06,0.320
-4.280E-06,0.240
-4.270E-06,0.160
-4.260E-06,0.160
-4.250E-06,-0.080
-4.240E-06,-0.080
-4.230E-06,-0.080
-4.220E-06,-0.080
-4.210E-06,-0.080
-4.200E-06,-0.080
-4.190E-06,-0.240
-4.180E-06,-0.240
-4.170E-06,-0.160
-4.160E-06,-0.320
-4.150E-06,-0.320
-4.140E-06,-0.320
-4.130E-06,-0.480
-4.120E-06,-0.480
-4.110E-06,-0.640
-4.100E-06,-0.480
-4.090E-06,-0.240
-4.080E-06,-0.240
-4.070E-06,-0.560
-4.060E-06,-0.800
-4.050E-06,-0.720
-4.040E-06,-0.880
-4.030E-06,-0.960
-4.020E-06,-0.880
-4.010E-06,-0.880
-4.000E-06,-1.120
-3.990E-06,-1.360
-3.980E-06,-1.120
-3.970E-06,-0.960
-3.960E-06,-0.720
-3.950E-06,-0.720
-3.940E-06,-0.800
-3.930E-06,-0.800
-3.920E-06,-0.640
-3.910E-06,-0.240
-3.900E-06,-0.160
-3.890E-06,-0.080
-3.880E-06,0.000
-3.870E-06,0.080
-3.860E-06,0.000
-3.850E-06,0.160
-3.840E-06,0.160
-3.830E-06,0.320
-3.820E-06,0.320
-3.810E-06,0.400
-3.800E-06,0.400
-3.790E-06,0.320
-3.780E-06,0.320
-3.770E-06,0.400
-3.760E-06,0.400
-3.750E-06,0.320
-3.740E-06,0.240
-3.730E-06,0.240
-3.720E-06,0.320
-3.710E-06,0.240
-3.700E-06,0.160
-3.690E-06,0.080
-3.680E-06,0.000
-3.670E-06,0.080
-3.660E-06,-0.160
-3.650E-06,-0.160
-3.640E-06,0.000
-3.630E-06,-0.080
-3.620E-06,-0.080
-3.610E-06,0.000
-3.600E-06,-0.080
-3.590E-06,0.000
-3.580E-06,-0.080
-3.570E-06,-0.160
-3.560E-06,0.000
-3.550E-06,0.000
-3.540E-06,-0.080
-3.530E-06,-0.240
-3.520E-06,0.000
-3.510E-06,0.000
-3.500E-06,0.000
-3.490E-06,-0.080
-3.480E-06,-0.160
-3.470E-06,-0.240
-3.460E-06,-0.320
-3.450E-06,-0.240
-3.440E-06,-0.160
-3.430E-06,-0.320
-3.420E-06,-0.400
-3.410E-06,-0.560
-3.400E-06,-0.640
-3.390E-06,-0.560
-3.380E-06,-0.560
-3.370E-06,-0.640
-3.360E-06,-0.640
-3.350E-06,-0.720
-3.340E-06,-0.720
-3.330E-06,-0.640
-3.320E-06,-0.720
-3.310E-06,-0.560
-3.300E-06,-0.560
-3.290E-06,-0.640
-3.280E-06,-0.560
-3.270E-06,-0.080
-3.260E-06,0.000
-3.250E-06,-0.080
-3.240E-06,-0.160
-3.230E-06,0.080
-3.220E-06,-0.080
-3.210E-06,-0.080
-3.200E-06,0.000
-3.190E-06,0.160
-3.180E-06,0.000
-3.170E-06,-0.080
-3.160E-06,-0.080
-3.150E-06,0.000
-3.140E-06,0.080
-3.130E-06,0.080
-3.120E-06,0.080
-3.110E-06,0.000
-3.100E-06,0.000
-3.090E-06,-0.080
-3.080E-06,-0.080
-3.070E-06,-0.080
-3.060E-06,-0.400
-3.050E-06,0.000
-3.040E-06,0.480
-3.030E-06,0.640
-3.020E-06,-0.080
-3.010E-06,-0.160
-3.000E-06,-0.160
-2.990E-06,-0.080
-2.980E-06,-0.400
-2.970E-06,-0.320
-2.960E-06,-0.240
-2.950E-06,-0.640
-2.940E-06,-1.040
-2.930E-06,-0.880
-2.920E-06,-0.560
-2.910E-06,-0.480
-2.900E-06,-0.240
-2.890E-06,-0.320
-2.880E-06,-0.240
-2.870E-06,0.160
-2.860E-06,0.400
-2.850E-06,-0.080
-2.840E-06,-0.160
-2.830E-06,-0.160
-2.820E-06,-0.080
-2.810E-06,-0.160
-2.800E-06,-0.240
-2.790E-06,0.000
-2.780E-06,-0.320
-2.770E-06,-0.640
-2.760E-06,-0.480
-2.750E-06,-0.240
-2.740E-06,-0.160
-2.730E-06,-0.160
-2.720E-06,-0.160
-2.710E-06,-0.320
-2.700E-06,-0.400
-2.690E-06,-0.400
-2.680E-06,-0.080
-2.670E-06,-0.080
-2.660E-06,0.000
-2.650E-06,0.000
-2.640E-06,0.000
-2.630E-06,-0.080
-2.620E-06,-0.080
-2.610E-06,-0.080
-2.600E-06,0.000
-2.590E-06,0.000
-2.580E-06,0.080
-2.570E-06,0.080
-2.560E-06,0.160
-2.550E-06,0.240
-2.540E-06,0.160
-2.530E-06,0.160
-2.520E-06,0.320
-2.510E-06,0.400
-2.500E-06,0.320
-2.490E-06,0.400
-2.480E-06,0.160
-2.470E-06,0.160
-2.460E-06,0.000
-2.450E-06,0.000
-2.440E-06,-0.080
-2.430E-06,0.080
-2.420E-06,0.400
-2.410E-06,0.320
-2.400E-06,0.240
-2.390E-06,0.320
-2.380E-06,0.000
-2.370E-06,0.000
-2.360E-06,0.000
-2.350E-06,0.160
-2.340E-06,-0.080
-2.330E-06,-0.240
-2.320E-06,-0.400
-2.310E-06,-0.480
-2.300E-06,-0.640
-2.290E-06,-0.480
-2.280E-06,-0.480
-2.270E-06,-0.560
-2.260E-06,-0.720
-2.250E-06,-0.720
-2.240E-06,-0.720
-2.230E-06,-0.800
-2.220E-06,-0.640
-2.210E-06,-0.720
-2.200E-06,-0.560
-2.190E-06,-0.560
-2.180E-06,-0.480
-2.170E-06,-0.480
-2.160E-06,-0.400
-2.150E-06,-0.400
-2.140E-06,-0.240
-2.130E-06,-0.240
-2.120E-06,-0.240
-2.110E-06,-0.080
-2.100E-06,-0.080
-2.090E-06,-0.080
-2.080E-06,-0.080
-2.070E-06,-0.080
-2.060E-06,0.080
-2.050E-06,0.080
-2.040E-06,0.080
-2.030E-06,0.080
-2.020E-06,0.080
-2.010E-06,0.000
-2.000E-06,0.080
-1.990E-06,0.080
-1.980E-06,-0.240
-1.970E-06,0.240
-1.960E-06,0.320
-1.950E-06,0.160
-1.940E-06,0.160
-1.930E-06,0.240
-1.920E-06,0.080
-1.910E-06,0.000
-1.900E-06,-0.080
-1.890E-06,0.000
-1.880E-06,-0.240
-1.870E-06,-0.480
-1.860E-06,-0.640
-1.850E-06,-0.480
-1.840E-06,-0.560
-1.830E-06,-0.480
-1.820E-06,-0.560
-1.810E-06,-0.640
-1.800E-06,-0.800
-1.790E-06,-0.800
-1.780E-06,-0.640
-1.770E-06,-0.720
-1.760E-06,-0.720
-1.750E-06,-0.720
-1.740E-06,-0.720
-1.730E-06,-0.720
-1.720E-06,-0.560
-1.710E-06,-0.640
-1.700E-06,-0.560
-1.690E-06,-0.560
-1.680E-06,-0.560
-1.670E-06,-0.480
-1.660E-06,-0.480
-1.650E-06,-0.560
-1.640E-06,-0.400
-1.630E-06,0.000
-1.620E-06,0.160
-1.610E-06,0.720
-1.600E-06,0.560
-1.590E-06,0.320
-1.580E-06,0.160
-1.570E-06,0.080
-1.560E-06,-0.080
-1.550E-06,-0.240
-1.540E-06,0.080
-1.530E-06,-0.480
-1.520E-06,-0.800
-1.510E-06,-1.120
-1.500E-06,-1.040
-1.490E-06,-1.040
-1.480E-06,-0.720
-1.470E-06,-0.720
-1.460E-06,-0.880
-1.450E-06,-0.880
-1.440E-06,-0.640
-1.430E-06,-0.480
-1.420E-06,-0.400
-1.410E-06,-0.480
-1.400E-06,-0.400
-1.390E-06,-0.480
-1.380E-06,-0.560
-1.370E-06,-0.640
-1.360E-06,-0.640
-1.350E-06,-0.720
-1.340E-06,-0.960
-1.330E-06,-0.960
-1.320E-06,-0.960
-1.310E-06,-0.960
-1.300E-06,-0.720
-1.290E-06,-0.800
-1.280E-06,-0.480
-1.270E-06,0.000
-1.260E-06,0.160
-1.250E-06,-0.080
-1.240E-06,0.000
-1.230E-06,0.000
-1.220E-06,-0.080
-1.210E-06,-0.400
-1.200E-06,-0.480
-1.190E-06,-0.400
-1.180E-06,-0.480
-1.170E-06,-1.120
-1.160E-06,-1.520
-1.150E-06,-1.520
-1.140E-06,-1.520
-1.130E-06,-1.760
-1.120E-06,-1.840
-1.110E-06,-1.680
-1.100E-06,-1.680
-1.090E-06,-2.000
-1.080E-06,-1.840
-1.070E-06,-1.440
-1.060E-06,-0.880
-1.050E-06,-0.320
-1.040E-06,0.320
-1.030E-06,0.240
-1.020E-06,-0.320
-1.010E-06,-0.640
-1.000E-06,-0.080
-9.900E-07,0.080
-9.800E-07,0.240
-9.700E-07,0.240
-9.600E-07,0.240
-9.500E-07,-0.160
-9.400E-07,-0.560
-9.300E-07,-0.240
-9.200E-07,-0.080
-9.100E-07,0.160
-9.000E-07,0.160
-8.900E-07,0.000
-8.800E-07,-0.080
-8.700E-07,0.000
-8.600E-07,-0.080
-8.500E-07,0.000
-8.400E-07,0.000
-8.300E-07,0.000
-8.200E-07,-0.080
-8.100E-07,0.000
-8.000E-07,-0.080
-7.900E-07,-0.320
-7.800E-07,-0.240
-7.700E-07,-0.320
-7.600E-07,-0.240
-7.500E-07,0.080
-7.400E-07,0.160
-7.300E-07,0.320
-7.200E-07,0.400
-7.100E-07,0.480
-7.000E-07,0.720
-6.900E-07,0.640
-6.800E-07,0.880
-6.700E-07,0.960
-6.600E-07,0.800
-6.500E-07,0.480
-6.400E-07,0.320
-6.300E-07,0.160
-6.200E-07,-0.240
-6.100E-07,-0.400
-6.000E-07,-0.480
-5.900E-07,-0.640
-5.800E-07,-0.880
-5.700E-07,-1.040
-5.600E-07,-1.040
-5.500E-07,-1.120
-5.400E-07,-1.440
-5.300E-07,-1.360
-5.200E-07,-1.200
-5.100E-07,-1.200
-5.000E-07,-1.200
-4.900E-07,-1.200
-4.800E-07,-1.120
-4.700E-07,-1.200
-4.600E-07,-1.120
-4.500E-07,-0.960
-4.400E-07,-0.880
-4.300E-07,-0.640
-4.200E-07,-0.640
-4.100E-07,-0.640
-4.000E-07,-0.640
-3.900E-07,-0.640
-3.800E-07,-0.480
-3.700E-07,-0.240
-3.600E-07,-0.240
-3.500E-07,-0.240
-3.400E-07,-0.160
-3.300E-07,-0.160
-3.200E-07,-0.240
-3.100E-07,-0.400
-3.000E-07,-0.400
-2.900E-07,-0.320
-2.800E-07,-0.400
-2.700E-07,-0.480
-2.600E-07,-0.480
-2.500E-07,-0.560
-2.400E-07,-0.560
-2.300E-07,-0.640
-2.200E-07,-0.480
-2.100E-07,-0.400
-2.000E-07,-0.480
-1.900E-07,-0.320
-1.800E-07,-0.320
-1.700E-07,0.000
-1.600E-07,-0.080
-1.500E-07,0.000
-1.400E-07,0.000
-1.300E-07,-0.320
-1.200E-07,-0.560
-1.100E-07,-0.640
-1.000E-07,-1.040
-9.000E-08,-1.200
-8.000E-08,-1.440
-7.000E-08,-1.680
-6.000E-08,-1.520
-5.000E-08,-1.440
-4.000E-08,-0.480
-3.000E-08,2.000
-2.000E-08,0.880
-1.000E-08,-0.960
0.000E+00,-1.520
1.000E-08,-1.440
2.000E-08,-2.080
3.000E-08,-2.400
4.000E-08,-1.600
5.000E-08,-2.080
6.000E-08,-3.520
7.000E-08,-4.080
8.000E-08,-2.960
9.000E-08,-2.400
1.000E-07,-1.920
1.100E-07,-1.680
1.200E-07,-1.520
1.300E-07,-1.840
1.400E-07,-1.680
1.500E-07,-1.120
1.600E-07,-0.640
1.700E-07,-0.400
1.800E-07,-0.160
1.900E-07,0.080
2.000E-07,0.400
2.100E-07,0.320
2.200E-07,0.480
2.300E-07,0.560
2.400E-07,0.640
2.500E-07,0.800
2.600E-07,1.040
2.700E-07,0.960
2.800E-07,0.720
2.900E-07,0.720
3.000E-07,0.560
3.100E-07,0.560
3.200E-07,0.640
3.300E-07,0.800
3.400E-07,0.800
3.500E-07,0.640
3.600E-07,0.480
3.700E-07,0.320
3.800E-07,0.000
3.900E-07,-0.160
4.000E-07,-0.400
4.100E-07,-0.400
4.200E-07,-0.480
4.300E-07,-0.640
4.400E-07,-0.720
4.500E-07,-0.960
4.600E-07,-1.200
4.700E-07,-1.200
4.800E-07,-1.120
4.900E-07,-1.280
5.000E-07,-1.520
5.100E-07,-1.760
5.200E-07,-2.080
5.300E-07,-2.240
5.400E-07,-2.240
5.500E-07,-2.160
5.600E-07,-2.000
5.700E-07,-1.920
5.800E-07,-1.600
5.900E-07,-1.120
6.000E-07,-1.360
6.100E-07,-1.280
6.200E-07,-0.960
6.300E-07,-1.120
6.400E-07,-1.520
6.500E-07,-1.760
6.600E-07,-1.680
6.700E-07,-2.080
6.800E-07,-2.320
6.900E-07,-2.560
7.000E-07,-2.320
7.100E-07,-2.560
7.200E-07,-2.720
7.300E-07,-3.040
7.400E-07,-3.040
7.500E-07,-3.440
7.600E-07,-3.520
7.700E-07,-3.520
7.800E-07,-3.440
7.900E-07,-3.360
8.000E-07,-3.280
8.100E-07,-2.720
8.200E-07,-2.480
8.300E-07,-2.320
8.400E-07,-2.000
8.500E-07,-1.600
8.600E-07,-1.360
8.700E-07,-1.040
8.800E-07,-1.360
8.900E-07,-1.600
9.000E-07,-1.680
9.100E-07,-1.920
9.200E-07,-1.920
9.300E-07,-2.080
9.400E-07,-2.160
9.500E-07,-2.320
9.600E-07,-2.400
9.700E-07,-2.400
9.800E-07,-2.160
9.900E-07,-2.240
1.000E-06,-2.160
1.010E-06,-2.080
1.020E-06,-2.240
1.030E-06,-2.160
1.040E-06,-1.760
1.050E-06,-1.120
1.060E-06,-1.120
1.070E-06,-0.960
1.080E-06,-0.720
1.090E-06,-0.560
1.100E-06,-0.480
1.110E-06,-0.400
1.120E-06,-0.080
1.130E-06,0.000
1.140E-06,-0.160
1.150E-06,-0.240
1.160E-06,-0.240
1.170E-06,-0.160
1.180E-06,-0.400
1.190E-06,-0.640
1.200E-06,-0.720
1.210E-06,-0.960
1.220E-06,-1.040
1.230E-06,-1.440
1.240E-06,-1.680
1.250E-06,-1.760
1.260E-06,-1.840
1.270E-06,-2.000
1.280E-06,-2.080
1.290E-06,-2.080
1.300E-06,-2.080
1.310E-06,-2.080
1.320E-06,-2.080
1.330E-06,-2.160
1.340E-06,-1.920
1.350E-06,-1.840
1.360E-06,-1.600
1.370E-06,-1.600
1.380E-06,-1.520
1.390E-06,-1.840
1.400E-06,-1.840
1.410E-06,-2.080
1.420E-06,-2.160
1.430E-06,-2.320
1.440E-06,-2.480
1.450E-06,-2.720
1.460E-06,-2.800
1.470E-06,-2.960
1.480E-06,-2.880
1.490E-06,-2.720
1.500E-06,-2.640
1.510E-06,-2.400
1.520E-06,-2.320
1.530E-06,-2.240
1.540E-06,-2.320
1.550E-06,-2.400
1.560E-06,-2.640
1.570E-06,-2.720
1.580E-06,-2.720
1.590E-06,-2.720
1.600E-06,-2.720
1.610E-06,-2.720
1.620E-06,-2.880
1.630E-06,-2.880
1.640E-06,-2.800
1.650E-06,-2.720
1.660E-06,-2.720
1.670E-06,-2.560
1.680E-06,-2.400
1.690E-06,-2.240
1.700E-06,-2.080
1.710E-06,-2.000
1.720E-06,-1.840
1.730E-06,-2.080
1.740E-06,-2.320
1.750E-06,-2.320
1.760E-06,-2.800
1.770E-06,-3.200
1.780E-06,-3.840
1.790E-06,-4.160
1.800E-06,-4.560
1.810E-06,-5.120
1.820E-06,-5.600
1.830E-06,-5.760
1.840E-06,-6.000
1.850E-06,-6.560
1.860E-06,-6.960
1.870E-06,-7.280
1.880E-06,-7.280
1.890E-06,-7.600
1.900E-06,-7.440
1.910E-06,-7.360
1.920E-06,-6.960
1.930E-06,-6.720
1.940E-06,-6.400
1.950E-06,-6.000
1.960E-06,-5.520
1.970E-06,-4.880
1.980E-06,-4.480
1.990E-06,-4.240
2.000E-06,-4.240
2.010E-06,-4.320
2.020E-06,-4.320
2.030E-06,-4.800
2.040E-06,-4.640
2.050E-06,-4.800
2.060E-06,-4.800
2.070E-06,-4.960
2.080E-06,-5.120
2.090E-06,-5.360
2.100E-06,-5.520
2.110E-06,-5.520
2.120E-06,-5.360
2.130E-06,-5.120
2.140E-06,-5.040
2.150E-06,-5.120
2.160E-06,-5.200
2.170E-06,-5.120
2.180E-06,-5.120
2.190E-06,-4.960
2.200E-06,-4.960
2.210E-06,-4.960
2.220E-06,-5.040
2.230E-06,-5.040
2.240E-06,-4.880
2.250E-06,-4.800
2.260E-06,-4.480
2.270E-06,-4.240
2.280E-06,-4.000
2.290E-06,-3.680
2.300E-06,-3.520
2.310E-06,-3.440
2.320E-06,-3.200
2.330E-06,-3.040
2.340E-06,-2.800
2.350E-06,-2.560
2.360E-06,-2.480
2.370E-06,-2.480
2.380E-06,-2.480
2.390E-06,-2.480
2.400E-06,-2.480
2.410E-06,-2.560
2.420E-06,-2.480
2.430E-06,-2.400
2.440E-06,-2.480
2.450E-06,-2.240
2.460E-06,-2.240
2.470E-06,-2.240
2.480E-06,-2.080
2.490E-06,-2.080
2.500E-06,-1.840
2.510E-06,-1.680
2.520E-06,-1.680
2.530E-06,-1.600
2.540E-06,-1.520
2.550E-06,-1.680
2.560E-06,-1.600
2.570E-06,-1.680
2.580E-06,-1.680
2.590E-06,-1.760
2.600E-06,-1.680
2.610E-06,-1.680
2.620E-06,-1.920
2.630E-06,-2.000
2.640E-06,-1.920
2.650E-06,-1.840
2.660E-06,-1.840
2.670E-06,-1.760
2.680E-06,-1.760
2.690E-06,-1.760
2.700E-06,-1.680
2.710E-06,-1.760
2.720E-06,-1.920
2.730E-06,-1.840
2.740E-06,-1.840
2.750E-06,-1.840
2.760E-06,-2.000
2.770E-06,-2.240
2.780E-06,-2.560
2.790E-06,-2.880
2.800E-06,-3.200
2.810E-06,-3.520
2.820E-06,-4.080
2.830E-06,-4.480
2.840E-06,-5.040
2.850E-06,-5.520
2.860E-06,-6.000
2.870E-06,-6.320
2.880E-06,-6.480
2.890E-06,-6.640
2.900E-06,-6.560
2.910E-06,-6.720
2.920E-06,-6.800
2.930E-06,-6.800
2.940E-06,-6.800
2.950E-06,-6.720
2.960E-06,-6.720
2.970E-06,-6.800
2.980E-06,-6.800
2.990E-06,-6.880
