mediciones/Mediciones filtradas (saque las feas)/6-10/7.8/WaveData5671.csv

#timebase=2000000(ps)
,#voltbase=100000(mv/100)
#size=4000
-4.200E-06,0.008
-4.190E-06,0.004
-4.180E-06,0.004
-4.170E-06,0.004
-4.160E-06,0.000
-4.150E-06,0.000
-4.140E-06,0.004
-4.130E-06,0.008
-4.120E-06,0.008
-4.110E-06,0.004
-4.100E-06,0.008
-4.090E-06,-0.008
-4.080E-06,-0.012
-4.070E-06,0.012
-4.060E-06,0.008
-4.050E-06,0.004
-4.040E-06,0.012
-4.030E-06,0.012
-4.020E-06,0.004
-4.010E-06,-0.004
-4.000E-06,0.000
-3.990E-06,0.004
-3.980E-06,0.012
-3.970E-06,0.012
-3.960E-06,0.004
-3.950E-06,0.008
-3.940E-06,-0.004
-3.930E-06,-0.004
-3.920E-06,0.012
-3.910E-06,0.008
-3.900E-06,0.008
-3.890E-06,0.008
-3.880E-06,-0.012
-3.870E-06,-0.008
-3.860E-06,-0.008
-3.850E-06,0.012
-3.840E-06,0.020
-3.830E-06,0.008
-3.820E-06,0.000
-3.810E-06,0.000
-3.800E-06,0.004
-3.790E-06,0.008
-3.780E-06,0.012
-3.770E-06,0.000
-3.760E-06,0.000
-3.750E-06,0.008
-3.740E-06,0.004
-3.730E-06,0.000
-3.720E-06,0.000
-3.710E-06,0.004
-3.700E-06,0.004
-3.690E-06,0.004
-3.680E-06,0.004
-3.670E-06,0.000
-3.660E-06,-0.004
-3.650E-06,0.008
-3.640E-06,0.004
-3.630E-06,0.008
-3.620E-06,0.000
-3.610E-06,0.004
-3.600E-06,0.004
-3.590E-06,0.004
-3.580E-06,0.008
-3.570E-06,0.016
-3.560E-06,0.004
-3.550E-06,0.000
-3.540E-06,0.004
-3.530E-06,0.012
-3.520E-06,0.012
-3.510E-06,0.008
-3.500E-06,0.008
-3.490E-06,0.040
-3.480E-06,-0.004
-3.470E-06,0.000
-3.460E-06,-0.020
-3.450E-06,-0.016
-3.440E-06,0.000
-3.430E-06,0.012
-3.420E-06,0.032
-3.410E-06,0.012
-3.400E-06,0.004
-3.390E-06,-0.004
-3.380E-06,-0.020
-3.370E-06,-0.020
-3.360E-06,0.012
-3.350E-06,0.012
-3.340E-06,0.008
-3.330E-06,0.012
-3.320E-06,0.008
-3.310E-06,-0.004
-3.300E-06,-0.004
-3.290E-06,-0.004
-3.280E-06,0.000
-3.270E-06,0.008
-3.260E-06,0.008
-3.250E-06,0.012
-3.240E-06,0.004
-3.230E-06,0.004
-3.220E-06,0.004
-3.210E-06,0.000
-3.200E-06,-0.004
-3.190E-06,0.004
-3.180E-06,0.012
-3.170E-06,0.004
-3.160E-06,0.008
-3.150E-06,0.012
-3.140E-06,0.004
-3.130E-06,-0.008
-3.120E-06,0.000
-3.110E-06,-0.008
-3.100E-06,-0.004
-3.090E-06,0.004
-3.080E-06,0.020
-3.070E-06,0.024
-3.060E-06,0.024
-3.050E-06,0.012
-3.040E-06,-0.004
-3.030E-06,-0.016
-3.020E-06,-0.016
-3.010E-06,-0.008
-3.000E-06,0.012
-2.990E-06,0.016
-2.980E-06,0.016
-2.970E-06,0.008
-2.960E-06,-0.004
-2.950E-06,-0.012
-2.940E-06,-0.008
-2.930E-06,-0.004
-2.920E-06,0.008
-2.910E-06,0.012
-2.900E-06,0.020
-2.890E-06,0.000
-2.880E-06,-0.004
-2.870E-06,0.000
-2.860E-06,-0.008
-2.850E-06,-0.004
-2.840E-06,0.004
-2.830E-06,0.012
-2.820E-06,0.008
-2.810E-06,0.004
-2.800E-06,0.008
-2.790E-06,0.000
-2.780E-06,0.012
-2.770E-06,-0.004
-2.760E-06,0.016
-2.750E-06,0.008
-2.740E-06,0.028
-2.730E-06,0.024
-2.720E-06,0.032
-2.710E-06,0.020
-2.700E-06,0.012
-2.690E-06,0.028
-2.680E-06,-0.024
-2.670E-06,-0.004
-2.660E-06,-0.076
-2.650E-06,-0.040
-2.640E-06,-0.056
-2.630E-06,-0.004
-2.620E-06,0.020
-2.610E-06,0.032
-2.600E-06,0.052
-2.590E-06,-0.008
-2.580E-06,-0.008
-2.570E-06,-0.028
-2.560E-06,0.008
-2.550E-06,0.012
-2.540E-06,0.024
-2.530E-06,0.012
-2.520E-06,0.004
-2.510E-06,-0.004
-2.500E-06,-0.012
-2.490E-06,-0.008
-2.480E-06,0.000
-2.470E-06,0.004
-2.460E-06,0.008
-2.450E-06,0.012
-2.440E-06,0.000
-2.430E-06,0.004
-2.420E-06,0.000
-2.410E-06,0.000
-2.400E-06,0.000
-2.390E-06,0.000
-2.380E-06,0.000
-2.370E-06,-0.004
-2.360E-06,0.000
-2.350E-06,0.008
-2.340E-06,0.008
-2.330E-06,0.004
-2.320E-06,0.004
-2.310E-06,0.000
-2.300E-06,0.000
-2.290E-06,0.004
-2.280E-06,0.004
-2.270E-06,0.008
-2.260E-06,0.000
-2.250E-06,0.008
-2.240E-06,0.004
-2.230E-06,0.000
-2.220E-06,-0.004
-2.210E-06,-0.004
-2.200E-06,0.000
-2.190E-06,0.000
-2.180E-06,0.000
-2.170E-06,0.008
-2.160E-06,0.004
-2.150E-06,0.004
-2.140E-06,0.004
-2.130E-06,0.000
-2.120E-06,0.000
-2.110E-06,0.000
-2.100E-06,0.004
-2.090E-06,0.004
-2.080E-06,0.004
-2.070E-06,0.004
-2.060E-06,0.000
-2.050E-06,0.000
-2.040E-06,0.004
-2.030E-06,0.000
-2.020E-06,0.004
-2.010E-06,0.008
-2.000E-06,0.008
-1.990E-06,0.008
-1.980E-06,0.012
-1.970E-06,0.012
-1.960E-06,0.004
-1.950E-06,0.004
-1.940E-06,0.008
-1.930E-06,0.008
-1.920E-06,0.008
-1.910E-06,0.012
-1.900E-06,0.008
-1.890E-06,0.008
-1.880E-06,0.008
-1.870E-06,0.008
-1.860E-06,0.012
-1.850E-06,0.016
-1.840E-06,0.016
-1.830E-06,0.016
-1.820E-06,0.024
-1.810E-06,0.028
-1.800E-06,0.028
-1.790E-06,0.036
-1.780E-06,0.036
-1.770E-06,0.036
-1.760E-06,0.020
-1.750E-06,0.036
-1.740E-06,0.040
-1.730E-06,0.044
-1.720E-06,0.060
-1.710E-06,0.068
-1.700E-06,0.060
-1.690E-06,0.036
-1.680E-06,0.028
-1.670E-06,0.004
-1.660E-06,0.008
-1.650E-06,-0.024
-1.640E-06,-0.044
-1.630E-06,-0.080
-1.620E-06,-0.072
-1.610E-06,-0.056
-1.600E-06,-0.016
-1.590E-06,0.028
-1.580E-06,0.032
-1.570E-06,0.028
-1.560E-06,0.000
-1.550E-06,-0.020
-1.540E-06,-0.040
-1.530E-06,-0.016
-1.520E-06,0.000
-1.510E-06,0.008
-1.500E-06,0.008
-1.490E-06,0.008
-1.480E-06,0.004
-1.470E-06,-0.004
-1.460E-06,0.008
-1.450E-06,0.004
-1.440E-06,0.056
-1.430E-06,0.048
-1.420E-06,0.056
-1.410E-06,0.044
-1.400E-06,-0.036
-1.390E-06,-0.068
-1.380E-06,-0.104
-1.370E-06,-0.084
-1.360E-06,-0.040
-1.350E-06,0.036
-1.340E-06,0.056
-1.330E-06,0.060
-1.320E-06,0.012
-1.310E-06,-0.040
-1.300E-06,-0.072
-1.290E-06,-0.064
-1.280E-06,-0.016
-1.270E-06,0.012
-1.260E-06,0.052
-1.250E-06,0.048
-1.240E-06,0.020
-1.230E-06,-0.004
-1.220E-06,-0.036
-1.210E-06,-0.036
-1.200E-06,-0.012
-1.190E-06,0.020
-1.180E-06,0.044
-1.170E-06,0.040
-1.160E-06,0.024
-1.150E-06,0.000
-1.140E-06,-0.012
-1.130E-06,-0.012
-1.120E-06,-0.004
-1.110E-06,0.024
-1.100E-06,0.044
-1.090E-06,0.048
-1.080E-06,0.036
-1.070E-06,0.020
-1.060E-06,0.008
-1.050E-06,0.004
-1.040E-06,0.008
-1.030E-06,0.024
-1.020E-06,0.040
-1.010E-06,0.052
-1.000E-06,0.048
-9.900E-07,0.036
-9.800E-07,0.016
-9.700E-07,0.008
-9.600E-07,0.004
-9.500E-07,0.024
-9.400E-07,0.048
-9.300E-07,0.068
-9.200E-07,0.080
-9.100E-07,0.076
-9.000E-07,0.068
-8.900E-07,0.064
-8.800E-07,0.076
-8.700E-07,0.096
-8.600E-07,0.108
-8.500E-07,0.108
-8.400E-07,0.088
-8.300E-07,0.056
-8.200E-07,0.040
-8.100E-07,0.044
-8.000E-07,0.056
-7.900E-07,0.084
-7.800E-07,0.088
-7.700E-07,0.096
-7.600E-07,0.088
-7.500E-07,0.064
-7.400E-07,0.072
-7.300E-07,0.100
-7.200E-07,0.008
-7.100E-07,-0.076
-7.000E-07,-0.232
-6.900E-07,-0.296
-6.800E-07,-0.252
-6.700E-07,-0.144
-6.600E-07,-0.004
-6.500E-07,0.096
-6.400E-07,0.232
-6.300E-07,0.024
-6.200E-07,-0.024
-6.100E-07,-0.040
-6.000E-07,-0.088
-5.900E-07,-0.028
-5.800E-07,-0.024
-5.700E-07,0.036
-5.600E-07,0.068
-5.500E-07,0.052
-5.400E-07,-0.052
-5.300E-07,-0.112
-5.200E-07,-0.156
-5.100E-07,-0.144
-5.000E-07,-0.060
-4.900E-07,-0.028
-4.800E-07,0.060
-4.700E-07,0.064
-4.600E-07,0.036
-4.500E-07,-0.032
-4.400E-07,-0.084
-4.300E-07,-0.064
-4.200E-07,-0.056
-4.100E-07,0.024
-4.000E-07,0.020
-3.900E-07,0.076
-3.800E-07,0.044
-3.700E-07,0.016
-3.600E-07,-0.012
-3.500E-07,-0.020
-3.400E-07,-0.020
-3.300E-07,0.008
-3.200E-07,0.064
-3.100E-07,0.076
-3.000E-07,0.108
-2.900E-07,0.068
-2.800E-07,0.048
-2.700E-07,0.060
-2.600E-07,0.080
-2.500E-07,0.120
-2.400E-07,0.172
-2.300E-07,0.196
-2.200E-07,0.152
-2.100E-07,0.132
-2.000E-07,0.092
-1.900E-07,0.124
-1.800E-07,0.156
-1.700E-07,0.196
-1.600E-07,0.220
-1.500E-07,0.216
-1.400E-07,0.180
-1.300E-07,0.148
-1.200E-07,0.132
-1.100E-07,0.124
-1.000E-07,0.120
-9.000E-08,0.128
-8.000E-08,0.108
-7.000E-08,-0.180
-6.000E-08,-0.388
-5.000E-08,-0.512
-4.000E-08,-0.512
-3.000E-08,-0.512
-2.000E-08,-0.432
-1.000E-08,0.080
0.000E+00,0.540
1.000E-08,0.540
2.000E-08,0.260
3.000E-08,-0.108
4.000E-08,-0.468
5.000E-08,-0.512
6.000E-08,-0.256
7.000E-08,0.204
8.000E-08,0.392
9.000E-08,0.520
1.000E-07,0.184
1.100E-07,-0.052
1.200E-07,-0.340
1.300E-07,-0.376
1.400E-07,-0.244
1.500E-07,-0.040
1.600E-07,0.224
1.700E-07,0.228
1.800E-07,0.184
1.900E-07,-0.028
2.000E-07,-0.152
2.100E-07,-0.212
2.200E-07,-0.144
2.300E-07,-0.020
2.400E-07,0.164
2.500E-07,0.216
2.600E-07,0.132
2.700E-07,0.028
2.800E-07,-0.108
2.900E-07,-0.152
3.000E-07,-0.108
3.100E-07,0.000
3.200E-07,0.096
3.300E-07,0.156
3.400E-07,0.132
3.500E-07,0.040
3.600E-07,-0.032
3.700E-07,-0.104
3.800E-07,-0.092
3.900E-07,-0.020
4.000E-07,0.072
4.100E-07,0.132
4.200E-07,0.140
4.300E-07,0.084
4.400E-07,0.016
4.500E-07,-0.028
4.600E-07,-0.016
4.700E-07,0.048
4.800E-07,0.128
4.900E-07,0.196
5.000E-07,0.220
5.100E-07,0.196
5.200E-07,0.144
5.300E-07,0.108
5.400E-07,0.076
5.500E-07,0.096
5.600E-07,0.136
5.700E-07,0.192
5.800E-07,0.260
5.900E-07,0.224
6.000E-07,0.180
6.100E-07,0.152
6.200E-07,0.112
6.300E-07,0.132
6.400E-07,0.132
6.500E-07,0.196
6.600E-07,0.220
6.700E-07,0.196
6.800E-07,0.152
6.900E-07,0.080
7.000E-07,0.008
7.100E-07,-0.020
7.200E-07,-0.004
7.300E-07,0.048
7.400E-07,0.128
7.500E-07,0.140
7.600E-07,0.072
7.700E-07,-0.052
7.800E-07,-0.024
7.900E-07,-0.040
8.000E-07,-0.080
8.100E-07,0.080
8.200E-07,0.112
8.300E-07,0.232
8.400E-07,0.132
8.500E-07,0.128
8.600E-07,0.052
8.700E-07,0.024
8.800E-07,0.072
8.900E-07,0.088
9.000E-07,0.172
9.100E-07,0.212
9.200E-07,0.200
9.300E-07,0.160
9.400E-07,0.100
9.500E-07,0.004
9.600E-07,-0.020
9.700E-07,0.016
9.800E-07,0.076
9.900E-07,0.168
1.000E-06,0.188
1.010E-06,0.152
1.020E-06,0.120
1.030E-06,-0.012
1.040E-06,-0.068
1.050E-06,-0.072
1.060E-06,-0.040
1.070E-06,-0.080
1.080E-06,-0.120
1.090E-06,-0.144
1.100E-06,-0.248
1.110E-06,-0.164
1.120E-06,-0.236
1.130E-06,-0.148
1.140E-06,-0.040
1.150E-06,0.020
1.160E-06,0.080
1.170E-06,0.152
1.180E-06,0.272
1.190E-06,0.176
1.200E-06,0.056
1.210E-06,-0.128
1.220E-06,-0.264
1.230E-06,-0.308
1.240E-06,-0.332
1.250E-06,-0.332
1.260E-06,-0.184
1.270E-06,-0.188
1.280E-06,-0.112
1.290E-06,-0.188
1.300E-06,-0.144
1.310E-06,-0.144
1.320E-06,-0.176
1.330E-06,-0.072
1.340E-06,0.016
1.350E-06,0.060
1.360E-06,0.064
1.370E-06,-0.036
1.380E-06,-0.044
1.390E-06,-0.024
1.400E-06,-0.004
1.410E-06,0.088
1.420E-06,0.164
1.430E-06,0.188
1.440E-06,0.156
1.450E-06,0.124
1.460E-06,0.088
1.470E-06,0.088
1.480E-06,0.160
1.490E-06,0.228
1.500E-06,0.300
1.510E-06,0.316
1.520E-06,0.260
1.530E-06,0.204
1.540E-06,0.148
1.550E-06,0.132
1.560E-06,0.144
1.570E-06,0.212
1.580E-06,0.272
1.590E-06,0.288
1.600E-06,0.284
1.610E-06,0.224
1.620E-06,0.172
1.630E-06,0.132
1.640E-06,0.152
1.650E-06,0.192
1.660E-06,0.244
1.670E-06,0.272
1.680E-06,0.272
1.690E-06,0.236
1.700E-06,0.192
1.710E-06,0.164
1.720E-06,0.152
1.730E-06,0.176
1.740E-06,0.200
1.750E-06,0.240
1.760E-06,0.232
1.770E-06,0.208
1.780E-06,0.156
1.790E-06,0.100
1.800E-06,0.044
1.810E-06,-0.008
1.820E-06,-0.036
1.830E-06,-0.120
1.840E-06,-0.156
1.850E-06,-0.248
1.860E-06,-0.272
1.870E-06,-0.332
1.880E-06,-0.324
1.890E-06,-0.192
1.900E-06,-0.184
1.910E-06,-0.140
1.920E-06,-0.100
1.930E-06,-0.100
1.940E-06,-0.108
1.950E-06,-0.076
1.960E-06,-0.096
1.970E-06,0.068
1.980E-06,0.084
1.990E-06,0.184
2.000E-06,0.280
2.010E-06,0.240
2.020E-06,0.272
2.030E-06,0.180
2.040E-06,0.168
2.050E-06,0.124
2.060E-06,0.144
2.070E-06,0.208
2.080E-06,0.264
2.090E-06,0.292
2.100E-06,0.272
2.110E-06,0.224
2.120E-06,0.160
2.130E-06,0.136
2.140E-06,0.144
2.150E-06,0.192
2.160E-06,0.240
2.170E-06,0.268
2.180E-06,0.260
2.190E-06,0.240
2.200E-06,0.196
2.210E-06,0.176
2.220E-06,0.172
2.230E-06,0.184
2.240E-06,0.212
2.250E-06,0.240
2.260E-06,0.252
2.270E-06,0.232
2.280E-06,0.204
2.290E-06,0.176
2.300E-06,0.168
2.310E-06,0.180
2.320E-06,0.204
2.330E-06,0.224
2.340E-06,0.240
2.350E-06,0.240
2.360E-06,0.224
2.370E-06,0.196
2.380E-06,0.184
2.390E-06,0.192
2.400E-06,0.192
2.410E-06,0.208
2.420E-06,0.224
2.430E-06,0.224
2.440E-06,0.208
2.450E-06,0.200
2.460E-06,0.188
2.470E-06,0.184
2.480E-06,0.192
2.490E-06,0.208
2.500E-06,0.224
2.510E-06,0.220
2.520E-06,0.224
2.530E-06,0.212
2.540E-06,0.192
2.550E-06,0.196
2.560E-06,0.196
2.570E-06,0.200
2.580E-06,0.208
2.590E-06,0.212
2.600E-06,0.208
2.610E-06,0.204
2.620E-06,0.192
2.630E-06,0.192
2.640E-06,0.192
2.650E-06,0.200
2.660E-06,0.204
2.670E-06,0.204
2.680E-06,0.212
2.690E-06,0.208
2.700E-06,0.196
2.710E-06,0.192
2.720E-06,0.192
2.730E-06,0.196
2.740E-06,0.200
2.750E-06,0.196
2.760E-06,0.200
2.770E-06,0.200
2.780E-06,0.196
2.790E-06,0.192
2.800E-06,0.192
2.810E-06,0.192
2.820E-06,0.196
2.830E-06,0.204
2.840E-06,0.200
2.850E-06,0.200
2.860E-06,0.200
2.870E-06,0.196
2.880E-06,0.188
2.890E-06,0.188
2.900E-06,0.192
2.910E-06,0.192
2.920E-06,0.196
2.930E-06,0.196
2.940E-06,0.196
2.950E-06,0.188
2.960E-06,0.188
2.970E-06,0.188
2.980E-06,0.188
2.990E-06,0.188
3.000E-06,0.196
3.010E-06,0.196
3.020E-06,0.192
3.030E-06,0.188
3.040E-06,0.184
3.050E-06,0.180
3.060E-06,0.184
3.070E-06,0.188
3.080E-06,0.188
3.090E-06,0.192
3.100E-06,0.188
3.110E-06,0.192
3.120E-06,0.184
3.130E-06,0.180
3.140E-06,0.176
3.150E-06,0.180
3.160E-06,0.176
3.170E-06,0.180
3.180E-06,0.184
3.190E-06,0.188
3.200E-06,0.180
3.210E-06,0.172
3.220E-06,0.168
3.230E-06,0.172
3.240E-06,0.180
3.250E-06,0.184
3.260E-06,0.180
3.270E-06,0.176
3.280E-06,0.180
3.290E-06,0.176
3.300E-06,0.172
3.310E-06,0.172
3.320E-06,0.172
3.330E-06,0.164
3.340E-06,0.176
3.350E-06,0.176
3.360E-06,0.180
3.370E-06,0.180
3.380E-06,0.164
3.390E-06,0.164
3.400E-06,0.160
3.410E-06,0.172
3.420E-06,0.172
3.430E-06,0.176
3.440E-06,0.180
3.450E-06,0.172
3.460E-06,0.164
3.470E-06,0.168
3.480E-06,0.168
3.490E-06,0.168
3.500E-06,0.172
3.510E-06,0.180
3.520E-06,0.164
3.530E-06,0.156
3.540E-06,0.148
3.550E-06,0.152
3.560E-06,0.160
3.570E-06,0.164
3.580E-06,0.156
3.590E-06,0.160
3.600E-06,0.160
3.610E-06,0.160
3.620E-06,0.160
3.630E-06,0.152
3.640E-06,0.152
3.650E-06,0.160
3.660E-06,0.168
3.670E-06,0.156
3.680E-06,0.160
3.690E-06,0.160
3.700E-06,0.160
3.710E-06,0.160
3.720E-06,0.152
3.730E-06,0.156
3.740E-06,0.164
3.750E-06,0.164
3.760E-06,0.168
3.770E-06,0.164
3.780E-06,0.164
3.790E-06,0.152
3.800E-06,0.156
3.810E-06,0.160
3.820E-06,0.164
3.830E-06,0.160
3.840E-06,0.156
3.850E-06,0.156
3.860E-06,0.148
3.870E-06,0.152
3.880E-06,0.156
3.890E-06,0.152
3.900E-06,0.152
3.910E-06,0.152
3.920E-06,0.152
3.930E-06,0.148
3.940E-06,0.148
3.950E-06,0.152
3.960E-06,0.156
3.970E-06,0.148
3.980E-06,0.148
3.990E-06,0.140
4.000E-06,0.144
4.010E-06,0.144
4.020E-06,0.144
4.030E-06,0.152
4.040E-06,0.148
4.050E-06,0.144
4.060E-06,0.144
4.070E-06,0.140
4.080E-06,0.140
4.090E-06,0.144
4.100E-06,0.144
4.110E-06,0.144
4.120E-06,0.156
4.130E-06,0.140
4.140E-06,0.136
4.150E-06,0.140
4.160E-06,0.136
4.170E-06,0.136
4.180E-06,0.140
4.190E-06,0.140
4.200E-06,0.140
4.210E-06,0.140
4.220E-06,0.144
4.230E-06,0.144
4.240E-06,0.136
4.250E-06,0.136
4.260E-06,0.132
4.270E-06,0.136
4.280E-06,0.136
4.290E-06,0.136
4.300E-06,0.136
4.310E-06,0.136
4.320E-06,0.136
4.330E-06,0.144
4.340E-06,0.132
4.350E-06,0.128
4.360E-06,0.128
4.370E-06,0.128
4.380E-06,0.128
4.390E-06,0.124
4.400E-06,0.128
4.410E-06,0.124
4.420E-06,0.128
4.430E-06,0.128
4.440E-06,0.136
4.450E-06,0.128
4.460E-06,0.124
4.470E-06,0.124
4.480E-06,0.124
4.490E-06,0.128
4.500E-06,0.128
4.510E-06,0.132
4.520E-06,0.128
4.530E-06,0.124
4.540E-06,0.124
4.550E-06,0.128
4.560E-06,0.124
4.570E-06,0.128
4.580E-06,0.124
4.590E-06,0.124
4.600E-06,0.124
4.610E-06,0.120
4.620E-06,0.112
4.630E-06,0.108
4.640E-06,0.108
4.650E-06,0.112
4.660E-06,0.120
4.670E-06,0.120
4.680E-06,0.120
4.690E-06,0.120
4.700E-06,0.112
4.710E-06,0.116
4.720E-06,0.112
4.730E-06,0.116
4.740E-06,0.112
4.750E-06,0.120
4.760E-06,0.120
4.770E-06,0.124
4.780E-06,0.112
4.790E-06,0.116
4.800E-06,0.112
4.810E-06,0.108
4.820E-06,0.116
4.830E-06,0.112
4.840E-06,0.112
4.850E-06,0.104
4.860E-06,0.104
4.870E-06,0.108
4.880E-06,0.112
4.890E-06,0.112
4.900E-06,0.108
4.910E-06,0.112
4.920E-06,0.108
4.930E-06,0.108
4.940E-06,0.104
4.950E-06,0.108
4.960E-06,0.108
4.970E-06,0.104
4.980E-06,0.104
4.990E-06,0.104
5.000E-06,0.108
5.010E-06,0.100
5.020E-06,0.100
5.030E-06,0.096
5.040E-06,0.104
5.050E-06,0.104
5.060E-06,0.104
5.070E-06,0.104
5.080E-06,0.100
5.090E-06,0.100
5.100E-06,0.092
5.110E-06,0.096
5.120E-06,0.104
5.130E-06,0.092
5.140E-06,0.104
5.150E-06,0.100
5.160E-06,0.096
5.170E-06,0.092
5.180E-06,0.092
5.190E-06,0.096
5.200E-06,0.096
5.210E-06,0.096
5.220E-06,0.096
5.230E-06,0.100
5.240E-06,0.096
5.250E-06,0.092
5.260E-06,0.096
5.270E-06,0.096
5.280E-06,0.092
5.290E-06,0.096
5.300E-06,0.092
5.310E-06,0.096
5.320E-06,0.096
5.330E-06,0.088
5.340E-06,0.088
5.350E-06,0.092
5.360E-06,0.088
5.370E-06,0.092
5.380E-06,0.092
5.390E-06,0.092
5.400E-06,0.092
5.410E-06,0.088
5.420E-06,0.088
5.430E-06,0.092
5.440E-06,0.084
5.450E-06,0.084
5.460E-06,0.084
5.470E-06,0.092
5.480E-06,0.092
5.490E-06,0.084
5.500E-06,0.084
5.510E-06,0.088
5.520E-06,0.088
5.530E-06,0.084
5.540E-06,0.080
5.550E-06,0.084
5.560E-06,0.080
5.570E-06,0.080
5.580E-06,0.076
5.590E-06,0.076
5.600E-06,0.084
5.610E-06,0.076
5.620E-06,0.076
5.630E-06,0.080
5.640E-06,0.080
5.650E-06,0.076
5.660E-06,0.076
5.670E-06,0.084
5.680E-06,0.080
5.690E-06,0.072
5.700E-06,0.072
5.710E-06,0.072
5.720E-06,0.072
5.730E-06,0.072
5.740E-06,0.072
5.750E-06,0.072
5.760E-06,0.080
5.770E-06,0.076
5.780E-06,0.068
5.790E-06,0.068
5.800E-06,0.068
5.810E-06,0.072
5.820E-06,0.064
5.830E-06,0.072
5.840E-06,0.072
5.850E-06,0.076
5.860E-06,0.072
5.870E-06,0.064
5.880E-06,0.068
5.890E-06,0.064
5.900E-06,0.060
5.910E-06,0.064
5.920E-06,0.068
5.930E-06,0.072
5.940E-06,0.068
5.950E-06,0.068
5.960E-06,0.064
5.970E-06,0.056
5.980E-06,0.056
5.990E-06,0.064
6.000E-06,0.064
6.010E-06,0.068
6.020E-06,0.064
6.030E-06,0.060
6.040E-06,0.056
6.050E-06,0.056
6.060E-06,0.056
6.070E-06,0.056
6.080E-06,0.064
6.090E-06,0.064
6.100E-06,0.060
6.110E-06,0.060
6.120E-06,0.056
6.130E-06,0.060
6.140E-06,0.056
6.150E-06,0.056
6.160E-06,0.060
6.170E-06,0.056
6.180E-06,0.056
6.190E-06,0.060
6.200E-06,0.060
6.210E-06,0.052
6.220E-06,0.048
6.230E-06,0.060
6.240E-06,0.056
6.250E-06,0.052
6.260E-06,0.056
6.270E-06,0.056
6.280E-06,0.056
6.290E-06,0.056
6.300E-06,0.056
6.310E-06,0.052
6.320E-06,0.056
6.330E-06,0.048
6.340E-06,0.048
6.350E-06,0.056
6.360E-06,0.052
6.370E-06,0.056
6.380E-06,0.052
6.390E-06,0.048
6.400E-06,0.040
6.410E-06,0.044
6.420E-06,0.044
6.430E-06,0.056
6.440E-06,0.056
6.450E-06,0.052
6.460E-06,0.056
6.470E-06,0.044
6.480E-06,0.044
6.490E-06,0.044
6.500E-06,0.044
6.510E-06,0.044
6.520E-06,0.052
6.530E-06,0.052
6.540E-06,0.044
6.550E-06,0.044
6.560E-06,0.048
6.570E-06,0.040
6.580E-06,0.040
6.590E-06,0.044
6.600E-06,0.044
6.610E-06,0.048
6.620E-06,0.052
6.630E-06,0.048
6.640E-06,0.048
6.650E-06,0.036
6.660E-06,0.032
6.670E-06,0.032
6.680E-06,0.036
6.690E-06,0.044
6.700E-06,0.052
6.710E-06,0.044
6.720E-06,0.036
6.730E-06,0.036
6.740E-06,0.032
6.750E-06,0.032
6.760E-06,0.028
6.770E-06,0.036
6.780E-06,0.044
6.790E-06,0.048
6.800E-06,0.040
6.810E-06,0.032
6.820E-06,0.032
6.830E-06,0.032
6.840E-06,0.028
6.850E-06,0.032
6.860E-06,0.040
6.870E-06,0.040
6.880E-06,0.028
6.890E-06,0.032
6.900E-06,0.028
6.910E-06,0.024
6.920E-06,0.020
6.930E-06,0.028
6.940E-06,0.028
6.950E-06,0.032
6.960E-06,0.036
6.970E-06,0.028
6.980E-06,0.020
6.990E-06,0.020
7.000E-06,0.024
7.010E-06,0.020
7.020E-06,0.024
7.030E-06,0.032
7.040E-06,0.028
7.050E-06,0.032
7.060E-06,0.024
7.070E-06,0.020
7.080E-06,0.020
7.090E-06,0.024
7.100E-06,0.024
7.110E-06,0.024
7.120E-06,0.040
7.130E-06,0.024
7.140E-06,0.020
7.150E-06,0.024
7.160E-06,0.016
7.170E-06,0.024
7.180E-06,0.028
7.190E-06,0.032
7.200E-06,0.020
7.210E-06,0.020
7.220E-06,0.016
7.230E-06,0.012
7.240E-06,0.016
7.250E-06,0.020
7.260E-06,0.020
7.270E-06,0.020
7.280E-06,0.028
7.290E-06,0.020
7.300E-06,0.020
7.310E-06,0.008
7.320E-06,0.012
7.330E-06,0.016
7.340E-06,0.020
7.350E-06,0.024
7.360E-06,0.020
7.370E-06,0.024
7.380E-06,0.024
7.390E-06,0.020
7.400E-06,0.020
7.410E-06,0.016
7.420E-06,0.024
7.430E-06,0.020
7.440E-06,0.020
7.450E-06,0.020
7.460E-06,0.012
7.470E-06,0.012
7.480E-06,0.012
7.490E-06,0.012
7.500E-06,0.012
7.510E-06,0.024
7.520E-06,0.020
7.530E-06,0.020
7.540E-06,0.012
7.550E-06,0.012
7.560E-06,0.004
7.570E-06,0.008
7.580E-06,0.008
7.590E-06,0.016
7.600E-06,0.012
7.610E-06,0.016
7.620E-06,0.012
7.630E-06,0.008
7.640E-06,0.008
7.650E-06,0.008
7.660E-06,0.012
7.670E-06,0.012
7.680E-06,0.012
7.690E-06,0.008
7.700E-06,0.012
7.710E-06,0.008
7.720E-06,0.008
7.730E-06,0.004
7.740E-06,0.008
7.750E-06,0.012
7.760E-06,0.012
7.770E-06,0.012
7.780E-06,0.004
7.790E-06,0.008
7.800E-06,0.008
7.810E-06,0.000
7.820E-06,0.000
7.830E-06,0.008
7.840E-06,0.000
7.850E-06,0.004
7.860E-06,0.008
7.870E-06,-0.004
