mediciones/Mediciones filtradas (saque las feas)/6-10/7.8/WaveData5674.csv

#timebase=2000000(ps)
,#voltbase=200000(mv/100)
#size=4000
-4.200E-06,0.376
-4.190E-06,0.440
-4.180E-06,0.496
-4.170E-06,0.472
-4.160E-06,0.464
-4.150E-06,0.416
-4.140E-06,0.344
-4.130E-06,0.256
-4.120E-06,0.176
-4.110E-06,0.032
-4.100E-06,-0.016
-4.090E-06,-0.144
-4.080E-06,-0.208
-4.070E-06,-0.264
-4.060E-06,-0.320
-4.050E-06,-0.368
-4.040E-06,-0.328
-4.030E-06,-0.240
-4.020E-06,-0.224
-4.010E-06,-0.192
-4.000E-06,-0.208
-3.990E-06,-0.184
-3.980E-06,-0.136
-3.970E-06,-0.024
-3.960E-06,0.032
-3.950E-06,0.128
-3.940E-06,0.120
-3.930E-06,0.176
-3.920E-06,0.200
-3.910E-06,0.256
-3.900E-06,0.368
-3.890E-06,0.416
-3.880E-06,0.472
-3.870E-06,0.312
-3.860E-06,0.072
-3.850E-06,-0.248
-3.840E-06,-0.328
-3.830E-06,-0.296
-3.820E-06,-0.312
-3.810E-06,0.216
-3.800E-06,-0.744
-3.790E-06,-0.800
-3.780E-06,-0.416
-3.770E-06,-0.968
-3.760E-06,0.672
-3.750E-06,0.472
-3.740E-06,0.544
-3.730E-06,0.416
-3.720E-06,-0.392
-3.710E-06,-0.144
-3.700E-06,0.272
-3.690E-06,0.696
-3.680E-06,1.080
-3.670E-06,1.080
-3.660E-06,0.752
-3.650E-06,0.464
-3.640E-06,0.256
-3.630E-06,0.160
-3.620E-06,0.336
-3.610E-06,0.400
-3.600E-06,0.264
-3.590E-06,0.032
-3.580E-06,-0.224
-3.570E-06,-0.552
-3.560E-06,-0.680
-3.550E-06,-0.792
-3.540E-06,-0.832
-3.530E-06,-0.792
-3.520E-06,-0.728
-3.510E-06,-0.680
-3.500E-06,-0.728
-3.490E-06,-0.792
-3.480E-06,-0.776
-3.470E-06,-0.688
-3.460E-06,-0.472
-3.450E-06,-0.256
-3.440E-06,-0.120
-3.430E-06,0.000
-3.420E-06,-0.008
-3.410E-06,0.088
-3.400E-06,0.064
-3.390E-06,0.080
-3.380E-06,0.192
-3.370E-06,0.232
-3.360E-06,0.376
-3.350E-06,0.480
-3.340E-06,0.496
-3.330E-06,0.488
-3.320E-06,0.264
-3.310E-06,0.200
-3.300E-06,0.184
-3.290E-06,0.112
-3.280E-06,0.152
-3.270E-06,0.200
-3.260E-06,0.184
-3.250E-06,0.136
-3.240E-06,0.168
-3.230E-06,0.120
-3.220E-06,0.272
-3.210E-06,0.544
-3.200E-06,0.600
-3.190E-06,0.752
-3.180E-06,0.656
-3.170E-06,0.464
-3.160E-06,0.456
-3.150E-06,0.392
-3.140E-06,0.448
-3.130E-06,0.464
-3.120E-06,0.448
-3.110E-06,0.184
-3.100E-06,0.216
-3.090E-06,0.080
-3.080E-06,-0.072
-3.070E-06,0.072
-3.060E-06,-0.112
-3.050E-06,0.208
-3.040E-06,0.072
-3.030E-06,0.048
-3.020E-06,-0.440
-3.010E-06,-0.264
-3.000E-06,-1.040
-2.990E-06,-0.560
-2.980E-06,0.000
-2.970E-06,-0.056
-2.960E-06,1.080
-2.950E-06,0.088
-2.940E-06,-0.096
-2.930E-06,-0.488
-2.920E-06,-1.032
-2.910E-06,-0.488
-2.900E-06,-0.008
-2.890E-06,0.080
-2.880E-06,0.344
-2.870E-06,-0.040
-2.860E-06,-0.472
-2.850E-06,-0.448
-2.840E-06,-0.424
-2.830E-06,-0.288
-2.820E-06,0.032
-2.810E-06,-0.128
-2.800E-06,-0.272
-2.790E-06,-0.536
-2.780E-06,-0.784
-2.770E-06,-0.816
-2.760E-06,-0.616
-2.750E-06,-0.472
-2.740E-06,-0.192
-2.730E-06,-0.040
-2.720E-06,-0.064
-2.710E-06,-0.128
-2.700E-06,-0.224
-2.690E-06,-0.200
-2.680E-06,-0.088
-2.670E-06,0.136
-2.660E-06,0.288
-2.650E-06,0.424
-2.640E-06,0.408
-2.630E-06,0.368
-2.620E-06,0.336
-2.610E-06,0.264
-2.600E-06,0.240
-2.590E-06,0.208
-2.580E-06,0.184
-2.570E-06,0.208
-2.560E-06,0.184
-2.550E-06,0.136
-2.540E-06,0.080
-2.530E-06,0.000
-2.520E-06,0.000
-2.510E-06,0.000
-2.500E-06,0.032
-2.490E-06,0.040
-2.480E-06,0.008
-2.470E-06,-0.056
-2.460E-06,-0.208
-2.450E-06,-0.400
-2.440E-06,-0.152
-2.430E-06,-0.544
-2.420E-06,-0.936
-2.410E-06,-1.040
-2.400E-06,-0.744
-2.390E-06,-0.328
-2.380E-06,0.520
-2.370E-06,1.080
-2.360E-06,0.656
-2.350E-06,0.064
-2.340E-06,-0.800
-2.330E-06,-1.040
-2.320E-06,-0.792
-2.310E-06,0.000
-2.300E-06,0.304
-2.290E-06,0.568
-2.280E-06,0.048
-2.270E-06,-1.040
-2.260E-06,-1.048
-2.250E-06,-1.040
-2.240E-06,-0.792
-2.230E-06,0.936
-2.220E-06,1.080
-2.210E-06,1.064
-2.200E-06,0.696
-2.190E-06,-0.584
-2.180E-06,-1.040
-2.170E-06,-0.936
-2.160E-06,-0.576
-2.150E-06,0.048
-2.140E-06,0.568
-2.130E-06,0.376
-2.120E-06,0.120
-2.110E-06,-0.352
-2.100E-06,-0.640
-2.090E-06,-0.488
-2.080E-06,-0.040
-2.070E-06,0.288
-2.060E-06,0.488
-2.050E-06,0.368
-2.040E-06,0.080
-2.030E-06,-0.216
-2.020E-06,-0.368
-2.010E-06,-0.520
-2.000E-06,-0.296
-1.990E-06,0.184
-1.980E-06,-0.032
-1.970E-06,-0.080
-1.960E-06,-0.400
-1.950E-06,-0.744
-1.940E-06,-0.544
-1.930E-06,-0.416
-1.920E-06,0.128
-1.910E-06,0.440
-1.900E-06,0.464
-1.890E-06,0.432
-1.880E-06,0.056
-1.870E-06,0.120
-1.860E-06,0.040
-1.850E-06,0.104
-1.840E-06,0.296
-1.830E-06,0.360
-1.820E-06,0.632
-1.810E-06,0.472
-1.800E-06,0.352
-1.790E-06,0.184
-1.780E-06,0.016
-1.770E-06,0.032
-1.760E-06,0.128
-1.750E-06,0.272
-1.740E-06,0.232
-1.730E-06,0.112
-1.720E-06,-0.096
-1.710E-06,-0.400
-1.700E-06,-0.472
-1.690E-06,-0.440
-1.680E-06,-0.392
-1.670E-06,-0.280
-1.660E-06,-0.312
-1.650E-06,-0.520
-1.640E-06,-0.496
-1.630E-06,-0.600
-1.620E-06,-0.496
-1.610E-06,-0.200
-1.600E-06,-0.320
-1.590E-06,-0.184
-1.580E-06,-0.240
-1.570E-06,-0.464
-1.560E-06,-0.440
-1.550E-06,-0.720
-1.540E-06,-0.768
-1.530E-06,-0.312
-1.520E-06,-0.040
-1.510E-06,0.376
-1.500E-06,0.752
-1.490E-06,0.304
-1.480E-06,0.104
-1.470E-06,-0.184
-1.460E-06,-0.296
-1.450E-06,0.216
-1.440E-06,0.520
-1.430E-06,0.664
-1.420E-06,0.648
-1.410E-06,0.392
-1.400E-06,0.152
-1.390E-06,0.016
-1.380E-06,0.024
-1.370E-06,0.104
-1.360E-06,0.248
-1.350E-06,0.184
-1.340E-06,0.000
-1.330E-06,-0.072
-1.320E-06,-0.288
-1.310E-06,-0.160
-1.300E-06,-0.192
-1.290E-06,-0.240
-1.280E-06,-0.240
-1.270E-06,-0.304
-1.260E-06,-0.256
-1.250E-06,-0.240
-1.240E-06,-0.096
-1.230E-06,-0.128
-1.220E-06,-0.104
-1.210E-06,-0.008
-1.200E-06,-0.096
-1.190E-06,0.096
-1.180E-06,0.080
-1.170E-06,0.048
-1.160E-06,0.064
-1.150E-06,0.056
-1.140E-06,0.072
-1.130E-06,0.216
-1.120E-06,0.280
-1.110E-06,0.296
-1.100E-06,0.328
-1.090E-06,0.240
-1.080E-06,0.224
-1.070E-06,0.200
-1.060E-06,0.168
-1.050E-06,0.128
-1.040E-06,0.104
-1.030E-06,-0.016
-1.020E-06,-0.032
-1.010E-06,-0.272
-1.000E-06,-0.296
-9.900E-07,-0.360
-9.800E-07,-0.728
-9.700E-07,-0.928
-9.600E-07,-1.048
-9.500E-07,-1.048
-9.400E-07,-0.688
-9.300E-07,-0.088
-9.200E-07,0.024
-9.100E-07,0.104
-9.000E-07,-0.184
-8.900E-07,-0.648
-8.800E-07,-0.528
-8.700E-07,-0.376
-8.600E-07,-0.056
-8.500E-07,0.280
-8.400E-07,0.112
-8.300E-07,-0.008
-8.200E-07,-0.168
-8.100E-07,-0.320
-8.000E-07,0.008
-7.900E-07,0.368
-7.800E-07,0.736
-7.700E-07,0.944
-7.600E-07,0.840
-7.500E-07,0.600
-7.400E-07,0.320
-7.300E-07,0.256
-7.200E-07,0.056
-7.100E-07,0.040
-7.000E-07,0.168
-6.900E-07,-0.440
-6.800E-07,-0.344
-6.700E-07,-0.384
-6.600E-07,-0.296
-6.500E-07,0.224
-6.400E-07,0.384
-6.300E-07,0.464
-6.200E-07,0.272
-6.100E-07,-0.264
-6.000E-07,-0.464
-5.900E-07,-0.384
-5.800E-07,-0.176
-5.700E-07,0.112
-5.600E-07,0.280
-5.500E-07,0.264
-5.400E-07,0.240
-5.300E-07,0.160
-5.200E-07,0.048
-5.100E-07,-0.008
-5.000E-07,-0.064
-4.900E-07,-0.120
-4.800E-07,0.016
-4.700E-07,0.120
-4.600E-07,0.264
-4.500E-07,0.248
-4.400E-07,0.144
-4.300E-07,-0.040
-4.200E-07,-0.160
-4.100E-07,-0.264
-4.000E-07,-0.224
-3.900E-07,-0.184
-3.800E-07,-0.184
-3.700E-07,-0.208
-3.600E-07,-0.288
-3.500E-07,-0.400
-3.400E-07,-0.504
-3.300E-07,-0.536
-3.200E-07,-0.544
-3.100E-07,-0.472
-3.000E-07,-0.448
-2.900E-07,-0.408
-2.800E-07,-0.432
-2.700E-07,-0.496
-2.600E-07,-0.520
-2.500E-07,-0.512
-2.400E-07,-0.456
-2.300E-07,-0.360
-2.200E-07,-0.264
-2.100E-07,-0.208
-2.000E-07,-0.136
-1.900E-07,-0.120
-1.800E-07,-0.064
-1.700E-07,-0.024
-1.600E-07,0.000
-1.500E-07,0.016
-1.400E-07,0.000
-1.300E-07,-0.016
-1.200E-07,0.024
-1.100E-07,0.000
-1.000E-07,0.048
-9.000E-08,-0.024
-8.000E-08,-0.048
-7.000E-08,-0.104
-6.000E-08,-0.272
-5.000E-08,-0.200
-4.000E-08,-0.336
-3.000E-08,-0.368
-2.000E-08,-0.776
-1.000E-08,-1.032
0.000E+00,-0.688
1.000E-08,-0.320
2.000E-08,0.552
3.000E-08,0.912
4.000E-08,0.416
5.000E-08,-0.048
6.000E-08,-0.576
7.000E-08,-1.040
8.000E-08,-0.208
9.000E-08,0.736
1.000E-07,0.936
1.100E-07,1.072
1.200E-07,0.616
1.300E-07,-0.424
1.400E-07,-0.160
1.500E-07,-0.264
1.600E-07,0.400
1.700E-07,1.080
1.800E-07,0.664
1.900E-07,0.120
2.000E-07,0.144
2.100E-07,-1.032
2.200E-07,0.368
2.300E-07,0.688
2.400E-07,1.088
2.500E-07,1.032
2.600E-07,0.216
2.700E-07,-0.144
2.800E-07,-0.568
2.900E-07,-0.272
3.000E-07,-0.304
3.100E-07,0.088
3.200E-07,-0.048
3.300E-07,-0.344
3.400E-07,-0.504
3.500E-07,-0.704
3.600E-07,-0.888
3.700E-07,-0.688
3.800E-07,-0.784
3.900E-07,-0.880
4.000E-07,-0.648
4.100E-07,-0.808
4.200E-07,-0.696
4.300E-07,-0.576
4.400E-07,-0.584
4.500E-07,-0.296
4.600E-07,-0.808
4.700E-07,-1.032
4.800E-07,-1.040
4.900E-07,-1.048
5.000E-07,-1.032
5.100E-07,-0.264
5.200E-07,0.680
5.300E-07,1.080
5.400E-07,1.088
5.500E-07,0.168
5.600E-07,0.096
5.700E-07,-0.192
5.800E-07,0.600
5.900E-07,1.080
6.000E-07,1.088
6.100E-07,1.080
6.200E-07,1.080
6.300E-07,0.888
6.400E-07,1.080
6.500E-07,1.088
6.600E-07,1.080
6.700E-07,1.000
6.800E-07,0.576
6.900E-07,0.320
7.000E-07,-0.104
7.100E-07,-0.216
7.200E-07,-0.360
7.300E-07,-0.432
7.400E-07,-0.440
7.500E-07,-0.584
7.600E-07,-0.696
7.700E-07,-0.776
7.800E-07,-0.904
7.900E-07,-1.048
8.000E-07,-1.040
8.100E-07,-1.040
8.200E-07,-0.872
8.300E-07,-0.600
8.400E-07,-0.496
8.500E-07,-0.328
8.600E-07,-0.400
8.700E-07,-0.536
8.800E-07,-0.584
8.900E-07,-0.640
9.000E-07,-0.488
9.100E-07,-0.304
9.200E-07,-0.096
9.300E-07,0.056
9.400E-07,0.048
9.500E-07,0.000
9.600E-07,-0.200
9.700E-07,-0.184
9.800E-07,-0.128
9.900E-07,-0.120
1.000E-06,0.008
1.010E-06,0.048
1.020E-06,0.152
1.030E-06,-0.088
1.040E-06,-0.264
1.050E-06,-0.424
1.060E-06,-1.048
1.070E-06,-0.832
1.080E-06,-0.784
1.090E-06,0.424
1.100E-06,1.072
1.110E-06,0.752
1.120E-06,1.088
1.130E-06,-0.408
1.140E-06,-0.936
1.150E-06,0.128
1.160E-06,0.064
1.170E-06,0.896
1.180E-06,0.712
1.190E-06,-0.080
1.200E-06,-0.400
1.210E-06,0.072
1.220E-06,0.128
1.230E-06,1.072
1.240E-06,1.080
1.250E-06,0.736
1.260E-06,0.552
1.270E-06,-0.232
1.280E-06,-0.168
1.290E-06,-0.304
1.300E-06,-0.328
1.310E-06,-0.016
1.320E-06,-0.200
1.330E-06,-0.336
1.340E-06,-0.560
1.350E-06,-1.040
1.360E-06,-1.040
1.370E-06,-1.000
1.380E-06,-0.352
1.390E-06,0.336
1.400E-06,0.792
1.410E-06,0.320
1.420E-06,-0.672
1.430E-06,-1.040
1.440E-06,-1.032
1.450E-06,-1.040
1.460E-06,-0.576
1.470E-06,0.744
1.480E-06,1.072
1.490E-06,1.080
1.500E-06,1.088
1.510E-06,0.488
1.520E-06,-0.112
1.530E-06,-0.504
1.540E-06,-0.016
1.550E-06,0.648
1.560E-06,1.056
1.570E-06,0.848
1.580E-06,0.224
1.590E-06,-0.320
1.600E-06,-0.928
1.610E-06,-0.968
1.620E-06,-0.264
1.630E-06,-0.032
1.640E-06,0.608
1.650E-06,0.296
1.660E-06,-0.664
1.670E-06,-0.480
1.680E-06,-0.928
1.690E-06,-0.432
1.700E-06,0.416
1.710E-06,0.592
1.720E-06,0.896
1.730E-06,0.784
1.740E-06,0.304
1.750E-06,0.000
1.760E-06,-0.264
1.770E-06,-0.320
1.780E-06,-0.224
1.790E-06,0.256
1.800E-06,-0.080
1.810E-06,-0.216
1.820E-06,-0.768
1.830E-06,-0.776
1.840E-06,-0.264
1.850E-06,0.256
1.860E-06,0.968
1.870E-06,1.072
1.880E-06,1.080
1.890E-06,0.816
1.900E-06,0.440
1.910E-06,0.336
1.920E-06,0.432
1.930E-06,0.496
1.940E-06,0.504
1.950E-06,0.400
1.960E-06,0.128
1.970E-06,-0.080
1.980E-06,-0.048
1.990E-06,-0.080
2.000E-06,0.080
2.010E-06,0.072
2.020E-06,-0.192
2.030E-06,-0.376
2.040E-06,-0.632
2.050E-06,-0.840
2.060E-06,-0.840
2.070E-06,-0.712
2.080E-06,-0.656
2.090E-06,-0.496
2.100E-06,-0.488
2.110E-06,-0.552
2.120E-06,-0.632
2.130E-06,-0.944
2.140E-06,-0.920
2.150E-06,-0.920
2.160E-06,-0.800
2.170E-06,-0.536
2.180E-06,-0.328
2.190E-06,-0.128
2.200E-06,-0.152
2.210E-06,-0.368
2.220E-06,-0.336
2.230E-06,-0.336
2.240E-06,-0.216
2.250E-06,-0.008
2.260E-06,0.040
2.270E-06,-0.072
2.280E-06,0.008
2.290E-06,-0.064
2.300E-06,0.048
2.310E-06,0.320
2.320E-06,0.352
2.330E-06,0.536
2.340E-06,0.448
2.350E-06,0.360
2.360E-06,0.408
2.370E-06,0.416
2.380E-06,0.608
2.390E-06,0.832
2.400E-06,1.032
2.410E-06,1.080
2.420E-06,1.072
2.430E-06,1.080
2.440E-06,1.040
2.450E-06,0.928
2.460E-06,0.648
2.470E-06,0.320
2.480E-06,0.328
2.490E-06,0.032
2.500E-06,-0.120
2.510E-06,-0.328
2.520E-06,-0.624
2.530E-06,-0.640
2.540E-06,-0.544
2.550E-06,-0.224
2.560E-06,0.160
2.570E-06,0.096
2.580E-06,-0.120
2.590E-06,-0.672
2.600E-06,-1.032
2.610E-06,-1.040
2.620E-06,-0.728
2.630E-06,-0.280
2.640E-06,0.136
2.650E-06,0.168
2.660E-06,0.080
2.670E-06,-0.192
2.680E-06,-0.296
2.690E-06,-0.208
2.700E-06,-0.096
2.710E-06,0.024
2.720E-06,0.160
2.730E-06,-0.024
2.740E-06,-0.064
2.750E-06,-0.064
2.760E-06,-0.224
2.770E-06,-0.208
2.780E-06,-0.368
2.790E-06,-0.624
2.800E-06,-0.800
2.810E-06,-0.672
2.820E-06,-0.304
2.830E-06,0.008
2.840E-06,0.384
2.850E-06,0.640
2.860E-06,0.264
2.870E-06,-0.008
2.880E-06,-0.104
2.890E-06,-0.256
2.900E-06,-0.048
2.910E-06,0.104
2.920E-06,-0.040
2.930E-06,-0.224
2.940E-06,-0.416
2.950E-06,-0.616
2.960E-06,-0.416
2.970E-06,-0.264
2.980E-06,-0.168
2.990E-06,-0.152
3.000E-06,-0.472
3.010E-06,-0.728
3.020E-06,-0.960
3.030E-06,-1.048
3.040E-06,-1.048
3.050E-06,-1.048
3.060E-06,-1.032
3.070E-06,-1.032
3.080E-06,-1.040
3.090E-06,-1.032
3.100E-06,-1.040
3.110E-06,-1.032
3.120E-06,-1.040
3.130E-06,-1.032
3.140E-06,-1.032
3.150E-06,-1.040
3.160E-06,-1.032
3.170E-06,-1.032
3.180E-06,-1.040
3.190E-06,-1.040
3.200E-06,-1.048
3.210E-06,-1.040
3.220E-06,-1.040
3.230E-06,-1.048
3.240E-06,-1.040
3.250E-06,-1.032
3.260E-06,-1.040
3.270E-06,-1.040
3.280E-06,-1.040
3.290E-06,-1.048
3.300E-06,-1.040
3.310E-06,-1.032
3.320E-06,-1.040
3.330E-06,-1.040
3.340E-06,-1.040
3.350E-06,-1.048
3.360E-06,-1.040
3.370E-06,-1.032
3.380E-06,-0.992
3.390E-06,-0.936
3.400E-06,-0.888
3.410E-06,-0.864
3.420E-06,-0.840
3.430E-06,-0.848
3.440E-06,-0.808
3.450E-06,-0.768
3.460E-06,-0.736
3.470E-06,-0.760
3.480E-06,-0.760
3.490E-06,-0.800
3.500E-06,-0.808
3.510E-06,-0.776
3.520E-06,-0.712
3.530E-06,-0.656
3.540E-06,-0.592
3.550E-06,-0.536
3.560E-06,-0.488
3.570E-06,-0.416
3.580E-06,-0.360
3.590E-06,-0.296
3.600E-06,-0.240
3.610E-06,-0.208
3.620E-06,-0.160
3.630E-06,-0.152
3.640E-06,-0.168
3.650E-06,-0.192
3.660E-06,-0.216
3.670E-06,-0.248
3.680E-06,-0.288
3.690E-06,-0.320
3.700E-06,-0.368
3.710E-06,-0.400
3.720E-06,-0.416
3.730E-06,-0.448
3.740E-06,-0.456
3.750E-06,-0.488
3.760E-06,-0.496
3.770E-06,-0.456
3.780E-06,-0.432
3.790E-06,-0.408
3.800E-06,-0.392
3.810E-06,-0.344
3.820E-06,-0.328
3.830E-06,-0.312
3.840E-06,-0.280
3.850E-06,-0.264
3.860E-06,-0.256
3.870E-06,-0.240
3.880E-06,-0.248
3.890E-06,-0.256
3.900E-06,-0.256
3.910E-06,-0.272
3.920E-06,-0.256
3.930E-06,-0.240
3.940E-06,-0.200
3.950E-06,-0.160
3.960E-06,-0.128
3.970E-06,-0.096
3.980E-06,-0.088
3.990E-06,-0.080
4.000E-06,-0.080
4.010E-06,-0.088
4.020E-06,-0.096
4.030E-06,-0.088
4.040E-06,-0.088
4.050E-06,-0.080
4.060E-06,-0.072
4.070E-06,-0.048
4.080E-06,-0.040
4.090E-06,-0.008
4.100E-06,-0.016
4.110E-06,-0.016
4.120E-06,-0.016
4.130E-06,-0.016
4.140E-06,0.000
4.150E-06,-0.008
4.160E-06,-0.016
4.170E-06,-0.032
4.180E-06,-0.032
4.190E-06,-0.024
4.200E-06,-0.048
4.210E-06,-0.064
4.220E-06,-0.080
4.230E-06,-0.072
4.240E-06,-0.080
4.250E-06,-0.064
4.260E-06,-0.056
4.270E-06,-0.072
4.280E-06,-0.096
4.290E-06,-0.104
4.300E-06,-0.136
4.310E-06,-0.144
4.320E-06,-0.128
4.330E-06,-0.152
4.340E-06,-0.200
4.350E-06,-0.240
4.360E-06,-0.296
4.370E-06,-0.312
4.380E-06,-0.304
4.390E-06,-0.304
4.400E-06,-0.272
4.410E-06,-0.280
4.420E-06,-0.264
4.430E-06,-0.256
4.440E-06,-0.200
4.450E-06,-0.104
4.460E-06,0.008
4.470E-06,0.136
4.480E-06,0.200
4.490E-06,0.256
4.500E-06,0.256
4.510E-06,0.200
4.520E-06,0.240
4.530E-06,0.224
4.540E-06,0.184
4.550E-06,0.224
4.560E-06,0.128
4.570E-06,0.024
4.580E-06,-0.048
4.590E-06,-0.224
4.600E-06,-0.256
4.610E-06,-0.264
4.620E-06,-0.288
4.630E-06,-0.264
4.640E-06,-0.336
4.650E-06,-0.360
4.660E-06,-0.360
4.670E-06,-0.368
4.680E-06,-0.336
4.690E-06,-0.304
4.700E-06,-0.264
4.710E-06,-0.152
4.720E-06,-0.040
4.730E-06,0.064
4.740E-06,0.240
4.750E-06,0.376
4.760E-06,0.352
4.770E-06,0.328
4.780E-06,0.168
4.790E-06,0.056
4.800E-06,0.064
4.810E-06,-0.008
4.820E-06,0.008
4.830E-06,0.000
4.840E-06,-0.072
4.850E-06,-0.120
4.860E-06,-0.200
4.870E-06,-0.192
4.880E-06,-0.192
4.890E-06,-0.216
4.900E-06,-0.232
4.910E-06,-0.296
4.920E-06,-0.312
4.930E-06,-0.240
4.940E-06,-0.112
4.950E-06,0.032
4.960E-06,0.160
4.970E-06,0.296
4.980E-06,0.352
4.990E-06,0.296
5.000E-06,0.184
5.010E-06,0.048
5.020E-06,-0.016
5.030E-06,-0.032
5.040E-06,-0.008
5.050E-06,0.016
5.060E-06,-0.048
5.070E-06,-0.072
5.080E-06,-0.104
5.090E-06,-0.152
5.100E-06,-0.128
5.110E-06,-0.128
5.120E-06,-0.184
5.130E-06,-0.240
5.140E-06,-0.360
5.150E-06,-0.448
5.160E-06,-0.480
5.170E-06,-0.456
5.180E-06,-0.376
5.190E-06,-0.320
5.200E-06,-0.224
5.210E-06,-0.160
5.220E-06,-0.128
5.230E-06,-0.120
5.240E-06,-0.120
5.250E-06,-0.072
5.260E-06,-0.032
5.270E-06,0.024
5.280E-06,0.072
5.290E-06,0.088
5.300E-06,0.080
5.310E-06,0.072
5.320E-06,0.016
5.330E-06,-0.016
5.340E-06,-0.008
5.350E-06,0.016
5.360E-06,0.088
5.370E-06,0.176
5.380E-06,0.216
5.390E-06,0.240
5.400E-06,0.216
5.410E-06,0.168
5.420E-06,0.096
5.430E-06,0.040
5.440E-06,0.008
5.450E-06,-0.024
5.460E-06,-0.056
5.470E-06,-0.096
5.480E-06,-0.144
5.490E-06,-0.184
5.500E-06,-0.248
5.510E-06,-0.288
5.520E-06,-0.328
5.530E-06,-0.392
5.540E-06,-0.448
5.550E-06,-0.488
5.560E-06,-0.544
5.570E-06,-0.560
5.580E-06,-0.544
5.590E-06,-0.536
5.600E-06,-0.520
5.610E-06,-0.488
5.620E-06,-0.424
5.630E-06,-0.328
5.640E-06,-0.200
5.650E-06,-0.072
5.660E-06,0.064
5.670E-06,0.176
5.680E-06,0.280
5.690E-06,0.360
5.700E-06,0.448
5.710E-06,0.536
5.720E-06,0.624
5.730E-06,0.704
5.740E-06,0.800
5.750E-06,0.896
5.760E-06,0.936
5.770E-06,0.960
5.780E-06,0.920
5.790E-06,0.864
5.800E-06,0.800
5.810E-06,0.688
5.820E-06,0.568
5.830E-06,0.432
5.840E-06,0.264
5.850E-06,0.088
5.860E-06,-0.112
5.870E-06,-0.296
5.880E-06,-0.464
5.890E-06,-0.584
5.900E-06,-0.672
5.910E-06,-0.736
5.920E-06,-0.792
5.930E-06,-0.856
5.940E-06,-0.920
5.950E-06,-0.944
5.960E-06,-0.960
5.970E-06,-0.920
5.980E-06,-0.848
5.990E-06,-0.760
6.000E-06,-0.648
6.010E-06,-0.536
6.020E-06,-0.448
6.030E-06,-0.368
6.040E-06,-0.264
6.050E-06,-0.144
6.060E-06,-0.008
6.070E-06,0.104
6.080E-06,0.224
6.090E-06,0.344
6.100E-06,0.432
6.110E-06,0.520
6.120E-06,0.600
6.130E-06,0.640
6.140E-06,0.704
6.150E-06,0.736
6.160E-06,0.760
6.170E-06,0.776
6.180E-06,0.776
6.190E-06,0.800
6.200E-06,0.824
6.210E-06,0.864
6.220E-06,0.888
6.230E-06,0.896
6.240E-06,0.888
6.250E-06,0.864
6.260E-06,0.840
6.270E-06,0.800
6.280E-06,0.736
6.290E-06,0.648
6.300E-06,0.536
6.310E-06,0.424
6.320E-06,0.304
6.330E-06,0.168
6.340E-06,0.064
6.350E-06,-0.016
6.360E-06,-0.064
6.370E-06,-0.096
6.380E-06,-0.112
6.390E-06,-0.128
6.400E-06,-0.128
6.410E-06,-0.112
6.420E-06,-0.080
6.430E-06,-0.024
6.440E-06,0.040
6.450E-06,0.088
6.460E-06,0.144
6.470E-06,0.200
6.480E-06,0.224
6.490E-06,0.264
6.500E-06,0.272
6.510E-06,0.240
6.520E-06,0.200
6.530E-06,0.160
6.540E-06,0.096
6.550E-06,0.016
6.560E-06,-0.064
6.570E-06,-0.176
6.580E-06,-0.280
6.590E-06,-0.328
6.600E-06,-0.296
6.610E-06,-0.200
6.620E-06,-0.032
6.630E-06,0.136
6.640E-06,0.216
6.650E-06,0.296
6.660E-06,0.296
6.670E-06,0.240
6.680E-06,0.192
6.690E-06,0.136
6.700E-06,0.088
6.710E-06,0.064
6.720E-06,0.024
6.730E-06,0.024
6.740E-06,-0.032
6.750E-06,-0.072
6.760E-06,-0.072
6.770E-06,-0.016
6.780E-06,0.096
6.790E-06,0.248
6.800E-06,0.448
6.810E-06,0.680
6.820E-06,0.904
6.830E-06,1.080
6.840E-06,1.080
6.850E-06,1.088
6.860E-06,1.088
6.870E-06,1.080
6.880E-06,1.080
6.890E-06,1.072
6.900E-06,1.064
6.910E-06,0.896
6.920E-06,0.704
6.930E-06,0.504
6.940E-06,0.312
6.950E-06,0.160
6.960E-06,0.072
6.970E-06,0.040
6.980E-06,0.048
6.990E-06,0.104
7.000E-06,0.152
7.010E-06,0.168
7.020E-06,0.144
7.030E-06,0.096
7.040E-06,0.016
7.050E-06,-0.064
7.060E-06,-0.104
7.070E-06,-0.104
7.080E-06,-0.072
7.090E-06,-0.008
7.100E-06,0.056
7.110E-06,0.120
7.120E-06,0.176
7.130E-06,0.224
7.140E-06,0.256
7.150E-06,0.336
7.160E-06,0.360
7.170E-06,0.440
7.180E-06,0.464
7.190E-06,0.504
7.200E-06,0.504
7.210E-06,0.488
7.220E-06,0.472
7.230E-06,0.456
7.240E-06,0.456
7.250E-06,0.456
7.260E-06,0.416
7.270E-06,0.384
7.280E-06,0.360
7.290E-06,0.344
7.300E-06,0.336
7.310E-06,0.360
7.320E-06,0.408
7.330E-06,0.488
7.340E-06,0.568
7.350E-06,0.672
7.360E-06,0.816
7.370E-06,0.992
7.380E-06,1.072
7.390E-06,1.080
7.400E-06,1.080
7.410E-06,1.080
7.420E-06,1.080
7.430E-06,1.080
7.440E-06,1.088
7.450E-06,1.088
7.460E-06,1.080
7.470E-06,1.088
7.480E-06,1.080
7.490E-06,1.072
7.500E-06,1.080
7.510E-06,1.080
7.520E-06,1.080
7.530E-06,1.080
7.540E-06,1.072
7.550E-06,1.080
7.560E-06,1.088
7.570E-06,1.080
7.580E-06,1.088
