mediciones/6-26/32.5/WaveData5953.csv

#timebase=2000000(ps)
,#voltbase=500000(mv/100)
#size=4000
-8.150E-06,0.040
-8.140E-06,0.040
-8.130E-06,0.040
-8.120E-06,0.040
-8.110E-06,0.060
-8.100E-06,0.080
-8.090E-06,0.060
-8.080E-06,0.040
-8.070E-06,0.080
-8.060E-06,0.060
-8.050E-06,0.060
-8.040E-06,0.040
-8.030E-06,0.060
-8.020E-06,0.060
-8.010E-06,0.040
-8.000E-06,0.040
-7.990E-06,0.060
-7.980E-06,0.060
-7.970E-06,0.060
-7.960E-06,0.040
-7.950E-06,0.080
-7.940E-06,0.040
-7.930E-06,0.080
-7.920E-06,0.040
-7.910E-06,0.020
-7.900E-06,0.100
-7.890E-06,0.080
-7.880E-06,0.080
-7.870E-06,0.060
-7.860E-06,0.040
-7.850E-06,0.060
-7.840E-06,0.060
-7.830E-06,0.080
-7.820E-06,0.060
-7.810E-06,0.060
-7.800E-06,0.080
-7.790E-06,0.100
-7.780E-06,0.060
-7.770E-06,0.080
-7.760E-06,0.060
-7.750E-06,0.040
-7.740E-06,0.060
-7.730E-06,0.080
-7.720E-06,0.060
-7.710E-06,0.020
-7.700E-06,0.060
-7.690E-06,0.040
-7.680E-06,0.060
-7.670E-06,0.060
-7.660E-06,0.060
-7.650E-06,0.080
-7.640E-06,0.060
-7.630E-06,0.080
-7.620E-06,0.060
-7.610E-06,0.060
-7.600E-06,0.060
-7.590E-06,0.020
-7.580E-06,0.040
-7.570E-06,0.060
-7.560E-06,0.080
-7.550E-06,0.080
-7.540E-06,0.040
-7.530E-06,0.060
-7.520E-06,0.060
-7.510E-06,0.060
-7.500E-06,0.080
-7.490E-06,0.040
-7.480E-06,0.040
-7.470E-06,0.040
-7.460E-06,0.040
-7.450E-06,0.040
-7.440E-06,0.040
-7.430E-06,0.060
-7.420E-06,0.080
-7.410E-06,0.080
-7.400E-06,0.020
-7.390E-06,0.040
-7.380E-06,0.060
-7.370E-06,0.020
-7.360E-06,0.080
-7.350E-06,0.040
-7.340E-06,0.060
-7.330E-06,0.080
-7.320E-06,0.100
-7.310E-06,0.040
-7.300E-06,0.060
-7.290E-06,0.040
-7.280E-06,0.040
-7.270E-06,0.060
-7.260E-06,0.080
-7.250E-06,0.080
-7.240E-06,0.080
-7.230E-06,0.080
-7.220E-06,0.040
-7.210E-06,0.020
-7.200E-06,0.060
-7.190E-06,0.020
-7.180E-06,0.040
-7.170E-06,0.060
-7.160E-06,0.060
-7.150E-06,0.080
-7.140E-06,0.060
-7.130E-06,0.080
-7.120E-06,0.060
-7.110E-06,0.040
-7.100E-06,0.060
-7.090E-06,0.040
-7.080E-06,0.060
-7.070E-06,0.060
-7.060E-06,0.080
-7.050E-06,0.060
-7.040E-06,0.080
-7.030E-06,0.060
-7.020E-06,0.040
-7.010E-06,0.060
-7.000E-06,0.020
-6.990E-06,0.080
-6.980E-06,0.080
-6.970E-06,0.060
-6.960E-06,0.080
-6.950E-06,0.060
-6.940E-06,0.040
-6.930E-06,0.040
-6.920E-06,0.040
-6.910E-06,0.040
-6.900E-06,0.040
-6.890E-06,0.060
-6.880E-06,0.080
-6.870E-06,0.080
-6.860E-06,0.080
-6.850E-06,0.040
-6.840E-06,0.080
-6.830E-06,0.060
-6.820E-06,0.080
-6.810E-06,0.040
-6.800E-06,0.060
-6.790E-06,0.060
-6.780E-06,0.060
-6.770E-06,0.080
-6.760E-06,0.060
-6.750E-06,0.040
-6.740E-06,0.040
-6.730E-06,0.040
-6.720E-06,0.080
-6.710E-06,0.060
-6.700E-06,0.080
-6.690E-06,0.040
-6.680E-06,0.060
-6.670E-06,0.100
-6.660E-06,0.040
-6.650E-06,0.060
-6.640E-06,0.060
-6.630E-06,0.060
-6.620E-06,0.080
-6.610E-06,0.060
-6.600E-06,0.060
-6.590E-06,0.080
-6.580E-06,0.060
-6.570E-06,0.040
-6.560E-06,0.040
-6.550E-06,0.040
-6.540E-06,0.040
-6.530E-06,0.040
-6.520E-06,0.060
-6.510E-06,0.080
-6.500E-06,0.060
-6.490E-06,0.080
-6.480E-06,0.060
-6.470E-06,0.020
-6.460E-06,0.060
-6.450E-06,0.040
-6.440E-06,0.060
-6.430E-06,0.060
-6.420E-06,0.060
-6.410E-06,0.100
-6.400E-06,0.060
-6.390E-06,0.060
-6.380E-06,0.080
-6.370E-06,0.060
-6.360E-06,0.040
-6.350E-06,0.040
-6.340E-06,0.060
-6.330E-06,0.060
-6.320E-06,0.080
-6.310E-06,0.040
-6.300E-06,0.040
-6.290E-06,0.080
-6.280E-06,0.080
-6.270E-06,0.040
-6.260E-06,0.080
-6.250E-06,0.060
-6.240E-06,0.040
-6.230E-06,0.040
-6.220E-06,0.020
-6.210E-06,0.040
-6.200E-06,0.060
-6.190E-06,0.040
-6.180E-06,0.060
-6.170E-06,0.060
-6.160E-06,0.080
-6.150E-06,0.080
-6.140E-06,0.040
-6.130E-06,0.040
-6.120E-06,0.060
-6.110E-06,0.080
-6.100E-06,0.040
-6.090E-06,0.020
-6.080E-06,0.060
-6.070E-06,0.040
-6.060E-06,0.020
-6.050E-06,0.060
-6.040E-06,0.080
-6.030E-06,0.020
-6.020E-06,0.040
-6.010E-06,0.060
-6.000E-06,0.040
-5.990E-06,0.060
-5.980E-06,0.080
-5.970E-06,0.080
-5.960E-06,0.020
-5.950E-06,0.060
-5.940E-06,0.060
-5.930E-06,0.100
-5.920E-06,0.060
-5.910E-06,0.080
-5.900E-06,0.020
-5.890E-06,0.020
-5.880E-06,0.060
-5.870E-06,0.040
-5.860E-06,0.080
-5.850E-06,0.080
-5.840E-06,0.080
-5.830E-06,0.060
-5.820E-06,0.060
-5.810E-06,0.060
-5.800E-06,0.060
-5.790E-06,0.060
-5.780E-06,0.080
-5.770E-06,0.060
-5.760E-06,0.040
-5.750E-06,0.040
-5.740E-06,0.060
-5.730E-06,0.040
-5.720E-06,0.040
-5.710E-06,0.040
-5.700E-06,0.080
-5.690E-06,0.060
-5.680E-06,0.040
-5.670E-06,0.060
-5.660E-06,0.080
-5.650E-06,0.080
-5.640E-06,0.080
-5.630E-06,0.040
-5.620E-06,0.060
-5.610E-06,0.060
-5.600E-06,0.060
-5.590E-06,0.080
-5.580E-06,0.040
-5.570E-06,0.080
-5.560E-06,0.080
-5.550E-06,0.080
-5.540E-06,0.040
-5.530E-06,0.040
-5.520E-06,0.060
-5.510E-06,0.080
-5.500E-06,0.040
-5.490E-06,0.040
-5.480E-06,0.060
-5.470E-06,0.020
-5.460E-06,0.060
-5.450E-06,0.080
-5.440E-06,0.060
-5.430E-06,0.080
-5.420E-06,0.060
-5.410E-06,0.040
-5.400E-06,0.060
-5.390E-06,0.080
-5.380E-06,0.080
-5.370E-06,0.040
-5.360E-06,0.040
-5.350E-06,0.060
-5.340E-06,0.060
-5.330E-06,0.080
-5.320E-06,0.060
-5.310E-06,0.040
-5.300E-06,0.060
-5.290E-06,0.060
-5.280E-06,0.080
-5.270E-06,0.040
-5.260E-06,0.060
-5.250E-06,0.060
-5.240E-06,0.060
-5.230E-06,0.060
-5.220E-06,0.080
-5.210E-06,0.060
-5.200E-06,0.040
-5.190E-06,0.060
-5.180E-06,0.060
-5.170E-06,0.060
-5.160E-06,0.060
-5.150E-06,0.080
-5.140E-06,0.060
-5.130E-06,0.040
-5.120E-06,0.060
-5.110E-06,0.080
-5.100E-06,0.040
-5.090E-06,0.060
-5.080E-06,0.080
-5.070E-06,0.060
-5.060E-06,0.040
-5.050E-06,0.060
-5.040E-06,0.060
-5.030E-06,0.060
-5.020E-06,0.060
-5.010E-06,0.060
-5.000E-06,0.060
-4.990E-06,0.080
-4.980E-06,0.040
-4.970E-06,0.040
-4.960E-06,0.060
-4.950E-06,0.060
-4.940E-06,0.060
-4.930E-06,0.100
-4.920E-06,0.060
-4.910E-06,0.080
-4.900E-06,0.040
-4.890E-06,0.060
-4.880E-06,0.060
-4.870E-06,0.040
-4.860E-06,0.040
-4.850E-06,0.060
-4.840E-06,0.060
-4.830E-06,0.040
-4.820E-06,0.080
-4.810E-06,0.100
-4.800E-06,0.060
-4.790E-06,0.060
-4.780E-06,0.080
-4.770E-06,0.080
-4.760E-06,0.060
-4.750E-06,0.040
-4.740E-06,0.060
-4.730E-06,0.080
-4.720E-06,0.060
-4.710E-06,0.040
-4.700E-06,0.060
-4.690E-06,0.060
-4.680E-06,0.080
-4.670E-06,0.060
-4.660E-06,0.080
-4.650E-06,0.080
-4.640E-06,0.060
-4.630E-06,0.020
-4.620E-06,0.060
-4.610E-06,0.060
-4.600E-06,0.060
-4.590E-06,0.040
-4.580E-06,0.040
-4.570E-06,0.060
-4.560E-06,0.060
-4.550E-06,0.080
-4.540E-06,0.020
-4.530E-06,0.040
-4.520E-06,0.040
-4.510E-06,0.040
-4.500E-06,0.060
-4.490E-06,0.060
-4.480E-06,0.060
-4.470E-06,0.100
-4.460E-06,0.040
-4.450E-06,0.020
-4.440E-06,0.040
-4.430E-06,0.060
-4.420E-06,0.060
-4.410E-06,0.080
-4.400E-06,0.060
-4.390E-06,0.040
-4.380E-06,0.060
-4.370E-06,0.080
-4.360E-06,0.040
-4.350E-06,0.040
-4.340E-06,0.060
-4.330E-06,0.080
-4.320E-06,0.060
-4.310E-06,0.040
-4.300E-06,0.040
-4.290E-06,0.060
-4.280E-06,0.060
-4.270E-06,0.060
-4.260E-06,0.060
-4.250E-06,0.060
-4.240E-06,0.060
-4.230E-06,0.060
-4.220E-06,0.060
-4.210E-06,0.060
-4.200E-06,0.080
-4.190E-06,0.060
-4.180E-06,0.040
-4.170E-06,0.060
-4.160E-06,0.080
-4.150E-06,0.040
-4.140E-06,0.040
-4.130E-06,0.040
-4.120E-06,0.060
-4.110E-06,0.080
-4.100E-06,0.040
-4.090E-06,0.080
-4.080E-06,0.060
-4.070E-06,0.060
-4.060E-06,0.040
-4.050E-06,0.060
-4.040E-06,0.060
-4.030E-06,0.060
-4.020E-06,0.080
-4.010E-06,0.040
-4.000E-06,0.020
-3.990E-06,0.060
-3.980E-06,0.040
-3.970E-06,0.040
-3.960E-06,0.060
-3.950E-06,0.060
-3.940E-06,0.040
-3.930E-06,0.080
-3.920E-06,0.060
-3.910E-06,0.020
-3.900E-06,0.060
-3.890E-06,0.060
-3.880E-06,0.040
-3.870E-06,0.060
-3.860E-06,0.020
-3.850E-06,-0.020
-3.840E-06,0.100
-3.830E-06,0.340
-3.820E-06,0.960
-3.810E-06,1.700
-3.800E-06,2.040
-3.790E-06,1.840
-3.780E-06,1.120
-3.770E-06,0.220
-3.760E-06,-0.980
-3.750E-06,-1.180
-3.740E-06,-1.440
-3.730E-06,-1.660
-3.720E-06,-1.760
-3.710E-06,-1.900
-3.700E-06,-1.840
-3.690E-06,-1.500
-3.680E-06,-1.060
-3.670E-06,-0.500
-3.660E-06,0.000
-3.650E-06,0.100
-3.640E-06,0.160
-3.630E-06,0.200
-3.620E-06,0.240
-3.610E-06,0.340
-3.600E-06,0.420
-3.590E-06,0.480
-3.580E-06,0.460
-3.570E-06,0.380
-3.560E-06,0.340
-3.550E-06,0.400
-3.540E-06,0.500
-3.530E-06,0.600
-3.520E-06,0.680
-3.510E-06,0.640
-3.500E-06,0.520
-3.490E-06,0.340
-3.480E-06,0.160
-3.470E-06,0.020
-3.460E-06,-0.080
-3.450E-06,-0.140
-3.440E-06,-0.120
-3.430E-06,-0.100
-3.420E-06,-0.100
-3.410E-06,-0.020
-3.400E-06,0.100
-3.390E-06,0.240
-3.380E-06,0.420
-3.370E-06,0.540
-3.360E-06,0.660
-3.350E-06,0.700
-3.340E-06,0.660
-3.330E-06,0.620
-3.320E-06,0.500
-3.310E-06,0.320
-3.300E-06,0.200
-3.290E-06,0.040
-3.280E-06,-0.120
-3.270E-06,-0.260
-3.260E-06,-0.460
-3.250E-06,-0.620
-3.240E-06,-0.760
-3.230E-06,-0.920
-3.220E-06,-0.980
-3.210E-06,-0.960
-3.200E-06,-0.900
-3.190E-06,-0.760
-3.180E-06,-0.580
-3.170E-06,-0.360
-3.160E-06,-0.200
-3.150E-06,-0.040
-3.140E-06,0.080
-3.130E-06,0.260
-3.120E-06,0.440
-3.110E-06,0.580
-3.100E-06,0.640
-3.090E-06,0.580
-3.080E-06,0.520
-3.070E-06,0.460
-3.060E-06,0.360
-3.050E-06,0.300
-3.040E-06,0.240
-3.030E-06,0.180
-3.020E-06,0.120
-3.010E-06,0.060
-3.000E-06,0.000
-2.990E-06,0.000
-2.980E-06,-0.020
-2.970E-06,0.000
-2.960E-06,-0.020
-2.950E-06,-0.040
-2.940E-06,-0.120
-2.930E-06,-0.180
-2.920E-06,-0.160
-2.910E-06,-0.160
-2.900E-06,-0.160
-2.890E-06,0.000
-2.880E-06,-0.020
-2.870E-06,0.180
-2.860E-06,0.160
-2.850E-06,0.280
-2.840E-06,0.260
-2.830E-06,0.320
-2.820E-06,0.360
-2.810E-06,0.360
-2.800E-06,0.400
-2.790E-06,0.340
-2.780E-06,0.200
-2.770E-06,0.080
-2.760E-06,0.000
-2.750E-06,0.000
-2.740E-06,0.040
-2.730E-06,0.060
-2.720E-06,0.080
-2.710E-06,0.000
-2.700E-06,-0.020
-2.690E-06,-0.020
-2.680E-06,0.000
-2.670E-06,0.000
-2.660E-06,0.040
-2.650E-06,0.020
-2.640E-06,0.020
-2.630E-06,0.000
-2.620E-06,-0.040
-2.610E-06,-0.080
-2.600E-06,-0.100
-2.590E-06,-0.140
-2.580E-06,-0.140
-2.570E-06,-0.160
-2.560E-06,-0.100
-2.550E-06,0.060
-2.540E-06,-0.100
-2.530E-06,-0.140
-2.520E-06,0.040
-2.510E-06,-0.120
-2.500E-06,0.220
-2.490E-06,0.500
-2.480E-06,0.480
-2.470E-06,0.320
-2.460E-06,0.000
-2.450E-06,-0.140
-2.440E-06,0.020
-2.430E-06,0.160
-2.420E-06,0.380
-2.410E-06,0.420
-2.400E-06,0.260
-2.390E-06,0.100
-2.380E-06,0.000
-2.370E-06,0.000
-2.360E-06,0.120
-2.350E-06,0.240
-2.340E-06,0.280
-2.330E-06,0.220
-2.320E-06,0.120
-2.310E-06,0.060
-2.300E-06,0.020
-2.290E-06,0.020
-2.280E-06,0.000
-2.270E-06,0.020
-2.260E-06,0.080
-2.250E-06,0.060
-2.240E-06,0.000
-2.230E-06,-0.040
-2.220E-06,-0.100
-2.210E-06,-0.100
-2.200E-06,0.000
-2.190E-06,0.020
-2.180E-06,0.040
-2.170E-06,0.040
-2.160E-06,-0.020
-2.150E-06,-0.100
-2.140E-06,-0.100
-2.130E-06,-0.100
-2.120E-06,-0.040
-2.110E-06,0.000
-2.100E-06,-0.020
-2.090E-06,0.000
-2.080E-06,0.020
-2.070E-06,0.040
-2.060E-06,0.040
-2.050E-06,0.100
-2.040E-06,0.180
-2.030E-06,0.220
-2.020E-06,0.240
-2.010E-06,0.260
-2.000E-06,0.260
-1.990E-06,0.240
-1.980E-06,0.180
-1.970E-06,0.160
-1.960E-06,0.180
-1.950E-06,0.180
-1.940E-06,0.160
-1.930E-06,0.180
-1.920E-06,0.100
-1.910E-06,0.080
-1.900E-06,0.020
-1.890E-06,-0.020
-1.880E-06,-0.020
-1.870E-06,0.000
-1.860E-06,0.020
-1.850E-06,0.000
-1.840E-06,0.000
-1.830E-06,-0.040
-1.820E-06,-0.020
-1.810E-06,-0.020
-1.800E-06,-0.040
-1.790E-06,-0.020
-1.780E-06,-0.040
-1.770E-06,0.020
-1.760E-06,0.000
-1.750E-06,0.080
-1.740E-06,0.100
-1.730E-06,0.080
-1.720E-06,0.100
-1.710E-06,0.100
-1.700E-06,0.100
-1.690E-06,0.120
-1.680E-06,0.140
-1.670E-06,0.140
-1.660E-06,0.120
-1.650E-06,0.120
-1.640E-06,0.120
-1.630E-06,0.080
-1.620E-06,-0.020
-1.610E-06,-0.120
-1.600E-06,-0.300
-1.590E-06,-0.420
-1.580E-06,-0.460
-1.570E-06,-0.400
-1.560E-06,-0.160
-1.550E-06,0.080
-1.540E-06,0.320
-1.530E-06,0.420
-1.520E-06,0.460
-1.510E-06,0.480
-1.500E-06,0.540
-1.490E-06,0.560
-1.480E-06,0.640
-1.470E-06,0.720
-1.460E-06,0.720
-1.450E-06,0.780
-1.440E-06,0.720
-1.430E-06,0.640
-1.420E-06,0.600
-1.410E-06,0.520
-1.400E-06,0.460
-1.390E-06,0.500
-1.380E-06,0.380
-1.370E-06,0.380
-1.360E-06,0.440
-1.350E-06,0.440
-1.340E-06,0.420
-1.330E-06,0.540
-1.320E-06,0.480
-1.310E-06,0.480
-1.300E-06,0.000
-1.290E-06,0.080
-1.280E-06,-0.420
-1.270E-06,-0.200
-1.260E-06,0.440
-1.250E-06,0.600
-1.240E-06,0.680
-1.230E-06,0.820
-1.220E-06,-0.140
-1.210E-06,0.260
-1.200E-06,0.540
-1.190E-06,1.000
-1.180E-06,1.660
-1.170E-06,1.320
-1.160E-06,0.700
-1.150E-06,0.300
-1.140E-06,-0.160
-1.130E-06,-0.120
-1.120E-06,0.140
-1.110E-06,0.120
-1.100E-06,0.100
-1.090E-06,-0.140
-1.080E-06,-0.580
-1.070E-06,-0.780
-1.060E-06,-1.060
-1.050E-06,-0.960
-1.040E-06,-1.180
-1.030E-06,-1.540
-1.020E-06,-1.480
-1.010E-06,-1.860
-1.000E-06,-1.500
-9.900E-07,-0.780
-9.800E-07,-0.120
-9.700E-07,0.560
-9.600E-07,0.520
-9.500E-07,0.420
-9.400E-07,0.420
-9.300E-07,0.480
-9.200E-07,0.840
-9.100E-07,1.140
-9.000E-07,1.240
-8.900E-07,1.180
-8.800E-07,1.000
-8.700E-07,0.720
-8.600E-07,0.640
-8.500E-07,0.560
-8.400E-07,0.520
-8.300E-07,0.400
-8.200E-07,0.300
-8.100E-07,0.200
-8.000E-07,0.120
-7.900E-07,0.080
-7.800E-07,0.120
-7.700E-07,0.020
-7.600E-07,-0.080
-7.500E-07,-0.320
-7.400E-07,-0.580
-7.300E-07,-0.780
-7.200E-07,-1.040
-7.100E-07,-1.140
-7.000E-07,-1.100
-6.900E-07,-1.000
-6.800E-07,-0.680
-6.700E-07,-0.380
-6.600E-07,-0.200
-6.500E-07,-0.220
-6.400E-07,-0.280
-6.300E-07,-0.260
-6.200E-07,-0.100
-6.100E-07,0.220
-6.000E-07,0.520
-5.900E-07,0.960
-5.800E-07,0.080
-5.700E-07,0.360
-5.600E-07,1.640
-5.500E-07,1.800
-5.400E-07,2.780
-5.300E-07,2.760
-5.200E-07,2.760
-5.100E-07,2.200
-5.000E-07,0.900
-4.900E-07,0.460
-4.800E-07,0.780
-4.700E-07,0.920
-4.600E-07,0.880
-4.500E-07,0.740
-4.400E-07,0.280
-4.300E-07,-0.140
-4.200E-07,-0.200
-4.100E-07,-0.420
-4.000E-07,-0.320
-3.900E-07,-0.280
-3.800E-07,-0.440
-3.700E-07,-0.740
-3.600E-07,-1.040
-3.500E-07,-1.320
-3.400E-07,-1.620
-3.300E-07,-1.920
-3.200E-07,-2.400
-3.100E-07,-2.660
-3.000E-07,-2.660
-2.900E-07,-2.660
-2.800E-07,-2.680
-2.700E-07,-2.600
-2.600E-07,-1.340
-2.500E-07,-0.040
-2.400E-07,1.020
-2.300E-07,1.340
-2.200E-07,1.280
-2.100E-07,1.020
-2.000E-07,0.760
-1.900E-07,0.860
-1.800E-07,1.180
-1.700E-07,1.360
-1.600E-07,1.420
-1.500E-07,1.180
-1.400E-07,0.860
-1.300E-07,0.600
-1.200E-07,0.380
-1.100E-07,0.300
-1.000E-07,0.160
-9.000E-08,-0.060
-8.000E-08,-0.260
-7.000E-08,-0.420
-6.000E-08,-0.400
-5.000E-08,0.000
-4.000E-08,0.080
-3.000E-08,-0.820
-2.000E-08,-1.040
-1.000E-08,-0.740
0.000E+00,-2.160
1.000E-08,-0.220
2.000E-08,1.680
3.000E-08,2.740
4.000E-08,2.760
5.000E-08,2.780
6.000E-08,1.800
7.000E-08,1.160
8.000E-08,0.840
9.000E-08,1.440
1.000E-07,2.100
1.100E-07,2.040
1.200E-07,1.520
1.300E-07,0.980
1.400E-07,0.120
1.500E-07,0.080
1.600E-07,0.120
1.700E-07,0.420
1.800E-07,0.800
1.900E-07,0.760
2.000E-07,0.920
2.100E-07,1.040
2.200E-07,0.880
2.300E-07,0.840
2.400E-07,0.420
2.500E-07,-0.380
2.600E-07,-0.820
2.700E-07,-1.340
2.800E-07,-1.520
2.900E-07,-1.500
3.000E-07,-1.520
3.100E-07,-1.480
3.200E-07,-1.480
3.300E-07,-2.020
3.400E-07,-2.560
3.500E-07,-2.660
3.600E-07,-2.640
3.700E-07,-2.640
3.800E-07,-2.640
3.900E-07,-2.640
4.000E-07,-2.660
4.100E-07,-2.660
4.200E-07,-2.660
4.300E-07,-2.660
4.400E-07,-2.380
4.500E-07,-2.280
4.600E-07,-2.240
4.700E-07,-1.640
4.800E-07,-0.480
4.900E-07,1.380
5.000E-07,2.740
5.100E-07,2.760
5.200E-07,2.760
5.300E-07,2.760
5.400E-07,2.740
5.500E-07,2.760
5.600E-07,2.760
5.700E-07,2.780
5.800E-07,2.780
5.900E-07,2.380
6.000E-07,1.080
6.100E-07,0.020
6.200E-07,-0.920
6.300E-07,-1.760
6.400E-07,-2.320
6.500E-07,-2.660
6.600E-07,-2.660
6.700E-07,-2.660
6.800E-07,-2.640
6.900E-07,-2.660
7.000E-07,-2.660
7.100E-07,-2.660
7.200E-07,-2.660
7.300E-07,-2.660
7.400E-07,-2.680
7.500E-07,-2.660
7.600E-07,-2.320
7.700E-07,-1.840
7.800E-07,-1.360
7.900E-07,-0.820
8.000E-07,-0.320
8.100E-07,0.320
8.200E-07,1.040
8.300E-07,1.520
8.400E-07,2.520
8.500E-07,2.760
8.600E-07,2.740
8.700E-07,2.760
8.800E-07,2.780
8.900E-07,2.760
9.000E-07,2.760
9.100E-07,2.760
9.200E-07,2.740
9.300E-07,2.760
9.400E-07,2.760
9.500E-07,2.740
9.600E-07,2.760
9.700E-07,2.760
9.800E-07,2.780
9.900E-07,2.780
1.000E-06,2.760
1.010E-06,2.580
1.020E-06,2.120
1.030E-06,1.800
1.040E-06,1.440
1.050E-06,1.020
1.060E-06,0.540
1.070E-06,0.040
1.080E-06,-0.160
1.090E-06,-0.180
1.100E-06,0.160
1.110E-06,0.760
1.120E-06,1.340
1.130E-06,1.760
1.140E-06,1.940
1.150E-06,1.840
1.160E-06,1.740
1.170E-06,1.520
1.180E-06,1.380
1.190E-06,1.280
1.200E-06,1.220
1.210E-06,1.080
1.220E-06,0.900
1.230E-06,0.680
1.240E-06,0.520
1.250E-06,0.440
1.260E-06,0.440
1.270E-06,0.440
1.280E-06,0.540
1.290E-06,0.560
1.300E-06,0.540
1.310E-06,0.560
1.320E-06,0.560
1.330E-06,0.600
1.340E-06,0.680
1.350E-06,0.800
1.360E-06,0.920
1.370E-06,1.060
1.380E-06,1.160
1.390E-06,1.180
1.400E-06,1.120
1.410E-06,1.020
1.420E-06,0.880
1.430E-06,0.680
1.440E-06,0.460
1.450E-06,0.320
1.460E-06,0.120
1.470E-06,0.000
1.480E-06,-0.140
1.490E-06,-0.200
1.500E-06,-0.260
1.510E-06,-0.300
1.520E-06,-0.280
1.530E-06,-0.160
1.540E-06,0.100
1.550E-06,0.400
1.560E-06,0.760
1.570E-06,1.020
1.580E-06,1.140
1.590E-06,1.180
1.600E-06,1.100
1.610E-06,1.000
1.620E-06,0.840
1.630E-06,0.680
1.640E-06,0.520
1.650E-06,0.460
1.660E-06,0.480
1.670E-06,0.520
1.680E-06,0.560
1.690E-06,0.620
1.700E-06,0.680
1.710E-06,0.660
1.720E-06,0.580
1.730E-06,0.500
1.740E-06,0.420
1.750E-06,0.320
1.760E-06,0.300
1.770E-06,0.220
1.780E-06,0.140
1.790E-06,0.060
1.800E-06,-0.060
1.810E-06,-0.040
1.820E-06,-0.020
1.830E-06,-0.060
1.840E-06,-0.120
1.850E-06,-0.220
1.860E-06,-0.340
1.870E-06,-0.360
1.880E-06,-0.220
1.890E-06,-0.100
1.900E-06,0.060
1.910E-06,0.160
1.920E-06,0.240
1.930E-06,0.360
1.940E-06,0.460
1.950E-06,0.520
1.960E-06,0.540
1.970E-06,0.500
1.980E-06,0.400
1.990E-06,0.260
2.000E-06,0.060
2.010E-06,-0.120
2.020E-06,-0.280
2.030E-06,-0.440
2.040E-06,-0.540
2.050E-06,-0.640
2.060E-06,-0.680
2.070E-06,-0.680
2.080E-06,-0.700
2.090E-06,-0.600
2.100E-06,-0.580
2.110E-06,-0.520
2.120E-06,-0.460
2.130E-06,-0.460
2.140E-06,-0.460
2.150E-06,-0.420
2.160E-06,-0.400
2.170E-06,-0.380
2.180E-06,-0.440
2.190E-06,-0.420
2.200E-06,-0.480
2.210E-06,-0.560
2.220E-06,-0.600
2.230E-06,-0.640
2.240E-06,-0.700
2.250E-06,-0.580
2.260E-06,-0.500
2.270E-06,-0.440
2.280E-06,-0.380
2.290E-06,-0.380
2.300E-06,-0.360
2.310E-06,-0.340
2.320E-06,-0.360
2.330E-06,-0.380
2.340E-06,-0.420
2.350E-06,-0.460
2.360E-06,-0.500
2.370E-06,-0.500
2.380E-06,-0.500
2.390E-06,-0.460
2.400E-06,-0.360
2.410E-06,-0.360
2.420E-06,-0.320
2.430E-06,-0.280
2.440E-06,-0.260
2.450E-06,-0.220
2.460E-06,-0.260
2.470E-06,-0.240
2.480E-06,-0.180
2.490E-06,-0.180
2.500E-06,-0.180
2.510E-06,-0.220
2.520E-06,-0.220
2.530E-06,-0.220
2.540E-06,-0.300
2.550E-06,-0.320
2.560E-06,-0.340
2.570E-06,-0.360
2.580E-06,-0.380
2.590E-06,-0.400
2.600E-06,-0.380
2.610E-06,-0.320
2.620E-06,-0.320
2.630E-06,-0.320
2.640E-06,-0.280
2.650E-06,-0.280
2.660E-06,-0.280
2.670E-06,-0.260
2.680E-06,-0.260
2.690E-06,-0.220
2.700E-06,-0.160
2.710E-06,-0.140
2.720E-06,-0.160
2.730E-06,-0.160
2.740E-06,-0.200
2.750E-06,-0.240
2.760E-06,-0.260
2.770E-06,-0.320
2.780E-06,-0.380
2.790E-06,-0.380
2.800E-06,-0.440
2.810E-06,-0.420
2.820E-06,-0.400
2.830E-06,-0.360
2.840E-06,-0.220
2.850E-06,-0.020
2.860E-06,0.080
2.870E-06,0.180
2.880E-06,0.140
2.890E-06,0.020
2.900E-06,0.000
2.910E-06,-0.100
2.920E-06,-0.220
2.930E-06,-0.360
2.940E-06,-0.480
2.950E-06,-0.560
2.960E-06,-0.620
2.970E-06,-0.620
2.980E-06,-0.580
2.990E-06,-0.440
3.000E-06,-0.340
3.010E-06,-0.180
3.020E-06,-0.080
3.030E-06,0.000
3.040E-06,0.100
3.050E-06,0.120
3.060E-06,0.180
3.070E-06,0.140
3.080E-06,0.040
3.090E-06,-0.020
3.100E-06,-0.100
3.110E-06,-0.200
3.120E-06,-0.280
3.130E-06,-0.340
3.140E-06,-0.360
3.150E-06,-0.380
3.160E-06,-0.340
3.170E-06,-0.260
3.180E-06,-0.140
3.190E-06,-0.060
3.200E-06,0.040
3.210E-06,0.060
3.220E-06,0.100
3.230E-06,0.080
3.240E-06,0.080
3.250E-06,0.120
3.260E-06,0.060
3.270E-06,0.000
3.280E-06,-0.100
3.290E-06,-0.100
3.300E-06,-0.180
3.310E-06,-0.180
3.320E-06,-0.160
3.330E-06,-0.180
3.340E-06,-0.220
3.350E-06,-0.260
3.360E-06,-0.240
3.370E-06,-0.260
3.380E-06,-0.260
3.390E-06,-0.260
3.400E-06,-0.220
3.410E-06,-0.220
3.420E-06,-0.200
3.430E-06,-0.200
3.440E-06,-0.160
3.450E-06,-0.140
3.460E-06,-0.160
3.470E-06,-0.080
3.480E-06,-0.080
3.490E-06,-0.060
3.500E-06,-0.040
3.510E-06,0.000
3.520E-06,0.000
3.530E-06,0.000
3.540E-06,0.000
3.550E-06,0.020
3.560E-06,0.000
3.570E-06,0.020
3.580E-06,0.020
