mediciones/6-26/32.5/WaveData5950.csv

#timebase=2000000(ps)
,#voltbase=200000(mv/100)
#size=4000
-8.150E-06,0.000
-8.140E-06,-0.008
-8.130E-06,0.000
-8.120E-06,0.000
-8.110E-06,0.008
-8.100E-06,0.008
-8.090E-06,0.008
-8.080E-06,0.008
-8.070E-06,0.016
-8.060E-06,-0.008
-8.050E-06,-0.008
-8.040E-06,0.000
-8.030E-06,0.008
-8.020E-06,-0.008
-8.010E-06,0.008
-8.000E-06,0.008
-7.990E-06,0.000
-7.980E-06,0.000
-7.970E-06,0.000
-7.960E-06,0.008
-7.950E-06,0.000
-7.940E-06,0.008
-7.930E-06,0.000
-7.920E-06,0.000
-7.910E-06,0.016
-7.900E-06,-0.008
-7.890E-06,-0.008
-7.880E-06,0.008
-7.870E-06,0.000
-7.860E-06,0.008
-7.850E-06,0.008
-7.840E-06,0.008
-7.830E-06,0.000
-7.820E-06,0.008
-7.810E-06,0.008
-7.800E-06,0.008
-7.790E-06,0.008
-7.780E-06,0.000
-7.770E-06,0.000
-7.760E-06,0.000
-7.750E-06,0.000
-7.740E-06,0.000
-7.730E-06,-0.008
-7.720E-06,0.008
-7.710E-06,-0.008
-7.700E-06,0.000
-7.690E-06,0.008
-7.680E-06,0.000
-7.670E-06,0.008
-7.660E-06,0.000
-7.650E-06,0.000
-7.640E-06,0.008
-7.630E-06,0.000
-7.620E-06,0.008
-7.610E-06,0.000
-7.600E-06,0.000
-7.590E-06,0.000
-7.580E-06,0.008
-7.570E-06,0.008
-7.560E-06,0.008
-7.550E-06,0.008
-7.540E-06,0.008
-7.530E-06,0.000
-7.520E-06,0.000
-7.510E-06,0.000
-7.500E-06,0.000
-7.490E-06,0.000
-7.480E-06,0.008
-7.470E-06,-0.008
-7.460E-06,0.000
-7.450E-06,0.000
-7.440E-06,-0.008
-7.430E-06,0.000
-7.420E-06,0.000
-7.410E-06,0.000
-7.400E-06,0.008
-7.390E-06,0.000
-7.380E-06,0.000
-7.370E-06,0.008
-7.360E-06,0.008
-7.350E-06,0.008
-7.340E-06,0.008
-7.330E-06,-0.008
-7.320E-06,0.000
-7.310E-06,0.000
-7.300E-06,0.000
-7.290E-06,0.000
-7.280E-06,0.008
-7.270E-06,0.000
-7.260E-06,0.000
-7.250E-06,0.008
-7.240E-06,0.008
-7.230E-06,0.000
-7.220E-06,0.008
-7.210E-06,-0.008
-7.200E-06,0.000
-7.190E-06,0.000
-7.180E-06,0.008
-7.170E-06,0.016
-7.160E-06,0.008
-7.150E-06,0.008
-7.140E-06,-0.008
-7.130E-06,0.008
-7.120E-06,0.000
-7.110E-06,0.000
-7.100E-06,0.000
-7.090E-06,0.008
-7.080E-06,0.000
-7.070E-06,0.000
-7.060E-06,0.008
-7.050E-06,0.008
-7.040E-06,0.016
-7.030E-06,0.008
-7.020E-06,0.008
-7.010E-06,0.000
-7.000E-06,0.008
-6.990E-06,0.008
-6.980E-06,0.008
-6.970E-06,0.016
-6.960E-06,-0.008
-6.950E-06,0.000
-6.940E-06,0.000
-6.930E-06,0.000
-6.920E-06,0.000
-6.910E-06,0.008
-6.900E-06,0.016
-6.890E-06,0.008
-6.880E-06,0.016
-6.870E-06,0.000
-6.860E-06,-0.008
-6.850E-06,0.008
-6.840E-06,0.008
-6.830E-06,0.000
-6.820E-06,0.000
-6.810E-06,0.008
-6.800E-06,0.000
-6.790E-06,0.008
-6.780E-06,0.000
-6.770E-06,0.008
-6.760E-06,0.000
-6.750E-06,0.000
-6.740E-06,0.000
-6.730E-06,0.000
-6.720E-06,0.000
-6.710E-06,0.000
-6.700E-06,0.008
-6.690E-06,0.000
-6.680E-06,0.008
-6.670E-06,0.000
-6.660E-06,0.000
-6.650E-06,0.000
-6.640E-06,0.000
-6.630E-06,0.008
-6.620E-06,-0.008
-6.610E-06,0.008
-6.600E-06,0.000
-6.590E-06,0.008
-6.580E-06,0.008
-6.570E-06,0.008
-6.560E-06,0.008
-6.550E-06,0.008
-6.540E-06,0.000
-6.530E-06,0.008
-6.520E-06,0.000
-6.510E-06,0.000
-6.500E-06,0.008
-6.490E-06,0.000
-6.480E-06,0.000
-6.470E-06,0.000
-6.460E-06,0.000
-6.450E-06,0.008
-6.440E-06,0.000
-6.430E-06,0.008
-6.420E-06,0.000
-6.410E-06,0.008
-6.400E-06,0.000
-6.390E-06,0.008
-6.380E-06,0.008
-6.370E-06,0.000
-6.360E-06,0.008
-6.350E-06,0.008
-6.340E-06,0.000
-6.330E-06,0.008
-6.320E-06,0.000
-6.310E-06,0.000
-6.300E-06,0.008
-6.290E-06,0.016
-6.280E-06,-0.008
-6.270E-06,-0.008
-6.260E-06,0.000
-6.250E-06,0.008
-6.240E-06,-0.008
-6.230E-06,0.008
-6.220E-06,0.008
-6.210E-06,0.000
-6.200E-06,0.016
-6.190E-06,-0.008
-6.180E-06,-0.008
-6.170E-06,0.000
-6.160E-06,0.016
-6.150E-06,0.008
-6.140E-06,0.008
-6.130E-06,0.008
-6.120E-06,-0.008
-6.110E-06,0.000
-6.100E-06,0.000
-6.090E-06,-0.008
-6.080E-06,0.000
-6.070E-06,0.000
-6.060E-06,0.008
-6.050E-06,0.008
-6.040E-06,0.000
-6.030E-06,0.000
-6.020E-06,0.008
-6.010E-06,-0.008
-6.000E-06,0.000
-5.990E-06,0.000
-5.980E-06,0.008
-5.970E-06,0.000
-5.960E-06,0.000
-5.950E-06,0.008
-5.940E-06,0.000
-5.930E-06,-0.008
-5.920E-06,0.008
-5.910E-06,-0.008
-5.900E-06,-0.008
-5.890E-06,0.008
-5.880E-06,-0.008
-5.870E-06,0.000
-5.860E-06,-0.008
-5.850E-06,0.000
-5.840E-06,0.008
-5.830E-06,0.000
-5.820E-06,0.008
-5.810E-06,0.008
-5.800E-06,-0.008
-5.790E-06,0.000
-5.780E-06,-0.008
-5.770E-06,0.008
-5.760E-06,0.016
-5.750E-06,0.008
-5.740E-06,0.008
-5.730E-06,0.016
-5.720E-06,0.008
-5.710E-06,-0.008
-5.700E-06,0.008
-5.690E-06,0.000
-5.680E-06,0.000
-5.670E-06,0.008
-5.660E-06,-0.008
-5.650E-06,0.000
-5.640E-06,0.000
-5.630E-06,0.008
-5.620E-06,0.008
-5.610E-06,0.000
-5.600E-06,0.000
-5.590E-06,0.000
-5.580E-06,-0.008
-5.570E-06,0.008
-5.560E-06,0.008
-5.550E-06,0.008
-5.540E-06,0.000
-5.530E-06,0.000
-5.520E-06,0.008
-5.510E-06,0.000
-5.500E-06,0.000
-5.490E-06,0.000
-5.480E-06,0.000
-5.470E-06,0.000
-5.460E-06,0.008
-5.450E-06,0.000
-5.440E-06,0.008
-5.430E-06,0.008
-5.420E-06,-0.008
-5.410E-06,0.008
-5.400E-06,0.008
-5.390E-06,0.000
-5.380E-06,0.008
-5.370E-06,0.000
-5.360E-06,0.000
-5.350E-06,0.008
-5.340E-06,0.008
-5.330E-06,0.016
-5.320E-06,-0.008
-5.310E-06,-0.008
-5.300E-06,0.008
-5.290E-06,0.000
-5.280E-06,0.008
-5.270E-06,0.008
-5.260E-06,-0.008
-5.250E-06,0.008
-5.240E-06,0.000
-5.230E-06,0.008
-5.220E-06,0.008
-5.210E-06,0.000
-5.200E-06,0.000
-5.190E-06,0.008
-5.180E-06,0.000
-5.170E-06,0.008
-5.160E-06,0.008
-5.150E-06,-0.008
-5.140E-06,0.000
-5.130E-06,0.000
-5.120E-06,0.000
-5.110E-06,-0.008
-5.100E-06,-0.008
-5.090E-06,0.008
-5.080E-06,0.000
-5.070E-06,0.000
-5.060E-06,0.008
-5.050E-06,0.008
-5.040E-06,0.008
-5.030E-06,0.000
-5.020E-06,0.000
-5.010E-06,0.000
-5.000E-06,0.008
-4.990E-06,-0.008
-4.980E-06,-0.008
-4.970E-06,0.008
-4.960E-06,-0.008
-4.950E-06,-0.008
-4.940E-06,0.008
-4.930E-06,0.008
-4.920E-06,0.000
-4.910E-06,0.008
-4.900E-06,0.008
-4.890E-06,0.000
-4.880E-06,0.008
-4.870E-06,0.008
-4.860E-06,0.000
-4.850E-06,0.008
-4.840E-06,0.008
-4.830E-06,0.000
-4.820E-06,0.000
-4.810E-06,0.008
-4.800E-06,0.000
-4.790E-06,0.008
-4.780E-06,0.000
-4.770E-06,-0.008
-4.760E-06,0.008
-4.750E-06,-0.008
-4.740E-06,0.008
-4.730E-06,-0.008
-4.720E-06,0.008
-4.710E-06,0.000
-4.700E-06,0.008
-4.690E-06,0.000
-4.680E-06,0.008
-4.670E-06,0.008
-4.660E-06,-0.008
-4.650E-06,-0.008
-4.640E-06,0.000
-4.630E-06,0.000
-4.620E-06,0.008
-4.610E-06,0.016
-4.600E-06,0.016
-4.590E-06,-0.008
-4.580E-06,0.000
-4.570E-06,0.000
-4.560E-06,0.008
-4.550E-06,0.008
-4.540E-06,0.008
-4.530E-06,0.008
-4.520E-06,0.000
-4.510E-06,0.000
-4.500E-06,0.000
-4.490E-06,0.000
-4.480E-06,0.000
-4.470E-06,0.000
-4.460E-06,0.000
-4.450E-06,0.008
-4.440E-06,0.008
-4.430E-06,0.000
-4.420E-06,0.016
-4.410E-06,0.016
-4.400E-06,-0.008
-4.390E-06,-0.008
-4.380E-06,0.000
-4.370E-06,0.000
-4.360E-06,0.008
-4.350E-06,-0.008
-4.340E-06,0.008
-4.330E-06,0.000
-4.320E-06,0.000
-4.310E-06,0.008
-4.300E-06,0.016
-4.290E-06,0.000
-4.280E-06,0.008
-4.270E-06,0.008
-4.260E-06,0.008
-4.250E-06,0.008
-4.240E-06,0.008
-4.230E-06,0.000
-4.220E-06,0.008
-4.210E-06,0.000
-4.200E-06,0.000
-4.190E-06,0.008
-4.180E-06,0.000
-4.170E-06,0.000
-4.160E-06,0.016
-4.150E-06,0.048
-4.140E-06,0.088
-4.130E-06,0.120
-4.120E-06,0.120
-4.110E-06,0.072
-4.100E-06,-0.024
-4.090E-06,-0.120
-4.080E-06,-0.192
-4.070E-06,-0.144
-4.060E-06,-0.040
-4.050E-06,0.096
-4.040E-06,0.192
-4.030E-06,0.176
-4.020E-06,0.056
-4.010E-06,-0.072
-4.000E-06,-0.136
-3.990E-06,-0.096
-3.980E-06,-0.008
-3.970E-06,0.104
-3.960E-06,0.144
-3.950E-06,0.112
-3.940E-06,0.000
-3.930E-06,-0.080
-3.920E-06,-0.136
-3.910E-06,-0.096
-3.900E-06,-0.016
-3.890E-06,0.072
-3.880E-06,0.128
-3.870E-06,0.112
-3.860E-06,0.048
-3.850E-06,-0.016
-3.840E-06,-0.064
-3.830E-06,-0.080
-3.820E-06,-0.040
-3.810E-06,-0.008
-3.800E-06,0.024
-3.790E-06,-0.144
-3.780E-06,-0.024
-3.770E-06,0.256
-3.760E-06,-0.064
-3.750E-06,0.128
-3.740E-06,-0.080
-3.730E-06,0.016
-3.720E-06,-0.064
-3.710E-06,-0.040
-3.700E-06,-0.008
-3.690E-06,0.072
-3.680E-06,0.136
-3.670E-06,0.040
-3.660E-06,0.008
-3.650E-06,-0.096
-3.640E-06,-0.088
-3.630E-06,-0.088
-3.620E-06,0.032
-3.610E-06,0.048
-3.600E-06,0.088
-3.590E-06,0.048
-3.580E-06,0.016
-3.570E-06,-0.024
-3.560E-06,-0.056
-3.550E-06,-0.016
-3.540E-06,0.008
-3.530E-06,0.048
-3.520E-06,0.032
-3.510E-06,0.048
-3.500E-06,-0.016
-3.490E-06,-0.024
-3.480E-06,-0.032
-3.470E-06,-0.016
-3.460E-06,0.000
-3.450E-06,0.024
-3.440E-06,0.040
-3.430E-06,0.032
-3.420E-06,0.024
-3.410E-06,-0.008
-3.400E-06,-0.008
-3.390E-06,-0.024
-3.380E-06,0.000
-3.370E-06,0.000
-3.360E-06,0.024
-3.350E-06,0.024
-3.340E-06,0.008
-3.330E-06,0.000
-3.320E-06,-0.016
-3.310E-06,-0.016
-3.300E-06,-0.008
-3.290E-06,0.016
-3.280E-06,0.016
-3.270E-06,0.024
-3.260E-06,0.024
-3.250E-06,0.008
-3.240E-06,0.000
-3.230E-06,-0.008
-3.220E-06,0.000
-3.210E-06,0.008
-3.200E-06,0.016
-3.190E-06,0.024
-3.180E-06,0.008
-3.170E-06,0.008
-3.160E-06,-0.008
-3.150E-06,-0.008
-3.140E-06,-0.008
-3.130E-06,0.000
-3.120E-06,0.008
-3.110E-06,0.016
-3.100E-06,0.008
-3.090E-06,0.016
-3.080E-06,0.000
-3.070E-06,0.000
-3.060E-06,0.000
-3.050E-06,0.008
-3.040E-06,0.016
-3.030E-06,0.000
-3.020E-06,0.008
-3.010E-06,0.000
-3.000E-06,0.008
-2.990E-06,0.000
-2.980E-06,0.000
-2.970E-06,0.016
-2.960E-06,0.024
-2.950E-06,0.016
-2.940E-06,0.016
-2.930E-06,0.024
-2.920E-06,0.016
-2.910E-06,0.000
-2.900E-06,0.000
-2.890E-06,0.008
-2.880E-06,0.000
-2.870E-06,-0.008
-2.860E-06,0.008
-2.850E-06,0.008
-2.840E-06,0.016
-2.830E-06,0.000
-2.820E-06,0.008
-2.810E-06,0.000
-2.800E-06,0.000
-2.790E-06,0.008
-2.780E-06,0.000
-2.770E-06,0.016
-2.760E-06,0.016
-2.750E-06,0.016
-2.740E-06,0.016
-2.730E-06,0.024
-2.720E-06,0.024
-2.710E-06,0.024
-2.700E-06,0.008
-2.690E-06,-0.008
-2.680E-06,0.000
-2.670E-06,0.000
-2.660E-06,0.000
-2.650E-06,0.016
-2.640E-06,0.024
-2.630E-06,-0.016
-2.620E-06,-0.016
-2.610E-06,0.008
-2.600E-06,0.024
-2.590E-06,0.016
-2.580E-06,0.024
-2.570E-06,0.016
-2.560E-06,-0.008
-2.550E-06,-0.016
-2.540E-06,-0.016
-2.530E-06,-0.008
-2.520E-06,0.016
-2.510E-06,0.024
-2.500E-06,0.016
-2.490E-06,0.008
-2.480E-06,-0.008
-2.470E-06,0.000
-2.460E-06,0.000
-2.450E-06,0.016
-2.440E-06,0.016
-2.430E-06,0.008
-2.420E-06,0.000
-2.410E-06,0.000
-2.400E-06,0.000
-2.390E-06,0.008
-2.380E-06,0.016
-2.370E-06,0.016
-2.360E-06,0.016
-2.350E-06,0.000
-2.340E-06,0.000
-2.330E-06,0.008
-2.320E-06,0.008
-2.310E-06,0.000
-2.300E-06,0.008
-2.290E-06,0.008
-2.280E-06,0.016
-2.270E-06,0.008
-2.260E-06,0.016
-2.250E-06,0.016
-2.240E-06,0.000
-2.230E-06,0.016
-2.220E-06,0.016
-2.210E-06,0.024
-2.200E-06,0.032
-2.190E-06,0.032
-2.180E-06,0.032
-2.170E-06,0.000
-2.160E-06,0.000
-2.150E-06,0.008
-2.140E-06,0.024
-2.130E-06,0.024
-2.120E-06,0.040
-2.110E-06,0.056
-2.100E-06,0.040
-2.090E-06,0.056
-2.080E-06,0.080
-2.070E-06,-0.016
-2.060E-06,-0.072
-2.050E-06,-0.056
-2.040E-06,-0.080
-2.030E-06,-0.016
-2.020E-06,-0.032
-2.010E-06,0.064
-2.000E-06,0.000
-1.990E-06,-0.056
-1.980E-06,-0.016
-1.970E-06,-0.008
-1.960E-06,0.016
-1.950E-06,0.024
-1.940E-06,-0.008
-1.930E-06,-0.040
-1.920E-06,-0.024
-1.910E-06,-0.008
-1.900E-06,0.008
-1.890E-06,0.032
-1.880E-06,0.040
-1.870E-06,0.016
-1.860E-06,-0.008
-1.850E-06,-0.024
-1.840E-06,-0.040
-1.830E-06,0.000
-1.820E-06,0.024
-1.810E-06,0.048
-1.800E-06,0.056
-1.790E-06,0.032
-1.780E-06,0.016
-1.770E-06,-0.008
-1.760E-06,-0.008
-1.750E-06,-0.008
-1.740E-06,0.024
-1.730E-06,0.048
-1.720E-06,0.048
-1.710E-06,0.040
-1.700E-06,0.032
-1.690E-06,0.008
-1.680E-06,0.016
-1.670E-06,0.048
-1.660E-06,0.024
-1.650E-06,0.000
-1.640E-06,-0.080
-1.630E-06,-0.136
-1.620E-06,-0.064
-1.610E-06,-0.048
-1.600E-06,0.032
-1.590E-06,0.032
-1.580E-06,-0.024
-1.570E-06,0.000
-1.560E-06,0.016
-1.550E-06,0.056
-1.540E-06,0.048
-1.530E-06,0.000
-1.520E-06,-0.040
-1.510E-06,-0.048
-1.500E-06,-0.032
-1.490E-06,-0.016
-1.480E-06,0.056
-1.470E-06,0.056
-1.460E-06,0.056
-1.450E-06,0.032
-1.440E-06,-0.016
-1.430E-06,-0.048
-1.420E-06,-0.016
-1.410E-06,0.008
-1.400E-06,0.048
-1.390E-06,0.056
-1.380E-06,0.048
-1.370E-06,0.040
-1.360E-06,0.008
-1.350E-06,-0.008
-1.340E-06,-0.008
-1.330E-06,0.016
-1.320E-06,0.024
-1.310E-06,0.048
-1.300E-06,0.032
-1.290E-06,0.024
-1.280E-06,0.016
-1.270E-06,0.024
-1.260E-06,0.024
-1.250E-06,0.040
-1.240E-06,0.056
-1.230E-06,0.064
-1.220E-06,0.048
-1.210E-06,0.040
-1.200E-06,0.048
-1.190E-06,0.048
-1.180E-06,0.064
-1.170E-06,0.072
-1.160E-06,0.048
-1.150E-06,0.008
-1.140E-06,0.000
-1.130E-06,0.024
-1.120E-06,0.088
-1.110E-06,0.104
-1.100E-06,0.144
-1.090E-06,0.128
-1.080E-06,0.080
-1.070E-06,0.048
-1.060E-06,0.000
-1.050E-06,0.056
-1.040E-06,0.056
-1.030E-06,0.096
-1.020E-06,0.136
-1.010E-06,0.128
-1.000E-06,0.144
-9.900E-07,0.048
-9.800E-07,0.008
-9.700E-07,-0.064
-9.600E-07,-0.136
-9.500E-07,-0.088
-9.400E-07,-0.160
-9.300E-07,-0.080
-9.200E-07,-0.240
-9.100E-07,-0.112
-9.000E-07,-0.272
-8.900E-07,-0.248
-8.800E-07,0.056
-8.700E-07,0.048
-8.600E-07,0.544
-8.500E-07,0.224
-8.400E-07,0.056
-8.300E-07,-0.088
-8.200E-07,-0.272
-8.100E-07,-0.248
-8.000E-07,-0.080
-7.900E-07,0.152
-7.800E-07,0.304
-7.700E-07,0.328
-7.600E-07,0.096
-7.500E-07,-0.056
-7.400E-07,-0.320
-7.300E-07,-0.160
-7.200E-07,-0.128
-7.100E-07,-0.080
-7.000E-07,0.064
-6.900E-07,0.112
-6.800E-07,0.216
-6.700E-07,0.216
-6.600E-07,0.144
-6.500E-07,0.016
-6.400E-07,-0.088
-6.300E-07,-0.256
-6.200E-07,-0.264
-6.100E-07,-0.120
-6.000E-07,0.152
-5.900E-07,0.224
-5.800E-07,0.224
-5.700E-07,0.056
-5.600E-07,-0.184
-5.500E-07,-0.264
-5.400E-07,-0.208
-5.300E-07,-0.040
-5.200E-07,0.176
-5.100E-07,0.304
-5.000E-07,0.280
-4.900E-07,0.096
-4.800E-07,-0.056
-4.700E-07,-0.152
-4.600E-07,-0.096
-4.500E-07,0.024
-4.400E-07,0.176
-4.300E-07,0.272
-4.200E-07,0.280
-4.100E-07,0.224
-4.000E-07,0.080
-3.900E-07,-0.008
-3.800E-07,-0.088
-3.700E-07,-0.088
-3.600E-07,-0.056
-3.500E-07,0.016
-3.400E-07,0.112
-3.300E-07,0.088
-3.200E-07,0.112
-3.100E-07,0.080
-3.000E-07,0.048
-2.900E-07,0.024
-2.800E-07,0.040
-2.700E-07,0.048
-2.600E-07,0.112
-2.500E-07,0.208
-2.400E-07,0.240
-2.300E-07,0.216
-2.200E-07,0.144
-2.100E-07,0.080
-2.000E-07,0.080
-1.900E-07,0.136
-1.800E-07,0.176
-1.700E-07,0.272
-1.600E-07,0.272
-1.500E-07,0.184
-1.400E-07,0.144
-1.300E-07,0.144
-1.200E-07,0.144
-1.100E-07,0.200
-1.000E-07,0.216
-9.000E-08,0.272
-8.000E-08,0.280
-7.000E-08,0.040
-6.000E-08,0.200
-5.000E-08,-0.456
-4.000E-08,-1.016
-3.000E-08,-1.024
-2.000E-08,-1.016
-1.000E-08,-0.328
0.000E+00,1.080
1.000E-08,1.080
2.000E-08,1.080
3.000E-08,1.080
4.000E-08,-0.048
5.000E-08,-1.000
6.000E-08,-1.024
7.000E-08,-0.824
8.000E-08,0.400
9.000E-08,1.080
1.000E-07,1.072
1.100E-07,1.080
1.200E-07,0.264
1.300E-07,-0.792
1.400E-07,-1.024
1.500E-07,-0.720
1.600E-07,0.056
1.700E-07,0.816
1.800E-07,1.080
1.900E-07,1.024
2.000E-07,0.480
2.100E-07,-0.104
2.200E-07,-0.528
2.300E-07,-0.368
2.400E-07,-0.160
2.500E-07,0.360
2.600E-07,0.544
2.700E-07,0.608
2.800E-07,0.264
2.900E-07,-0.080
3.000E-07,-0.336
3.100E-07,-0.400
3.200E-07,-0.216
3.300E-07,0.216
3.400E-07,0.560
3.500E-07,0.792
3.600E-07,0.680
3.700E-07,0.392
3.800E-07,0.088
3.900E-07,-0.200
4.000E-07,-0.240
4.100E-07,-0.144
4.200E-07,0.096
4.300E-07,0.448
4.400E-07,0.536
4.500E-07,0.512
4.600E-07,0.240
4.700E-07,0.008
4.800E-07,-0.216
4.900E-07,-0.240
5.000E-07,-0.176
5.100E-07,0.024
5.200E-07,0.304
5.300E-07,0.448
5.400E-07,0.456
5.500E-07,0.248
5.600E-07,0.200
5.700E-07,-0.016
5.800E-07,-0.056
5.900E-07,0.096
6.000E-07,0.304
6.100E-07,0.528
6.200E-07,0.584
6.300E-07,0.456
6.400E-07,0.264
6.500E-07,0.056
6.600E-07,0.032
6.700E-07,0.120
6.800E-07,0.296
6.900E-07,0.456
7.000E-07,0.544
7.100E-07,0.488
7.200E-07,0.352
7.300E-07,0.208
7.400E-07,0.128
7.500E-07,0.152
7.600E-07,0.248
7.700E-07,0.376
7.800E-07,0.448
7.900E-07,0.432
8.000E-07,0.352
8.100E-07,0.248
8.200E-07,0.160
8.300E-07,0.168
8.400E-07,0.224
8.500E-07,0.320
8.600E-07,0.400
8.700E-07,0.424
8.800E-07,0.384
8.900E-07,0.304
9.000E-07,0.232
9.100E-07,0.208
9.200E-07,0.248
9.300E-07,0.312
9.400E-07,0.368
9.500E-07,0.384
9.600E-07,0.360
9.700E-07,0.320
9.800E-07,0.248
9.900E-07,0.208
1.000E-06,0.208
1.010E-06,0.256
1.020E-06,0.304
1.030E-06,0.328
1.040E-06,0.336
1.050E-06,0.320
1.060E-06,0.280
1.070E-06,0.248
1.080E-06,0.248
1.090E-06,0.256
1.100E-06,0.288
1.110E-06,0.312
1.120E-06,0.320
1.130E-06,0.312
1.140E-06,0.288
1.150E-06,0.256
1.160E-06,0.248
1.170E-06,0.264
1.180E-06,0.272
1.190E-06,0.296
1.200E-06,0.304
1.210E-06,0.312
1.220E-06,0.304
1.230E-06,0.288
1.240E-06,0.272
1.250E-06,0.272
1.260E-06,0.272
1.270E-06,0.288
1.280E-06,0.304
1.290E-06,0.304
1.300E-06,0.312
1.310E-06,0.296
1.320E-06,0.264
1.330E-06,0.264
1.340E-06,0.264
1.350E-06,0.272
1.360E-06,0.288
1.370E-06,0.304
1.380E-06,0.288
1.390E-06,0.280
1.400E-06,0.264
1.410E-06,0.248
1.420E-06,0.264
1.430E-06,0.272
1.440E-06,0.288
1.450E-06,0.296
1.460E-06,0.288
1.470E-06,0.280
1.480E-06,0.272
1.490E-06,0.264
1.500E-06,0.264
1.510E-06,0.272
1.520E-06,0.280
1.530E-06,0.288
1.540E-06,0.280
1.550E-06,0.280
1.560E-06,0.272
1.570E-06,0.264
1.580E-06,0.256
1.590E-06,0.272
1.600E-06,0.272
1.610E-06,0.288
1.620E-06,0.272
1.630E-06,0.272
1.640E-06,0.264
1.650E-06,0.256
1.660E-06,0.248
1.670E-06,0.256
1.680E-06,0.272
1.690E-06,0.272
1.700E-06,0.272
1.710E-06,0.272
1.720E-06,0.272
1.730E-06,0.264
1.740E-06,0.264
1.750E-06,0.256
1.760E-06,0.264
1.770E-06,0.256
1.780E-06,0.264
1.790E-06,0.264
1.800E-06,0.256
1.810E-06,0.256
1.820E-06,0.256
1.830E-06,0.256
1.840E-06,0.256
1.850E-06,0.264
1.860E-06,0.264
1.870E-06,0.272
1.880E-06,0.264
1.890E-06,0.256
1.900E-06,0.248
1.910E-06,0.248
1.920E-06,0.248
1.930E-06,0.248
1.940E-06,0.248
1.950E-06,0.256
1.960E-06,0.256
1.970E-06,0.264
1.980E-06,0.248
1.990E-06,0.248
2.000E-06,0.248
2.010E-06,0.248
2.020E-06,0.248
2.030E-06,0.248
2.040E-06,0.248
2.050E-06,0.240
2.060E-06,0.248
2.070E-06,0.248
2.080E-06,0.240
2.090E-06,0.240
2.100E-06,0.248
2.110E-06,0.248
2.120E-06,0.248
2.130E-06,0.248
2.140E-06,0.256
2.150E-06,0.248
2.160E-06,0.248
2.170E-06,0.240
2.180E-06,0.240
2.190E-06,0.240
2.200E-06,0.240
2.210E-06,0.232
2.220E-06,0.224
2.230E-06,0.240
2.240E-06,0.232
2.250E-06,0.240
2.260E-06,0.240
2.270E-06,0.224
2.280E-06,0.224
2.290E-06,0.208
2.300E-06,0.224
2.310E-06,0.224
2.320E-06,0.240
2.330E-06,0.240
2.340E-06,0.240
2.350E-06,0.240
2.360E-06,0.232
2.370E-06,0.208
2.380E-06,0.200
2.390E-06,0.208
2.400E-06,0.208
2.410E-06,0.208
2.420E-06,0.224
2.430E-06,0.224
2.440E-06,0.224
2.450E-06,0.224
2.460E-06,0.208
2.470E-06,0.216
2.480E-06,0.216
2.490E-06,0.216
2.500E-06,0.216
2.510E-06,0.224
2.520E-06,0.224
2.530E-06,0.208
2.540E-06,0.200
2.550E-06,0.184
2.560E-06,0.184
2.570E-06,0.184
2.580E-06,0.200
2.590E-06,0.216
2.600E-06,0.224
2.610E-06,0.216
2.620E-06,0.208
2.630E-06,0.200
2.640E-06,0.184
2.650E-06,0.192
2.660E-06,0.208
2.670E-06,0.216
2.680E-06,0.224
2.690E-06,0.208
2.700E-06,0.208
2.710E-06,0.192
2.720E-06,0.176
2.730E-06,0.184
2.740E-06,0.192
2.750E-06,0.208
2.760E-06,0.216
2.770E-06,0.216
2.780E-06,0.208
2.790E-06,0.192
2.800E-06,0.184
2.810E-06,0.176
2.820E-06,0.192
2.830E-06,0.192
2.840E-06,0.208
2.850E-06,0.216
2.860E-06,0.208
2.870E-06,0.200
2.880E-06,0.184
2.890E-06,0.176
2.900E-06,0.168
2.910E-06,0.176
2.920E-06,0.176
2.930E-06,0.192
2.940E-06,0.192
2.950E-06,0.200
2.960E-06,0.200
2.970E-06,0.192
2.980E-06,0.176
2.990E-06,0.176
3.000E-06,0.176
3.010E-06,0.176
3.020E-06,0.168
3.030E-06,0.168
3.040E-06,0.168
3.050E-06,0.184
3.060E-06,0.184
3.070E-06,0.200
3.080E-06,0.192
3.090E-06,0.192
3.100E-06,0.184
3.110E-06,0.168
3.120E-06,0.160
3.130E-06,0.160
3.140E-06,0.184
3.150E-06,0.192
3.160E-06,0.200
3.170E-06,0.192
3.180E-06,0.184
3.190E-06,0.168
3.200E-06,0.160
3.210E-06,0.152
3.220E-06,0.168
3.230E-06,0.176
3.240E-06,0.192
3.250E-06,0.192
3.260E-06,0.184
3.270E-06,0.168
3.280E-06,0.160
3.290E-06,0.152
3.300E-06,0.160
3.310E-06,0.176
3.320E-06,0.176
3.330E-06,0.176
3.340E-06,0.168
3.350E-06,0.168
3.360E-06,0.160
3.370E-06,0.144
3.380E-06,0.144
3.390E-06,0.160
3.400E-06,0.176
3.410E-06,0.176
3.420E-06,0.168
3.430E-06,0.160
3.440E-06,0.152
3.450E-06,0.152
3.460E-06,0.144
3.470E-06,0.160
3.480E-06,0.168
3.490E-06,0.160
3.500E-06,0.160
3.510E-06,0.168
3.520E-06,0.152
3.530E-06,0.152
3.540E-06,0.144
3.550E-06,0.144
3.560E-06,0.160
3.570E-06,0.160
3.580E-06,0.152
3.590E-06,0.160
3.600E-06,0.152
3.610E-06,0.152
3.620E-06,0.152
3.630E-06,0.144
3.640E-06,0.144
3.650E-06,0.144
3.660E-06,0.152
