mediciones/6-26/32.5/WaveData5955.csv

#timebase=2000000(ps)
,#voltbase=500000(mv/100)
#size=4000
-8.150E-06,0.040
-8.140E-06,0.060
-8.130E-06,0.080
-8.120E-06,0.060
-8.110E-06,0.060
-8.100E-06,0.060
-8.090E-06,0.060
-8.080E-06,0.060
-8.070E-06,0.040
-8.060E-06,0.060
-8.050E-06,0.080
-8.040E-06,0.060
-8.030E-06,0.060
-8.020E-06,0.060
-8.010E-06,0.060
-8.000E-06,0.060
-7.990E-06,0.060
-7.980E-06,0.060
-7.970E-06,0.060
-7.960E-06,0.080
-7.950E-06,0.060
-7.940E-06,0.060
-7.930E-06,0.040
-7.920E-06,0.080
-7.910E-06,0.040
-7.900E-06,0.080
-7.890E-06,0.060
-7.880E-06,0.080
-7.870E-06,0.060
-7.860E-06,0.040
-7.850E-06,0.060
-7.840E-06,0.060
-7.830E-06,0.080
-7.820E-06,0.040
-7.810E-06,0.080
-7.800E-06,0.020
-7.790E-06,0.040
-7.780E-06,0.060
-7.770E-06,0.060
-7.760E-06,0.040
-7.750E-06,0.020
-7.740E-06,0.060
-7.730E-06,0.020
-7.720E-06,0.060
-7.710E-06,0.060
-7.700E-06,0.060
-7.690E-06,0.060
-7.680E-06,0.060
-7.670E-06,0.060
-7.660E-06,0.060
-7.650E-06,0.060
-7.640E-06,0.080
-7.630E-06,0.060
-7.620E-06,0.060
-7.610E-06,0.060
-7.600E-06,0.060
-7.590E-06,0.080
-7.580E-06,0.080
-7.570E-06,0.020
-7.560E-06,0.040
-7.550E-06,0.040
-7.540E-06,0.040
-7.530E-06,0.060
-7.520E-06,0.080
-7.510E-06,0.060
-7.500E-06,0.060
-7.490E-06,0.060
-7.480E-06,0.060
-7.470E-06,0.060
-7.460E-06,0.040
-7.450E-06,0.080
-7.440E-06,0.060
-7.430E-06,0.060
-7.420E-06,0.060
-7.410E-06,0.040
-7.400E-06,0.060
-7.390E-06,0.060
-7.380E-06,0.060
-7.370E-06,0.060
-7.360E-06,0.060
-7.350E-06,0.060
-7.340E-06,0.060
-7.330E-06,0.060
-7.320E-06,0.060
-7.310E-06,0.060
-7.300E-06,0.060
-7.290E-06,0.040
-7.280E-06,0.060
-7.270E-06,0.020
-7.260E-06,0.040
-7.250E-06,0.040
-7.240E-06,0.060
-7.230E-06,0.060
-7.220E-06,0.020
-7.210E-06,0.020
-7.200E-06,0.060
-7.190E-06,0.040
-7.180E-06,0.060
-7.170E-06,0.060
-7.160E-06,0.080
-7.150E-06,0.060
-7.140E-06,0.060
-7.130E-06,0.080
-7.120E-06,0.040
-7.110E-06,0.040
-7.100E-06,0.060
-7.090E-06,0.080
-7.080E-06,0.060
-7.070E-06,0.020
-7.060E-06,0.060
-7.050E-06,0.040
-7.040E-06,0.040
-7.030E-06,0.040
-7.020E-06,0.020
-7.010E-06,0.040
-7.000E-06,0.040
-6.990E-06,0.080
-6.980E-06,0.060
-6.970E-06,0.080
-6.960E-06,0.040
-6.950E-06,0.060
-6.940E-06,0.080
-6.930E-06,0.060
-6.920E-06,0.060
-6.910E-06,0.060
-6.900E-06,0.080
-6.890E-06,0.060
-6.880E-06,0.040
-6.870E-06,0.040
-6.860E-06,0.040
-6.850E-06,0.060
-6.840E-06,0.060
-6.830E-06,0.080
-6.820E-06,0.040
-6.810E-06,0.040
-6.800E-06,0.040
-6.790E-06,0.060
-6.780E-06,0.040
-6.770E-06,0.040
-6.760E-06,0.060
-6.750E-06,0.040
-6.740E-06,0.060
-6.730E-06,0.080
-6.720E-06,0.060
-6.710E-06,0.080
-6.700E-06,0.080
-6.690E-06,0.080
-6.680E-06,0.040
-6.670E-06,0.060
-6.660E-06,0.060
-6.650E-06,0.080
-6.640E-06,0.060
-6.630E-06,0.080
-6.620E-06,0.040
-6.610E-06,0.080
-6.600E-06,0.060
-6.590E-06,0.060
-6.580E-06,0.060
-6.570E-06,0.080
-6.560E-06,0.060
-6.550E-06,0.040
-6.540E-06,0.060
-6.530E-06,0.060
-6.520E-06,0.040
-6.510E-06,0.060
-6.500E-06,0.040
-6.490E-06,0.080
-6.480E-06,0.060
-6.470E-06,0.020
-6.460E-06,0.060
-6.450E-06,0.080
-6.440E-06,0.060
-6.430E-06,0.060
-6.420E-06,0.080
-6.410E-06,0.060
-6.400E-06,0.080
-6.390E-06,0.040
-6.380E-06,0.020
-6.370E-06,0.060
-6.360E-06,0.080
-6.350E-06,0.040
-6.340E-06,0.060
-6.330E-06,0.060
-6.320E-06,0.060
-6.310E-06,0.060
-6.300E-06,0.080
-6.290E-06,0.060
-6.280E-06,0.020
-6.270E-06,0.040
-6.260E-06,0.060
-6.250E-06,0.080
-6.240E-06,0.080
-6.230E-06,0.040
-6.220E-06,0.040
-6.210E-06,0.080
-6.200E-06,0.040
-6.190E-06,0.040
-6.180E-06,0.080
-6.170E-06,0.060
-6.160E-06,0.040
-6.150E-06,0.060
-6.140E-06,0.040
-6.130E-06,0.060
-6.120E-06,0.060
-6.110E-06,0.040
-6.100E-06,0.080
-6.090E-06,0.040
-6.080E-06,0.040
-6.070E-06,0.060
-6.060E-06,0.020
-6.050E-06,0.060
-6.040E-06,0.060
-6.030E-06,0.040
-6.020E-06,0.060
-6.010E-06,0.080
-6.000E-06,0.060
-5.990E-06,0.040
-5.980E-06,0.060
-5.970E-06,0.040
-5.960E-06,0.040
-5.950E-06,0.040
-5.940E-06,0.040
-5.930E-06,0.060
-5.920E-06,0.020
-5.910E-06,0.040
-5.900E-06,0.040
-5.890E-06,0.060
-5.880E-06,0.060
-5.870E-06,0.040
-5.860E-06,0.040
-5.850E-06,0.040
-5.840E-06,0.040
-5.830E-06,0.040
-5.820E-06,0.020
-5.810E-06,0.060
-5.800E-06,0.060
-5.790E-06,0.060
-5.780E-06,0.080
-5.770E-06,0.040
-5.760E-06,0.020
-5.750E-06,0.060
-5.740E-06,0.040
-5.730E-06,0.040
-5.720E-06,0.040
-5.710E-06,0.080
-5.700E-06,0.080
-5.690E-06,0.080
-5.680E-06,0.080
-5.670E-06,0.060
-5.660E-06,0.040
-5.650E-06,0.060
-5.640E-06,0.060
-5.630E-06,0.080
-5.620E-06,0.060
-5.610E-06,0.080
-5.600E-06,0.060
-5.590E-06,0.040
-5.580E-06,0.020
-5.570E-06,0.040
-5.560E-06,0.040
-5.550E-06,0.040
-5.540E-06,0.040
-5.530E-06,0.040
-5.520E-06,0.040
-5.510E-06,0.060
-5.500E-06,0.060
-5.490E-06,0.060
-5.480E-06,0.060
-5.470E-06,0.080
-5.460E-06,0.060
-5.450E-06,0.040
-5.440E-06,0.040
-5.430E-06,0.040
-5.420E-06,0.040
-5.410E-06,0.040
-5.400E-06,0.060
-5.390E-06,0.040
-5.380E-06,0.060
-5.370E-06,0.060
-5.360E-06,0.080
-5.350E-06,0.080
-5.340E-06,0.040
-5.330E-06,0.020
-5.320E-06,0.060
-5.310E-06,0.060
-5.300E-06,0.060
-5.290E-06,0.100
-5.280E-06,0.060
-5.270E-06,0.040
-5.260E-06,0.040
-5.250E-06,0.060
-5.240E-06,0.040
-5.230E-06,0.060
-5.220E-06,0.040
-5.210E-06,0.040
-5.200E-06,0.040
-5.190E-06,0.040
-5.180E-06,0.020
-5.170E-06,0.040
-5.160E-06,0.040
-5.150E-06,0.040
-5.140E-06,0.080
-5.130E-06,0.080
-5.120E-06,0.080
-5.110E-06,0.080
-5.100E-06,0.040
-5.090E-06,0.060
-5.080E-06,0.060
-5.070E-06,0.060
-5.060E-06,0.080
-5.050E-06,0.040
-5.040E-06,0.080
-5.030E-06,0.040
-5.020E-06,0.060
-5.010E-06,0.060
-5.000E-06,0.060
-4.990E-06,0.040
-4.980E-06,0.060
-4.970E-06,0.020
-4.960E-06,0.040
-4.950E-06,0.060
-4.940E-06,0.020
-4.930E-06,0.060
-4.920E-06,0.060
-4.910E-06,0.040
-4.900E-06,0.080
-4.890E-06,0.060
-4.880E-06,0.060
-4.870E-06,0.020
-4.860E-06,0.040
-4.850E-06,0.040
-4.840E-06,0.040
-4.830E-06,0.060
-4.820E-06,0.020
-4.810E-06,0.040
-4.800E-06,0.100
-4.790E-06,0.040
-4.780E-06,0.040
-4.770E-06,0.060
-4.760E-06,0.060
-4.750E-06,0.080
-4.740E-06,0.060
-4.730E-06,0.040
-4.720E-06,0.040
-4.710E-06,0.080
-4.700E-06,0.040
-4.690E-06,0.040
-4.680E-06,0.040
-4.670E-06,0.020
-4.660E-06,0.040
-4.650E-06,0.060
-4.640E-06,0.040
-4.630E-06,0.060
-4.620E-06,0.040
-4.610E-06,0.060
-4.600E-06,0.060
-4.590E-06,0.080
-4.580E-06,0.060
-4.570E-06,0.080
-4.560E-06,0.020
-4.550E-06,0.060
-4.540E-06,0.060
-4.530E-06,0.060
-4.520E-06,0.060
-4.510E-06,0.080
-4.500E-06,0.060
-4.490E-06,0.080
-4.480E-06,0.040
-4.470E-06,0.080
-4.460E-06,0.040
-4.450E-06,0.040
-4.440E-06,0.060
-4.430E-06,0.080
-4.420E-06,0.060
-4.410E-06,0.020
-4.400E-06,0.040
-4.390E-06,0.060
-4.380E-06,0.020
-4.370E-06,0.040
-4.360E-06,0.040
-4.350E-06,0.020
-4.340E-06,0.020
-4.330E-06,0.040
-4.320E-06,0.080
-4.310E-06,0.040
-4.300E-06,0.040
-4.290E-06,0.040
-4.280E-06,0.040
-4.270E-06,0.080
-4.260E-06,0.060
-4.250E-06,0.060
-4.240E-06,0.040
-4.230E-06,0.060
-4.220E-06,0.060
-4.210E-06,0.080
-4.200E-06,0.040
-4.190E-06,0.040
-4.180E-06,0.060
-4.170E-06,0.060
-4.160E-06,0.040
-4.150E-06,0.040
-4.140E-06,0.060
-4.130E-06,0.060
-4.120E-06,0.060
-4.110E-06,0.040
-4.100E-06,0.040
-4.090E-06,0.040
-4.080E-06,0.100
-4.070E-06,0.060
-4.060E-06,0.040
-4.050E-06,0.080
-4.040E-06,0.060
-4.030E-06,0.060
-4.020E-06,0.080
-4.010E-06,0.040
-4.000E-06,0.040
-3.990E-06,0.060
-3.980E-06,0.060
-3.970E-06,0.040
-3.960E-06,0.040
-3.950E-06,0.020
-3.940E-06,0.060
-3.930E-06,0.040
-3.920E-06,0.060
-3.910E-06,0.080
-3.900E-06,0.040
-3.890E-06,0.040
-3.880E-06,0.040
-3.870E-06,0.080
-3.860E-06,0.080
-3.850E-06,0.080
-3.840E-06,0.020
-3.830E-06,0.040
-3.820E-06,0.060
-3.810E-06,0.080
-3.800E-06,0.060
-3.790E-06,0.040
-3.780E-06,0.060
-3.770E-06,0.080
-3.760E-06,0.080
-3.750E-06,0.040
-3.740E-06,0.020
-3.730E-06,0.040
-3.720E-06,0.080
-3.710E-06,0.040
-3.700E-06,0.060
-3.690E-06,0.080
-3.680E-06,0.060
-3.670E-06,0.060
-3.660E-06,0.060
-3.650E-06,0.060
-3.640E-06,0.040
-3.630E-06,0.060
-3.620E-06,0.080
-3.610E-06,0.060
-3.600E-06,0.080
-3.590E-06,0.040
-3.580E-06,0.040
-3.570E-06,0.040
-3.560E-06,0.040
-3.550E-06,0.040
-3.540E-06,0.060
-3.530E-06,0.020
-3.520E-06,0.060
-3.510E-06,0.020
-3.500E-06,0.060
-3.490E-06,0.040
-3.480E-06,0.060
-3.470E-06,0.080
-3.460E-06,0.060
-3.450E-06,0.040
-3.440E-06,0.060
-3.430E-06,0.080
-3.420E-06,0.040
-3.410E-06,0.060
-3.400E-06,0.060
-3.390E-06,0.080
-3.380E-06,0.040
-3.370E-06,0.080
-3.360E-06,0.020
-3.350E-06,0.060
-3.340E-06,0.060
-3.330E-06,0.040
-3.320E-06,0.040
-3.310E-06,0.060
-3.300E-06,0.060
-3.290E-06,0.040
-3.280E-06,0.040
-3.270E-06,0.040
-3.260E-06,0.080
-3.250E-06,0.060
-3.240E-06,0.060
-3.230E-06,0.060
-3.220E-06,0.060
-3.210E-06,0.060
-3.200E-06,0.020
-3.190E-06,0.040
-3.180E-06,0.060
-3.170E-06,0.040
-3.160E-06,0.040
-3.150E-06,0.060
-3.140E-06,0.060
-3.130E-06,0.040
-3.120E-06,0.060
-3.110E-06,0.080
-3.100E-06,0.020
-3.090E-06,0.040
-3.080E-06,0.040
-3.070E-06,0.020
-3.060E-06,0.060
-3.050E-06,0.080
-3.040E-06,0.080
-3.030E-06,0.020
-3.020E-06,0.060
-3.010E-06,0.060
-3.000E-06,0.040
-2.990E-06,0.060
-2.980E-06,0.060
-2.970E-06,0.020
-2.960E-06,0.040
-2.950E-06,0.060
-2.940E-06,0.020
-2.930E-06,0.060
-2.920E-06,0.060
-2.910E-06,0.080
-2.900E-06,0.060
-2.890E-06,0.040
-2.880E-06,0.060
-2.870E-06,0.040
-2.860E-06,0.040
-2.850E-06,0.060
-2.840E-06,0.020
-2.830E-06,0.040
-2.820E-06,0.060
-2.810E-06,0.040
-2.800E-06,0.020
-2.790E-06,0.040
-2.780E-06,0.040
-2.770E-06,0.040
-2.760E-06,0.040
-2.750E-06,0.020
-2.740E-06,0.040
-2.730E-06,0.040
-2.720E-06,0.060
-2.710E-06,0.040
-2.700E-06,0.040
-2.690E-06,0.060
-2.680E-06,0.060
-2.670E-06,0.040
-2.660E-06,0.080
-2.650E-06,0.020
-2.640E-06,0.060
-2.630E-06,0.060
-2.620E-06,0.060
-2.610E-06,0.040
-2.600E-06,0.060
-2.590E-06,0.060
-2.580E-06,0.080
-2.570E-06,0.060
-2.560E-06,0.080
-2.550E-06,0.080
-2.540E-06,0.020
-2.530E-06,0.020
-2.520E-06,0.060
-2.510E-06,0.060
-2.500E-06,0.060
-2.490E-06,0.040
-2.480E-06,0.040
-2.470E-06,0.100
-2.460E-06,0.060
-2.450E-06,0.020
-2.440E-06,0.020
-2.430E-06,0.060
-2.420E-06,0.040
-2.410E-06,0.040
-2.400E-06,0.040
-2.390E-06,0.040
-2.380E-06,0.080
-2.370E-06,0.040
-2.360E-06,0.060
-2.350E-06,0.060
-2.340E-06,0.040
-2.330E-06,0.060
-2.320E-06,0.080
-2.310E-06,0.080
-2.300E-06,0.040
-2.290E-06,0.080
-2.280E-06,0.040
-2.270E-06,0.020
-2.260E-06,0.060
-2.250E-06,0.060
-2.240E-06,0.080
-2.230E-06,0.040
-2.220E-06,0.060
-2.210E-06,0.080
-2.200E-06,0.040
-2.190E-06,0.000
-2.180E-06,0.060
-2.170E-06,0.180
-2.160E-06,0.620
-2.150E-06,1.360
-2.140E-06,2.140
-2.130E-06,2.760
-2.120E-06,2.660
-2.110E-06,2.000
-2.100E-06,0.680
-2.090E-06,-0.840
-2.080E-06,-2.060
-2.070E-06,-2.660
-2.060E-06,-2.640
-2.050E-06,-2.660
-2.040E-06,-2.600
-2.030E-06,-2.480
-2.020E-06,-2.400
-2.010E-06,-2.060
-2.000E-06,-1.480
-1.990E-06,-0.760
-1.980E-06,0.020
-1.970E-06,0.540
-1.960E-06,0.740
-1.950E-06,0.780
-1.940E-06,0.600
-1.930E-06,0.560
-1.920E-06,0.640
-1.910E-06,0.760
-1.900E-06,0.880
-1.890E-06,0.900
-1.880E-06,0.860
-1.870E-06,0.780
-1.860E-06,0.780
-1.850E-06,0.760
-1.840E-06,0.740
-1.830E-06,0.720
-1.820E-06,0.500
-1.810E-06,0.240
-1.800E-06,-0.020
-1.790E-06,-0.220
-1.780E-06,-0.360
-1.770E-06,-0.320
-1.760E-06,-0.240
-1.750E-06,-0.240
-1.740E-06,-0.040
-1.730E-06,0.120
-1.720E-06,0.360
-1.710E-06,0.620
-1.700E-06,0.880
-1.690E-06,0.980
-1.680E-06,1.000
-1.670E-06,1.020
-1.660E-06,0.920
-1.650E-06,0.820
-1.640E-06,0.640
-1.630E-06,0.380
-1.620E-06,0.060
-1.610E-06,-0.220
-1.600E-06,-0.540
-1.590E-06,-0.800
-1.580E-06,-1.000
-1.570E-06,-1.180
-1.560E-06,-1.400
-1.550E-06,-1.520
-1.540E-06,-1.620
-1.530E-06,-1.560
-1.520E-06,-1.420
-1.510E-06,-1.120
-1.500E-06,-0.760
-1.490E-06,-0.380
-1.480E-06,-0.020
-1.470E-06,0.240
-1.460E-06,0.480
-1.450E-06,0.700
-1.440E-06,0.920
-1.430E-06,1.020
-1.420E-06,1.020
-1.410E-06,0.980
-1.400E-06,0.840
-1.390E-06,0.700
-1.380E-06,0.520
-1.370E-06,0.300
-1.360E-06,0.100
-1.350E-06,-0.040
-1.340E-06,0.000
-1.330E-06,-0.020
-1.320E-06,0.000
-1.310E-06,-0.060
-1.300E-06,-0.220
-1.290E-06,-0.280
-1.280E-06,-0.320
-1.270E-06,-0.300
-1.260E-06,-0.240
-1.250E-06,-0.200
-1.240E-06,-0.180
-1.230E-06,-0.220
-1.220E-06,-0.180
-1.210E-06,-0.080
-1.200E-06,0.060
-1.190E-06,0.220
-1.180E-06,0.360
-1.170E-06,0.440
-1.160E-06,0.420
-1.150E-06,0.380
-1.140E-06,0.380
-1.130E-06,0.240
-1.120E-06,0.200
-1.110E-06,0.180
-1.100E-06,0.100
-1.090E-06,0.060
-1.080E-06,0.000
-1.070E-06,-0.080
-1.060E-06,-0.180
-1.050E-06,-0.160
-1.040E-06,-0.120
-1.030E-06,-0.040
-1.020E-06,0.020
-1.010E-06,0.080
-1.000E-06,0.020
-9.900E-07,0.000
-9.800E-07,0.000
-9.700E-07,0.000
-9.600E-07,0.060
-9.500E-07,0.060
-9.400E-07,0.020
-9.300E-07,0.000
-9.200E-07,-0.020
-9.100E-07,-0.040
-9.000E-07,-0.020
-8.900E-07,0.000
-8.800E-07,0.020
-8.700E-07,0.100
-8.600E-07,0.260
-8.500E-07,0.500
-8.400E-07,0.320
-8.300E-07,0.140
-8.200E-07,0.080
-8.100E-07,0.120
-8.000E-07,0.060
-7.900E-07,0.540
-7.800E-07,0.700
-7.700E-07,0.500
-7.600E-07,0.240
-7.500E-07,0.100
-7.400E-07,0.060
-7.300E-07,0.080
-7.200E-07,0.260
-7.100E-07,0.460
-7.000E-07,0.320
-6.900E-07,0.140
-6.800E-07,0.040
-6.700E-07,0.020
-6.600E-07,0.100
-6.500E-07,0.220
-6.400E-07,0.340
-6.300E-07,0.340
-6.200E-07,0.200
-6.100E-07,0.120
-6.000E-07,0.060
-5.900E-07,0.040
-5.800E-07,0.120
-5.700E-07,0.140
-5.600E-07,0.180
-5.500E-07,0.120
-5.400E-07,0.040
-5.300E-07,-0.020
-5.200E-07,-0.060
-5.100E-07,-0.040
-5.000E-07,-0.080
-4.900E-07,0.000
-4.800E-07,-0.020
-4.700E-07,-0.120
-4.600E-07,-0.180
-4.500E-07,-0.240
-4.400E-07,-0.260
-4.300E-07,-0.360
-4.200E-07,-0.580
-4.100E-07,-0.980
-4.000E-07,-1.460
-3.900E-07,-1.780
-3.800E-07,-1.780
-3.700E-07,-1.280
-3.600E-07,-0.500
-3.500E-07,0.380
-3.400E-07,1.160
-3.300E-07,1.560
-3.200E-07,1.520
-3.100E-07,1.260
-3.000E-07,1.240
-2.900E-07,1.140
-2.800E-07,1.420
-2.700E-07,1.940
-2.600E-07,1.760
-2.500E-07,1.600
-2.400E-07,1.220
-2.300E-07,0.700
-2.200E-07,0.420
-2.100E-07,0.860
-2.000E-07,0.440
-1.900E-07,0.580
-1.800E-07,0.320
-1.700E-07,0.220
-1.600E-07,0.000
-1.500E-07,0.080
-1.400E-07,-0.120
-1.300E-07,0.060
-1.200E-07,-0.160
-1.100E-07,-0.280
-1.000E-07,-0.420
-9.000E-08,-0.480
-8.000E-08,-0.340
-7.000E-08,-0.100
-6.000E-08,-0.140
-5.000E-08,0.100
-4.000E-08,0.160
-3.000E-08,-1.480
-2.000E-08,-1.040
-1.000E-08,-1.500
0.000E+00,-1.560
1.000E-08,-0.360
2.000E-08,0.220
3.000E-08,0.380
4.000E-08,0.180
5.000E-08,-0.340
6.000E-08,-0.460
7.000E-08,-0.340
8.000E-08,0.140
9.000E-08,0.580
1.000E-07,0.760
1.100E-07,0.740
1.200E-07,0.540
1.300E-07,0.320
1.400E-07,0.100
1.500E-07,0.000
1.600E-07,0.240
1.700E-07,0.660
1.800E-07,0.920
1.900E-07,0.900
2.000E-07,0.400
2.100E-07,0.000
2.200E-07,0.060
2.300E-07,0.320
2.400E-07,0.820
2.500E-07,1.240
2.600E-07,1.200
2.700E-07,0.720
2.800E-07,0.340
2.900E-07,0.040
3.000E-07,0.160
3.100E-07,0.560
3.200E-07,0.880
3.300E-07,0.960
3.400E-07,0.760
3.500E-07,0.420
3.600E-07,-0.020
3.700E-07,-0.160
3.800E-07,-0.260
3.900E-07,-0.340
4.000E-07,-0.140
4.100E-07,-0.360
4.200E-07,-0.940
4.300E-07,-1.080
4.400E-07,-1.640
4.500E-07,-1.600
4.600E-07,-1.000
4.700E-07,-0.340
4.800E-07,0.260
4.900E-07,0.420
5.000E-07,0.240
5.100E-07,0.180
5.200E-07,0.180
5.300E-07,0.440
5.400E-07,0.900
5.500E-07,1.220
5.600E-07,1.340
5.700E-07,1.220
5.800E-07,0.980
5.900E-07,0.740
6.000E-07,0.520
6.100E-07,0.380
6.200E-07,0.340
6.300E-07,0.200
6.400E-07,0.000
6.500E-07,-0.260
6.600E-07,-0.540
6.700E-07,-0.740
6.800E-07,-0.740
6.900E-07,-0.640
7.000E-07,-0.540
7.100E-07,-0.680
7.200E-07,-0.920
7.300E-07,-1.420
7.400E-07,-1.740
7.500E-07,-1.660
7.600E-07,-1.140
7.700E-07,-0.320
7.800E-07,0.440
7.900E-07,0.840
8.000E-07,0.840
8.100E-07,0.600
8.200E-07,0.500
8.300E-07,0.680
8.400E-07,0.960
8.500E-07,1.240
8.600E-07,1.320
8.700E-07,1.140
8.800E-07,0.900
8.900E-07,0.720
9.000E-07,0.660
9.100E-07,0.720
9.200E-07,0.780
9.300E-07,0.700
9.400E-07,0.500
9.500E-07,0.260
9.600E-07,0.060
9.700E-07,-0.040
9.800E-07,-0.080
9.900E-07,0.000
1.000E-06,0.000
1.010E-06,-0.020
1.020E-06,-0.140
1.030E-06,-0.260
1.040E-06,-0.360
1.050E-06,-0.360
1.060E-06,-0.360
1.070E-06,-0.320
1.080E-06,-0.280
1.090E-06,-0.360
1.100E-06,-0.440
1.110E-06,-0.480
1.120E-06,-0.520
1.130E-06,-0.500
1.140E-06,-0.460
1.150E-06,-0.500
1.160E-06,-0.640
1.170E-06,-0.860
1.180E-06,-1.340
1.190E-06,-1.700
1.200E-06,-2.040
1.210E-06,-2.420
1.220E-06,-2.260
1.230E-06,-1.800
1.240E-06,-1.000
1.250E-06,-0.180
1.260E-06,0.420
1.270E-06,0.560
1.280E-06,0.620
1.290E-06,0.660
1.300E-06,1.100
1.310E-06,1.760
1.320E-06,2.360
1.330E-06,2.760
1.340E-06,2.780
1.350E-06,2.760
1.360E-06,2.760
1.370E-06,2.540
1.380E-06,2.240
1.390E-06,2.080
1.400E-06,1.820
1.410E-06,1.520
1.420E-06,1.180
1.430E-06,0.840
1.440E-06,0.340
1.450E-06,-0.100
1.460E-06,-0.500
1.470E-06,-0.960
1.480E-06,-1.400
1.490E-06,-1.780
1.500E-06,-2.060
1.510E-06,-2.040
1.520E-06,-1.820
1.530E-06,-1.200
1.540E-06,-0.560
1.550E-06,-0.100
1.560E-06,0.160
1.570E-06,0.220
1.580E-06,0.120
1.590E-06,0.000
1.600E-06,-0.020
1.610E-06,-0.080
1.620E-06,-0.160
1.630E-06,-0.320
1.640E-06,-0.580
1.650E-06,-0.840
1.660E-06,-1.080
1.670E-06,-1.300
1.680E-06,-1.400
1.690E-06,-1.620
1.700E-06,-1.860
1.710E-06,-1.900
1.720E-06,-1.680
1.730E-06,-1.700
1.740E-06,-1.320
1.750E-06,-0.900
1.760E-06,-0.860
1.770E-06,-0.220
1.780E-06,-0.020
1.790E-06,0.280
1.800E-06,0.740
1.810E-06,0.840
1.820E-06,1.080
1.830E-06,1.260
1.840E-06,1.500
1.850E-06,2.280
1.860E-06,2.760
1.870E-06,2.740
1.880E-06,2.760
1.890E-06,2.760
1.900E-06,2.760
1.910E-06,2.760
1.920E-06,2.740
1.930E-06,2.760
1.940E-06,2.660
1.950E-06,1.820
1.960E-06,1.100
1.970E-06,0.460
1.980E-06,-0.140
1.990E-06,-0.500
2.000E-06,-0.960
2.010E-06,-1.280
2.020E-06,-2.660
2.030E-06,-2.660
2.040E-06,-2.660
2.050E-06,-2.660
2.060E-06,-2.660
2.070E-06,-2.660
2.080E-06,-2.680
2.090E-06,-1.860
2.100E-06,2.340
2.110E-06,2.760
2.120E-06,2.760
2.130E-06,2.780
2.140E-06,2.780
2.150E-06,2.760
2.160E-06,2.760
2.170E-06,2.760
2.180E-06,2.740
2.190E-06,2.760
2.200E-06,2.460
2.210E-06,1.000
2.220E-06,0.100
2.230E-06,-0.520
2.240E-06,-0.960
2.250E-06,-1.240
2.260E-06,-1.280
2.270E-06,-0.680
2.280E-06,0.480
2.290E-06,1.880
2.300E-06,2.780
2.310E-06,2.760
2.320E-06,2.760
2.330E-06,2.740
2.340E-06,2.760
2.350E-06,2.760
2.360E-06,2.760
2.370E-06,2.780
2.380E-06,2.780
2.390E-06,2.640
2.400E-06,2.080
2.410E-06,1.660
2.420E-06,1.440
2.430E-06,1.120
2.440E-06,0.640
2.450E-06,0.180
2.460E-06,-0.400
2.470E-06,-1.000
2.480E-06,-1.660
2.490E-06,-2.160
2.500E-06,-2.640
2.510E-06,-2.640
2.520E-06,-2.660
2.530E-06,-2.660
2.540E-06,-2.680
2.550E-06,-2.660
2.560E-06,-1.920
2.570E-06,-0.040
2.580E-06,2.120
2.590E-06,2.780
2.600E-06,2.760
2.610E-06,2.780
2.620E-06,2.760
2.630E-06,2.780
2.640E-06,2.760
2.650E-06,2.780
2.660E-06,2.760
2.670E-06,2.760
2.680E-06,2.760
2.690E-06,2.760
2.700E-06,2.780
2.710E-06,2.780
2.720E-06,2.760
2.730E-06,2.320
2.740E-06,1.460
2.750E-06,0.760
2.760E-06,0.380
2.770E-06,0.180
2.780E-06,0.100
2.790E-06,0.120
2.800E-06,0.260
2.810E-06,0.540
2.820E-06,0.760
2.830E-06,1.080
2.840E-06,1.320
2.850E-06,1.420
2.860E-06,1.280
2.870E-06,0.980
2.880E-06,0.480
2.890E-06,0.000
2.900E-06,-0.500
2.910E-06,-0.820
2.920E-06,-1.120
2.930E-06,-1.360
2.940E-06,-1.620
2.950E-06,-1.860
2.960E-06,-2.040
2.970E-06,-2.080
2.980E-06,-1.920
2.990E-06,-1.580
3.000E-06,-1.220
3.010E-06,-0.800
3.020E-06,-0.420
3.030E-06,-0.080
3.040E-06,0.240
3.050E-06,0.580
3.060E-06,0.900
3.070E-06,1.240
3.080E-06,1.440
3.090E-06,1.600
3.100E-06,1.620
3.110E-06,1.560
3.120E-06,1.420
3.130E-06,1.180
3.140E-06,1.040
3.150E-06,0.960
3.160E-06,0.920
3.170E-06,1.000
3.180E-06,1.160
3.190E-06,1.400
3.200E-06,1.680
3.210E-06,1.880
3.220E-06,1.940
3.230E-06,1.920
3.240E-06,1.780
3.250E-06,1.560
3.260E-06,1.320
3.270E-06,1.040
3.280E-06,0.780
3.290E-06,0.520
3.300E-06,0.260
3.310E-06,0.060
3.320E-06,-0.080
3.330E-06,-0.120
3.340E-06,-0.100
3.350E-06,0.020
3.360E-06,0.160
3.370E-06,0.360
3.380E-06,0.540
3.390E-06,0.720
3.400E-06,0.860
3.410E-06,0.920
3.420E-06,0.880
3.430E-06,0.820
3.440E-06,0.700
3.450E-06,0.540
3.460E-06,0.480
3.470E-06,0.360
3.480E-06,0.280
3.490E-06,0.220
3.500E-06,0.140
3.510E-06,0.140
3.520E-06,0.140
3.530E-06,0.140
3.540E-06,0.160
3.550E-06,0.180
3.560E-06,0.200
3.570E-06,0.220
3.580E-06,0.240
3.590E-06,0.220
3.600E-06,0.260
3.610E-06,0.220
3.620E-06,0.220
3.630E-06,0.220
3.640E-06,0.160
3.650E-06,0.160
3.660E-06,0.140
