mediciones/5-15/60/WaveData47240.csv

#timebase=2000000(ps)
,#voltbase=1000000(mv/100)
#size=4000
-8.400E-06,-0.080
-8.390E-06,-0.080
-8.380E-06,-0.080
-8.370E-06,-0.120
-8.360E-06,-0.080
-8.350E-06,-0.120
-8.340E-06,-0.080
-8.330E-06,-0.080
-8.320E-06,-0.080
-8.310E-06,-0.120
-8.300E-06,-0.040
-8.290E-06,0.000
-8.280E-06,0.000
-8.270E-06,0.000
-8.260E-06,0.040
-8.250E-06,0.040
-8.240E-06,0.040
-8.230E-06,0.080
-8.220E-06,0.040
-8.210E-06,0.080
-8.200E-06,0.080
-8.190E-06,0.080
-8.180E-06,0.040
-8.170E-06,0.080
-8.160E-06,0.080
-8.150E-06,0.080
-8.140E-06,0.080
-8.130E-06,-0.040
-8.120E-06,-0.040
-8.110E-06,0.000
-8.100E-06,-0.040
-8.090E-06,-0.040
-8.080E-06,-0.040
-8.070E-06,-0.080
-8.060E-06,-0.120
-8.050E-06,-0.160
-8.040E-06,-0.160
-8.030E-06,-0.160
-8.020E-06,-0.080
-8.010E-06,-0.080
-8.000E-06,-0.120
-7.990E-06,-0.080
-7.980E-06,-0.080
-7.970E-06,-0.080
-7.960E-06,-0.080
-7.950E-06,-0.080
-7.940E-06,-0.040
-7.930E-06,0.000
-7.920E-06,-0.040
-7.910E-06,-0.040
-7.900E-06,0.000
-7.890E-06,0.000
-7.880E-06,0.040
-7.870E-06,0.000
-7.860E-06,0.080
-7.850E-06,0.000
-7.840E-06,0.080
-7.830E-06,0.080
-7.820E-06,0.080
-7.810E-06,0.080
-7.800E-06,0.040
-7.790E-06,0.080
-7.780E-06,0.120
-7.770E-06,0.000
-7.760E-06,0.000
-7.750E-06,-0.040
-7.740E-06,-0.040
-7.730E-06,-0.080
-7.720E-06,-0.080
-7.710E-06,-0.080
-7.700E-06,-0.080
-7.690E-06,-0.080
-7.680E-06,-0.120
-7.670E-06,-0.120
-7.660E-06,-0.160
-7.650E-06,-0.080
-7.640E-06,-0.120
-7.630E-06,-0.160
-7.620E-06,-0.120
-7.610E-06,-0.160
-7.600E-06,-0.160
-7.590E-06,-0.160
-7.580E-06,-0.120
-7.570E-06,-0.120
-7.560E-06,-0.040
-7.550E-06,-0.040
-7.540E-06,-0.080
-7.530E-06,-0.080
-7.520E-06,-0.120
-7.510E-06,-0.080
-7.500E-06,-0.080
-7.490E-06,-0.120
-7.480E-06,-0.080
-7.470E-06,0.000
-7.460E-06,-0.040
-7.450E-06,0.000
-7.440E-06,0.000
-7.430E-06,0.000
-7.420E-06,0.000
-7.410E-06,0.000
-7.400E-06,0.000
-7.390E-06,0.000
-7.380E-06,0.040
-7.370E-06,0.040
-7.360E-06,0.080
-7.350E-06,0.040
-7.340E-06,0.040
-7.330E-06,0.080
-7.320E-06,0.000
-7.310E-06,0.000
-7.300E-06,0.040
-7.290E-06,0.040
-7.280E-06,0.000
-7.270E-06,0.000
-7.260E-06,0.000
-7.250E-06,0.000
-7.240E-06,0.000
-7.230E-06,0.000
-7.220E-06,0.000
-7.210E-06,0.000
-7.200E-06,0.000
-7.190E-06,-0.040
-7.180E-06,0.000
-7.170E-06,0.000
-7.160E-06,-0.040
-7.150E-06,-0.040
-7.140E-06,-0.080
-7.130E-06,0.000
-7.120E-06,-0.080
-7.110E-06,-0.080
-7.100E-06,-0.080
-7.090E-06,-0.080
-7.080E-06,-0.120
-7.070E-06,-0.120
-7.060E-06,-0.160
-7.050E-06,-0.120
-7.040E-06,-0.120
-7.030E-06,-0.160
-7.020E-06,-0.120
-7.010E-06,-0.120
-7.000E-06,-0.120
-6.990E-06,-0.160
-6.980E-06,-0.120
-6.970E-06,-0.120
-6.960E-06,-0.160
-6.950E-06,-0.120
-6.940E-06,-0.120
-6.930E-06,-0.120
-6.920E-06,-0.160
-6.910E-06,-0.120
-6.900E-06,-0.120
-6.890E-06,-0.160
-6.880E-06,-0.160
-6.870E-06,-0.200
-6.860E-06,-0.160
-6.850E-06,-0.200
-6.840E-06,-0.280
-6.830E-06,-0.320
-6.820E-06,-0.400
-6.810E-06,-0.440
-6.800E-06,-0.360
-6.790E-06,-0.400
-6.780E-06,-0.280
-6.770E-06,-0.480
-6.760E-06,-0.400
-6.750E-06,-0.520
-6.740E-06,-0.560
-6.730E-06,-0.520
-6.720E-06,-0.440
-6.710E-06,-0.320
-6.700E-06,-0.360
-6.690E-06,-0.400
-6.680E-06,-0.360
-6.670E-06,-0.360
-6.660E-06,-0.280
-6.650E-06,-0.160
-6.640E-06,-0.160
-6.630E-06,-0.200
-6.620E-06,-0.200
-6.610E-06,-0.160
-6.600E-06,-0.080
-6.590E-06,-0.040
-6.580E-06,-0.040
-6.570E-06,-0.040
-6.560E-06,-0.040
-6.550E-06,-0.120
-6.540E-06,-0.120
-6.530E-06,-0.120
-6.520E-06,0.000
-6.510E-06,0.000
-6.500E-06,-0.040
-6.490E-06,-0.080
-6.480E-06,-0.040
-6.470E-06,-0.040
-6.460E-06,0.040
-6.450E-06,0.040
-6.440E-06,0.000
-6.430E-06,0.000
-6.420E-06,-0.080
-6.410E-06,-0.080
-6.400E-06,-0.080
-6.390E-06,-0.120
-6.380E-06,-0.200
-6.370E-06,-0.280
-6.360E-06,-0.360
-6.350E-06,-0.320
-6.340E-06,-0.320
-6.330E-06,-0.200
-6.320E-06,-0.240
-6.310E-06,-0.280
-6.300E-06,-0.320
-6.290E-06,-0.360
-6.280E-06,-0.400
-6.270E-06,-0.360
-6.260E-06,-0.360
-6.250E-06,-0.320
-6.240E-06,-0.400
-6.230E-06,-0.440
-6.220E-06,-0.480
-6.210E-06,-0.400
-6.200E-06,-0.480
-6.190E-06,-0.280
-6.180E-06,-0.360
-6.170E-06,-0.240
-6.160E-06,-0.320
-6.150E-06,-0.400
-6.140E-06,-0.360
-6.130E-06,-0.320
-6.120E-06,-0.360
-6.110E-06,-0.280
-6.100E-06,-0.320
-6.090E-06,-0.360
-6.080E-06,-0.320
-6.070E-06,-0.360
-6.060E-06,-0.200
-6.050E-06,-0.120
-6.040E-06,-0.160
-6.030E-06,-0.160
-6.020E-06,-0.160
-6.010E-06,-0.120
-6.000E-06,-0.040
-5.990E-06,0.000
-5.980E-06,0.040
-5.970E-06,0.040
-5.960E-06,0.040
-5.950E-06,0.040
-5.940E-06,-0.040
-5.930E-06,0.000
-5.920E-06,0.000
-5.910E-06,0.000
-5.900E-06,0.000
-5.890E-06,-0.040
-5.880E-06,-0.040
-5.870E-06,-0.040
-5.860E-06,0.000
-5.850E-06,0.000
-5.840E-06,0.000
-5.830E-06,0.000
-5.820E-06,-0.040
-5.810E-06,-0.080
-5.800E-06,-0.080
-5.790E-06,-0.120
-5.780E-06,-0.160
-5.770E-06,-0.200
-5.760E-06,-0.120
-5.750E-06,-0.200
-5.740E-06,-0.200
-5.730E-06,-0.200
-5.720E-06,-0.200
-5.710E-06,-0.200
-5.700E-06,-0.200
-5.690E-06,-0.200
-5.680E-06,-0.240
-5.670E-06,-0.200
-5.660E-06,-0.200
-5.650E-06,-0.200
-5.640E-06,-0.200
-5.630E-06,-0.200
-5.620E-06,-0.280
-5.610E-06,-0.280
-5.600E-06,-0.320
-5.590E-06,-0.240
-5.580E-06,-0.240
-5.570E-06,-0.200
-5.560E-06,-0.160
-5.550E-06,-0.080
-5.540E-06,-0.200
-5.530E-06,-0.240
-5.520E-06,-0.320
-5.510E-06,-0.320
-5.500E-06,-0.360
-5.490E-06,-0.320
-5.480E-06,-0.400
-5.470E-06,-0.440
-5.460E-06,-0.440
-5.450E-06,-0.440
-5.440E-06,-0.480
-5.430E-06,-0.440
-5.420E-06,-0.360
-5.410E-06,-0.440
-5.400E-06,-0.360
-5.390E-06,-0.560
-5.380E-06,-0.640
-5.370E-06,-0.560
-5.360E-06,-0.520
-5.350E-06,-0.440
-5.340E-06,-0.400
-5.330E-06,-0.560
-5.320E-06,-0.480
-5.310E-06,-0.480
-5.300E-06,-0.400
-5.290E-06,-0.360
-5.280E-06,-0.280
-5.270E-06,-0.240
-5.260E-06,-0.280
-5.250E-06,-0.200
-5.240E-06,-0.120
-5.230E-06,-0.040
-5.220E-06,0.000
-5.210E-06,-0.080
-5.200E-06,0.040
-5.190E-06,0.040
-5.180E-06,0.000
-5.170E-06,0.000
-5.160E-06,0.000
-5.150E-06,0.040
-5.140E-06,0.040
-5.130E-06,0.080
-5.120E-06,-0.040
-5.110E-06,0.000
-5.100E-06,0.040
-5.090E-06,0.040
-5.080E-06,0.040
-5.070E-06,0.040
-5.060E-06,0.040
-5.050E-06,0.000
-5.040E-06,-0.080
-5.030E-06,-0.080
-5.020E-06,-0.160
-5.010E-06,-0.200
-5.000E-06,-0.320
-4.990E-06,-0.360
-4.980E-06,-0.320
-4.970E-06,-0.360
-4.960E-06,-0.360
-4.950E-06,-0.400
-4.940E-06,-0.320
-4.930E-06,-0.360
-4.920E-06,-0.320
-4.910E-06,-0.280
-4.900E-06,-0.360
-4.890E-06,-0.280
-4.880E-06,-0.320
-4.870E-06,-0.240
-4.860E-06,-0.280
-4.850E-06,-0.320
-4.840E-06,-0.320
-4.830E-06,-0.320
-4.820E-06,-0.400
-4.810E-06,-0.360
-4.800E-06,-0.440
-4.790E-06,-0.440
-4.780E-06,-0.520
-4.770E-06,-0.440
-4.760E-06,-0.320
-4.750E-06,-0.480
-4.740E-06,-0.400
-4.730E-06,-0.560
-4.720E-06,-0.560
-4.710E-06,-0.560
-4.700E-06,-0.520
-4.690E-06,-0.520
-4.680E-06,-0.520
-4.670E-06,-0.520
-4.660E-06,-0.560
-4.650E-06,-0.480
-4.640E-06,-0.400
-4.630E-06,-0.400
-4.620E-06,-0.360
-4.610E-06,-0.320
-4.600E-06,-0.240
-4.590E-06,-0.240
-4.580E-06,-0.200
-4.570E-06,-0.160
-4.560E-06,-0.120
-4.550E-06,0.000
-4.540E-06,0.000
-4.530E-06,0.000
-4.520E-06,-0.040
-4.510E-06,0.000
-4.500E-06,0.080
-4.490E-06,0.080
-4.480E-06,0.040
-4.470E-06,0.080
-4.460E-06,0.120
-4.450E-06,0.040
-4.440E-06,0.080
-4.430E-06,0.080
-4.420E-06,0.080
-4.410E-06,0.040
-4.400E-06,0.000
-4.390E-06,0.040
-4.380E-06,-0.040
-4.370E-06,0.000
-4.360E-06,0.000
-4.350E-06,-0.120
-4.340E-06,-0.240
-4.330E-06,-0.280
-4.320E-06,-0.280
-4.310E-06,-0.320
-4.300E-06,-0.360
-4.290E-06,-0.360
-4.280E-06,-0.320
-4.270E-06,-0.360
-4.260E-06,-0.320
-4.250E-06,-0.360
-4.240E-06,-0.320
-4.230E-06,-0.360
-4.220E-06,-0.320
-4.210E-06,-0.400
-4.200E-06,-0.360
-4.190E-06,-0.400
-4.180E-06,-0.320
-4.170E-06,-0.320
-4.160E-06,-0.280
-4.150E-06,-0.360
-4.140E-06,-0.320
-4.130E-06,-0.360
-4.120E-06,-0.400
-4.110E-06,-0.440
-4.100E-06,-0.520
-4.090E-06,-0.680
-4.080E-06,-0.720
-4.070E-06,-0.720
-4.060E-06,-0.760
-4.050E-06,-0.680
-4.040E-06,-0.640
-4.030E-06,-0.480
-4.020E-06,-0.640
-4.010E-06,-0.680
-4.000E-06,-0.680
-3.990E-06,-0.800
-3.980E-06,-0.600
-3.970E-06,-0.480
-3.960E-06,-0.520
-3.950E-06,-0.400
-3.940E-06,-0.600
-3.930E-06,-0.640
-3.920E-06,-0.560
-3.910E-06,-0.600
-3.900E-06,-0.520
-3.890E-06,-0.480
-3.880E-06,-0.560
-3.870E-06,-0.480
-3.860E-06,-0.480
-3.850E-06,-0.400
-3.840E-06,-0.280
-3.830E-06,-0.280
-3.820E-06,-0.200
-3.810E-06,-0.200
-3.800E-06,-0.200
-3.790E-06,-0.120
-3.780E-06,-0.040
-3.770E-06,0.000
-3.760E-06,0.040
-3.750E-06,0.080
-3.740E-06,0.040
-3.730E-06,0.120
-3.720E-06,0.200
-3.710E-06,0.200
-3.700E-06,0.200
-3.690E-06,0.240
-3.680E-06,0.160
-3.670E-06,0.120
-3.660E-06,0.120
-3.650E-06,0.120
-3.640E-06,0.040
-3.630E-06,0.000
-3.620E-06,-0.040
-3.610E-06,-0.080
-3.600E-06,-0.200
-3.590E-06,-0.200
-3.580E-06,-0.240
-3.570E-06,-0.280
-3.560E-06,-0.280
-3.550E-06,-0.280
-3.540E-06,-0.320
-3.530E-06,-0.320
-3.520E-06,-0.320
-3.510E-06,-0.320
-3.500E-06,-0.280
-3.490E-06,-0.240
-3.480E-06,-0.200
-3.470E-06,-0.200
-3.460E-06,-0.200
-3.450E-06,-0.160
-3.440E-06,-0.160
-3.430E-06,-0.120
-3.420E-06,-0.160
-3.410E-06,-0.080
-3.400E-06,-0.080
-3.390E-06,-0.040
-3.380E-06,0.040
-3.370E-06,0.040
-3.360E-06,0.120
-3.350E-06,-0.040
-3.340E-06,0.000
-3.330E-06,0.000
-3.320E-06,0.000
-3.310E-06,0.000
-3.300E-06,-0.080
-3.290E-06,-0.360
-3.280E-06,-0.480
-3.270E-06,-0.480
-3.260E-06,-0.480
-3.250E-06,-0.400
-3.240E-06,-0.440
-3.230E-06,-0.520
-3.220E-06,-0.520
-3.210E-06,-0.480
-3.200E-06,-0.440
-3.190E-06,-0.400
-3.180E-06,-0.320
-3.170E-06,-0.320
-3.160E-06,-0.360
-3.150E-06,-0.320
-3.140E-06,-0.240
-3.130E-06,-0.160
-3.120E-06,-0.040
-3.110E-06,-0.040
-3.100E-06,0.040
-3.090E-06,0.040
-3.080E-06,0.000
-3.070E-06,0.080
-3.060E-06,0.160
-3.050E-06,0.240
-3.040E-06,0.160
-3.030E-06,0.080
-3.020E-06,0.120
-3.010E-06,0.080
-3.000E-06,0.080
-2.990E-06,0.160
-2.980E-06,0.080
-2.970E-06,0.080
-2.960E-06,0.000
-2.950E-06,0.000
-2.940E-06,0.000
-2.930E-06,0.000
-2.920E-06,-0.040
-2.910E-06,-0.080
-2.900E-06,-0.200
-2.890E-06,-0.160
-2.880E-06,-0.160
-2.870E-06,-0.240
-2.860E-06,-0.240
-2.850E-06,-0.240
-2.840E-06,-0.280
-2.830E-06,-0.280
-2.820E-06,-0.240
-2.810E-06,-0.240
-2.800E-06,-0.280
-2.790E-06,-0.240
-2.780E-06,-0.080
-2.770E-06,-0.080
-2.760E-06,0.080
-2.750E-06,0.120
-2.740E-06,0.000
-2.730E-06,-0.080
-2.720E-06,-0.200
-2.710E-06,-0.280
-2.700E-06,-0.280
-2.690E-06,-0.280
-2.680E-06,-0.360
-2.670E-06,-0.400
-2.660E-06,-0.480
-2.650E-06,-0.400
-2.640E-06,-0.440
-2.630E-06,-0.360
-2.620E-06,-0.360
-2.610E-06,-0.320
-2.600E-06,-0.200
-2.590E-06,-0.280
-2.580E-06,-0.280
-2.570E-06,-0.200
-2.560E-06,-0.120
-2.550E-06,-0.080
-2.540E-06,-0.040
-2.530E-06,-0.040
-2.520E-06,-0.040
-2.510E-06,-0.080
-2.500E-06,0.000
-2.490E-06,-0.040
-2.480E-06,0.000
-2.470E-06,-0.040
-2.460E-06,0.000
-2.450E-06,0.000
-2.440E-06,0.040
-2.430E-06,0.040
-2.420E-06,0.040
-2.410E-06,0.080
-2.400E-06,0.080
-2.390E-06,0.080
-2.380E-06,0.080
-2.370E-06,0.040
-2.360E-06,0.000
-2.350E-06,-0.040
-2.340E-06,-0.080
-2.330E-06,-0.160
-2.320E-06,-0.120
-2.310E-06,-0.160
-2.300E-06,-0.240
-2.290E-06,-0.200
-2.280E-06,-0.200
-2.270E-06,-0.200
-2.260E-06,-0.240
-2.250E-06,-0.160
-2.240E-06,-0.160
-2.230E-06,-0.160
-2.220E-06,-0.200
-2.210E-06,-0.160
-2.200E-06,-0.120
-2.190E-06,-0.160
-2.180E-06,-0.200
-2.170E-06,-0.120
-2.160E-06,-0.120
-2.150E-06,-0.200
-2.140E-06,-0.160
-2.130E-06,-0.160
-2.120E-06,-0.200
-2.110E-06,-0.200
-2.100E-06,-0.240
-2.090E-06,-0.200
-2.080E-06,-0.160
-2.070E-06,-0.200
-2.060E-06,-0.240
-2.050E-06,-0.240
-2.040E-06,-0.240
-2.030E-06,-0.200
-2.020E-06,-0.240
-2.010E-06,-0.320
-2.000E-06,-0.360
-1.990E-06,-0.320
-1.980E-06,-0.400
-1.970E-06,-0.400
-1.960E-06,-0.400
-1.950E-06,-0.400
-1.940E-06,-0.400
-1.930E-06,-0.400
-1.920E-06,-0.360
-1.910E-06,-0.360
-1.900E-06,-0.440
-1.890E-06,-0.480
-1.880E-06,-0.560
-1.870E-06,-0.640
-1.860E-06,-0.760
-1.850E-06,-0.840
-1.840E-06,-0.960
-1.830E-06,-1.000
-1.820E-06,-1.000
-1.810E-06,-1.080
-1.800E-06,-1.160
-1.790E-06,-1.040
-1.780E-06,-0.880
-1.770E-06,-0.600
-1.760E-06,-0.560
-1.750E-06,-0.520
-1.740E-06,-0.720
-1.730E-06,-1.040
-1.720E-06,-1.040
-1.710E-06,-1.000
-1.700E-06,-0.680
-1.690E-06,-0.720
-1.680E-06,-0.560
-1.670E-06,-0.840
-1.660E-06,-0.920
-1.650E-06,-0.840
-1.640E-06,-0.800
-1.630E-06,-0.400
-1.620E-06,-0.360
-1.610E-06,-0.360
-1.600E-06,-0.480
-1.590E-06,-0.440
-1.580E-06,-0.400
-1.570E-06,-0.040
-1.560E-06,-0.080
-1.550E-06,0.000
-1.540E-06,-0.240
-1.530E-06,-0.240
-1.520E-06,-0.280
-1.510E-06,-0.080
-1.500E-06,-0.080
-1.490E-06,-0.120
-1.480E-06,-0.320
-1.470E-06,-0.360
-1.460E-06,-0.240
-1.450E-06,-0.120
-1.440E-06,0.040
-1.430E-06,-0.080
-1.420E-06,-0.080
-1.410E-06,-0.120
-1.400E-06,-0.040
-1.390E-06,-0.040
-1.380E-06,-0.120
-1.370E-06,-0.200
-1.360E-06,-0.240
-1.350E-06,-0.440
-1.340E-06,-0.600
-1.330E-06,-0.680
-1.320E-06,-0.680
-1.310E-06,-0.640
-1.300E-06,-0.560
-1.290E-06,-0.440
-1.280E-06,-0.200
-1.270E-06,-0.040
-1.260E-06,0.200
-1.250E-06,0.240
-1.240E-06,0.240
-1.230E-06,0.000
-1.220E-06,-0.040
-1.210E-06,0.000
-1.200E-06,-0.040
-1.190E-06,-0.080
-1.180E-06,-0.120
-1.170E-06,-0.360
-1.160E-06,-0.360
-1.150E-06,-0.400
-1.140E-06,-0.480
-1.130E-06,-0.480
-1.120E-06,-0.520
-1.110E-06,-0.560
-1.100E-06,-0.560
-1.090E-06,-0.600
-1.080E-06,-0.640
-1.070E-06,-0.680
-1.060E-06,-0.680
-1.050E-06,-0.680
-1.040E-06,-0.640
-1.030E-06,-0.640
-1.020E-06,-0.640
-1.010E-06,-0.680
-1.000E-06,-0.680
-9.900E-07,-0.680
-9.800E-07,-0.680
-9.700E-07,-0.600
-9.600E-07,-0.520
-9.500E-07,-0.520
-9.400E-07,-0.440
-9.300E-07,-0.400
-9.200E-07,-0.360
-9.100E-07,-0.320
-9.000E-07,-0.320
-8.900E-07,-0.360
-8.800E-07,-0.520
-8.700E-07,-0.720
-8.600E-07,-0.880
-8.500E-07,-1.160
-8.400E-07,-1.320
-8.300E-07,-1.400
-8.200E-07,-1.160
-8.100E-07,-0.520
-8.000E-07,-0.600
-7.900E-07,-0.120
-7.800E-07,-0.680
-7.700E-07,-1.120
-7.600E-07,-1.080
-7.500E-07,-1.040
-7.400E-07,-0.760
-7.300E-07,-0.680
-7.200E-07,-1.040
-7.100E-07,-1.360
-7.000E-07,-1.560
-6.900E-07,-1.400
-6.800E-07,-1.200
-6.700E-07,-1.080
-6.600E-07,-0.840
-6.500E-07,-0.840
-6.400E-07,-0.120
-6.300E-07,0.160
-6.200E-07,0.560
-6.100E-07,0.680
-6.000E-07,0.600
-5.900E-07,0.560
-5.800E-07,0.640
-5.700E-07,0.520
-5.600E-07,0.520
-5.500E-07,0.360
-5.400E-07,0.040
-5.300E-07,-0.120
-5.200E-07,-0.160
-5.100E-07,-0.280
-5.000E-07,-0.360
-4.900E-07,-0.400
-4.800E-07,-0.480
-4.700E-07,-0.640
-4.600E-07,-0.640
-4.500E-07,-0.720
-4.400E-07,-0.720
-4.300E-07,-0.680
-4.200E-07,-0.680
-4.100E-07,-0.720
-4.000E-07,-0.800
-3.900E-07,-0.920
-3.800E-07,-1.120
-3.700E-07,-1.120
-3.600E-07,-1.080
-3.500E-07,-1.000
-3.400E-07,-0.800
-3.300E-07,-0.680
-3.200E-07,-0.560
-3.100E-07,-0.360
-3.000E-07,-0.280
-2.900E-07,-0.080
-2.800E-07,0.080
-2.700E-07,0.240
-2.600E-07,0.400
-2.500E-07,0.480
-2.400E-07,0.440
-2.300E-07,0.440
-2.200E-07,0.280
-2.100E-07,0.040
-2.000E-07,-0.080
-1.900E-07,-0.280
-1.800E-07,-0.440
-1.700E-07,-0.520
-1.600E-07,-0.600
-1.500E-07,-0.680
-1.400E-07,-0.800
-1.300E-07,-0.880
-1.200E-07,-1.040
-1.100E-07,-1.000
-1.000E-07,-1.120
-9.000E-08,-1.160
-8.000E-08,-1.120
-7.000E-08,-1.280
-6.000E-08,-0.960
-5.000E-08,-0.120
-4.000E-08,0.160
-3.000E-08,0.560
-2.000E-08,0.240
-1.000E-08,-0.400
0.000E+00,-0.480
1.000E-08,-0.520
2.000E-08,-0.240
3.000E-08,0.120
4.000E-08,-0.200
5.000E-08,-0.560
6.000E-08,-0.920
7.000E-08,-0.920
8.000E-08,-0.720
9.000E-08,-0.520
1.000E-07,-0.680
1.100E-07,-0.880
1.200E-07,-0.920
1.300E-07,-0.840
1.400E-07,-0.800
1.500E-07,-0.680
1.600E-07,-0.720
1.700E-07,-0.640
1.800E-07,-0.520
1.900E-07,-0.400
2.000E-07,-0.400
2.100E-07,-0.240
2.200E-07,-0.280
2.300E-07,-0.080
2.400E-07,-0.080
2.500E-07,0.120
2.600E-07,0.200
2.700E-07,0.200
2.800E-07,0.320
2.900E-07,0.240
3.000E-07,0.200
3.100E-07,0.160
3.200E-07,0.120
3.300E-07,0.120
3.400E-07,0.080
3.500E-07,-0.040
3.600E-07,-0.200
3.700E-07,-0.360
3.800E-07,-0.560
3.900E-07,-0.720
4.000E-07,-0.800
4.100E-07,-0.840
4.200E-07,-0.840
4.300E-07,-0.960
4.400E-07,-1.000
4.500E-07,-1.080
4.600E-07,-1.160
4.700E-07,-1.280
4.800E-07,-1.280
4.900E-07,-1.240
5.000E-07,-1.280
5.100E-07,-1.240
5.200E-07,-1.240
5.300E-07,-1.240
5.400E-07,-1.160
5.500E-07,-1.240
5.600E-07,-1.320
5.700E-07,-1.440
5.800E-07,-1.560
5.900E-07,-1.560
6.000E-07,-1.640
6.100E-07,-1.680
6.200E-07,-1.720
6.300E-07,-1.840
6.400E-07,-2.040
6.500E-07,-2.160
6.600E-07,-2.360
6.700E-07,-2.320
6.800E-07,-2.320
6.900E-07,-2.160
7.000E-07,-2.160
7.100E-07,-1.920
7.200E-07,-1.960
7.300E-07,-2.160
7.400E-07,-2.440
7.500E-07,-2.880
7.600E-07,-3.000
7.700E-07,-3.200
7.800E-07,-2.600
7.900E-07,-2.400
8.000E-07,-1.440
8.100E-07,-0.520
8.200E-07,-0.680
8.300E-07,-0.160
8.400E-07,-1.080
8.500E-07,-1.240
8.600E-07,-1.840
8.700E-07,-2.000
8.800E-07,-2.640
8.900E-07,-2.720
9.000E-07,-3.280
9.100E-07,-3.600
9.200E-07,-3.640
9.300E-07,-3.360
9.400E-07,-3.040
9.500E-07,-2.520
9.600E-07,-2.240
9.700E-07,-2.000
9.800E-07,-1.680
9.900E-07,-1.480
1.000E-06,-1.280
1.010E-06,-1.160
1.020E-06,-0.880
1.030E-06,-0.760
1.040E-06,-0.480
1.050E-06,-0.320
1.060E-06,-0.040
1.070E-06,0.080
1.080E-06,0.320
1.090E-06,0.360
1.100E-06,0.360
1.110E-06,0.440
1.120E-06,0.560
1.130E-06,0.680
1.140E-06,0.720
1.150E-06,0.720
1.160E-06,0.600
1.170E-06,0.560
1.180E-06,0.480
1.190E-06,0.320
1.200E-06,0.120
1.210E-06,-0.240
1.220E-06,-0.520
1.230E-06,-0.880
1.240E-06,-1.200
1.250E-06,-1.400
1.260E-06,-1.400
1.270E-06,-1.320
1.280E-06,-1.160
1.290E-06,-1.000
1.300E-06,-0.680
1.310E-06,-0.480
1.320E-06,-0.320
1.330E-06,-0.040
1.340E-06,0.080
1.350E-06,0.160
1.360E-06,0.280
1.370E-06,0.400
1.380E-06,0.560
1.390E-06,0.840
1.400E-06,0.960
1.410E-06,0.880
1.420E-06,0.840
1.430E-06,0.840
1.440E-06,0.680
1.450E-06,0.640
1.460E-06,0.320
1.470E-06,0.120
1.480E-06,-0.240
1.490E-06,-0.600
1.500E-06,-0.960
1.510E-06,-1.160
1.520E-06,-1.520
1.530E-06,-1.840
1.540E-06,-2.160
1.550E-06,-2.520
1.560E-06,-2.680
1.570E-06,-2.880
1.580E-06,-3.160
1.590E-06,-3.200
1.600E-06,-3.200
1.610E-06,-3.160
1.620E-06,-3.120
1.630E-06,-3.000
1.640E-06,-2.800
1.650E-06,-2.600
1.660E-06,-2.440
1.670E-06,-2.280
1.680E-06,-2.120
1.690E-06,-2.000
1.700E-06,-1.880
1.710E-06,-1.880
1.720E-06,-1.720
1.730E-06,-1.600
1.740E-06,-1.120
1.750E-06,-0.400
1.760E-06,0.120
1.770E-06,0.680
1.780E-06,0.760
1.790E-06,0.640
1.800E-06,0.760
1.810E-06,0.800
1.820E-06,1.200
1.830E-06,1.320
1.840E-06,1.480
1.850E-06,1.240
1.860E-06,0.920
1.870E-06,0.480
1.880E-06,-0.040
1.890E-06,-0.560
1.900E-06,-1.240
1.910E-06,-1.720
1.920E-06,-2.040
1.930E-06,-2.440
1.940E-06,-2.640
1.950E-06,-2.880
1.960E-06,-3.000
1.970E-06,-3.000
1.980E-06,-2.880
1.990E-06,-2.840
2.000E-06,-2.720
2.010E-06,-2.640
2.020E-06,-2.480
2.030E-06,-2.440
2.040E-06,-2.240
2.050E-06,-2.080
2.060E-06,-1.800
2.070E-06,-1.600
2.080E-06,-1.360
2.090E-06,-1.160
2.100E-06,-0.920
2.110E-06,-0.760
2.120E-06,-0.520
2.130E-06,-0.480
2.140E-06,-0.320
2.150E-06,-0.280
2.160E-06,-0.240
2.170E-06,-0.440
2.180E-06,-0.640
2.190E-06,-1.160
2.200E-06,-1.600
2.210E-06,-2.040
2.220E-06,-2.360
2.230E-06,-2.640
2.240E-06,-2.760
2.250E-06,-2.920
2.260E-06,-3.160
2.270E-06,-3.560
2.280E-06,-4.040
2.290E-06,-4.600
2.300E-06,-5.200
2.310E-06,-5.240
2.320E-06,-5.240
2.330E-06,-5.200
2.340E-06,-5.240
2.350E-06,-5.240
2.360E-06,-5.200
2.370E-06,-5.200
2.380E-06,-5.240
2.390E-06,-5.240
2.400E-06,-5.240
2.410E-06,-5.240
2.420E-06,-5.200
2.430E-06,-5.200
2.440E-06,-5.240
2.450E-06,-5.240
2.460E-06,-5.200
2.470E-06,-5.240
2.480E-06,-5.200
2.490E-06,-5.200
2.500E-06,-5.240
2.510E-06,-5.240
2.520E-06,-5.200
2.530E-06,-5.240
2.540E-06,-5.240
2.550E-06,-5.240
2.560E-06,-5.240
2.570E-06,-5.240
2.580E-06,-5.200
2.590E-06,-5.240
2.600E-06,-5.240
2.610E-06,-5.200
2.620E-06,-5.240
2.630E-06,-5.240
2.640E-06,-5.200
2.650E-06,-5.200
2.660E-06,-5.200
2.670E-06,-5.240
2.680E-06,-5.080
2.690E-06,-4.240
2.700E-06,-3.560
2.710E-06,-3.040
2.720E-06,-2.680
2.730E-06,-2.560
2.740E-06,-2.400
2.750E-06,-2.440
2.760E-06,-2.520
2.770E-06,-2.680
2.780E-06,-3.240
2.790E-06,-3.920
2.800E-06,-4.840
2.810E-06,-5.240
2.820E-06,-5.240
2.830E-06,-5.240
2.840E-06,-5.240
2.850E-06,-5.200
2.860E-06,-5.200
2.870E-06,-5.200
2.880E-06,-5.240
2.890E-06,-5.240
2.900E-06,-5.200
2.910E-06,-5.200
2.920E-06,-5.200
2.930E-06,-5.200
2.940E-06,-5.240
2.950E-06,-5.200
2.960E-06,-5.240
2.970E-06,-5.240
