mediciones/6-26/42.5/WaveData59301.csv

#timebase=2000000(ps)
,#voltbase=500000(mv/100)
#size=4000
-8.150E-06,0.140
-8.140E-06,0.040
-8.130E-06,0.000
-8.120E-06,-0.020
-8.110E-06,-0.020
-8.100E-06,0.000
-8.090E-06,0.020
-8.080E-06,0.020
-8.070E-06,0.020
-8.060E-06,0.000
-8.050E-06,-0.020
-8.040E-06,-0.020
-8.030E-06,0.020
-8.020E-06,0.060
-8.010E-06,0.040
-8.000E-06,0.040
-7.990E-06,0.020
-7.980E-06,0.060
-7.970E-06,0.020
-7.960E-06,0.040
-7.950E-06,0.060
-7.940E-06,0.060
-7.930E-06,0.080
-7.920E-06,0.040
-7.910E-06,0.080
-7.900E-06,0.100
-7.890E-06,0.040
-7.880E-06,0.060
-7.870E-06,0.060
-7.860E-06,0.080
-7.850E-06,0.080
-7.840E-06,0.060
-7.830E-06,0.040
-7.820E-06,0.060
-7.810E-06,0.040
-7.800E-06,0.020
-7.790E-06,0.000
-7.780E-06,0.000
-7.770E-06,0.020
-7.760E-06,-0.020
-7.750E-06,0.040
-7.740E-06,0.120
-7.730E-06,0.140
-7.720E-06,0.180
-7.710E-06,0.200
-7.700E-06,0.180
-7.690E-06,0.100
-7.680E-06,0.120
-7.670E-06,0.180
-7.660E-06,0.180
-7.650E-06,0.160
-7.640E-06,0.140
-7.630E-06,0.080
-7.620E-06,0.100
-7.610E-06,0.080
-7.600E-06,0.080
-7.590E-06,0.040
-7.580E-06,0.020
-7.570E-06,-0.020
-7.560E-06,-0.020
-7.550E-06,-0.040
-7.540E-06,-0.040
-7.530E-06,-0.060
-7.520E-06,-0.040
-7.510E-06,-0.040
-7.500E-06,0.000
-7.490E-06,0.000
-7.480E-06,0.000
-7.470E-06,0.000
-7.460E-06,-0.040
-7.450E-06,0.000
-7.440E-06,0.000
-7.430E-06,0.020
-7.420E-06,0.040
-7.410E-06,0.100
-7.400E-06,0.100
-7.390E-06,0.060
-7.380E-06,-0.020
-7.370E-06,-0.020
-7.360E-06,0.000
-7.350E-06,-0.020
-7.340E-06,-0.060
-7.330E-06,0.040
-7.320E-06,0.080
-7.310E-06,0.260
-7.300E-06,0.320
-7.290E-06,0.380
-7.280E-06,0.320
-7.270E-06,0.180
-7.260E-06,0.120
-7.250E-06,0.120
-7.240E-06,0.180
-7.230E-06,0.240
-7.220E-06,0.260
-7.210E-06,0.180
-7.200E-06,0.100
-7.190E-06,0.060
-7.180E-06,0.000
-7.170E-06,0.020
-7.160E-06,0.040
-7.150E-06,0.040
-7.140E-06,0.000
-7.130E-06,-0.020
-7.120E-06,-0.040
-7.110E-06,-0.020
-7.100E-06,0.000
-7.090E-06,0.000
-7.080E-06,-0.040
-7.070E-06,-0.040
-7.060E-06,-0.020
-7.050E-06,-0.020
-7.040E-06,-0.060
-7.030E-06,-0.040
-7.020E-06,-0.040
-7.010E-06,-0.060
-7.000E-06,0.000
-6.990E-06,0.000
-6.980E-06,-0.020
-6.970E-06,-0.020
-6.960E-06,0.000
-6.950E-06,0.000
-6.940E-06,0.000
-6.930E-06,0.060
-6.920E-06,0.020
-6.910E-06,0.040
-6.900E-06,0.060
-6.890E-06,0.060
-6.880E-06,0.080
-6.870E-06,0.040
-6.860E-06,0.040
-6.850E-06,0.080
-6.840E-06,0.160
-6.830E-06,0.180
-6.820E-06,0.200
-6.810E-06,0.180
-6.800E-06,0.160
-6.790E-06,0.160
-6.780E-06,0.200
-6.770E-06,0.180
-6.760E-06,0.160
-6.750E-06,0.140
-6.740E-06,0.100
-6.730E-06,0.060
-6.720E-06,0.080
-6.710E-06,0.060
-6.700E-06,0.020
-6.690E-06,0.040
-6.680E-06,0.040
-6.670E-06,-0.020
-6.660E-06,0.020
-6.650E-06,-0.040
-6.640E-06,-0.020
-6.630E-06,0.080
-6.620E-06,0.140
-6.610E-06,0.120
-6.600E-06,0.120
-6.590E-06,0.000
-6.580E-06,-0.020
-6.570E-06,-0.020
-6.560E-06,0.000
-6.550E-06,0.060
-6.540E-06,0.040
-6.530E-06,-0.020
-6.520E-06,0.020
-6.510E-06,0.000
-6.500E-06,-0.020
-6.490E-06,0.000
-6.480E-06,0.020
-6.470E-06,0.020
-6.460E-06,0.020
-6.450E-06,0.000
-6.440E-06,0.040
-6.430E-06,0.000
-6.420E-06,0.020
-6.410E-06,0.040
-6.400E-06,0.080
-6.390E-06,0.100
-6.380E-06,0.040
-6.370E-06,0.020
-6.360E-06,0.040
-6.350E-06,0.080
-6.340E-06,0.080
-6.330E-06,0.080
-6.320E-06,0.120
-6.310E-06,0.080
-6.300E-06,0.060
-6.290E-06,0.080
-6.280E-06,0.080
-6.270E-06,0.060
-6.260E-06,0.040
-6.250E-06,0.020
-6.240E-06,0.060
-6.230E-06,0.060
-6.220E-06,0.100
-6.210E-06,0.120
-6.200E-06,0.140
-6.190E-06,0.080
-6.180E-06,0.080
-6.170E-06,0.040
-6.160E-06,0.040
-6.150E-06,0.080
-6.140E-06,0.100
-6.130E-06,0.100
-6.120E-06,0.100
-6.110E-06,0.080
-6.100E-06,0.060
-6.090E-06,0.020
-6.080E-06,0.000
-6.070E-06,0.020
-6.060E-06,0.040
-6.050E-06,0.040
-6.040E-06,0.060
-6.030E-06,0.040
-6.020E-06,0.000
-6.010E-06,0.020
-6.000E-06,0.020
-5.990E-06,0.040
-5.980E-06,0.040
-5.970E-06,0.060
-5.960E-06,0.040
-5.950E-06,0.000
-5.940E-06,0.020
-5.930E-06,0.060
-5.920E-06,0.080
-5.910E-06,0.080
-5.900E-06,0.080
-5.890E-06,0.040
-5.880E-06,0.020
-5.870E-06,0.040
-5.860E-06,0.060
-5.850E-06,0.100
-5.840E-06,0.080
-5.830E-06,0.060
-5.820E-06,0.020
-5.810E-06,0.020
-5.800E-06,0.020
-5.790E-06,-0.020
-5.780E-06,0.020
-5.770E-06,0.020
-5.760E-06,0.020
-5.750E-06,0.080
-5.740E-06,0.100
-5.730E-06,0.100
-5.720E-06,0.120
-5.710E-06,0.080
-5.700E-06,0.040
-5.690E-06,0.000
-5.680E-06,0.000
-5.670E-06,0.020
-5.660E-06,0.120
-5.650E-06,0.180
-5.640E-06,0.140
-5.630E-06,0.060
-5.620E-06,0.060
-5.610E-06,0.000
-5.600E-06,0.040
-5.590E-06,0.140
-5.580E-06,0.180
-5.570E-06,0.100
-5.560E-06,0.020
-5.550E-06,-0.080
-5.540E-06,0.000
-5.530E-06,0.020
-5.520E-06,0.120
-5.510E-06,0.160
-5.500E-06,0.180
-5.490E-06,0.120
-5.480E-06,0.060
-5.470E-06,0.020
-5.460E-06,0.020
-5.450E-06,0.080
-5.440E-06,0.080
-5.430E-06,0.060
-5.420E-06,0.080
-5.410E-06,0.060
-5.400E-06,0.020
-5.390E-06,0.060
-5.380E-06,0.040
-5.370E-06,0.040
-5.360E-06,0.060
-5.350E-06,0.000
-5.340E-06,0.000
-5.330E-06,0.000
-5.320E-06,0.000
-5.310E-06,-0.020
-5.300E-06,-0.020
-5.290E-06,0.000
-5.280E-06,-0.020
-5.270E-06,0.000
-5.260E-06,0.000
-5.250E-06,0.000
-5.240E-06,0.000
-5.230E-06,0.000
-5.220E-06,-0.020
-5.210E-06,0.000
-5.200E-06,0.000
-5.190E-06,0.000
-5.180E-06,0.000
-5.170E-06,0.020
-5.160E-06,0.100
-5.150E-06,0.160
-5.140E-06,0.180
-5.130E-06,0.140
-5.120E-06,0.040
-5.110E-06,0.000
-5.100E-06,0.020
-5.090E-06,0.040
-5.080E-06,0.100
-5.070E-06,0.180
-5.060E-06,0.180
-5.050E-06,0.100
-5.040E-06,0.060
-5.030E-06,0.040
-5.020E-06,0.100
-5.010E-06,0.240
-5.000E-06,0.280
-4.990E-06,0.280
-4.980E-06,0.200
-4.970E-06,0.060
-4.960E-06,0.020
-4.950E-06,0.080
-4.940E-06,0.100
-4.930E-06,0.140
-4.920E-06,0.140
-4.910E-06,0.060
-4.900E-06,-0.020
-4.890E-06,-0.020
-4.880E-06,-0.040
-4.870E-06,0.000
-4.860E-06,0.000
-4.850E-06,-0.020
-4.840E-06,-0.020
-4.830E-06,-0.080
-4.820E-06,-0.080
-4.810E-06,-0.060
-4.800E-06,-0.040
-4.790E-06,-0.040
-4.780E-06,-0.020
-4.770E-06,0.000
-4.760E-06,-0.040
-4.750E-06,-0.020
-4.740E-06,0.020
-4.730E-06,0.000
-4.720E-06,0.040
-4.710E-06,0.020
-4.700E-06,0.020
-4.690E-06,0.060
-4.680E-06,0.060
-4.670E-06,0.080
-4.660E-06,0.080
-4.650E-06,0.020
-4.640E-06,0.040
-4.630E-06,0.100
-4.620E-06,0.040
-4.610E-06,0.060
-4.600E-06,0.040
-4.590E-06,0.040
-4.580E-06,0.060
-4.570E-06,0.080
-4.560E-06,0.060
-4.550E-06,0.080
-4.540E-06,0.120
-4.530E-06,0.080
-4.520E-06,0.100
-4.510E-06,0.100
-4.500E-06,0.080
-4.490E-06,0.100
-4.480E-06,0.060
-4.470E-06,0.040
-4.460E-06,0.060
-4.450E-06,0.020
-4.440E-06,-0.020
-4.430E-06,0.020
-4.420E-06,0.060
-4.410E-06,0.060
-4.400E-06,0.080
-4.390E-06,0.020
-4.380E-06,-0.060
-4.370E-06,-0.100
-4.360E-06,-0.040
-4.350E-06,0.180
-4.340E-06,0.320
-4.330E-06,0.440
-4.320E-06,0.420
-4.310E-06,0.280
-4.300E-06,0.140
-4.290E-06,0.080
-4.280E-06,0.180
-4.270E-06,0.260
-4.260E-06,0.300
-4.250E-06,0.240
-4.240E-06,0.140
-4.230E-06,0.020
-4.220E-06,-0.020
-4.210E-06,-0.080
-4.200E-06,-0.040
-4.190E-06,-0.040
-4.180E-06,-0.020
-4.170E-06,-0.040
-4.160E-06,-0.060
-4.150E-06,-0.060
-4.140E-06,-0.080
-4.130E-06,-0.120
-4.120E-06,-0.180
-4.110E-06,-0.180
-4.100E-06,-0.120
-4.090E-06,-0.060
-4.080E-06,0.000
-4.070E-06,0.000
-4.060E-06,-0.060
-4.050E-06,-0.120
-4.040E-06,-0.140
-4.030E-06,-0.080
-4.020E-06,-0.040
-4.010E-06,0.000
-4.000E-06,0.040
-3.990E-06,-0.020
-3.980E-06,-0.020
-3.970E-06,-0.060
-3.960E-06,-0.040
-3.950E-06,0.060
-3.940E-06,0.080
-3.930E-06,0.180
-3.920E-06,0.240
-3.910E-06,0.200
-3.900E-06,0.160
-3.890E-06,0.100
-3.880E-06,0.080
-3.870E-06,0.160
-3.860E-06,0.180
-3.850E-06,0.240
-3.840E-06,0.200
-3.830E-06,0.140
-3.820E-06,0.100
-3.810E-06,0.140
-3.800E-06,0.140
-3.790E-06,0.080
-3.780E-06,0.080
-3.770E-06,0.060
-3.760E-06,0.060
-3.750E-06,0.100
-3.740E-06,0.180
-3.730E-06,0.140
-3.720E-06,0.060
-3.710E-06,-0.020
-3.700E-06,-0.020
-3.690E-06,-0.020
-3.680E-06,0.020
-3.670E-06,0.040
-3.660E-06,0.040
-3.650E-06,0.020
-3.640E-06,-0.060
-3.630E-06,-0.060
-3.620E-06,-0.060
-3.610E-06,-0.040
-3.600E-06,-0.020
-3.590E-06,0.000
-3.580E-06,-0.040
-3.570E-06,-0.080
-3.560E-06,-0.160
-3.550E-06,-0.080
-3.540E-06,-0.080
-3.530E-06,0.020
-3.520E-06,0.040
-3.510E-06,0.040
-3.500E-06,-0.040
-3.490E-06,-0.020
-3.480E-06,0.000
-3.470E-06,0.180
-3.460E-06,0.340
-3.450E-06,0.440
-3.440E-06,0.440
-3.430E-06,0.260
-3.420E-06,0.080
-3.410E-06,0.020
-3.400E-06,0.080
-3.390E-06,0.240
-3.380E-06,0.340
-3.370E-06,0.300
-3.360E-06,0.180
-3.350E-06,0.080
-3.340E-06,-0.040
-3.330E-06,-0.040
-3.320E-06,0.000
-3.310E-06,0.060
-3.300E-06,0.060
-3.290E-06,0.040
-3.280E-06,0.000
-3.270E-06,-0.040
-3.260E-06,-0.060
-3.250E-06,-0.020
-3.240E-06,-0.060
-3.230E-06,-0.020
-3.220E-06,-0.020
-3.210E-06,-0.100
-3.200E-06,-0.060
-3.190E-06,-0.100
-3.180E-06,-0.080
-3.170E-06,-0.080
-3.160E-06,-0.020
-3.150E-06,0.040
-3.140E-06,0.080
-3.130E-06,0.140
-3.120E-06,0.140
-3.110E-06,0.100
-3.100E-06,0.040
-3.090E-06,0.000
-3.080E-06,0.020
-3.070E-06,0.080
-3.060E-06,0.160
-3.050E-06,0.160
-3.040E-06,0.140
-3.030E-06,0.100
-3.020E-06,0.060
-3.010E-06,0.020
-3.000E-06,0.040
-2.990E-06,0.060
-2.980E-06,0.100
-2.970E-06,0.120
-2.960E-06,0.100
-2.950E-06,0.120
-2.940E-06,0.140
-2.930E-06,0.120
-2.920E-06,0.120
-2.910E-06,0.040
-2.900E-06,0.000
-2.890E-06,0.060
-2.880E-06,0.040
-2.870E-06,0.060
-2.860E-06,0.040
-2.850E-06,0.020
-2.840E-06,-0.040
-2.830E-06,0.000
-2.820E-06,0.000
-2.810E-06,-0.040
-2.800E-06,0.000
-2.790E-06,0.000
-2.780E-06,-0.020
-2.770E-06,-0.020
-2.760E-06,0.000
-2.750E-06,0.020
-2.740E-06,0.060
-2.730E-06,0.060
-2.720E-06,0.080
-2.710E-06,0.100
-2.700E-06,0.040
-2.690E-06,0.100
-2.680E-06,0.060
-2.670E-06,0.120
-2.660E-06,0.200
-2.650E-06,0.120
-2.640E-06,0.040
-2.630E-06,0.000
-2.620E-06,0.000
-2.610E-06,0.160
-2.600E-06,0.400
-2.590E-06,0.520
-2.580E-06,0.440
-2.570E-06,0.160
-2.560E-06,-0.060
-2.550E-06,-0.040
-2.540E-06,0.120
-2.530E-06,0.240
-2.520E-06,0.300
-2.510E-06,0.220
-2.500E-06,0.120
-2.490E-06,-0.040
-2.480E-06,-0.120
-2.470E-06,-0.120
-2.460E-06,-0.040
-2.450E-06,0.000
-2.440E-06,0.000
-2.430E-06,-0.040
-2.420E-06,-0.100
-2.410E-06,-0.180
-2.400E-06,-0.200
-2.390E-06,-0.160
-2.380E-06,-0.160
-2.370E-06,-0.120
-2.360E-06,-0.100
-2.350E-06,-0.140
-2.340E-06,-0.160
-2.330E-06,-0.180
-2.320E-06,-0.180
-2.310E-06,-0.140
-2.300E-06,-0.100
-2.290E-06,-0.020
-2.280E-06,0.080
-2.270E-06,0.080
-2.260E-06,0.060
-2.250E-06,-0.020
-2.240E-06,-0.020
-2.230E-06,0.000
-2.220E-06,0.100
-2.210E-06,0.220
-2.200E-06,0.220
-2.190E-06,0.160
-2.180E-06,0.120
-2.170E-06,0.080
-2.160E-06,0.180
-2.150E-06,0.320
-2.140E-06,0.260
-2.130E-06,0.300
-2.120E-06,0.260
-2.110E-06,0.200
-2.100E-06,0.260
-2.090E-06,0.240
-2.080E-06,0.260
-2.070E-06,0.220
-2.060E-06,0.160
-2.050E-06,0.160
-2.040E-06,0.140
-2.030E-06,0.140
-2.020E-06,0.120
-2.010E-06,0.080
-2.000E-06,0.060
-1.990E-06,0.060
-1.980E-06,0.040
-1.970E-06,0.060
-1.960E-06,0.060
-1.950E-06,0.000
-1.940E-06,-0.040
-1.930E-06,-0.040
-1.920E-06,-0.060
-1.910E-06,-0.100
-1.900E-06,-0.100
-1.890E-06,-0.080
-1.880E-06,-0.100
-1.870E-06,-0.120
-1.860E-06,-0.100
-1.850E-06,-0.100
-1.840E-06,-0.080
-1.830E-06,-0.080
-1.820E-06,-0.060
-1.810E-06,-0.080
-1.800E-06,-0.080
-1.790E-06,-0.100
-1.780E-06,-0.020
-1.770E-06,-0.020
-1.760E-06,0.000
-1.750E-06,0.000
-1.740E-06,0.000
-1.730E-06,-0.040
-1.720E-06,-0.020
-1.710E-06,0.000
-1.700E-06,0.000
-1.690E-06,0.000
-1.680E-06,0.000
-1.670E-06,-0.020
-1.660E-06,-0.060
-1.650E-06,-0.100
-1.640E-06,-0.060
-1.630E-06,0.000
-1.620E-06,0.020
-1.610E-06,0.060
-1.600E-06,0.080
-1.590E-06,0.080
-1.580E-06,0.080
-1.570E-06,0.140
-1.560E-06,0.200
-1.550E-06,0.180
-1.540E-06,0.220
-1.530E-06,0.180
-1.520E-06,0.220
-1.510E-06,0.220
-1.500E-06,0.200
-1.490E-06,0.320
-1.480E-06,0.020
-1.470E-06,0.080
-1.460E-06,0.040
-1.450E-06,0.240
-1.440E-06,0.720
-1.430E-06,0.900
-1.420E-06,0.920
-1.410E-06,0.760
-1.400E-06,0.320
-1.390E-06,0.240
-1.380E-06,0.280
-1.370E-06,0.220
-1.360E-06,0.320
-1.350E-06,0.260
-1.340E-06,0.080
-1.330E-06,0.000
-1.320E-06,-0.160
-1.310E-06,-0.320
-1.300E-06,-0.340
-1.290E-06,-0.320
-1.280E-06,-0.220
-1.270E-06,-0.260
-1.260E-06,-0.260
-1.250E-06,-0.340
-1.240E-06,-0.360
-1.230E-06,-0.380
-1.220E-06,-0.340
-1.210E-06,-0.340
-1.200E-06,-0.340
-1.190E-06,-0.340
-1.180E-06,-0.320
-1.170E-06,-0.320
-1.160E-06,-0.260
-1.150E-06,-0.200
-1.140E-06,-0.200
-1.130E-06,-0.140
-1.120E-06,-0.160
-1.110E-06,-0.100
-1.100E-06,-0.080
-1.090E-06,0.000
-1.080E-06,0.060
-1.070E-06,0.140
-1.060E-06,0.160
-1.050E-06,0.120
-1.040E-06,0.180
-1.030E-06,0.160
-1.020E-06,0.200
-1.010E-06,0.180
-1.000E-06,0.180
-9.900E-07,0.180
-9.800E-07,0.260
-9.700E-07,0.220
-9.600E-07,0.480
-9.500E-07,-0.180
-9.400E-07,-0.040
-9.300E-07,0.060
-9.200E-07,-0.100
-9.100E-07,0.420
-9.000E-07,0.720
-8.900E-07,0.900
-8.800E-07,0.980
-8.700E-07,0.760
-8.600E-07,0.540
-8.500E-07,0.220
-8.400E-07,-0.240
-8.300E-07,-0.500
-8.200E-07,-0.560
-8.100E-07,-0.540
-8.000E-07,-0.060
-7.900E-07,-0.160
-7.800E-07,-0.420
-7.700E-07,-0.520
-7.600E-07,-0.940
-7.500E-07,-1.000
-7.400E-07,-1.000
-7.300E-07,-0.800
-7.200E-07,-0.500
-7.100E-07,-0.280
-7.000E-07,-0.120
-6.900E-07,0.040
-6.800E-07,0.100
-6.700E-07,0.420
-6.600E-07,0.420
-6.500E-07,0.660
-6.400E-07,1.020
-6.300E-07,1.200
-6.200E-07,1.580
-6.100E-07,1.660
-6.000E-07,1.640
-5.900E-07,2.240
-5.800E-07,2.760
-5.700E-07,2.760
-5.600E-07,2.780
-5.500E-07,2.760
-5.400E-07,2.760
-5.300E-07,2.740
-5.200E-07,2.760
-5.100E-07,2.780
-5.000E-07,2.160
-4.900E-07,0.340
-4.800E-07,-0.940
-4.700E-07,-2.100
-4.600E-07,-2.660
-4.500E-07,-2.660
-4.400E-07,-2.660
-4.300E-07,-2.660
-4.200E-07,-2.660
-4.100E-07,-2.660
-4.000E-07,-2.660
-3.900E-07,-2.660
-3.800E-07,-2.340
-3.700E-07,-1.860
-3.600E-07,-1.540
-3.500E-07,-1.260
-3.400E-07,-1.020
-3.300E-07,-0.820
-3.200E-07,-0.700
-3.100E-07,-0.820
-3.000E-07,-1.080
-2.900E-07,-1.620
-2.800E-07,-2.220
-2.700E-07,-2.560
-2.600E-07,-2.660
-2.500E-07,-2.660
-2.400E-07,-2.660
-2.300E-07,-2.660
-2.200E-07,-2.660
-2.100E-07,-2.300
-2.000E-07,-1.940
-1.900E-07,-1.580
-1.800E-07,-1.100
-1.700E-07,-0.660
-1.600E-07,-0.180
-1.500E-07,-0.020
-1.400E-07,0.760
-1.300E-07,0.540
-1.200E-07,0.940
-1.100E-07,2.760
-1.000E-07,2.760
-9.000E-08,2.780
-8.000E-08,2.780
-7.000E-08,2.760
-6.000E-08,2.780
-5.000E-08,2.760
-4.000E-08,2.740
-3.000E-08,2.760
-2.000E-08,0.580
-1.000E-08,-2.440
0.000E+00,-1.040
1.000E-08,-1.120
2.000E-08,-1.840
3.000E-08,-2.380
4.000E-08,-2.660
5.000E-08,-2.660
6.000E-08,-2.660
7.000E-08,-2.660
8.000E-08,-2.660
9.000E-08,-2.660
1.000E-07,-2.660
1.100E-07,-1.600
1.200E-07,-1.400
1.300E-07,-1.360
1.400E-07,-1.980
1.500E-07,-2.460
1.600E-07,-2.660
1.700E-07,-2.660
1.800E-07,-2.660
1.900E-07,-2.240
2.000E-07,-0.300
2.100E-07,2.760
2.200E-07,2.780
2.300E-07,2.760
2.400E-07,2.760
2.500E-07,2.740
2.600E-07,2.760
2.700E-07,2.520
2.800E-07,0.560
2.900E-07,-0.920
3.000E-07,-1.960
3.100E-07,-2.640
3.200E-07,-1.740
3.300E-07,-0.020
3.400E-07,2.220
3.500E-07,2.760
3.600E-07,2.760
3.700E-07,2.760
3.800E-07,2.740
3.900E-07,0.360
4.000E-07,-1.600
4.100E-07,-2.080
4.200E-07,-2.300
4.300E-07,-2.240
4.400E-07,-2.200
4.500E-07,-2.640
4.600E-07,-2.660
4.700E-07,-2.680
4.800E-07,-2.660
4.900E-07,-2.660
5.000E-07,-2.640
5.100E-07,-2.240
5.200E-07,-1.520
5.300E-07,-0.980
5.400E-07,-0.880
5.500E-07,-1.020
5.600E-07,-0.760
5.700E-07,-1.400
5.800E-07,-0.600
5.900E-07,0.760
6.000E-07,2.340
6.100E-07,2.760
6.200E-07,2.780
6.300E-07,2.760
6.400E-07,2.760
6.500E-07,0.340
6.600E-07,-1.740
6.700E-07,-1.880
6.800E-07,-1.560
6.900E-07,-0.700
7.000E-07,-0.120
7.100E-07,0.220
7.200E-07,0.420
7.300E-07,0.500
7.400E-07,0.460
7.500E-07,0.500
7.600E-07,0.580
7.700E-07,0.760
7.800E-07,0.900
7.900E-07,0.720
8.000E-07,0.280
8.100E-07,-0.160
8.200E-07,-0.620
8.300E-07,-0.960
8.400E-07,-1.160
8.500E-07,-1.300
8.600E-07,-1.380
8.700E-07,-1.500
8.800E-07,-1.460
8.900E-07,-1.440
9.000E-07,-1.280
9.100E-07,-0.980
9.200E-07,-0.780
9.300E-07,-0.560
9.400E-07,-0.300
9.500E-07,-0.180
9.600E-07,-0.080
9.700E-07,-0.020
9.800E-07,-0.160
9.900E-07,-0.280
1.000E-06,-0.220
1.010E-06,-0.040
1.020E-06,0.520
1.030E-06,1.040
1.040E-06,1.220
1.050E-06,0.960
1.060E-06,0.180
1.070E-06,-0.540
1.080E-06,-0.980
1.090E-06,-1.160
1.100E-06,-1.160
1.110E-06,-1.220
1.120E-06,-1.320
1.130E-06,-1.520
1.140E-06,-1.500
1.150E-06,-1.280
1.160E-06,-1.140
1.170E-06,-0.800
1.180E-06,-0.420
1.190E-06,-0.220
1.200E-06,-0.020
1.210E-06,0.080
1.220E-06,-0.020
1.230E-06,0.040
1.240E-06,-0.020
1.250E-06,-0.040
1.260E-06,-0.180
1.270E-06,-0.380
1.280E-06,-0.260
1.290E-06,0.860
1.300E-06,0.960
1.310E-06,2.740
1.320E-06,2.780
1.330E-06,2.780
1.340E-06,2.760
1.350E-06,2.760
1.360E-06,2.760
1.370E-06,1.260
1.380E-06,-2.660
1.390E-06,-2.660
1.400E-06,-2.660
1.410E-06,-2.640
1.420E-06,-2.660
1.430E-06,-2.660
1.440E-06,-2.200
1.450E-06,-1.060
1.460E-06,-0.880
1.470E-06,-1.180
1.480E-06,-1.440
1.490E-06,-1.500
1.500E-06,-1.680
1.510E-06,-0.800
1.520E-06,0.120
1.530E-06,1.360
1.540E-06,2.780
1.550E-06,2.760
1.560E-06,2.760
1.570E-06,2.760
1.580E-06,2.740
1.590E-06,0.440
1.600E-06,-2.000
1.610E-06,-2.660
1.620E-06,-2.660
1.630E-06,-2.660
1.640E-06,-2.660
1.650E-06,-2.660
1.660E-06,-2.580
1.670E-06,-1.240
1.680E-06,0.640
1.690E-06,2.340
1.700E-06,2.760
1.710E-06,2.760
1.720E-06,2.740
1.730E-06,2.760
1.740E-06,2.120
1.750E-06,1.020
1.760E-06,0.000
1.770E-06,-1.040
1.780E-06,-1.460
1.790E-06,-1.760
1.800E-06,-2.020
1.810E-06,-2.140
1.820E-06,-2.340
1.830E-06,-2.140
1.840E-06,-1.740
1.850E-06,-1.320
1.860E-06,-0.840
1.870E-06,-0.400
1.880E-06,-0.120
1.890E-06,0.300
1.900E-06,0.480
1.910E-06,0.500
1.920E-06,0.360
1.930E-06,0.000
1.940E-06,-0.260
1.950E-06,-0.500
1.960E-06,-0.920
1.970E-06,-1.340
1.980E-06,-1.740
1.990E-06,-2.240
2.000E-06,-2.080
2.010E-06,-1.880
2.020E-06,-1.680
2.030E-06,-0.880
2.040E-06,-0.020
2.050E-06,1.680
2.060E-06,2.780
2.070E-06,2.760
2.080E-06,2.760
2.090E-06,2.740
2.100E-06,2.760
2.110E-06,2.760
2.120E-06,2.780
2.130E-06,2.020
2.140E-06,0.240
2.150E-06,-1.740
2.160E-06,-2.680
2.170E-06,-2.680
2.180E-06,-2.660
2.190E-06,-2.660
2.200E-06,-2.660
2.210E-06,-2.660
2.220E-06,-2.640
2.230E-06,-2.260
2.240E-06,-1.600
2.250E-06,-1.280
2.260E-06,-1.240
2.270E-06,-1.120
2.280E-06,-1.080
2.290E-06,-1.040
2.300E-06,-1.200
2.310E-06,-1.520
2.320E-06,-1.900
2.330E-06,-2.080
2.340E-06,-2.180
2.350E-06,-2.080
2.360E-06,-2.040
2.370E-06,-1.860
2.380E-06,-1.720
2.390E-06,-1.520
2.400E-06,-1.220
2.410E-06,-0.800
2.420E-06,-0.260
2.430E-06,0.420
2.440E-06,1.520
2.450E-06,2.780
2.460E-06,2.760
2.470E-06,2.740
2.480E-06,2.760
2.490E-06,2.760
2.500E-06,2.760
2.510E-06,2.760
2.520E-06,2.780
2.530E-06,2.760
2.540E-06,2.760
2.550E-06,2.740
2.560E-06,2.760
2.570E-06,0.380
2.580E-06,-1.540
2.590E-06,-2.660
2.600E-06,-2.660
2.610E-06,-2.660
2.620E-06,-2.680
2.630E-06,-2.680
2.640E-06,-2.680
2.650E-06,-2.660
2.660E-06,-2.660
2.670E-06,-2.640
2.680E-06,-2.640
2.690E-06,-2.640
2.700E-06,-1.360
2.710E-06,0.400
2.720E-06,2.300
2.730E-06,2.760
2.740E-06,2.760
2.750E-06,2.780
2.760E-06,2.760
2.770E-06,2.760
2.780E-06,2.740
2.790E-06,2.760
2.800E-06,2.280
2.810E-06,0.240
2.820E-06,-1.100
2.830E-06,-2.620
2.840E-06,-2.660
2.850E-06,-2.360
2.860E-06,-1.140
2.870E-06,0.240
2.880E-06,1.140
2.890E-06,1.180
2.900E-06,1.240
2.910E-06,0.960
2.920E-06,0.660
2.930E-06,0.220
2.940E-06,-0.540
2.950E-06,-1.520
2.960E-06,-2.100
2.970E-06,-2.400
2.980E-06,-2.360
2.990E-06,-2.040
3.000E-06,-1.700
3.010E-06,-1.100
3.020E-06,-0.340
3.030E-06,0.420
3.040E-06,1.100
3.050E-06,1.560
3.060E-06,1.840
3.070E-06,1.960
3.080E-06,1.940
3.090E-06,1.900
3.100E-06,1.760
3.110E-06,1.600
3.120E-06,1.420
3.130E-06,1.240
3.140E-06,1.060
3.150E-06,0.800
3.160E-06,0.720
3.170E-06,0.640
3.180E-06,0.680
3.190E-06,0.740
3.200E-06,0.900
3.210E-06,0.960
3.220E-06,1.020
3.230E-06,0.860
3.240E-06,1.580
3.250E-06,2.260
3.260E-06,2.760
3.270E-06,2.780
3.280E-06,2.760
3.290E-06,2.760
3.300E-06,2.740
3.310E-06,2.760
3.320E-06,2.780
3.330E-06,2.760
3.340E-06,2.760
3.350E-06,2.780
3.360E-06,-2.660
3.370E-06,-2.660
3.380E-06,-2.660
3.390E-06,-2.660
3.400E-06,-2.660
3.410E-06,-2.640
3.420E-06,-2.660
3.430E-06,-2.660
3.440E-06,-2.660
3.450E-06,0.560
3.460E-06,2.780
3.470E-06,2.780
3.480E-06,2.760
3.490E-06,2.760
3.500E-06,2.760
3.510E-06,2.740
