mediciones/6-26/42.5/WaveData59293.csv

#timebase=2000000(ps)
,#voltbase=500000(mv/100)
#size=4000
-8.150E-06,0.120
-8.140E-06,0.100
-8.130E-06,0.140
-8.120E-06,0.180
-8.110E-06,0.180
-8.100E-06,-0.060
-8.090E-06,-0.080
-8.080E-06,0.160
-8.070E-06,0.100
-8.060E-06,0.340
-8.050E-06,0.320
-8.040E-06,0.120
-8.030E-06,0.020
-8.020E-06,-0.060
-8.010E-06,0.040
-8.000E-06,0.220
-7.990E-06,0.240
-7.980E-06,0.220
-7.970E-06,0.160
-7.960E-06,0.040
-7.950E-06,-0.040
-7.940E-06,-0.020
-7.930E-06,0.000
-7.920E-06,0.020
-7.910E-06,0.080
-7.900E-06,-0.040
-7.890E-06,-0.080
-7.880E-06,-0.040
-7.870E-06,-0.020
-7.860E-06,0.000
-7.850E-06,0.040
-7.840E-06,0.020
-7.830E-06,-0.080
-7.820E-06,-0.140
-7.810E-06,-0.140
-7.800E-06,-0.040
-7.790E-06,-0.020
-7.780E-06,0.000
-7.770E-06,0.040
-7.760E-06,-0.020
-7.750E-06,-0.020
-7.740E-06,0.000
-7.730E-06,0.040
-7.720E-06,0.020
-7.710E-06,0.060
-7.700E-06,0.040
-7.690E-06,0.080
-7.680E-06,0.080
-7.670E-06,0.100
-7.660E-06,0.100
-7.650E-06,0.080
-7.640E-06,0.120
-7.630E-06,0.120
-7.620E-06,0.140
-7.610E-06,0.120
-7.600E-06,0.060
-7.590E-06,0.160
-7.580E-06,0.140
-7.570E-06,0.080
-7.560E-06,0.200
-7.550E-06,0.140
-7.540E-06,0.140
-7.530E-06,0.160
-7.520E-06,0.100
-7.510E-06,0.040
-7.500E-06,0.020
-7.490E-06,0.000
-7.480E-06,0.040
-7.470E-06,0.040
-7.460E-06,0.060
-7.450E-06,0.060
-7.440E-06,-0.020
-7.430E-06,-0.020
-7.420E-06,-0.020
-7.410E-06,-0.020
-7.400E-06,-0.020
-7.390E-06,0.000
-7.380E-06,0.040
-7.370E-06,-0.020
-7.360E-06,0.000
-7.350E-06,0.000
-7.340E-06,0.000
-7.330E-06,0.020
-7.320E-06,0.000
-7.310E-06,0.060
-7.300E-06,0.040
-7.290E-06,0.020
-7.280E-06,0.080
-7.270E-06,0.060
-7.260E-06,0.000
-7.250E-06,0.060
-7.240E-06,0.100
-7.230E-06,0.140
-7.220E-06,0.240
-7.210E-06,0.140
-7.200E-06,0.080
-7.190E-06,0.000
-7.180E-06,-0.020
-7.170E-06,0.000
-7.160E-06,0.080
-7.150E-06,0.060
-7.140E-06,0.120
-7.130E-06,0.100
-7.120E-06,0.060
-7.110E-06,0.040
-7.100E-06,0.040
-7.090E-06,0.080
-7.080E-06,0.080
-7.070E-06,0.060
-7.060E-06,0.080
-7.050E-06,0.060
-7.040E-06,0.140
-7.030E-06,0.180
-7.020E-06,0.160
-7.010E-06,0.100
-7.000E-06,0.040
-6.990E-06,0.000
-6.980E-06,-0.020
-6.970E-06,0.000
-6.960E-06,0.020
-6.950E-06,0.020
-6.940E-06,0.060
-6.930E-06,0.060
-6.920E-06,0.020
-6.910E-06,0.020
-6.900E-06,0.000
-6.890E-06,0.020
-6.880E-06,0.060
-6.870E-06,-0.060
-6.860E-06,0.080
-6.850E-06,0.140
-6.840E-06,0.000
-6.830E-06,0.120
-6.820E-06,0.020
-6.810E-06,0.040
-6.800E-06,0.040
-6.790E-06,0.100
-6.780E-06,0.140
-6.770E-06,0.080
-6.760E-06,0.000
-6.750E-06,0.080
-6.740E-06,0.100
-6.730E-06,-0.080
-6.720E-06,0.060
-6.710E-06,0.140
-6.700E-06,0.100
-6.690E-06,0.220
-6.680E-06,0.160
-6.670E-06,0.040
-6.660E-06,-0.120
-6.650E-06,-0.140
-6.640E-06,-0.020
-6.630E-06,0.100
-6.620E-06,0.080
-6.610E-06,0.140
-6.600E-06,0.120
-6.590E-06,0.000
-6.580E-06,-0.040
-6.570E-06,-0.060
-6.560E-06,0.020
-6.550E-06,0.040
-6.540E-06,0.100
-6.530E-06,0.020
-6.520E-06,0.040
-6.510E-06,0.040
-6.500E-06,0.000
-6.490E-06,0.080
-6.480E-06,0.080
-6.470E-06,0.120
-6.460E-06,0.100
-6.450E-06,0.080
-6.440E-06,0.060
-6.430E-06,0.020
-6.420E-06,0.060
-6.410E-06,0.040
-6.400E-06,0.100
-6.390E-06,0.100
-6.380E-06,0.120
-6.370E-06,0.060
-6.360E-06,0.080
-6.350E-06,0.100
-6.340E-06,0.120
-6.330E-06,0.160
-6.320E-06,0.120
-6.310E-06,0.020
-6.300E-06,0.000
-6.290E-06,-0.020
-6.280E-06,0.020
-6.270E-06,0.040
-6.260E-06,0.100
-6.250E-06,0.060
-6.240E-06,0.020
-6.230E-06,-0.020
-6.220E-06,-0.020
-6.210E-06,0.000
-6.200E-06,0.000
-6.190E-06,0.020
-6.180E-06,0.020
-6.170E-06,0.020
-6.160E-06,0.000
-6.150E-06,0.020
-6.140E-06,0.000
-6.130E-06,0.040
-6.120E-06,0.040
-6.110E-06,0.040
-6.100E-06,0.060
-6.090E-06,0.040
-6.080E-06,0.080
-6.070E-06,0.080
-6.060E-06,0.080
-6.050E-06,0.040
-6.040E-06,0.080
-6.030E-06,0.060
-6.020E-06,0.040
-6.010E-06,0.060
-6.000E-06,0.060
-5.990E-06,0.080
-5.980E-06,0.120
-5.970E-06,0.080
-5.960E-06,0.080
-5.950E-06,0.080
-5.940E-06,0.080
-5.930E-06,0.080
-5.920E-06,0.080
-5.910E-06,0.080
-5.900E-06,0.060
-5.890E-06,0.060
-5.880E-06,0.020
-5.870E-06,0.040
-5.860E-06,0.020
-5.850E-06,0.060
-5.840E-06,0.000
-5.830E-06,0.000
-5.820E-06,0.080
-5.810E-06,-0.020
-5.800E-06,-0.080
-5.790E-06,-0.020
-5.780E-06,0.100
-5.770E-06,0.020
-5.760E-06,0.120
-5.750E-06,0.320
-5.740E-06,0.200
-5.730E-06,0.180
-5.720E-06,0.140
-5.710E-06,0.000
-5.700E-06,-0.040
-5.690E-06,-0.020
-5.680E-06,0.100
-5.670E-06,0.280
-5.660E-06,0.240
-5.650E-06,0.160
-5.640E-06,0.160
-5.630E-06,0.060
-5.620E-06,0.020
-5.610E-06,0.060
-5.600E-06,0.180
-5.590E-06,0.200
-5.580E-06,0.000
-5.570E-06,0.040
-5.560E-06,0.120
-5.550E-06,0.000
-5.540E-06,0.040
-5.530E-06,0.060
-5.520E-06,0.020
-5.510E-06,-0.080
-5.500E-06,0.000
-5.490E-06,0.080
-5.480E-06,0.020
-5.470E-06,-0.100
-5.460E-06,-0.100
-5.450E-06,0.000
-5.440E-06,0.000
-5.430E-06,0.000
-5.420E-06,0.060
-5.410E-06,0.040
-5.400E-06,-0.040
-5.390E-06,-0.040
-5.380E-06,0.020
-5.370E-06,0.020
-5.360E-06,0.040
-5.350E-06,0.060
-5.340E-06,0.020
-5.330E-06,0.060
-5.320E-06,0.060
-5.310E-06,0.120
-5.300E-06,0.100
-5.290E-06,0.020
-5.280E-06,0.020
-5.270E-06,0.080
-5.260E-06,0.080
-5.250E-06,0.160
-5.240E-06,0.180
-5.230E-06,0.080
-5.220E-06,0.000
-5.210E-06,0.000
-5.200E-06,0.060
-5.190E-06,0.100
-5.180E-06,0.100
-5.170E-06,0.080
-5.160E-06,0.080
-5.150E-06,0.060
-5.140E-06,0.040
-5.130E-06,0.060
-5.120E-06,0.020
-5.110E-06,0.060
-5.100E-06,0.100
-5.090E-06,0.060
-5.080E-06,0.080
-5.070E-06,0.060
-5.060E-06,0.080
-5.050E-06,-0.020
-5.040E-06,0.020
-5.030E-06,0.000
-5.020E-06,0.040
-5.010E-06,0.040
-5.000E-06,0.080
-4.990E-06,0.100
-4.980E-06,0.120
-4.970E-06,0.120
-4.960E-06,0.100
-4.950E-06,0.080
-4.940E-06,0.060
-4.930E-06,0.060
-4.920E-06,0.040
-4.910E-06,0.060
-4.900E-06,0.040
-4.890E-06,0.000
-4.880E-06,0.000
-4.870E-06,0.000
-4.860E-06,0.140
-4.850E-06,0.100
-4.840E-06,0.080
-4.830E-06,0.120
-4.820E-06,0.020
-4.810E-06,0.120
-4.800E-06,0.100
-4.790E-06,0.100
-4.780E-06,-0.040
-4.770E-06,-0.060
-4.760E-06,0.040
-4.750E-06,0.160
-4.740E-06,0.240
-4.730E-06,0.300
-4.720E-06,0.240
-4.710E-06,0.160
-4.700E-06,0.180
-4.690E-06,0.100
-4.680E-06,0.040
-4.670E-06,0.100
-4.660E-06,0.160
-4.650E-06,0.160
-4.640E-06,0.180
-4.630E-06,0.080
-4.620E-06,-0.020
-4.610E-06,-0.060
-4.600E-06,-0.040
-4.590E-06,0.000
-4.580E-06,0.060
-4.570E-06,0.040
-4.560E-06,0.060
-4.550E-06,-0.020
-4.540E-06,-0.040
-4.530E-06,-0.060
-4.520E-06,-0.020
-4.510E-06,0.000
-4.500E-06,0.000
-4.490E-06,0.020
-4.480E-06,0.020
-4.470E-06,0.020
-4.460E-06,-0.080
-4.450E-06,-0.020
-4.440E-06,0.000
-4.430E-06,0.000
-4.420E-06,0.100
-4.410E-06,0.120
-4.400E-06,0.140
-4.390E-06,0.060
-4.380E-06,0.000
-4.370E-06,0.000
-4.360E-06,0.000
-4.350E-06,0.040
-4.340E-06,0.060
-4.330E-06,0.100
-4.320E-06,0.080
-4.310E-06,0.080
-4.300E-06,0.060
-4.290E-06,0.080
-4.280E-06,0.060
-4.270E-06,0.100
-4.260E-06,0.100
-4.250E-06,0.120
-4.240E-06,0.120
-4.230E-06,0.080
-4.220E-06,0.080
-4.210E-06,0.080
-4.200E-06,0.100
-4.190E-06,0.080
-4.180E-06,0.100
-4.170E-06,0.060
-4.160E-06,0.040
-4.150E-06,0.080
-4.140E-06,0.020
-4.130E-06,0.060
-4.120E-06,0.060
-4.110E-06,0.060
-4.100E-06,0.040
-4.090E-06,0.080
-4.080E-06,0.040
-4.070E-06,0.060
-4.060E-06,0.000
-4.050E-06,0.040
-4.040E-06,0.100
-4.030E-06,0.160
-4.020E-06,0.180
-4.010E-06,0.140
-4.000E-06,0.020
-3.990E-06,-0.040
-3.980E-06,0.000
-3.970E-06,0.020
-3.960E-06,0.100
-3.950E-06,0.080
-3.940E-06,0.120
-3.930E-06,0.080
-3.920E-06,0.000
-3.910E-06,0.000
-3.900E-06,-0.020
-3.890E-06,0.020
-3.880E-06,0.060
-3.870E-06,0.060
-3.860E-06,0.040
-3.850E-06,0.040
-3.840E-06,0.040
-3.830E-06,0.020
-3.820E-06,0.040
-3.810E-06,0.080
-3.800E-06,0.020
-3.790E-06,0.020
-3.780E-06,0.060
-3.770E-06,0.080
-3.760E-06,0.020
-3.750E-06,0.060
-3.740E-06,0.080
-3.730E-06,0.060
-3.720E-06,0.020
-3.710E-06,0.060
-3.700E-06,0.060
-3.690E-06,0.100
-3.680E-06,0.060
-3.670E-06,0.100
-3.660E-06,0.020
-3.650E-06,0.060
-3.640E-06,0.060
-3.630E-06,0.100
-3.620E-06,0.180
-3.610E-06,0.160
-3.600E-06,0.060
-3.590E-06,0.120
-3.580E-06,0.080
-3.570E-06,0.020
-3.560E-06,0.100
-3.550E-06,0.120
-3.540E-06,0.100
-3.530E-06,0.060
-3.520E-06,0.020
-3.510E-06,0.000
-3.500E-06,0.000
-3.490E-06,0.020
-3.480E-06,0.020
-3.470E-06,0.080
-3.460E-06,0.040
-3.450E-06,0.080
-3.440E-06,0.120
-3.430E-06,0.120
-3.420E-06,0.160
-3.410E-06,0.160
-3.400E-06,0.140
-3.390E-06,0.100
-3.380E-06,0.100
-3.370E-06,0.060
-3.360E-06,0.080
-3.350E-06,0.060
-3.340E-06,0.020
-3.330E-06,0.020
-3.320E-06,0.000
-3.310E-06,0.000
-3.300E-06,0.040
-3.290E-06,0.080
-3.280E-06,0.040
-3.270E-06,0.020
-3.260E-06,0.080
-3.250E-06,0.020
-3.240E-06,0.080
-3.230E-06,0.000
-3.220E-06,0.000
-3.210E-06,0.000
-3.200E-06,0.040
-3.190E-06,0.180
-3.180E-06,0.220
-3.170E-06,0.160
-3.160E-06,0.100
-3.150E-06,0.020
-3.140E-06,0.060
-3.130E-06,0.180
-3.120E-06,0.180
-3.110E-06,0.240
-3.100E-06,0.240
-3.090E-06,0.100
-3.080E-06,0.100
-3.070E-06,0.040
-3.060E-06,0.080
-3.050E-06,0.140
-3.040E-06,0.180
-3.030E-06,0.180
-3.020E-06,0.220
-3.010E-06,0.180
-3.000E-06,0.100
-2.990E-06,0.100
-2.980E-06,0.100
-2.970E-06,0.120
-2.960E-06,0.160
-2.950E-06,0.200
-2.940E-06,0.160
-2.930E-06,0.120
-2.920E-06,0.040
-2.910E-06,-0.020
-2.900E-06,0.040
-2.890E-06,0.080
-2.880E-06,0.080
-2.870E-06,0.200
-2.860E-06,0.480
-2.850E-06,-0.360
-2.840E-06,0.000
-2.830E-06,-0.120
-2.820E-06,-0.040
-2.810E-06,0.720
-2.800E-06,1.020
-2.790E-06,0.980
-2.780E-06,0.780
-2.770E-06,0.080
-2.760E-06,-0.040
-2.750E-06,0.080
-2.740E-06,0.160
-2.730E-06,0.440
-2.720E-06,0.680
-2.710E-06,0.080
-2.700E-06,-0.180
-2.690E-06,-0.140
-2.680E-06,-0.420
-2.670E-06,0.120
-2.660E-06,0.080
-2.650E-06,0.120
-2.640E-06,0.120
-2.630E-06,-0.140
-2.620E-06,-0.160
-2.610E-06,-0.020
-2.600E-06,-0.160
-2.590E-06,-0.200
-2.580E-06,-0.200
-2.570E-06,-0.160
-2.560E-06,-0.080
-2.550E-06,-0.200
-2.540E-06,-0.220
-2.530E-06,-0.120
-2.520E-06,-0.340
-2.510E-06,-0.320
-2.500E-06,-0.100
-2.490E-06,-0.020
-2.480E-06,0.160
-2.470E-06,0.160
-2.460E-06,0.040
-2.450E-06,-0.160
-2.440E-06,-0.260
-2.430E-06,-0.160
-2.420E-06,0.080
-2.410E-06,0.160
-2.400E-06,0.160
-2.390E-06,0.180
-2.380E-06,0.140
-2.370E-06,0.120
-2.360E-06,0.120
-2.350E-06,0.200
-2.340E-06,0.240
-2.330E-06,0.300
-2.320E-06,0.320
-2.310E-06,0.320
-2.300E-06,0.300
-2.290E-06,0.240
-2.280E-06,0.120
-2.270E-06,0.140
-2.260E-06,0.240
-2.250E-06,0.240
-2.240E-06,0.260
-2.230E-06,0.200
-2.220E-06,0.080
-2.210E-06,0.060
-2.200E-06,0.020
-2.190E-06,0.040
-2.180E-06,0.060
-2.170E-06,0.080
-2.160E-06,0.080
-2.150E-06,0.000
-2.140E-06,-0.080
-2.130E-06,-0.060
-2.120E-06,-0.020
-2.110E-06,-0.040
-2.100E-06,-0.020
-2.090E-06,-0.020
-2.080E-06,-0.120
-2.070E-06,-0.040
-2.060E-06,0.040
-2.050E-06,0.140
-2.040E-06,0.200
-2.030E-06,0.140
-2.020E-06,0.060
-2.010E-06,-0.020
-2.000E-06,-0.100
-1.990E-06,-0.040
-1.980E-06,0.020
-1.970E-06,0.120
-1.960E-06,0.140
-1.950E-06,0.120
-1.940E-06,0.100
-1.930E-06,0.040
-1.920E-06,0.020
-1.910E-06,0.060
-1.900E-06,0.160
-1.890E-06,0.160
-1.880E-06,0.220
-1.870E-06,0.200
-1.860E-06,0.080
-1.850E-06,0.020
-1.840E-06,0.000
-1.830E-06,0.000
-1.820E-06,0.100
-1.810E-06,0.120
-1.800E-06,0.100
-1.790E-06,0.040
-1.780E-06,-0.060
-1.770E-06,-0.040
-1.760E-06,-0.020
-1.750E-06,0.000
-1.740E-06,0.040
-1.730E-06,0.040
-1.720E-06,-0.020
-1.710E-06,0.080
-1.700E-06,0.140
-1.690E-06,0.160
-1.680E-06,0.280
-1.670E-06,0.220
-1.660E-06,0.200
-1.650E-06,0.160
-1.640E-06,0.080
-1.630E-06,0.060
-1.620E-06,0.060
-1.610E-06,0.080
-1.600E-06,0.180
-1.590E-06,0.200
-1.580E-06,0.220
-1.570E-06,0.200
-1.560E-06,0.180
-1.550E-06,0.140
-1.540E-06,0.180
-1.530E-06,0.160
-1.520E-06,0.180
-1.510E-06,0.180
-1.500E-06,0.180
-1.490E-06,0.160
-1.480E-06,0.100
-1.470E-06,0.040
-1.460E-06,-0.020
-1.450E-06,0.020
-1.440E-06,0.060
-1.430E-06,0.140
-1.420E-06,0.160
-1.410E-06,0.120
-1.400E-06,0.080
-1.390E-06,0.080
-1.380E-06,0.140
-1.370E-06,0.220
-1.360E-06,0.240
-1.350E-06,0.220
-1.340E-06,0.200
-1.330E-06,0.180
-1.320E-06,0.200
-1.310E-06,0.220
-1.300E-06,0.340
-1.290E-06,0.360
-1.280E-06,0.480
-1.270E-06,0.220
-1.260E-06,0.160
-1.250E-06,0.160
-1.240E-06,0.380
-1.230E-06,1.020
-1.220E-06,1.600
-1.210E-06,1.480
-1.200E-06,1.200
-1.190E-06,0.420
-1.180E-06,0.000
-1.170E-06,0.140
-1.160E-06,0.240
-1.150E-06,0.420
-1.140E-06,0.320
-1.130E-06,0.120
-1.120E-06,-0.020
-1.110E-06,-0.280
-1.100E-06,-0.400
-1.090E-06,-0.500
-1.080E-06,-0.460
-1.070E-06,-0.440
-1.060E-06,-0.420
-1.050E-06,-0.300
-1.040E-06,-0.160
-1.030E-06,-0.140
-1.020E-06,-0.080
-1.010E-06,-0.180
-1.000E-06,-0.360
-9.900E-07,-0.420
-9.800E-07,-0.380
-9.700E-07,-0.320
-9.600E-07,-0.260
-9.500E-07,-0.300
-9.400E-07,-0.320
-9.300E-07,-0.340
-9.200E-07,-0.280
-9.100E-07,-0.240
-9.000E-07,-0.240
-8.900E-07,-0.220
-8.800E-07,-0.120
-8.700E-07,-0.180
-8.600E-07,-0.240
-8.500E-07,-0.240
-8.400E-07,-0.340
-8.300E-07,-0.120
-8.200E-07,0.160
-8.100E-07,0.400
-8.000E-07,0.500
-7.900E-07,0.460
-7.800E-07,0.300
-7.700E-07,0.300
-7.600E-07,0.340
-7.500E-07,0.380
-7.400E-07,0.600
-7.300E-07,0.660
-7.200E-07,0.640
-7.100E-07,0.680
-7.000E-07,0.720
-6.900E-07,0.760
-6.800E-07,0.840
-6.700E-07,0.840
-6.600E-07,0.800
-6.500E-07,0.740
-6.400E-07,0.520
-6.300E-07,0.360
-6.200E-07,0.260
-6.100E-07,0.180
-6.000E-07,0.100
-5.900E-07,0.040
-5.800E-07,0.000
-5.700E-07,-0.160
-5.600E-07,-0.200
-5.500E-07,-0.280
-5.400E-07,-0.380
-5.300E-07,-0.420
-5.200E-07,-0.460
-5.100E-07,-0.380
-5.000E-07,-0.360
-4.900E-07,-0.340
-4.800E-07,-0.400
-4.700E-07,-0.300
-4.600E-07,-0.720
-4.500E-07,-0.840
-4.400E-07,-0.860
-4.300E-07,-0.760
-4.200E-07,-0.100
-4.100E-07,0.400
-4.000E-07,1.000
-3.900E-07,1.220
-3.800E-07,1.200
-3.700E-07,1.140
-3.600E-07,1.120
-3.500E-07,1.040
-3.400E-07,0.980
-3.300E-07,0.880
-3.200E-07,0.800
-3.100E-07,0.680
-3.000E-07,0.520
-2.900E-07,0.320
-2.800E-07,0.120
-2.700E-07,0.000
-2.600E-07,-0.040
-2.500E-07,-0.100
-2.400E-07,-0.140
-2.300E-07,-0.160
-2.200E-07,-0.200
-2.100E-07,-0.280
-2.000E-07,-0.320
-1.900E-07,-0.340
-1.800E-07,-0.340
-1.700E-07,-0.300
-1.600E-07,-0.300
-1.500E-07,-0.440
-1.400E-07,-0.480
-1.300E-07,-0.520
-1.200E-07,-0.580
-1.100E-07,-0.660
-1.000E-07,-0.760
-9.000E-08,-0.900
-8.000E-08,-0.920
-7.000E-08,-0.740
-6.000E-08,-0.660
-5.000E-08,0.100
-4.000E-08,0.200
-3.000E-08,-0.380
-2.000E-08,0.460
-1.000E-08,1.060
0.000E+00,2.760
1.000E-08,2.760
2.000E-08,2.760
3.000E-08,2.740
4.000E-08,2.760
5.000E-08,2.260
6.000E-08,1.480
7.000E-08,1.480
8.000E-08,1.300
9.000E-08,1.100
1.000E-07,0.420
1.100E-07,-0.180
1.200E-07,-0.880
1.300E-07,-0.880
1.400E-07,-0.840
1.500E-07,-1.100
1.600E-07,-1.180
1.700E-07,-1.640
1.800E-07,-2.660
1.900E-07,-2.660
2.000E-07,-2.680
2.100E-07,-2.020
2.200E-07,-0.800
2.300E-07,0.220
2.400E-07,1.060
2.500E-07,1.560
2.600E-07,1.620
2.700E-07,1.640
2.800E-07,1.440
2.900E-07,0.980
3.000E-07,0.500
3.100E-07,0.040
3.200E-07,-0.300
3.300E-07,-0.700
3.400E-07,-0.960
3.500E-07,-1.060
3.600E-07,-0.860
3.700E-07,-0.260
3.800E-07,0.200
3.900E-07,0.560
4.000E-07,0.600
4.100E-07,0.360
4.200E-07,0.120
4.300E-07,0.040
4.400E-07,-0.360
4.500E-07,-0.460
4.600E-07,-0.660
4.700E-07,-0.820
4.800E-07,-0.600
4.900E-07,-0.440
5.000E-07,-1.280
5.100E-07,-1.420
5.200E-07,-1.420
5.300E-07,-1.140
5.400E-07,0.500
5.500E-07,1.180
5.600E-07,1.260
5.700E-07,0.940
5.800E-07,0.180
5.900E-07,0.020
6.000E-07,0.840
6.100E-07,1.460
6.200E-07,2.040
6.300E-07,2.100
6.400E-07,1.640
6.500E-07,1.400
6.600E-07,1.320
6.700E-07,1.400
6.800E-07,1.220
6.900E-07,1.080
7.000E-07,0.680
7.100E-07,0.520
7.200E-07,0.820
7.300E-07,1.280
7.400E-07,1.620
7.500E-07,2.380
7.600E-07,2.780
7.700E-07,2.780
7.800E-07,2.760
7.900E-07,2.780
8.000E-07,2.560
8.100E-07,1.320
8.200E-07,-0.240
8.300E-07,-1.360
8.400E-07,-2.380
8.500E-07,-2.660
8.600E-07,-2.680
8.700E-07,-2.680
8.800E-07,-2.680
8.900E-07,-2.680
9.000E-07,-2.660
9.100E-07,-2.660
9.200E-07,-1.840
9.300E-07,-1.260
9.400E-07,-0.820
9.500E-07,-0.380
9.600E-07,-0.060
9.700E-07,0.300
9.800E-07,0.680
9.900E-07,1.120
1.000E-06,1.420
1.010E-06,1.720
1.020E-06,2.000
1.030E-06,2.100
1.040E-06,2.120
1.050E-06,2.220
1.060E-06,2.220
1.070E-06,2.180
1.080E-06,2.140
1.090E-06,2.220
1.100E-06,2.780
1.110E-06,2.680
1.120E-06,2.780
1.130E-06,2.760
1.140E-06,2.760
1.150E-06,2.780
1.160E-06,2.780
1.170E-06,2.760
1.180E-06,2.760
1.190E-06,-2.640
1.200E-06,-2.640
1.210E-06,-2.660
1.220E-06,-2.660
1.230E-06,-2.680
1.240E-06,-2.680
1.250E-06,-2.660
1.260E-06,-2.660
1.270E-06,-2.660
1.280E-06,-0.360
1.290E-06,1.800
1.300E-06,2.740
1.310E-06,2.760
1.320E-06,2.760
1.330E-06,2.760
1.340E-06,2.740
1.350E-06,2.760
1.360E-06,2.780
1.370E-06,2.760
1.380E-06,2.780
1.390E-06,2.580
1.400E-06,1.280
1.410E-06,0.180
1.420E-06,-1.120
1.430E-06,-1.920
1.440E-06,-2.180
1.450E-06,-2.260
1.460E-06,-1.920
1.470E-06,-1.420
1.480E-06,-0.860
1.490E-06,-0.240
1.500E-06,0.240
1.510E-06,0.380
1.520E-06,0.600
1.530E-06,0.780
1.540E-06,0.840
1.550E-06,1.120
1.560E-06,1.380
1.570E-06,1.260
1.580E-06,1.040
1.590E-06,0.460
1.600E-06,-0.200
1.610E-06,-0.500
1.620E-06,-0.780
1.630E-06,-0.920
1.640E-06,-0.720
1.650E-06,-0.240
1.660E-06,0.300
1.670E-06,0.960
1.680E-06,1.660
1.690E-06,2.180
1.700E-06,2.620
1.710E-06,2.760
1.720E-06,2.780
1.730E-06,2.760
1.740E-06,2.760
1.750E-06,2.760
1.760E-06,2.420
1.770E-06,2.120
1.780E-06,1.800
1.790E-06,1.540
1.800E-06,1.360
1.810E-06,1.200
1.820E-06,1.180
1.830E-06,1.180
1.840E-06,1.360
1.850E-06,1.440
1.860E-06,1.540
1.870E-06,1.660
1.880E-06,1.720
1.890E-06,1.840
1.900E-06,1.800
1.910E-06,1.760
1.920E-06,1.660
1.930E-06,1.420
1.940E-06,1.140
1.950E-06,0.840
1.960E-06,0.520
1.970E-06,0.200
1.980E-06,0.000
1.990E-06,-0.160
2.000E-06,-0.280
2.010E-06,-0.320
2.020E-06,-0.360
2.030E-06,-0.320
2.040E-06,-0.320
2.050E-06,-0.340
2.060E-06,-0.280
2.070E-06,-0.260
2.080E-06,-0.320
2.090E-06,-0.340
2.100E-06,-0.480
2.110E-06,-0.620
2.120E-06,-0.740
2.130E-06,-0.900
2.140E-06,-1.080
2.150E-06,-1.340
2.160E-06,-1.520
2.170E-06,-1.720
2.180E-06,-1.960
2.190E-06,-2.140
2.200E-06,-2.320
2.210E-06,-2.420
2.220E-06,-2.520
2.230E-06,-2.600
2.240E-06,-2.600
2.250E-06,-2.560
2.260E-06,-2.440
2.270E-06,-2.280
2.280E-06,-2.060
2.290E-06,-1.880
2.300E-06,-1.600
2.310E-06,-1.380
2.320E-06,-1.100
2.330E-06,-0.860
2.340E-06,-0.660
2.350E-06,-0.460
2.360E-06,-0.340
2.370E-06,-0.260
2.380E-06,-0.280
2.390E-06,-0.220
2.400E-06,-0.200
2.410E-06,-0.080
2.420E-06,0.020
2.430E-06,0.220
2.440E-06,0.420
2.450E-06,0.640
2.460E-06,0.820
2.470E-06,0.980
2.480E-06,1.120
2.490E-06,1.240
2.500E-06,1.360
2.510E-06,1.460
2.520E-06,1.460
2.530E-06,1.520
2.540E-06,1.520
2.550E-06,1.500
2.560E-06,1.520
2.570E-06,1.420
2.580E-06,1.440
2.590E-06,1.380
2.600E-06,1.320
2.610E-06,1.260
2.620E-06,1.180
2.630E-06,1.120
2.640E-06,1.060
2.650E-06,1.040
2.660E-06,0.940
2.670E-06,0.900
2.680E-06,0.840
2.690E-06,0.840
2.700E-06,0.820
2.710E-06,0.800
2.720E-06,0.840
2.730E-06,0.880
2.740E-06,0.920
2.750E-06,1.020
2.760E-06,1.120
2.770E-06,1.240
2.780E-06,1.320
2.790E-06,1.380
2.800E-06,1.420
2.810E-06,1.420
2.820E-06,1.380
2.830E-06,1.260
2.840E-06,1.100
2.850E-06,1.020
2.860E-06,0.960
2.870E-06,0.800
2.880E-06,0.620
2.890E-06,0.500
2.900E-06,0.460
2.910E-06,0.460
2.920E-06,0.480
2.930E-06,0.500
2.940E-06,0.580
2.950E-06,0.680
2.960E-06,0.680
2.970E-06,0.720
2.980E-06,0.760
2.990E-06,0.780
3.000E-06,0.780
3.010E-06,0.760
3.020E-06,0.740
3.030E-06,0.760
3.040E-06,0.780
3.050E-06,0.800
3.060E-06,0.840
3.070E-06,0.820
3.080E-06,0.780
3.090E-06,0.660
3.100E-06,0.620
3.110E-06,0.480
3.120E-06,0.340
3.130E-06,0.220
3.140E-06,0.060
3.150E-06,0.100
3.160E-06,0.140
3.170E-06,0.160
3.180E-06,0.120
3.190E-06,0.180
3.200E-06,0.220
3.210E-06,0.440
3.220E-06,0.680
3.230E-06,0.860
3.240E-06,0.900
3.250E-06,0.860
3.260E-06,0.720
3.270E-06,0.580
3.280E-06,0.580
3.290E-06,0.560
3.300E-06,0.600
3.310E-06,0.660
3.320E-06,0.640
3.330E-06,0.560
3.340E-06,0.480
3.350E-06,0.320
3.360E-06,0.140
3.370E-06,-0.020
3.380E-06,-0.180
3.390E-06,-0.160
3.400E-06,-0.100
3.410E-06,0.080
3.420E-06,0.240
3.430E-06,0.420
3.440E-06,0.540
3.450E-06,0.660
3.460E-06,0.740
3.470E-06,0.740
3.480E-06,0.720
3.490E-06,0.580
3.500E-06,0.420
3.510E-06,0.220
3.520E-06,0.020
3.530E-06,-0.160
3.540E-06,-0.340
3.550E-06,-0.480
3.560E-06,-0.580
3.570E-06,-0.600
3.580E-06,-0.600
3.590E-06,-0.540
3.600E-06,-0.520
3.610E-06,-0.480
