mediciones/6-26/42.5/WaveData59303.csv

#timebase=2000000(ps)
,#voltbase=500000(mv/100)
#size=4000
-8.150E-06,0.040
-8.140E-06,0.060
-8.130E-06,0.080
-8.120E-06,0.060
-8.110E-06,0.080
-8.100E-06,0.040
-8.090E-06,0.040
-8.080E-06,0.060
-8.070E-06,0.060
-8.060E-06,0.080
-8.050E-06,0.080
-8.040E-06,0.080
-8.030E-06,0.040
-8.020E-06,0.080
-8.010E-06,0.060
-8.000E-06,0.080
-7.990E-06,0.080
-7.980E-06,0.060
-7.970E-06,0.060
-7.960E-06,0.060
-7.950E-06,0.080
-7.940E-06,0.060
-7.930E-06,0.080
-7.920E-06,0.060
-7.910E-06,0.040
-7.900E-06,0.060
-7.890E-06,0.060
-7.880E-06,0.060
-7.870E-06,0.080
-7.860E-06,0.060
-7.850E-06,0.040
-7.840E-06,0.060
-7.830E-06,0.040
-7.820E-06,0.060
-7.810E-06,0.060
-7.800E-06,0.060
-7.790E-06,0.060
-7.780E-06,0.080
-7.770E-06,0.060
-7.760E-06,0.060
-7.750E-06,0.040
-7.740E-06,0.060
-7.730E-06,0.080
-7.720E-06,0.060
-7.710E-06,0.060
-7.700E-06,0.060
-7.690E-06,0.080
-7.680E-06,0.060
-7.670E-06,0.040
-7.660E-06,0.060
-7.650E-06,0.040
-7.640E-06,0.080
-7.630E-06,0.060
-7.620E-06,0.100
-7.610E-06,0.060
-7.600E-06,0.060
-7.590E-06,0.040
-7.580E-06,0.080
-7.570E-06,0.080
-7.560E-06,0.060
-7.550E-06,0.040
-7.540E-06,0.040
-7.530E-06,0.040
-7.520E-06,0.060
-7.510E-06,0.040
-7.500E-06,0.040
-7.490E-06,0.080
-7.480E-06,0.060
-7.470E-06,0.040
-7.460E-06,0.080
-7.450E-06,0.080
-7.440E-06,0.040
-7.430E-06,0.080
-7.420E-06,0.060
-7.410E-06,0.040
-7.400E-06,0.040
-7.390E-06,0.080
-7.380E-06,0.080
-7.370E-06,0.080
-7.360E-06,0.080
-7.350E-06,0.020
-7.340E-06,0.040
-7.330E-06,0.060
-7.320E-06,0.040
-7.310E-06,0.060
-7.300E-06,0.040
-7.290E-06,0.080
-7.280E-06,0.080
-7.270E-06,0.040
-7.260E-06,0.020
-7.250E-06,0.060
-7.240E-06,0.040
-7.230E-06,0.060
-7.220E-06,0.060
-7.210E-06,0.080
-7.200E-06,0.060
-7.190E-06,0.040
-7.180E-06,0.080
-7.170E-06,0.060
-7.160E-06,0.040
-7.150E-06,0.040
-7.140E-06,0.040
-7.130E-06,0.040
-7.120E-06,0.060
-7.110E-06,0.040
-7.100E-06,0.060
-7.090E-06,0.040
-7.080E-06,0.080
-7.070E-06,0.060
-7.060E-06,0.060
-7.050E-06,0.080
-7.040E-06,0.060
-7.030E-06,0.080
-7.020E-06,0.060
-7.010E-06,0.080
-7.000E-06,0.060
-6.990E-06,0.060
-6.980E-06,0.080
-6.970E-06,0.080
-6.960E-06,0.080
-6.950E-06,0.060
-6.940E-06,0.060
-6.930E-06,0.040
-6.920E-06,0.040
-6.910E-06,0.080
-6.900E-06,0.060
-6.890E-06,0.020
-6.880E-06,0.060
-6.870E-06,0.080
-6.860E-06,0.100
-6.850E-06,0.060
-6.840E-06,0.060
-6.830E-06,0.080
-6.820E-06,0.080
-6.810E-06,0.040
-6.800E-06,0.060
-6.790E-06,0.080
-6.780E-06,0.040
-6.770E-06,0.080
-6.760E-06,0.080
-6.750E-06,0.080
-6.740E-06,0.040
-6.730E-06,0.080
-6.720E-06,0.060
-6.710E-06,0.080
-6.700E-06,0.060
-6.690E-06,0.060
-6.680E-06,0.060
-6.670E-06,0.080
-6.660E-06,0.080
-6.650E-06,0.040
-6.640E-06,0.060
-6.630E-06,0.080
-6.620E-06,0.040
-6.610E-06,0.060
-6.600E-06,0.040
-6.590E-06,0.080
-6.580E-06,0.080
-6.570E-06,0.080
-6.560E-06,0.080
-6.550E-06,0.040
-6.540E-06,0.020
-6.530E-06,0.060
-6.520E-06,0.060
-6.510E-06,0.080
-6.500E-06,0.100
-6.490E-06,0.040
-6.480E-06,0.060
-6.470E-06,0.040
-6.460E-06,0.060
-6.450E-06,0.080
-6.440E-06,0.060
-6.430E-06,0.080
-6.420E-06,0.080
-6.410E-06,0.040
-6.400E-06,0.060
-6.390E-06,0.060
-6.380E-06,0.040
-6.370E-06,0.100
-6.360E-06,0.020
-6.350E-06,0.060
-6.340E-06,0.040
-6.330E-06,0.020
-6.320E-06,0.060
-6.310E-06,0.040
-6.300E-06,0.060
-6.290E-06,0.040
-6.280E-06,0.060
-6.270E-06,0.060
-6.260E-06,0.060
-6.250E-06,0.040
-6.240E-06,0.080
-6.230E-06,0.060
-6.220E-06,0.020
-6.210E-06,0.040
-6.200E-06,0.060
-6.190E-06,0.040
-6.180E-06,0.080
-6.170E-06,0.060
-6.160E-06,0.060
-6.150E-06,0.060
-6.140E-06,0.040
-6.130E-06,0.060
-6.120E-06,0.060
-6.110E-06,0.080
-6.100E-06,0.060
-6.090E-06,0.060
-6.080E-06,0.060
-6.070E-06,0.060
-6.060E-06,0.080
-6.050E-06,0.060
-6.040E-06,0.060
-6.030E-06,0.080
-6.020E-06,0.080
-6.010E-06,0.060
-6.000E-06,0.040
-5.990E-06,0.100
-5.980E-06,0.080
-5.970E-06,0.060
-5.960E-06,0.040
-5.950E-06,0.060
-5.940E-06,0.040
-5.930E-06,0.080
-5.920E-06,0.060
-5.910E-06,0.080
-5.900E-06,0.080
-5.890E-06,0.040
-5.880E-06,0.040
-5.870E-06,0.060
-5.860E-06,0.040
-5.850E-06,0.060
-5.840E-06,0.080
-5.830E-06,0.080
-5.820E-06,0.040
-5.810E-06,0.060
-5.800E-06,0.060
-5.790E-06,0.100
-5.780E-06,0.060
-5.770E-06,0.060
-5.760E-06,0.060
-5.750E-06,0.080
-5.740E-06,0.060
-5.730E-06,0.040
-5.720E-06,0.040
-5.710E-06,0.060
-5.700E-06,0.080
-5.690E-06,0.100
-5.680E-06,0.060
-5.670E-06,0.080
-5.660E-06,0.040
-5.650E-06,0.080
-5.640E-06,0.080
-5.630E-06,0.040
-5.620E-06,0.040
-5.610E-06,0.100
-5.600E-06,0.040
-5.590E-06,0.060
-5.580E-06,0.040
-5.570E-06,0.060
-5.560E-06,0.020
-5.550E-06,0.040
-5.540E-06,0.060
-5.530E-06,0.080
-5.520E-06,0.020
-5.510E-06,0.060
-5.500E-06,0.060
-5.490E-06,0.080
-5.480E-06,0.060
-5.470E-06,0.060
-5.460E-06,0.080
-5.450E-06,0.060
-5.440E-06,0.040
-5.430E-06,0.060
-5.420E-06,0.080
-5.410E-06,0.060
-5.400E-06,0.060
-5.390E-06,0.060
-5.380E-06,0.080
-5.370E-06,0.080
-5.360E-06,0.060
-5.350E-06,0.060
-5.340E-06,0.040
-5.330E-06,0.060
-5.320E-06,0.040
-5.310E-06,0.080
-5.300E-06,0.080
-5.290E-06,0.060
-5.280E-06,0.060
-5.270E-06,0.060
-5.260E-06,0.040
-5.250E-06,0.040
-5.240E-06,0.080
-5.230E-06,0.060
-5.220E-06,0.080
-5.210E-06,0.040
-5.200E-06,0.060
-5.190E-06,0.060
-5.180E-06,0.080
-5.170E-06,0.100
-5.160E-06,0.020
-5.150E-06,0.060
-5.140E-06,0.040
-5.130E-06,0.060
-5.120E-06,0.040
-5.110E-06,0.060
-5.100E-06,0.040
-5.090E-06,0.080
-5.080E-06,0.060
-5.070E-06,0.060
-5.060E-06,0.060
-5.050E-06,0.100
-5.040E-06,0.040
-5.030E-06,0.060
-5.020E-06,0.060
-5.010E-06,0.060
-5.000E-06,0.080
-4.990E-06,0.040
-4.980E-06,0.080
-4.970E-06,0.080
-4.960E-06,0.080
-4.950E-06,0.040
-4.940E-06,0.060
-4.930E-06,0.080
-4.920E-06,0.060
-4.910E-06,0.060
-4.900E-06,0.040
-4.890E-06,0.040
-4.880E-06,0.060
-4.870E-06,0.060
-4.860E-06,0.100
-4.850E-06,0.060
-4.840E-06,0.080
-4.830E-06,0.080
-4.820E-06,0.020
-4.810E-06,0.080
-4.800E-06,0.060
-4.790E-06,0.080
-4.780E-06,0.060
-4.770E-06,0.080
-4.760E-06,0.040
-4.750E-06,0.040
-4.740E-06,0.060
-4.730E-06,0.080
-4.720E-06,0.080
-4.710E-06,0.020
-4.700E-06,0.040
-4.690E-06,0.100
-4.680E-06,0.060
-4.670E-06,0.060
-4.660E-06,0.060
-4.650E-06,0.060
-4.640E-06,0.080
-4.630E-06,0.060
-4.620E-06,0.080
-4.610E-06,0.040
-4.600E-06,0.040
-4.590E-06,0.080
-4.580E-06,0.080
-4.570E-06,0.040
-4.560E-06,0.040
-4.550E-06,0.060
-4.540E-06,0.080
-4.530E-06,0.060
-4.520E-06,0.080
-4.510E-06,0.040
-4.500E-06,0.060
-4.490E-06,0.040
-4.480E-06,0.040
-4.470E-06,0.060
-4.460E-06,0.060
-4.450E-06,0.040
-4.440E-06,0.060
-4.430E-06,0.080
-4.420E-06,0.080
-4.410E-06,0.040
-4.400E-06,0.040
-4.390E-06,0.040
-4.380E-06,0.060
-4.370E-06,0.080
-4.360E-06,0.060
-4.350E-06,0.020
-4.340E-06,0.060
-4.330E-06,0.060
-4.320E-06,0.040
-4.310E-06,0.060
-4.300E-06,0.060
-4.290E-06,0.060
-4.280E-06,0.060
-4.270E-06,0.060
-4.260E-06,0.040
-4.250E-06,0.060
-4.240E-06,0.060
-4.230E-06,0.060
-4.220E-06,0.080
-4.210E-06,0.060
-4.200E-06,0.080
-4.190E-06,0.080
-4.180E-06,0.080
-4.170E-06,0.080
-4.160E-06,0.080
-4.150E-06,0.080
-4.140E-06,0.060
-4.130E-06,0.040
-4.120E-06,0.060
-4.110E-06,0.020
-4.100E-06,0.040
-4.090E-06,0.060
-4.080E-06,0.040
-4.070E-06,0.080
-4.060E-06,0.040
-4.050E-06,0.060
-4.040E-06,0.060
-4.030E-06,0.080
-4.020E-06,0.060
-4.010E-06,0.040
-4.000E-06,0.040
-3.990E-06,0.060
-3.980E-06,0.080
-3.970E-06,0.060
-3.960E-06,0.080
-3.950E-06,0.060
-3.940E-06,0.080
-3.930E-06,0.080
-3.920E-06,0.040
-3.910E-06,0.040
-3.900E-06,0.060
-3.890E-06,0.040
-3.880E-06,0.080
-3.870E-06,0.060
-3.860E-06,0.080
-3.850E-06,0.080
-3.840E-06,0.080
-3.830E-06,0.080
-3.820E-06,0.040
-3.810E-06,0.020
-3.800E-06,0.060
-3.790E-06,0.060
-3.780E-06,0.080
-3.770E-06,0.040
-3.760E-06,0.020
-3.750E-06,0.080
-3.740E-06,0.080
-3.730E-06,0.100
-3.720E-06,0.060
-3.710E-06,0.080
-3.700E-06,0.060
-3.690E-06,0.040
-3.680E-06,0.040
-3.670E-06,0.080
-3.660E-06,0.060
-3.650E-06,0.040
-3.640E-06,0.080
-3.630E-06,0.040
-3.620E-06,0.060
-3.610E-06,0.060
-3.600E-06,0.080
-3.590E-06,0.040
-3.580E-06,0.060
-3.570E-06,0.080
-3.560E-06,0.040
-3.550E-06,0.040
-3.540E-06,0.020
-3.530E-06,0.060
-3.520E-06,0.040
-3.510E-06,0.060
-3.500E-06,0.040
-3.490E-06,0.060
-3.480E-06,0.060
-3.470E-06,0.040
-3.460E-06,0.080
-3.450E-06,0.080
-3.440E-06,0.060
-3.430E-06,0.080
-3.420E-06,0.080
-3.410E-06,0.080
-3.400E-06,0.040
-3.390E-06,0.080
-3.380E-06,0.080
-3.370E-06,0.060
-3.360E-06,0.080
-3.350E-06,0.040
-3.340E-06,0.040
-3.330E-06,0.060
-3.320E-06,0.040
-3.310E-06,0.060
-3.300E-06,0.080
-3.290E-06,0.080
-3.280E-06,0.080
-3.270E-06,0.060
-3.260E-06,0.080
-3.250E-06,0.080
-3.240E-06,0.080
-3.230E-06,0.040
-3.220E-06,0.040
-3.210E-06,0.060
-3.200E-06,0.080
-3.190E-06,0.100
-3.180E-06,0.040
-3.170E-06,0.100
-3.160E-06,0.100
-3.150E-06,0.060
-3.140E-06,0.080
-3.130E-06,0.060
-3.120E-06,0.080
-3.110E-06,0.060
-3.100E-06,0.040
-3.090E-06,0.060
-3.080E-06,0.060
-3.070E-06,0.060
-3.060E-06,0.040
-3.050E-06,0.060
-3.040E-06,0.060
-3.030E-06,0.100
-3.020E-06,0.060
-3.010E-06,0.060
-3.000E-06,0.060
-2.990E-06,0.060
-2.980E-06,0.040
-2.970E-06,0.060
-2.960E-06,0.060
-2.950E-06,0.060
-2.940E-06,0.060
-2.930E-06,0.080
-2.920E-06,0.100
-2.910E-06,0.040
-2.900E-06,0.040
-2.890E-06,0.040
-2.880E-06,0.040
-2.870E-06,0.100
-2.860E-06,0.060
-2.850E-06,0.100
-2.840E-06,0.060
-2.830E-06,0.080
-2.820E-06,0.080
-2.810E-06,0.060
-2.800E-06,0.060
-2.790E-06,0.060
-2.780E-06,0.080
-2.770E-06,0.060
-2.760E-06,0.020
-2.750E-06,0.040
-2.740E-06,0.040
-2.730E-06,0.080
-2.720E-06,0.080
-2.710E-06,0.080
-2.700E-06,0.060
-2.690E-06,0.080
-2.680E-06,0.040
-2.670E-06,0.060
-2.660E-06,0.080
-2.650E-06,0.060
-2.640E-06,0.080
-2.630E-06,0.100
-2.620E-06,0.020
-2.610E-06,0.040
-2.600E-06,0.040
-2.590E-06,0.040
-2.580E-06,0.060
-2.570E-06,0.060
-2.560E-06,0.060
-2.550E-06,0.060
-2.540E-06,0.040
-2.530E-06,0.020
-2.520E-06,0.040
-2.510E-06,0.040
-2.500E-06,0.060
-2.490E-06,0.080
-2.480E-06,0.060
-2.470E-06,0.040
-2.460E-06,0.080
-2.450E-06,0.060
-2.440E-06,0.080
-2.430E-06,0.100
-2.420E-06,0.080
-2.410E-06,0.060
-2.400E-06,0.060
-2.390E-06,0.040
-2.380E-06,0.040
-2.370E-06,0.040
-2.360E-06,0.060
-2.350E-06,0.060
-2.340E-06,0.060
-2.330E-06,0.060
-2.320E-06,0.060
-2.310E-06,0.080
-2.300E-06,0.040
-2.290E-06,0.080
-2.280E-06,0.060
-2.270E-06,0.040
-2.260E-06,0.060
-2.250E-06,0.080
-2.240E-06,0.060
-2.230E-06,0.080
-2.220E-06,0.080
-2.210E-06,0.060
-2.200E-06,0.080
-2.190E-06,0.060
-2.180E-06,0.080
-2.170E-06,0.060
-2.160E-06,0.080
-2.150E-06,0.060
-2.140E-06,0.040
-2.130E-06,0.040
-2.120E-06,0.060
-2.110E-06,0.080
-2.100E-06,0.080
-2.090E-06,0.060
-2.080E-06,0.040
-2.070E-06,0.060
-2.060E-06,0.080
-2.050E-06,0.040
-2.040E-06,0.080
-2.030E-06,0.100
-2.020E-06,0.100
-2.010E-06,0.080
-2.000E-06,0.060
-1.990E-06,0.080
-1.980E-06,0.080
-1.970E-06,0.040
-1.960E-06,0.080
-1.950E-06,0.120
-1.940E-06,0.140
-1.930E-06,0.080
-1.920E-06,0.080
-1.910E-06,0.060
-1.900E-06,0.060
-1.890E-06,0.040
-1.880E-06,0.080
-1.870E-06,0.080
-1.860E-06,0.100
-1.850E-06,0.100
-1.840E-06,0.060
-1.830E-06,0.020
-1.820E-06,0.080
-1.810E-06,0.100
-1.800E-06,0.100
-1.790E-06,0.040
-1.780E-06,0.060
-1.770E-06,0.020
-1.760E-06,0.040
-1.750E-06,0.060
-1.740E-06,0.020
-1.730E-06,0.000
-1.720E-06,0.020
-1.710E-06,0.000
-1.700E-06,0.000
-1.690E-06,0.000
-1.680E-06,0.000
-1.670E-06,-0.020
-1.660E-06,-0.020
-1.650E-06,0.060
-1.640E-06,0.040
-1.630E-06,0.080
-1.620E-06,0.080
-1.610E-06,0.060
-1.600E-06,0.080
-1.590E-06,0.080
-1.580E-06,0.060
-1.570E-06,0.080
-1.560E-06,0.100
-1.550E-06,0.120
-1.540E-06,0.100
-1.530E-06,0.080
-1.520E-06,0.080
-1.510E-06,0.060
-1.500E-06,0.080
-1.490E-06,0.140
-1.480E-06,0.120
-1.470E-06,0.160
-1.460E-06,0.180
-1.450E-06,0.140
-1.440E-06,0.060
-1.430E-06,0.080
-1.420E-06,0.080
-1.410E-06,0.120
-1.400E-06,0.140
-1.390E-06,0.120
-1.380E-06,0.120
-1.370E-06,0.080
-1.360E-06,0.060
-1.350E-06,0.100
-1.340E-06,0.060
-1.330E-06,0.080
-1.320E-06,0.080
-1.310E-06,0.040
-1.300E-06,0.040
-1.290E-06,0.060
-1.280E-06,0.060
-1.270E-06,0.020
-1.260E-06,0.020
-1.250E-06,0.020
-1.240E-06,0.080
-1.230E-06,0.100
-1.220E-06,0.060
-1.210E-06,0.080
-1.200E-06,0.040
-1.190E-06,0.040
-1.180E-06,0.100
-1.170E-06,0.080
-1.160E-06,0.100
-1.150E-06,0.060
-1.140E-06,0.080
-1.130E-06,0.080
-1.120E-06,0.080
-1.110E-06,0.140
-1.100E-06,0.140
-1.090E-06,0.120
-1.080E-06,0.120
-1.070E-06,0.100
-1.060E-06,0.100
-1.050E-06,0.180
-1.040E-06,0.160
-1.030E-06,0.160
-1.020E-06,0.180
-1.010E-06,0.160
-1.000E-06,0.160
-9.900E-07,0.200
-9.800E-07,0.180
-9.700E-07,0.160
-9.600E-07,0.180
-9.500E-07,0.180
-9.400E-07,0.160
-9.300E-07,0.220
-9.200E-07,0.200
-9.100E-07,0.320
-9.000E-07,0.180
-8.900E-07,0.140
-8.800E-07,0.100
-8.700E-07,0.000
-8.600E-07,0.300
-8.500E-07,0.300
-8.400E-07,0.440
-8.300E-07,0.340
-8.200E-07,0.000
-8.100E-07,0.160
-8.000E-07,0.220
-7.900E-07,0.180
-7.800E-07,0.680
-7.700E-07,0.440
-7.600E-07,0.280
-7.500E-07,0.400
-7.400E-07,0.200
-7.300E-07,0.280
-7.200E-07,0.560
-7.100E-07,0.500
-7.000E-07,0.420
-6.900E-07,0.460
-6.800E-07,0.420
-6.700E-07,0.540
-6.600E-07,0.540
-6.500E-07,0.600
-6.400E-07,0.540
-6.300E-07,0.460
-6.200E-07,0.440
-6.100E-07,0.440
-6.000E-07,0.500
-5.900E-07,0.540
-5.800E-07,0.560
-5.700E-07,0.560
-5.600E-07,0.560
-5.500E-07,0.500
-5.400E-07,0.600
-5.300E-07,0.620
-5.200E-07,0.660
-5.100E-07,0.720
-5.000E-07,0.560
-4.900E-07,0.680
-4.800E-07,0.620
-4.700E-07,0.660
-4.600E-07,0.560
-4.500E-07,0.560
-4.400E-07,0.380
-4.300E-07,0.340
-4.200E-07,0.260
-4.100E-07,0.360
-4.000E-07,0.040
-3.900E-07,0.140
-3.800E-07,0.000
-3.700E-07,-0.060
-3.600E-07,0.120
-3.500E-07,0.120
-3.400E-07,0.320
-3.300E-07,0.800
-3.200E-07,0.620
-3.100E-07,0.600
-3.000E-07,0.320
-2.900E-07,-0.120
-2.800E-07,-0.200
-2.700E-07,-0.080
-2.600E-07,0.080
-2.500E-07,0.360
-2.400E-07,0.640
-2.300E-07,0.260
-2.200E-07,-0.060
-2.100E-07,-0.260
-2.000E-07,-0.500
-1.900E-07,-0.500
-1.800E-07,-0.500
-1.700E-07,-0.360
-1.600E-07,-0.100
-1.500E-07,0.100
-1.400E-07,0.260
-1.300E-07,0.400
-1.200E-07,0.580
-1.100E-07,0.820
-1.000E-07,0.500
-9.000E-08,0.080
-8.000E-08,-0.160
-7.000E-08,-0.620
-6.000E-08,-0.740
-5.000E-08,-0.500
-4.000E-08,-0.380
-3.000E-08,-0.300
-2.000E-08,-0.380
-1.000E-08,-0.520
0.000E+00,-0.500
1.000E-08,-0.320
2.000E-08,0.480
3.000E-08,1.180
4.000E-08,1.160
5.000E-08,1.180
6.000E-08,0.600
7.000E-08,-0.100
8.000E-08,-0.360
9.000E-08,-0.480
1.000E-07,-0.220
1.100E-07,-0.100
1.200E-07,-0.200
1.300E-07,0.000
1.400E-07,-0.160
1.500E-07,0.040
1.600E-07,0.280
1.700E-07,0.180
1.800E-07,0.260
1.900E-07,0.240
2.000E-07,-0.140
2.100E-07,-0.080
2.200E-07,0.080
2.300E-07,0.240
2.400E-07,0.620
2.500E-07,0.580
2.600E-07,1.000
2.700E-07,1.000
2.800E-07,0.360
2.900E-07,0.060
3.000E-07,-0.040
3.100E-07,-0.620
3.200E-07,-0.740
3.300E-07,-0.500
3.400E-07,-0.420
3.500E-07,-0.200
3.600E-07,0.040
3.700E-07,0.220
3.800E-07,0.820
3.900E-07,1.420
4.000E-07,1.680
4.100E-07,1.840
4.200E-07,1.740
4.300E-07,1.580
4.400E-07,1.460
4.500E-07,1.500
4.600E-07,1.600
4.700E-07,1.560
4.800E-07,1.600
4.900E-07,1.720
5.000E-07,1.860
5.100E-07,1.520
5.200E-07,1.220
5.300E-07,0.980
5.400E-07,0.420
5.500E-07,0.240
5.600E-07,-0.100
5.700E-07,-0.460
5.800E-07,-1.600
5.900E-07,-1.820
6.000E-07,-2.660
6.100E-07,-2.660
6.200E-07,-2.660
6.300E-07,-2.660
6.400E-07,-1.880
6.500E-07,-0.680
6.600E-07,1.840
6.700E-07,2.780
6.800E-07,2.780
6.900E-07,2.760
7.000E-07,2.780
7.100E-07,2.320
7.200E-07,2.400
7.300E-07,1.420
7.400E-07,1.240
7.500E-07,0.900
7.600E-07,-0.160
7.700E-07,-1.400
7.800E-07,-1.520
7.900E-07,-2.020
8.000E-07,-2.000
8.100E-07,-1.440
8.200E-07,-1.960
8.300E-07,-1.560
8.400E-07,-1.360
8.500E-07,-1.620
8.600E-07,-0.640
8.700E-07,-0.260
8.800E-07,0.020
8.900E-07,0.420
9.000E-07,0.040
9.100E-07,0.780
9.200E-07,1.360
9.300E-07,1.720
9.400E-07,1.580
9.500E-07,1.000
9.600E-07,-0.320
9.700E-07,-1.000
9.800E-07,-1.840
9.900E-07,-1.920
1.000E-06,-1.500
1.010E-06,-1.020
1.020E-06,-0.640
1.030E-06,-0.260
1.040E-06,0.100
1.050E-06,0.720
1.060E-06,1.340
1.070E-06,2.000
1.080E-06,2.480
1.090E-06,2.760
1.100E-06,2.780
1.110E-06,2.760
1.120E-06,2.740
1.130E-06,2.480
1.140E-06,2.240
1.150E-06,2.020
1.160E-06,1.780
1.170E-06,1.620
1.180E-06,1.580
1.190E-06,1.360
1.200E-06,1.260
1.210E-06,1.140
1.220E-06,1.040
1.230E-06,1.020
1.240E-06,0.960
1.250E-06,0.900
1.260E-06,0.780
1.270E-06,0.740
1.280E-06,0.660
1.290E-06,0.420
1.300E-06,-0.100
1.310E-06,-0.720
1.320E-06,-1.500
1.330E-06,-2.260
1.340E-06,-2.680
1.350E-06,-2.680
1.360E-06,-2.660
1.370E-06,-2.660
1.380E-06,-2.400
1.390E-06,-1.140
1.400E-06,0.440
1.410E-06,2.340
1.420E-06,2.780
1.430E-06,2.760
1.440E-06,2.780
1.450E-06,2.760
1.460E-06,2.760
1.470E-06,2.780
1.480E-06,2.760
1.490E-06,2.740
1.500E-06,2.740
1.510E-06,1.740
1.520E-06,0.780
1.530E-06,-0.080
1.540E-06,-0.640
1.550E-06,-0.860
1.560E-06,-0.920
1.570E-06,-0.720
1.580E-06,-0.320
1.590E-06,0.120
1.600E-06,0.460
1.610E-06,0.860
1.620E-06,1.100
1.630E-06,1.300
1.640E-06,1.380
1.650E-06,1.420
1.660E-06,1.380
1.670E-06,1.180
1.680E-06,1.000
1.690E-06,0.720
1.700E-06,0.400
1.710E-06,0.120
1.720E-06,-0.160
1.730E-06,-0.420
1.740E-06,-0.660
1.750E-06,-0.860
1.760E-06,-1.140
1.770E-06,-1.420
1.780E-06,-1.680
1.790E-06,-1.880
1.800E-06,-2.080
1.810E-06,-2.220
1.820E-06,-2.080
1.830E-06,-1.780
1.840E-06,-1.320
1.850E-06,-0.760
1.860E-06,-0.220
1.870E-06,0.520
1.880E-06,1.220
1.890E-06,1.860
1.900E-06,2.420
1.910E-06,2.780
1.920E-06,2.780
1.930E-06,2.700
1.940E-06,2.420
1.950E-06,1.940
1.960E-06,1.440
1.970E-06,0.940
1.980E-06,0.540
1.990E-06,0.260
2.000E-06,0.000
2.010E-06,-0.100
2.020E-06,-0.200
2.030E-06,-0.200
2.040E-06,-0.160
2.050E-06,-0.080
2.060E-06,0.000
2.070E-06,0.140
2.080E-06,0.260
2.090E-06,0.320
2.100E-06,0.340
2.110E-06,0.380
2.120E-06,0.400
2.130E-06,0.380
2.140E-06,0.320
2.150E-06,0.280
2.160E-06,0.220
2.170E-06,0.180
2.180E-06,0.100
2.190E-06,0.000
2.200E-06,0.000
2.210E-06,0.040
2.220E-06,-0.020
2.230E-06,0.000
2.240E-06,-0.120
2.250E-06,-0.180
2.260E-06,-0.220
2.270E-06,-0.260
2.280E-06,-0.280
2.290E-06,-0.200
2.300E-06,-0.040
2.310E-06,0.040
2.320E-06,0.000
2.330E-06,-0.120
2.340E-06,-0.180
2.350E-06,-0.160
2.360E-06,0.000
2.370E-06,0.120
2.380E-06,0.220
2.390E-06,0.280
2.400E-06,0.240
2.410E-06,0.220
2.420E-06,0.200
2.430E-06,0.180
2.440E-06,0.120
2.450E-06,0.080
2.460E-06,0.000
2.470E-06,-0.100
2.480E-06,-0.220
2.490E-06,-0.360
2.500E-06,-0.460
2.510E-06,-0.560
2.520E-06,-0.580
2.530E-06,-0.600
2.540E-06,-0.600
2.550E-06,-0.540
2.560E-06,-0.440
2.570E-06,-0.400
2.580E-06,-0.260
2.590E-06,-0.220
2.600E-06,-0.160
2.610E-06,-0.060
2.620E-06,-0.020
2.630E-06,-0.080
2.640E-06,-0.120
2.650E-06,-0.120
2.660E-06,-0.140
2.670E-06,-0.080
2.680E-06,-0.060
2.690E-06,-0.080
2.700E-06,-0.140
2.710E-06,-0.200
2.720E-06,-0.260
2.730E-06,-0.340
2.740E-06,-0.400
2.750E-06,-0.520
2.760E-06,-0.680
2.770E-06,-0.660
2.780E-06,-0.500
2.790E-06,-0.280
2.800E-06,-0.080
2.810E-06,0.220
2.820E-06,0.440
2.830E-06,0.680
2.840E-06,0.840
2.850E-06,0.940
2.860E-06,0.940
2.870E-06,0.900
2.880E-06,0.740
2.890E-06,0.660
2.900E-06,0.560
2.910E-06,0.380
2.920E-06,0.220
2.930E-06,0.000
2.940E-06,-0.180
2.950E-06,-0.320
2.960E-06,-0.420
2.970E-06,-0.560
2.980E-06,-0.640
2.990E-06,-0.700
3.000E-06,-0.700
3.010E-06,-0.540
3.020E-06,-0.320
3.030E-06,-0.160
3.040E-06,0.000
3.050E-06,0.180
3.060E-06,0.320
3.070E-06,0.440
3.080E-06,0.420
3.090E-06,0.440
3.100E-06,0.440
3.110E-06,0.460
3.120E-06,0.400
3.130E-06,0.360
3.140E-06,0.380
3.150E-06,0.440
3.160E-06,0.440
3.170E-06,0.300
3.180E-06,0.140
3.190E-06,-0.080
3.200E-06,-0.240
3.210E-06,-0.460
3.220E-06,-0.620
3.230E-06,-0.600
3.240E-06,-0.380
3.250E-06,-0.280
3.260E-06,-0.160
3.270E-06,-0.020
3.280E-06,0.060
3.290E-06,0.280
3.300E-06,0.400
3.310E-06,0.340
3.320E-06,0.340
3.330E-06,0.420
3.340E-06,0.500
3.350E-06,0.500
3.360E-06,0.480
3.370E-06,0.460
3.380E-06,0.480
3.390E-06,0.480
3.400E-06,0.480
3.410E-06,0.460
3.420E-06,0.440
3.430E-06,0.400
3.440E-06,0.360
3.450E-06,0.340
3.460E-06,0.280
3.470E-06,0.240
3.480E-06,0.180
3.490E-06,0.180
3.500E-06,0.160
3.510E-06,0.120
3.520E-06,0.080
3.530E-06,0.020
3.540E-06,0.020
3.550E-06,0.040
3.560E-06,0.080
3.570E-06,0.120
3.580E-06,0.180
3.590E-06,0.240
3.600E-06,0.300
3.610E-06,0.300
3.620E-06,0.300
3.630E-06,0.280
3.640E-06,0.180
3.650E-06,0.160
3.660E-06,0.120
3.670E-06,0.080
3.680E-06,0.060
