mediciones/6-26/42.5/WaveData59310.csv

#timebase=2000000(ps)
,#voltbase=200000(mv/100)
#size=4000
-8.150E-06,-0.008
-8.140E-06,0.000
-8.130E-06,0.000
-8.120E-06,0.008
-8.110E-06,0.000
-8.100E-06,0.000
-8.090E-06,0.008
-8.080E-06,0.016
-8.070E-06,-0.008
-8.060E-06,0.008
-8.050E-06,0.008
-8.040E-06,0.000
-8.030E-06,0.000
-8.020E-06,0.008
-8.010E-06,-0.008
-8.000E-06,0.000
-7.990E-06,0.008
-7.980E-06,0.008
-7.970E-06,0.008
-7.960E-06,-0.008
-7.950E-06,-0.008
-7.940E-06,0.000
-7.930E-06,0.000
-7.920E-06,0.008
-7.910E-06,0.000
-7.900E-06,0.000
-7.890E-06,0.008
-7.880E-06,-0.008
-7.870E-06,-0.008
-7.860E-06,0.000
-7.850E-06,0.000
-7.840E-06,0.000
-7.830E-06,0.000
-7.820E-06,0.000
-7.810E-06,0.000
-7.800E-06,0.008
-7.790E-06,0.008
-7.780E-06,0.000
-7.770E-06,-0.008
-7.760E-06,0.000
-7.750E-06,0.000
-7.740E-06,0.000
-7.730E-06,0.008
-7.720E-06,0.008
-7.710E-06,0.008
-7.700E-06,0.008
-7.690E-06,0.008
-7.680E-06,0.008
-7.670E-06,0.000
-7.660E-06,0.008
-7.650E-06,0.000
-7.640E-06,-0.008
-7.630E-06,0.000
-7.620E-06,0.016
-7.610E-06,0.016
-7.600E-06,0.016
-7.590E-06,0.000
-7.580E-06,0.000
-7.570E-06,0.008
-7.560E-06,-0.008
-7.550E-06,0.008
-7.540E-06,0.000
-7.530E-06,0.008
-7.520E-06,0.000
-7.510E-06,0.008
-7.500E-06,0.008
-7.490E-06,0.000
-7.480E-06,0.000
-7.470E-06,0.000
-7.460E-06,0.000
-7.450E-06,0.000
-7.440E-06,0.008
-7.430E-06,0.000
-7.420E-06,0.000
-7.410E-06,-0.008
-7.400E-06,0.000
-7.390E-06,0.000
-7.380E-06,0.000
-7.370E-06,-0.008
-7.360E-06,0.000
-7.350E-06,0.000
-7.340E-06,0.000
-7.330E-06,0.008
-7.320E-06,0.000
-7.310E-06,0.000
-7.300E-06,-0.008
-7.290E-06,0.000
-7.280E-06,-0.008
-7.270E-06,0.008
-7.260E-06,0.000
-7.250E-06,0.000
-7.240E-06,0.000
-7.230E-06,-0.008
-7.220E-06,-0.008
-7.210E-06,0.008
-7.200E-06,-0.008
-7.190E-06,-0.008
-7.180E-06,0.000
-7.170E-06,0.000
-7.160E-06,0.000
-7.150E-06,0.000
-7.140E-06,0.000
-7.130E-06,0.000
-7.120E-06,0.008
-7.110E-06,0.008
-7.100E-06,0.000
-7.090E-06,0.000
-7.080E-06,0.008
-7.070E-06,0.008
-7.060E-06,0.008
-7.050E-06,-0.008
-7.040E-06,0.008
-7.030E-06,0.000
-7.020E-06,0.008
-7.010E-06,0.000
-7.000E-06,0.000
-6.990E-06,0.000
-6.980E-06,0.000
-6.970E-06,0.008
-6.960E-06,0.000
-6.950E-06,-0.008
-6.940E-06,0.000
-6.930E-06,0.008
-6.920E-06,0.000
-6.910E-06,0.008
-6.900E-06,0.008
-6.890E-06,0.008
-6.880E-06,0.008
-6.870E-06,-0.008
-6.860E-06,0.000
-6.850E-06,0.000
-6.840E-06,0.008
-6.830E-06,0.008
-6.820E-06,0.008
-6.810E-06,0.008
-6.800E-06,0.016
-6.790E-06,0.016
-6.780E-06,0.016
-6.770E-06,0.008
-6.760E-06,0.008
-6.750E-06,0.000
-6.740E-06,0.008
-6.730E-06,0.000
-6.720E-06,0.000
-6.710E-06,0.000
-6.700E-06,0.008
-6.690E-06,0.016
-6.680E-06,0.008
-6.670E-06,-0.008
-6.660E-06,0.000
-6.650E-06,0.008
-6.640E-06,0.000
-6.630E-06,0.008
-6.620E-06,-0.008
-6.610E-06,0.000
-6.600E-06,0.008
-6.590E-06,0.000
-6.580E-06,0.008
-6.570E-06,0.000
-6.560E-06,0.016
-6.550E-06,0.008
-6.540E-06,-0.008
-6.530E-06,0.008
-6.520E-06,0.008
-6.510E-06,0.000
-6.500E-06,0.000
-6.490E-06,-0.008
-6.480E-06,0.008
-6.470E-06,0.000
-6.460E-06,0.000
-6.450E-06,0.008
-6.440E-06,0.000
-6.430E-06,0.008
-6.420E-06,0.000
-6.410E-06,0.008
-6.400E-06,0.008
-6.390E-06,0.008
-6.380E-06,0.000
-6.370E-06,0.000
-6.360E-06,0.008
-6.350E-06,0.008
-6.340E-06,-0.008
-6.330E-06,0.008
-6.320E-06,0.000
-6.310E-06,0.008
-6.300E-06,0.000
-6.290E-06,0.008
-6.280E-06,0.000
-6.270E-06,0.000
-6.260E-06,0.000
-6.250E-06,0.000
-6.240E-06,0.008
-6.230E-06,0.008
-6.220E-06,0.000
-6.210E-06,0.000
-6.200E-06,0.008
-6.190E-06,0.016
-6.180E-06,0.032
-6.170E-06,0.088
-6.160E-06,0.120
-6.150E-06,0.128
-6.140E-06,0.088
-6.130E-06,0.024
-6.120E-06,-0.048
-6.110E-06,-0.144
-6.100E-06,-0.128
-6.090E-06,-0.144
-6.080E-06,0.008
-6.070E-06,0.128
-6.060E-06,0.112
-6.050E-06,0.152
-6.040E-06,0.032
-6.030E-06,-0.056
-6.020E-06,-0.072
-6.010E-06,-0.024
-6.000E-06,0.008
-5.990E-06,0.104
-5.980E-06,0.112
-5.970E-06,0.072
-5.960E-06,-0.024
-5.950E-06,-0.088
-5.940E-06,-0.112
-5.930E-06,-0.080
-5.920E-06,0.024
-5.910E-06,0.080
-5.900E-06,0.128
-5.890E-06,0.088
-5.880E-06,0.048
-5.870E-06,0.000
-5.860E-06,-0.040
-5.850E-06,-0.040
-5.840E-06,-0.008
-5.830E-06,0.016
-5.820E-06,0.016
-5.810E-06,0.008
-5.800E-06,-0.016
-5.790E-06,-0.032
-5.780E-06,-0.056
-5.770E-06,-0.024
-5.760E-06,0.008
-5.750E-06,0.040
-5.740E-06,0.072
-5.730E-06,0.072
-5.720E-06,0.048
-5.710E-06,0.016
-5.700E-06,0.000
-5.690E-06,-0.032
-5.680E-06,-0.032
-5.670E-06,-0.008
-5.660E-06,0.008
-5.650E-06,0.024
-5.640E-06,0.016
-5.630E-06,0.008
-5.620E-06,0.000
-5.610E-06,-0.016
-5.600E-06,-0.008
-5.590E-06,0.016
-5.580E-06,0.048
-5.570E-06,0.056
-5.560E-06,0.040
-5.550E-06,0.016
-5.540E-06,-0.008
-5.530E-06,-0.008
-5.520E-06,-0.016
-5.510E-06,-0.016
-5.500E-06,0.000
-5.490E-06,0.024
-5.480E-06,0.024
-5.470E-06,0.016
-5.460E-06,0.008
-5.450E-06,0.000
-5.440E-06,-0.008
-5.430E-06,0.000
-5.420E-06,0.016
-5.410E-06,0.032
-5.400E-06,0.024
-5.390E-06,0.024
-5.380E-06,0.008
-5.370E-06,-0.024
-5.360E-06,-0.008
-5.350E-06,-0.008
-5.340E-06,0.000
-5.330E-06,0.024
-5.320E-06,0.032
-5.310E-06,0.024
-5.300E-06,0.016
-5.290E-06,0.000
-5.280E-06,0.000
-5.270E-06,0.008
-5.260E-06,0.008
-5.250E-06,0.032
-5.240E-06,0.016
-5.230E-06,0.008
-5.220E-06,0.000
-5.210E-06,-0.008
-5.200E-06,-0.008
-5.190E-06,0.000
-5.180E-06,0.000
-5.170E-06,0.000
-5.160E-06,-0.008
-5.150E-06,0.000
-5.140E-06,-0.008
-5.130E-06,-0.008
-5.120E-06,0.000
-5.110E-06,0.008
-5.100E-06,0.016
-5.090E-06,0.000
-5.080E-06,0.016
-5.070E-06,0.024
-5.060E-06,0.008
-5.050E-06,0.008
-5.040E-06,-0.016
-5.030E-06,0.000
-5.020E-06,0.016
-5.010E-06,0.016
-5.000E-06,0.016
-4.990E-06,0.016
-4.980E-06,0.024
-4.970E-06,0.016
-4.960E-06,0.000
-4.950E-06,0.000
-4.940E-06,-0.016
-4.930E-06,0.000
-4.920E-06,0.008
-4.910E-06,0.032
-4.900E-06,0.024
-4.890E-06,0.016
-4.880E-06,-0.008
-4.870E-06,-0.016
-4.860E-06,-0.008
-4.850E-06,-0.008
-4.840E-06,-0.008
-4.830E-06,0.008
-4.820E-06,0.032
-4.810E-06,0.024
-4.800E-06,0.008
-4.790E-06,0.008
-4.780E-06,0.008
-4.770E-06,0.016
-4.760E-06,0.024
-4.750E-06,0.016
-4.740E-06,-0.008
-4.730E-06,0.000
-4.720E-06,-0.016
-4.710E-06,-0.008
-4.700E-06,0.008
-4.690E-06,0.016
-4.680E-06,0.016
-4.670E-06,0.008
-4.660E-06,0.000
-4.650E-06,-0.008
-4.640E-06,0.016
-4.630E-06,0.024
-4.620E-06,0.048
-4.610E-06,0.032
-4.600E-06,0.000
-4.590E-06,-0.008
-4.580E-06,-0.048
-4.570E-06,-0.040
-4.560E-06,-0.008
-4.550E-06,0.048
-4.540E-06,0.056
-4.530E-06,0.016
-4.520E-06,0.000
-4.510E-06,-0.016
-4.500E-06,-0.016
-4.490E-06,-0.008
-4.480E-06,0.000
-4.470E-06,0.016
-4.460E-06,0.024
-4.450E-06,0.000
-4.440E-06,0.016
-4.430E-06,0.016
-4.420E-06,0.016
-4.410E-06,0.032
-4.400E-06,0.064
-4.390E-06,0.032
-4.380E-06,-0.024
-4.370E-06,-0.048
-4.360E-06,-0.088
-4.350E-06,-0.032
-4.340E-06,0.000
-4.330E-06,0.040
-4.320E-06,0.048
-4.310E-06,0.000
-4.300E-06,-0.016
-4.290E-06,-0.056
-4.280E-06,-0.016
-4.270E-06,0.008
-4.260E-06,0.048
-4.250E-06,0.048
-4.240E-06,0.024
-4.230E-06,-0.008
-4.220E-06,-0.024
-4.210E-06,-0.040
-4.200E-06,-0.008
-4.190E-06,0.008
-4.180E-06,0.024
-4.170E-06,0.040
-4.160E-06,0.008
-4.150E-06,0.000
-4.140E-06,-0.024
-4.130E-06,-0.016
-4.120E-06,-0.008
-4.110E-06,0.000
-4.100E-06,0.016
-4.090E-06,0.016
-4.080E-06,0.016
-4.070E-06,0.000
-4.060E-06,0.000
-4.050E-06,0.000
-4.040E-06,0.016
-4.030E-06,0.040
-4.020E-06,-0.112
-4.010E-06,-0.056
-4.000E-06,-0.032
-3.990E-06,-0.048
-3.980E-06,0.072
-3.970E-06,0.040
-3.960E-06,0.120
-3.950E-06,-0.008
-3.940E-06,-0.016
-3.930E-06,-0.096
-3.920E-06,-0.056
-3.910E-06,0.032
-3.900E-06,0.056
-3.890E-06,0.064
-3.880E-06,0.016
-3.870E-06,-0.008
-3.860E-06,-0.056
-3.850E-06,-0.024
-3.840E-06,-0.024
-3.830E-06,0.024
-3.820E-06,0.056
-3.810E-06,0.056
-3.800E-06,0.040
-3.790E-06,-0.008
-3.780E-06,0.000
-3.770E-06,-0.024
-3.760E-06,0.000
-3.750E-06,-0.024
-3.740E-06,0.016
-3.730E-06,0.000
-3.720E-06,0.048
-3.710E-06,0.040
-3.700E-06,0.024
-3.690E-06,0.000
-3.680E-06,-0.008
-3.670E-06,0.000
-3.660E-06,0.000
-3.650E-06,0.040
-3.640E-06,0.024
-3.630E-06,0.024
-3.620E-06,-0.016
-3.610E-06,-0.016
-3.600E-06,-0.016
-3.590E-06,-0.024
-3.580E-06,-0.008
-3.570E-06,0.016
-3.560E-06,0.024
-3.550E-06,0.024
-3.540E-06,0.024
-3.530E-06,-0.008
-3.520E-06,-0.008
-3.510E-06,-0.008
-3.500E-06,-0.008
-3.490E-06,-0.008
-3.480E-06,0.016
-3.470E-06,0.016
-3.460E-06,0.024
-3.450E-06,0.016
-3.440E-06,-0.008
-3.430E-06,-0.008
-3.420E-06,-0.016
-3.410E-06,0.016
-3.400E-06,0.008
-3.390E-06,0.024
-3.380E-06,0.024
-3.370E-06,0.024
-3.360E-06,0.008
-3.350E-06,0.008
-3.340E-06,0.008
-3.330E-06,0.008
-3.320E-06,0.024
-3.310E-06,0.032
-3.300E-06,0.040
-3.290E-06,0.048
-3.280E-06,0.032
-3.270E-06,-0.008
-3.260E-06,-0.016
-3.250E-06,-0.008
-3.240E-06,0.016
-3.230E-06,0.008
-3.220E-06,0.016
-3.210E-06,0.064
-3.200E-06,0.048
-3.190E-06,0.016
-3.180E-06,0.016
-3.170E-06,-0.096
-3.160E-06,-0.136
-3.150E-06,-0.048
-3.140E-06,-0.016
-3.130E-06,0.064
-3.120E-06,0.088
-3.110E-06,0.024
-3.100E-06,-0.008
-3.090E-06,-0.032
-3.080E-06,-0.032
-3.070E-06,-0.040
-3.060E-06,-0.016
-3.050E-06,0.024
-3.040E-06,0.040
-3.030E-06,0.048
-3.020E-06,0.024
-3.010E-06,0.000
-3.000E-06,-0.016
-2.990E-06,0.000
-2.980E-06,-0.008
-2.970E-06,0.016
-2.960E-06,0.032
-2.950E-06,0.024
-2.940E-06,0.024
-2.930E-06,0.000
-2.920E-06,-0.008
-2.910E-06,-0.016
-2.900E-06,-0.016
-2.890E-06,0.008
-2.880E-06,0.024
-2.870E-06,0.016
-2.860E-06,0.016
-2.850E-06,0.016
-2.840E-06,0.016
-2.830E-06,0.000
-2.820E-06,0.000
-2.810E-06,0.016
-2.800E-06,0.032
-2.790E-06,0.048
-2.780E-06,0.056
-2.770E-06,0.048
-2.760E-06,0.056
-2.750E-06,0.040
-2.740E-06,0.048
-2.730E-06,0.048
-2.720E-06,0.032
-2.710E-06,0.024
-2.700E-06,0.000
-2.690E-06,-0.008
-2.680E-06,0.016
-2.670E-06,-0.008
-2.660E-06,0.064
-2.650E-06,0.008
-2.640E-06,-0.048
-2.630E-06,-0.208
-2.620E-06,-0.192
-2.610E-06,-0.040
-2.600E-06,-0.064
-2.590E-06,0.072
-2.580E-06,0.048
-2.570E-06,0.048
-2.560E-06,-0.008
-2.550E-06,-0.048
-2.540E-06,-0.080
-2.530E-06,-0.040
-2.520E-06,0.064
-2.510E-06,0.064
-2.500E-06,0.048
-2.490E-06,0.000
-2.480E-06,-0.024
-2.470E-06,-0.048
-2.460E-06,0.000
-2.450E-06,0.000
-2.440E-06,0.040
-2.430E-06,0.056
-2.420E-06,0.032
-2.410E-06,0.016
-2.400E-06,0.000
-2.390E-06,0.000
-2.380E-06,0.000
-2.370E-06,0.024
-2.360E-06,0.040
-2.350E-06,0.064
-2.340E-06,0.056
-2.330E-06,0.056
-2.320E-06,0.040
-2.310E-06,0.056
-2.300E-06,0.032
-2.290E-06,0.008
-2.280E-06,-0.024
-2.270E-06,-0.040
-2.260E-06,-0.024
-2.250E-06,-0.008
-2.240E-06,0.048
-2.230E-06,0.024
-2.220E-06,0.064
-2.210E-06,0.048
-2.200E-06,0.032
-2.190E-06,0.000
-2.180E-06,-0.024
-2.170E-06,-0.008
-2.160E-06,0.048
-2.150E-06,0.104
-2.140E-06,0.112
-2.130E-06,0.088
-2.120E-06,0.064
-2.110E-06,0.000
-2.100E-06,-0.032
-2.090E-06,-0.088
-2.080E-06,-0.088
-2.070E-06,-0.032
-2.060E-06,0.024
-2.050E-06,0.056
-2.040E-06,0.048
-2.030E-06,0.024
-2.020E-06,0.016
-2.010E-06,-0.008
-2.000E-06,0.008
-1.990E-06,0.048
-1.980E-06,0.128
-1.970E-06,0.080
-1.960E-06,0.056
-1.950E-06,-0.040
-1.940E-06,-0.112
-1.930E-06,-0.272
-1.920E-06,-0.280
-1.910E-06,-0.128
-1.900E-06,0.024
-1.890E-06,0.104
-1.880E-06,0.024
-1.870E-06,0.040
-1.860E-06,-0.008
-1.850E-06,-0.016
-1.840E-06,-0.072
-1.830E-06,-0.096
-1.820E-06,-0.040
-1.810E-06,0.008
-1.800E-06,0.088
-1.790E-06,0.080
-1.780E-06,0.064
-1.770E-06,0.024
-1.760E-06,-0.008
-1.750E-06,-0.016
-1.740E-06,-0.032
-1.730E-06,-0.008
-1.720E-06,0.056
-1.710E-06,0.112
-1.700E-06,0.112
-1.690E-06,0.072
-1.680E-06,0.016
-1.670E-06,0.016
-1.660E-06,0.016
-1.650E-06,0.064
-1.640E-06,0.128
-1.630E-06,0.160
-1.620E-06,0.144
-1.610E-06,-0.008
-1.600E-06,-0.088
-1.590E-06,-0.136
-1.580E-06,-0.096
-1.570E-06,0.000
-1.560E-06,0.120
-1.550E-06,0.184
-1.540E-06,0.136
-1.530E-06,0.056
-1.520E-06,-0.072
-1.510E-06,-0.152
-1.500E-06,-0.168
-1.490E-06,-0.120
-1.480E-06,-0.024
-1.470E-06,0.080
-1.460E-06,0.144
-1.450E-06,0.088
-1.440E-06,0.016
-1.430E-06,-0.104
-1.420E-06,-0.136
-1.410E-06,-0.128
-1.400E-06,-0.040
-1.390E-06,0.088
-1.380E-06,0.160
-1.370E-06,0.176
-1.360E-06,0.096
-1.350E-06,-0.016
-1.340E-06,-0.080
-1.330E-06,-0.104
-1.320E-06,-0.048
-1.310E-06,0.072
-1.300E-06,0.168
-1.290E-06,0.192
-1.280E-06,0.176
-1.270E-06,0.088
-1.260E-06,0.032
-1.250E-06,-0.048
-1.240E-06,-0.320
-1.230E-06,-0.328
-1.220E-06,-0.032
-1.210E-06,-0.152
-1.200E-06,0.168
-1.190E-06,0.184
-1.180E-06,0.176
-1.170E-06,0.016
-1.160E-06,-0.144
-1.150E-06,-0.216
-1.140E-06,-0.168
-1.130E-06,0.040
-1.120E-06,0.152
-1.110E-06,0.248
-1.100E-06,0.152
-1.090E-06,-0.056
-1.080E-06,-0.224
-1.070E-06,-0.160
-1.060E-06,-0.200
-1.050E-06,-0.016
-1.040E-06,0.144
-1.030E-06,0.200
-1.020E-06,0.240
-1.010E-06,0.056
-1.000E-06,0.000
-9.900E-07,-0.104
-9.800E-07,-0.056
-9.700E-07,0.048
-9.600E-07,0.168
-9.500E-07,0.240
-9.400E-07,0.152
-9.300E-07,-0.008
-9.200E-07,-0.016
-9.100E-07,-0.096
-9.000E-07,-0.072
-8.900E-07,0.048
-8.800E-07,0.168
-8.700E-07,0.216
-8.600E-07,0.104
-8.500E-07,-0.024
-8.400E-07,-0.144
-8.300E-07,-0.136
-8.200E-07,-0.120
-8.100E-07,0.008
-8.000E-07,0.104
-7.900E-07,0.096
-7.800E-07,0.120
-7.700E-07,0.000
-7.600E-07,-0.072
-7.500E-07,-0.152
-7.400E-07,-0.112
-7.300E-07,-0.056
-7.200E-07,0.032
-7.100E-07,0.112
-7.000E-07,0.072
-6.900E-07,0.064
-6.800E-07,0.032
-6.700E-07,0.016
-6.600E-07,-0.008
-6.500E-07,0.008
-6.400E-07,-0.024
-6.300E-07,0.080
-6.200E-07,0.128
-6.100E-07,0.184
-6.000E-07,0.176
-5.900E-07,0.112
-5.800E-07,0.128
-5.700E-07,0.112
-5.600E-07,0.096
-5.500E-07,-0.112
-5.400E-07,-0.432
-5.300E-07,-0.464
-5.200E-07,-0.344
-5.100E-07,-0.208
-5.000E-07,0.040
-4.900E-07,0.184
-4.800E-07,0.088
-4.700E-07,-0.064
-4.600E-07,-0.216
-4.500E-07,-0.288
-4.400E-07,-0.088
-4.300E-07,0.040
-4.200E-07,0.176
-4.100E-07,0.176
-4.000E-07,0.072
-3.900E-07,0.008
-3.800E-07,-0.096
-3.700E-07,-0.072
-3.600E-07,-0.080
-3.500E-07,0.072
-3.400E-07,0.120
-3.300E-07,0.152
-3.200E-07,0.088
-3.100E-07,0.016
-3.000E-07,-0.024
-2.900E-07,-0.072
-2.800E-07,0.008
-2.700E-07,0.032
-2.600E-07,0.128
-2.500E-07,0.120
-2.400E-07,0.120
-2.300E-07,0.032
-2.200E-07,0.040
-2.100E-07,0.008
-2.000E-07,0.008
-1.900E-07,0.080
-1.800E-07,0.136
-1.700E-07,0.184
-1.600E-07,0.176
-1.500E-07,0.160
-1.400E-07,0.104
-1.300E-07,0.096
-1.200E-07,0.144
-1.100E-07,0.208
-1.000E-07,0.224
-9.000E-08,0.240
-8.000E-08,0.224
-7.000E-08,0.112
-6.000E-08,-0.144
-5.000E-08,-1.016
-4.000E-08,-0.872
-3.000E-08,-0.632
-2.000E-08,-0.688
-1.000E-08,0.816
0.000E+00,0.416
1.000E-08,0.504
2.000E-08,-0.264
3.000E-08,0.008
4.000E-08,-0.552
5.000E-08,-0.512
6.000E-08,0.088
7.000E-08,-0.024
8.000E-08,0.576
9.000E-08,0.512
1.000E-07,0.416
1.100E-07,-0.168
1.200E-07,-0.096
1.300E-07,-0.224
1.400E-07,0.160
1.500E-07,0.256
1.600E-07,0.416
1.700E-07,0.448
1.800E-07,0.160
1.900E-07,-0.008
2.000E-07,-0.304
2.100E-07,-0.208
2.200E-07,-0.336
2.300E-07,0.000
2.400E-07,0.080
2.500E-07,0.168
2.600E-07,0.056
2.700E-07,-0.016
2.800E-07,-0.152
2.900E-07,-0.128
3.000E-07,0.024
3.100E-07,0.112
3.200E-07,0.248
3.300E-07,0.120
3.400E-07,0.080
3.500E-07,-0.088
3.600E-07,-0.136
3.700E-07,-0.224
3.800E-07,-0.016
3.900E-07,0.128
4.000E-07,0.136
4.100E-07,0.152
4.200E-07,0.048
4.300E-07,0.008
4.400E-07,-0.088
4.500E-07,-0.008
4.600E-07,-0.008
4.700E-07,0.144
4.800E-07,0.176
4.900E-07,0.176
5.000E-07,0.120
5.100E-07,-0.056
5.200E-07,-0.040
5.300E-07,-0.048
5.400E-07,-0.048
5.500E-07,-0.016
5.600E-07,-0.032
5.700E-07,-0.024
5.800E-07,-0.016
5.900E-07,-0.096
6.000E-07,-0.104
6.100E-07,-0.144
6.200E-07,-0.072
6.300E-07,0.056
6.400E-07,0.144
6.500E-07,0.216
6.600E-07,0.200
6.700E-07,0.176
6.800E-07,-0.016
6.900E-07,-0.024
7.000E-07,-0.080
7.100E-07,0.024
7.200E-07,0.176
7.300E-07,0.248
7.400E-07,0.272
7.500E-07,0.240
7.600E-07,0.136
7.700E-07,0.040
7.800E-07,0.080
7.900E-07,0.120
8.000E-07,0.216
8.100E-07,0.280
8.200E-07,0.328
8.300E-07,0.312
8.400E-07,0.320
8.500E-07,0.232
8.600E-07,0.168
8.700E-07,-0.016
8.800E-07,-0.768
8.900E-07,-1.024
9.000E-07,-1.024
9.100E-07,-1.024
9.200E-07,0.416
9.300E-07,1.088
9.400E-07,1.088
9.500E-07,0.448
9.600E-07,0.128
9.700E-07,-0.984
9.800E-07,-1.024
9.900E-07,-0.272
1.000E-06,-0.208
1.010E-06,0.832
1.020E-06,0.752
1.030E-06,0.808
1.040E-06,0.000
1.050E-06,-0.008
1.060E-06,-0.752
1.070E-06,-0.552
1.080E-06,-0.104
1.090E-06,0.184
1.100E-06,0.680
1.110E-06,0.544
1.120E-06,0.440
1.130E-06,-0.344
1.140E-06,-0.312
1.150E-06,-0.544
1.160E-06,-0.040
1.170E-06,0.112
1.180E-06,0.472
1.190E-06,0.512
1.200E-06,0.384
1.210E-06,0.224
1.220E-06,-0.112
1.230E-06,0.000
1.240E-06,-0.040
1.250E-06,0.272
1.260E-06,0.296
1.270E-06,0.472
1.280E-06,0.280
1.290E-06,0.216
1.300E-06,-0.024
1.310E-06,-0.136
1.320E-06,-0.128
1.330E-06,-0.080
1.340E-06,0.248
1.350E-06,0.312
1.360E-06,0.384
1.370E-06,0.168
1.380E-06,-0.008
1.390E-06,-0.216
1.400E-06,-0.280
1.410E-06,-0.280
1.420E-06,-0.352
1.430E-06,-0.104
1.440E-06,0.104
1.450E-06,0.136
1.460E-06,-0.072
1.470E-06,-0.128
1.480E-06,-0.264
1.490E-06,-0.416
1.500E-06,-0.376
1.510E-06,-0.312
1.520E-06,-0.128
1.530E-06,-0.048
1.540E-06,0.056
1.550E-06,0.024
1.560E-06,0.032
1.570E-06,-0.080
1.580E-06,-0.040
1.590E-06,0.008
1.600E-06,0.080
1.610E-06,0.200
1.620E-06,0.272
1.630E-06,0.288
1.640E-06,0.200
1.650E-06,0.248
1.660E-06,0.136
1.670E-06,0.200
1.680E-06,0.224
1.690E-06,0.256
1.700E-06,0.224
1.710E-06,0.224
1.720E-06,0.208
1.730E-06,0.176
1.740E-06,0.208
1.750E-06,0.176
1.760E-06,0.240
1.770E-06,0.256
1.780E-06,0.304
1.790E-06,0.280
1.800E-06,0.296
1.810E-06,0.256
1.820E-06,0.208
1.830E-06,0.192
1.840E-06,0.168
1.850E-06,0.200
1.860E-06,0.232
1.870E-06,0.256
1.880E-06,0.200
1.890E-06,0.184
1.900E-06,0.120
1.910E-06,0.056
1.920E-06,-0.008
1.930E-06,0.000
1.940E-06,0.032
1.950E-06,0.024
1.960E-06,0.040
1.970E-06,0.048
1.980E-06,0.080
1.990E-06,0.048
2.000E-06,0.056
2.010E-06,0.088
2.020E-06,0.176
2.030E-06,0.216
2.040E-06,0.248
2.050E-06,0.264
2.060E-06,0.296
2.070E-06,0.264
2.080E-06,0.224
2.090E-06,0.224
2.100E-06,0.224
2.110E-06,0.280
2.120E-06,0.296
2.130E-06,0.312
2.140E-06,0.352
2.150E-06,0.344
2.160E-06,0.336
2.170E-06,0.312
2.180E-06,0.288
2.190E-06,0.272
2.200E-06,0.288
2.210E-06,0.320
2.220E-06,0.328
2.230E-06,0.352
2.240E-06,0.360
2.250E-06,0.320
2.260E-06,0.304
2.270E-06,0.280
2.280E-06,0.272
2.290E-06,0.288
2.300E-06,0.320
2.310E-06,0.328
2.320E-06,0.336
2.330E-06,0.320
2.340E-06,0.272
2.350E-06,0.232
2.360E-06,0.216
2.370E-06,0.216
2.380E-06,0.232
2.390E-06,0.248
2.400E-06,0.264
2.410E-06,0.288
2.420E-06,0.272
2.430E-06,0.304
2.440E-06,0.304
2.450E-06,0.312
2.460E-06,0.296
2.470E-06,0.288
2.480E-06,0.280
2.490E-06,0.280
2.500E-06,0.288
2.510E-06,0.296
2.520E-06,0.304
2.530E-06,0.304
2.540E-06,0.304
2.550E-06,0.288
2.560E-06,0.272
2.570E-06,0.280
2.580E-06,0.280
2.590E-06,0.288
2.600E-06,0.288
2.610E-06,0.280
2.620E-06,0.288
2.630E-06,0.288
2.640E-06,0.296
2.650E-06,0.288
2.660E-06,0.304
2.670E-06,0.320
2.680E-06,0.320
2.690E-06,0.320
2.700E-06,0.304
2.710E-06,0.296
2.720E-06,0.288
2.730E-06,0.296
2.740E-06,0.304
2.750E-06,0.312
2.760E-06,0.304
2.770E-06,0.304
2.780E-06,0.296
2.790E-06,0.296
2.800E-06,0.304
2.810E-06,0.312
2.820E-06,0.304
2.830E-06,0.312
2.840E-06,0.320
2.850E-06,0.312
2.860E-06,0.312
2.870E-06,0.304
2.880E-06,0.296
2.890E-06,0.296
2.900E-06,0.288
2.910E-06,0.296
2.920E-06,0.304
2.930E-06,0.312
2.940E-06,0.280
2.950E-06,0.288
2.960E-06,0.280
2.970E-06,0.280
2.980E-06,0.280
2.990E-06,0.288
3.000E-06,0.304
3.010E-06,0.312
3.020E-06,0.304
3.030E-06,0.288
3.040E-06,0.296
3.050E-06,0.296
3.060E-06,0.280
3.070E-06,0.288
3.080E-06,0.288
3.090E-06,0.296
3.100E-06,0.296
3.110E-06,0.280
3.120E-06,0.280
3.130E-06,0.272
3.140E-06,0.272
3.150E-06,0.280
3.160E-06,0.280
3.170E-06,0.288
3.180E-06,0.280
3.190E-06,0.288
3.200E-06,0.288
3.210E-06,0.272
3.220E-06,0.280
3.230E-06,0.288
3.240E-06,0.288
3.250E-06,0.280
3.260E-06,0.288
3.270E-06,0.288
3.280E-06,0.280
3.290E-06,0.280
3.300E-06,0.272
3.310E-06,0.264
3.320E-06,0.280
3.330E-06,0.280
3.340E-06,0.272
3.350E-06,0.280
3.360E-06,0.280
3.370E-06,0.280
3.380E-06,0.280
3.390E-06,0.280
3.400E-06,0.288
3.410E-06,0.288
3.420E-06,0.296
3.430E-06,0.288
3.440E-06,0.280
3.450E-06,0.264
3.460E-06,0.256
3.470E-06,0.256
3.480E-06,0.264
3.490E-06,0.280
3.500E-06,0.288
3.510E-06,0.288
3.520E-06,0.272
3.530E-06,0.264
3.540E-06,0.248
3.550E-06,0.248
3.560E-06,0.264
3.570E-06,0.280
3.580E-06,0.288
3.590E-06,0.288
