mediciones/6-26/42.5/WaveData59295.csv

#timebase=2000000(ps)
,#voltbase=500000(mv/100)
#size=4000
-8.150E-06,0.060
-8.140E-06,0.060
-8.130E-06,0.060
-8.120E-06,0.060
-8.110E-06,0.060
-8.100E-06,0.080
-8.090E-06,0.060
-8.080E-06,0.060
-8.070E-06,0.080
-8.060E-06,0.040
-8.050E-06,0.060
-8.040E-06,0.040
-8.030E-06,0.020
-8.020E-06,0.040
-8.010E-06,0.020
-8.000E-06,0.060
-7.990E-06,0.060
-7.980E-06,0.080
-7.970E-06,0.060
-7.960E-06,0.020
-7.950E-06,0.020
-7.940E-06,0.060
-7.930E-06,0.040
-7.920E-06,0.040
-7.910E-06,0.060
-7.900E-06,0.040
-7.890E-06,0.040
-7.880E-06,0.040
-7.870E-06,0.060
-7.860E-06,0.080
-7.850E-06,0.040
-7.840E-06,0.020
-7.830E-06,0.060
-7.820E-06,0.060
-7.810E-06,0.060
-7.800E-06,0.080
-7.790E-06,0.060
-7.780E-06,0.040
-7.770E-06,0.060
-7.760E-06,0.080
-7.750E-06,0.060
-7.740E-06,0.040
-7.730E-06,0.060
-7.720E-06,0.040
-7.710E-06,0.040
-7.700E-06,0.040
-7.690E-06,0.060
-7.680E-06,0.040
-7.670E-06,0.040
-7.660E-06,0.040
-7.650E-06,0.040
-7.640E-06,0.080
-7.630E-06,0.060
-7.620E-06,0.040
-7.610E-06,0.000
-7.600E-06,0.060
-7.590E-06,0.080
-7.580E-06,0.040
-7.570E-06,0.040
-7.560E-06,0.060
-7.550E-06,0.040
-7.540E-06,0.060
-7.530E-06,0.080
-7.520E-06,0.080
-7.510E-06,0.020
-7.500E-06,0.040
-7.490E-06,0.060
-7.480E-06,0.040
-7.470E-06,0.060
-7.460E-06,0.080
-7.450E-06,0.060
-7.440E-06,0.020
-7.430E-06,0.060
-7.420E-06,0.040
-7.410E-06,0.040
-7.400E-06,0.060
-7.390E-06,0.040
-7.380E-06,0.060
-7.370E-06,0.080
-7.360E-06,0.060
-7.350E-06,0.040
-7.340E-06,0.040
-7.330E-06,0.060
-7.320E-06,0.080
-7.310E-06,0.040
-7.300E-06,0.040
-7.290E-06,0.040
-7.280E-06,0.080
-7.270E-06,0.060
-7.260E-06,0.060
-7.250E-06,0.080
-7.240E-06,0.080
-7.230E-06,0.080
-7.220E-06,0.040
-7.210E-06,0.040
-7.200E-06,0.040
-7.190E-06,0.080
-7.180E-06,0.080
-7.170E-06,0.080
-7.160E-06,0.040
-7.150E-06,0.020
-7.140E-06,0.040
-7.130E-06,0.040
-7.120E-06,0.060
-7.110E-06,0.080
-7.100E-06,0.040
-7.090E-06,0.040
-7.080E-06,0.060
-7.070E-06,0.040
-7.060E-06,0.040
-7.050E-06,0.060
-7.040E-06,0.040
-7.030E-06,0.060
-7.020E-06,0.060
-7.010E-06,0.060
-7.000E-06,0.060
-6.990E-06,0.060
-6.980E-06,0.040
-6.970E-06,0.040
-6.960E-06,0.080
-6.950E-06,0.060
-6.940E-06,0.060
-6.930E-06,0.060
-6.920E-06,0.060
-6.910E-06,0.060
-6.900E-06,0.060
-6.890E-06,0.040
-6.880E-06,0.020
-6.870E-06,0.040
-6.860E-06,0.040
-6.850E-06,0.060
-6.840E-06,0.080
-6.830E-06,0.100
-6.820E-06,0.020
-6.810E-06,0.060
-6.800E-06,0.040
-6.790E-06,0.040
-6.780E-06,0.060
-6.770E-06,0.080
-6.760E-06,0.060
-6.750E-06,0.020
-6.740E-06,0.040
-6.730E-06,0.060
-6.720E-06,0.040
-6.710E-06,0.060
-6.700E-06,0.040
-6.690E-06,0.040
-6.680E-06,0.060
-6.670E-06,0.080
-6.660E-06,0.040
-6.650E-06,0.060
-6.640E-06,0.060
-6.630E-06,0.060
-6.620E-06,0.080
-6.610E-06,0.080
-6.600E-06,0.060
-6.590E-06,0.080
-6.580E-06,0.040
-6.570E-06,0.060
-6.560E-06,0.080
-6.550E-06,0.060
-6.540E-06,0.040
-6.530E-06,0.040
-6.520E-06,0.060
-6.510E-06,0.040
-6.500E-06,0.060
-6.490E-06,0.080
-6.480E-06,0.020
-6.470E-06,0.040
-6.460E-06,0.040
-6.450E-06,0.080
-6.440E-06,0.020
-6.430E-06,0.060
-6.420E-06,0.080
-6.410E-06,0.060
-6.400E-06,0.080
-6.390E-06,0.080
-6.380E-06,0.040
-6.370E-06,0.080
-6.360E-06,0.060
-6.350E-06,0.080
-6.340E-06,0.060
-6.330E-06,0.080
-6.320E-06,0.040
-6.310E-06,0.020
-6.300E-06,0.060
-6.290E-06,0.040
-6.280E-06,0.060
-6.270E-06,0.040
-6.260E-06,0.060
-6.250E-06,0.080
-6.240E-06,0.060
-6.230E-06,0.020
-6.220E-06,0.040
-6.210E-06,0.080
-6.200E-06,0.040
-6.190E-06,0.040
-6.180E-06,0.080
-6.170E-06,0.060
-6.160E-06,0.080
-6.150E-06,0.080
-6.140E-06,0.040
-6.130E-06,0.040
-6.120E-06,0.060
-6.110E-06,0.080
-6.100E-06,0.060
-6.090E-06,0.060
-6.080E-06,0.080
-6.070E-06,0.060
-6.060E-06,0.040
-6.050E-06,0.080
-6.040E-06,0.060
-6.030E-06,0.040
-6.020E-06,0.020
-6.010E-06,0.060
-6.000E-06,0.060
-5.990E-06,0.080
-5.980E-06,0.060
-5.970E-06,0.040
-5.960E-06,0.060
-5.950E-06,0.060
-5.940E-06,0.040
-5.930E-06,0.080
-5.920E-06,0.040
-5.910E-06,0.020
-5.900E-06,0.060
-5.890E-06,0.040
-5.880E-06,0.040
-5.870E-06,0.060
-5.860E-06,0.040
-5.850E-06,0.060
-5.840E-06,0.080
-5.830E-06,0.060
-5.820E-06,0.040
-5.810E-06,0.040
-5.800E-06,0.060
-5.790E-06,0.060
-5.780E-06,0.080
-5.770E-06,0.060
-5.760E-06,0.040
-5.750E-06,0.060
-5.740E-06,0.080
-5.730E-06,0.060
-5.720E-06,0.060
-5.710E-06,0.080
-5.700E-06,0.060
-5.690E-06,0.080
-5.680E-06,0.060
-5.670E-06,0.040
-5.660E-06,0.060
-5.650E-06,0.080
-5.640E-06,0.080
-5.630E-06,0.080
-5.620E-06,0.080
-5.610E-06,0.080
-5.600E-06,0.080
-5.590E-06,0.040
-5.580E-06,0.060
-5.570E-06,0.060
-5.560E-06,0.040
-5.550E-06,0.040
-5.540E-06,0.060
-5.530E-06,0.060
-5.520E-06,0.080
-5.510E-06,0.040
-5.500E-06,0.080
-5.490E-06,0.020
-5.480E-06,0.020
-5.470E-06,0.060
-5.460E-06,0.080
-5.450E-06,0.040
-5.440E-06,0.060
-5.430E-06,0.060
-5.420E-06,0.060
-5.410E-06,0.060
-5.400E-06,0.060
-5.390E-06,0.060
-5.380E-06,0.060
-5.370E-06,0.080
-5.360E-06,0.060
-5.350E-06,0.060
-5.340E-06,0.080
-5.330E-06,0.040
-5.320E-06,0.060
-5.310E-06,0.040
-5.300E-06,0.080
-5.290E-06,0.060
-5.280E-06,0.080
-5.270E-06,0.040
-5.260E-06,0.060
-5.250E-06,0.080
-5.240E-06,0.060
-5.230E-06,0.040
-5.220E-06,0.060
-5.210E-06,0.020
-5.200E-06,0.040
-5.190E-06,0.060
-5.180E-06,0.060
-5.170E-06,0.060
-5.160E-06,0.080
-5.150E-06,0.080
-5.140E-06,0.080
-5.130E-06,0.060
-5.120E-06,0.080
-5.110E-06,0.080
-5.100E-06,0.040
-5.090E-06,0.060
-5.080E-06,0.100
-5.070E-06,0.060
-5.060E-06,0.040
-5.050E-06,0.000
-5.040E-06,0.020
-5.030E-06,0.140
-5.020E-06,0.540
-5.010E-06,1.180
-5.000E-06,1.860
-4.990E-06,2.420
-4.980E-06,2.100
-4.970E-06,1.100
-4.960E-06,-0.180
-4.950E-06,-1.380
-4.940E-06,-1.920
-4.930E-06,-1.940
-4.920E-06,-1.640
-4.910E-06,-1.660
-4.900E-06,-1.840
-4.890E-06,-2.020
-4.880E-06,-1.960
-4.870E-06,-1.520
-4.860E-06,-0.760
-4.850E-06,-0.020
-4.840E-06,0.420
-4.830E-06,0.520
-4.820E-06,0.380
-4.810E-06,0.300
-4.800E-06,0.340
-4.790E-06,0.500
-4.780E-06,0.660
-4.770E-06,0.720
-4.760E-06,0.660
-4.750E-06,0.560
-4.740E-06,0.440
-4.730E-06,0.440
-4.720E-06,0.480
-4.710E-06,0.600
-4.700E-06,0.560
-4.690E-06,0.520
-4.680E-06,0.340
-4.670E-06,0.060
-4.660E-06,-0.100
-4.650E-06,-0.200
-4.640E-06,-0.240
-4.630E-06,-0.160
-4.620E-06,-0.100
-4.610E-06,-0.020
-4.600E-06,0.080
-4.590E-06,0.160
-4.580E-06,0.260
-4.570E-06,0.440
-4.560E-06,0.640
-4.550E-06,0.780
-4.540E-06,0.840
-4.530E-06,0.820
-4.520E-06,0.700
-4.510E-06,0.560
-4.500E-06,0.380
-4.490E-06,0.180
-4.480E-06,0.000
-4.470E-06,-0.180
-4.460E-06,-0.360
-4.450E-06,-0.580
-4.440E-06,-0.720
-4.430E-06,-0.900
-4.420E-06,-1.040
-4.410E-06,-1.120
-4.400E-06,-1.140
-4.390E-06,-1.040
-4.380E-06,-0.860
-4.370E-06,-0.660
-4.360E-06,-0.380
-4.350E-06,-0.180
-4.340E-06,0.020
-4.330E-06,0.200
-4.320E-06,0.380
-4.310E-06,0.520
-4.300E-06,0.680
-4.290E-06,0.700
-4.280E-06,0.680
-4.270E-06,0.600
-4.260E-06,0.500
-4.250E-06,0.420
-4.240E-06,0.300
-4.230E-06,0.180
-4.220E-06,0.120
-4.210E-06,0.000
-4.200E-06,-0.060
-4.190E-06,-0.100
-4.180E-06,-0.080
-4.170E-06,-0.100
-4.160E-06,-0.080
-4.150E-06,-0.100
-4.140E-06,-0.140
-4.130E-06,-0.160
-4.120E-06,-0.180
-4.110E-06,-0.160
-4.100E-06,-0.080
-4.090E-06,0.000
-4.080E-06,0.080
-4.070E-06,0.120
-4.060E-06,0.180
-4.050E-06,0.240
-4.040E-06,0.280
-4.030E-06,0.300
-4.020E-06,0.340
-4.010E-06,0.340
-4.000E-06,0.320
-3.990E-06,0.240
-3.980E-06,0.160
-3.970E-06,0.080
-3.960E-06,0.060
-3.950E-06,0.020
-3.940E-06,-0.040
-3.930E-06,-0.060
-3.920E-06,-0.040
-3.910E-06,-0.040
-3.900E-06,-0.060
-3.890E-06,-0.040
-3.880E-06,0.000
-3.870E-06,0.000
-3.860E-06,0.020
-3.850E-06,0.000
-3.840E-06,0.000
-3.830E-06,-0.020
-3.820E-06,-0.020
-3.810E-06,0.020
-3.800E-06,0.000
-3.790E-06,0.000
-3.780E-06,0.000
-3.770E-06,-0.020
-3.760E-06,0.000
-3.750E-06,0.000
-3.740E-06,0.040
-3.730E-06,0.060
-3.720E-06,0.060
-3.710E-06,0.080
-3.700E-06,0.120
-3.690E-06,0.100
-3.680E-06,0.140
-3.670E-06,0.100
-3.660E-06,0.080
-3.650E-06,0.100
-3.640E-06,0.080
-3.630E-06,0.080
-3.620E-06,0.060
-3.610E-06,0.060
-3.600E-06,0.020
-3.590E-06,0.040
-3.580E-06,0.060
-3.570E-06,0.080
-3.560E-06,0.080
-3.550E-06,0.060
-3.540E-06,0.100
-3.530E-06,0.120
-3.520E-06,0.120
-3.510E-06,0.140
-3.500E-06,0.140
-3.490E-06,0.180
-3.480E-06,0.120
-3.470E-06,0.120
-3.460E-06,0.140
-3.450E-06,0.120
-3.440E-06,0.100
-3.430E-06,0.100
-3.420E-06,0.100
-3.410E-06,0.100
-3.400E-06,0.100
-3.390E-06,0.060
-3.380E-06,0.080
-3.370E-06,0.040
-3.360E-06,0.020
-3.350E-06,0.020
-3.340E-06,0.000
-3.330E-06,-0.080
-3.320E-06,-0.040
-3.310E-06,-0.080
-3.300E-06,-0.020
-3.290E-06,-0.020
-3.280E-06,0.000
-3.270E-06,0.000
-3.260E-06,0.020
-3.250E-06,0.100
-3.240E-06,0.100
-3.230E-06,0.180
-3.220E-06,0.200
-3.210E-06,0.220
-3.200E-06,0.240
-3.190E-06,0.220
-3.180E-06,0.220
-3.170E-06,0.240
-3.160E-06,0.220
-3.150E-06,0.180
-3.140E-06,0.160
-3.130E-06,0.120
-3.120E-06,0.080
-3.110E-06,0.040
-3.100E-06,0.040
-3.090E-06,0.020
-3.080E-06,0.020
-3.070E-06,0.000
-3.060E-06,0.000
-3.050E-06,0.020
-3.040E-06,-0.020
-3.030E-06,-0.020
-3.020E-06,0.000
-3.010E-06,-0.020
-3.000E-06,-0.020
-2.990E-06,0.040
-2.980E-06,0.040
-2.970E-06,0.080
-2.960E-06,0.080
-2.950E-06,0.060
-2.940E-06,0.080
-2.930E-06,0.120
-2.920E-06,0.080
-2.910E-06,0.100
-2.900E-06,0.080
-2.890E-06,0.100
-2.880E-06,0.100
-2.870E-06,0.080
-2.860E-06,0.100
-2.850E-06,0.080
-2.840E-06,0.080
-2.830E-06,0.080
-2.820E-06,0.060
-2.810E-06,0.040
-2.800E-06,0.040
-2.790E-06,0.060
-2.780E-06,0.080
-2.770E-06,0.060
-2.760E-06,0.080
-2.750E-06,0.120
-2.740E-06,0.120
-2.730E-06,0.100
-2.720E-06,0.120
-2.710E-06,0.080
-2.700E-06,0.040
-2.690E-06,-0.100
-2.680E-06,-0.300
-2.670E-06,-0.500
-2.660E-06,-0.540
-2.650E-06,-0.440
-2.640E-06,-0.180
-2.630E-06,0.100
-2.620E-06,0.360
-2.610E-06,0.500
-2.600E-06,0.480
-2.590E-06,0.420
-2.580E-06,0.440
-2.570E-06,0.500
-2.560E-06,0.620
-2.550E-06,0.740
-2.540E-06,0.720
-2.530E-06,0.620
-2.520E-06,0.460
-2.510E-06,0.340
-2.500E-06,0.220
-2.490E-06,0.160
-2.480E-06,0.100
-2.470E-06,0.080
-2.460E-06,-0.020
-2.450E-06,-0.060
-2.440E-06,-0.120
-2.430E-06,-0.140
-2.420E-06,-0.140
-2.410E-06,-0.080
-2.400E-06,-0.100
-2.390E-06,-0.080
-2.380E-06,-0.060
-2.370E-06,0.000
-2.360E-06,0.080
-2.350E-06,0.160
-2.340E-06,0.240
-2.330E-06,0.240
-2.320E-06,0.240
-2.310E-06,0.260
-2.300E-06,0.240
-2.290E-06,0.240
-2.280E-06,0.220
-2.270E-06,0.200
-2.260E-06,0.140
-2.250E-06,0.100
-2.240E-06,-0.020
-2.230E-06,-0.100
-2.220E-06,-0.140
-2.210E-06,-0.180
-2.200E-06,-0.180
-2.190E-06,-0.160
-2.180E-06,-0.160
-2.170E-06,-0.160
-2.160E-06,-0.100
-2.150E-06,-0.080
-2.140E-06,0.020
-2.130E-06,0.080
-2.120E-06,0.180
-2.110E-06,0.320
-2.100E-06,0.380
-2.090E-06,0.440
-2.080E-06,0.500
-2.070E-06,0.460
-2.060E-06,0.400
-2.050E-06,0.380
-2.040E-06,0.400
-2.030E-06,0.380
-2.020E-06,0.340
-2.010E-06,0.260
-2.000E-06,0.200
-1.990E-06,0.120
-1.980E-06,0.080
-1.970E-06,0.040
-1.960E-06,0.060
-1.950E-06,0.020
-1.940E-06,0.000
-1.930E-06,-0.040
-1.920E-06,-0.020
-1.910E-06,-0.020
-1.900E-06,0.060
-1.890E-06,0.120
-1.880E-06,0.160
-1.870E-06,0.240
-1.860E-06,0.280
-1.850E-06,0.340
-1.840E-06,0.340
-1.830E-06,0.400
-1.820E-06,0.380
-1.810E-06,0.380
-1.800E-06,0.400
-1.790E-06,0.380
-1.780E-06,0.380
-1.770E-06,0.340
-1.760E-06,0.320
-1.750E-06,0.260
-1.740E-06,0.220
-1.730E-06,0.220
-1.720E-06,0.120
-1.710E-06,0.120
-1.700E-06,0.080
-1.690E-06,0.060
-1.680E-06,0.000
-1.670E-06,0.020
-1.660E-06,0.040
-1.650E-06,0.120
-1.640E-06,0.200
-1.630E-06,0.240
-1.620E-06,0.260
-1.610E-06,0.240
-1.600E-06,0.200
-1.590E-06,0.240
-1.580E-06,0.320
-1.570E-06,0.380
-1.560E-06,0.440
-1.550E-06,0.480
-1.540E-06,0.480
-1.530E-06,0.480
-1.520E-06,0.440
-1.510E-06,0.460
-1.500E-06,0.380
-1.490E-06,0.320
-1.480E-06,0.260
-1.470E-06,0.220
-1.460E-06,0.080
-1.450E-06,0.060
-1.440E-06,0.100
-1.430E-06,-0.020
-1.420E-06,-0.020
-1.410E-06,-0.160
-1.400E-06,-0.260
-1.390E-06,-0.340
-1.380E-06,-0.180
-1.370E-06,-0.020
-1.360E-06,0.180
-1.350E-06,0.320
-1.340E-06,0.440
-1.330E-06,0.480
-1.320E-06,0.540
-1.310E-06,0.700
-1.300E-06,0.760
-1.290E-06,0.840
-1.280E-06,0.840
-1.270E-06,0.800
-1.260E-06,0.680
-1.250E-06,0.480
-1.240E-06,0.340
-1.230E-06,0.260
-1.220E-06,0.180
-1.210E-06,0.140
-1.200E-06,0.180
-1.190E-06,0.280
-1.180E-06,0.340
-1.170E-06,0.520
-1.160E-06,0.540
-1.150E-06,0.660
-1.140E-06,0.560
-1.130E-06,0.080
-1.120E-06,-0.680
-1.110E-06,-0.920
-1.100E-06,-1.080
-1.090E-06,-0.620
-1.080E-06,0.360
-1.070E-06,0.880
-1.060E-06,1.100
-1.050E-06,0.740
-1.040E-06,0.300
-1.030E-06,0.100
-1.020E-06,0.160
-1.010E-06,0.260
-1.000E-06,0.420
-9.900E-07,0.440
-9.800E-07,0.300
-9.700E-07,0.160
-9.600E-07,0.140
-9.500E-07,0.320
-9.400E-07,0.320
-9.300E-07,0.600
-9.200E-07,1.020
-9.100E-07,1.220
-9.000E-07,1.360
-8.900E-07,1.080
-8.800E-07,0.460
-8.700E-07,0.120
-8.600E-07,-0.140
-8.500E-07,0.340
-8.400E-07,1.180
-8.300E-07,1.840
-8.200E-07,2.060
-8.100E-07,1.740
-8.000E-07,1.020
-7.900E-07,0.340
-7.800E-07,0.060
-7.700E-07,0.020
-7.600E-07,0.280
-7.500E-07,0.400
-7.400E-07,0.300
-7.300E-07,0.020
-7.200E-07,-0.340
-7.100E-07,-0.620
-7.000E-07,-0.680
-6.900E-07,-0.580
-6.800E-07,-0.520
-6.700E-07,-0.500
-6.600E-07,-0.620
-6.500E-07,-0.740
-6.400E-07,-0.900
-6.300E-07,-0.900
-6.200E-07,-0.820
-6.100E-07,-0.680
-6.000E-07,-0.540
-5.900E-07,-0.460
-5.800E-07,-0.440
-5.700E-07,-0.500
-5.600E-07,-0.400
-5.500E-07,-0.280
-5.400E-07,-0.040
-5.300E-07,0.240
-5.200E-07,0.420
-5.100E-07,0.440
-5.000E-07,0.400
-4.900E-07,0.320
-4.800E-07,0.320
-4.700E-07,0.380
-4.600E-07,0.420
-4.500E-07,0.420
-4.400E-07,0.400
-4.300E-07,0.340
-4.200E-07,0.200
-4.100E-07,0.080
-4.000E-07,0.000
-3.900E-07,-0.020
-3.800E-07,0.120
-3.700E-07,0.200
-3.600E-07,0.120
-3.500E-07,-0.200
-3.400E-07,-0.440
-3.300E-07,-0.620
-3.200E-07,-0.380
-3.100E-07,0.300
-3.000E-07,0.980
-2.900E-07,1.520
-2.800E-07,1.820
-2.700E-07,1.860
-2.600E-07,1.780
-2.500E-07,1.740
-2.400E-07,1.660
-2.300E-07,1.680
-2.200E-07,1.600
-2.100E-07,1.540
-2.000E-07,1.340
-1.900E-07,1.200
-1.800E-07,0.980
-1.700E-07,0.820
-1.600E-07,0.540
-1.500E-07,0.260
-1.400E-07,0.140
-1.300E-07,-0.320
-1.200E-07,-0.840
-1.100E-07,-1.200
-1.000E-07,-1.580
-9.000E-08,-1.680
-8.000E-08,-1.400
-7.000E-08,-0.860
-6.000E-08,-0.940
-5.000E-08,-1.280
-4.000E-08,-2.300
-3.000E-08,-2.660
-2.000E-08,-2.660
-1.000E-08,-2.660
0.000E+00,-2.640
1.000E-08,-1.140
2.000E-08,2.140
3.000E-08,2.780
4.000E-08,2.780
5.000E-08,2.760
6.000E-08,2.760
7.000E-08,2.760
8.000E-08,2.740
9.000E-08,2.760
1.000E-07,2.760
1.100E-07,2.780
1.200E-07,2.760
1.300E-07,2.760
1.400E-07,2.760
1.500E-07,2.740
1.600E-07,1.980
1.700E-07,-0.240
1.800E-07,-1.620
1.900E-07,-2.080
2.000E-07,-1.980
2.100E-07,-1.020
2.200E-07,0.000
2.300E-07,0.340
2.400E-07,0.200
2.500E-07,-0.120
2.600E-07,-0.840
2.700E-07,-1.220
2.800E-07,-1.540
2.900E-07,-1.880
3.000E-07,-2.080
3.100E-07,-2.320
3.200E-07,-2.660
3.300E-07,-2.660
3.400E-07,-2.660
3.500E-07,-2.560
3.600E-07,-2.040
3.700E-07,-1.580
3.800E-07,-1.200
3.900E-07,-1.100
4.000E-07,-1.120
4.100E-07,-1.100
4.200E-07,-1.000
4.300E-07,-1.040
4.400E-07,-1.040
4.500E-07,-1.220
4.600E-07,-1.620
4.700E-07,-2.280
4.800E-07,-2.660
4.900E-07,-2.660
5.000E-07,-2.660
5.100E-07,-2.660
5.200E-07,-1.900
5.300E-07,-0.640
5.400E-07,0.480
5.500E-07,0.980
5.600E-07,1.220
5.700E-07,1.040
5.800E-07,0.960
5.900E-07,0.900
6.000E-07,1.020
6.100E-07,1.200
6.200E-07,1.480
6.300E-07,1.740
6.400E-07,2.080
6.500E-07,2.380
6.600E-07,2.620
6.700E-07,2.740
6.800E-07,2.760
6.900E-07,2.760
7.000E-07,2.740
7.100E-07,2.760
7.200E-07,2.780
7.300E-07,2.120
7.400E-07,1.300
7.500E-07,0.680
7.600E-07,-0.160
7.700E-07,-0.500
7.800E-07,0.380
7.900E-07,2.740
8.000E-07,2.760
8.100E-07,2.780
8.200E-07,2.760
8.300E-07,2.780
8.400E-07,2.760
8.500E-07,2.740
8.600E-07,2.760
8.700E-07,2.780
8.800E-07,2.760
8.900E-07,-0.380
9.000E-07,-2.660
9.100E-07,-2.660
9.200E-07,-2.680
9.300E-07,-2.660
9.400E-07,-2.660
9.500E-07,-2.660
9.600E-07,-2.660
9.700E-07,-2.660
9.800E-07,-2.660
9.900E-07,-2.680
1.000E-06,-2.660
1.010E-06,-2.600
1.020E-06,-1.260
1.030E-06,-0.220
1.040E-06,0.520
1.050E-06,1.080
1.060E-06,1.240
1.070E-06,1.080
1.080E-06,0.800
1.090E-06,0.160
1.100E-06,-0.640
1.110E-06,-1.220
1.120E-06,-1.660
1.130E-06,-2.060
1.140E-06,-2.220
1.150E-06,-2.460
1.160E-06,-2.560
1.170E-06,-2.660
1.180E-06,-2.660
1.190E-06,-2.660
1.200E-06,-2.660
1.210E-06,-2.640
1.220E-06,-1.640
1.230E-06,-0.580
1.240E-06,0.680
1.250E-06,1.660
1.260E-06,2.460
1.270E-06,2.760
1.280E-06,2.740
1.290E-06,2.760
1.300E-06,2.760
1.310E-06,2.740
1.320E-06,2.760
1.330E-06,2.780
1.340E-06,2.760
1.350E-06,2.780
1.360E-06,2.760
1.370E-06,2.760
1.380E-06,2.740
1.390E-06,2.760
1.400E-06,2.500
1.410E-06,1.780
1.420E-06,0.940
1.430E-06,0.100
1.440E-06,-0.480
1.450E-06,-0.860
1.460E-06,-1.000
1.470E-06,-0.920
1.480E-06,-0.500
1.490E-06,0.040
1.500E-06,0.680
1.510E-06,1.380
1.520E-06,1.960
1.530E-06,2.380
1.540E-06,2.680
1.550E-06,2.760
1.560E-06,2.780
1.570E-06,2.760
1.580E-06,2.500
1.590E-06,1.980
1.600E-06,1.360
1.610E-06,0.660
1.620E-06,0.080
1.630E-06,-0.220
1.640E-06,-0.280
1.650E-06,-0.220
1.660E-06,0.000
1.670E-06,0.160
1.680E-06,0.240
1.690E-06,0.320
1.700E-06,0.260
1.710E-06,0.220
1.720E-06,0.200
1.730E-06,0.100
1.740E-06,0.040
1.750E-06,0.040
1.760E-06,0.080
1.770E-06,0.340
1.780E-06,0.780
1.790E-06,1.180
1.800E-06,1.820
1.810E-06,2.420
1.820E-06,2.780
1.830E-06,2.760
1.840E-06,2.760
1.850E-06,2.760
1.860E-06,2.760
1.870E-06,2.740
1.880E-06,2.760
1.890E-06,2.380
1.900E-06,1.700
1.910E-06,1.060
1.920E-06,0.460
1.930E-06,-0.080
1.940E-06,-0.440
1.950E-06,-0.680
1.960E-06,-0.780
1.970E-06,-0.700
1.980E-06,-0.560
1.990E-06,-0.360
2.000E-06,-0.100
2.010E-06,0.100
2.020E-06,0.240
2.030E-06,0.200
2.040E-06,0.040
2.050E-06,-0.260
2.060E-06,-0.680
2.070E-06,-1.120
2.080E-06,-1.640
2.090E-06,-2.140
2.100E-06,-2.580
2.110E-06,-2.660
2.120E-06,-2.660
2.130E-06,-2.660
2.140E-06,-2.640
2.150E-06,-2.640
2.160E-06,-2.640
2.170E-06,-2.660
2.180E-06,-2.660
2.190E-06,-2.660
2.200E-06,-2.640
2.210E-06,-2.560
2.220E-06,-2.180
2.230E-06,-1.700
2.240E-06,-1.240
2.250E-06,-0.800
2.260E-06,-0.320
2.270E-06,0.040
2.280E-06,0.360
2.290E-06,0.640
2.300E-06,0.820
2.310E-06,0.960
2.320E-06,1.000
2.330E-06,1.060
2.340E-06,1.040
2.350E-06,1.000
2.360E-06,0.960
2.370E-06,0.940
2.380E-06,0.940
2.390E-06,0.980
2.400E-06,1.080
2.410E-06,1.160
2.420E-06,1.200
2.430E-06,1.240
2.440E-06,1.340
2.450E-06,1.440
2.460E-06,1.620
2.470E-06,1.820
2.480E-06,2.120
2.490E-06,2.260
2.500E-06,2.340
2.510E-06,2.340
2.520E-06,2.340
2.530E-06,2.260
2.540E-06,2.140
2.550E-06,1.960
2.560E-06,1.800
2.570E-06,1.680
2.580E-06,1.560
2.590E-06,1.440
2.600E-06,1.360
2.610E-06,1.240
2.620E-06,1.100
2.630E-06,0.940
2.640E-06,0.840
2.650E-06,0.720
2.660E-06,0.540
2.670E-06,0.500
2.680E-06,0.600
2.690E-06,0.700
2.700E-06,0.820
2.710E-06,0.940
2.720E-06,1.080
2.730E-06,1.200
2.740E-06,1.280
2.750E-06,1.340
2.760E-06,1.380
2.770E-06,1.380
2.780E-06,1.280
2.790E-06,1.120
2.800E-06,0.980
2.810E-06,0.780
2.820E-06,0.560
2.830E-06,0.380
2.840E-06,0.180
2.850E-06,0.040
2.860E-06,-0.020
2.870E-06,0.060
2.880E-06,0.120
2.890E-06,0.140
2.900E-06,0.120
2.910E-06,0.160
2.920E-06,0.300
2.930E-06,0.400
2.940E-06,0.460
2.950E-06,0.480
2.960E-06,0.480
2.970E-06,0.480
2.980E-06,0.580
2.990E-06,0.760
3.000E-06,0.680
3.010E-06,0.660
3.020E-06,0.540
3.030E-06,0.560
3.040E-06,0.540
3.050E-06,0.440
3.060E-06,0.400
3.070E-06,0.460
3.080E-06,0.500
3.090E-06,0.420
3.100E-06,0.340
3.110E-06,0.340
3.120E-06,0.440
3.130E-06,0.640
3.140E-06,0.820
3.150E-06,0.960
3.160E-06,1.060
3.170E-06,1.080
3.180E-06,1.020
3.190E-06,0.940
3.200E-06,0.760
3.210E-06,0.660
3.220E-06,0.560
3.230E-06,0.420
3.240E-06,0.320
3.250E-06,0.180
3.260E-06,0.100
3.270E-06,-0.020
3.280E-06,-0.100
3.290E-06,-0.120
3.300E-06,-0.160
3.310E-06,-0.160
3.320E-06,-0.180
3.330E-06,-0.180
3.340E-06,-0.100
3.350E-06,-0.020
3.360E-06,0.120
3.370E-06,0.280
3.380E-06,0.420
3.390E-06,0.540
3.400E-06,0.680
3.410E-06,0.700
3.420E-06,0.660
3.430E-06,0.580
3.440E-06,0.500
3.450E-06,0.460
3.460E-06,0.360
3.470E-06,0.320
3.480E-06,0.320
3.490E-06,0.360
3.500E-06,0.440
3.510E-06,0.500
3.520E-06,0.600
3.530E-06,0.640
3.540E-06,0.700
3.550E-06,0.660
3.560E-06,0.620
3.570E-06,0.520
3.580E-06,0.460
3.590E-06,0.360
3.600E-06,0.240
3.610E-06,0.160
3.620E-06,0.100
3.630E-06,0.080
