mediciones/6-26/42.5/WaveData59311.csv

#timebase=2000000(ps)
,#voltbase=500000(mv/100)
#size=4000
-8.150E-06,0.060
-8.140E-06,0.040
-8.130E-06,0.060
-8.120E-06,0.040
-8.110E-06,0.080
-8.100E-06,0.060
-8.090E-06,0.040
-8.080E-06,0.040
-8.070E-06,0.100
-8.060E-06,0.040
-8.050E-06,0.040
-8.040E-06,0.080
-8.030E-06,0.080
-8.020E-06,0.060
-8.010E-06,0.040
-8.000E-06,0.060
-7.990E-06,0.060
-7.980E-06,0.080
-7.970E-06,0.060
-7.960E-06,0.080
-7.950E-06,0.080
-7.940E-06,0.040
-7.930E-06,0.040
-7.920E-06,0.060
-7.910E-06,0.060
-7.900E-06,0.040
-7.890E-06,0.060
-7.880E-06,0.080
-7.870E-06,0.060
-7.860E-06,0.040
-7.850E-06,0.060
-7.840E-06,0.060
-7.830E-06,0.060
-7.820E-06,0.060
-7.810E-06,0.100
-7.800E-06,0.060
-7.790E-06,0.080
-7.780E-06,0.020
-7.770E-06,0.040
-7.760E-06,0.060
-7.750E-06,0.040
-7.740E-06,0.040
-7.730E-06,0.040
-7.720E-06,0.060
-7.710E-06,0.080
-7.700E-06,0.040
-7.690E-06,0.040
-7.680E-06,0.060
-7.670E-06,0.040
-7.660E-06,0.040
-7.650E-06,0.060
-7.640E-06,0.040
-7.630E-06,0.080
-7.620E-06,0.040
-7.610E-06,0.060
-7.600E-06,0.060
-7.590E-06,0.060
-7.580E-06,0.060
-7.570E-06,0.080
-7.560E-06,0.060
-7.550E-06,0.060
-7.540E-06,0.080
-7.530E-06,0.040
-7.520E-06,0.060
-7.510E-06,0.040
-7.500E-06,0.020
-7.490E-06,0.040
-7.480E-06,0.080
-7.470E-06,0.060
-7.460E-06,0.060
-7.450E-06,0.080
-7.440E-06,0.060
-7.430E-06,0.060
-7.420E-06,0.060
-7.410E-06,0.040
-7.400E-06,0.060
-7.390E-06,0.060
-7.380E-06,0.080
-7.370E-06,0.040
-7.360E-06,0.040
-7.350E-06,0.060
-7.340E-06,0.020
-7.330E-06,0.040
-7.320E-06,0.060
-7.310E-06,0.080
-7.300E-06,0.040
-7.290E-06,0.080
-7.280E-06,0.040
-7.270E-06,0.040
-7.260E-06,0.040
-7.250E-06,0.040
-7.240E-06,0.060
-7.230E-06,0.040
-7.220E-06,0.060
-7.210E-06,0.080
-7.200E-06,0.080
-7.190E-06,0.060
-7.180E-06,0.060
-7.170E-06,0.020
-7.160E-06,0.040
-7.150E-06,0.060
-7.140E-06,0.020
-7.130E-06,0.060
-7.120E-06,0.060
-7.110E-06,0.060
-7.100E-06,0.040
-7.090E-06,0.100
-7.080E-06,0.040
-7.070E-06,0.040
-7.060E-06,0.080
-7.050E-06,0.040
-7.040E-06,0.060
-7.030E-06,0.080
-7.020E-06,0.060
-7.010E-06,0.020
-7.000E-06,0.060
-6.990E-06,0.060
-6.980E-06,0.040
-6.970E-06,0.040
-6.960E-06,0.080
-6.950E-06,0.060
-6.940E-06,0.040
-6.930E-06,0.080
-6.920E-06,0.060
-6.910E-06,0.020
-6.900E-06,0.060
-6.890E-06,0.080
-6.880E-06,0.060
-6.870E-06,0.040
-6.860E-06,0.040
-6.850E-06,0.060
-6.840E-06,0.080
-6.830E-06,0.060
-6.820E-06,0.080
-6.810E-06,0.040
-6.800E-06,0.060
-6.790E-06,0.080
-6.780E-06,0.040
-6.770E-06,0.060
-6.760E-06,0.060
-6.750E-06,0.060
-6.740E-06,0.080
-6.730E-06,0.060
-6.720E-06,0.040
-6.710E-06,0.060
-6.700E-06,0.060
-6.690E-06,0.060
-6.680E-06,0.060
-6.670E-06,0.040
-6.660E-06,0.020
-6.650E-06,0.020
-6.640E-06,0.060
-6.630E-06,0.040
-6.620E-06,0.060
-6.610E-06,0.060
-6.600E-06,0.060
-6.590E-06,0.060
-6.580E-06,0.040
-6.570E-06,0.040
-6.560E-06,0.080
-6.550E-06,0.080
-6.540E-06,0.080
-6.530E-06,0.080
-6.520E-06,0.060
-6.510E-06,0.060
-6.500E-06,0.080
-6.490E-06,0.100
-6.480E-06,0.040
-6.470E-06,0.060
-6.460E-06,0.020
-6.450E-06,0.040
-6.440E-06,0.060
-6.430E-06,0.020
-6.420E-06,0.060
-6.410E-06,0.040
-6.400E-06,0.080
-6.390E-06,0.080
-6.380E-06,0.080
-6.370E-06,0.060
-6.360E-06,0.040
-6.350E-06,0.040
-6.340E-06,0.040
-6.330E-06,0.040
-6.320E-06,0.060
-6.310E-06,0.040
-6.300E-06,0.060
-6.290E-06,0.080
-6.280E-06,0.060
-6.270E-06,0.060
-6.260E-06,0.080
-6.250E-06,0.040
-6.240E-06,0.020
-6.230E-06,0.060
-6.220E-06,0.080
-6.210E-06,0.040
-6.200E-06,0.080
-6.190E-06,0.060
-6.180E-06,0.000
-6.170E-06,0.000
-6.160E-06,0.120
-6.150E-06,0.420
-6.140E-06,1.000
-6.130E-06,1.660
-6.120E-06,2.280
-6.110E-06,2.520
-6.100E-06,2.380
-6.090E-06,1.880
-6.080E-06,0.720
-6.070E-06,-0.460
-6.060E-06,-1.520
-6.050E-06,-2.360
-6.040E-06,-2.640
-6.030E-06,-2.660
-6.020E-06,-2.660
-6.010E-06,-2.660
-6.000E-06,-2.660
-5.990E-06,-2.500
-5.980E-06,-1.800
-5.970E-06,-0.980
-5.960E-06,-0.340
-5.950E-06,0.120
-5.940E-06,0.420
-5.930E-06,0.520
-5.920E-06,0.600
-5.910E-06,0.740
-5.900E-06,0.860
-5.890E-06,0.960
-5.880E-06,0.940
-5.870E-06,0.900
-5.860E-06,0.840
-5.850E-06,0.860
-5.840E-06,0.860
-5.830E-06,0.860
-5.820E-06,0.860
-5.810E-06,0.720
-5.800E-06,0.580
-5.790E-06,0.360
-5.780E-06,0.100
-5.770E-06,-0.060
-5.760E-06,-0.180
-5.750E-06,-0.240
-5.740E-06,-0.240
-5.730E-06,-0.120
-5.720E-06,0.000
-5.710E-06,0.220
-5.700E-06,0.440
-5.690E-06,0.740
-5.680E-06,0.980
-5.670E-06,1.120
-5.660E-06,1.220
-5.650E-06,1.160
-5.640E-06,1.100
-5.630E-06,0.940
-5.620E-06,0.780
-5.610E-06,0.480
-5.600E-06,0.200
-5.590E-06,-0.160
-5.580E-06,-0.500
-5.570E-06,-0.840
-5.560E-06,-1.160
-5.550E-06,-1.420
-5.540E-06,-1.680
-5.530E-06,-1.820
-5.520E-06,-1.880
-5.510E-06,-1.800
-5.500E-06,-1.620
-5.490E-06,-1.340
-5.480E-06,-1.020
-5.470E-06,-0.700
-5.460E-06,-0.340
-5.450E-06,0.020
-5.440E-06,0.320
-5.430E-06,0.620
-5.420E-06,0.800
-5.410E-06,0.980
-5.400E-06,1.040
-5.390E-06,1.000
-5.380E-06,0.920
-5.370E-06,0.800
-5.360E-06,0.600
-5.350E-06,0.420
-5.340E-06,0.240
-5.330E-06,0.120
-5.320E-06,0.000
-5.310E-06,-0.080
-5.300E-06,-0.140
-5.290E-06,-0.160
-5.280E-06,-0.260
-5.270E-06,-0.280
-5.260E-06,-0.280
-5.250E-06,-0.280
-5.240E-06,-0.180
-5.230E-06,-0.180
-5.220E-06,-0.160
-5.210E-06,-0.120
-5.200E-06,-0.060
-5.190E-06,0.080
-5.180E-06,0.160
-5.170E-06,0.360
-5.160E-06,0.460
-5.150E-06,0.500
-5.140E-06,0.520
-5.130E-06,0.540
-5.120E-06,0.460
-5.110E-06,0.440
-5.100E-06,0.360
-5.090E-06,0.240
-5.080E-06,0.180
-5.070E-06,0.060
-5.060E-06,-0.020
-5.050E-06,-0.100
-5.040E-06,-0.120
-5.030E-06,-0.180
-5.020E-06,-0.160
-5.010E-06,-0.160
-5.000E-06,-0.120
-4.990E-06,-0.080
-4.980E-06,-0.080
-4.970E-06,-0.080
-4.960E-06,-0.020
-4.950E-06,-0.040
-4.940E-06,-0.100
-4.930E-06,-0.040
-4.920E-06,-0.100
-4.910E-06,-0.100
-4.900E-06,-0.020
-4.890E-06,0.040
-4.880E-06,0.040
-4.870E-06,0.020
-4.860E-06,-0.020
-4.850E-06,0.000
-4.840E-06,0.100
-4.830E-06,0.160
-4.820E-06,0.240
-4.810E-06,0.280
-4.800E-06,0.260
-4.790E-06,0.200
-4.780E-06,0.160
-4.770E-06,0.160
-4.760E-06,0.180
-4.750E-06,0.140
-4.740E-06,0.120
-4.730E-06,0.100
-4.720E-06,0.020
-4.710E-06,0.020
-4.700E-06,0.020
-4.690E-06,0.060
-4.680E-06,0.180
-4.670E-06,0.220
-4.660E-06,0.260
-4.650E-06,0.220
-4.640E-06,0.140
-4.630E-06,0.120
-4.620E-06,0.120
-4.610E-06,0.200
-4.600E-06,0.280
-4.590E-06,0.260
-4.580E-06,0.200
-4.570E-06,0.100
-4.560E-06,0.100
-4.550E-06,0.060
-4.540E-06,0.200
-4.530E-06,0.320
-4.520E-06,0.340
-4.510E-06,0.240
-4.500E-06,0.080
-4.490E-06,0.020
-4.480E-06,0.020
-4.470E-06,0.120
-4.460E-06,0.160
-4.450E-06,0.160
-4.440E-06,0.040
-4.430E-06,-0.080
-4.420E-06,-0.180
-4.410E-06,-0.200
-4.400E-06,-0.100
-4.390E-06,-0.040
-4.380E-06,0.080
-4.370E-06,0.100
-4.360E-06,0.020
-4.350E-06,0.080
-4.340E-06,0.080
-4.330E-06,0.160
-4.320E-06,0.260
-4.310E-06,0.300
-4.300E-06,0.160
-4.290E-06,-0.080
-4.280E-06,-0.340
-4.270E-06,-0.480
-4.260E-06,-0.320
-4.250E-06,-0.080
-4.240E-06,0.240
-4.230E-06,0.420
-4.220E-06,0.460
-4.210E-06,0.460
-4.200E-06,0.340
-4.190E-06,0.380
-4.180E-06,0.440
-4.170E-06,0.520
-4.160E-06,0.600
-4.150E-06,0.600
-4.140E-06,0.540
-4.130E-06,0.400
-4.120E-06,0.320
-4.110E-06,0.260
-4.100E-06,0.180
-4.090E-06,0.100
-4.080E-06,0.100
-4.070E-06,0.020
-4.060E-06,-0.040
-4.050E-06,-0.040
-4.040E-06,-0.100
-4.030E-06,-0.100
-4.020E-06,-0.140
-4.010E-06,0.000
-4.000E-06,-0.140
-3.990E-06,-0.220
-3.980E-06,0.000
-3.970E-06,-0.060
-3.960E-06,0.340
-3.950E-06,0.620
-3.940E-06,0.660
-3.930E-06,0.680
-3.920E-06,0.340
-3.910E-06,0.140
-3.900E-06,0.140
-3.890E-06,0.160
-3.880E-06,0.280
-3.870E-06,0.340
-3.860E-06,0.200
-3.850E-06,0.020
-3.840E-06,-0.160
-3.830E-06,-0.360
-3.820E-06,-0.340
-3.810E-06,-0.280
-3.800E-06,-0.220
-3.790E-06,-0.160
-3.780E-06,-0.160
-3.770E-06,-0.200
-3.760E-06,-0.180
-3.750E-06,-0.120
-3.740E-06,-0.040
-3.730E-06,0.100
-3.720E-06,0.200
-3.710E-06,0.260
-3.700E-06,0.300
-3.690E-06,0.280
-3.680E-06,0.260
-3.670E-06,0.240
-3.660E-06,0.240
-3.650E-06,0.300
-3.640E-06,0.240
-3.630E-06,0.080
-3.620E-06,0.020
-3.610E-06,-0.180
-3.600E-06,-0.140
-3.590E-06,-0.120
-3.580E-06,0.000
-3.570E-06,0.080
-3.560E-06,0.100
-3.550E-06,0.020
-3.540E-06,-0.040
-3.530E-06,-0.080
-3.520E-06,0.020
-3.510E-06,0.160
-3.500E-06,0.240
-3.490E-06,0.360
-3.480E-06,0.360
-3.470E-06,0.320
-3.460E-06,0.320
-3.450E-06,0.340
-3.440E-06,0.320
-3.430E-06,0.340
-3.420E-06,0.360
-3.410E-06,0.320
-3.400E-06,0.260
-3.390E-06,0.160
-3.380E-06,0.100
-3.370E-06,0.020
-3.360E-06,0.000
-3.350E-06,-0.060
-3.340E-06,-0.120
-3.330E-06,-0.180
-3.320E-06,-0.220
-3.310E-06,-0.260
-3.300E-06,-0.240
-3.290E-06,-0.220
-3.280E-06,-0.220
-3.270E-06,-0.160
-3.260E-06,-0.140
-3.250E-06,-0.160
-3.240E-06,-0.160
-3.230E-06,-0.180
-3.220E-06,-0.180
-3.210E-06,-0.040
-3.200E-06,0.100
-3.190E-06,0.340
-3.180E-06,0.420
-3.170E-06,0.260
-3.160E-06,0.280
-3.150E-06,0.160
-3.140E-06,0.220
-3.130E-06,0.380
-3.120E-06,0.500
-3.110E-06,0.560
-3.100E-06,0.480
-3.090E-06,0.340
-3.080E-06,0.240
-3.070E-06,0.340
-3.060E-06,0.340
-3.050E-06,0.400
-3.040E-06,0.400
-3.030E-06,0.280
-3.020E-06,0.180
-3.010E-06,0.140
-3.000E-06,0.080
-2.990E-06,0.080
-2.980E-06,0.100
-2.970E-06,0.100
-2.960E-06,0.060
-2.950E-06,-0.020
-2.940E-06,-0.040
-2.930E-06,-0.140
-2.920E-06,-0.120
-2.910E-06,-0.180
-2.900E-06,-0.160
-2.890E-06,-0.160
-2.880E-06,-0.220
-2.870E-06,-0.260
-2.860E-06,-0.320
-2.850E-06,-0.360
-2.840E-06,-0.360
-2.830E-06,-0.360
-2.820E-06,-0.340
-2.810E-06,-0.260
-2.800E-06,-0.320
-2.790E-06,-0.340
-2.780E-06,-0.300
-2.770E-06,-0.320
-2.760E-06,-0.280
-2.750E-06,-0.260
-2.740E-06,-0.220
-2.730E-06,-0.140
-2.720E-06,0.020
-2.710E-06,0.080
-2.700E-06,0.120
-2.690E-06,0.220
-2.680E-06,0.220
-2.670E-06,0.220
-2.660E-06,0.260
-2.650E-06,0.320
-2.640E-06,0.280
-2.630E-06,0.340
-2.620E-06,0.300
-2.610E-06,0.240
-2.600E-06,0.460
-2.590E-06,0.920
-2.580E-06,1.280
-2.570E-06,1.600
-2.560E-06,1.580
-2.550E-06,1.160
-2.540E-06,0.720
-2.530E-06,0.320
-2.520E-06,0.320
-2.510E-06,0.480
-2.500E-06,0.580
-2.490E-06,0.500
-2.480E-06,0.280
-2.470E-06,0.020
-2.460E-06,-0.240
-2.450E-06,-0.340
-2.440E-06,-0.420
-2.430E-06,-0.340
-2.420E-06,-0.380
-2.410E-06,-0.480
-2.400E-06,-0.600
-2.390E-06,-0.660
-2.380E-06,-0.720
-2.370E-06,-0.720
-2.360E-06,-0.700
-2.350E-06,-0.620
-2.340E-06,-0.640
-2.330E-06,-0.680
-2.320E-06,-0.740
-2.310E-06,-0.780
-2.300E-06,-0.760
-2.290E-06,-0.840
-2.280E-06,-0.700
-2.270E-06,-0.500
-2.260E-06,-0.340
-2.250E-06,-0.040
-2.240E-06,0.100
-2.230E-06,0.160
-2.220E-06,0.080
-2.210E-06,0.080
-2.200E-06,0.080
-2.190E-06,0.220
-2.180E-06,0.340
-2.170E-06,0.420
-2.160E-06,0.500
-2.150E-06,0.500
-2.140E-06,0.500
-2.130E-06,0.580
-2.120E-06,0.600
-2.110E-06,0.700
-2.100E-06,0.760
-2.090E-06,0.700
-2.080E-06,0.720
-2.070E-06,0.620
-2.060E-06,0.520
-2.050E-06,0.400
-2.040E-06,0.320
-2.030E-06,0.340
-2.020E-06,0.360
-2.010E-06,0.360
-2.000E-06,0.440
-1.990E-06,0.500
-1.980E-06,0.640
-1.970E-06,0.860
-1.960E-06,1.100
-1.950E-06,1.220
-1.940E-06,0.720
-1.930E-06,0.840
-1.920E-06,0.940
-1.910E-06,1.220
-1.900E-06,2.080
-1.890E-06,2.380
-1.880E-06,2.200
-1.870E-06,1.460
-1.860E-06,0.460
-1.850E-06,-0.060
-1.840E-06,-0.020
-1.830E-06,0.020
-1.820E-06,0.200
-1.810E-06,0.080
-1.800E-06,-0.340
-1.790E-06,-0.680
-1.780E-06,-0.940
-1.770E-06,-1.080
-1.760E-06,-0.940
-1.750E-06,-0.920
-1.740E-06,-0.920
-1.730E-06,-1.000
-1.720E-06,-1.060
-1.710E-06,-1.140
-1.700E-06,-1.180
-1.690E-06,-1.140
-1.680E-06,-1.180
-1.670E-06,-1.180
-1.660E-06,-1.180
-1.650E-06,-1.180
-1.640E-06,-1.200
-1.630E-06,-1.140
-1.620E-06,-1.080
-1.610E-06,-1.020
-1.600E-06,-1.160
-1.590E-06,-1.040
-1.580E-06,-1.020
-1.570E-06,-0.840
-1.560E-06,-0.320
-1.550E-06,0.040
-1.540E-06,0.360
-1.530E-06,0.580
-1.520E-06,0.540
-1.510E-06,0.520
-1.500E-06,0.420
-1.490E-06,0.420
-1.480E-06,0.400
-1.470E-06,0.640
-1.460E-06,0.900
-1.450E-06,1.240
-1.440E-06,1.700
-1.430E-06,2.060
-1.420E-06,2.360
-1.410E-06,2.480
-1.400E-06,2.280
-1.390E-06,2.000
-1.380E-06,1.700
-1.370E-06,1.420
-1.360E-06,1.420
-1.350E-06,1.420
-1.340E-06,1.260
-1.330E-06,1.000
-1.320E-06,0.620
-1.310E-06,0.180
-1.300E-06,-0.060
-1.290E-06,-0.220
-1.280E-06,-0.320
-1.270E-06,-0.420
-1.260E-06,-0.560
-1.250E-06,-0.700
-1.240E-06,-0.980
-1.230E-06,-1.260
-1.220E-06,-1.260
-1.210E-06,-1.060
-1.200E-06,-0.240
-1.190E-06,1.060
-1.180E-06,1.740
-1.170E-06,2.400
-1.160E-06,2.360
-1.150E-06,1.740
-1.140E-06,1.000
-1.130E-06,0.280
-1.120E-06,-0.340
-1.110E-06,-0.420
-1.100E-06,-0.380
-1.090E-06,-0.280
-1.080E-06,-0.240
-1.070E-06,-0.140
-1.060E-06,-0.100
-1.050E-06,0.100
-1.040E-06,0.100
-1.030E-06,-0.220
-1.020E-06,-0.620
-1.010E-06,-1.120
-1.000E-06,-1.480
-9.900E-07,-1.480
-9.800E-07,-1.520
-9.700E-07,-1.620
-9.600E-07,-1.660
-9.500E-07,-1.740
-9.400E-07,-1.900
-9.300E-07,-2.100
-9.200E-07,-2.220
-9.100E-07,-2.140
-9.000E-07,-1.860
-8.900E-07,-1.300
-8.800E-07,-0.620
-8.700E-07,-0.060
-8.600E-07,0.200
-8.500E-07,0.480
-8.400E-07,0.520
-8.300E-07,0.520
-8.200E-07,0.920
-8.100E-07,1.260
-8.000E-07,1.900
-7.900E-07,2.520
-7.800E-07,2.760
-7.700E-07,2.720
-7.600E-07,2.280
-7.500E-07,1.820
-7.400E-07,1.640
-7.300E-07,1.700
-7.200E-07,1.880
-7.100E-07,1.920
-7.000E-07,1.460
-6.900E-07,0.880
-6.800E-07,0.120
-6.700E-07,-0.500
-6.600E-07,-0.840
-6.500E-07,-0.980
-6.400E-07,-1.000
-6.300E-07,-1.040
-6.200E-07,-1.100
-6.100E-07,-1.360
-6.000E-07,-1.680
-5.900E-07,-1.940
-5.800E-07,-2.020
-5.700E-07,-1.920
-5.600E-07,-1.460
-5.500E-07,-1.120
-5.400E-07,-1.140
-5.300E-07,-1.080
-5.200E-07,-0.300
-5.100E-07,0.480
-5.000E-07,2.760
-4.900E-07,2.760
-4.800E-07,2.740
-4.700E-07,2.760
-4.600E-07,2.760
-4.500E-07,2.760
-4.400E-07,1.140
-4.300E-07,-0.140
-4.200E-07,-0.860
-4.100E-07,-0.660
-4.000E-07,-0.560
-3.900E-07,-0.500
-3.800E-07,-0.700
-3.700E-07,-1.100
-3.600E-07,-1.520
-3.500E-07,-1.700
-3.400E-07,-1.560
-3.300E-07,-1.280
-3.200E-07,-0.880
-3.100E-07,-0.640
-3.000E-07,-0.620
-2.900E-07,-0.780
-2.800E-07,-1.100
-2.700E-07,-1.360
-2.600E-07,-1.480
-2.500E-07,-1.440
-2.400E-07,-1.460
-2.300E-07,-1.460
-2.200E-07,-1.620
-2.100E-07,-1.780
-2.000E-07,-1.840
-1.900E-07,-1.760
-1.800E-07,-1.560
-1.700E-07,-1.360
-1.600E-07,-1.020
-1.500E-07,-0.840
-1.400E-07,-0.620
-1.300E-07,-0.440
-1.200E-07,-0.240
-1.100E-07,-0.180
-1.000E-07,0.040
-9.000E-08,0.140
-8.000E-08,0.160
-7.000E-08,0.100
-6.000E-08,0.080
-5.000E-08,-0.520
-4.000E-08,-0.580
-3.000E-08,0.120
-2.000E-08,2.260
-1.000E-08,2.760
0.000E+00,2.760
1.000E-08,2.760
2.000E-08,2.760
3.000E-08,2.760
4.000E-08,2.760
5.000E-08,2.080
6.000E-08,1.420
7.000E-08,-1.000
8.000E-08,-2.260
9.000E-08,-2.000
1.000E-07,-2.360
1.100E-07,-2.660
1.200E-07,-2.660
1.300E-07,-2.680
1.400E-07,-2.660
1.500E-07,-2.660
1.600E-07,-2.640
1.700E-07,-2.640
1.800E-07,-2.380
1.900E-07,-2.140
2.000E-07,-2.040
2.100E-07,-1.540
2.200E-07,-0.420
2.300E-07,1.020
2.400E-07,2.660
2.500E-07,2.780
2.600E-07,2.760
2.700E-07,2.760
2.800E-07,2.520
2.900E-07,0.980
3.000E-07,-0.300
3.100E-07,-1.100
3.200E-07,-1.940
3.300E-07,-2.220
3.400E-07,-2.660
3.500E-07,-2.660
3.600E-07,-2.660
3.700E-07,-2.280
3.800E-07,-1.540
3.900E-07,-0.440
4.000E-07,0.580
4.100E-07,1.240
4.200E-07,1.600
4.300E-07,1.700
4.400E-07,1.860
4.500E-07,1.980
4.600E-07,1.960
4.700E-07,1.820
4.800E-07,1.460
4.900E-07,0.720
5.000E-07,0.140
5.100E-07,-0.260
5.200E-07,-0.480
5.300E-07,-0.240
5.400E-07,-0.060
5.500E-07,0.060
5.600E-07,0.160
5.700E-07,0.100
5.800E-07,0.400
5.900E-07,1.100
6.000E-07,1.880
6.100E-07,2.660
6.200E-07,2.780
6.300E-07,2.380
6.400E-07,1.320
6.500E-07,-0.080
6.600E-07,-1.500
6.700E-07,-2.440
6.800E-07,-2.660
6.900E-07,-2.660
7.000E-07,-2.660
7.100E-07,-2.660
7.200E-07,-2.680
7.300E-07,-2.660
7.400E-07,-2.660
7.500E-07,-2.060
7.600E-07,-1.360
7.700E-07,-0.720
7.800E-07,-0.020
7.900E-07,0.520
8.000E-07,0.840
8.100E-07,0.980
8.200E-07,0.860
8.300E-07,0.560
8.400E-07,0.180
8.500E-07,-0.140
8.600E-07,-0.540
8.700E-07,-0.800
8.800E-07,-0.720
8.900E-07,0.520
9.000E-07,2.040
9.100E-07,2.760
9.200E-07,2.760
9.300E-07,2.760
9.400E-07,2.740
9.500E-07,2.760
9.600E-07,2.760
9.700E-07,0.500
9.800E-07,-2.660
9.900E-07,-2.660
1.000E-06,-2.540
1.010E-06,-2.140
1.020E-06,-1.580
1.030E-06,-2.380
1.040E-06,-2.640
1.050E-06,-1.740
1.060E-06,-2.000
1.070E-06,-2.100
1.080E-06,-1.400
1.090E-06,-1.280
1.100E-06,0.100
1.110E-06,0.940
1.120E-06,1.100
1.130E-06,0.920
1.140E-06,0.320
1.150E-06,-0.220
1.160E-06,-0.320
1.170E-06,-0.740
1.180E-06,-1.180
1.190E-06,-1.740
1.200E-06,-2.320
1.210E-06,-2.540
1.220E-06,-2.660
1.230E-06,-2.660
1.240E-06,-2.660
1.250E-06,-2.660
1.260E-06,-2.640
1.270E-06,-2.640
1.280E-06,-2.420
1.290E-06,-1.700
1.300E-06,-0.840
1.310E-06,0.420
1.320E-06,1.640
1.330E-06,2.700
1.340E-06,2.760
1.350E-06,2.780
1.360E-06,2.760
1.370E-06,2.760
1.380E-06,2.020
1.390E-06,0.360
1.400E-06,-0.940
1.410E-06,-1.460
1.420E-06,-1.120
1.430E-06,0.340
1.440E-06,1.840
1.450E-06,2.740
1.460E-06,2.760
1.470E-06,2.760
1.480E-06,2.780
1.490E-06,2.760
1.500E-06,2.760
1.510E-06,2.760
1.520E-06,2.760
1.530E-06,2.760
1.540E-06,2.740
1.550E-06,2.500
1.560E-06,0.400
1.570E-06,-2.080
1.580E-06,-2.640
1.590E-06,-2.640
1.600E-06,-2.640
1.610E-06,-2.640
1.620E-06,-2.660
1.630E-06,-2.660
1.640E-06,-2.660
1.650E-06,-2.660
1.660E-06,-2.660
1.670E-06,-2.120
1.680E-06,-1.520
1.690E-06,-1.180
1.700E-06,-0.940
1.710E-06,-0.680
1.720E-06,-0.440
1.730E-06,-0.220
1.740E-06,0.080
1.750E-06,0.400
1.760E-06,0.720
1.770E-06,0.900
1.780E-06,0.900
1.790E-06,0.680
1.800E-06,0.340
1.810E-06,-0.120
1.820E-06,-0.560
1.830E-06,-0.720
1.840E-06,-0.740
1.850E-06,-0.680
1.860E-06,-0.500
1.870E-06,-0.160
1.880E-06,0.140
1.890E-06,0.600
1.900E-06,1.220
1.910E-06,1.700
1.920E-06,2.260
1.930E-06,2.760
1.940E-06,2.780
1.950E-06,2.780
1.960E-06,2.760
1.970E-06,2.760
1.980E-06,2.760
1.990E-06,2.760
2.000E-06,1.700
2.010E-06,0.400
2.020E-06,-0.920
2.030E-06,-1.920
2.040E-06,-2.540
2.050E-06,-2.640
2.060E-06,-2.660
2.070E-06,-2.660
2.080E-06,-2.660
2.090E-06,-2.640
2.100E-06,-1.900
2.110E-06,-0.820
2.120E-06,0.160
2.130E-06,0.700
2.140E-06,1.020
2.150E-06,1.420
2.160E-06,1.780
2.170E-06,2.080
2.180E-06,2.320
2.190E-06,2.500
2.200E-06,2.680
2.210E-06,2.740
2.220E-06,2.760
2.230E-06,2.660
2.240E-06,2.600
2.250E-06,2.480
2.260E-06,2.480
2.270E-06,2.380
2.280E-06,2.200
2.290E-06,2.000
2.300E-06,1.780
2.310E-06,1.560
2.320E-06,1.400
2.330E-06,1.340
2.340E-06,1.240
2.350E-06,1.120
2.360E-06,0.940
2.370E-06,0.720
2.380E-06,0.480
2.390E-06,0.260
2.400E-06,0.100
2.410E-06,0.020
2.420E-06,-0.060
2.430E-06,-0.020
2.440E-06,0.140
2.450E-06,0.440
2.460E-06,0.900
2.470E-06,1.280
2.480E-06,1.620
2.490E-06,1.920
2.500E-06,2.100
2.510E-06,2.200
2.520E-06,2.260
2.530E-06,2.260
2.540E-06,2.200
2.550E-06,2.060
2.560E-06,1.900
2.570E-06,1.740
2.580E-06,1.500
2.590E-06,1.280
2.600E-06,1.020
2.610E-06,0.780
2.620E-06,0.560
2.630E-06,0.460
2.640E-06,0.420
2.650E-06,0.480
2.660E-06,0.680
2.670E-06,1.000
2.680E-06,1.340
2.690E-06,1.680
2.700E-06,1.980
2.710E-06,2.240
2.720E-06,2.360
2.730E-06,2.360
2.740E-06,2.320
2.750E-06,2.160
2.760E-06,1.980
2.770E-06,1.740
2.780E-06,1.500
2.790E-06,1.140
2.800E-06,0.760
2.810E-06,0.420
2.820E-06,0.140
2.830E-06,-0.040
2.840E-06,-0.080
2.850E-06,-0.080
2.860E-06,0.040
2.870E-06,0.160
2.880E-06,0.360
2.890E-06,0.520
2.900E-06,0.700
2.910E-06,0.840
2.920E-06,0.920
2.930E-06,1.060
2.940E-06,1.060
2.950E-06,1.000
2.960E-06,1.000
2.970E-06,0.920
2.980E-06,0.860
2.990E-06,0.860
3.000E-06,0.760
3.010E-06,0.660
3.020E-06,0.620
3.030E-06,0.620
3.040E-06,0.680
3.050E-06,0.740
3.060E-06,0.820
3.070E-06,0.860
3.080E-06,0.860
3.090E-06,0.840
3.100E-06,0.780
3.110E-06,0.700
3.120E-06,0.600
3.130E-06,0.500
3.140E-06,0.340
3.150E-06,0.280
3.160E-06,0.160
3.170E-06,0.080
3.180E-06,0.060
3.190E-06,0.020
3.200E-06,0.100
3.210E-06,0.240
3.220E-06,0.320
3.230E-06,0.420
3.240E-06,0.540
3.250E-06,0.640
3.260E-06,0.700
3.270E-06,0.760
3.280E-06,0.860
3.290E-06,0.860
3.300E-06,0.800
3.310E-06,0.720
3.320E-06,0.540
3.330E-06,0.340
3.340E-06,0.100
3.350E-06,-0.080
3.360E-06,-0.260
3.370E-06,-0.360
3.380E-06,-0.500
3.390E-06,-0.520
3.400E-06,-0.460
3.410E-06,-0.320
3.420E-06,-0.120
3.430E-06,0.100
3.440E-06,0.340
3.450E-06,0.520
3.460E-06,0.760
3.470E-06,0.740
3.480E-06,0.680
3.490E-06,0.480
3.500E-06,0.220
3.510E-06,-0.060
3.520E-06,-0.180
3.530E-06,-0.240
3.540E-06,-0.320
