mediciones/6-26/42.5/WaveData59305.csv

#timebase=2000000(ps)
,#voltbase=500000(mv/100)
#size=4000
-8.150E-06,0.100
-8.140E-06,0.040
-8.130E-06,0.060
-8.120E-06,0.080
-8.110E-06,0.060
-8.100E-06,0.040
-8.090E-06,0.040
-8.080E-06,0.020
-8.070E-06,0.060
-8.060E-06,0.060
-8.050E-06,0.060
-8.040E-06,0.060
-8.030E-06,0.080
-8.020E-06,0.060
-8.010E-06,0.040
-8.000E-06,0.040
-7.990E-06,0.080
-7.980E-06,0.080
-7.970E-06,0.040
-7.960E-06,0.040
-7.950E-06,0.060
-7.940E-06,0.080
-7.930E-06,0.060
-7.920E-06,0.080
-7.910E-06,0.080
-7.900E-06,0.080
-7.890E-06,0.080
-7.880E-06,0.020
-7.870E-06,0.020
-7.860E-06,0.060
-7.850E-06,0.080
-7.840E-06,0.080
-7.830E-06,0.080
-7.820E-06,0.020
-7.810E-06,0.040
-7.800E-06,0.060
-7.790E-06,0.040
-7.780E-06,0.040
-7.770E-06,0.080
-7.760E-06,0.060
-7.750E-06,0.020
-7.740E-06,0.040
-7.730E-06,0.040
-7.720E-06,0.040
-7.710E-06,0.060
-7.700E-06,0.020
-7.690E-06,0.040
-7.680E-06,0.080
-7.670E-06,0.060
-7.660E-06,0.080
-7.650E-06,0.060
-7.640E-06,0.020
-7.630E-06,0.040
-7.620E-06,0.060
-7.610E-06,0.060
-7.600E-06,0.040
-7.590E-06,0.060
-7.580E-06,0.080
-7.570E-06,0.060
-7.560E-06,0.080
-7.550E-06,0.040
-7.540E-06,0.040
-7.530E-06,0.060
-7.520E-06,0.020
-7.510E-06,0.060
-7.500E-06,0.080
-7.490E-06,0.060
-7.480E-06,0.020
-7.470E-06,0.060
-7.460E-06,0.020
-7.450E-06,0.040
-7.440E-06,0.060
-7.430E-06,0.080
-7.420E-06,0.060
-7.410E-06,0.040
-7.400E-06,0.020
-7.390E-06,0.060
-7.380E-06,0.040
-7.370E-06,0.040
-7.360E-06,0.020
-7.350E-06,0.040
-7.340E-06,0.040
-7.330E-06,0.080
-7.320E-06,0.020
-7.310E-06,0.040
-7.300E-06,0.080
-7.290E-06,0.060
-7.280E-06,0.080
-7.270E-06,0.080
-7.260E-06,0.080
-7.250E-06,0.080
-7.240E-06,0.040
-7.230E-06,0.060
-7.220E-06,0.080
-7.210E-06,0.060
-7.200E-06,0.020
-7.190E-06,0.040
-7.180E-06,0.060
-7.170E-06,0.020
-7.160E-06,0.060
-7.150E-06,0.060
-7.140E-06,0.060
-7.130E-06,0.080
-7.120E-06,0.060
-7.110E-06,0.060
-7.100E-06,0.040
-7.090E-06,0.080
-7.080E-06,0.080
-7.070E-06,0.040
-7.060E-06,0.080
-7.050E-06,0.080
-7.040E-06,0.040
-7.030E-06,0.080
-7.020E-06,0.060
-7.010E-06,0.060
-7.000E-06,0.080
-6.990E-06,0.080
-6.980E-06,0.040
-6.970E-06,0.080
-6.960E-06,0.060
-6.950E-06,0.040
-6.940E-06,0.040
-6.930E-06,0.040
-6.920E-06,0.060
-6.910E-06,0.080
-6.900E-06,0.060
-6.890E-06,0.040
-6.880E-06,0.040
-6.870E-06,0.060
-6.860E-06,0.040
-6.850E-06,0.060
-6.840E-06,0.100
-6.830E-06,0.060
-6.820E-06,0.080
-6.810E-06,0.060
-6.800E-06,0.040
-6.790E-06,0.060
-6.780E-06,0.080
-6.770E-06,0.100
-6.760E-06,0.040
-6.750E-06,0.060
-6.740E-06,0.080
-6.730E-06,0.060
-6.720E-06,0.060
-6.710E-06,0.080
-6.700E-06,0.040
-6.690E-06,0.020
-6.680E-06,0.040
-6.670E-06,0.060
-6.660E-06,0.060
-6.650E-06,0.080
-6.640E-06,0.060
-6.630E-06,0.020
-6.620E-06,0.060
-6.610E-06,0.060
-6.600E-06,0.060
-6.590E-06,0.080
-6.580E-06,0.060
-6.570E-06,0.020
-6.560E-06,0.060
-6.550E-06,0.040
-6.540E-06,0.040
-6.530E-06,0.060
-6.520E-06,0.040
-6.510E-06,0.060
-6.500E-06,0.080
-6.490E-06,0.040
-6.480E-06,0.060
-6.470E-06,0.060
-6.460E-06,0.060
-6.450E-06,0.060
-6.440E-06,0.080
-6.430E-06,0.060
-6.420E-06,0.060
-6.410E-06,0.060
-6.400E-06,0.060
-6.390E-06,0.060
-6.380E-06,0.060
-6.370E-06,0.060
-6.360E-06,0.060
-6.350E-06,0.080
-6.340E-06,0.060
-6.330E-06,0.040
-6.320E-06,0.060
-6.310E-06,0.080
-6.300E-06,0.060
-6.290E-06,0.080
-6.280E-06,0.080
-6.270E-06,0.060
-6.260E-06,0.080
-6.250E-06,0.040
-6.240E-06,0.060
-6.230E-06,0.080
-6.220E-06,0.060
-6.210E-06,0.040
-6.200E-06,0.060
-6.190E-06,0.060
-6.180E-06,0.080
-6.170E-06,0.060
-6.160E-06,0.080
-6.150E-06,0.040
-6.140E-06,0.020
-6.130E-06,0.060
-6.120E-06,0.080
-6.110E-06,0.040
-6.100E-06,0.060
-6.090E-06,0.060
-6.080E-06,0.080
-6.070E-06,0.060
-6.060E-06,0.040
-6.050E-06,0.060
-6.040E-06,0.060
-6.030E-06,0.080
-6.020E-06,0.060
-6.010E-06,0.080
-6.000E-06,0.080
-5.990E-06,0.020
-5.980E-06,0.040
-5.970E-06,0.060
-5.960E-06,0.080
-5.950E-06,0.040
-5.940E-06,0.080
-5.930E-06,0.020
-5.920E-06,0.080
-5.910E-06,0.060
-5.900E-06,0.060
-5.890E-06,0.040
-5.880E-06,0.060
-5.870E-06,0.040
-5.860E-06,0.040
-5.850E-06,0.060
-5.840E-06,0.060
-5.830E-06,0.040
-5.820E-06,0.060
-5.810E-06,0.060
-5.800E-06,0.060
-5.790E-06,0.040
-5.780E-06,0.080
-5.770E-06,0.080
-5.760E-06,0.040
-5.750E-06,0.060
-5.740E-06,0.100
-5.730E-06,0.060
-5.720E-06,0.060
-5.710E-06,0.060
-5.700E-06,0.060
-5.690E-06,0.040
-5.680E-06,0.060
-5.670E-06,0.020
-5.660E-06,0.040
-5.650E-06,0.060
-5.640E-06,0.040
-5.630E-06,0.060
-5.620E-06,0.080
-5.610E-06,0.040
-5.600E-06,0.060
-5.590E-06,0.040
-5.580E-06,0.060
-5.570E-06,0.060
-5.560E-06,0.040
-5.550E-06,0.060
-5.540E-06,0.020
-5.530E-06,0.060
-5.520E-06,0.060
-5.510E-06,0.040
-5.500E-06,0.020
-5.490E-06,0.060
-5.480E-06,0.060
-5.470E-06,0.060
-5.460E-06,0.080
-5.450E-06,0.040
-5.440E-06,0.020
-5.430E-06,0.060
-5.420E-06,0.040
-5.410E-06,0.100
-5.400E-06,0.020
-5.390E-06,0.040
-5.380E-06,0.040
-5.370E-06,0.060
-5.360E-06,0.060
-5.350E-06,0.100
-5.340E-06,0.040
-5.330E-06,0.040
-5.320E-06,0.080
-5.310E-06,0.060
-5.300E-06,0.060
-5.290E-06,0.060
-5.280E-06,0.080
-5.270E-06,0.040
-5.260E-06,0.080
-5.250E-06,0.080
-5.240E-06,0.040
-5.230E-06,0.040
-5.220E-06,0.080
-5.210E-06,0.060
-5.200E-06,0.060
-5.190E-06,0.020
-5.180E-06,0.060
-5.170E-06,0.080
-5.160E-06,0.060
-5.150E-06,0.060
-5.140E-06,0.060
-5.130E-06,0.040
-5.120E-06,0.040
-5.110E-06,0.040
-5.100E-06,0.040
-5.090E-06,0.040
-5.080E-06,0.040
-5.070E-06,0.060
-5.060E-06,0.060
-5.050E-06,0.040
-5.040E-06,0.040
-5.030E-06,0.040
-5.020E-06,0.060
-5.010E-06,0.080
-5.000E-06,0.060
-4.990E-06,0.040
-4.980E-06,0.060
-4.970E-06,0.040
-4.960E-06,0.060
-4.950E-06,0.040
-4.940E-06,0.060
-4.930E-06,0.040
-4.920E-06,0.060
-4.910E-06,0.060
-4.900E-06,0.100
-4.890E-06,0.040
-4.880E-06,0.040
-4.870E-06,0.040
-4.860E-06,0.040
-4.850E-06,0.040
-4.840E-06,0.060
-4.830E-06,0.060
-4.820E-06,0.040
-4.810E-06,0.080
-4.800E-06,0.040
-4.790E-06,0.040
-4.780E-06,0.060
-4.770E-06,0.080
-4.760E-06,0.040
-4.750E-06,0.060
-4.740E-06,0.080
-4.730E-06,0.040
-4.720E-06,0.040
-4.710E-06,0.060
-4.700E-06,0.060
-4.690E-06,0.060
-4.680E-06,0.060
-4.670E-06,0.060
-4.660E-06,0.060
-4.650E-06,0.060
-4.640E-06,0.040
-4.630E-06,0.040
-4.620E-06,0.040
-4.610E-06,0.080
-4.600E-06,0.080
-4.590E-06,0.080
-4.580E-06,0.020
-4.570E-06,0.020
-4.560E-06,0.040
-4.550E-06,0.060
-4.540E-06,0.080
-4.530E-06,0.060
-4.520E-06,0.040
-4.510E-06,0.080
-4.500E-06,0.060
-4.490E-06,0.020
-4.480E-06,0.040
-4.470E-06,0.040
-4.460E-06,0.040
-4.450E-06,0.060
-4.440E-06,0.060
-4.430E-06,0.080
-4.420E-06,0.040
-4.410E-06,0.060
-4.400E-06,0.040
-4.390E-06,0.060
-4.380E-06,0.060
-4.370E-06,0.040
-4.360E-06,0.040
-4.350E-06,0.080
-4.340E-06,0.080
-4.330E-06,0.060
-4.320E-06,0.040
-4.310E-06,0.040
-4.300E-06,0.040
-4.290E-06,0.060
-4.280E-06,0.080
-4.270E-06,0.080
-4.260E-06,0.040
-4.250E-06,0.080
-4.240E-06,0.080
-4.230E-06,0.080
-4.220E-06,0.080
-4.210E-06,0.020
-4.200E-06,0.040
-4.190E-06,0.060
-4.180E-06,0.040
-4.170E-06,0.040
-4.160E-06,0.040
-4.150E-06,0.060
-4.140E-06,0.040
-4.130E-06,0.020
-4.120E-06,0.060
-4.110E-06,0.060
-4.100E-06,0.080
-4.090E-06,0.040
-4.080E-06,0.080
-4.070E-06,0.060
-4.060E-06,0.060
-4.050E-06,0.040
-4.040E-06,0.060
-4.030E-06,0.060
-4.020E-06,0.040
-4.010E-06,0.060
-4.000E-06,0.060
-3.990E-06,0.060
-3.980E-06,0.060
-3.970E-06,0.080
-3.960E-06,0.040
-3.950E-06,0.060
-3.940E-06,0.080
-3.930E-06,0.040
-3.920E-06,0.040
-3.910E-06,0.060
-3.900E-06,0.060
-3.890E-06,0.080
-3.880E-06,0.060
-3.870E-06,0.060
-3.860E-06,0.060
-3.850E-06,0.060
-3.840E-06,0.040
-3.830E-06,0.080
-3.820E-06,0.060
-3.810E-06,0.080
-3.800E-06,0.080
-3.790E-06,0.080
-3.780E-06,0.060
-3.770E-06,0.040
-3.760E-06,0.060
-3.750E-06,0.080
-3.740E-06,0.040
-3.730E-06,0.020
-3.720E-06,0.080
-3.710E-06,0.080
-3.700E-06,-0.020
-3.690E-06,0.080
-3.680E-06,0.040
-3.670E-06,0.040
-3.660E-06,0.080
-3.650E-06,0.060
-3.640E-06,0.080
-3.630E-06,0.080
-3.620E-06,0.060
-3.610E-06,0.040
-3.600E-06,0.080
-3.590E-06,0.080
-3.580E-06,0.060
-3.570E-06,0.080
-3.560E-06,0.020
-3.550E-06,0.060
-3.540E-06,0.060
-3.530E-06,0.080
-3.520E-06,0.060
-3.510E-06,0.040
-3.500E-06,0.060
-3.490E-06,0.060
-3.480E-06,0.080
-3.470E-06,0.040
-3.460E-06,0.020
-3.450E-06,0.040
-3.440E-06,0.060
-3.430E-06,0.060
-3.420E-06,0.040
-3.410E-06,0.080
-3.400E-06,0.040
-3.390E-06,0.060
-3.380E-06,0.060
-3.370E-06,0.040
-3.360E-06,0.060
-3.350E-06,0.060
-3.340E-06,0.060
-3.330E-06,0.060
-3.320E-06,0.060
-3.310E-06,0.060
-3.300E-06,0.040
-3.290E-06,0.040
-3.280E-06,0.080
-3.270E-06,0.060
-3.260E-06,0.040
-3.250E-06,0.040
-3.240E-06,0.040
-3.230E-06,0.040
-3.220E-06,0.080
-3.210E-06,0.060
-3.200E-06,0.040
-3.190E-06,0.040
-3.180E-06,0.040
-3.170E-06,0.060
-3.160E-06,0.060
-3.150E-06,0.080
-3.140E-06,0.080
-3.130E-06,0.080
-3.120E-06,0.040
-3.110E-06,0.040
-3.100E-06,0.040
-3.090E-06,0.060
-3.080E-06,0.060
-3.070E-06,0.060
-3.060E-06,0.080
-3.050E-06,0.060
-3.040E-06,0.040
-3.030E-06,0.040
-3.020E-06,0.060
-3.010E-06,0.080
-3.000E-06,0.080
-2.990E-06,0.040
-2.980E-06,0.040
-2.970E-06,0.080
-2.960E-06,0.060
-2.950E-06,0.040
-2.940E-06,0.040
-2.930E-06,0.060
-2.920E-06,0.040
-2.910E-06,0.040
-2.900E-06,0.040
-2.890E-06,0.040
-2.880E-06,0.040
-2.870E-06,0.060
-2.860E-06,0.040
-2.850E-06,0.040
-2.840E-06,0.060
-2.830E-06,0.080
-2.820E-06,0.060
-2.810E-06,0.080
-2.800E-06,0.040
-2.790E-06,0.060
-2.780E-06,0.040
-2.770E-06,0.100
-2.760E-06,0.060
-2.750E-06,0.060
-2.740E-06,0.020
-2.730E-06,0.040
-2.720E-06,0.060
-2.710E-06,0.060
-2.700E-06,0.080
-2.690E-06,0.060
-2.680E-06,0.060
-2.670E-06,0.080
-2.660E-06,0.060
-2.650E-06,0.060
-2.640E-06,0.060
-2.630E-06,0.040
-2.620E-06,0.080
-2.610E-06,0.060
-2.600E-06,0.100
-2.590E-06,0.060
-2.580E-06,0.080
-2.570E-06,0.060
-2.560E-06,0.060
-2.550E-06,0.020
-2.540E-06,0.020
-2.530E-06,0.060
-2.520E-06,0.060
-2.510E-06,0.040
-2.500E-06,0.040
-2.490E-06,0.060
-2.480E-06,0.040
-2.470E-06,0.020
-2.460E-06,0.100
-2.450E-06,0.040
-2.440E-06,0.060
-2.430E-06,0.040
-2.420E-06,0.040
-2.410E-06,0.040
-2.400E-06,0.060
-2.390E-06,0.060
-2.380E-06,0.080
-2.370E-06,0.060
-2.360E-06,0.060
-2.350E-06,0.080
-2.340E-06,0.060
-2.330E-06,0.060
-2.320E-06,0.060
-2.310E-06,0.080
-2.300E-06,0.080
-2.290E-06,0.080
-2.280E-06,0.080
-2.270E-06,0.080
-2.260E-06,0.080
-2.250E-06,0.040
-2.240E-06,0.040
-2.230E-06,0.060
-2.220E-06,0.080
-2.210E-06,0.060
-2.200E-06,0.080
-2.190E-06,0.060
-2.180E-06,0.080
-2.170E-06,0.100
-2.160E-06,0.040
-2.150E-06,0.040
-2.140E-06,0.040
-2.130E-06,0.040
-2.120E-06,0.060
-2.110E-06,0.080
-2.100E-06,0.080
-2.090E-06,0.060
-2.080E-06,0.080
-2.070E-06,0.060
-2.060E-06,0.040
-2.050E-06,0.060
-2.040E-06,0.080
-2.030E-06,0.120
-2.020E-06,0.080
-2.010E-06,0.040
-2.000E-06,0.040
-1.990E-06,0.060
-1.980E-06,0.040
-1.970E-06,0.040
-1.960E-06,0.060
-1.950E-06,0.080
-1.940E-06,0.020
-1.930E-06,0.040
-1.920E-06,0.060
-1.910E-06,0.080
-1.900E-06,0.040
-1.890E-06,0.020
-1.880E-06,0.060
-1.870E-06,0.080
-1.860E-06,0.060
-1.850E-06,0.060
-1.840E-06,0.080
-1.830E-06,0.060
-1.820E-06,0.080
-1.810E-06,0.060
-1.800E-06,0.080
-1.790E-06,0.080
-1.780E-06,0.080
-1.770E-06,0.040
-1.760E-06,0.060
-1.750E-06,0.060
-1.740E-06,0.060
-1.730E-06,0.040
-1.720E-06,0.080
-1.710E-06,0.060
-1.700E-06,0.020
-1.690E-06,0.040
-1.680E-06,0.060
-1.670E-06,0.060
-1.660E-06,0.100
-1.650E-06,0.080
-1.640E-06,0.060
-1.630E-06,0.020
-1.620E-06,0.060
-1.610E-06,0.060
-1.600E-06,0.060
-1.590E-06,0.080
-1.580E-06,0.100
-1.570E-06,0.120
-1.560E-06,0.080
-1.550E-06,0.060
-1.540E-06,0.080
-1.530E-06,0.080
-1.520E-06,0.140
-1.510E-06,0.180
-1.500E-06,0.160
-1.490E-06,0.160
-1.480E-06,0.080
-1.470E-06,0.120
-1.460E-06,0.100
-1.450E-06,0.120
-1.440E-06,0.140
-1.430E-06,0.160
-1.420E-06,0.120
-1.410E-06,0.140
-1.400E-06,0.120
-1.390E-06,0.140
-1.380E-06,0.100
-1.370E-06,0.140
-1.360E-06,0.100
-1.350E-06,0.100
-1.340E-06,0.100
-1.330E-06,0.080
-1.320E-06,0.100
-1.310E-06,0.080
-1.300E-06,0.120
-1.290E-06,0.120
-1.280E-06,0.120
-1.270E-06,0.120
-1.260E-06,0.140
-1.250E-06,0.100
-1.240E-06,0.140
-1.230E-06,0.120
-1.220E-06,0.120
-1.210E-06,0.160
-1.200E-06,0.180
-1.190E-06,0.240
-1.180E-06,0.240
-1.170E-06,0.200
-1.160E-06,0.180
-1.150E-06,0.200
-1.140E-06,0.220
-1.130E-06,0.260
-1.120E-06,0.220
-1.110E-06,0.100
-1.100E-06,0.060
-1.090E-06,0.080
-1.080E-06,0.160
-1.070E-06,0.280
-1.060E-06,0.300
-1.050E-06,0.300
-1.040E-06,0.180
-1.030E-06,0.100
-1.020E-06,0.040
-1.010E-06,0.120
-1.000E-06,0.180
-9.900E-07,0.260
-9.800E-07,0.220
-9.700E-07,0.140
-9.600E-07,0.080
-9.500E-07,0.100
-9.400E-07,0.100
-9.300E-07,0.180
-9.200E-07,0.180
-9.100E-07,0.180
-9.000E-07,0.160
-8.900E-07,0.120
-8.800E-07,0.060
-8.700E-07,0.060
-8.600E-07,0.080
-8.500E-07,0.160
-8.400E-07,0.220
-8.300E-07,0.160
-8.200E-07,0.100
-8.100E-07,0.100
-8.000E-07,0.100
-7.900E-07,0.180
-7.800E-07,0.260
-7.700E-07,0.280
-7.600E-07,0.380
-7.500E-07,0.380
-7.400E-07,0.420
-7.300E-07,0.420
-7.200E-07,0.320
-7.100E-07,0.340
-7.000E-07,0.500
-6.900E-07,0.520
-6.800E-07,0.660
-6.700E-07,0.820
-6.600E-07,0.600
-6.500E-07,0.540
-6.400E-07,0.340
-6.300E-07,0.480
-6.200E-07,0.520
-6.100E-07,0.600
-6.000E-07,0.760
-5.900E-07,0.740
-5.800E-07,0.700
-5.700E-07,0.680
-5.600E-07,0.560
-5.500E-07,0.800
-5.400E-07,0.940
-5.300E-07,1.100
-5.200E-07,1.020
-5.100E-07,0.920
-5.000E-07,0.580
-4.900E-07,0.480
-4.800E-07,0.740
-4.700E-07,0.900
-4.600E-07,1.000
-4.500E-07,1.040
-4.400E-07,0.740
-4.300E-07,0.480
-4.200E-07,0.380
-4.100E-07,0.520
-4.000E-07,0.720
-3.900E-07,0.880
-3.800E-07,0.860
-3.700E-07,0.700
-3.600E-07,0.500
-3.500E-07,-0.320
-3.400E-07,-1.000
-3.300E-07,-0.860
-3.200E-07,-0.980
-3.100E-07,-0.080
-3.000E-07,0.760
-2.900E-07,1.320
-2.800E-07,1.440
-2.700E-07,0.560
-2.600E-07,-0.440
-2.500E-07,-1.060
-2.400E-07,-1.240
-2.300E-07,-0.880
-2.200E-07,-0.260
-2.100E-07,0.160
-2.000E-07,0.120
-1.900E-07,0.100
-1.800E-07,0.080
-1.700E-07,0.260
-1.600E-07,0.900
-1.500E-07,1.320
-1.400E-07,1.620
-1.300E-07,1.700
-1.200E-07,1.360
-1.100E-07,0.980
-1.000E-07,0.680
-9.000E-08,0.440
-8.000E-08,0.380
-7.000E-08,0.280
-6.000E-08,-0.060
-5.000E-08,-0.500
-4.000E-08,-1.180
-3.000E-08,-2.000
-2.000E-08,-2.600
-1.000E-08,-2.680
0.000E+00,-2.540
1.000E-08,-1.660
2.000E-08,-0.440
3.000E-08,0.740
4.000E-08,1.680
5.000E-08,1.620
6.000E-08,0.780
7.000E-08,-0.460
8.000E-08,-1.740
9.000E-08,-2.460
1.000E-07,-2.380
1.100E-07,-1.540
1.200E-07,-0.540
1.300E-07,-0.060
1.400E-07,-0.080
1.500E-07,-0.260
1.600E-07,-0.480
1.700E-07,0.020
1.800E-07,0.640
1.900E-07,1.540
2.000E-07,1.940
2.100E-07,2.000
2.200E-07,2.040
2.300E-07,2.000
2.400E-07,2.020
2.500E-07,2.260
2.600E-07,2.340
2.700E-07,2.180
2.800E-07,2.000
2.900E-07,1.880
3.000E-07,1.820
3.100E-07,1.820
3.200E-07,1.760
3.300E-07,1.760
3.400E-07,1.600
3.500E-07,1.020
3.600E-07,0.740
3.700E-07,0.440
3.800E-07,-0.120
3.900E-07,-0.240
4.000E-07,-0.360
4.100E-07,-0.240
4.200E-07,0.260
4.300E-07,0.860
4.400E-07,1.500
4.500E-07,2.260
4.600E-07,2.380
4.700E-07,1.880
4.800E-07,1.480
4.900E-07,0.480
5.000E-07,-0.580
5.100E-07,-2.040
5.200E-07,-2.660
5.300E-07,-2.620
5.400E-07,-2.480
5.500E-07,-1.820
5.600E-07,-0.860
5.700E-07,0.340
5.800E-07,1.600
5.900E-07,2.700
6.000E-07,2.760
6.100E-07,2.760
6.200E-07,2.740
6.300E-07,2.760
6.400E-07,2.760
6.500E-07,2.740
6.600E-07,2.760
6.700E-07,2.780
6.800E-07,2.760
6.900E-07,2.780
7.000E-07,2.460
7.100E-07,1.660
7.200E-07,1.020
7.300E-07,0.500
7.400E-07,0.160
7.500E-07,0.000
7.600E-07,-0.040
7.700E-07,0.020
7.800E-07,0.240
7.900E-07,0.500
8.000E-07,0.720
8.100E-07,0.300
8.200E-07,-1.080
8.300E-07,-2.480
8.400E-07,-2.660
8.500E-07,-2.640
8.600E-07,-2.660
8.700E-07,-2.660
8.800E-07,-1.060
8.900E-07,1.660
9.000E-07,2.780
9.100E-07,2.760
9.200E-07,2.760
9.300E-07,2.760
9.400E-07,2.780
9.500E-07,2.780
9.600E-07,2.760
9.700E-07,2.760
9.800E-07,2.360
9.900E-07,0.800
1.000E-06,-0.100
1.010E-06,-0.840
1.020E-06,-1.020
1.030E-06,-0.940
1.040E-06,-0.780
1.050E-06,-0.440
1.060E-06,-0.040
1.070E-06,0.760
1.080E-06,1.000
1.090E-06,1.500
1.100E-06,1.700
1.110E-06,2.080
1.120E-06,2.020
1.130E-06,2.120
1.140E-06,1.860
1.150E-06,1.740
1.160E-06,1.240
1.170E-06,0.940
1.180E-06,0.360
1.190E-06,-0.120
1.200E-06,-0.760
1.210E-06,-1.020
1.220E-06,-1.340
1.230E-06,-1.560
1.240E-06,-1.800
1.250E-06,-1.700
1.260E-06,-1.620
1.270E-06,-1.440
1.280E-06,-1.340
1.290E-06,-1.160
1.300E-06,-0.840
1.310E-06,-0.200
1.320E-06,0.660
1.330E-06,1.760
1.340E-06,2.760
1.350E-06,2.760
1.360E-06,2.760
1.370E-06,2.760
1.380E-06,2.760
1.390E-06,2.760
1.400E-06,2.740
1.410E-06,2.760
1.420E-06,1.980
1.430E-06,1.160
1.440E-06,0.440
1.450E-06,-0.100
1.460E-06,-0.480
1.470E-06,-0.640
1.480E-06,-0.680
1.490E-06,-0.580
1.500E-06,-0.380
1.510E-06,-0.180
1.520E-06,0.040
1.530E-06,0.260
1.540E-06,0.400
1.550E-06,0.480
1.560E-06,0.580
1.570E-06,0.540
1.580E-06,0.480
1.590E-06,0.400
1.600E-06,0.200
1.610E-06,-0.020
1.620E-06,-0.220
1.630E-06,-0.380
1.640E-06,-0.600
1.650E-06,-0.680
1.660E-06,-0.660
1.670E-06,-0.620
1.680E-06,-0.520
1.690E-06,-0.360
1.700E-06,-0.220
1.710E-06,-0.140
1.720E-06,-0.060
1.730E-06,0.000
1.740E-06,0.040
1.750E-06,0.000
1.760E-06,-0.060
1.770E-06,-0.140
1.780E-06,-0.280
1.790E-06,-0.400
1.800E-06,-0.500
1.810E-06,-0.620
1.820E-06,-0.720
1.830E-06,-0.740
1.840E-06,-0.700
1.850E-06,-0.600
1.860E-06,-0.500
1.870E-06,-0.360
1.880E-06,-0.240
1.890E-06,-0.100
1.900E-06,0.020
1.910E-06,0.120
1.920E-06,0.200
1.930E-06,0.220
1.940E-06,0.200
1.950E-06,0.180
1.960E-06,0.040
1.970E-06,-0.080
1.980E-06,-0.180
1.990E-06,-0.360
2.000E-06,-0.420
2.010E-06,-0.520
2.020E-06,-0.580
2.030E-06,-0.540
2.040E-06,-0.520
2.050E-06,-0.420
2.060E-06,-0.320
2.070E-06,-0.260
2.080E-06,-0.160
2.090E-06,0.000
2.100E-06,0.060
2.110E-06,0.140
2.120E-06,0.220
2.130E-06,0.260
2.140E-06,0.280
2.150E-06,0.300
2.160E-06,0.260
2.170E-06,0.220
2.180E-06,0.180
2.190E-06,0.260
2.200E-06,0.420
2.210E-06,0.440
2.220E-06,0.320
2.230E-06,0.180
2.240E-06,0.060
2.250E-06,0.000
2.260E-06,-0.080
2.270E-06,-0.320
2.280E-06,-0.460
2.290E-06,-0.560
2.300E-06,-0.520
2.310E-06,-0.420
2.320E-06,-0.320
2.330E-06,-0.260
2.340E-06,-0.080
2.350E-06,0.020
2.360E-06,0.120
2.370E-06,0.220
2.380E-06,0.280
2.390E-06,0.300
2.400E-06,0.300
2.410E-06,0.260
2.420E-06,0.200
2.430E-06,0.080
2.440E-06,0.000
2.450E-06,-0.160
2.460E-06,-0.260
2.470E-06,-0.340
2.480E-06,-0.380
2.490E-06,-0.460
2.500E-06,-0.520
2.510E-06,-0.560
2.520E-06,-0.560
2.530E-06,-0.520
2.540E-06,-0.480
2.550E-06,-0.420
2.560E-06,-0.340
2.570E-06,-0.280
2.580E-06,-0.200
2.590E-06,-0.100
2.600E-06,-0.020
2.610E-06,0.020
2.620E-06,0.100
2.630E-06,0.140
2.640E-06,0.180
2.650E-06,0.200
2.660E-06,0.180
2.670E-06,0.180
2.680E-06,0.120
2.690E-06,0.040
2.700E-06,0.040
2.710E-06,0.000
2.720E-06,0.020
2.730E-06,0.040
2.740E-06,0.080
2.750E-06,0.120
2.760E-06,0.180
2.770E-06,0.160
2.780E-06,0.220
2.790E-06,0.240
2.800E-06,0.260
2.810E-06,0.200
2.820E-06,0.140
2.830E-06,0.080
2.840E-06,-0.040
2.850E-06,-0.020
2.860E-06,-0.020
2.870E-06,0.080
2.880E-06,0.220
2.890E-06,0.360
2.900E-06,0.500
2.910E-06,0.640
2.920E-06,0.760
2.930E-06,0.800
2.940E-06,0.860
2.950E-06,0.840
2.960E-06,0.840
2.970E-06,0.800
2.980E-06,0.600
2.990E-06,0.320
3.000E-06,0.100
3.010E-06,-0.120
3.020E-06,-0.280
3.030E-06,-0.400
3.040E-06,-0.420
3.050E-06,-0.460
3.060E-06,-0.360
3.070E-06,-0.260
3.080E-06,-0.180
3.090E-06,-0.040
3.100E-06,0.060
3.110E-06,0.100
3.120E-06,0.180
3.130E-06,0.180
3.140E-06,0.160
3.150E-06,0.140
3.160E-06,0.120
3.170E-06,0.100
3.180E-06,0.100
3.190E-06,0.100
3.200E-06,0.100
3.210E-06,0.100
3.220E-06,0.120
3.230E-06,0.140
3.240E-06,0.120
3.250E-06,0.140
3.260E-06,0.140
3.270E-06,0.080
3.280E-06,0.040
3.290E-06,0.040
3.300E-06,0.040
3.310E-06,0.080
3.320E-06,0.100
3.330E-06,0.160
3.340E-06,0.220
3.350E-06,0.280
3.360E-06,0.380
3.370E-06,0.440
3.380E-06,0.520
3.390E-06,0.600
3.400E-06,0.660
3.410E-06,0.660
3.420E-06,0.660
3.430E-06,0.600
3.440E-06,0.560
3.450E-06,0.540
3.460E-06,0.520
3.470E-06,0.500
3.480E-06,0.500
3.490E-06,0.480
3.500E-06,0.420
3.510E-06,0.360
3.520E-06,0.320
3.530E-06,0.280
3.540E-06,0.200
3.550E-06,0.160
3.560E-06,0.140
3.570E-06,0.180
3.580E-06,0.200
3.590E-06,0.280
3.600E-06,0.360
3.610E-06,0.440
3.620E-06,0.520
3.630E-06,0.500
3.640E-06,0.520
3.650E-06,0.500
3.660E-06,0.460
3.670E-06,0.380
3.680E-06,0.300
3.690E-06,0.200
