mediciones/6-26/42.5/WaveData59292.csv

#timebase=2000000(ps)
,#voltbase=200000(mv/100)
#size=4000
-8.150E-06,-0.008
-8.140E-06,0.016
-8.130E-06,0.008
-8.120E-06,-0.072
-8.110E-06,-0.056
-8.100E-06,0.008
-8.090E-06,0.048
-8.080E-06,0.056
-8.070E-06,0.040
-8.060E-06,0.000
-8.050E-06,-0.032
-8.040E-06,-0.024
-8.030E-06,-0.016
-8.020E-06,0.000
-8.010E-06,0.016
-8.000E-06,0.040
-7.990E-06,0.032
-7.980E-06,0.000
-7.970E-06,-0.024
-7.960E-06,-0.016
-7.950E-06,0.000
-7.940E-06,0.016
-7.930E-06,0.024
-7.920E-06,-0.008
-7.910E-06,0.000
-7.900E-06,-0.008
-7.890E-06,-0.024
-7.880E-06,-0.008
-7.870E-06,0.024
-7.860E-06,0.048
-7.850E-06,0.000
-7.840E-06,-0.008
-7.830E-06,0.008
-7.820E-06,0.016
-7.810E-06,0.000
-7.800E-06,-0.008
-7.790E-06,0.000
-7.780E-06,0.016
-7.770E-06,0.024
-7.760E-06,0.008
-7.750E-06,0.000
-7.740E-06,0.000
-7.730E-06,0.000
-7.720E-06,0.000
-7.710E-06,0.008
-7.700E-06,0.008
-7.690E-06,0.008
-7.680E-06,0.016
-7.670E-06,0.016
-7.660E-06,0.000
-7.650E-06,0.000
-7.640E-06,-0.008
-7.630E-06,0.008
-7.620E-06,-0.016
-7.610E-06,0.000
-7.600E-06,-0.016
-7.590E-06,0.016
-7.580E-06,0.016
-7.570E-06,0.000
-7.560E-06,0.008
-7.550E-06,-0.024
-7.540E-06,0.008
-7.530E-06,0.000
-7.520E-06,0.000
-7.510E-06,0.008
-7.500E-06,0.000
-7.490E-06,0.016
-7.480E-06,0.016
-7.470E-06,0.008
-7.460E-06,0.000
-7.450E-06,0.000
-7.440E-06,0.008
-7.430E-06,0.008
-7.420E-06,0.016
-7.410E-06,0.016
-7.400E-06,0.024
-7.390E-06,0.016
-7.380E-06,-0.008
-7.370E-06,-0.008
-7.360E-06,0.000
-7.350E-06,0.000
-7.340E-06,0.000
-7.330E-06,0.008
-7.320E-06,0.008
-7.310E-06,0.016
-7.300E-06,0.016
-7.290E-06,0.000
-7.280E-06,0.000
-7.270E-06,-0.024
-7.260E-06,0.000
-7.250E-06,0.008
-7.240E-06,0.016
-7.230E-06,0.040
-7.220E-06,0.024
-7.210E-06,0.000
-7.200E-06,0.000
-7.190E-06,-0.008
-7.180E-06,-0.008
-7.170E-06,0.016
-7.160E-06,0.016
-7.150E-06,0.016
-7.140E-06,0.016
-7.130E-06,0.008
-7.120E-06,0.008
-7.110E-06,0.000
-7.100E-06,-0.016
-7.090E-06,-0.008
-7.080E-06,-0.016
-7.070E-06,-0.008
-7.060E-06,0.000
-7.050E-06,0.016
-7.040E-06,0.024
-7.030E-06,0.032
-7.020E-06,-0.008
-7.010E-06,-0.008
-7.000E-06,-0.008
-6.990E-06,0.000
-6.980E-06,0.008
-6.970E-06,0.000
-6.960E-06,0.000
-6.950E-06,0.016
-6.940E-06,0.000
-6.930E-06,0.000
-6.920E-06,0.000
-6.910E-06,0.000
-6.900E-06,0.008
-6.890E-06,-0.016
-6.880E-06,0.016
-6.870E-06,0.024
-6.860E-06,0.000
-6.850E-06,0.024
-6.840E-06,-0.008
-6.830E-06,-0.008
-6.820E-06,-0.024
-6.810E-06,-0.008
-6.800E-06,0.024
-6.790E-06,0.048
-6.780E-06,0.024
-6.770E-06,0.016
-6.760E-06,-0.008
-6.750E-06,-0.072
-6.740E-06,-0.040
-6.730E-06,-0.016
-6.720E-06,-0.008
-6.710E-06,-0.016
-6.700E-06,0.088
-6.690E-06,0.088
-6.680E-06,-0.016
-6.670E-06,-0.056
-6.660E-06,-0.040
-6.650E-06,0.008
-6.640E-06,0.048
-6.630E-06,0.056
-6.620E-06,0.024
-6.610E-06,0.000
-6.600E-06,0.000
-6.590E-06,-0.008
-6.580E-06,-0.008
-6.570E-06,-0.008
-6.560E-06,0.008
-6.550E-06,0.032
-6.540E-06,0.032
-6.530E-06,0.016
-6.520E-06,0.000
-6.510E-06,-0.008
-6.500E-06,-0.016
-6.490E-06,0.008
-6.480E-06,0.000
-6.470E-06,0.008
-6.460E-06,0.016
-6.450E-06,0.024
-6.440E-06,0.000
-6.430E-06,0.008
-6.420E-06,0.000
-6.410E-06,-0.008
-6.400E-06,-0.008
-6.390E-06,-0.016
-6.380E-06,-0.008
-6.370E-06,-0.008
-6.360E-06,0.024
-6.350E-06,0.032
-6.340E-06,0.024
-6.330E-06,0.008
-6.320E-06,-0.008
-6.310E-06,-0.008
-6.300E-06,0.008
-6.290E-06,0.016
-6.280E-06,0.016
-6.270E-06,0.016
-6.260E-06,0.016
-6.250E-06,0.008
-6.240E-06,0.008
-6.230E-06,-0.016
-6.220E-06,0.008
-6.210E-06,0.000
-6.200E-06,0.016
-6.190E-06,0.008
-6.180E-06,0.008
-6.170E-06,-0.008
-6.160E-06,-0.008
-6.150E-06,0.008
-6.140E-06,-0.008
-6.130E-06,0.008
-6.120E-06,0.000
-6.110E-06,0.008
-6.100E-06,0.016
-6.090E-06,0.016
-6.080E-06,0.008
-6.070E-06,-0.008
-6.060E-06,0.016
-6.050E-06,0.016
-6.040E-06,0.008
-6.030E-06,0.000
-6.020E-06,0.008
-6.010E-06,0.008
-6.000E-06,0.016
-5.990E-06,0.008
-5.980E-06,0.000
-5.970E-06,0.008
-5.960E-06,0.016
-5.950E-06,0.024
-5.940E-06,0.024
-5.930E-06,0.016
-5.920E-06,0.000
-5.910E-06,0.016
-5.900E-06,0.016
-5.890E-06,0.016
-5.880E-06,0.016
-5.870E-06,0.016
-5.860E-06,0.024
-5.850E-06,0.032
-5.840E-06,0.032
-5.830E-06,-0.016
-5.820E-06,-0.064
-5.810E-06,-0.072
-5.800E-06,-0.080
-5.790E-06,-0.072
-5.780E-06,0.048
-5.770E-06,0.128
-5.760E-06,0.112
-5.750E-06,0.048
-5.740E-06,-0.048
-5.730E-06,-0.056
-5.720E-06,-0.056
-5.710E-06,-0.008
-5.700E-06,0.024
-5.690E-06,0.048
-5.680E-06,0.080
-5.670E-06,0.048
-5.660E-06,-0.016
-5.650E-06,-0.048
-5.640E-06,-0.056
-5.630E-06,-0.016
-5.620E-06,0.048
-5.610E-06,0.056
-5.600E-06,0.024
-5.590E-06,0.008
-5.580E-06,-0.024
-5.570E-06,-0.032
-5.560E-06,-0.040
-5.550E-06,0.008
-5.540E-06,0.024
-5.530E-06,-0.016
-5.520E-06,0.064
-5.510E-06,0.048
-5.500E-06,0.016
-5.490E-06,-0.024
-5.480E-06,-0.056
-5.470E-06,-0.016
-5.460E-06,0.008
-5.450E-06,0.048
-5.440E-06,0.032
-5.430E-06,0.016
-5.420E-06,0.008
-5.410E-06,0.000
-5.400E-06,-0.008
-5.390E-06,-0.008
-5.380E-06,-0.008
-5.370E-06,0.008
-5.360E-06,0.016
-5.350E-06,0.024
-5.340E-06,0.008
-5.330E-06,0.016
-5.320E-06,-0.016
-5.310E-06,-0.048
-5.300E-06,-0.008
-5.290E-06,-0.008
-5.280E-06,0.016
-5.270E-06,0.056
-5.260E-06,0.048
-5.250E-06,0.016
-5.240E-06,-0.016
-5.230E-06,-0.016
-5.220E-06,-0.016
-5.210E-06,0.008
-5.200E-06,0.024
-5.190E-06,0.024
-5.180E-06,0.024
-5.170E-06,0.016
-5.160E-06,0.000
-5.150E-06,-0.008
-5.140E-06,-0.008
-5.130E-06,0.008
-5.120E-06,0.024
-5.110E-06,0.032
-5.100E-06,0.032
-5.090E-06,0.032
-5.080E-06,0.000
-5.070E-06,0.000
-5.060E-06,0.000
-5.050E-06,-0.008
-5.040E-06,-0.008
-5.030E-06,0.000
-5.020E-06,0.008
-5.010E-06,0.024
-5.000E-06,0.008
-4.990E-06,0.000
-4.980E-06,0.000
-4.970E-06,0.008
-4.960E-06,0.016
-4.950E-06,0.008
-4.940E-06,0.024
-4.930E-06,0.056
-4.920E-06,0.016
-4.910E-06,0.008
-4.900E-06,-0.008
-4.890E-06,0.008
-4.880E-06,0.008
-4.870E-06,-0.016
-4.860E-06,-0.016
-4.850E-06,-0.008
-4.840E-06,0.040
-4.830E-06,0.008
-4.820E-06,-0.008
-4.810E-06,-0.024
-4.800E-06,-0.048
-4.790E-06,-0.008
-4.780E-06,0.016
-4.770E-06,0.000
-4.760E-06,0.032
-4.750E-06,0.048
-4.740E-06,-0.016
-4.730E-06,-0.016
-4.720E-06,-0.040
-4.710E-06,-0.016
-4.700E-06,-0.008
-4.690E-06,0.024
-4.680E-06,0.024
-4.670E-06,0.064
-4.660E-06,0.024
-4.650E-06,0.000
-4.640E-06,-0.016
-4.630E-06,-0.064
-4.620E-06,-0.024
-4.610E-06,0.016
-4.600E-06,0.048
-4.590E-06,0.040
-4.580E-06,0.024
-4.570E-06,0.008
-4.560E-06,0.000
-4.550E-06,-0.008
-4.540E-06,-0.016
-4.530E-06,-0.008
-4.520E-06,0.024
-4.510E-06,0.032
-4.500E-06,0.032
-4.490E-06,0.008
-4.480E-06,-0.016
-4.470E-06,-0.024
-4.460E-06,-0.040
-4.450E-06,-0.072
-4.440E-06,0.040
-4.430E-06,0.048
-4.420E-06,0.056
-4.410E-06,0.024
-4.400E-06,-0.032
-4.390E-06,-0.024
-4.380E-06,-0.016
-4.370E-06,-0.016
-4.360E-06,0.016
-4.350E-06,0.016
-4.340E-06,0.024
-4.330E-06,0.024
-4.320E-06,0.008
-4.310E-06,-0.016
-4.300E-06,-0.016
-4.290E-06,0.000
-4.280E-06,0.016
-4.270E-06,0.024
-4.260E-06,0.024
-4.250E-06,0.016
-4.240E-06,0.008
-4.230E-06,0.000
-4.220E-06,-0.008
-4.210E-06,-0.008
-4.200E-06,0.008
-4.190E-06,0.016
-4.180E-06,0.024
-4.170E-06,0.016
-4.160E-06,0.000
-4.150E-06,0.000
-4.140E-06,-0.008
-4.130E-06,-0.016
-4.120E-06,0.016
-4.110E-06,0.024
-4.100E-06,0.024
-4.090E-06,0.000
-4.080E-06,-0.032
-4.070E-06,-0.008
-4.060E-06,-0.016
-4.050E-06,0.032
-4.040E-06,0.040
-4.030E-06,0.016
-4.020E-06,0.000
-4.010E-06,-0.016
-4.000E-06,0.000
-3.990E-06,-0.008
-3.980E-06,0.000
-3.970E-06,0.016
-3.960E-06,0.016
-3.950E-06,0.016
-3.940E-06,0.000
-3.930E-06,-0.008
-3.920E-06,0.000
-3.910E-06,-0.008
-3.900E-06,0.008
-3.890E-06,0.016
-3.880E-06,0.016
-3.870E-06,0.016
-3.860E-06,0.008
-3.850E-06,0.008
-3.840E-06,0.000
-3.830E-06,0.000
-3.820E-06,-0.008
-3.810E-06,0.008
-3.800E-06,0.008
-3.790E-06,0.008
-3.780E-06,0.008
-3.770E-06,0.000
-3.760E-06,0.008
-3.750E-06,-0.008
-3.740E-06,0.000
-3.730E-06,-0.016
-3.720E-06,0.016
-3.710E-06,0.024
-3.700E-06,0.040
-3.690E-06,-0.008
-3.680E-06,-0.008
-3.670E-06,-0.008
-3.660E-06,-0.016
-3.650E-06,0.016
-3.640E-06,0.016
-3.630E-06,0.016
-3.620E-06,0.024
-3.610E-06,0.024
-3.600E-06,-0.016
-3.590E-06,-0.008
-3.580E-06,0.000
-3.570E-06,0.016
-3.560E-06,0.056
-3.550E-06,0.048
-3.540E-06,0.024
-3.530E-06,0.008
-3.520E-06,-0.016
-3.510E-06,-0.024
-3.500E-06,-0.032
-3.490E-06,0.008
-3.480E-06,0.016
-3.470E-06,0.032
-3.460E-06,0.040
-3.450E-06,0.024
-3.440E-06,-0.024
-3.430E-06,-0.016
-3.420E-06,-0.008
-3.410E-06,0.008
-3.400E-06,0.024
-3.390E-06,0.048
-3.380E-06,0.048
-3.370E-06,0.024
-3.360E-06,0.008
-3.350E-06,-0.008
-3.340E-06,-0.016
-3.330E-06,0.008
-3.320E-06,0.040
-3.310E-06,0.032
-3.300E-06,0.032
-3.290E-06,0.008
-3.280E-06,0.008
-3.270E-06,-0.024
-3.260E-06,-0.016
-3.250E-06,-0.032
-3.240E-06,0.008
-3.230E-06,0.040
-3.220E-06,0.056
-3.210E-06,0.040
-3.200E-06,0.008
-3.190E-06,-0.016
-3.180E-06,-0.040
-3.170E-06,-0.032
-3.160E-06,-0.008
-3.150E-06,0.032
-3.140E-06,0.072
-3.130E-06,0.056
-3.120E-06,0.016
-3.110E-06,-0.040
-3.100E-06,-0.056
-3.090E-06,-0.048
-3.080E-06,0.000
-3.070E-06,0.024
-3.060E-06,0.048
-3.050E-06,0.048
-3.040E-06,0.040
-3.030E-06,0.008
-3.020E-06,-0.016
-3.010E-06,-0.016
-3.000E-06,0.000
-2.990E-06,0.048
-2.980E-06,0.048
-2.970E-06,0.048
-2.960E-06,0.040
-2.950E-06,0.008
-2.940E-06,0.000
-2.930E-06,-0.008
-2.920E-06,0.008
-2.910E-06,0.048
-2.900E-06,0.056
-2.890E-06,0.096
-2.880E-06,-0.008
-2.870E-06,-0.248
-2.860E-06,-0.216
-2.850E-06,-0.136
-2.840E-06,-0.080
-2.830E-06,0.008
-2.820E-06,0.216
-2.810E-06,0.272
-2.800E-06,0.016
-2.790E-06,-0.160
-2.780E-06,-0.248
-2.770E-06,-0.144
-2.760E-06,0.064
-2.750E-06,0.208
-2.740E-06,0.240
-2.730E-06,0.064
-2.720E-06,-0.072
-2.710E-06,-0.088
-2.700E-06,-0.216
-2.690E-06,-0.112
-2.680E-06,-0.056
-2.670E-06,0.112
-2.660E-06,0.192
-2.650E-06,0.128
-2.640E-06,-0.024
-2.630E-06,-0.128
-2.620E-06,-0.080
-2.610E-06,-0.072
-2.600E-06,-0.016
-2.590E-06,0.048
-2.580E-06,0.088
-2.570E-06,0.120
-2.560E-06,0.064
-2.550E-06,0.000
-2.540E-06,-0.144
-2.530E-06,-0.128
-2.520E-06,-0.056
-2.510E-06,0.024
-2.500E-06,0.072
-2.490E-06,0.120
-2.480E-06,0.112
-2.470E-06,-0.008
-2.460E-06,-0.064
-2.450E-06,-0.088
-2.440E-06,-0.040
-2.430E-06,0.024
-2.420E-06,0.064
-2.410E-06,0.080
-2.400E-06,0.064
-2.390E-06,0.032
-2.380E-06,-0.032
-2.370E-06,-0.080
-2.360E-06,-0.056
-2.350E-06,-0.024
-2.340E-06,0.024
-2.330E-06,0.056
-2.320E-06,0.056
-2.310E-06,0.032
-2.300E-06,-0.008
-2.290E-06,-0.040
-2.280E-06,-0.056
-2.270E-06,-0.008
-2.260E-06,0.016
-2.250E-06,0.048
-2.240E-06,0.040
-2.230E-06,0.032
-2.220E-06,0.016
-2.210E-06,0.000
-2.200E-06,-0.008
-2.190E-06,-0.008
-2.180E-06,0.000
-2.170E-06,0.024
-2.160E-06,0.032
-2.150E-06,0.032
-2.140E-06,0.024
-2.130E-06,0.016
-2.120E-06,0.000
-2.110E-06,0.000
-2.100E-06,-0.008
-2.090E-06,-0.016
-2.080E-06,-0.016
-2.070E-06,0.000
-2.060E-06,0.016
-2.050E-06,0.024
-2.040E-06,0.024
-2.030E-06,0.000
-2.020E-06,0.000
-2.010E-06,0.008
-2.000E-06,0.016
-1.990E-06,0.016
-1.980E-06,0.008
-1.970E-06,0.000
-1.960E-06,0.008
-1.950E-06,0.016
-1.940E-06,0.008
-1.930E-06,0.016
-1.920E-06,0.008
-1.910E-06,-0.008
-1.900E-06,-0.008
-1.890E-06,0.008
-1.880E-06,0.008
-1.870E-06,0.000
-1.860E-06,0.008
-1.850E-06,0.024
-1.840E-06,0.016
-1.830E-06,0.024
-1.820E-06,0.024
-1.810E-06,0.016
-1.800E-06,-0.008
-1.790E-06,0.008
-1.780E-06,0.008
-1.770E-06,0.008
-1.760E-06,0.016
-1.750E-06,0.000
-1.740E-06,0.000
-1.730E-06,0.016
-1.720E-06,0.024
-1.710E-06,0.032
-1.700E-06,0.016
-1.690E-06,-0.024
-1.680E-06,-0.024
-1.670E-06,-0.024
-1.660E-06,0.000
-1.650E-06,0.016
-1.640E-06,0.048
-1.630E-06,0.048
-1.620E-06,0.016
-1.610E-06,0.016
-1.600E-06,0.000
-1.590E-06,-0.016
-1.580E-06,-0.008
-1.570E-06,0.000
-1.560E-06,0.024
-1.550E-06,0.040
-1.540E-06,0.016
-1.530E-06,0.016
-1.520E-06,0.008
-1.510E-06,-0.016
-1.500E-06,0.000
-1.490E-06,0.000
-1.480E-06,0.016
-1.470E-06,0.032
-1.460E-06,0.040
-1.450E-06,0.048
-1.440E-06,0.016
-1.430E-06,0.000
-1.420E-06,-0.016
-1.410E-06,-0.008
-1.400E-06,0.000
-1.390E-06,0.048
-1.380E-06,0.072
-1.370E-06,0.064
-1.360E-06,0.024
-1.350E-06,0.000
-1.340E-06,-0.016
-1.330E-06,0.000
-1.320E-06,0.032
-1.310E-06,0.080
-1.300E-06,0.024
-1.290E-06,-0.056
-1.280E-06,-0.104
-1.270E-06,-0.152
-1.260E-06,-0.192
-1.250E-06,-0.144
-1.240E-06,-0.016
-1.230E-06,0.176
-1.220E-06,0.128
-1.210E-06,0.056
-1.200E-06,-0.032
-1.190E-06,-0.104
-1.180E-06,-0.048
-1.170E-06,0.048
-1.160E-06,0.024
-1.150E-06,0.040
-1.140E-06,0.032
-1.130E-06,0.056
-1.120E-06,0.040
-1.110E-06,0.000
-1.100E-06,-0.008
-1.090E-06,0.000
-1.080E-06,-0.008
-1.070E-06,0.024
-1.060E-06,0.008
-1.050E-06,-0.008
-1.040E-06,-0.016
-1.030E-06,-0.008
-1.020E-06,0.008
-1.010E-06,0.000
-1.000E-06,0.008
-9.900E-07,0.016
-9.800E-07,0.040
-9.700E-07,0.048
-9.600E-07,0.024
-9.500E-07,0.008
-9.400E-07,0.024
-9.300E-07,0.048
-9.200E-07,0.048
-9.100E-07,0.040
-9.000E-07,0.056
-8.900E-07,0.032
-8.800E-07,0.016
-8.700E-07,-0.008
-8.600E-07,-0.088
-8.500E-07,-0.064
-8.400E-07,-0.024
-8.300E-07,0.056
-8.200E-07,0.080
-8.100E-07,0.040
-8.000E-07,0.024
-7.900E-07,0.000
-7.800E-07,-0.008
-7.700E-07,-0.008
-7.600E-07,-0.008
-7.500E-07,0.000
-7.400E-07,0.008
-7.300E-07,0.016
-7.200E-07,-0.008
-7.100E-07,-0.008
-7.000E-07,-0.024
-6.900E-07,-0.008
-6.800E-07,0.024
-6.700E-07,0.032
-6.600E-07,0.048
-6.500E-07,0.040
-6.400E-07,0.032
-6.300E-07,0.032
-6.200E-07,0.024
-6.100E-07,0.024
-6.000E-07,0.024
-5.900E-07,0.064
-5.800E-07,0.064
-5.700E-07,0.064
-5.600E-07,0.040
-5.500E-07,0.024
-5.400E-07,0.008
-5.300E-07,0.032
-5.200E-07,0.056
-5.100E-07,0.072
-5.000E-07,0.056
-4.900E-07,0.016
-4.800E-07,-0.008
-4.700E-07,-0.208
-4.600E-07,-0.064
-4.500E-07,-0.176
-4.400E-07,-0.056
-4.300E-07,0.056
-4.200E-07,0.072
-4.100E-07,0.120
-4.000E-07,0.040
-3.900E-07,-0.080
-3.800E-07,-0.144
-3.700E-07,-0.104
-3.600E-07,0.000
-3.500E-07,0.064
-3.400E-07,0.120
-3.300E-07,0.088
-3.200E-07,0.048
-3.100E-07,-0.016
-3.000E-07,-0.056
-2.900E-07,-0.048
-2.800E-07,0.000
-2.700E-07,0.064
-2.600E-07,0.096
-2.500E-07,0.112
-2.400E-07,0.088
-2.300E-07,0.040
-2.200E-07,0.008
-2.100E-07,0.000
-2.000E-07,0.056
-1.900E-07,0.064
-1.800E-07,0.104
-1.700E-07,0.112
-1.600E-07,0.104
-1.500E-07,0.080
-1.400E-07,0.056
-1.300E-07,0.056
-1.200E-07,0.088
-1.100E-07,0.088
-1.000E-07,0.112
-9.000E-08,0.136
-8.000E-08,0.176
-7.000E-08,0.160
-6.000E-08,-0.048
-5.000E-08,-0.504
-4.000E-08,-0.904
-3.000E-08,-0.776
-2.000E-08,-0.392
-1.000E-08,-0.224
0.000E+00,0.744
1.000E-08,0.896
2.000E-08,0.752
3.000E-08,0.000
4.000E-08,-0.632
5.000E-08,-0.544
6.000E-08,-0.296
7.000E-08,0.216
8.000E-08,0.392
9.000E-08,0.520
1.000E-07,0.424
1.100E-07,0.192
1.200E-07,-0.024
1.300E-07,-0.240
1.400E-07,-0.176
1.500E-07,0.080
1.600E-07,0.176
1.700E-07,0.160
1.800E-07,-0.176
1.900E-07,-0.240
2.000E-07,-0.408
2.100E-07,-0.320
2.200E-07,-0.024
2.300E-07,0.176
2.400E-07,0.328
2.500E-07,0.240
2.600E-07,0.120
2.700E-07,-0.080
2.800E-07,-0.152
2.900E-07,-0.152
3.000E-07,0.048
3.100E-07,0.264
3.200E-07,0.304
3.300E-07,0.272
3.400E-07,0.176
3.500E-07,-0.016
3.600E-07,-0.120
3.700E-07,-0.096
3.800E-07,-0.016
3.900E-07,0.128
4.000E-07,0.184
4.100E-07,0.256
4.200E-07,0.216
4.300E-07,0.112
4.400E-07,0.096
4.500E-07,0.080
4.600E-07,0.128
4.700E-07,0.192
4.800E-07,0.024
4.900E-07,-0.048
5.000E-07,-0.312
5.100E-07,-0.216
5.200E-07,-0.192
5.300E-07,-0.040
5.400E-07,0.208
5.500E-07,0.272
5.600E-07,0.416
5.700E-07,0.024
5.800E-07,-0.016
5.900E-07,-0.144
6.000E-07,-0.208
6.100E-07,-0.104
6.200E-07,-0.104
6.300E-07,0.056
6.400E-07,0.064
6.500E-07,0.152
6.600E-07,0.160
6.700E-07,0.200
6.800E-07,0.056
6.900E-07,-0.048
7.000E-07,-0.040
7.100E-07,-0.040
7.200E-07,0.016
7.300E-07,0.120
7.400E-07,0.072
7.500E-07,-0.056
7.600E-07,-0.056
7.700E-07,-0.104
7.800E-07,0.040
7.900E-07,0.088
8.000E-07,0.056
8.100E-07,0.120
8.200E-07,0.112
8.300E-07,0.120
8.400E-07,0.016
8.500E-07,-0.016
8.600E-07,0.048
8.700E-07,0.112
8.800E-07,0.216
8.900E-07,0.320
9.000E-07,0.376
9.100E-07,0.344
9.200E-07,0.224
9.300E-07,0.104
9.400E-07,0.064
9.500E-07,0.120
9.600E-07,0.224
9.700E-07,0.328
9.800E-07,0.376
9.900E-07,0.328
1.000E-06,0.280
1.010E-06,0.208
1.020E-06,0.184
1.030E-06,0.152
1.040E-06,0.168
1.050E-06,0.248
1.060E-06,0.280
1.070E-06,0.320
1.080E-06,0.240
1.090E-06,-0.216
1.100E-06,-0.736
1.110E-06,-1.024
1.120E-06,-1.024
1.130E-06,-1.024
1.140E-06,-0.936
1.150E-06,0.648
1.160E-06,1.080
1.170E-06,1.080
1.180E-06,0.784
1.190E-06,0.240
1.200E-06,-0.568
1.210E-06,-0.672
1.220E-06,-0.632
1.230E-06,0.392
1.240E-06,1.080
1.250E-06,1.080
1.260E-06,0.960
1.270E-06,0.480
1.280E-06,-0.200
1.290E-06,-0.544
1.300E-06,-0.288
1.310E-06,-0.040
1.320E-06,0.592
1.330E-06,0.912
1.340E-06,0.880
1.350E-06,0.456
1.360E-06,-0.064
1.370E-06,-0.368
1.380E-06,-0.360
1.390E-06,-0.064
1.400E-06,0.280
1.410E-06,0.616
1.420E-06,0.616
1.430E-06,0.448
1.440E-06,0.048
1.450E-06,-0.224
1.460E-06,-0.288
1.470E-06,-0.176
1.480E-06,0.096
1.490E-06,0.384
1.500E-06,0.440
1.510E-06,0.336
1.520E-06,0.112
1.530E-06,-0.152
1.540E-06,-0.272
1.550E-06,-0.128
1.560E-06,0.080
1.570E-06,0.272
1.580E-06,0.448
1.590E-06,0.472
1.600E-06,0.424
1.610E-06,0.248
1.620E-06,0.024
1.630E-06,-0.032
1.640E-06,-0.024
1.650E-06,0.176
1.660E-06,0.376
1.670E-06,0.472
1.680E-06,0.432
1.690E-06,0.312
1.700E-06,0.200
1.710E-06,0.072
1.720E-06,0.056
1.730E-06,0.144
1.740E-06,0.288
1.750E-06,0.424
1.760E-06,0.456
1.770E-06,0.384
1.780E-06,0.264
1.790E-06,0.160
1.800E-06,0.136
1.810E-06,0.176
1.820E-06,0.272
1.830E-06,0.360
1.840E-06,0.408
1.850E-06,0.384
1.860E-06,0.304
1.870E-06,0.224
1.880E-06,0.176
1.890E-06,0.192
1.900E-06,0.248
1.910E-06,0.320
1.920E-06,0.360
1.930E-06,0.352
1.940E-06,0.296
1.950E-06,0.248
1.960E-06,0.208
1.970E-06,0.200
1.980E-06,0.248
1.990E-06,0.288
2.000E-06,0.320
2.010E-06,0.336
2.020E-06,0.328
2.030E-06,0.280
2.040E-06,0.224
2.050E-06,0.216
2.060E-06,0.224
2.070E-06,0.264
2.080E-06,0.296
2.090E-06,0.312
2.100E-06,0.320
2.110E-06,0.280
2.120E-06,0.264
2.130E-06,0.216
2.140E-06,0.232
2.150E-06,0.256
2.160E-06,0.280
2.170E-06,0.288
2.180E-06,0.304
2.190E-06,0.288
2.200E-06,0.256
2.210E-06,0.248
2.220E-06,0.248
2.230E-06,0.256
2.240E-06,0.280
2.250E-06,0.288
2.260E-06,0.296
2.270E-06,0.288
2.280E-06,0.280
2.290E-06,0.264
2.300E-06,0.256
2.310E-06,0.256
2.320E-06,0.264
2.330E-06,0.280
2.340E-06,0.296
2.350E-06,0.288
2.360E-06,0.256
2.370E-06,0.248
2.380E-06,0.240
2.390E-06,0.248
2.400E-06,0.256
2.410E-06,0.280
2.420E-06,0.288
2.430E-06,0.272
2.440E-06,0.264
2.450E-06,0.256
2.460E-06,0.248
2.470E-06,0.248
2.480E-06,0.256
2.490E-06,0.264
2.500E-06,0.280
2.510E-06,0.280
2.520E-06,0.264
2.530E-06,0.256
2.540E-06,0.256
2.550E-06,0.248
2.560E-06,0.264
2.570E-06,0.256
2.580E-06,0.264
2.590E-06,0.264
2.600E-06,0.264
2.610E-06,0.256
2.620E-06,0.256
2.630E-06,0.248
2.640E-06,0.248
2.650E-06,0.256
2.660E-06,0.256
2.670E-06,0.256
2.680E-06,0.248
2.690E-06,0.256
2.700E-06,0.248
2.710E-06,0.248
2.720E-06,0.256
2.730E-06,0.248
2.740E-06,0.256
2.750E-06,0.248
2.760E-06,0.248
2.770E-06,0.248
2.780E-06,0.240
2.790E-06,0.248
2.800E-06,0.248
2.810E-06,0.248
2.820E-06,0.248
2.830E-06,0.248
2.840E-06,0.256
2.850E-06,0.240
2.860E-06,0.240
2.870E-06,0.240
2.880E-06,0.240
2.890E-06,0.240
2.900E-06,0.248
2.910E-06,0.248
2.920E-06,0.248
2.930E-06,0.248
2.940E-06,0.248
2.950E-06,0.240
2.960E-06,0.240
2.970E-06,0.248
2.980E-06,0.248
2.990E-06,0.240
3.000E-06,0.240
3.010E-06,0.248
3.020E-06,0.248
3.030E-06,0.240
3.040E-06,0.240
3.050E-06,0.224
3.060E-06,0.232
3.070E-06,0.224
3.080E-06,0.224
3.090E-06,0.240
3.100E-06,0.240
3.110E-06,0.232
3.120E-06,0.216
3.130E-06,0.216
3.140E-06,0.224
3.150E-06,0.216
3.160E-06,0.248
3.170E-06,0.256
3.180E-06,0.256
3.190E-06,0.256
3.200E-06,0.248
3.210E-06,0.224
3.220E-06,0.208
3.230E-06,0.208
3.240E-06,0.216
3.250E-06,0.248
3.260E-06,0.256
3.270E-06,0.248
3.280E-06,0.224
3.290E-06,0.192
3.300E-06,0.184
3.310E-06,0.200
3.320E-06,0.208
3.330E-06,0.224
3.340E-06,0.240
3.350E-06,0.240
3.360E-06,0.216
3.370E-06,0.208
3.380E-06,0.200
3.390E-06,0.200
3.400E-06,0.208
3.410E-06,0.224
3.420E-06,0.232
3.430E-06,0.216
3.440E-06,0.216
3.450E-06,0.216
3.460E-06,0.192
3.470E-06,0.192
3.480E-06,0.192
3.490E-06,0.192
3.500E-06,0.200
3.510E-06,0.216
3.520E-06,0.208
3.530E-06,0.200
3.540E-06,0.184
3.550E-06,0.184
3.560E-06,0.184
3.570E-06,0.192
3.580E-06,0.200
3.590E-06,0.192
