mediciones/5-27/-17.5/WaveData51104.csv

#timebase=2000000(ps)
,#voltbase=100000(mv/100)
#size=4000
-7.300E-06,0.004
-7.290E-06,0.000
-7.280E-06,0.000
-7.270E-06,0.000
-7.260E-06,0.004
-7.250E-06,0.000
-7.240E-06,0.004
-7.230E-06,0.000
-7.220E-06,0.000
-7.210E-06,0.004
-7.200E-06,0.004
-7.190E-06,0.004
-7.180E-06,0.004
-7.170E-06,0.004
-7.160E-06,0.004
-7.150E-06,0.000
-7.140E-06,0.004
-7.130E-06,0.004
-7.120E-06,0.000
-7.110E-06,0.004
-7.100E-06,0.000
-7.090E-06,0.000
-7.080E-06,0.004
-7.070E-06,0.000
-7.060E-06,0.004
-7.050E-06,0.004
-7.040E-06,0.004
-7.030E-06,0.004
-7.020E-06,0.004
-7.010E-06,0.004
-7.000E-06,0.004
-6.990E-06,0.000
-6.980E-06,0.004
-6.970E-06,0.004
-6.960E-06,0.004
-6.950E-06,0.000
-6.940E-06,0.004
-6.930E-06,0.000
-6.920E-06,0.000
-6.910E-06,0.000
-6.900E-06,0.004
-6.890E-06,0.000
-6.880E-06,0.004
-6.870E-06,0.000
-6.860E-06,0.000
-6.850E-06,0.004
-6.840E-06,0.008
-6.830E-06,0.008
-6.820E-06,-0.004
-6.810E-06,0.000
-6.800E-06,0.004
-6.790E-06,0.004
-6.780E-06,0.004
-6.770E-06,0.004
-6.760E-06,0.004
-6.750E-06,0.000
-6.740E-06,0.000
-6.730E-06,0.004
-6.720E-06,0.004
-6.710E-06,0.004
-6.700E-06,0.004
-6.690E-06,0.004
-6.680E-06,0.004
-6.670E-06,0.004
-6.660E-06,0.004
-6.650E-06,0.004
-6.640E-06,0.000
-6.630E-06,0.004
-6.620E-06,0.004
-6.610E-06,0.004
-6.600E-06,0.004
-6.590E-06,-0.004
-6.580E-06,0.004
-6.570E-06,0.000
-6.560E-06,0.004
-6.550E-06,-0.004
-6.540E-06,0.004
-6.530E-06,0.004
-6.520E-06,0.004
-6.510E-06,0.004
-6.500E-06,0.008
-6.490E-06,0.000
-6.480E-06,-0.004
-6.470E-06,0.004
-6.460E-06,0.000
-6.450E-06,0.004
-6.440E-06,0.004
-6.430E-06,0.004
-6.420E-06,0.004
-6.410E-06,0.004
-6.400E-06,0.008
-6.390E-06,0.004
-6.380E-06,0.000
-6.370E-06,-0.004
-6.360E-06,0.004
-6.350E-06,0.000
-6.340E-06,-0.004
-6.330E-06,0.004
-6.320E-06,0.008
-6.310E-06,0.000
-6.300E-06,0.000
-6.290E-06,0.004
-6.280E-06,0.000
-6.270E-06,0.000
-6.260E-06,0.004
-6.250E-06,0.004
-6.240E-06,0.004
-6.230E-06,0.004
-6.220E-06,0.000
-6.210E-06,0.004
-6.200E-06,0.004
-6.190E-06,0.008
-6.180E-06,-0.004
-6.170E-06,0.000
-6.160E-06,0.004
-6.150E-06,0.000
-6.140E-06,0.004
-6.130E-06,0.000
-6.120E-06,0.004
-6.110E-06,0.000
-6.100E-06,0.004
-6.090E-06,0.000
-6.080E-06,0.004
-6.070E-06,0.004
-6.060E-06,0.004
-6.050E-06,0.004
-6.040E-06,0.000
-6.030E-06,0.004
-6.020E-06,0.008
-6.010E-06,0.008
-6.000E-06,0.000
-5.990E-06,0.004
-5.980E-06,0.004
-5.970E-06,0.004
-5.960E-06,0.004
-5.950E-06,0.004
-5.940E-06,0.000
-5.930E-06,0.004
-5.920E-06,0.004
-5.910E-06,0.004
-5.900E-06,0.004
-5.890E-06,0.004
-5.880E-06,0.004
-5.870E-06,0.004
-5.860E-06,-0.004
-5.850E-06,0.004
-5.840E-06,0.004
-5.830E-06,0.004
-5.820E-06,0.000
-5.810E-06,0.004
-5.800E-06,0.000
-5.790E-06,0.004
-5.780E-06,0.004
-5.770E-06,0.000
-5.760E-06,0.000
-5.750E-06,0.004
-5.740E-06,0.004
-5.730E-06,0.004
-5.720E-06,0.000
-5.710E-06,0.000
-5.700E-06,0.004
-5.690E-06,0.000
-5.680E-06,0.004
-5.670E-06,0.004
-5.660E-06,0.004
-5.650E-06,0.004
-5.640E-06,0.004
-5.630E-06,0.004
-5.620E-06,0.004
-5.610E-06,0.004
-5.600E-06,0.004
-5.590E-06,0.004
-5.580E-06,0.008
-5.570E-06,-0.004
-5.560E-06,-0.004
-5.550E-06,0.000
-5.540E-06,0.004
-5.530E-06,0.004
-5.520E-06,0.004
-5.510E-06,0.000
-5.500E-06,0.004
-5.490E-06,0.004
-5.480E-06,0.004
-5.470E-06,0.000
-5.460E-06,0.004
-5.450E-06,0.004
-5.440E-06,0.004
-5.430E-06,0.004
-5.420E-06,0.004
-5.410E-06,0.004
-5.400E-06,0.004
-5.390E-06,0.004
-5.380E-06,0.004
-5.370E-06,0.008
-5.360E-06,0.036
-5.350E-06,0.064
-5.340E-06,0.056
-5.330E-06,0.036
-5.320E-06,-0.012
-5.310E-06,-0.064
-5.300E-06,-0.080
-5.290E-06,-0.056
-5.280E-06,0.004
-5.270E-06,0.060
-5.260E-06,0.068
-5.250E-06,0.020
-5.240E-06,-0.020
-5.230E-06,-0.036
-5.220E-06,-0.020
-5.210E-06,0.012
-5.200E-06,0.048
-5.190E-06,0.064
-5.180E-06,0.024
-5.170E-06,0.000
-5.160E-06,-0.040
-5.150E-06,-0.036
-5.140E-06,-0.008
-5.130E-06,0.020
-5.120E-06,0.036
-5.110E-06,0.028
-5.100E-06,0.000
-5.090E-06,-0.008
-5.080E-06,0.000
-5.070E-06,0.004
-5.060E-06,0.020
-5.050E-06,0.020
-5.040E-06,0.008
-5.030E-06,-0.004
-5.020E-06,-0.016
-5.010E-06,-0.004
-5.000E-06,-0.004
-4.990E-06,0.000
-4.980E-06,0.000
-4.970E-06,-0.004
-4.960E-06,-0.008
-4.950E-06,-0.004
-4.940E-06,0.000
-4.930E-06,0.012
-4.920E-06,0.016
-4.910E-06,0.012
-4.900E-06,0.004
-4.890E-06,0.004
-4.880E-06,0.000
-4.870E-06,0.004
-4.860E-06,0.008
-4.850E-06,0.000
-4.840E-06,0.000
-4.830E-06,-0.004
-4.820E-06,-0.004
-4.810E-06,0.000
-4.800E-06,0.000
-4.790E-06,0.008
-4.780E-06,0.008
-4.770E-06,0.004
-4.760E-06,0.004
-4.750E-06,0.000
-4.740E-06,0.000
-4.730E-06,0.000
-4.720E-06,0.000
-4.710E-06,0.008
-4.700E-06,0.008
-4.690E-06,-0.004
-4.680E-06,0.004
-4.670E-06,0.000
-4.660E-06,0.000
-4.650E-06,0.000
-4.640E-06,0.000
-4.630E-06,0.000
-4.620E-06,0.000
-4.610E-06,0.000
-4.600E-06,0.008
-4.590E-06,0.008
-4.580E-06,0.008
-4.570E-06,0.000
-4.560E-06,0.000
-4.550E-06,0.004
-4.540E-06,0.008
-4.530E-06,0.012
-4.520E-06,0.012
-4.510E-06,0.008
-4.500E-06,-0.004
-4.490E-06,-0.004
-4.480E-06,-0.004
-4.470E-06,0.000
-4.460E-06,0.004
-4.450E-06,0.000
-4.440E-06,0.008
-4.430E-06,0.000
-4.420E-06,0.000
-4.410E-06,0.000
-4.400E-06,0.004
-4.390E-06,0.000
-4.380E-06,0.004
-4.370E-06,0.000
-4.360E-06,0.004
-4.350E-06,0.004
-4.340E-06,0.000
-4.330E-06,0.000
-4.320E-06,0.004
-4.310E-06,0.004
-4.300E-06,0.004
-4.290E-06,0.000
-4.280E-06,0.000
-4.270E-06,0.004
-4.260E-06,0.004
-4.250E-06,0.008
-4.240E-06,0.000
-4.230E-06,0.000
-4.220E-06,-0.008
-4.210E-06,0.012
-4.200E-06,-0.008
-4.190E-06,0.004
-4.180E-06,0.012
-4.170E-06,0.012
-4.160E-06,0.008
-4.150E-06,-0.012
-4.140E-06,-0.004
-4.130E-06,-0.004
-4.120E-06,0.004
-4.110E-06,0.020
-4.100E-06,0.024
-4.090E-06,0.000
-4.080E-06,-0.004
-4.070E-06,-0.008
-4.060E-06,0.000
-4.050E-06,0.004
-4.040E-06,0.012
-4.030E-06,0.012
-4.020E-06,0.004
-4.010E-06,-0.004
-4.000E-06,-0.004
-3.990E-06,-0.004
-3.980E-06,0.008
-3.970E-06,0.012
-3.960E-06,0.012
-3.950E-06,0.004
-3.940E-06,-0.004
-3.930E-06,-0.004
-3.920E-06,0.000
-3.910E-06,0.004
-3.900E-06,0.004
-3.890E-06,0.008
-3.880E-06,0.000
-3.870E-06,0.000
-3.860E-06,0.008
-3.850E-06,0.008
-3.840E-06,0.000
-3.830E-06,0.004
-3.820E-06,0.000
-3.810E-06,0.004
-3.800E-06,0.000
-3.790E-06,0.000
-3.780E-06,0.004
-3.770E-06,0.008
-3.760E-06,0.012
-3.750E-06,0.000
-3.740E-06,0.000
-3.730E-06,0.004
-3.720E-06,0.008
-3.710E-06,0.008
-3.700E-06,0.012
-3.690E-06,0.008
-3.680E-06,-0.004
-3.670E-06,-0.012
-3.660E-06,-0.008
-3.650E-06,-0.008
-3.640E-06,0.008
-3.630E-06,0.024
-3.620E-06,0.016
-3.610E-06,0.012
-3.600E-06,0.000
-3.590E-06,-0.004
-3.580E-06,-0.004
-3.570E-06,-0.004
-3.560E-06,0.008
-3.550E-06,0.012
-3.540E-06,0.012
-3.530E-06,0.004
-3.520E-06,0.000
-3.510E-06,0.000
-3.500E-06,-0.004
-3.490E-06,0.004
-3.480E-06,0.004
-3.470E-06,0.008
-3.460E-06,0.004
-3.450E-06,0.000
-3.440E-06,0.000
-3.430E-06,0.000
-3.420E-06,0.004
-3.410E-06,0.004
-3.400E-06,0.004
-3.390E-06,0.004
-3.380E-06,0.000
-3.370E-06,0.004
-3.360E-06,0.000
-3.350E-06,0.004
-3.340E-06,0.004
-3.330E-06,0.000
-3.320E-06,-0.004
-3.310E-06,0.004
-3.300E-06,0.004
-3.290E-06,0.008
-3.280E-06,0.000
-3.270E-06,0.000
-3.260E-06,0.004
-3.250E-06,-0.004
-3.240E-06,0.008
-3.230E-06,0.008
-3.220E-06,0.008
-3.210E-06,0.008
-3.200E-06,0.004
-3.190E-06,0.008
-3.180E-06,0.008
-3.170E-06,0.008
-3.160E-06,0.008
-3.150E-06,0.012
-3.140E-06,0.008
-3.130E-06,0.008
-3.120E-06,0.000
-3.110E-06,0.004
-3.100E-06,0.004
-3.090E-06,0.004
-3.080E-06,0.004
-3.070E-06,-0.004
-3.060E-06,-0.004
-3.050E-06,0.000
-3.040E-06,0.000
-3.030E-06,0.008
-3.020E-06,0.012
-3.010E-06,0.008
-3.000E-06,0.008
-2.990E-06,0.008
-2.980E-06,0.016
-2.970E-06,0.012
-2.960E-06,0.004
-2.950E-06,-0.008
-2.940E-06,-0.020
-2.930E-06,-0.020
-2.920E-06,-0.008
-2.910E-06,0.004
-2.900E-06,0.012
-2.890E-06,0.008
-2.880E-06,0.004
-2.870E-06,0.004
-2.860E-06,-0.004
-2.850E-06,-0.004
-2.840E-06,-0.008
-2.830E-06,-0.008
-2.820E-06,0.004
-2.810E-06,0.008
-2.800E-06,0.012
-2.790E-06,0.016
-2.780E-06,0.000
-2.770E-06,0.000
-2.760E-06,-0.004
-2.750E-06,0.000
-2.740E-06,0.008
-2.730E-06,0.008
-2.720E-06,0.012
-2.710E-06,0.008
-2.700E-06,0.000
-2.690E-06,-0.004
-2.680E-06,-0.004
-2.670E-06,0.000
-2.660E-06,0.008
-2.650E-06,0.008
-2.640E-06,0.004
-2.630E-06,0.008
-2.620E-06,0.000
-2.610E-06,0.000
-2.600E-06,0.000
-2.590E-06,0.004
-2.580E-06,0.000
-2.570E-06,0.004
-2.560E-06,0.012
-2.550E-06,0.000
-2.540E-06,0.008
-2.530E-06,0.004
-2.520E-06,0.008
-2.510E-06,0.008
-2.500E-06,0.000
-2.490E-06,0.000
-2.480E-06,0.008
-2.470E-06,0.004
-2.460E-06,0.008
-2.450E-06,0.008
-2.440E-06,0.000
-2.430E-06,0.000
-2.420E-06,-0.004
-2.410E-06,0.004
-2.400E-06,0.000
-2.390E-06,0.008
-2.380E-06,0.004
-2.370E-06,0.008
-2.360E-06,0.004
-2.350E-06,0.000
-2.340E-06,0.004
-2.330E-06,0.004
-2.320E-06,0.004
-2.310E-06,0.008
-2.300E-06,0.004
-2.290E-06,0.008
-2.280E-06,0.008
-2.270E-06,0.008
-2.260E-06,0.008
-2.250E-06,0.008
-2.240E-06,0.004
-2.230E-06,0.008
-2.220E-06,0.008
-2.210E-06,0.008
-2.200E-06,0.008
-2.190E-06,0.008
-2.180E-06,0.008
-2.170E-06,0.008
-2.160E-06,0.012
-2.150E-06,0.008
-2.140E-06,0.012
-2.130E-06,0.008
-2.120E-06,0.020
-2.110E-06,0.016
-2.100E-06,0.024
-2.090E-06,0.020
-2.080E-06,0.020
-2.070E-06,0.024
-2.060E-06,0.036
-2.050E-06,0.040
-2.040E-06,0.048
-2.030E-06,0.036
-2.020E-06,0.024
-2.010E-06,-0.004
-2.000E-06,-0.020
-1.990E-06,-0.032
-1.980E-06,-0.020
-1.970E-06,-0.004
-1.960E-06,0.000
-1.950E-06,0.000
-1.940E-06,-0.004
-1.930E-06,-0.008
-1.920E-06,-0.012
-1.910E-06,-0.016
-1.900E-06,0.000
-1.890E-06,0.004
-1.880E-06,0.012
-1.870E-06,0.016
-1.860E-06,0.028
-1.850E-06,0.028
-1.840E-06,0.040
-1.830E-06,0.040
-1.820E-06,0.044
-1.810E-06,0.044
-1.800E-06,0.048
-1.790E-06,0.060
-1.780E-06,0.064
-1.770E-06,0.044
-1.760E-06,0.024
-1.750E-06,-0.008
-1.740E-06,-0.036
-1.730E-06,-0.060
-1.720E-06,-0.064
-1.710E-06,-0.056
-1.700E-06,-0.036
-1.690E-06,-0.016
-1.680E-06,-0.008
-1.670E-06,-0.016
-1.660E-06,-0.028
-1.650E-06,-0.032
-1.640E-06,-0.028
-1.630E-06,-0.016
-1.620E-06,-0.008
-1.610E-06,0.000
-1.600E-06,0.000
-1.590E-06,-0.004
-1.580E-06,-0.004
-1.570E-06,-0.008
-1.560E-06,0.000
-1.550E-06,0.000
-1.540E-06,0.008
-1.530E-06,0.008
-1.520E-06,0.004
-1.510E-06,0.004
-1.500E-06,0.000
-1.490E-06,0.004
-1.480E-06,-0.004
-1.470E-06,-0.004
-1.460E-06,0.004
-1.450E-06,0.004
-1.440E-06,0.008
-1.430E-06,0.004
-1.420E-06,0.008
-1.410E-06,0.008
-1.400E-06,0.008
-1.390E-06,0.008
-1.380E-06,0.012
-1.370E-06,0.008
-1.360E-06,0.016
-1.350E-06,0.024
-1.340E-06,0.020
-1.330E-06,0.024
-1.320E-06,0.028
-1.310E-06,0.020
-1.300E-06,0.020
-1.290E-06,0.024
-1.280E-06,0.020
-1.270E-06,0.028
-1.260E-06,0.028
-1.250E-06,0.036
-1.240E-06,0.040
-1.230E-06,0.040
-1.220E-06,0.044
-1.210E-06,0.040
-1.200E-06,0.048
-1.190E-06,0.060
-1.180E-06,0.060
-1.170E-06,0.056
-1.160E-06,0.048
-1.150E-06,0.032
-1.140E-06,0.012
-1.130E-06,0.008
-1.120E-06,0.008
-1.110E-06,0.012
-1.100E-06,0.020
-1.090E-06,0.024
-1.080E-06,0.036
-1.070E-06,0.048
-1.060E-06,0.060
-1.050E-06,0.084
-1.040E-06,0.112
-1.030E-06,0.128
-1.020E-06,0.132
-1.010E-06,0.120
-1.000E-06,0.092
-9.900E-07,0.036
-9.800E-07,-0.028
-9.700E-07,-0.092
-9.600E-07,-0.136
-9.500E-07,-0.108
-9.400E-07,-0.036
-9.300E-07,0.052
-9.200E-07,0.052
-9.100E-07,-0.004
-9.000E-07,-0.128
-8.900E-07,-0.232
-8.800E-07,-0.252
-8.700E-07,-0.172
-8.600E-07,-0.036
-8.500E-07,0.072
-8.400E-07,0.120
-8.300E-07,0.084
-8.200E-07,0.012
-8.100E-07,-0.044
-8.000E-07,-0.056
-7.900E-07,-0.008
-7.800E-07,0.056
-7.700E-07,0.096
-7.600E-07,0.100
-7.500E-07,0.076
-7.400E-07,0.040
-7.300E-07,0.016
-7.200E-07,-0.008
-7.100E-07,-0.044
-7.000E-07,-0.068
-6.900E-07,-0.068
-6.800E-07,-0.056
-6.700E-07,-0.032
-6.600E-07,0.000
-6.500E-07,0.016
-6.400E-07,0.000
-6.300E-07,-0.012
-6.200E-07,-0.044
-6.100E-07,-0.040
-6.000E-07,-0.024
-5.900E-07,0.004
-5.800E-07,0.020
-5.700E-07,0.012
-5.600E-07,0.000
-5.500E-07,-0.016
-5.400E-07,-0.024
-5.300E-07,-0.008
-5.200E-07,-0.004
-5.100E-07,0.024
-5.000E-07,0.032
-4.900E-07,0.016
-4.800E-07,0.016
-4.700E-07,0.012
-4.600E-07,0.012
-4.500E-07,0.024
-4.400E-07,0.044
-4.300E-07,0.056
-4.200E-07,0.032
-4.100E-07,0.028
-4.000E-07,0.028
-3.900E-07,0.020
-3.800E-07,0.016
-3.700E-07,0.028
-3.600E-07,0.032
-3.500E-07,0.032
-3.400E-07,0.056
-3.300E-07,0.064
-3.200E-07,0.068
-3.100E-07,0.072
-3.000E-07,0.092
-2.900E-07,0.092
-2.800E-07,0.092
-2.700E-07,0.108
-2.600E-07,0.112
-2.500E-07,0.124
-2.400E-07,0.128
-2.300E-07,0.136
-2.200E-07,0.140
-2.100E-07,0.152
-2.000E-07,0.156
-1.900E-07,0.160
-1.800E-07,0.168
-1.700E-07,0.176
-1.600E-07,0.164
-1.500E-07,0.148
-1.400E-07,0.152
-1.300E-07,0.136
-1.200E-07,0.132
-1.100E-07,0.148
-1.000E-07,0.140
-9.000E-08,0.148
-8.000E-08,0.120
-7.000E-08,0.064
-6.000E-08,-0.044
-5.000E-08,-0.164
-4.000E-08,-0.244
-3.000E-08,-0.284
-2.000E-08,-0.140
-1.000E-08,-0.012
0.000E+00,0.324
1.000E-08,0.376
2.000E-08,0.344
3.000E-08,0.200
4.000E-08,0.020
5.000E-08,-0.100
6.000E-08,-0.140
7.000E-08,-0.096
8.000E-08,-0.040
9.000E-08,0.024
1.000E-07,0.008
1.100E-07,-0.044
1.200E-07,-0.136
1.300E-07,-0.240
1.400E-07,-0.264
1.500E-07,-0.240
1.600E-07,-0.168
1.700E-07,-0.108
1.800E-07,-0.048
1.900E-07,-0.060
2.000E-07,-0.052
2.100E-07,-0.104
2.200E-07,-0.128
2.300E-07,-0.116
2.400E-07,-0.076
2.500E-07,-0.032
2.600E-07,0.004
2.700E-07,0.040
2.800E-07,0.028
2.900E-07,-0.004
3.000E-07,0.008
3.100E-07,0.020
3.200E-07,0.056
3.300E-07,0.088
3.400E-07,0.112
3.500E-07,0.112
3.600E-07,0.080
3.700E-07,0.036
3.800E-07,0.040
3.900E-07,0.028
4.000E-07,0.056
4.100E-07,0.056
4.200E-07,0.044
4.300E-07,0.032
4.400E-07,0.000
4.500E-07,-0.012
4.600E-07,0.004
4.700E-07,0.036
4.800E-07,0.068
4.900E-07,0.092
5.000E-07,0.104
5.100E-07,0.104
5.200E-07,0.116
5.300E-07,0.120
5.400E-07,0.140
5.500E-07,0.144
5.600E-07,0.152
5.700E-07,0.176
5.800E-07,0.172
5.900E-07,0.184
6.000E-07,0.176
6.100E-07,0.168
6.200E-07,0.168
6.300E-07,0.164
6.400E-07,0.168
6.500E-07,0.180
6.600E-07,0.184
6.700E-07,0.176
6.800E-07,0.180
6.900E-07,0.176
7.000E-07,0.164
7.100E-07,0.164
7.200E-07,0.172
7.300E-07,0.180
7.400E-07,0.180
7.500E-07,0.176
7.600E-07,0.172
7.700E-07,0.176
7.800E-07,0.172
7.900E-07,0.168
8.000E-07,0.168
8.100E-07,0.176
8.200E-07,0.172
8.300E-07,0.172
8.400E-07,0.172
8.500E-07,0.172
8.600E-07,0.168
8.700E-07,0.160
8.800E-07,0.168
8.900E-07,0.172
9.000E-07,0.172
9.100E-07,0.168
9.200E-07,0.176
9.300E-07,0.176
9.400E-07,0.168
9.500E-07,0.172
9.600E-07,0.168
9.700E-07,0.164
9.800E-07,0.164
9.900E-07,0.164
1.000E-06,0.168
1.010E-06,0.156
1.020E-06,0.156
1.030E-06,0.144
1.040E-06,0.132
1.050E-06,0.124
1.060E-06,0.124
1.070E-06,0.124
1.080E-06,0.124
1.090E-06,0.112
1.100E-06,0.100
1.110E-06,0.076
1.120E-06,0.040
1.130E-06,0.004
1.140E-06,-0.020
1.150E-06,-0.036
1.160E-06,-0.044
1.170E-06,-0.028
1.180E-06,-0.012
1.190E-06,0.008
1.200E-06,0.000
1.210E-06,-0.024
1.220E-06,-0.036
1.230E-06,-0.032
1.240E-06,-0.004
1.250E-06,0.024
1.260E-06,0.060
1.270E-06,0.072
1.280E-06,0.064
1.290E-06,0.072
1.300E-06,0.072
1.310E-06,0.104
1.320E-06,0.156
1.330E-06,0.188
1.340E-06,0.208
1.350E-06,0.204
1.360E-06,0.192
1.370E-06,0.164
1.380E-06,0.164
1.390E-06,0.172
1.400E-06,0.180
1.410E-06,0.180
1.420E-06,0.188
1.430E-06,0.188
1.440E-06,0.176
1.450E-06,0.168
1.460E-06,0.160
1.470E-06,0.152
1.480E-06,0.160
1.490E-06,0.176
1.500E-06,0.180
1.510E-06,0.180
1.520E-06,0.168
1.530E-06,0.156
1.540E-06,0.156
1.550E-06,0.152
1.560E-06,0.164
1.570E-06,0.176
1.580E-06,0.180
1.590E-06,0.172
1.600E-06,0.164
1.610E-06,0.152
1.620E-06,0.152
1.630E-06,0.152
1.640E-06,0.160
1.650E-06,0.164
1.660E-06,0.172
1.670E-06,0.164
1.680E-06,0.156
1.690E-06,0.152
1.700E-06,0.148
1.710E-06,0.152
1.720E-06,0.148
1.730E-06,0.156
1.740E-06,0.164
1.750E-06,0.164
1.760E-06,0.156
1.770E-06,0.156
1.780E-06,0.152
1.790E-06,0.152
1.800E-06,0.160
1.810E-06,0.156
1.820E-06,0.160
1.830E-06,0.164
1.840E-06,0.160
1.850E-06,0.156
1.860E-06,0.156
1.870E-06,0.152
1.880E-06,0.152
1.890E-06,0.160
1.900E-06,0.160
1.910E-06,0.164
1.920E-06,0.164
1.930E-06,0.164
1.940E-06,0.156
1.950E-06,0.152
1.960E-06,0.156
1.970E-06,0.160
1.980E-06,0.160
1.990E-06,0.160
2.000E-06,0.160
2.010E-06,0.160
2.020E-06,0.160
2.030E-06,0.156
2.040E-06,0.152
2.050E-06,0.156
2.060E-06,0.160
2.070E-06,0.160
2.080E-06,0.152
2.090E-06,0.156
2.100E-06,0.160
2.110E-06,0.152
2.120E-06,0.156
2.130E-06,0.160
2.140E-06,0.156
2.150E-06,0.160
2.160E-06,0.152
2.170E-06,0.152
2.180E-06,0.160
2.190E-06,0.152
2.200E-06,0.148
2.210E-06,0.152
2.220E-06,0.152
2.230E-06,0.156
2.240E-06,0.148
2.250E-06,0.152
2.260E-06,0.148
2.270E-06,0.152
2.280E-06,0.152
2.290E-06,0.152
2.300E-06,0.152
2.310E-06,0.148
2.320E-06,0.148
2.330E-06,0.144
2.340E-06,0.144
2.350E-06,0.144
2.360E-06,0.148
2.370E-06,0.136
2.380E-06,0.144
2.390E-06,0.140
2.400E-06,0.140
2.410E-06,0.136
2.420E-06,0.140
2.430E-06,0.140
2.440E-06,0.140
2.450E-06,0.140
2.460E-06,0.144
2.470E-06,0.144
2.480E-06,0.144
2.490E-06,0.144
2.500E-06,0.140
2.510E-06,0.144
2.520E-06,0.140
2.530E-06,0.140
2.540E-06,0.140
2.550E-06,0.140
2.560E-06,0.144
2.570E-06,0.144
2.580E-06,0.144
2.590E-06,0.140
2.600E-06,0.140
2.610E-06,0.140
2.620E-06,0.144
2.630E-06,0.144
2.640E-06,0.144
2.650E-06,0.136
2.660E-06,0.136
2.670E-06,0.132
2.680E-06,0.136
2.690E-06,0.136
2.700E-06,0.136
2.710E-06,0.136
2.720E-06,0.136
2.730E-06,0.136
2.740E-06,0.132
2.750E-06,0.132
2.760E-06,0.136
2.770E-06,0.136
2.780E-06,0.132
2.790E-06,0.128
2.800E-06,0.124
2.810E-06,0.128
2.820E-06,0.128
2.830E-06,0.132
2.840E-06,0.128
2.850E-06,0.132
2.860E-06,0.132
2.870E-06,0.132
2.880E-06,0.132
2.890E-06,0.132
2.900E-06,0.136
2.910E-06,0.136
2.920E-06,0.132
2.930E-06,0.132
2.940E-06,0.128
2.950E-06,0.128
2.960E-06,0.124
2.970E-06,0.124
2.980E-06,0.124
2.990E-06,0.124
3.000E-06,0.128
3.010E-06,0.132
3.020E-06,0.128
3.030E-06,0.124
3.040E-06,0.124
3.050E-06,0.124
3.060E-06,0.128
3.070E-06,0.128
3.080E-06,0.132
3.090E-06,0.128
3.100E-06,0.128
3.110E-06,0.124
3.120E-06,0.120
3.130E-06,0.124
3.140E-06,0.120
3.150E-06,0.124
3.160E-06,0.120
3.170E-06,0.124
3.180E-06,0.120
3.190E-06,0.120
3.200E-06,0.124
3.210E-06,0.124
3.220E-06,0.124
3.230E-06,0.120
3.240E-06,0.120
3.250E-06,0.116
3.260E-06,0.108
3.270E-06,0.116
3.280E-06,0.108
3.290E-06,0.108
3.300E-06,0.112
3.310E-06,0.108
3.320E-06,0.104
3.330E-06,0.108
3.340E-06,0.112
3.350E-06,0.108
3.360E-06,0.112
3.370E-06,0.116
3.380E-06,0.112
3.390E-06,0.112
3.400E-06,0.112
3.410E-06,0.108
3.420E-06,0.108
3.430E-06,0.108
3.440E-06,0.100
3.450E-06,0.100
3.460E-06,0.104
3.470E-06,0.104
3.480E-06,0.100
3.490E-06,0.104
3.500E-06,0.104
3.510E-06,0.100
3.520E-06,0.104
3.530E-06,0.104
3.540E-06,0.108
3.550E-06,0.104
3.560E-06,0.108
3.570E-06,0.104
3.580E-06,0.108
3.590E-06,0.108
3.600E-06,0.100
3.610E-06,0.100
3.620E-06,0.104
3.630E-06,0.104
3.640E-06,0.104
3.650E-06,0.108
3.660E-06,0.108
3.670E-06,0.104
3.680E-06,0.100
3.690E-06,0.104
3.700E-06,0.104
3.710E-06,0.104
3.720E-06,0.104
3.730E-06,0.100
3.740E-06,0.100
3.750E-06,0.104
3.760E-06,0.100
3.770E-06,0.100
3.780E-06,0.100
3.790E-06,0.100
3.800E-06,0.096
3.810E-06,0.096
3.820E-06,0.096
3.830E-06,0.092
3.840E-06,0.092
3.850E-06,0.092
3.860E-06,0.096
3.870E-06,0.092
3.880E-06,0.100
3.890E-06,0.096
3.900E-06,0.096
3.910E-06,0.092
3.920E-06,0.092
3.930E-06,0.092
3.940E-06,0.088
3.950E-06,0.092
3.960E-06,0.092
3.970E-06,0.088
3.980E-06,0.088
3.990E-06,0.088
4.000E-06,0.092
4.010E-06,0.092
4.020E-06,0.088
4.030E-06,0.092
4.040E-06,0.092
4.050E-06,0.088
4.060E-06,0.088
4.070E-06,0.084
4.080E-06,0.088
4.090E-06,0.084
4.100E-06,0.088
4.110E-06,0.088
4.120E-06,0.084
4.130E-06,0.084
4.140E-06,0.088
4.150E-06,0.088
4.160E-06,0.088
4.170E-06,0.088
4.180E-06,0.084
4.190E-06,0.080
4.200E-06,0.080
4.210E-06,0.076
4.220E-06,0.080
4.230E-06,0.076
4.240E-06,0.080
4.250E-06,0.084
4.260E-06,0.084
4.270E-06,0.076
4.280E-06,0.080
4.290E-06,0.072
4.300E-06,0.076
4.310E-06,0.080
4.320E-06,0.076
4.330E-06,0.076
4.340E-06,0.084
4.350E-06,0.080
4.360E-06,0.072
4.370E-06,0.072
4.380E-06,0.076
4.390E-06,0.072
4.400E-06,0.076
4.410E-06,0.076
4.420E-06,0.076
4.430E-06,0.076
4.440E-06,0.076
4.450E-06,0.076
4.460E-06,0.072
4.470E-06,0.076
4.480E-06,0.072
4.490E-06,0.072
4.500E-06,0.072
4.510E-06,0.072
4.520E-06,0.072
4.530E-06,0.072
4.540E-06,0.068
4.550E-06,0.072
4.560E-06,0.064
4.570E-06,0.072
4.580E-06,0.072
4.590E-06,0.068
