mediciones/5-27/-17.5/WaveData51114.csv

#timebase=2000000(ps)
,#voltbase=100000(mv/100)
#size=4000
-7.300E-06,0.008
-7.290E-06,0.008
-7.280E-06,0.016
-7.270E-06,0.012
-7.260E-06,0.024
-7.250E-06,0.024
-7.240E-06,0.020
-7.230E-06,0.012
-7.220E-06,-0.020
-7.210E-06,-0.028
-7.200E-06,-0.040
-7.190E-06,-0.012
-7.180E-06,0.012
-7.170E-06,0.024
-7.160E-06,0.024
-7.150E-06,0.004
-7.140E-06,-0.004
-7.130E-06,-0.016
-7.120E-06,-0.004
-7.110E-06,0.004
-7.100E-06,0.008
-7.090E-06,0.008
-7.080E-06,0.004
-7.070E-06,0.004
-7.060E-06,0.008
-7.050E-06,0.012
-7.040E-06,0.012
-7.030E-06,0.000
-7.020E-06,0.000
-7.010E-06,-0.004
-7.000E-06,-0.004
-6.990E-06,0.004
-6.980E-06,0.012
-6.970E-06,0.016
-6.960E-06,0.004
-6.950E-06,0.000
-6.940E-06,-0.004
-6.930E-06,0.000
-6.920E-06,0.024
-6.910E-06,0.028
-6.900E-06,0.028
-6.890E-06,0.004
-6.880E-06,-0.020
-6.870E-06,-0.016
-6.860E-06,-0.004
-6.850E-06,0.012
-6.840E-06,0.032
-6.830E-06,0.036
-6.820E-06,0.028
-6.810E-06,0.028
-6.800E-06,0.000
-6.790E-06,-0.008
-6.780E-06,-0.028
-6.770E-06,-0.040
-6.760E-06,-0.028
-6.750E-06,0.000
-6.740E-06,0.016
-6.730E-06,0.028
-6.720E-06,0.012
-6.710E-06,0.000
-6.700E-06,-0.020
-6.690E-06,-0.016
-6.680E-06,-0.020
-6.670E-06,-0.008
-6.660E-06,0.020
-6.650E-06,0.020
-6.640E-06,0.028
-6.630E-06,0.020
-6.620E-06,0.008
-6.610E-06,0.004
-6.600E-06,0.008
-6.590E-06,0.008
-6.580E-06,0.020
-6.570E-06,0.024
-6.560E-06,0.024
-6.550E-06,0.020
-6.540E-06,0.020
-6.530E-06,0.028
-6.520E-06,0.020
-6.510E-06,0.016
-6.500E-06,0.012
-6.490E-06,-0.004
-6.480E-06,-0.004
-6.470E-06,-0.012
-6.460E-06,0.000
-6.450E-06,-0.004
-6.440E-06,-0.016
-6.430E-06,-0.044
-6.420E-06,-0.008
-6.410E-06,-0.044
-6.400E-06,-0.020
-6.390E-06,0.028
-6.380E-06,0.020
-6.370E-06,0.016
-6.360E-06,-0.004
-6.350E-06,-0.020
-6.340E-06,-0.012
-6.330E-06,0.004
-6.320E-06,0.032
-6.310E-06,0.020
-6.300E-06,-0.024
-6.290E-06,-0.052
-6.280E-06,-0.052
-6.270E-06,-0.016
-6.260E-06,0.040
-6.250E-06,0.060
-6.240E-06,0.044
-6.230E-06,0.008
-6.220E-06,-0.024
-6.210E-06,-0.036
-6.200E-06,-0.008
-6.190E-06,0.044
-6.180E-06,0.076
-6.170E-06,0.060
-6.160E-06,0.008
-6.150E-06,-0.036
-6.140E-06,-0.060
-6.130E-06,-0.032
-6.120E-06,0.000
-6.110E-06,0.024
-6.100E-06,0.036
-6.090E-06,0.020
-6.080E-06,-0.004
-6.070E-06,-0.024
-6.060E-06,-0.020
-6.050E-06,-0.008
-6.040E-06,0.008
-6.030E-06,0.012
-6.020E-06,0.008
-6.010E-06,0.004
-6.000E-06,0.004
-5.990E-06,0.000
-5.980E-06,0.000
-5.970E-06,0.000
-5.960E-06,0.004
-5.950E-06,-0.004
-5.940E-06,0.000
-5.930E-06,0.004
-5.920E-06,0.012
-5.910E-06,0.020
-5.900E-06,0.012
-5.890E-06,0.008
-5.880E-06,0.004
-5.870E-06,0.000
-5.860E-06,0.008
-5.850E-06,0.020
-5.840E-06,0.036
-5.830E-06,0.032
-5.820E-06,0.028
-5.810E-06,0.020
-5.800E-06,0.004
-5.790E-06,-0.008
-5.780E-06,-0.020
-5.770E-06,-0.024
-5.760E-06,-0.012
-5.750E-06,0.000
-5.740E-06,0.024
-5.730E-06,0.040
-5.720E-06,0.032
-5.710E-06,0.016
-5.700E-06,0.000
-5.690E-06,-0.004
-5.680E-06,-0.008
-5.670E-06,0.004
-5.660E-06,0.016
-5.650E-06,0.028
-5.640E-06,0.028
-5.630E-06,-0.028
-5.620E-06,-0.044
-5.610E-06,-0.056
-5.600E-06,-0.040
-5.590E-06,0.000
-5.580E-06,0.016
-5.570E-06,0.032
-5.560E-06,0.008
-5.550E-06,-0.016
-5.540E-06,-0.020
-5.530E-06,-0.004
-5.520E-06,0.008
-5.510E-06,0.008
-5.500E-06,-0.004
-5.490E-06,-0.012
-5.480E-06,-0.008
-5.470E-06,0.004
-5.460E-06,0.012
-5.450E-06,0.020
-5.440E-06,0.012
-5.430E-06,-0.004
-5.420E-06,-0.016
-5.410E-06,-0.012
-5.400E-06,0.004
-5.390E-06,0.028
-5.380E-06,0.036
-5.370E-06,0.024
-5.360E-06,0.012
-5.350E-06,0.008
-5.340E-06,0.004
-5.330E-06,0.016
-5.320E-06,0.028
-5.310E-06,0.024
-5.300E-06,0.000
-5.290E-06,-0.020
-5.280E-06,-0.032
-5.270E-06,-0.028
-5.260E-06,0.008
-5.250E-06,0.036
-5.240E-06,0.044
-5.230E-06,0.020
-5.220E-06,-0.024
-5.210E-06,-0.028
-5.200E-06,-0.096
-5.190E-06,-0.052
-5.180E-06,0.032
-5.170E-06,0.028
-5.160E-06,0.036
-5.150E-06,0.004
-5.140E-06,-0.020
-5.130E-06,-0.024
-5.120E-06,-0.012
-5.110E-06,0.028
-5.100E-06,0.040
-5.090E-06,0.028
-5.080E-06,-0.004
-5.070E-06,-0.012
-5.060E-06,0.000
-5.050E-06,0.032
-5.040E-06,0.068
-5.030E-06,0.008
-5.020E-06,-0.016
-5.010E-06,-0.076
-5.000E-06,-0.060
-4.990E-06,-0.020
-4.980E-06,0.044
-4.970E-06,0.100
-4.960E-06,0.048
-4.950E-06,0.008
-4.940E-06,-0.052
-4.930E-06,-0.036
-4.920E-06,0.004
-4.910E-06,0.012
-4.900E-06,0.012
-4.890E-06,-0.004
-4.880E-06,0.000
-4.870E-06,0.008
-4.860E-06,0.024
-4.850E-06,0.028
-4.840E-06,0.012
-4.830E-06,-0.008
-4.820E-06,-0.036
-4.810E-06,-0.036
-4.800E-06,-0.008
-4.790E-06,0.028
-4.780E-06,0.044
-4.770E-06,0.028
-4.760E-06,-0.004
-4.750E-06,-0.032
-4.740E-06,-0.020
-4.730E-06,-0.004
-4.720E-06,0.024
-4.710E-06,0.028
-4.700E-06,0.020
-4.690E-06,0.004
-4.680E-06,-0.008
-4.670E-06,-0.008
-4.660E-06,-0.004
-4.650E-06,0.012
-4.640E-06,0.016
-4.630E-06,0.020
-4.620E-06,0.012
-4.610E-06,0.004
-4.600E-06,0.004
-4.590E-06,0.016
-4.580E-06,0.032
-4.570E-06,0.032
-4.560E-06,0.028
-4.550E-06,0.020
-4.540E-06,0.020
-4.530E-06,-0.004
-4.520E-06,-0.024
-4.510E-06,-0.052
-4.500E-06,-0.068
-4.490E-06,-0.040
-4.480E-06,-0.008
-4.470E-06,0.032
-4.460E-06,0.056
-4.450E-06,0.048
-4.440E-06,0.008
-4.430E-06,-0.008
-4.420E-06,-0.024
-4.410E-06,-0.028
-4.400E-06,-0.004
-4.390E-06,0.012
-4.380E-06,0.012
-4.370E-06,-0.004
-4.360E-06,-0.004
-4.350E-06,-0.008
-4.340E-06,0.000
-4.330E-06,0.012
-4.320E-06,0.012
-4.310E-06,-0.004
-4.300E-06,-0.020
-4.290E-06,-0.020
-4.280E-06,-0.008
-4.270E-06,0.012
-4.260E-06,0.024
-4.250E-06,0.032
-4.240E-06,0.012
-4.230E-06,0.000
-4.220E-06,-0.020
-4.210E-06,-0.020
-4.200E-06,-0.004
-4.190E-06,0.016
-4.180E-06,0.024
-4.170E-06,0.020
-4.160E-06,0.004
-4.150E-06,-0.004
-4.140E-06,-0.020
-4.130E-06,-0.008
-4.120E-06,0.000
-4.110E-06,0.012
-4.100E-06,0.024
-4.090E-06,0.012
-4.080E-06,-0.004
-4.070E-06,-0.004
-4.060E-06,0.000
-4.050E-06,0.008
-4.040E-06,0.008
-4.030E-06,0.004
-4.020E-06,0.000
-4.010E-06,0.000
-4.000E-06,0.000
-3.990E-06,0.000
-3.980E-06,0.004
-3.970E-06,0.004
-3.960E-06,0.004
-3.950E-06,0.008
-3.940E-06,0.004
-3.930E-06,0.000
-3.920E-06,0.004
-3.910E-06,0.012
-3.900E-06,0.008
-3.890E-06,0.012
-3.880E-06,0.012
-3.870E-06,0.012
-3.860E-06,0.020
-3.850E-06,0.024
-3.840E-06,0.028
-3.830E-06,0.028
-3.820E-06,0.028
-3.810E-06,0.028
-3.800E-06,0.040
-3.790E-06,-0.016
-3.780E-06,-0.032
-3.770E-06,-0.056
-3.760E-06,-0.060
-3.750E-06,-0.008
-3.740E-06,0.028
-3.730E-06,0.056
-3.720E-06,0.064
-3.710E-06,0.024
-3.700E-06,-0.012
-3.690E-06,-0.052
-3.680E-06,-0.064
-3.670E-06,-0.024
-3.660E-06,0.012
-3.650E-06,0.036
-3.640E-06,0.044
-3.630E-06,0.024
-3.620E-06,0.012
-3.610E-06,0.000
-3.600E-06,0.000
-3.590E-06,-0.004
-3.580E-06,-0.008
-3.570E-06,-0.008
-3.560E-06,-0.012
-3.550E-06,-0.012
-3.540E-06,0.004
-3.530E-06,0.008
-3.520E-06,0.016
-3.510E-06,0.004
-3.500E-06,-0.008
-3.490E-06,-0.012
-3.480E-06,-0.008
-3.470E-06,0.004
-3.460E-06,0.016
-3.450E-06,0.028
-3.440E-06,0.028
-3.430E-06,0.008
-3.420E-06,-0.004
-3.410E-06,-0.020
-3.400E-06,0.000
-3.390E-06,0.012
-3.380E-06,0.036
-3.370E-06,0.032
-3.360E-06,0.024
-3.350E-06,0.008
-3.340E-06,-0.008
-3.330E-06,-0.012
-3.320E-06,-0.004
-3.310E-06,0.008
-3.300E-06,0.008
-3.290E-06,0.000
-3.280E-06,-0.004
-3.270E-06,-0.004
-3.260E-06,0.000
-3.250E-06,0.004
-3.240E-06,0.008
-3.230E-06,0.000
-3.220E-06,0.004
-3.210E-06,0.004
-3.200E-06,0.000
-3.190E-06,0.000
-3.180E-06,0.004
-3.170E-06,0.008
-3.160E-06,0.016
-3.150E-06,0.004
-3.140E-06,0.004
-3.130E-06,0.004
-3.120E-06,0.000
-3.110E-06,0.004
-3.100E-06,0.008
-3.090E-06,0.008
-3.080E-06,0.012
-3.070E-06,0.008
-3.060E-06,0.012
-3.050E-06,0.008
-3.040E-06,0.016
-3.030E-06,0.016
-3.020E-06,0.028
-3.010E-06,0.028
-3.000E-06,0.028
-2.990E-06,0.028
-2.980E-06,0.016
-2.970E-06,0.012
-2.960E-06,0.016
-2.950E-06,0.024
-2.940E-06,0.044
-2.930E-06,0.032
-2.920E-06,-0.004
-2.910E-06,-0.048
-2.900E-06,-0.076
-2.890E-06,-0.052
-2.880E-06,-0.004
-2.870E-06,0.032
-2.860E-06,0.036
-2.850E-06,0.004
-2.840E-06,-0.032
-2.830E-06,-0.056
-2.820E-06,-0.052
-2.810E-06,-0.020
-2.800E-06,0.008
-2.790E-06,0.044
-2.780E-06,0.036
-2.770E-06,0.008
-2.760E-06,-0.020
-2.750E-06,-0.036
-2.740E-06,-0.016
-2.730E-06,0.000
-2.720E-06,0.024
-2.710E-06,0.028
-2.700E-06,0.016
-2.690E-06,-0.008
-2.680E-06,-0.016
-2.670E-06,-0.008
-2.660E-06,-0.008
-2.650E-06,0.008
-2.640E-06,0.028
-2.630E-06,0.024
-2.620E-06,0.008
-2.610E-06,0.008
-2.600E-06,0.004
-2.590E-06,0.008
-2.580E-06,0.012
-2.570E-06,0.024
-2.560E-06,0.028
-2.550E-06,0.020
-2.540E-06,0.020
-2.530E-06,0.024
-2.520E-06,0.028
-2.510E-06,0.032
-2.500E-06,0.040
-2.490E-06,0.040
-2.480E-06,0.048
-2.470E-06,0.016
-2.460E-06,-0.008
-2.450E-06,-0.040
-2.440E-06,-0.056
-2.430E-06,-0.048
-2.420E-06,-0.016
-2.410E-06,0.008
-2.400E-06,0.024
-2.390E-06,0.028
-2.380E-06,0.012
-2.370E-06,-0.004
-2.360E-06,-0.004
-2.350E-06,0.000
-2.340E-06,0.008
-2.330E-06,0.004
-2.320E-06,0.008
-2.310E-06,0.008
-2.300E-06,0.008
-2.290E-06,0.004
-2.280E-06,0.008
-2.270E-06,0.024
-2.260E-06,0.032
-2.250E-06,0.036
-2.240E-06,0.016
-2.230E-06,0.004
-2.220E-06,0.012
-2.210E-06,0.024
-2.200E-06,0.036
-2.190E-06,0.064
-2.180E-06,0.096
-2.170E-06,0.060
-2.160E-06,-0.004
-2.150E-06,-0.088
-2.140E-06,-0.124
-2.130E-06,-0.096
-2.120E-06,-0.052
-2.110E-06,0.024
-2.100E-06,0.068
-2.090E-06,0.092
-2.080E-06,0.060
-2.070E-06,0.016
-2.060E-06,-0.012
-2.050E-06,-0.008
-2.040E-06,0.016
-2.030E-06,0.072
-2.020E-06,0.084
-2.010E-06,0.048
-2.000E-06,0.008
-1.990E-06,-0.028
-1.980E-06,-0.048
-1.970E-06,-0.024
-1.960E-06,0.008
-1.950E-06,0.044
-1.940E-06,0.044
-1.930E-06,0.020
-1.920E-06,-0.032
-1.910E-06,-0.104
-1.900E-06,-0.128
-1.890E-06,-0.100
-1.880E-06,-0.056
-1.870E-06,0.036
-1.860E-06,0.068
-1.850E-06,0.024
-1.840E-06,-0.020
-1.830E-06,-0.016
-1.820E-06,-0.004
-1.810E-06,-0.032
-1.800E-06,0.036
-1.790E-06,0.052
-1.780E-06,0.044
-1.770E-06,-0.004
-1.760E-06,-0.060
-1.750E-06,-0.088
-1.740E-06,-0.084
-1.730E-06,-0.024
-1.720E-06,0.020
-1.710E-06,0.076
-1.700E-06,0.084
-1.690E-06,0.068
-1.680E-06,0.020
-1.670E-06,0.000
-1.660E-06,-0.020
-1.650E-06,-0.020
-1.640E-06,-0.036
-1.630E-06,-0.052
-1.620E-06,-0.028
-1.610E-06,-0.012
-1.600E-06,0.036
-1.590E-06,0.044
-1.580E-06,0.036
-1.570E-06,0.020
-1.560E-06,-0.004
-1.550E-06,-0.016
-1.540E-06,-0.016
-1.530E-06,0.008
-1.520E-06,0.040
-1.510E-06,0.056
-1.500E-06,0.068
-1.490E-06,0.052
-1.480E-06,0.024
-1.470E-06,0.028
-1.460E-06,0.012
-1.450E-06,-0.024
-1.440E-06,-0.052
-1.430E-06,-0.084
-1.420E-06,-0.052
-1.410E-06,-0.040
-1.400E-06,-0.024
-1.390E-06,0.016
-1.380E-06,0.024
-1.370E-06,0.016
-1.360E-06,-0.004
-1.350E-06,-0.008
-1.340E-06,-0.016
-1.330E-06,-0.012
-1.320E-06,-0.020
-1.310E-06,-0.008
-1.300E-06,-0.004
-1.290E-06,0.004
-1.280E-06,0.004
-1.270E-06,0.008
-1.260E-06,0.000
-1.250E-06,-0.008
-1.240E-06,-0.008
-1.230E-06,-0.008
-1.220E-06,0.012
-1.210E-06,0.016
-1.200E-06,0.020
-1.190E-06,0.020
-1.180E-06,0.008
-1.170E-06,0.004
-1.160E-06,-0.004
-1.150E-06,0.004
-1.140E-06,0.008
-1.130E-06,0.016
-1.120E-06,0.028
-1.110E-06,0.028
-1.100E-06,0.028
-1.090E-06,0.032
-1.080E-06,0.028
-1.070E-06,0.032
-1.060E-06,0.048
-1.050E-06,0.060
-1.040E-06,0.060
-1.030E-06,0.056
-1.020E-06,0.048
-1.010E-06,0.020
-1.000E-06,-0.008
-9.900E-07,-0.036
-9.800E-07,-0.048
-9.700E-07,-0.044
-9.600E-07,-0.036
-9.500E-07,-0.032
-9.400E-07,-0.028
-9.300E-07,-0.020
-9.200E-07,-0.016
-9.100E-07,-0.012
-9.000E-07,-0.012
-8.900E-07,-0.004
-8.800E-07,-0.008
-8.700E-07,-0.004
-8.600E-07,-0.004
-8.500E-07,0.008
-8.400E-07,0.008
-8.300E-07,0.008
-8.200E-07,0.008
-8.100E-07,-0.008
-8.000E-07,-0.004
-7.900E-07,-0.004
-7.800E-07,0.008
-7.700E-07,0.016
-7.600E-07,0.032
-7.500E-07,0.028
-7.400E-07,0.028
-7.300E-07,0.012
-7.200E-07,0.024
-7.100E-07,0.028
-7.000E-07,0.040
-6.900E-07,0.048
-6.800E-07,0.056
-6.700E-07,0.060
-6.600E-07,0.060
-6.500E-07,0.068
-6.400E-07,0.072
-6.300E-07,0.072
-6.200E-07,0.084
-6.100E-07,0.076
-6.000E-07,0.084
-5.900E-07,0.072
-5.800E-07,0.060
-5.700E-07,0.040
-5.600E-07,0.004
-5.500E-07,-0.016
-5.400E-07,-0.032
-5.300E-07,-0.016
-5.200E-07,-0.016
-5.100E-07,-0.008
-5.000E-07,-0.004
-4.900E-07,-0.004
-4.800E-07,0.004
-4.700E-07,0.000
-4.600E-07,-0.020
-4.500E-07,-0.040
-4.400E-07,-0.052
-4.300E-07,-0.052
-4.200E-07,-0.028
-4.100E-07,-0.008
-4.000E-07,0.012
-3.900E-07,0.020
-3.800E-07,0.008
-3.700E-07,-0.004
-3.600E-07,-0.016
-3.500E-07,-0.020
-3.400E-07,-0.016
-3.300E-07,-0.004
-3.200E-07,0.020
-3.100E-07,0.040
-3.000E-07,0.060
-2.900E-07,0.068
-2.800E-07,0.072
-2.700E-07,0.072
-2.600E-07,0.076
-2.500E-07,0.084
-2.400E-07,0.088
-2.300E-07,0.092
-2.200E-07,0.104
-2.100E-07,0.112
-2.000E-07,0.108
-1.900E-07,0.108
-1.800E-07,0.104
-1.700E-07,0.096
-1.600E-07,0.092
-1.500E-07,0.092
-1.400E-07,0.088
-1.300E-07,0.092
-1.200E-07,0.092
-1.100E-07,0.088
-1.000E-07,0.076
-9.000E-08,0.092
-8.000E-08,0.100
-7.000E-08,0.104
-6.000E-08,0.112
-5.000E-08,0.048
-4.000E-08,-0.016
-3.000E-08,-0.060
-2.000E-08,0.028
-1.000E-08,0.120
0.000E+00,0.268
1.000E-08,0.224
2.000E-08,-0.060
3.000E-08,-0.472
4.000E-08,-0.512
5.000E-08,-0.512
6.000E-08,-0.512
7.000E-08,-0.272
8.000E-08,0.408
9.000E-08,0.540
1.000E-07,0.544
1.100E-07,0.228
1.200E-07,-0.188
1.300E-07,-0.444
1.400E-07,-0.428
1.500E-07,-0.160
1.600E-07,0.100
1.700E-07,0.256
1.800E-07,0.188
1.900E-07,0.028
2.000E-07,-0.124
2.100E-07,-0.160
2.200E-07,-0.092
2.300E-07,-0.024
2.400E-07,0.044
2.500E-07,0.060
2.600E-07,0.020
2.700E-07,-0.012
2.800E-07,-0.060
2.900E-07,-0.048
3.000E-07,-0.032
3.100E-07,0.028
3.200E-07,0.044
3.300E-07,0.056
3.400E-07,0.040
3.500E-07,-0.008
3.600E-07,-0.016
3.700E-07,-0.012
3.800E-07,-0.024
3.900E-07,0.028
4.000E-07,0.060
4.100E-07,0.068
4.200E-07,0.020
4.300E-07,0.004
4.400E-07,-0.028
4.500E-07,-0.036
4.600E-07,-0.008
4.700E-07,0.036
4.800E-07,0.076
4.900E-07,0.092
5.000E-07,0.080
5.100E-07,0.032
5.200E-07,0.012
5.300E-07,0.008
5.400E-07,0.036
5.500E-07,0.088
5.600E-07,0.144
5.700E-07,0.176
5.800E-07,0.180
5.900E-07,0.152
6.000E-07,0.124
6.100E-07,0.104
6.200E-07,0.104
6.300E-07,0.128
6.400E-07,0.152
6.500E-07,0.176
6.600E-07,0.172
6.700E-07,0.160
6.800E-07,0.132
6.900E-07,0.120
7.000E-07,0.104
7.100E-07,0.108
7.200E-07,0.124
7.300E-07,0.140
7.400E-07,0.136
7.500E-07,0.124
7.600E-07,0.104
7.700E-07,-0.028
7.800E-07,-0.108
7.900E-07,-0.240
8.000E-07,-0.316
8.100E-07,-0.336
8.200E-07,-0.360
8.300E-07,-0.256
8.400E-07,-0.100
8.500E-07,0.140
8.600E-07,0.320
8.700E-07,0.312
8.800E-07,0.228
8.900E-07,0.068
9.000E-07,-0.036
9.100E-07,-0.152
9.200E-07,-0.112
9.300E-07,-0.028
9.400E-07,0.104
9.500E-07,0.196
9.600E-07,0.196
9.700E-07,0.112
9.800E-07,-0.020
9.900E-07,-0.140
1.000E-06,-0.184
1.010E-06,-0.136
1.020E-06,-0.008
1.030E-06,0.136
1.040E-06,0.232
1.050E-06,0.260
1.060E-06,0.200
1.070E-06,0.136
1.080E-06,0.072
1.090E-06,0.064
1.100E-06,0.076
1.110E-06,0.076
1.120E-06,0.060
1.130E-06,0.016
1.140E-06,-0.036
1.150E-06,-0.096
1.160E-06,-0.136
1.170E-06,-0.244
1.180E-06,-0.316
1.190E-06,-0.376
1.200E-06,-0.308
1.210E-06,-0.168
1.220E-06,-0.008
1.230E-06,0.088
1.240E-06,0.044
1.250E-06,-0.024
1.260E-06,-0.136
1.270E-06,-0.176
1.280E-06,-0.104
1.290E-06,0.012
1.300E-06,0.088
1.310E-06,0.092
1.320E-06,0.032
1.330E-06,-0.032
1.340E-06,-0.084
1.350E-06,-0.088
1.360E-06,-0.032
1.370E-06,0.036
1.380E-06,0.072
1.390E-06,0.072
1.400E-06,0.052
1.410E-06,0.024
1.420E-06,0.008
1.430E-06,-0.004
1.440E-06,0.020
1.450E-06,0.032
1.460E-06,0.072
1.470E-06,0.088
1.480E-06,0.088
1.490E-06,0.068
1.500E-06,0.060
1.510E-06,0.052
1.520E-06,0.060
1.530E-06,0.104
1.540E-06,0.128
1.550E-06,0.140
1.560E-06,0.124
1.570E-06,0.116
1.580E-06,0.104
1.590E-06,0.108
1.600E-06,0.120
1.610E-06,0.136
1.620E-06,0.144
1.630E-06,0.152
1.640E-06,0.160
1.650E-06,0.148
1.660E-06,0.148
1.670E-06,0.144
1.680E-06,0.152
1.690E-06,0.160
1.700E-06,0.164
1.710E-06,0.172
1.720E-06,0.160
1.730E-06,0.152
1.740E-06,0.136
1.750E-06,0.124
1.760E-06,0.104
1.770E-06,0.108
1.780E-06,0.096
1.790E-06,0.076
1.800E-06,0.044
1.810E-06,0.016
1.820E-06,-0.004
1.830E-06,-0.016
1.840E-06,-0.012
1.850E-06,0.000
1.860E-06,0.024
1.870E-06,0.052
1.880E-06,0.068
1.890E-06,0.088
1.900E-06,0.072
1.910E-06,0.048
1.920E-06,0.008
1.930E-06,-0.004
1.940E-06,-0.004
1.950E-06,0.016
1.960E-06,0.044
1.970E-06,0.060
1.980E-06,0.060
1.990E-06,0.052
2.000E-06,0.032
2.010E-06,0.032
2.020E-06,0.044
2.030E-06,0.080
2.040E-06,0.116
2.050E-06,0.148
2.060E-06,0.168
2.070E-06,0.184
2.080E-06,0.188
2.090E-06,0.184
2.100E-06,0.176
2.110E-06,0.172
2.120E-06,0.172
2.130E-06,0.160
2.140E-06,0.164
2.150E-06,0.160
2.160E-06,0.160
2.170E-06,0.156
2.180E-06,0.148
2.190E-06,0.140
2.200E-06,0.136
2.210E-06,0.132
2.220E-06,0.132
2.230E-06,0.124
2.240E-06,0.120
2.250E-06,0.120
2.260E-06,0.112
2.270E-06,0.108
2.280E-06,0.112
2.290E-06,0.120
2.300E-06,0.128
2.310E-06,0.136
2.320E-06,0.152
2.330E-06,0.160
2.340E-06,0.164
2.350E-06,0.164
2.360E-06,0.160
2.370E-06,0.160
2.380E-06,0.164
2.390E-06,0.160
2.400E-06,0.156
2.410E-06,0.164
2.420E-06,0.164
2.430E-06,0.176
2.440E-06,0.172
2.450E-06,0.176
2.460E-06,0.172
2.470E-06,0.160
2.480E-06,0.160
2.490E-06,0.160
2.500E-06,0.164
2.510E-06,0.164
2.520E-06,0.168
2.530E-06,0.156
2.540E-06,0.156
2.550E-06,0.156
2.560E-06,0.152
2.570E-06,0.156
2.580E-06,0.160
2.590E-06,0.164
2.600E-06,0.160
2.610E-06,0.160
2.620E-06,0.160
2.630E-06,0.156
2.640E-06,0.156
2.650E-06,0.160
2.660E-06,0.156
2.670E-06,0.152
2.680E-06,0.152
2.690E-06,0.156
2.700E-06,0.152
2.710E-06,0.152
2.720E-06,0.152
2.730E-06,0.156
2.740E-06,0.152
2.750E-06,0.156
2.760E-06,0.152
2.770E-06,0.152
2.780E-06,0.156
2.790E-06,0.160
2.800E-06,0.152
2.810E-06,0.152
2.820E-06,0.152
2.830E-06,0.152
2.840E-06,0.148
2.850E-06,0.152
2.860E-06,0.148
2.870E-06,0.148
2.880E-06,0.152
2.890E-06,0.152
2.900E-06,0.160
2.910E-06,0.156
2.920E-06,0.152
2.930E-06,0.152
2.940E-06,0.156
2.950E-06,0.160
2.960E-06,0.152
2.970E-06,0.156
2.980E-06,0.164
2.990E-06,0.164
3.000E-06,0.156
3.010E-06,0.140
3.020E-06,0.132
3.030E-06,0.124
3.040E-06,0.124
3.050E-06,0.128
3.060E-06,0.140
3.070E-06,0.156
3.080E-06,0.164
3.090E-06,0.152
3.100E-06,0.148
3.110E-06,0.156
3.120E-06,0.156
3.130E-06,0.160
3.140E-06,0.156
3.150E-06,0.152
3.160E-06,0.148
3.170E-06,0.148
3.180E-06,0.144
3.190E-06,0.136
3.200E-06,0.136
3.210E-06,0.140
3.220E-06,0.140
3.230E-06,0.152
3.240E-06,0.152
3.250E-06,0.152
3.260E-06,0.144
3.270E-06,0.140
3.280E-06,0.144
3.290E-06,0.140
3.300E-06,0.140
3.310E-06,0.144
3.320E-06,0.144
3.330E-06,0.136
3.340E-06,0.136
3.350E-06,0.140
3.360E-06,0.140
3.370E-06,0.128
3.380E-06,0.128
3.390E-06,0.128
3.400E-06,0.132
3.410E-06,0.140
3.420E-06,0.136
3.430E-06,0.144
3.440E-06,0.144
3.450E-06,0.140
3.460E-06,0.132
3.470E-06,0.132
3.480E-06,0.140
3.490E-06,0.140
3.500E-06,0.140
3.510E-06,0.140
3.520E-06,0.140
3.530E-06,0.140
3.540E-06,0.136
3.550E-06,0.140
3.560E-06,0.136
3.570E-06,0.140
3.580E-06,0.136
3.590E-06,0.140
3.600E-06,0.140
3.610E-06,0.136
3.620E-06,0.132
3.630E-06,0.132
3.640E-06,0.132
3.650E-06,0.136
3.660E-06,0.136
3.670E-06,0.136
3.680E-06,0.132
3.690E-06,0.128
3.700E-06,0.128
3.710E-06,0.124
3.720E-06,0.124
3.730E-06,0.128
3.740E-06,0.140
3.750E-06,0.140
3.760E-06,0.136
3.770E-06,0.132
3.780E-06,0.124
3.790E-06,0.124
3.800E-06,0.128
3.810E-06,0.136
3.820E-06,0.140
3.830E-06,0.140
3.840E-06,0.132
3.850E-06,0.128
3.860E-06,0.124
3.870E-06,0.124
3.880E-06,0.128
3.890E-06,0.128
3.900E-06,0.128
3.910E-06,0.128
3.920E-06,0.124
3.930E-06,0.124
3.940E-06,0.124
3.950E-06,0.124
3.960E-06,0.128
3.970E-06,0.128
3.980E-06,0.128
3.990E-06,0.128
4.000E-06,0.128
4.010E-06,0.128
4.020E-06,0.124
4.030E-06,0.124
4.040E-06,0.128
4.050E-06,0.124
4.060E-06,0.124
4.070E-06,0.120
4.080E-06,0.120
4.090E-06,0.120
4.100E-06,0.120
4.110E-06,0.120
4.120E-06,0.124
4.130E-06,0.120
4.140E-06,0.124
4.150E-06,0.124
4.160E-06,0.124
4.170E-06,0.124
4.180E-06,0.120
4.190E-06,0.124
4.200E-06,0.124
4.210E-06,0.124
4.220E-06,0.124
4.230E-06,0.124
4.240E-06,0.120
4.250E-06,0.124
4.260E-06,0.112
4.270E-06,0.120
4.280E-06,0.120
4.290E-06,0.120
4.300E-06,0.120
4.310E-06,0.116
4.320E-06,0.112
4.330E-06,0.112
4.340E-06,0.108
4.350E-06,0.108
4.360E-06,0.112
4.370E-06,0.112
4.380E-06,0.112
4.390E-06,0.108
4.400E-06,0.108
4.410E-06,0.100
4.420E-06,0.108
4.430E-06,0.108
4.440E-06,0.112
4.450E-06,0.116
4.460E-06,0.112
4.470E-06,0.112
4.480E-06,0.108
4.490E-06,0.112
