mediciones/5-27/-17.5/WaveData51131.csv

#timebase=2000000(ps)
,#voltbase=1000000(mv/100)
#size=4000
-7.300E-06,0.000
-7.290E-06,0.040
-7.280E-06,0.120
-7.270E-06,0.000
-7.260E-06,0.080
-7.250E-06,0.080
-7.240E-06,0.080
-7.230E-06,0.080
-7.220E-06,0.040
-7.210E-06,0.040
-7.200E-06,0.040
-7.190E-06,0.040
-7.180E-06,0.040
-7.170E-06,0.080
-7.160E-06,0.080
-7.150E-06,0.080
-7.140E-06,0.040
-7.130E-06,0.040
-7.120E-06,0.040
-7.110E-06,0.080
-7.100E-06,0.040
-7.090E-06,0.000
-7.080E-06,0.120
-7.070E-06,-0.160
-7.060E-06,0.160
-7.050E-06,0.080
-7.040E-06,0.000
-7.030E-06,0.160
-7.020E-06,-0.080
-7.010E-06,0.160
-7.000E-06,-0.160
-6.990E-06,-0.040
-6.980E-06,0.240
-6.970E-06,-0.080
-6.960E-06,0.120
-6.950E-06,0.000
-6.940E-06,0.000
-6.930E-06,0.000
-6.920E-06,-0.040
-6.910E-06,0.120
-6.900E-06,0.080
-6.890E-06,0.080
-6.880E-06,0.040
-6.870E-06,0.000
-6.860E-06,0.000
-6.850E-06,0.040
-6.840E-06,0.080
-6.830E-06,0.080
-6.820E-06,0.080
-6.810E-06,0.080
-6.800E-06,0.000
-6.790E-06,0.080
-6.780E-06,0.120
-6.770E-06,0.080
-6.760E-06,0.080
-6.750E-06,0.080
-6.740E-06,0.080
-6.730E-06,0.080
-6.720E-06,0.080
-6.710E-06,0.040
-6.700E-06,0.080
-6.690E-06,0.040
-6.680E-06,0.080
-6.670E-06,0.040
-6.660E-06,0.040
-6.650E-06,0.120
-6.640E-06,0.040
-6.630E-06,0.040
-6.620E-06,0.040
-6.610E-06,0.040
-6.600E-06,0.000
-6.590E-06,0.040
-6.580E-06,0.040
-6.570E-06,0.080
-6.560E-06,0.000
-6.550E-06,0.040
-6.540E-06,0.000
-6.530E-06,0.000
-6.520E-06,0.040
-6.510E-06,0.040
-6.500E-06,0.040
-6.490E-06,0.000
-6.480E-06,0.000
-6.470E-06,0.040
-6.460E-06,0.000
-6.450E-06,0.000
-6.440E-06,0.040
-6.430E-06,0.040
-6.420E-06,0.080
-6.410E-06,0.080
-6.400E-06,0.080
-6.390E-06,0.080
-6.380E-06,0.040
-6.370E-06,0.040
-6.360E-06,0.080
-6.350E-06,0.080
-6.340E-06,0.080
-6.330E-06,0.080
-6.320E-06,0.080
-6.310E-06,0.040
-6.300E-06,0.040
-6.290E-06,0.040
-6.280E-06,0.040
-6.270E-06,0.040
-6.260E-06,0.040
-6.250E-06,0.040
-6.240E-06,0.080
-6.230E-06,0.000
-6.220E-06,0.000
-6.210E-06,0.080
-6.200E-06,0.040
-6.190E-06,0.000
-6.180E-06,0.040
-6.170E-06,0.000
-6.160E-06,0.080
-6.150E-06,0.040
-6.140E-06,0.080
-6.130E-06,0.040
-6.120E-06,0.040
-6.110E-06,0.080
-6.100E-06,0.040
-6.090E-06,0.040
-6.080E-06,0.040
-6.070E-06,0.080
-6.060E-06,0.080
-6.050E-06,0.160
-6.040E-06,0.120
-6.030E-06,0.120
-6.020E-06,0.080
-6.010E-06,0.080
-6.000E-06,0.040
-5.990E-06,0.040
-5.980E-06,0.080
-5.970E-06,0.080
-5.960E-06,0.160
-5.950E-06,0.080
-5.940E-06,0.040
-5.930E-06,0.000
-5.920E-06,0.040
-5.910E-06,0.080
-5.900E-06,0.000
-5.890E-06,0.040
-5.880E-06,0.040
-5.870E-06,0.000
-5.860E-06,0.000
-5.850E-06,-0.040
-5.840E-06,0.000
-5.830E-06,-0.040
-5.820E-06,-0.040
-5.810E-06,0.000
-5.800E-06,-0.040
-5.790E-06,0.000
-5.780E-06,0.000
-5.770E-06,0.080
-5.760E-06,0.080
-5.750E-06,0.160
-5.740E-06,0.080
-5.730E-06,0.040
-5.720E-06,0.040
-5.710E-06,0.080
-5.700E-06,0.080
-5.690E-06,0.120
-5.680E-06,0.160
-5.670E-06,0.120
-5.660E-06,0.080
-5.650E-06,0.120
-5.640E-06,0.040
-5.630E-06,0.040
-5.620E-06,0.080
-5.610E-06,0.040
-5.600E-06,0.080
-5.590E-06,0.040
-5.580E-06,0.040
-5.570E-06,0.040
-5.560E-06,0.080
-5.550E-06,0.040
-5.540E-06,0.080
-5.530E-06,-0.040
-5.520E-06,0.000
-5.510E-06,-0.040
-5.500E-06,0.000
-5.490E-06,-0.040
-5.480E-06,0.000
-5.470E-06,-0.040
-5.460E-06,-0.040
-5.450E-06,-0.040
-5.440E-06,0.000
-5.430E-06,0.080
-5.420E-06,0.040
-5.410E-06,0.080
-5.400E-06,0.080
-5.390E-06,0.080
-5.380E-06,0.040
-5.370E-06,0.080
-5.360E-06,0.120
-5.350E-06,0.160
-5.340E-06,0.120
-5.330E-06,0.160
-5.320E-06,0.000
-5.310E-06,0.000
-5.300E-06,0.000
-5.290E-06,0.000
-5.280E-06,0.080
-5.270E-06,0.080
-5.260E-06,0.120
-5.250E-06,0.080
-5.240E-06,0.080
-5.230E-06,0.080
-5.220E-06,0.080
-5.210E-06,0.120
-5.200E-06,0.120
-5.190E-06,0.160
-5.180E-06,0.160
-5.170E-06,0.080
-5.160E-06,0.120
-5.150E-06,0.120
-5.140E-06,0.040
-5.130E-06,0.080
-5.120E-06,0.080
-5.110E-06,0.040
-5.100E-06,0.040
-5.090E-06,0.000
-5.080E-06,0.000
-5.070E-06,0.000
-5.060E-06,0.000
-5.050E-06,0.000
-5.040E-06,0.040
-5.030E-06,0.000
-5.020E-06,-0.040
-5.010E-06,0.040
-5.000E-06,0.080
-4.990E-06,0.000
-4.980E-06,0.000
-4.970E-06,0.000
-4.960E-06,0.000
-4.950E-06,0.000
-4.940E-06,0.040
-4.930E-06,0.040
-4.920E-06,0.000
-4.910E-06,0.040
-4.900E-06,-0.040
-4.890E-06,0.040
-4.880E-06,0.040
-4.870E-06,0.040
-4.860E-06,0.080
-4.850E-06,0.000
-4.840E-06,0.040
-4.830E-06,0.040
-4.820E-06,0.040
-4.810E-06,0.000
-4.800E-06,0.040
-4.790E-06,0.000
-4.780E-06,0.080
-4.770E-06,0.040
-4.760E-06,0.040
-4.750E-06,0.040
-4.740E-06,0.040
-4.730E-06,0.040
-4.720E-06,0.040
-4.710E-06,0.040
-4.700E-06,0.080
-4.690E-06,0.000
-4.680E-06,0.000
-4.670E-06,0.040
-4.660E-06,0.040
-4.650E-06,0.040
-4.640E-06,-0.040
-4.630E-06,0.000
-4.620E-06,0.000
-4.610E-06,0.000
-4.600E-06,0.000
-4.590E-06,0.040
-4.580E-06,0.040
-4.570E-06,0.040
-4.560E-06,0.080
-4.550E-06,0.080
-4.540E-06,0.040
-4.530E-06,0.080
-4.520E-06,0.160
-4.510E-06,0.120
-4.500E-06,0.160
-4.490E-06,0.200
-4.480E-06,0.120
-4.470E-06,0.120
-4.460E-06,0.160
-4.450E-06,0.160
-4.440E-06,0.200
-4.430E-06,0.160
-4.420E-06,0.120
-4.410E-06,0.120
-4.400E-06,0.160
-4.390E-06,0.120
-4.380E-06,0.160
-4.370E-06,0.080
-4.360E-06,0.120
-4.350E-06,0.120
-4.340E-06,0.080
-4.330E-06,0.080
-4.320E-06,0.080
-4.310E-06,0.040
-4.300E-06,0.000
-4.290E-06,0.040
-4.280E-06,0.040
-4.270E-06,0.040
-4.260E-06,0.040
-4.250E-06,0.040
-4.240E-06,0.040
-4.230E-06,0.040
-4.220E-06,-0.040
-4.210E-06,-0.040
-4.200E-06,-0.040
-4.190E-06,0.040
-4.180E-06,0.000
-4.170E-06,0.000
-4.160E-06,-0.040
-4.150E-06,0.000
-4.140E-06,0.000
-4.130E-06,0.000
-4.120E-06,0.000
-4.110E-06,0.040
-4.100E-06,0.080
-4.090E-06,0.000
-4.080E-06,0.080
-4.070E-06,0.120
-4.060E-06,0.120
-4.050E-06,0.040
-4.040E-06,0.080
-4.030E-06,0.080
-4.020E-06,0.080
-4.010E-06,0.120
-4.000E-06,0.080
-3.990E-06,0.160
-3.980E-06,0.120
-3.970E-06,0.160
-3.960E-06,0.160
-3.950E-06,0.160
-3.940E-06,0.160
-3.930E-06,0.160
-3.920E-06,0.160
-3.910E-06,0.200
-3.900E-06,0.160
-3.890E-06,0.160
-3.880E-06,0.160
-3.870E-06,0.120
-3.860E-06,0.160
-3.850E-06,0.160
-3.840E-06,0.160
-3.830E-06,0.120
-3.820E-06,0.080
-3.810E-06,0.080
-3.800E-06,0.080
-3.790E-06,0.080
-3.780E-06,0.040
-3.770E-06,0.080
-3.760E-06,0.040
-3.750E-06,0.040
-3.740E-06,0.080
-3.730E-06,0.120
-3.720E-06,0.000
-3.710E-06,0.000
-3.700E-06,0.040
-3.690E-06,0.040
-3.680E-06,0.040
-3.670E-06,0.080
-3.660E-06,0.080
-3.650E-06,0.040
-3.640E-06,0.040
-3.630E-06,0.080
-3.620E-06,0.120
-3.610E-06,0.160
-3.600E-06,0.200
-3.590E-06,0.320
-3.580E-06,0.280
-3.570E-06,0.240
-3.560E-06,0.240
-3.550E-06,0.200
-3.540E-06,0.240
-3.530E-06,0.280
-3.520E-06,0.240
-3.510E-06,0.240
-3.500E-06,0.200
-3.490E-06,0.200
-3.480E-06,0.200
-3.470E-06,0.240
-3.460E-06,0.200
-3.450E-06,0.200
-3.440E-06,0.200
-3.430E-06,0.240
-3.420E-06,0.120
-3.410E-06,0.120
-3.400E-06,0.120
-3.390E-06,0.120
-3.380E-06,0.160
-3.370E-06,0.120
-3.360E-06,0.080
-3.350E-06,0.080
-3.340E-06,0.000
-3.330E-06,0.000
-3.320E-06,0.040
-3.310E-06,0.080
-3.300E-06,0.040
-3.290E-06,0.040
-3.280E-06,0.080
-3.270E-06,0.000
-3.260E-06,0.000
-3.250E-06,-0.040
-3.240E-06,0.040
-3.230E-06,0.000
-3.220E-06,0.080
-3.210E-06,0.080
-3.200E-06,0.040
-3.190E-06,0.040
-3.180E-06,-0.040
-3.170E-06,0.040
-3.160E-06,0.160
-3.150E-06,0.280
-3.140E-06,0.360
-3.130E-06,0.320
-3.120E-06,0.360
-3.110E-06,0.240
-3.100E-06,0.320
-3.090E-06,0.360
-3.080E-06,0.440
-3.070E-06,0.440
-3.060E-06,0.440
-3.050E-06,0.440
-3.040E-06,0.400
-3.030E-06,0.360
-3.020E-06,0.400
-3.010E-06,0.400
-3.000E-06,0.440
-2.990E-06,0.360
-2.980E-06,0.320
-2.970E-06,0.280
-2.960E-06,0.320
-2.950E-06,0.320
-2.940E-06,0.400
-2.930E-06,0.400
-2.920E-06,0.320
-2.910E-06,0.320
-2.900E-06,0.240
-2.890E-06,0.320
-2.880E-06,0.400
-2.870E-06,0.440
-2.860E-06,0.520
-2.850E-06,0.480
-2.840E-06,0.400
-2.830E-06,0.400
-2.820E-06,0.360
-2.810E-06,0.360
-2.800E-06,0.400
-2.790E-06,0.320
-2.780E-06,0.320
-2.770E-06,0.280
-2.760E-06,0.320
-2.750E-06,0.320
-2.740E-06,0.240
-2.730E-06,0.280
-2.720E-06,0.240
-2.710E-06,0.160
-2.700E-06,0.200
-2.690E-06,0.240
-2.680E-06,0.200
-2.670E-06,0.160
-2.660E-06,0.160
-2.650E-06,0.200
-2.640E-06,0.080
-2.630E-06,0.120
-2.620E-06,0.160
-2.610E-06,0.120
-2.600E-06,0.160
-2.590E-06,0.080
-2.580E-06,0.080
-2.570E-06,0.120
-2.560E-06,0.120
-2.550E-06,0.080
-2.540E-06,0.120
-2.530E-06,0.160
-2.520E-06,0.080
-2.510E-06,0.080
-2.500E-06,0.120
-2.490E-06,0.160
-2.480E-06,0.200
-2.470E-06,0.240
-2.460E-06,0.200
-2.450E-06,0.240
-2.440E-06,0.240
-2.430E-06,0.360
-2.420E-06,0.400
-2.410E-06,0.360
-2.400E-06,0.400
-2.390E-06,0.440
-2.380E-06,0.440
-2.370E-06,0.440
-2.360E-06,0.480
-2.350E-06,0.520
-2.340E-06,0.480
-2.330E-06,0.520
-2.320E-06,0.560
-2.310E-06,0.520
-2.300E-06,0.520
-2.290E-06,0.600
-2.280E-06,0.520
-2.270E-06,0.440
-2.260E-06,0.400
-2.250E-06,0.440
-2.240E-06,0.480
-2.230E-06,0.440
-2.220E-06,0.480
-2.210E-06,0.520
-2.200E-06,0.440
-2.190E-06,0.480
-2.180E-06,0.520
-2.170E-06,0.600
-2.160E-06,0.720
-2.150E-06,0.760
-2.140E-06,0.760
-2.130E-06,0.760
-2.120E-06,0.760
-2.110E-06,0.840
-2.100E-06,0.880
-2.090E-06,1.000
-2.080E-06,1.000
-2.070E-06,1.080
-2.060E-06,1.040
-2.050E-06,1.080
-2.040E-06,1.080
-2.030E-06,1.160
-2.020E-06,1.160
-2.010E-06,1.240
-2.000E-06,1.280
-1.990E-06,1.200
-1.980E-06,1.200
-1.970E-06,1.200
-1.960E-06,1.280
-1.950E-06,1.200
-1.940E-06,1.200
-1.930E-06,1.200
-1.920E-06,1.120
-1.910E-06,1.160
-1.900E-06,1.200
-1.890E-06,1.080
-1.880E-06,1.080
-1.870E-06,1.080
-1.860E-06,1.040
-1.850E-06,1.080
-1.840E-06,1.080
-1.830E-06,1.000
-1.820E-06,0.920
-1.810E-06,0.920
-1.800E-06,0.880
-1.790E-06,0.880
-1.780E-06,0.880
-1.770E-06,0.800
-1.760E-06,0.760
-1.750E-06,0.720
-1.740E-06,0.720
-1.730E-06,0.680
-1.720E-06,0.640
-1.710E-06,0.680
-1.700E-06,0.640
-1.690E-06,0.600
-1.680E-06,0.480
-1.670E-06,0.560
-1.660E-06,0.520
-1.650E-06,0.600
-1.640E-06,0.600
-1.630E-06,0.600
-1.620E-06,0.640
-1.610E-06,0.560
-1.600E-06,0.600
-1.590E-06,0.640
-1.580E-06,0.680
-1.570E-06,0.760
-1.560E-06,0.840
-1.550E-06,0.800
-1.540E-06,0.760
-1.530E-06,0.760
-1.520E-06,0.720
-1.510E-06,0.760
-1.500E-06,0.800
-1.490E-06,0.760
-1.480E-06,0.760
-1.470E-06,0.640
-1.460E-06,0.680
-1.450E-06,0.640
-1.440E-06,0.640
-1.430E-06,0.600
-1.420E-06,0.640
-1.410E-06,0.640
-1.400E-06,0.680
-1.390E-06,0.760
-1.380E-06,0.800
-1.370E-06,0.840
-1.360E-06,0.880
-1.350E-06,0.840
-1.340E-06,0.880
-1.330E-06,0.840
-1.320E-06,0.920
-1.310E-06,0.880
-1.300E-06,0.920
-1.290E-06,0.880
-1.280E-06,0.840
-1.270E-06,0.840
-1.260E-06,0.840
-1.250E-06,0.800
-1.240E-06,0.800
-1.230E-06,0.800
-1.220E-06,0.840
-1.210E-06,0.800
-1.200E-06,0.840
-1.190E-06,0.800
-1.180E-06,0.840
-1.170E-06,0.840
-1.160E-06,0.920
-1.150E-06,0.960
-1.140E-06,0.880
-1.130E-06,1.000
-1.120E-06,0.800
-1.110E-06,0.960
-1.100E-06,0.880
-1.090E-06,1.040
-1.080E-06,1.280
-1.070E-06,1.120
-1.060E-06,1.120
-1.050E-06,1.000
-1.040E-06,1.040
-1.030E-06,1.480
-1.020E-06,1.320
-1.010E-06,1.520
-1.000E-06,1.400
-9.900E-07,1.320
-9.800E-07,1.240
-9.700E-07,1.680
-9.600E-07,1.960
-9.500E-07,1.960
-9.400E-07,1.560
-9.300E-07,1.120
-9.200E-07,0.920
-9.100E-07,0.760
-9.000E-07,1.040
-8.900E-07,1.520
-8.800E-07,1.440
-8.700E-07,1.840
-8.600E-07,1.320
-8.500E-07,1.640
-8.400E-07,1.480
-8.300E-07,1.280
-8.200E-07,1.440
-8.100E-07,0.960
-8.000E-07,1.000
-7.900E-07,0.760
-7.800E-07,0.680
-7.700E-07,0.800
-7.600E-07,0.600
-7.500E-07,0.600
-7.400E-07,0.360
-7.300E-07,0.320
-7.200E-07,0.320
-7.100E-07,0.320
-7.000E-07,0.320
-6.900E-07,0.360
-6.800E-07,0.360
-6.700E-07,0.200
-6.600E-07,0.120
-6.500E-07,0.120
-6.400E-07,0.200
-6.300E-07,0.320
-6.200E-07,0.400
-6.100E-07,0.520
-6.000E-07,0.560
-5.900E-07,0.560
-5.800E-07,0.640
-5.700E-07,0.440
-5.600E-07,0.280
-5.500E-07,0.280
-5.400E-07,0.200
-5.300E-07,0.360
-5.200E-07,0.440
-5.100E-07,0.360
-5.000E-07,0.160
-4.900E-07,0.000
-4.800E-07,-0.200
-4.700E-07,-0.080
-4.600E-07,0.080
-4.500E-07,0.160
-4.400E-07,0.280
-4.300E-07,0.280
-4.200E-07,0.160
-4.100E-07,0.160
-4.000E-07,0.160
-3.900E-07,0.320
-3.800E-07,0.480
-3.700E-07,0.520
-3.600E-07,0.520
-3.500E-07,0.480
-3.400E-07,0.520
-3.300E-07,0.480
-3.200E-07,0.600
-3.100E-07,0.680
-3.000E-07,0.600
-2.900E-07,0.520
-2.800E-07,0.480
-2.700E-07,0.280
-2.600E-07,0.200
-2.500E-07,0.040
-2.400E-07,0.000
-2.300E-07,-0.240
-2.200E-07,-0.360
-2.100E-07,-0.360
-2.000E-07,-0.320
-1.900E-07,-0.360
-1.800E-07,-0.320
-1.700E-07,-0.320
-1.600E-07,-0.400
-1.500E-07,-0.360
-1.400E-07,-0.240
-1.300E-07,-0.240
-1.200E-07,0.000
-1.100E-07,-0.040
-1.000E-07,0.000
-9.000E-08,0.120
-8.000E-08,0.160
-7.000E-08,-0.440
-6.000E-08,0.040
-5.000E-08,0.400
-4.000E-08,-0.440
-3.000E-08,0.480
-2.000E-08,-0.600
-1.000E-08,-1.000
0.000E+00,0.160
1.000E-08,-0.680
2.000E-08,0.880
3.000E-08,-0.560
4.000E-08,-1.320
5.000E-08,-2.560
6.000E-08,-2.840
7.000E-08,-1.400
8.000E-08,0.200
9.000E-08,1.280
1.000E-07,1.040
1.100E-07,0.080
1.200E-07,-0.760
1.300E-07,-0.640
1.400E-07,0.000
1.500E-07,0.720
1.600E-07,1.480
1.700E-07,1.480
1.800E-07,1.480
1.900E-07,1.320
2.000E-07,1.320
2.100E-07,1.520
2.200E-07,1.440
2.300E-07,1.480
2.400E-07,1.360
2.500E-07,1.320
2.600E-07,1.280
2.700E-07,1.080
2.800E-07,0.800
2.900E-07,0.480
3.000E-07,0.280
3.100E-07,0.160
3.200E-07,0.320
3.300E-07,0.320
3.400E-07,0.320
3.500E-07,0.160
3.600E-07,0.360
3.700E-07,0.440
3.800E-07,0.520
3.900E-07,0.600
4.000E-07,0.800
4.100E-07,0.880
4.200E-07,1.080
4.300E-07,1.120
4.400E-07,1.160
4.500E-07,1.200
4.600E-07,1.040
4.700E-07,1.160
4.800E-07,1.080
4.900E-07,1.040
5.000E-07,1.080
5.100E-07,0.920
5.200E-07,0.920
5.300E-07,0.880
5.400E-07,0.760
5.500E-07,0.760
5.600E-07,0.600
5.700E-07,0.560
5.800E-07,0.400
5.900E-07,0.320
6.000E-07,0.400
6.100E-07,0.560
6.200E-07,0.640
6.300E-07,0.600
6.400E-07,0.360
6.500E-07,0.120
6.600E-07,0.040
6.700E-07,0.080
6.800E-07,0.320
6.900E-07,0.520
7.000E-07,0.640
7.100E-07,0.600
7.200E-07,0.440
7.300E-07,0.480
7.400E-07,0.640
7.500E-07,0.680
7.600E-07,0.960
7.700E-07,0.720
7.800E-07,0.640
7.900E-07,0.360
8.000E-07,-0.040
8.100E-07,0.160
8.200E-07,0.400
8.300E-07,0.640
8.400E-07,0.960
8.500E-07,0.640
8.600E-07,0.640
8.700E-07,0.680
8.800E-07,0.800
8.900E-07,1.240
9.000E-07,1.400
9.100E-07,1.480
9.200E-07,1.320
9.300E-07,0.960
9.400E-07,0.840
9.500E-07,0.800
9.600E-07,0.800
9.700E-07,1.000
9.800E-07,0.960
9.900E-07,0.920
1.000E-06,1.120
1.010E-06,0.880
1.020E-06,0.960
1.030E-06,1.040
1.040E-06,1.000
1.050E-06,0.720
1.060E-06,0.800
1.070E-06,0.520
1.080E-06,0.720
1.090E-06,0.880
1.100E-06,0.800
1.110E-06,0.920
1.120E-06,0.560
1.130E-06,0.320
1.140E-06,0.360
1.150E-06,0.160
1.160E-06,0.400
1.170E-06,0.400
1.180E-06,0.560
1.190E-06,0.720
1.200E-06,0.600
1.210E-06,0.640
1.220E-06,0.440
1.230E-06,0.360
1.240E-06,0.400
1.250E-06,0.440
1.260E-06,0.520
1.270E-06,0.520
1.280E-06,0.440
1.290E-06,0.360
1.300E-06,0.120
1.310E-06,-0.120
1.320E-06,-0.400
1.330E-06,-0.600
1.340E-06,-0.720
1.350E-06,-0.960
1.360E-06,-1.080
1.370E-06,-1.320
1.380E-06,-1.560
1.390E-06,-1.680
1.400E-06,-1.840
1.410E-06,-1.800
1.420E-06,-1.800
1.430E-06,-1.760
1.440E-06,-1.680
1.450E-06,-1.640
1.460E-06,-1.560
1.470E-06,-1.480
1.480E-06,-1.320
1.490E-06,-1.280
1.500E-06,-1.160
1.510E-06,-1.200
1.520E-06,-1.280
1.530E-06,-1.320
1.540E-06,-1.320
1.550E-06,-1.440
1.560E-06,-1.560
1.570E-06,-1.680
1.580E-06,-1.760
1.590E-06,-1.960
1.600E-06,-2.080
1.610E-06,-2.240
1.620E-06,-2.520
1.630E-06,-2.600
1.640E-06,-2.840
1.650E-06,-3.040
1.660E-06,-3.320
1.670E-06,-3.640
1.680E-06,-3.920
1.690E-06,-4.280
1.700E-06,-4.480
1.710E-06,-4.880
1.720E-06,-5.120
1.730E-06,-5.200
1.740E-06,-5.200
1.750E-06,-5.240
1.760E-06,-5.240
1.770E-06,-5.200
1.780E-06,-5.240
1.790E-06,-5.240
1.800E-06,-5.240
1.810E-06,-5.240
1.820E-06,-5.200
1.830E-06,-5.200
1.840E-06,-5.200
1.850E-06,-5.200
1.860E-06,-5.200
1.870E-06,-5.240
1.880E-06,-5.240
1.890E-06,-5.240
1.900E-06,-5.240
1.910E-06,-5.240
1.920E-06,-5.240
1.930E-06,-5.240
1.940E-06,-5.240
1.950E-06,-5.240
1.960E-06,-5.240
1.970E-06,-5.240
1.980E-06,-5.240
1.990E-06,-5.240
2.000E-06,-5.240
2.010E-06,-5.240
2.020E-06,-5.240
2.030E-06,-5.240
2.040E-06,-5.200
2.050E-06,-5.200
2.060E-06,-5.160
2.070E-06,-5.040
2.080E-06,-4.920
2.090E-06,-4.840
2.100E-06,-4.800
2.110E-06,-4.840
2.120E-06,-4.880
2.130E-06,-4.840
2.140E-06,-4.680
2.150E-06,-4.640
2.160E-06,-4.520
2.170E-06,-4.400
2.180E-06,-4.440
2.190E-06,-4.360
2.200E-06,-4.280
2.210E-06,-4.080
2.220E-06,-3.960
2.230E-06,-3.840
2.240E-06,-3.840
2.250E-06,-3.880
2.260E-06,-3.920
2.270E-06,-3.800
2.280E-06,-3.560
2.290E-06,-3.240
2.300E-06,-2.760
2.310E-06,-2.320
2.320E-06,-2.080
2.330E-06,-1.840
2.340E-06,-1.840
2.350E-06,-1.920
2.360E-06,-1.960
2.370E-06,-1.920
2.380E-06,-2.000
2.390E-06,-2.040
2.400E-06,-2.040
2.410E-06,-2.160
2.420E-06,-2.320
2.430E-06,-2.520
2.440E-06,-2.720
2.450E-06,-3.000
2.460E-06,-3.240
2.470E-06,-3.360
2.480E-06,-3.600
2.490E-06,-3.720
2.500E-06,-3.680
2.510E-06,-3.640
2.520E-06,-3.560
2.530E-06,-3.440
2.540E-06,-3.280
2.550E-06,-3.160
2.560E-06,-3.080
2.570E-06,-3.080
2.580E-06,-3.080
2.590E-06,-3.120
2.600E-06,-3.120
2.610E-06,-3.040
2.620E-06,-2.840
2.630E-06,-2.720
2.640E-06,-2.600
2.650E-06,-2.400
2.660E-06,-2.280
2.670E-06,-2.240
2.680E-06,-2.240
2.690E-06,-2.320
2.700E-06,-2.360
2.710E-06,-2.520
2.720E-06,-2.600
2.730E-06,-2.680
2.740E-06,-2.680
2.750E-06,-2.640
2.760E-06,-2.520
2.770E-06,-2.320
2.780E-06,-2.240
2.790E-06,-2.120
2.800E-06,-2.040
2.810E-06,-1.920
2.820E-06,-1.840
2.830E-06,-1.800
2.840E-06,-1.680
2.850E-06,-1.560
2.860E-06,-1.440
2.870E-06,-1.360
2.880E-06,-1.320
2.890E-06,-1.360
2.900E-06,-1.400
2.910E-06,-1.480
2.920E-06,-1.480
2.930E-06,-1.560
2.940E-06,-1.560
2.950E-06,-1.600
2.960E-06,-1.560
2.970E-06,-1.600
2.980E-06,-1.680
2.990E-06,-1.760
3.000E-06,-1.880
3.010E-06,-1.880
3.020E-06,-2.000
3.030E-06,-2.080
3.040E-06,-2.160
3.050E-06,-2.200
3.060E-06,-2.240
3.070E-06,-2.280
3.080E-06,-2.360
3.090E-06,-2.400
3.100E-06,-2.440
3.110E-06,-2.480
3.120E-06,-2.520
3.130E-06,-2.520
3.140E-06,-2.520
3.150E-06,-2.440
3.160E-06,-2.440
3.170E-06,-2.440
3.180E-06,-2.320
3.190E-06,-2.320
3.200E-06,-2.240
3.210E-06,-2.040
3.220E-06,-2.000
3.230E-06,-1.880
3.240E-06,-1.760
3.250E-06,-1.680
3.260E-06,-1.600
3.270E-06,-1.480
3.280E-06,-1.400
3.290E-06,-1.320
3.300E-06,-1.320
3.310E-06,-1.280
3.320E-06,-1.280
3.330E-06,-1.200
3.340E-06,-1.160
3.350E-06,-1.200
3.360E-06,-1.240
3.370E-06,-1.280
3.380E-06,-1.360
3.390E-06,-1.360
3.400E-06,-1.360
3.410E-06,-1.400
3.420E-06,-1.480
3.430E-06,-1.480
3.440E-06,-1.480
3.450E-06,-1.560
3.460E-06,-1.560
3.470E-06,-1.640
3.480E-06,-1.600
3.490E-06,-1.560
3.500E-06,-1.600
3.510E-06,-1.640
3.520E-06,-1.600
3.530E-06,-1.600
3.540E-06,-1.520
3.550E-06,-1.480
3.560E-06,-1.360
3.570E-06,-1.320
3.580E-06,-1.280
3.590E-06,-1.200
3.600E-06,-1.160
3.610E-06,-1.160
3.620E-06,-1.120
3.630E-06,-1.120
3.640E-06,-1.120
3.650E-06,-1.160
3.660E-06,-1.120
3.670E-06,-1.160
3.680E-06,-1.240
3.690E-06,-1.360
3.700E-06,-1.320
3.710E-06,-1.360
3.720E-06,-1.400
3.730E-06,-1.480
3.740E-06,-1.480
3.750E-06,-1.440
3.760E-06,-1.480
3.770E-06,-1.400
3.780E-06,-1.360
3.790E-06,-1.280
3.800E-06,-1.160
3.810E-06,-1.160
3.820E-06,-1.080
3.830E-06,-0.960
3.840E-06,-1.000
3.850E-06,-0.920
3.860E-06,-0.960
3.870E-06,-0.880
3.880E-06,-0.840
3.890E-06,-0.840
3.900E-06,-0.840
3.910E-06,-0.880
3.920E-06,-0.920
3.930E-06,-0.960
3.940E-06,-1.000
3.950E-06,-1.040
3.960E-06,-1.000
3.970E-06,-0.800
3.980E-06,-0.640
3.990E-06,-0.400
4.000E-06,-0.160
4.010E-06,-0.080
4.020E-06,-0.080
4.030E-06,-0.320
4.040E-06,-0.600
4.050E-06,-0.880
4.060E-06,-1.320
4.070E-06,-1.640
4.080E-06,-1.840
4.090E-06,-2.000
4.100E-06,-2.080
4.110E-06,-2.040
4.120E-06,-1.920
4.130E-06,-1.840
4.140E-06,-1.760
4.150E-06,-1.640
4.160E-06,-1.520
4.170E-06,-1.480
4.180E-06,-1.440
4.190E-06,-1.440
4.200E-06,-1.400
4.210E-06,-1.400
4.220E-06,-1.320
4.230E-06,-1.160
4.240E-06,-0.960
4.250E-06,-0.640
4.260E-06,-0.440
4.270E-06,-0.240
4.280E-06,-0.080
4.290E-06,0.000
4.300E-06,0.080
4.310E-06,0.080
4.320E-06,0.080
4.330E-06,0.000
4.340E-06,-0.040
4.350E-06,-0.040
4.360E-06,-0.160
4.370E-06,-0.200
4.380E-06,-0.240
4.390E-06,-0.280
4.400E-06,-0.320
4.410E-06,-0.360
4.420E-06,-0.440
4.430E-06,-0.440
4.440E-06,-0.480
4.450E-06,-0.520
4.460E-06,-0.600
