mediciones/5-27/-17.5/WaveData51127.csv

#timebase=2000000(ps)
,#voltbase=1000000(mv/100)
#size=4000
-7.300E-06,0.720
-7.290E-06,0.640
-7.280E-06,0.360
-7.270E-06,0.040
-7.260E-06,-0.160
-7.250E-06,0.000
-7.240E-06,0.280
-7.230E-06,0.360
-7.220E-06,0.400
-7.210E-06,0.080
-7.200E-06,-0.200
-7.190E-06,-0.320
-7.180E-06,-0.320
-7.170E-06,-0.120
-7.160E-06,0.040
-7.150E-06,0.040
-7.140E-06,-0.080
-7.130E-06,-0.320
-7.120E-06,-0.520
-7.110E-06,-0.640
-7.100E-06,-0.240
-7.090E-06,-0.360
-7.080E-06,-0.240
-7.070E-06,-0.080
-7.060E-06,-0.280
-7.050E-06,-0.080
-7.040E-06,0.120
-7.030E-06,0.320
-7.020E-06,0.400
-7.010E-06,0.200
-7.000E-06,0.000
-6.990E-06,0.040
-6.980E-06,0.280
-6.970E-06,0.560
-6.960E-06,0.720
-6.950E-06,0.600
-6.940E-06,0.320
-6.930E-06,-0.040
-6.920E-06,-0.040
-6.910E-06,0.000
-6.900E-06,0.440
-6.890E-06,0.280
-6.880E-06,0.280
-6.870E-06,0.000
-6.860E-06,-0.240
-6.850E-06,0.120
-6.840E-06,0.280
-6.830E-06,0.640
-6.820E-06,0.440
-6.810E-06,0.040
-6.800E-06,-0.160
-6.790E-06,-0.360
-6.780E-06,-0.080
-6.770E-06,0.320
-6.760E-06,0.480
-6.750E-06,0.440
-6.740E-06,0.120
-6.730E-06,-0.280
-6.720E-06,-0.360
-6.710E-06,-0.280
-6.700E-06,0.000
-6.690E-06,0.200
-6.680E-06,0.200
-6.670E-06,0.000
-6.660E-06,-0.200
-6.650E-06,-0.320
-6.640E-06,-0.240
-6.630E-06,-0.040
-6.620E-06,0.080
-6.610E-06,0.120
-6.600E-06,0.080
-6.590E-06,-0.080
-6.580E-06,-0.160
-6.570E-06,-0.080
-6.560E-06,0.120
-6.550E-06,0.080
-6.540E-06,0.080
-6.530E-06,0.200
-6.520E-06,-0.080
-6.510E-06,0.160
-6.500E-06,-0.080
-6.490E-06,0.320
-6.480E-06,0.480
-6.470E-06,0.880
-6.460E-06,1.120
-6.450E-06,0.920
-6.440E-06,0.760
-6.430E-06,0.360
-6.420E-06,0.160
-6.410E-06,0.440
-6.400E-06,0.720
-6.390E-06,0.960
-6.380E-06,0.880
-6.370E-06,0.560
-6.360E-06,0.200
-6.350E-06,-0.080
-6.340E-06,0.040
-6.330E-06,0.160
-6.320E-06,0.320
-6.310E-06,0.360
-6.300E-06,0.160
-6.290E-06,-0.040
-6.280E-06,-0.240
-6.270E-06,-0.360
-6.260E-06,-0.280
-6.250E-06,-0.240
-6.240E-06,-0.240
-6.230E-06,-0.360
-6.220E-06,-0.480
-6.210E-06,-0.560
-6.200E-06,-0.560
-6.190E-06,-0.480
-6.180E-06,-0.400
-6.170E-06,-0.440
-6.160E-06,-0.400
-6.150E-06,-0.320
-6.140E-06,-0.320
-6.130E-06,-0.320
-6.120E-06,0.040
-6.110E-06,-0.320
-6.100E-06,-0.120
-6.090E-06,-0.120
-6.080E-06,-0.200
-6.070E-06,0.280
-6.060E-06,0.320
-6.050E-06,0.520
-6.040E-06,0.440
-6.030E-06,0.160
-6.020E-06,0.200
-6.010E-06,0.160
-6.000E-06,0.400
-5.990E-06,0.720
-5.980E-06,0.720
-5.970E-06,0.600
-5.960E-06,0.360
-5.950E-06,0.200
-5.940E-06,0.120
-5.930E-06,0.360
-5.920E-06,0.400
-5.910E-06,0.480
-5.900E-06,0.400
-5.890E-06,0.200
-5.880E-06,0.160
-5.870E-06,0.080
-5.860E-06,0.040
-5.850E-06,0.160
-5.840E-06,0.080
-5.830E-06,0.040
-5.820E-06,-0.040
-5.810E-06,-0.120
-5.800E-06,-0.120
-5.790E-06,-0.120
-5.780E-06,-0.160
-5.770E-06,-0.120
-5.760E-06,-0.200
-5.750E-06,-0.280
-5.740E-06,-0.320
-5.730E-06,-0.360
-5.720E-06,-0.160
-5.710E-06,-0.120
-5.700E-06,-0.400
-5.690E-06,-0.280
-5.680E-06,-0.400
-5.670E-06,-0.480
-5.660E-06,-0.080
-5.650E-06,0.000
-5.640E-06,0.240
-5.630E-06,0.200
-5.620E-06,0.080
-5.610E-06,0.000
-5.600E-06,0.080
-5.590E-06,0.280
-5.580E-06,0.520
-5.570E-06,0.640
-5.560E-06,0.600
-5.550E-06,0.480
-5.540E-06,0.320
-5.530E-06,0.320
-5.520E-06,0.320
-5.510E-06,0.400
-5.500E-06,0.480
-5.490E-06,0.400
-5.480E-06,0.280
-5.470E-06,0.200
-5.460E-06,0.120
-5.450E-06,0.080
-5.440E-06,0.080
-5.430E-06,0.080
-5.420E-06,0.040
-5.410E-06,-0.080
-5.400E-06,-0.120
-5.390E-06,-0.080
-5.380E-06,-0.200
-5.370E-06,-0.200
-5.360E-06,-0.160
-5.350E-06,-0.240
-5.340E-06,-0.280
-5.330E-06,-0.320
-5.320E-06,-0.280
-5.310E-06,-0.240
-5.300E-06,-0.200
-5.290E-06,0.000
-5.280E-06,0.040
-5.270E-06,0.080
-5.260E-06,0.120
-5.250E-06,0.040
-5.240E-06,0.040
-5.230E-06,0.120
-5.220E-06,0.120
-5.210E-06,0.320
-5.200E-06,0.120
-5.190E-06,0.240
-5.180E-06,0.240
-5.170E-06,0.360
-5.160E-06,0.600
-5.150E-06,0.520
-5.140E-06,0.520
-5.130E-06,0.480
-5.120E-06,0.400
-5.110E-06,0.720
-5.100E-06,0.480
-5.090E-06,0.760
-5.080E-06,0.720
-5.070E-06,0.600
-5.060E-06,0.800
-5.050E-06,0.720
-5.040E-06,0.760
-5.030E-06,0.600
-5.020E-06,0.400
-5.010E-06,0.400
-5.000E-06,0.440
-4.990E-06,0.520
-4.980E-06,0.640
-4.970E-06,0.520
-4.960E-06,0.240
-4.950E-06,0.000
-4.940E-06,-0.120
-4.930E-06,-0.200
-4.920E-06,-0.080
-4.910E-06,-0.040
-4.900E-06,-0.080
-4.890E-06,-0.200
-4.880E-06,-0.400
-4.870E-06,-0.440
-4.860E-06,-0.400
-4.850E-06,-0.360
-4.840E-06,-0.280
-4.830E-06,-0.280
-4.820E-06,-0.280
-4.810E-06,-0.400
-4.800E-06,-0.320
-4.790E-06,-0.080
-4.780E-06,-0.400
-4.770E-06,0.040
-4.760E-06,0.000
-4.750E-06,0.200
-4.740E-06,0.680
-4.730E-06,0.680
-4.720E-06,0.800
-4.710E-06,0.520
-4.700E-06,0.240
-4.690E-06,0.400
-4.680E-06,0.560
-4.670E-06,1.040
-4.660E-06,1.160
-4.650E-06,0.880
-4.640E-06,0.480
-4.630E-06,0.080
-4.620E-06,-0.040
-4.610E-06,0.000
-4.600E-06,0.280
-4.590E-06,0.240
-4.580E-06,0.240
-4.570E-06,-0.040
-4.560E-06,-0.280
-4.550E-06,-0.240
-4.540E-06,-0.360
-4.530E-06,-0.360
-4.520E-06,-0.200
-4.510E-06,-0.400
-4.500E-06,-0.440
-4.490E-06,-0.320
-4.480E-06,-0.280
-4.470E-06,-0.240
-4.460E-06,-0.320
-4.450E-06,-0.360
-4.440E-06,-0.280
-4.430E-06,-0.080
-4.420E-06,0.120
-4.410E-06,0.240
-4.400E-06,0.240
-4.390E-06,0.160
-4.380E-06,0.480
-4.370E-06,0.640
-4.360E-06,1.040
-4.350E-06,1.080
-4.340E-06,0.920
-4.330E-06,0.680
-4.320E-06,0.560
-4.310E-06,0.640
-4.300E-06,0.880
-4.290E-06,0.960
-4.280E-06,0.800
-4.270E-06,0.480
-4.260E-06,0.000
-4.250E-06,-0.160
-4.240E-06,-0.040
-4.230E-06,-0.160
-4.220E-06,0.000
-4.210E-06,-0.120
-4.200E-06,-0.320
-4.190E-06,-0.320
-4.180E-06,-0.280
-4.170E-06,-0.160
-4.160E-06,-0.160
-4.150E-06,-0.360
-4.140E-06,-0.520
-4.130E-06,-0.480
-4.120E-06,-0.360
-4.110E-06,-0.040
-4.100E-06,0.040
-4.090E-06,0.040
-4.080E-06,-0.080
-4.070E-06,-0.240
-4.060E-06,-0.240
-4.050E-06,0.040
-4.040E-06,0.200
-4.030E-06,0.360
-4.020E-06,0.400
-4.010E-06,0.320
-4.000E-06,0.200
-3.990E-06,0.160
-3.980E-06,0.280
-3.970E-06,0.360
-3.960E-06,0.320
-3.950E-06,0.200
-3.940E-06,0.160
-3.930E-06,0.000
-3.920E-06,-0.080
-3.910E-06,-0.040
-3.900E-06,0.040
-3.890E-06,0.040
-3.880E-06,0.000
-3.870E-06,-0.160
-3.860E-06,-0.200
-3.850E-06,-0.160
-3.840E-06,-0.040
-3.830E-06,0.120
-3.820E-06,0.240
-3.810E-06,0.360
-3.800E-06,0.160
-3.790E-06,0.160
-3.780E-06,0.120
-3.770E-06,0.200
-3.760E-06,0.160
-3.750E-06,0.320
-3.740E-06,0.480
-3.730E-06,0.800
-3.720E-06,1.120
-3.710E-06,1.160
-3.700E-06,1.120
-3.690E-06,0.840
-3.680E-06,0.520
-3.670E-06,0.600
-3.660E-06,0.640
-3.650E-06,1.200
-3.640E-06,1.400
-3.630E-06,0.640
-3.620E-06,0.320
-3.610E-06,-0.320
-3.600E-06,-0.680
-3.590E-06,0.040
-3.580E-06,0.040
-3.570E-06,0.480
-3.560E-06,0.000
-3.550E-06,-0.680
-3.540E-06,-1.000
-3.530E-06,-0.720
-3.520E-06,-0.320
-3.510E-06,-0.040
-3.500E-06,-0.280
-3.490E-06,-0.680
-3.480E-06,-0.880
-3.470E-06,-0.880
-3.460E-06,-0.440
-3.450E-06,0.000
-3.440E-06,0.080
-3.430E-06,-0.040
-3.420E-06,-0.320
-3.410E-06,-0.480
-3.400E-06,-0.200
-3.390E-06,0.080
-3.380E-06,0.480
-3.370E-06,0.600
-3.360E-06,0.560
-3.350E-06,0.360
-3.340E-06,0.200
-3.330E-06,0.200
-3.320E-06,0.200
-3.310E-06,0.440
-3.300E-06,0.520
-3.290E-06,0.560
-3.280E-06,0.520
-3.270E-06,0.200
-3.260E-06,0.280
-3.250E-06,0.200
-3.240E-06,0.240
-3.230E-06,0.480
-3.220E-06,0.240
-3.210E-06,0.520
-3.200E-06,-0.160
-3.190E-06,-0.280
-3.180E-06,-0.080
-3.170E-06,0.080
-3.160E-06,0.800
-3.150E-06,0.880
-3.140E-06,0.880
-3.130E-06,0.440
-3.120E-06,0.040
-3.110E-06,0.000
-3.100E-06,0.160
-3.090E-06,0.600
-3.080E-06,0.840
-3.070E-06,0.680
-3.060E-06,0.320
-3.050E-06,-0.120
-3.040E-06,-0.320
-3.030E-06,-0.360
-3.020E-06,-0.360
-3.010E-06,-0.240
-3.000E-06,-0.240
-2.990E-06,-0.320
-2.980E-06,-0.400
-2.970E-06,-0.440
-2.960E-06,-0.400
-2.950E-06,-0.560
-2.940E-06,-0.680
-2.930E-06,-0.640
-2.920E-06,-0.560
-2.910E-06,-0.360
-2.900E-06,-0.200
-2.890E-06,-0.200
-2.880E-06,-0.360
-2.870E-06,-0.520
-2.860E-06,-0.480
-2.850E-06,-0.360
-2.840E-06,-0.200
-2.830E-06,0.000
-2.820E-06,0.080
-2.810E-06,0.000
-2.800E-06,0.040
-2.790E-06,0.000
-2.780E-06,0.120
-2.770E-06,0.240
-2.760E-06,0.360
-2.750E-06,0.320
-2.740E-06,0.320
-2.730E-06,0.200
-2.720E-06,0.240
-2.710E-06,0.160
-2.700E-06,0.240
-2.690E-06,0.120
-2.680E-06,0.440
-2.670E-06,0.120
-2.660E-06,0.040
-2.650E-06,-0.040
-2.640E-06,-0.280
-2.630E-06,-0.040
-2.620E-06,0.080
-2.610E-06,0.280
-2.600E-06,0.360
-2.590E-06,0.160
-2.580E-06,0.000
-2.570E-06,-0.240
-2.560E-06,-0.160
-2.550E-06,0.040
-2.540E-06,0.240
-2.530E-06,0.360
-2.520E-06,0.280
-2.510E-06,0.040
-2.500E-06,-0.040
-2.490E-06,0.000
-2.480E-06,0.040
-2.470E-06,0.240
-2.460E-06,0.320
-2.450E-06,0.440
-2.440E-06,0.400
-2.430E-06,0.320
-2.420E-06,0.120
-2.410E-06,0.400
-2.400E-06,0.520
-2.390E-06,0.800
-2.380E-06,1.360
-2.370E-06,1.200
-2.360E-06,1.240
-2.350E-06,0.760
-2.340E-06,0.320
-2.330E-06,0.320
-2.320E-06,0.280
-2.310E-06,0.520
-2.300E-06,0.480
-2.290E-06,0.120
-2.280E-06,-0.240
-2.270E-06,-0.360
-2.260E-06,-0.880
-2.250E-06,-0.200
-2.240E-06,0.040
-2.230E-06,0.640
-2.220E-06,0.840
-2.210E-06,0.560
-2.200E-06,0.160
-2.190E-06,-0.200
-2.180E-06,-0.240
-2.170E-06,0.240
-2.160E-06,0.520
-2.150E-06,0.840
-2.140E-06,0.680
-2.130E-06,0.200
-2.120E-06,-0.120
-2.110E-06,-0.320
-2.100E-06,-0.240
-2.090E-06,0.000
-2.080E-06,0.160
-2.070E-06,0.080
-2.060E-06,-0.080
-2.050E-06,-0.320
-2.040E-06,-0.440
-2.030E-06,-0.400
-2.020E-06,-0.240
-2.010E-06,-0.240
-2.000E-06,-0.320
-1.990E-06,-0.440
-1.980E-06,-0.520
-1.970E-06,-0.560
-1.960E-06,-0.520
-1.950E-06,-0.560
-1.940E-06,-0.520
-1.930E-06,-0.480
-1.920E-06,-0.440
-1.910E-06,-0.400
-1.900E-06,-0.400
-1.890E-06,-0.280
-1.880E-06,-0.200
-1.870E-06,-0.120
-1.860E-06,0.000
-1.850E-06,0.120
-1.840E-06,0.240
-1.830E-06,0.320
-1.820E-06,0.440
-1.810E-06,0.440
-1.800E-06,0.440
-1.790E-06,0.440
-1.780E-06,0.360
-1.770E-06,0.360
-1.760E-06,0.320
-1.750E-06,0.560
-1.740E-06,0.640
-1.730E-06,0.880
-1.720E-06,0.960
-1.710E-06,0.880
-1.700E-06,0.720
-1.690E-06,0.520
-1.680E-06,0.520
-1.670E-06,0.800
-1.660E-06,0.520
-1.650E-06,0.640
-1.640E-06,0.680
-1.630E-06,0.760
-1.620E-06,1.240
-1.610E-06,1.680
-1.600E-06,1.880
-1.590E-06,1.720
-1.580E-06,1.200
-1.570E-06,0.680
-1.560E-06,0.680
-1.550E-06,0.960
-1.540E-06,1.280
-1.530E-06,1.360
-1.520E-06,0.760
-1.510E-06,0.200
-1.500E-06,-0.480
-1.490E-06,-0.760
-1.480E-06,-0.560
-1.470E-06,-0.440
-1.460E-06,-0.120
-1.450E-06,-0.160
-1.440E-06,-0.280
-1.430E-06,-0.360
-1.420E-06,-0.480
-1.410E-06,-0.520
-1.400E-06,-0.320
-1.390E-06,-0.240
-1.380E-06,-0.040
-1.370E-06,0.080
-1.360E-06,0.280
-1.350E-06,0.320
-1.340E-06,0.400
-1.330E-06,0.520
-1.320E-06,0.480
-1.310E-06,0.720
-1.300E-06,0.520
-1.290E-06,0.720
-1.280E-06,0.680
-1.270E-06,0.840
-1.260E-06,1.240
-1.250E-06,1.320
-1.240E-06,1.480
-1.230E-06,1.400
-1.220E-06,1.240
-1.210E-06,1.240
-1.200E-06,1.320
-1.190E-06,1.480
-1.180E-06,1.480
-1.170E-06,1.440
-1.160E-06,1.240
-1.150E-06,1.080
-1.140E-06,1.000
-1.130E-06,0.920
-1.120E-06,0.880
-1.110E-06,0.720
-1.100E-06,0.560
-1.090E-06,0.480
-1.080E-06,0.360
-1.070E-06,0.320
-1.060E-06,0.360
-1.050E-06,0.320
-1.040E-06,0.160
-1.030E-06,0.040
-1.020E-06,-0.080
-1.010E-06,-0.120
-1.000E-06,-0.040
-9.900E-07,0.000
-9.800E-07,0.000
-9.700E-07,-0.080
-9.600E-07,-0.120
-9.500E-07,-0.200
-9.400E-07,-0.120
-9.300E-07,-0.080
-9.200E-07,0.000
-9.100E-07,-0.160
-9.000E-07,-0.240
-8.900E-07,-0.360
-8.800E-07,-0.360
-8.700E-07,-0.200
-8.600E-07,0.040
-8.500E-07,0.320
-8.400E-07,0.440
-8.300E-07,0.400
-8.200E-07,0.080
-8.100E-07,0.200
-8.000E-07,0.040
-7.900E-07,0.240
-7.800E-07,0.360
-7.700E-07,0.440
-7.600E-07,0.480
-7.500E-07,0.600
-7.400E-07,0.720
-7.300E-07,0.840
-7.200E-07,0.840
-7.100E-07,0.840
-7.000E-07,0.880
-6.900E-07,0.960
-6.800E-07,1.160
-6.700E-07,1.240
-6.600E-07,1.200
-6.500E-07,1.040
-6.400E-07,0.840
-6.300E-07,0.640
-6.200E-07,0.520
-6.100E-07,0.520
-6.000E-07,0.480
-5.900E-07,0.400
-5.800E-07,0.200
-5.700E-07,0.080
-5.600E-07,-0.040
-5.500E-07,-0.120
-5.400E-07,-0.280
-5.300E-07,-0.280
-5.200E-07,-0.320
-5.100E-07,-0.360
-5.000E-07,-0.440
-4.900E-07,-0.520
-4.800E-07,-0.720
-4.700E-07,-0.800
-4.600E-07,-0.920
-4.500E-07,-0.920
-4.400E-07,-0.760
-4.300E-07,-0.640
-4.200E-07,-0.400
-4.100E-07,-0.240
-4.000E-07,-0.080
-3.900E-07,-0.080
-3.800E-07,0.000
-3.700E-07,0.120
-3.600E-07,0.240
-3.500E-07,0.440
-3.400E-07,0.640
-3.300E-07,0.880
-3.200E-07,0.840
-3.100E-07,0.680
-3.000E-07,0.680
-2.900E-07,0.600
-2.800E-07,0.600
-2.700E-07,0.880
-2.600E-07,1.040
-2.500E-07,1.240
-2.400E-07,1.160
-2.300E-07,1.200
-2.200E-07,1.120
-2.100E-07,1.000
-2.000E-07,1.120
-1.900E-07,1.160
-1.800E-07,1.240
-1.700E-07,1.240
-1.600E-07,1.200
-1.500E-07,1.000
-1.400E-07,1.000
-1.300E-07,0.920
-1.200E-07,0.960
-1.100E-07,0.920
-1.000E-07,0.840
-9.000E-08,0.760
-8.000E-08,0.680
-7.000E-08,0.520
-6.000E-08,0.440
-5.000E-08,0.320
-4.000E-08,0.280
-3.000E-08,0.560
-2.000E-08,-0.160
-1.000E-08,0.080
0.000E+00,-0.360
1.000E-08,-0.040
2.000E-08,0.520
3.000E-08,1.280
4.000E-08,1.120
5.000E-08,0.800
6.000E-08,-0.400
7.000E-08,-0.840
8.000E-08,-0.880
9.000E-08,0.920
1.000E-07,2.320
1.100E-07,3.280
1.200E-07,2.920
1.300E-07,1.560
1.400E-07,0.080
1.500E-07,-0.280
1.600E-07,0.440
1.700E-07,1.720
1.800E-07,2.320
1.900E-07,2.040
2.000E-07,1.080
2.100E-07,-0.080
2.200E-07,-0.680
2.300E-07,-0.800
2.400E-07,-0.560
2.500E-07,-0.280
2.600E-07,-0.440
2.700E-07,-0.560
2.800E-07,-1.360
2.900E-07,-1.800
3.000E-07,-1.920
3.100E-07,-2.200
3.200E-07,-1.720
3.300E-07,-1.360
3.400E-07,-0.920
3.500E-07,-0.640
3.600E-07,-0.840
3.700E-07,-0.960
3.800E-07,-0.960
3.900E-07,-0.640
4.000E-07,-0.120
4.100E-07,0.240
4.200E-07,0.560
4.300E-07,0.680
4.400E-07,0.600
4.500E-07,0.520
4.600E-07,0.560
4.700E-07,0.640
4.800E-07,0.880
4.900E-07,1.040
5.000E-07,1.080
5.100E-07,1.000
5.200E-07,0.880
5.300E-07,0.760
5.400E-07,0.600
5.500E-07,0.520
5.600E-07,0.560
5.700E-07,0.520
5.800E-07,0.440
5.900E-07,0.320
6.000E-07,0.160
6.100E-07,-0.040
6.200E-07,-0.160
6.300E-07,-0.160
6.400E-07,-0.160
6.500E-07,-0.240
6.600E-07,-0.320
6.700E-07,-0.440
6.800E-07,-0.520
6.900E-07,-0.560
7.000E-07,-0.480
7.100E-07,-0.480
7.200E-07,-0.440
7.300E-07,-0.520
7.400E-07,-0.520
7.500E-07,-0.640
7.600E-07,-0.560
7.700E-07,-0.560
7.800E-07,-0.480
7.900E-07,-0.480
8.000E-07,-0.440
8.100E-07,-0.440
8.200E-07,-0.560
8.300E-07,-0.480
8.400E-07,-0.480
8.500E-07,-0.480
8.600E-07,-0.520
8.700E-07,-0.640
8.800E-07,-0.680
8.900E-07,-0.560
9.000E-07,-0.320
9.100E-07,-0.040
9.200E-07,0.080
9.300E-07,0.080
9.400E-07,0.160
9.500E-07,0.240
9.600E-07,0.480
9.700E-07,0.880
9.800E-07,1.000
9.900E-07,1.080
1.000E-06,0.960
1.010E-06,0.760
1.020E-06,0.840
1.030E-06,0.880
1.040E-06,1.000
1.050E-06,1.080
1.060E-06,1.000
1.070E-06,0.960
1.080E-06,0.800
1.090E-06,0.760
1.100E-06,0.760
1.110E-06,0.760
1.120E-06,0.720
1.130E-06,0.680
1.140E-06,0.600
1.150E-06,0.480
1.160E-06,0.360
1.170E-06,0.200
1.180E-06,0.120
1.190E-06,0.040
1.200E-06,-0.040
1.210E-06,-0.160
1.220E-06,-0.240
1.230E-06,-0.280
1.240E-06,-0.360
1.250E-06,-0.360
1.260E-06,-0.360
1.270E-06,-0.400
1.280E-06,-0.480
1.290E-06,-0.440
1.300E-06,-0.440
1.310E-06,-0.400
1.320E-06,-0.360
1.330E-06,-0.320
1.340E-06,-0.360
1.350E-06,-0.280
1.360E-06,-0.240
1.370E-06,-0.240
1.380E-06,-0.240
1.390E-06,-0.240
1.400E-06,-0.160
1.410E-06,-0.200
1.420E-06,-0.120
1.430E-06,-0.040
1.440E-06,0.000
1.450E-06,-0.040
1.460E-06,0.040
1.470E-06,0.000
1.480E-06,-0.040
1.490E-06,0.000
1.500E-06,0.000
1.510E-06,-0.240
1.520E-06,-0.440
1.530E-06,-0.720
1.540E-06,-0.800
1.550E-06,-0.560
1.560E-06,-0.120
1.570E-06,0.520
1.580E-06,0.720
1.590E-06,0.720
1.600E-06,0.080
1.610E-06,-0.280
1.620E-06,-0.440
1.630E-06,-0.280
1.640E-06,-0.040
1.650E-06,0.240
1.660E-06,0.160
1.670E-06,0.240
1.680E-06,0.480
1.690E-06,0.640
1.700E-06,0.760
1.710E-06,0.640
1.720E-06,0.360
1.730E-06,0.360
1.740E-06,0.320
1.750E-06,0.680
1.760E-06,0.320
1.770E-06,0.840
1.780E-06,0.160
1.790E-06,0.320
1.800E-06,0.880
1.810E-06,1.440
1.820E-06,2.240
1.830E-06,2.400
1.840E-06,2.160
1.850E-06,1.800
1.860E-06,1.360
1.870E-06,1.560
1.880E-06,1.880
1.890E-06,2.200
1.900E-06,2.280
1.910E-06,1.760
1.920E-06,1.000
1.930E-06,0.600
1.940E-06,0.320
1.950E-06,0.440
1.960E-06,0.480
1.970E-06,0.440
1.980E-06,0.200
1.990E-06,-0.080
2.000E-06,-0.520
2.010E-06,-0.800
2.020E-06,-1.000
2.030E-06,-1.040
2.040E-06,-1.080
2.050E-06,-1.200
2.060E-06,-1.280
2.070E-06,-1.320
2.080E-06,-1.480
2.090E-06,-1.400
2.100E-06,-1.360
2.110E-06,-1.280
2.120E-06,-1.160
2.130E-06,-0.960
2.140E-06,-0.840
2.150E-06,-0.640
2.160E-06,-0.560
2.170E-06,-0.480
2.180E-06,-0.400
2.190E-06,-0.240
2.200E-06,-0.040
2.210E-06,0.080
2.220E-06,0.200
2.230E-06,0.200
2.240E-06,0.280
2.250E-06,0.200
2.260E-06,0.280
2.270E-06,0.280
2.280E-06,0.320
2.290E-06,0.480
2.300E-06,0.520
2.310E-06,0.480
2.320E-06,0.400
2.330E-06,0.360
2.340E-06,0.200
2.350E-06,0.240
2.360E-06,0.360
2.370E-06,0.440
2.380E-06,0.600
2.390E-06,0.680
2.400E-06,0.680
2.410E-06,0.760
2.420E-06,0.720
2.430E-06,0.760
2.440E-06,0.840
2.450E-06,0.840
2.460E-06,0.880
2.470E-06,0.880
2.480E-06,0.800
2.490E-06,0.920
2.500E-06,0.760
2.510E-06,0.800
2.520E-06,0.880
2.530E-06,0.600
2.540E-06,0.920
2.550E-06,0.480
2.560E-06,0.720
2.570E-06,0.560
2.580E-06,0.840
2.590E-06,0.840
2.600E-06,1.080
2.610E-06,0.240
2.620E-06,-0.480
2.630E-06,-0.880
2.640E-06,-0.760
2.650E-06,0.600
2.660E-06,2.200
2.670E-06,3.160
2.680E-06,2.920
2.690E-06,1.400
2.700E-06,0.160
2.710E-06,-0.160
2.720E-06,0.600
2.730E-06,2.080
2.740E-06,2.520
2.750E-06,2.440
2.760E-06,1.480
2.770E-06,0.800
2.780E-06,0.440
2.790E-06,0.600
2.800E-06,0.920
2.810E-06,1.040
2.820E-06,1.120
2.830E-06,0.840
2.840E-06,0.600
2.850E-06,0.400
2.860E-06,0.000
2.870E-06,-0.160
2.880E-06,-0.520
2.890E-06,-0.560
2.900E-06,-0.600
2.910E-06,-0.560
2.920E-06,-0.600
2.930E-06,-0.720
2.940E-06,-0.920
2.950E-06,-0.960
2.960E-06,-0.880
2.970E-06,-0.680
2.980E-06,-0.480
2.990E-06,-0.360
3.000E-06,-0.240
3.010E-06,-0.240
3.020E-06,-0.160
3.030E-06,0.040
3.040E-06,0.160
3.050E-06,0.200
3.060E-06,0.360
3.070E-06,0.400
3.080E-06,0.320
3.090E-06,0.240
3.100E-06,0.200
3.110E-06,0.120
3.120E-06,0.120
3.130E-06,0.240
3.140E-06,0.240
3.150E-06,0.120
3.160E-06,0.040
3.170E-06,0.040
3.180E-06,0.120
3.190E-06,0.280
3.200E-06,0.360
3.210E-06,0.480
3.220E-06,0.440
3.230E-06,0.520
3.240E-06,0.400
3.250E-06,0.400
3.260E-06,0.400
3.270E-06,0.360
3.280E-06,0.320
3.290E-06,0.320
3.300E-06,0.240
3.310E-06,0.160
3.320E-06,0.120
3.330E-06,0.080
3.340E-06,0.120
3.350E-06,0.080
3.360E-06,0.160
3.370E-06,0.080
3.380E-06,0.000
3.390E-06,-0.040
3.400E-06,0.000
3.410E-06,0.280
3.420E-06,0.440
3.430E-06,0.480
3.440E-06,0.520
3.450E-06,0.160
3.460E-06,0.240
3.470E-06,-0.040
3.480E-06,0.360
3.490E-06,0.680
3.500E-06,0.680
3.510E-06,1.720
3.520E-06,1.400
3.530E-06,1.520
3.540E-06,0.400
3.550E-06,0.360
3.560E-06,-0.360
3.570E-06,0.880
3.580E-06,1.440
3.590E-06,2.400
3.600E-06,2.240
3.610E-06,2.040
3.620E-06,1.080
3.630E-06,0.720
3.640E-06,0.680
3.650E-06,0.880
3.660E-06,1.640
3.670E-06,2.280
3.680E-06,2.840
3.690E-06,3.000
3.700E-06,2.440
3.710E-06,2.080
3.720E-06,1.600
3.730E-06,1.680
3.740E-06,1.880
3.750E-06,2.000
3.760E-06,1.880
3.770E-06,1.400
3.780E-06,0.960
3.790E-06,0.480
3.800E-06,0.080
3.810E-06,-0.040
3.820E-06,-0.160
3.830E-06,-0.320
3.840E-06,-0.440
3.850E-06,-0.640
3.860E-06,-0.800
3.870E-06,-1.040
3.880E-06,-1.240
3.890E-06,-1.280
3.900E-06,-1.240
3.910E-06,-1.280
3.920E-06,-1.200
3.930E-06,-1.160
3.940E-06,-1.200
3.950E-06,-1.120
3.960E-06,-1.040
3.970E-06,-0.920
3.980E-06,-0.720
3.990E-06,-0.640
4.000E-06,-0.480
4.010E-06,-0.440
4.020E-06,-0.320
4.030E-06,-0.200
4.040E-06,-0.080
4.050E-06,0.040
4.060E-06,0.080
4.070E-06,0.240
4.080E-06,0.360
4.090E-06,0.360
4.100E-06,0.440
4.110E-06,0.520
4.120E-06,0.560
4.130E-06,0.720
4.140E-06,0.760
4.150E-06,0.840
4.160E-06,0.840
4.170E-06,0.640
4.180E-06,0.600
4.190E-06,0.520
4.200E-06,0.400
4.210E-06,0.440
4.220E-06,0.360
4.230E-06,0.400
4.240E-06,0.480
4.250E-06,0.400
4.260E-06,0.360
4.270E-06,0.280
4.280E-06,0.080
4.290E-06,0.000
4.300E-06,-0.200
4.310E-06,-0.280
4.320E-06,-0.520
4.330E-06,-0.920
4.340E-06,-0.520
4.350E-06,-0.760
4.360E-06,0.000
4.370E-06,0.240
4.380E-06,0.520
4.390E-06,0.760
4.400E-06,0.440
4.410E-06,0.480
4.420E-06,0.080
