mediciones/5-27/-17.5/WaveData51143.csv

#timebase=2000000(ps)
,#voltbase=1000000(mv/100)
#size=4000
-5.650E-06,-0.040
-5.640E-06,0.000
-5.630E-06,0.000
-5.620E-06,0.000
-5.610E-06,0.040
-5.600E-06,0.040
-5.590E-06,0.080
-5.580E-06,0.080
-5.570E-06,0.160
-5.560E-06,0.160
-5.550E-06,0.120
-5.540E-06,0.080
-5.530E-06,0.080
-5.520E-06,0.120
-5.510E-06,0.080
-5.500E-06,0.120
-5.490E-06,0.080
-5.480E-06,0.080
-5.470E-06,0.080
-5.460E-06,0.040
-5.450E-06,0.000
-5.440E-06,0.080
-5.430E-06,0.160
-5.420E-06,0.080
-5.410E-06,0.120
-5.400E-06,0.160
-5.390E-06,0.120
-5.380E-06,0.120
-5.370E-06,0.040
-5.360E-06,0.080
-5.350E-06,0.120
-5.340E-06,0.080
-5.330E-06,0.080
-5.320E-06,0.080
-5.310E-06,0.080
-5.300E-06,0.000
-5.290E-06,0.040
-5.280E-06,0.080
-5.270E-06,0.040
-5.260E-06,0.040
-5.250E-06,0.040
-5.240E-06,0.040
-5.230E-06,0.040
-5.220E-06,0.040
-5.210E-06,0.080
-5.200E-06,0.040
-5.190E-06,0.040
-5.180E-06,0.040
-5.170E-06,0.040
-5.160E-06,0.040
-5.150E-06,0.000
-5.140E-06,0.000
-5.130E-06,0.080
-5.120E-06,0.040
-5.110E-06,0.080
-5.100E-06,0.040
-5.090E-06,0.040
-5.080E-06,0.040
-5.070E-06,0.040
-5.060E-06,0.080
-5.050E-06,0.080
-5.040E-06,0.080
-5.030E-06,0.040
-5.020E-06,0.000
-5.010E-06,0.000
-5.000E-06,0.040
-4.990E-06,-0.040
-4.980E-06,0.000
-4.970E-06,0.040
-4.960E-06,0.000
-4.950E-06,-0.040
-4.940E-06,0.000
-4.930E-06,0.040
-4.920E-06,0.040
-4.910E-06,0.080
-4.900E-06,0.040
-4.890E-06,0.080
-4.880E-06,0.160
-4.870E-06,0.160
-4.860E-06,0.240
-4.850E-06,0.320
-4.840E-06,0.320
-4.830E-06,0.240
-4.820E-06,0.160
-4.810E-06,0.200
-4.800E-06,0.160
-4.790E-06,0.240
-4.780E-06,0.240
-4.770E-06,0.200
-4.760E-06,0.160
-4.750E-06,0.160
-4.740E-06,0.160
-4.730E-06,0.200
-4.720E-06,0.240
-4.710E-06,0.160
-4.700E-06,0.120
-4.690E-06,0.080
-4.680E-06,0.080
-4.670E-06,0.080
-4.660E-06,0.000
-4.650E-06,0.040
-4.640E-06,0.040
-4.630E-06,0.000
-4.620E-06,-0.040
-4.610E-06,-0.040
-4.600E-06,-0.040
-4.590E-06,-0.080
-4.580E-06,0.000
-4.570E-06,0.000
-4.560E-06,-0.080
-4.550E-06,-0.040
-4.540E-06,-0.080
-4.530E-06,-0.080
-4.520E-06,-0.080
-4.510E-06,-0.080
-4.500E-06,-0.160
-4.490E-06,-0.200
-4.480E-06,-0.160
-4.470E-06,-0.040
-4.460E-06,-0.040
-4.450E-06,0.000
-4.440E-06,0.000
-4.430E-06,-0.040
-4.420E-06,0.040
-4.410E-06,0.120
-4.400E-06,0.200
-4.390E-06,0.240
-4.380E-06,0.240
-4.370E-06,0.200
-4.360E-06,0.200
-4.350E-06,0.200
-4.340E-06,0.200
-4.330E-06,0.240
-4.320E-06,0.240
-4.310E-06,0.280
-4.300E-06,0.200
-4.290E-06,0.160
-4.280E-06,0.160
-4.270E-06,0.200
-4.260E-06,0.160
-4.250E-06,0.160
-4.240E-06,0.160
-4.230E-06,0.080
-4.220E-06,0.000
-4.210E-06,0.000
-4.200E-06,0.040
-4.190E-06,0.040
-4.180E-06,0.040
-4.170E-06,0.040
-4.160E-06,0.040
-4.150E-06,-0.080
-4.140E-06,-0.120
-4.130E-06,0.000
-4.120E-06,-0.040
-4.110E-06,-0.080
-4.100E-06,-0.080
-4.090E-06,-0.080
-4.080E-06,-0.080
-4.070E-06,-0.040
-4.060E-06,-0.040
-4.050E-06,0.040
-4.040E-06,0.000
-4.030E-06,0.040
-4.020E-06,0.000
-4.010E-06,0.000
-4.000E-06,0.080
-3.990E-06,0.120
-3.980E-06,0.080
-3.970E-06,0.080
-3.960E-06,0.080
-3.950E-06,0.080
-3.940E-06,0.080
-3.930E-06,0.120
-3.920E-06,0.080
-3.910E-06,0.160
-3.900E-06,0.200
-3.890E-06,0.120
-3.880E-06,0.040
-3.870E-06,0.040
-3.860E-06,0.080
-3.850E-06,0.160
-3.840E-06,0.160
-3.830E-06,0.080
-3.820E-06,0.080
-3.810E-06,0.080
-3.800E-06,0.120
-3.790E-06,0.120
-3.780E-06,0.120
-3.770E-06,0.040
-3.760E-06,0.080
-3.750E-06,0.120
-3.740E-06,0.080
-3.730E-06,0.160
-3.720E-06,0.040
-3.710E-06,0.080
-3.700E-06,0.080
-3.690E-06,0.040
-3.680E-06,0.080
-3.670E-06,0.040
-3.660E-06,0.080
-3.650E-06,0.120
-3.640E-06,0.080
-3.630E-06,0.120
-3.620E-06,0.160
-3.610E-06,0.200
-3.600E-06,0.280
-3.590E-06,0.160
-3.580E-06,0.160
-3.570E-06,0.120
-3.560E-06,0.040
-3.550E-06,0.080
-3.540E-06,0.160
-3.530E-06,0.120
-3.520E-06,0.120
-3.510E-06,0.080
-3.500E-06,0.080
-3.490E-06,0.040
-3.480E-06,0.000
-3.470E-06,0.080
-3.460E-06,0.120
-3.450E-06,0.080
-3.440E-06,0.000
-3.430E-06,0.000
-3.420E-06,0.040
-3.410E-06,0.040
-3.400E-06,-0.040
-3.390E-06,-0.040
-3.380E-06,0.040
-3.370E-06,-0.040
-3.360E-06,0.000
-3.350E-06,-0.040
-3.340E-06,0.040
-3.330E-06,0.040
-3.320E-06,0.040
-3.310E-06,0.040
-3.300E-06,0.080
-3.290E-06,0.080
-3.280E-06,0.120
-3.270E-06,0.160
-3.260E-06,0.200
-3.250E-06,0.160
-3.240E-06,0.200
-3.230E-06,0.160
-3.220E-06,0.080
-3.210E-06,0.080
-3.200E-06,0.120
-3.190E-06,0.120
-3.180E-06,0.120
-3.170E-06,0.080
-3.160E-06,0.160
-3.150E-06,0.120
-3.140E-06,0.040
-3.130E-06,0.080
-3.120E-06,0.080
-3.110E-06,0.080
-3.100E-06,0.080
-3.090E-06,0.120
-3.080E-06,0.120
-3.070E-06,0.120
-3.060E-06,0.080
-3.050E-06,0.120
-3.040E-06,0.160
-3.030E-06,0.120
-3.020E-06,0.080
-3.010E-06,0.160
-3.000E-06,0.200
-2.990E-06,0.120
-2.980E-06,0.040
-2.970E-06,0.080
-2.960E-06,-0.040
-2.950E-06,0.000
-2.940E-06,0.040
-2.930E-06,0.160
-2.920E-06,0.160
-2.910E-06,0.200
-2.900E-06,0.080
-2.890E-06,0.080
-2.880E-06,0.080
-2.870E-06,0.120
-2.860E-06,0.200
-2.850E-06,0.120
-2.840E-06,0.200
-2.830E-06,0.200
-2.820E-06,0.120
-2.810E-06,0.160
-2.800E-06,0.120
-2.790E-06,0.080
-2.780E-06,0.160
-2.770E-06,0.240
-2.760E-06,0.200
-2.750E-06,0.160
-2.740E-06,0.160
-2.730E-06,0.160
-2.720E-06,0.200
-2.710E-06,0.120
-2.700E-06,0.120
-2.690E-06,0.160
-2.680E-06,0.120
-2.670E-06,0.160
-2.660E-06,0.200
-2.650E-06,0.320
-2.640E-06,0.240
-2.630E-06,0.240
-2.620E-06,0.240
-2.610E-06,0.120
-2.600E-06,0.080
-2.590E-06,0.120
-2.580E-06,0.200
-2.570E-06,0.240
-2.560E-06,0.200
-2.550E-06,0.160
-2.540E-06,0.200
-2.530E-06,0.160
-2.520E-06,0.160
-2.510E-06,0.280
-2.500E-06,0.240
-2.490E-06,0.280
-2.480E-06,0.280
-2.470E-06,0.280
-2.460E-06,0.320
-2.450E-06,0.280
-2.440E-06,0.240
-2.430E-06,0.240
-2.420E-06,0.200
-2.410E-06,0.280
-2.400E-06,0.360
-2.390E-06,0.360
-2.380E-06,0.360
-2.370E-06,0.320
-2.360E-06,0.320
-2.350E-06,0.320
-2.340E-06,0.320
-2.330E-06,0.400
-2.320E-06,0.440
-2.310E-06,0.400
-2.300E-06,0.440
-2.290E-06,0.360
-2.280E-06,0.360
-2.270E-06,0.360
-2.260E-06,0.320
-2.250E-06,0.400
-2.240E-06,0.440
-2.230E-06,0.440
-2.220E-06,0.440
-2.210E-06,0.400
-2.200E-06,0.320
-2.190E-06,0.320
-2.180E-06,0.200
-2.170E-06,0.240
-2.160E-06,0.320
-2.150E-06,0.360
-2.140E-06,0.440
-2.130E-06,0.440
-2.120E-06,0.360
-2.110E-06,0.400
-2.100E-06,0.280
-2.090E-06,0.360
-2.080E-06,0.400
-2.070E-06,0.440
-2.060E-06,0.360
-2.050E-06,0.360
-2.040E-06,0.320
-2.030E-06,0.360
-2.020E-06,0.400
-2.010E-06,0.400
-2.000E-06,0.360
-1.990E-06,0.320
-1.980E-06,0.320
-1.970E-06,0.360
-1.960E-06,0.360
-1.950E-06,0.320
-1.940E-06,0.280
-1.930E-06,0.240
-1.920E-06,0.280
-1.910E-06,0.280
-1.900E-06,0.200
-1.890E-06,0.200
-1.880E-06,0.200
-1.870E-06,0.160
-1.860E-06,0.200
-1.850E-06,0.080
-1.840E-06,0.080
-1.830E-06,0.080
-1.820E-06,0.000
-1.810E-06,0.000
-1.800E-06,-0.040
-1.790E-06,-0.040
-1.780E-06,0.000
-1.770E-06,-0.080
-1.760E-06,-0.080
-1.750E-06,-0.160
-1.740E-06,-0.160
-1.730E-06,-0.120
-1.720E-06,-0.160
-1.710E-06,-0.080
-1.700E-06,-0.040
-1.690E-06,-0.080
-1.680E-06,-0.160
-1.670E-06,-0.080
-1.660E-06,-0.040
-1.650E-06,0.000
-1.640E-06,0.000
-1.630E-06,-0.040
-1.620E-06,0.000
-1.610E-06,-0.040
-1.600E-06,-0.040
-1.590E-06,0.000
-1.580E-06,0.040
-1.570E-06,0.080
-1.560E-06,0.080
-1.550E-06,0.080
-1.540E-06,0.080
-1.530E-06,0.120
-1.520E-06,0.200
-1.510E-06,0.160
-1.500E-06,0.120
-1.490E-06,0.160
-1.480E-06,0.080
-1.470E-06,0.080
-1.460E-06,0.160
-1.450E-06,0.160
-1.440E-06,0.160
-1.430E-06,0.040
-1.420E-06,-0.080
-1.410E-06,-0.200
-1.400E-06,-0.240
-1.390E-06,0.000
-1.380E-06,0.000
-1.370E-06,0.280
-1.360E-06,0.280
-1.350E-06,0.200
-1.340E-06,0.120
-1.330E-06,0.040
-1.320E-06,0.040
-1.310E-06,0.120
-1.300E-06,0.200
-1.290E-06,0.160
-1.280E-06,0.160
-1.270E-06,0.120
-1.260E-06,0.120
-1.250E-06,0.080
-1.240E-06,0.160
-1.230E-06,0.200
-1.220E-06,0.240
-1.210E-06,0.280
-1.200E-06,0.280
-1.190E-06,0.200
-1.180E-06,0.240
-1.170E-06,0.280
-1.160E-06,0.320
-1.150E-06,0.400
-1.140E-06,0.440
-1.130E-06,0.520
-1.120E-06,0.360
-1.110E-06,0.320
-1.100E-06,0.240
-1.090E-06,0.200
-1.080E-06,0.360
-1.070E-06,0.440
-1.060E-06,0.520
-1.050E-06,0.480
-1.040E-06,0.400
-1.030E-06,0.320
-1.020E-06,0.320
-1.010E-06,0.320
-1.000E-06,0.360
-9.900E-07,0.400
-9.800E-07,0.400
-9.700E-07,0.400
-9.600E-07,0.320
-9.500E-07,0.280
-9.400E-07,0.200
-9.300E-07,0.320
-9.200E-07,0.360
-9.100E-07,0.320
-9.000E-07,0.400
-8.900E-07,0.400
-8.800E-07,0.400
-8.700E-07,0.320
-8.600E-07,0.320
-8.500E-07,0.360
-8.400E-07,0.400
-8.300E-07,0.360
-8.200E-07,0.400
-8.100E-07,0.320
-8.000E-07,0.320
-7.900E-07,0.200
-7.800E-07,0.160
-7.700E-07,0.160
-7.600E-07,0.120
-7.500E-07,0.080
-7.400E-07,0.160
-7.300E-07,0.120
-7.200E-07,0.120
-7.100E-07,0.080
-7.000E-07,0.080
-6.900E-07,0.160
-6.800E-07,0.120
-6.700E-07,0.120
-6.600E-07,0.080
-6.500E-07,0.000
-6.400E-07,0.000
-6.300E-07,-0.040
-6.200E-07,0.000
-6.100E-07,-0.040
-6.000E-07,-0.080
-5.900E-07,-0.120
-5.800E-07,-0.080
-5.700E-07,-0.120
-5.600E-07,-0.200
-5.500E-07,-0.160
-5.400E-07,-0.160
-5.300E-07,-0.160
-5.200E-07,-0.160
-5.100E-07,-0.160
-5.000E-07,-0.160
-4.900E-07,-0.160
-4.800E-07,-0.160
-4.700E-07,-0.160
-4.600E-07,-0.120
-4.500E-07,-0.080
-4.400E-07,-0.120
-4.300E-07,-0.080
-4.200E-07,-0.200
-4.100E-07,-0.160
-4.000E-07,-0.200
-3.900E-07,-0.120
-3.800E-07,-0.080
-3.700E-07,-0.040
-3.600E-07,0.040
-3.500E-07,0.040
-3.400E-07,-0.040
-3.300E-07,0.000
-3.200E-07,0.000
-3.100E-07,0.080
-3.000E-07,0.040
-2.900E-07,0.080
-2.800E-07,0.040
-2.700E-07,0.080
-2.600E-07,0.000
-2.500E-07,-0.040
-2.400E-07,0.040
-2.300E-07,-0.040
-2.200E-07,0.120
-2.100E-07,0.000
-2.000E-07,0.160
-1.900E-07,0.160
-1.800E-07,0.160
-1.700E-07,0.200
-1.600E-07,0.240
-1.500E-07,0.120
-1.400E-07,0.160
-1.300E-07,-0.040
-1.200E-07,0.080
-1.100E-07,-0.160
-1.000E-07,-0.080
-9.000E-08,-0.560
-8.000E-08,-0.400
-7.000E-08,-0.640
-6.000E-08,-0.320
-5.000E-08,-0.320
-4.000E-08,0.160
-3.000E-08,0.080
-2.000E-08,-0.320
-1.000E-08,-0.640
0.000E+00,-0.800
1.000E-08,-0.560
2.000E-08,0.240
3.000E-08,0.640
4.000E-08,0.840
5.000E-08,0.560
6.000E-08,0.000
7.000E-08,-0.320
8.000E-08,-0.320
9.000E-08,0.000
1.000E-07,-0.080
1.100E-07,-0.520
1.200E-07,-0.440
1.300E-07,-1.040
1.400E-07,-0.120
1.500E-07,0.360
1.600E-07,0.720
1.700E-07,0.840
1.800E-07,0.200
1.900E-07,-0.280
2.000E-07,-0.320
2.100E-07,0.000
2.200E-07,0.600
2.300E-07,0.680
2.400E-07,0.520
2.500E-07,0.240
2.600E-07,0.000
2.700E-07,-0.280
2.800E-07,-0.120
2.900E-07,-0.480
3.000E-07,-0.440
3.100E-07,-0.280
3.200E-07,-0.760
3.300E-07,-0.400
3.400E-07,-0.760
3.500E-07,-0.800
3.600E-07,-0.560
3.700E-07,-0.440
3.800E-07,-0.240
3.900E-07,0.200
4.000E-07,0.120
4.100E-07,0.200
4.200E-07,0.240
4.300E-07,0.320
4.400E-07,0.240
4.500E-07,0.000
4.600E-07,-0.040
4.700E-07,0.000
4.800E-07,-0.040
4.900E-07,0.080
5.000E-07,-0.040
5.100E-07,-0.400
5.200E-07,-0.680
5.300E-07,-0.880
5.400E-07,-1.000
5.500E-07,-0.960
5.600E-07,-1.000
5.700E-07,-1.080
5.800E-07,-1.400
5.900E-07,-1.640
6.000E-07,-1.960
6.100E-07,-2.080
6.200E-07,-2.040
6.300E-07,-2.000
6.400E-07,-1.880
6.500E-07,-1.800
6.600E-07,-1.640
6.700E-07,-1.520
6.800E-07,-1.320
6.900E-07,-1.280
7.000E-07,-1.160
7.100E-07,-0.800
7.200E-07,-0.520
7.300E-07,-0.160
7.400E-07,0.120
7.500E-07,0.240
7.600E-07,0.360
7.700E-07,0.440
7.800E-07,0.360
7.900E-07,0.560
8.000E-07,0.520
8.100E-07,0.520
8.200E-07,0.640
8.300E-07,0.680
8.400E-07,0.680
8.500E-07,0.680
8.600E-07,0.320
8.700E-07,0.440
8.800E-07,0.000
8.900E-07,0.240
9.000E-07,0.120
9.100E-07,-0.040
9.200E-07,0.000
9.300E-07,-0.360
9.400E-07,-0.440
9.500E-07,-0.360
9.600E-07,-0.520
9.700E-07,-0.480
9.800E-07,-0.680
9.900E-07,-0.760
1.000E-06,-0.760
1.010E-06,-0.680
1.020E-06,-0.400
1.030E-06,-0.360
1.040E-06,-0.440
1.050E-06,-0.520
1.060E-06,-0.600
1.070E-06,-0.680
1.080E-06,-0.640
1.090E-06,-0.640
1.100E-06,-0.600
1.110E-06,-0.680
1.120E-06,-0.640
1.130E-06,-0.760
1.140E-06,-0.800
1.150E-06,-0.840
1.160E-06,-0.880
1.170E-06,-1.080
1.180E-06,-1.120
1.190E-06,-1.120
1.200E-06,-1.000
1.210E-06,-1.080
1.220E-06,-0.920
1.230E-06,-1.000
1.240E-06,-1.120
1.250E-06,-1.120
1.260E-06,-1.160
1.270E-06,-1.360
1.280E-06,-1.080
1.290E-06,-1.000
1.300E-06,-0.640
1.310E-06,-0.480
1.320E-06,-0.480
1.330E-06,-0.320
1.340E-06,-0.560
1.350E-06,-0.600
1.360E-06,-0.520
1.370E-06,-0.480
1.380E-06,-0.400
1.390E-06,-0.480
1.400E-06,-0.480
1.410E-06,-0.520
1.420E-06,-0.360
1.430E-06,-0.320
1.440E-06,-0.240
1.450E-06,-0.080
1.460E-06,-0.080
1.470E-06,0.040
1.480E-06,0.080
1.490E-06,0.200
1.500E-06,0.200
1.510E-06,0.000
1.520E-06,-0.120
1.530E-06,-0.440
1.540E-06,-0.480
1.550E-06,-0.680
1.560E-06,-0.760
1.570E-06,-0.880
1.580E-06,-1.160
1.590E-06,-1.320
1.600E-06,-1.440
1.610E-06,-1.520
1.620E-06,-1.720
1.630E-06,-1.800
1.640E-06,-1.840
1.650E-06,-1.920
1.660E-06,-1.840
1.670E-06,-1.640
1.680E-06,-1.560
1.690E-06,-1.600
1.700E-06,-1.640
1.710E-06,-1.680
1.720E-06,-1.640
1.730E-06,-1.560
1.740E-06,-1.480
1.750E-06,-1.440
1.760E-06,-1.440
1.770E-06,-1.400
1.780E-06,-1.320
1.790E-06,-1.240
1.800E-06,-1.200
1.810E-06,-1.240
1.820E-06,-1.160
1.830E-06,-1.160
1.840E-06,-1.080
1.850E-06,-1.000
1.860E-06,-0.920
1.870E-06,-0.840
1.880E-06,-0.880
1.890E-06,-0.800
1.900E-06,-0.760
1.910E-06,-0.680
1.920E-06,-0.680
1.930E-06,-0.720
1.940E-06,-0.840
1.950E-06,-0.800
1.960E-06,-0.800
1.970E-06,-0.760
1.980E-06,-0.840
1.990E-06,-0.840
2.000E-06,-1.000
2.010E-06,-1.120
2.020E-06,-1.160
2.030E-06,-1.160
2.040E-06,-1.200
2.050E-06,-1.200
2.060E-06,-1.240
2.070E-06,-1.280
2.080E-06,-1.400
2.090E-06,-1.480
2.100E-06,-1.600
2.110E-06,-1.720
2.120E-06,-1.760
2.130E-06,-1.920
2.140E-06,-2.000
2.150E-06,-2.080
2.160E-06,-2.040
2.170E-06,-2.200
2.180E-06,-2.280
2.190E-06,-2.240
2.200E-06,-2.120
2.210E-06,-1.840
2.220E-06,-1.920
2.230E-06,-1.880
2.240E-06,-2.000
2.250E-06,-2.000
2.260E-06,-1.840
2.270E-06,-1.560
2.280E-06,-1.280
2.290E-06,-1.160
2.300E-06,-0.960
2.310E-06,-0.880
2.320E-06,-0.760
2.330E-06,-0.680
2.340E-06,-0.680
2.350E-06,-0.560
2.360E-06,-0.400
2.370E-06,-0.120
2.380E-06,0.000
2.390E-06,0.160
2.400E-06,0.000
2.410E-06,-0.160
2.420E-06,-0.360
2.430E-06,-0.320
2.440E-06,-0.360
2.450E-06,-0.240
2.460E-06,-0.240
2.470E-06,-0.400
2.480E-06,-0.520
2.490E-06,-0.640
2.500E-06,-0.720
2.510E-06,-0.840
2.520E-06,-0.880
2.530E-06,-0.720
2.540E-06,-0.760
2.550E-06,-0.640
2.560E-06,-0.520
2.570E-06,-0.600
2.580E-06,-0.520
2.590E-06,-0.520
2.600E-06,-0.480
2.610E-06,-0.440
2.620E-06,-0.440
2.630E-06,-0.400
2.640E-06,-0.440
2.650E-06,-0.520
2.660E-06,-0.640
2.670E-06,-0.480
2.680E-06,-0.840
2.690E-06,-1.040
2.700E-06,-1.000
2.710E-06,-1.920
2.720E-06,-1.200
2.730E-06,-2.480
2.740E-06,-1.800
2.750E-06,-2.000
2.760E-06,-0.480
2.770E-06,-3.680
2.780E-06,-2.920
2.790E-06,-2.440
2.800E-06,-3.360
2.810E-06,-0.080
2.820E-06,0.600
2.830E-06,1.680
2.840E-06,0.520
2.850E-06,-0.920
2.860E-06,-1.400
2.870E-06,-1.200
2.880E-06,0.240
2.890E-06,0.480
2.900E-06,0.240
2.910E-06,-0.640
2.920E-06,-1.240
2.930E-06,-1.320
2.940E-06,-1.000
2.950E-06,-0.360
2.960E-06,-0.600
2.970E-06,-0.640
2.980E-06,-1.200
2.990E-06,-1.680
3.000E-06,-1.640
3.010E-06,-1.920
3.020E-06,-2.160
3.030E-06,-2.400
3.040E-06,-2.680
3.050E-06,-2.640
3.060E-06,-2.600
3.070E-06,-2.640
3.080E-06,-2.800
3.090E-06,-3.000
3.100E-06,-3.080
3.110E-06,-2.760
3.120E-06,-2.520
3.130E-06,-2.240
3.140E-06,-2.160
3.150E-06,-2.200
3.160E-06,-2.200
3.170E-06,-2.200
3.180E-06,-2.000
3.190E-06,-1.880
3.200E-06,-1.720
3.210E-06,-1.520
3.220E-06,-1.440
3.230E-06,-1.480
3.240E-06,-1.520
3.250E-06,-1.360
3.260E-06,-1.360
3.270E-06,-1.120
3.280E-06,-0.960
3.290E-06,-0.840
3.300E-06,-0.800
3.310E-06,-0.840
3.320E-06,-0.920
3.330E-06,-1.000
3.340E-06,-0.960
3.350E-06,-1.120
3.360E-06,-1.240
3.370E-06,-1.280
3.380E-06,-1.640
3.390E-06,-1.520
3.400E-06,-1.280
3.410E-06,-1.120
3.420E-06,-0.840
3.430E-06,-0.760
3.440E-06,-0.880
3.450E-06,-1.120
3.460E-06,-1.360
3.470E-06,-1.560
3.480E-06,-1.520
3.490E-06,-1.680
3.500E-06,-1.640
3.510E-06,-1.400
3.520E-06,-1.440
3.530E-06,-1.120
3.540E-06,-1.280
3.550E-06,-0.840
3.560E-06,-1.120
3.570E-06,-1.000
3.580E-06,-1.000
3.590E-06,-0.960
3.600E-06,-0.760
3.610E-06,-0.600
3.620E-06,-0.520
3.630E-06,-0.560
3.640E-06,-0.520
3.650E-06,-0.640
3.660E-06,-0.800
3.670E-06,-0.960
3.680E-06,-1.120
3.690E-06,-1.240
3.700E-06,-1.160
3.710E-06,-1.040
3.720E-06,-0.920
3.730E-06,-1.120
3.740E-06,-1.360
3.750E-06,-1.800
3.760E-06,-2.000
3.770E-06,-2.160
3.780E-06,-2.000
3.790E-06,-1.880
3.800E-06,-1.760
3.810E-06,-1.960
3.820E-06,-2.080
3.830E-06,-2.160
3.840E-06,-1.960
3.850E-06,-1.720
3.860E-06,-1.160
3.870E-06,-1.000
3.880E-06,-1.000
3.890E-06,-1.080
3.900E-06,-0.920
3.910E-06,-0.800
3.920E-06,-0.440
3.930E-06,-0.360
3.940E-06,-0.240
3.950E-06,-0.400
3.960E-06,-0.600
3.970E-06,-0.560
3.980E-06,-0.520
3.990E-06,-0.360
4.000E-06,-0.080
4.010E-06,-0.120
4.020E-06,-0.040
4.030E-06,-0.160
4.040E-06,-0.240
4.050E-06,-0.280
4.060E-06,-0.440
4.070E-06,-0.480
4.080E-06,-0.600
4.090E-06,-0.800
4.100E-06,-0.840
4.110E-06,-1.000
4.120E-06,-0.960
4.130E-06,-1.120
4.140E-06,-1.200
4.150E-06,-1.280
4.160E-06,-1.360
4.170E-06,-1.280
4.180E-06,-1.200
4.190E-06,-1.160
4.200E-06,-1.200
4.210E-06,-1.200
4.220E-06,-1.120
4.230E-06,-1.080
4.240E-06,-0.920
4.250E-06,-0.800
4.260E-06,-0.640
4.270E-06,-0.640
4.280E-06,-0.600
4.290E-06,-0.520
4.300E-06,-0.480
4.310E-06,-0.480
4.320E-06,-0.520
4.330E-06,-0.520
4.340E-06,-0.600
4.350E-06,-0.520
4.360E-06,-0.560
4.370E-06,-0.440
4.380E-06,-0.360
4.390E-06,-0.320
4.400E-06,-0.360
4.410E-06,-0.400
4.420E-06,-0.400
4.430E-06,-0.440
4.440E-06,-0.520
4.450E-06,-0.600
4.460E-06,-0.600
4.470E-06,-0.880
4.480E-06,-0.920
4.490E-06,-1.080
4.500E-06,-1.320
4.510E-06,-1.400
4.520E-06,-1.800
4.530E-06,-1.960
4.540E-06,-1.400
4.550E-06,-1.680
4.560E-06,-1.040
4.570E-06,-1.240
4.580E-06,-1.480
4.590E-06,-1.440
4.600E-06,-1.560
4.610E-06,-0.480
4.620E-06,0.040
4.630E-06,0.400
4.640E-06,0.360
4.650E-06,-0.360
4.660E-06,-0.680
4.670E-06,-0.680
4.680E-06,-0.600
4.690E-06,-0.160
4.700E-06,0.000
4.710E-06,-0.040
4.720E-06,0.000
4.730E-06,-0.080
4.740E-06,-0.160
4.750E-06,-0.160
4.760E-06,0.040
4.770E-06,0.200
4.780E-06,0.520
4.790E-06,0.840
4.800E-06,0.840
4.810E-06,0.760
4.820E-06,0.480
4.830E-06,0.280
4.840E-06,0.240
4.850E-06,0.240
4.860E-06,0.200
4.870E-06,-0.040
4.880E-06,-0.360
4.890E-06,-0.600
4.900E-06,-0.880
4.910E-06,-0.960
4.920E-06,-0.680
4.930E-06,-0.560
4.940E-06,-0.360
4.950E-06,-0.120
4.960E-06,-0.120
4.970E-06,0.000
4.980E-06,-0.080
4.990E-06,-0.080
5.000E-06,0.000
5.010E-06,0.000
5.020E-06,0.000
5.030E-06,-0.120
5.040E-06,-0.320
5.050E-06,-0.680
5.060E-06,-1.080
5.070E-06,-1.480
5.080E-06,-1.840
5.090E-06,-2.080
5.100E-06,-2.280
5.110E-06,-2.440
5.120E-06,-2.560
5.130E-06,-2.600
5.140E-06,-2.680
5.150E-06,-2.520
5.160E-06,-2.520
5.170E-06,-2.360
5.180E-06,-2.240
5.190E-06,-2.080
5.200E-06,-1.960
5.210E-06,-1.840
5.220E-06,-1.720
5.230E-06,-1.600
5.240E-06,-1.400
5.250E-06,-1.280
5.260E-06,-1.120
5.270E-06,-0.960
5.280E-06,-0.880
5.290E-06,-0.840
5.300E-06,-0.840
5.310E-06,-0.680
5.320E-06,-0.600
5.330E-06,-0.480
5.340E-06,-0.320
5.350E-06,-0.240
5.360E-06,-0.240
5.370E-06,-0.200
5.380E-06,-0.400
5.390E-06,-0.600
5.400E-06,-0.880
5.410E-06,-1.120
5.420E-06,-1.320
5.430E-06,-1.600
5.440E-06,-1.760
5.450E-06,-2.040
5.460E-06,-2.360
5.470E-06,-2.640
5.480E-06,-2.840
5.490E-06,-3.200
5.500E-06,-3.240
5.510E-06,-3.200
5.520E-06,-3.080
5.530E-06,-2.760
5.540E-06,-2.720
5.550E-06,-2.720
5.560E-06,-2.800
5.570E-06,-3.000
5.580E-06,-3.040
5.590E-06,-2.880
5.600E-06,-2.680
5.610E-06,-2.320
5.620E-06,-2.120
5.630E-06,-1.920
5.640E-06,-1.840
5.650E-06,-1.960
5.660E-06,-1.960
5.670E-06,-2.080
5.680E-06,-2.000
5.690E-06,-1.920
5.700E-06,-1.760
5.710E-06,-1.600
5.720E-06,-1.520
5.730E-06,-1.680
5.740E-06,-2.000
5.750E-06,-2.320
5.760E-06,-2.680
5.770E-06,-3.120
5.780E-06,-3.440
5.790E-06,-3.840
5.800E-06,-3.840
5.810E-06,-3.680
5.820E-06,-3.360
5.830E-06,-3.400
5.840E-06,-3.200
5.850E-06,-3.400
5.860E-06,-3.200
5.870E-06,-3.320
5.880E-06,-3.280
5.890E-06,-3.240
5.900E-06,-3.160
5.910E-06,-2.680
5.920E-06,-2.520
5.930E-06,-2.320
5.940E-06,-2.560
5.950E-06,-2.840
5.960E-06,-3.040
5.970E-06,-2.840
5.980E-06,-2.360
5.990E-06,-2.000
6.000E-06,-1.480
6.010E-06,-1.200
6.020E-06,-1.040
6.030E-06,-0.840
6.040E-06,-0.760
6.050E-06,-0.640
6.060E-06,-0.640
