mediciones/5-27/-17.5/WaveData5197.csv

#timebase=2000000(ps)
,#voltbase=1000000(mv/100)
#size=4000
-3.800E-06,0.040
-3.790E-06,0.080
-3.780E-06,0.160
-3.770E-06,0.080
-3.760E-06,0.160
-3.750E-06,0.160
-3.740E-06,0.160
-3.730E-06,0.200
-3.720E-06,0.160
-3.710E-06,0.160
-3.700E-06,0.200
-3.690E-06,0.200
-3.680E-06,0.240
-3.670E-06,0.200
-3.660E-06,0.240
-3.650E-06,0.160
-3.640E-06,0.240
-3.630E-06,0.280
-3.620E-06,0.280
-3.610E-06,0.240
-3.600E-06,0.240
-3.590E-06,0.240
-3.580E-06,0.280
-3.570E-06,0.280
-3.560E-06,0.200
-3.550E-06,0.200
-3.540E-06,0.160
-3.530E-06,0.080
-3.520E-06,0.080
-3.510E-06,0.160
-3.500E-06,0.120
-3.490E-06,0.160
-3.480E-06,0.160
-3.470E-06,0.160
-3.460E-06,0.160
-3.450E-06,0.200
-3.440E-06,0.200
-3.430E-06,0.160
-3.420E-06,0.200
-3.410E-06,0.120
-3.400E-06,0.160
-3.390E-06,0.160
-3.380E-06,0.120
-3.370E-06,0.200
-3.360E-06,0.160
-3.350E-06,0.160
-3.340E-06,0.200
-3.330E-06,0.160
-3.320E-06,0.120
-3.310E-06,0.120
-3.300E-06,0.160
-3.290E-06,0.200
-3.280E-06,0.240
-3.270E-06,0.200
-3.260E-06,0.160
-3.250E-06,0.160
-3.240E-06,0.240
-3.230E-06,0.160
-3.220E-06,0.240
-3.210E-06,0.200
-3.200E-06,0.160
-3.190E-06,0.120
-3.180E-06,0.120
-3.170E-06,0.080
-3.160E-06,0.080
-3.150E-06,0.280
-3.140E-06,0.080
-3.130E-06,0.120
-3.120E-06,0.000
-3.110E-06,0.000
-3.100E-06,0.080
-3.090E-06,0.240
-3.080E-06,0.360
-3.070E-06,0.320
-3.060E-06,0.120
-3.050E-06,0.080
-3.040E-06,0.080
-3.030E-06,0.120
-3.020E-06,0.320
-3.010E-06,0.440
-3.000E-06,0.320
-2.990E-06,0.240
-2.980E-06,0.160
-2.970E-06,0.200
-2.960E-06,0.280
-2.950E-06,0.360
-2.940E-06,0.320
-2.930E-06,0.280
-2.920E-06,0.200
-2.910E-06,0.200
-2.900E-06,0.200
-2.890E-06,0.280
-2.880E-06,0.240
-2.870E-06,0.240
-2.860E-06,0.120
-2.850E-06,0.040
-2.840E-06,0.040
-2.830E-06,-0.040
-2.820E-06,0.000
-2.810E-06,0.040
-2.800E-06,0.000
-2.790E-06,-0.040
-2.780E-06,-0.080
-2.770E-06,-0.120
-2.760E-06,-0.120
-2.750E-06,-0.080
-2.740E-06,-0.080
-2.730E-06,-0.080
-2.720E-06,-0.040
-2.710E-06,-0.040
-2.700E-06,-0.080
-2.690E-06,-0.040
-2.680E-06,0.000
-2.670E-06,0.040
-2.660E-06,0.120
-2.650E-06,0.000
-2.640E-06,0.040
-2.630E-06,0.120
-2.620E-06,0.200
-2.610E-06,0.200
-2.600E-06,0.200
-2.590E-06,0.080
-2.580E-06,0.120
-2.570E-06,0.160
-2.560E-06,0.200
-2.550E-06,0.240
-2.540E-06,0.200
-2.530E-06,0.240
-2.520E-06,0.200
-2.510E-06,0.240
-2.500E-06,0.240
-2.490E-06,0.320
-2.480E-06,0.360
-2.470E-06,0.240
-2.460E-06,0.160
-2.450E-06,0.160
-2.440E-06,0.320
-2.430E-06,0.320
-2.420E-06,0.400
-2.410E-06,0.320
-2.400E-06,0.360
-2.390E-06,0.240
-2.380E-06,0.200
-2.370E-06,0.320
-2.360E-06,0.400
-2.350E-06,0.400
-2.340E-06,0.360
-2.330E-06,0.320
-2.320E-06,0.400
-2.310E-06,0.480
-2.300E-06,0.480
-2.290E-06,0.520
-2.280E-06,0.520
-2.270E-06,0.440
-2.260E-06,0.480
-2.250E-06,0.480
-2.240E-06,0.520
-2.230E-06,0.520
-2.220E-06,0.520
-2.210E-06,0.480
-2.200E-06,0.440
-2.190E-06,0.440
-2.180E-06,0.480
-2.170E-06,0.480
-2.160E-06,0.440
-2.150E-06,0.480
-2.140E-06,0.400
-2.130E-06,0.400
-2.120E-06,0.360
-2.110E-06,0.360
-2.100E-06,0.360
-2.090E-06,0.320
-2.080E-06,0.360
-2.070E-06,0.280
-2.060E-06,0.240
-2.050E-06,0.240
-2.040E-06,0.240
-2.030E-06,0.160
-2.020E-06,0.120
-2.010E-06,0.160
-2.000E-06,0.120
-1.990E-06,0.120
-1.980E-06,0.080
-1.970E-06,0.080
-1.960E-06,0.080
-1.950E-06,0.080
-1.940E-06,0.080
-1.930E-06,-0.040
-1.920E-06,-0.080
-1.910E-06,-0.160
-1.900E-06,-0.160
-1.890E-06,0.080
-1.880E-06,0.200
-1.870E-06,0.320
-1.860E-06,0.320
-1.850E-06,0.160
-1.840E-06,0.160
-1.830E-06,0.160
-1.820E-06,0.240
-1.810E-06,0.480
-1.800E-06,0.560
-1.790E-06,0.520
-1.780E-06,0.440
-1.770E-06,0.360
-1.760E-06,0.280
-1.750E-06,0.280
-1.740E-06,0.360
-1.730E-06,0.440
-1.720E-06,0.480
-1.710E-06,0.400
-1.700E-06,0.320
-1.690E-06,0.320
-1.680E-06,0.280
-1.670E-06,0.320
-1.660E-06,0.480
-1.650E-06,0.480
-1.640E-06,0.520
-1.630E-06,0.480
-1.620E-06,0.360
-1.610E-06,0.360
-1.600E-06,0.360
-1.590E-06,0.400
-1.580E-06,0.480
-1.570E-06,0.520
-1.560E-06,0.480
-1.550E-06,0.320
-1.540E-06,0.120
-1.530E-06,0.200
-1.520E-06,0.240
-1.510E-06,0.320
-1.500E-06,0.360
-1.490E-06,0.360
-1.480E-06,0.280
-1.470E-06,0.200
-1.460E-06,0.320
-1.450E-06,0.360
-1.440E-06,0.440
-1.430E-06,0.480
-1.420E-06,0.480
-1.410E-06,0.360
-1.400E-06,0.360
-1.390E-06,0.320
-1.380E-06,0.280
-1.370E-06,0.360
-1.360E-06,0.280
-1.350E-06,0.160
-1.340E-06,0.120
-1.330E-06,0.120
-1.320E-06,0.000
-1.310E-06,0.040
-1.300E-06,0.040
-1.290E-06,0.040
-1.280E-06,0.000
-1.270E-06,-0.040
-1.260E-06,-0.040
-1.250E-06,0.000
-1.240E-06,0.040
-1.230E-06,0.080
-1.220E-06,0.120
-1.210E-06,0.160
-1.200E-06,0.160
-1.190E-06,0.160
-1.180E-06,0.280
-1.170E-06,0.320
-1.160E-06,0.440
-1.150E-06,0.480
-1.140E-06,0.440
-1.130E-06,0.480
-1.120E-06,0.520
-1.110E-06,0.520
-1.100E-06,0.480
-1.090E-06,0.520
-1.080E-06,0.480
-1.070E-06,0.480
-1.060E-06,0.360
-1.050E-06,0.680
-1.040E-06,0.200
-1.030E-06,0.360
-1.020E-06,0.120
-1.010E-06,0.080
-1.000E-06,0.480
-9.900E-07,0.400
-9.800E-07,0.520
-9.700E-07,0.360
-9.600E-07,-0.040
-9.500E-07,0.000
-9.400E-07,0.040
-9.300E-07,0.320
-9.200E-07,0.480
-9.100E-07,0.360
-9.000E-07,0.120
-8.900E-07,0.040
-8.800E-07,0.000
-8.700E-07,0.000
-8.600E-07,0.200
-8.500E-07,0.000
-8.400E-07,0.040
-8.300E-07,-0.080
-8.200E-07,-0.080
-8.100E-07,0.080
-8.000E-07,0.120
-7.900E-07,0.200
-7.800E-07,0.200
-7.700E-07,0.080
-7.600E-07,0.160
-7.500E-07,0.280
-7.400E-07,0.400
-7.300E-07,0.440
-7.200E-07,0.520
-7.100E-07,0.640
-7.000E-07,0.840
-6.900E-07,0.960
-6.800E-07,0.840
-6.700E-07,0.880
-6.600E-07,0.520
-6.500E-07,0.600
-6.400E-07,0.680
-6.300E-07,0.800
-6.200E-07,0.880
-6.100E-07,0.800
-6.000E-07,0.640
-5.900E-07,0.560
-5.800E-07,0.600
-5.700E-07,0.680
-5.600E-07,0.640
-5.500E-07,0.640
-5.400E-07,0.560
-5.300E-07,0.480
-5.200E-07,0.320
-5.100E-07,0.360
-5.000E-07,0.400
-4.900E-07,0.400
-4.800E-07,0.360
-4.700E-07,0.160
-4.600E-07,0.080
-4.500E-07,0.040
-4.400E-07,0.000
-4.300E-07,0.120
-4.200E-07,0.120
-4.100E-07,0.120
-4.000E-07,0.120
-3.900E-07,0.040
-3.800E-07,0.120
-3.700E-07,0.040
-3.600E-07,0.160
-3.500E-07,0.160
-3.400E-07,0.240
-3.300E-07,0.360
-3.200E-07,0.360
-3.100E-07,0.200
-3.000E-07,0.240
-2.900E-07,0.280
-2.800E-07,0.360
-2.700E-07,0.440
-2.600E-07,0.600
-2.500E-07,0.600
-2.400E-07,0.640
-2.300E-07,0.640
-2.200E-07,0.600
-2.100E-07,0.640
-2.000E-07,0.560
-1.900E-07,0.600
-1.800E-07,0.600
-1.700E-07,0.520
-1.600E-07,0.560
-1.500E-07,0.600
-1.400E-07,0.680
-1.300E-07,0.680
-1.200E-07,0.720
-1.100E-07,0.720
-1.000E-07,0.640
-9.000E-08,0.720
-8.000E-08,0.800
-7.000E-08,0.960
-6.000E-08,0.720
-5.000E-08,0.720
-4.000E-08,0.520
-3.000E-08,0.440
-2.000E-08,0.200
-1.000E-08,-0.320
0.000E+00,-0.200
1.000E-08,-0.040
2.000E-08,0.200
3.000E-08,1.080
4.000E-08,1.440
5.000E-08,0.560
6.000E-08,0.040
7.000E-08,-0.720
8.000E-08,-0.440
9.000E-08,0.560
1.000E-07,1.560
1.100E-07,1.840
1.200E-07,1.120
1.300E-07,0.240
1.400E-07,0.000
1.500E-07,0.160
1.600E-07,0.920
1.700E-07,1.480
1.800E-07,1.160
1.900E-07,0.640
2.000E-07,0.000
2.100E-07,-0.160
2.200E-07,0.200
2.300E-07,0.680
2.400E-07,0.880
2.500E-07,0.640
2.600E-07,0.040
2.700E-07,-0.360
2.800E-07,-0.480
2.900E-07,-0.240
3.000E-07,0.040
3.100E-07,0.200
3.200E-07,0.000
3.300E-07,-0.200
3.400E-07,-0.480
3.500E-07,-0.560
3.600E-07,-0.520
3.700E-07,-0.320
3.800E-07,-0.240
3.900E-07,-0.120
4.000E-07,-0.200
4.100E-07,-0.240
4.200E-07,-0.160
4.300E-07,-0.040
4.400E-07,0.040
4.500E-07,0.120
4.600E-07,0.200
4.700E-07,0.240
4.800E-07,0.400
4.900E-07,0.520
5.000E-07,0.920
5.100E-07,0.920
5.200E-07,0.960
5.300E-07,1.040
5.400E-07,0.880
5.500E-07,1.000
5.600E-07,1.000
5.700E-07,1.120
5.800E-07,1.200
5.900E-07,1.000
6.000E-07,0.800
6.100E-07,0.320
6.200E-07,0.160
6.300E-07,0.320
6.400E-07,0.520
6.500E-07,0.920
6.600E-07,0.920
6.700E-07,0.760
6.800E-07,0.440
6.900E-07,0.160
7.000E-07,0.280
7.100E-07,0.480
7.200E-07,0.680
7.300E-07,0.880
7.400E-07,0.680
7.500E-07,0.480
7.600E-07,0.160
7.700E-07,0.120
7.800E-07,0.200
7.900E-07,0.440
8.000E-07,0.560
8.100E-07,0.480
8.200E-07,0.360
8.300E-07,0.120
8.400E-07,-0.040
8.500E-07,0.000
8.600E-07,0.080
8.700E-07,0.160
8.800E-07,0.200
8.900E-07,0.160
9.000E-07,0.160
9.100E-07,0.240
9.200E-07,0.360
9.300E-07,0.400
9.400E-07,0.480
9.500E-07,0.640
9.600E-07,0.760
9.700E-07,0.720
9.800E-07,0.840
9.900E-07,0.720
1.000E-06,0.640
1.010E-06,0.440
1.020E-06,0.320
1.030E-06,0.240
1.040E-06,0.120
1.050E-06,0.160
1.060E-06,0.080
1.070E-06,0.320
1.080E-06,0.000
1.090E-06,0.040
1.100E-06,0.000
1.110E-06,-0.240
1.120E-06,0.040
1.130E-06,0.040
1.140E-06,0.240
1.150E-06,0.160
1.160E-06,0.160
1.170E-06,0.200
1.180E-06,0.280
1.190E-06,0.320
1.200E-06,0.400
1.210E-06,0.320
1.220E-06,0.280
1.230E-06,0.320
1.240E-06,0.280
1.250E-06,0.360
1.260E-06,0.440
1.270E-06,0.400
1.280E-06,0.320
1.290E-06,0.240
1.300E-06,0.200
1.310E-06,0.200
1.320E-06,0.320
1.330E-06,0.360
1.340E-06,0.440
1.350E-06,0.400
1.360E-06,0.360
1.370E-06,0.280
1.380E-06,0.120
1.390E-06,0.160
1.400E-06,0.200
1.410E-06,0.120
1.420E-06,0.040
1.430E-06,-0.040
1.440E-06,-0.240
1.450E-06,-0.360
1.460E-06,-0.400
1.470E-06,-0.320
1.480E-06,-0.240
1.490E-06,-0.120
1.500E-06,-0.040
1.510E-06,0.000
1.520E-06,0.080
1.530E-06,0.120
1.540E-06,0.360
1.550E-06,0.480
1.560E-06,0.520
1.570E-06,0.600
1.580E-06,0.600
1.590E-06,0.760
1.600E-06,0.840
1.610E-06,1.040
1.620E-06,1.040
1.630E-06,1.040
1.640E-06,1.120
1.650E-06,1.160
1.660E-06,1.120
1.670E-06,1.080
1.680E-06,1.160
1.690E-06,1.360
1.700E-06,1.400
1.710E-06,1.640
1.720E-06,1.600
1.730E-06,1.560
1.740E-06,1.480
1.750E-06,1.400
1.760E-06,1.440
1.770E-06,1.240
1.780E-06,1.160
1.790E-06,1.040
1.800E-06,0.960
1.810E-06,0.840
1.820E-06,0.800
1.830E-06,0.760
1.840E-06,0.600
1.850E-06,0.480
1.860E-06,0.400
1.870E-06,0.440
1.880E-06,0.400
1.890E-06,0.320
1.900E-06,0.400
1.910E-06,0.280
1.920E-06,0.440
1.930E-06,0.560
1.940E-06,0.680
1.950E-06,0.800
1.960E-06,0.800
1.970E-06,0.920
1.980E-06,0.840
1.990E-06,1.120
2.000E-06,1.200
2.010E-06,1.400
2.020E-06,1.560
2.030E-06,1.480
2.040E-06,1.680
2.050E-06,1.240
2.060E-06,1.600
2.070E-06,1.440
2.080E-06,1.320
2.090E-06,1.360
2.100E-06,1.120
2.110E-06,0.880
2.120E-06,0.960
2.130E-06,0.960
2.140E-06,1.320
2.150E-06,1.600
2.160E-06,1.680
2.170E-06,1.240
2.180E-06,1.080
2.190E-06,0.840
2.200E-06,0.880
2.210E-06,1.120
2.220E-06,1.120
2.230E-06,0.440
2.240E-06,-0.560
2.250E-06,-1.840
2.260E-06,-2.480
2.270E-06,-2.160
2.280E-06,-1.080
2.290E-06,0.480
2.300E-06,1.320
2.310E-06,1.000
2.320E-06,0.240
2.330E-06,-0.440
2.340E-06,0.000
2.350E-06,1.120
2.360E-06,2.160
2.370E-06,2.680
2.380E-06,2.320
2.390E-06,1.640
2.400E-06,1.080
2.410E-06,0.840
2.420E-06,1.280
2.430E-06,1.600
2.440E-06,1.840
2.450E-06,1.680
2.460E-06,1.320
2.470E-06,0.880
2.480E-06,0.520
2.490E-06,0.320
2.500E-06,0.080
2.510E-06,0.000
2.520E-06,-0.040
2.530E-06,0.040
2.540E-06,0.040
2.550E-06,-0.040
2.560E-06,-0.240
2.570E-06,-0.440
2.580E-06,-0.480
2.590E-06,-0.360
2.600E-06,0.000
2.610E-06,0.200
2.620E-06,0.360
2.630E-06,0.400
2.640E-06,0.200
2.650E-06,0.160
2.660E-06,0.200
2.670E-06,0.400
2.680E-06,0.560
2.690E-06,0.640
2.700E-06,0.640
2.710E-06,0.480
2.720E-06,0.240
2.730E-06,0.160
2.740E-06,0.040
2.750E-06,0.160
2.760E-06,0.240
2.770E-06,0.360
2.780E-06,0.480
2.790E-06,0.560
2.800E-06,0.560
2.810E-06,0.520
2.820E-06,0.480
2.830E-06,0.520
2.840E-06,0.520
2.850E-06,0.480
2.860E-06,0.480
2.870E-06,0.520
2.880E-06,0.480
2.890E-06,0.480
2.900E-06,0.320
2.910E-06,0.200
2.920E-06,0.000
2.930E-06,-0.120
2.940E-06,-0.160
2.950E-06,-0.160
2.960E-06,-0.080
2.970E-06,-0.040
2.980E-06,-0.080
2.990E-06,-0.080
3.000E-06,-0.320
3.010E-06,-0.400
3.020E-06,-0.560
3.030E-06,-0.680
3.040E-06,-0.680
3.050E-06,-0.840
3.060E-06,-1.120
3.070E-06,-1.240
3.080E-06,-1.480
3.090E-06,-1.480
3.100E-06,-1.040
3.110E-06,-0.520
3.120E-06,0.080
3.130E-06,0.480
3.140E-06,0.480
3.150E-06,0.640
3.160E-06,0.480
3.170E-06,0.520
3.180E-06,0.520
3.190E-06,0.320
3.200E-06,0.240
3.210E-06,0.400
3.220E-06,0.440
3.230E-06,0.840
3.240E-06,1.200
3.250E-06,1.240
3.260E-06,1.440
3.270E-06,1.440
3.280E-06,1.920
3.290E-06,2.280
3.300E-06,2.680
3.310E-06,3.200
3.320E-06,3.400
3.330E-06,3.600
3.340E-06,3.720
3.350E-06,3.960
3.360E-06,4.160
3.370E-06,4.440
3.380E-06,4.360
3.390E-06,4.360
3.400E-06,4.000
3.410E-06,3.680
3.420E-06,3.240
3.430E-06,2.800
3.440E-06,2.360
3.450E-06,1.840
3.460E-06,1.440
3.470E-06,1.200
3.480E-06,1.120
3.490E-06,0.960
3.500E-06,0.920
3.510E-06,0.680
3.520E-06,0.760
3.530E-06,0.760
3.540E-06,0.880
3.550E-06,0.960
3.560E-06,1.040
3.570E-06,1.040
3.580E-06,1.000
3.590E-06,0.920
3.600E-06,0.960
3.610E-06,0.880
3.620E-06,0.840
3.630E-06,0.720
3.640E-06,0.600
3.650E-06,0.480
3.660E-06,0.320
3.670E-06,0.320
3.680E-06,0.240
3.690E-06,0.160
3.700E-06,0.040
3.710E-06,-0.040
3.720E-06,-0.160
3.730E-06,-0.280
3.740E-06,-0.400
3.750E-06,-0.480
3.760E-06,-0.680
3.770E-06,-0.800
3.780E-06,-1.000
3.790E-06,-0.960
3.800E-06,-1.000
3.810E-06,-0.680
3.820E-06,-0.400
3.830E-06,0.000
3.840E-06,0.200
3.850E-06,0.440
3.860E-06,0.920
3.870E-06,0.960
3.880E-06,1.480
3.890E-06,1.800
3.900E-06,1.960
3.910E-06,2.000
3.920E-06,1.840
3.930E-06,1.760
3.940E-06,1.920
3.950E-06,2.320
3.960E-06,2.600
3.970E-06,2.760
3.980E-06,2.800
3.990E-06,2.640
4.000E-06,2.680
4.010E-06,3.240
4.020E-06,3.960
4.030E-06,4.440
4.040E-06,4.760
4.050E-06,4.440
4.060E-06,4.280
4.070E-06,3.960
4.080E-06,3.560
4.090E-06,3.440
4.100E-06,2.840
4.110E-06,2.200
4.120E-06,1.680
4.130E-06,1.440
4.140E-06,1.480
4.150E-06,1.760
4.160E-06,1.800
4.170E-06,1.680
4.180E-06,1.520
4.190E-06,1.080
4.200E-06,1.000
4.210E-06,1.040
4.220E-06,1.080
4.230E-06,1.320
4.240E-06,1.400
4.250E-06,1.520
4.260E-06,1.320
4.270E-06,1.120
4.280E-06,0.920
4.290E-06,0.720
4.300E-06,0.600
4.310E-06,0.400
4.320E-06,0.240
4.330E-06,0.040
4.340E-06,-0.120
4.350E-06,-0.480
4.360E-06,-0.640
4.370E-06,-0.840
4.380E-06,-1.000
4.390E-06,-1.080
4.400E-06,-1.120
4.410E-06,-1.160
4.420E-06,-1.240
4.430E-06,-1.320
4.440E-06,-1.360
4.450E-06,-1.480
4.460E-06,-1.560
4.470E-06,-1.600
4.480E-06,-1.600
4.490E-06,-1.600
4.500E-06,-1.640
4.510E-06,-1.720
4.520E-06,-1.840
4.530E-06,-2.000
4.540E-06,-2.040
4.550E-06,-2.160
4.560E-06,-2.200
4.570E-06,-2.160
4.580E-06,-2.160
4.590E-06,-2.120
4.600E-06,-2.120
4.610E-06,-2.040
4.620E-06,-2.080
4.630E-06,-2.120
4.640E-06,-2.200
4.650E-06,-2.200
4.660E-06,-2.360
4.670E-06,-2.600
4.680E-06,-2.960
4.690E-06,-3.400
4.700E-06,-4.040
4.710E-06,-4.800
4.720E-06,-5.240
4.730E-06,-5.240
4.740E-06,-5.240
4.750E-06,-5.240
4.760E-06,-5.200
4.770E-06,-5.200
4.780E-06,-5.200
4.790E-06,-5.200
4.800E-06,-5.240
4.810E-06,-5.200
4.820E-06,-5.200
4.830E-06,-5.200
4.840E-06,-5.240
4.850E-06,-5.240
4.860E-06,-5.240
4.870E-06,-5.240
4.880E-06,-5.200
4.890E-06,-5.200
4.900E-06,-5.200
4.910E-06,-5.200
4.920E-06,-5.200
4.930E-06,-5.240
4.940E-06,-5.240
4.950E-06,-5.200
4.960E-06,-5.200
4.970E-06,-5.240
4.980E-06,-5.200
4.990E-06,-5.200
5.000E-06,-5.200
5.010E-06,-5.240
5.020E-06,-5.240
5.030E-06,-5.240
5.040E-06,-5.240
5.050E-06,-5.240
5.060E-06,-5.240
5.070E-06,-5.200
5.080E-06,-5.200
5.090E-06,-5.240
5.100E-06,-5.240
5.110E-06,-5.240
5.120E-06,-5.200
5.130E-06,-5.200
5.140E-06,-5.240
5.150E-06,-5.240
5.160E-06,-5.240
5.170E-06,-5.240
5.180E-06,-5.240
5.190E-06,-5.240
5.200E-06,-5.240
5.210E-06,-5.240
5.220E-06,-5.160
5.230E-06,-4.960
5.240E-06,-4.800
5.250E-06,-4.600
5.260E-06,-4.400
5.270E-06,-4.240
5.280E-06,-4.000
5.290E-06,-3.800
5.300E-06,-3.560
5.310E-06,-3.400
5.320E-06,-3.160
5.330E-06,-3.000
5.340E-06,-2.800
5.350E-06,-2.680
5.360E-06,-2.520
5.370E-06,-2.360
5.380E-06,-2.200
5.390E-06,-2.080
5.400E-06,-2.000
5.410E-06,-1.880
5.420E-06,-1.840
5.430E-06,-1.840
5.440E-06,-1.800
5.450E-06,-1.840
5.460E-06,-1.800
5.470E-06,-1.760
5.480E-06,-1.800
5.490E-06,-1.760
5.500E-06,-1.760
5.510E-06,-1.800
5.520E-06,-1.880
5.530E-06,-1.760
5.540E-06,-1.800
5.550E-06,-1.800
5.560E-06,-1.800
5.570E-06,-1.800
5.580E-06,-1.680
5.590E-06,-1.680
5.600E-06,-1.640
5.610E-06,-1.560
5.620E-06,-1.520
5.630E-06,-1.560
5.640E-06,-1.560
5.650E-06,-1.560
5.660E-06,-1.680
5.670E-06,-1.720
5.680E-06,-1.760
5.690E-06,-1.840
5.700E-06,-1.880
5.710E-06,-1.960
5.720E-06,-2.040
5.730E-06,-1.960
5.740E-06,-2.000
5.750E-06,-1.960
5.760E-06,-1.960
5.770E-06,-1.920
5.780E-06,-1.920
5.790E-06,-1.920
5.800E-06,-1.800
5.810E-06,-1.800
5.820E-06,-1.840
5.830E-06,-1.760
5.840E-06,-1.840
5.850E-06,-1.800
5.860E-06,-1.840
5.870E-06,-1.800
5.880E-06,-1.760
5.890E-06,-1.800
5.900E-06,-1.800
5.910E-06,-1.760
5.920E-06,-1.720
5.930E-06,-1.680
5.940E-06,-1.680
5.950E-06,-1.680
5.960E-06,-1.680
5.970E-06,-1.640
5.980E-06,-1.560
5.990E-06,-1.480
6.000E-06,-1.480
6.010E-06,-1.400
6.020E-06,-1.360
6.030E-06,-1.240
6.040E-06,-1.200
6.050E-06,-1.120
6.060E-06,-1.000
6.070E-06,-0.920
6.080E-06,-0.840
6.090E-06,-0.720
6.100E-06,-0.680
6.110E-06,-0.600
6.120E-06,-0.560
6.130E-06,-0.600
6.140E-06,-0.560
6.150E-06,-0.560
6.160E-06,-0.600
6.170E-06,-0.640
6.180E-06,-0.640
6.190E-06,-0.720
6.200E-06,-0.800
6.210E-06,-0.840
6.220E-06,-0.920
6.230E-06,-1.040
6.240E-06,-1.040
6.250E-06,-1.120
6.260E-06,-1.200
6.270E-06,-1.160
6.280E-06,-1.200
6.290E-06,-1.240
6.300E-06,-1.200
6.310E-06,-1.200
6.320E-06,-1.200
6.330E-06,-1.080
6.340E-06,-1.040
6.350E-06,-0.960
6.360E-06,-0.920
6.370E-06,-0.840
6.380E-06,-0.760
6.390E-06,-0.720
6.400E-06,-0.640
6.410E-06,-0.600
6.420E-06,-0.520
6.430E-06,-0.440
6.440E-06,-0.320
6.450E-06,-0.160
6.460E-06,-0.080
6.470E-06,0.000
6.480E-06,0.040
6.490E-06,0.080
6.500E-06,0.160
6.510E-06,0.120
6.520E-06,0.160
6.530E-06,0.280
6.540E-06,0.200
6.550E-06,0.160
6.560E-06,0.120
6.570E-06,0.040
6.580E-06,0.000
6.590E-06,-0.040
6.600E-06,-0.160
6.610E-06,-0.200
6.620E-06,-0.240
6.630E-06,-0.360
6.640E-06,-0.480
6.650E-06,-0.560
6.660E-06,-0.520
6.670E-06,-0.600
6.680E-06,-0.680
6.690E-06,-0.720
6.700E-06,-0.760
6.710E-06,-0.800
6.720E-06,-0.840
6.730E-06,-0.840
6.740E-06,-0.840
6.750E-06,-0.960
6.760E-06,-0.720
6.770E-06,-0.440
6.780E-06,-0.240
6.790E-06,0.120
6.800E-06,0.200
6.810E-06,0.080
6.820E-06,-0.200
6.830E-06,-0.760
6.840E-06,-1.240
6.850E-06,-1.560
6.860E-06,-1.800
6.870E-06,-1.920
6.880E-06,-1.960
6.890E-06,-1.800
6.900E-06,-1.600
6.910E-06,-1.400
6.920E-06,-1.200
6.930E-06,-1.120
6.940E-06,-1.000
6.950E-06,-1.000
6.960E-06,-1.040
6.970E-06,-1.000
6.980E-06,-1.040
6.990E-06,-1.160
7.000E-06,-1.200
7.010E-06,-1.160
7.020E-06,-1.120
7.030E-06,-0.920
7.040E-06,-0.800
7.050E-06,-0.680
7.060E-06,-0.520
7.070E-06,-0.400
7.080E-06,-0.360
7.090E-06,-0.320
7.100E-06,-0.280
7.110E-06,-0.200
7.120E-06,-0.080
7.130E-06,-0.040
7.140E-06,0.040
7.150E-06,0.160
7.160E-06,0.240
7.170E-06,0.240
7.180E-06,0.360
7.190E-06,0.400
7.200E-06,0.480
7.210E-06,0.480
7.220E-06,0.480
7.230E-06,0.440
7.240E-06,0.320
7.250E-06,0.200
7.260E-06,0.080
7.270E-06,0.000
7.280E-06,-0.040
7.290E-06,-0.040
7.300E-06,0.000
7.310E-06,0.120
7.320E-06,0.160
7.330E-06,0.280
7.340E-06,0.360
7.350E-06,0.440
7.360E-06,0.440
7.370E-06,0.480
7.380E-06,0.480
7.390E-06,0.440
7.400E-06,0.400
7.410E-06,0.400
7.420E-06,0.360
7.430E-06,0.280
7.440E-06,0.280
7.450E-06,0.240
7.460E-06,0.160
7.470E-06,0.160
7.480E-06,0.200
7.490E-06,0.240
7.500E-06,0.280
7.510E-06,0.320
7.520E-06,0.360
7.530E-06,0.240
7.540E-06,0.240
7.550E-06,0.200
7.560E-06,0.160
7.570E-06,0.200
7.580E-06,0.160
7.590E-06,0.200
7.600E-06,0.160
7.610E-06,0.160
7.620E-06,0.200
7.630E-06,0.200
7.640E-06,0.240
7.650E-06,0.320
7.660E-06,0.360
7.670E-06,0.360
7.680E-06,0.400
7.690E-06,0.440
7.700E-06,0.400
7.710E-06,0.320
7.720E-06,0.280
7.730E-06,0.160
7.740E-06,0.080
7.750E-06,0.040
7.760E-06,0.000
7.770E-06,-0.080
7.780E-06,-0.160
7.790E-06,-0.240
7.800E-06,-0.240
7.810E-06,-0.320
7.820E-06,-0.360
7.830E-06,-0.520
7.840E-06,-0.560
7.850E-06,-0.680
7.860E-06,-0.680
7.870E-06,-0.760
7.880E-06,-0.760
7.890E-06,-0.760
7.900E-06,-0.720
7.910E-06,-0.680
7.920E-06,-0.600
7.930E-06,-0.440
7.940E-06,-0.360
7.950E-06,-0.360
7.960E-06,-0.320
7.970E-06,-0.280
7.980E-06,-0.360
7.990E-06,-0.240
8.000E-06,-0.280
8.010E-06,-0.160
8.020E-06,-0.080
8.030E-06,0.040
8.040E-06,0.200
8.050E-06,0.240
8.060E-06,0.440
8.070E-06,0.600
8.080E-06,0.760
8.090E-06,0.880
8.100E-06,0.920
8.110E-06,1.000
8.120E-06,1.120
8.130E-06,1.120
8.140E-06,1.120
8.150E-06,1.120
8.160E-06,0.960
8.170E-06,1.000
