mediciones/5-27/-17.5/WaveData51107.csv

#timebase=2000000(ps)
,#voltbase=1000000(mv/100)
#size=4000
-7.300E-06,-0.040
-7.290E-06,0.040
-7.280E-06,0.160
-7.270E-06,0.000
-7.260E-06,0.200
-7.250E-06,-0.120
-7.240E-06,-0.040
-7.230E-06,0.000
-7.220E-06,0.000
-7.210E-06,0.240
-7.200E-06,0.080
-7.190E-06,0.080
-7.180E-06,-0.040
-7.170E-06,-0.080
-7.160E-06,0.040
-7.150E-06,0.040
-7.140E-06,0.120
-7.130E-06,0.160
-7.120E-06,0.040
-7.110E-06,0.040
-7.100E-06,-0.040
-7.090E-06,0.000
-7.080E-06,0.080
-7.070E-06,0.080
-7.060E-06,0.080
-7.050E-06,0.120
-7.040E-06,0.080
-7.030E-06,0.040
-7.020E-06,0.080
-7.010E-06,0.040
-7.000E-06,0.120
-6.990E-06,0.160
-6.980E-06,0.080
-6.970E-06,0.040
-6.960E-06,0.040
-6.950E-06,0.040
-6.940E-06,0.040
-6.930E-06,0.080
-6.920E-06,0.000
-6.910E-06,0.040
-6.900E-06,0.000
-6.890E-06,0.000
-6.880E-06,0.000
-6.870E-06,0.040
-6.860E-06,0.040
-6.850E-06,0.040
-6.840E-06,0.000
-6.830E-06,0.000
-6.820E-06,-0.040
-6.810E-06,0.000
-6.800E-06,0.000
-6.790E-06,0.000
-6.780E-06,0.000
-6.770E-06,0.040
-6.760E-06,0.040
-6.750E-06,0.040
-6.740E-06,-0.040
-6.730E-06,0.000
-6.720E-06,0.000
-6.710E-06,0.000
-6.700E-06,0.000
-6.690E-06,0.000
-6.680E-06,0.040
-6.670E-06,0.080
-6.660E-06,0.120
-6.650E-06,0.120
-6.640E-06,0.080
-6.630E-06,0.120
-6.620E-06,0.000
-6.610E-06,0.040
-6.600E-06,0.080
-6.590E-06,0.160
-6.580E-06,0.160
-6.570E-06,0.160
-6.560E-06,0.120
-6.550E-06,0.120
-6.540E-06,0.040
-6.530E-06,0.080
-6.520E-06,0.080
-6.510E-06,0.160
-6.500E-06,0.080
-6.490E-06,0.000
-6.480E-06,0.040
-6.470E-06,0.040
-6.460E-06,0.040
-6.450E-06,0.040
-6.440E-06,0.040
-6.430E-06,0.080
-6.420E-06,0.040
-6.410E-06,-0.040
-6.400E-06,0.000
-6.390E-06,0.040
-6.380E-06,0.040
-6.370E-06,0.040
-6.360E-06,0.000
-6.350E-06,0.080
-6.340E-06,0.040
-6.330E-06,0.000
-6.320E-06,0.040
-6.310E-06,0.000
-6.300E-06,0.080
-6.290E-06,0.040
-6.280E-06,0.080
-6.270E-06,0.080
-6.260E-06,0.040
-6.250E-06,0.040
-6.240E-06,0.040
-6.230E-06,0.040
-6.220E-06,0.080
-6.210E-06,0.040
-6.200E-06,0.080
-6.190E-06,0.040
-6.180E-06,0.040
-6.170E-06,0.040
-6.160E-06,0.040
-6.150E-06,0.040
-6.140E-06,0.000
-6.130E-06,0.040
-6.120E-06,0.040
-6.110E-06,0.040
-6.100E-06,0.040
-6.090E-06,0.080
-6.080E-06,0.000
-6.070E-06,0.040
-6.060E-06,0.080
-6.050E-06,-0.040
-6.040E-06,0.040
-6.030E-06,0.040
-6.020E-06,0.080
-6.010E-06,0.040
-6.000E-06,0.040
-5.990E-06,0.000
-5.980E-06,0.040
-5.970E-06,0.040
-5.960E-06,0.040
-5.950E-06,0.080
-5.940E-06,0.080
-5.930E-06,0.040
-5.920E-06,0.000
-5.910E-06,0.040
-5.900E-06,0.120
-5.890E-06,0.040
-5.880E-06,0.040
-5.870E-06,0.080
-5.860E-06,0.120
-5.850E-06,0.120
-5.840E-06,0.080
-5.830E-06,0.120
-5.820E-06,0.040
-5.810E-06,0.080
-5.800E-06,0.080
-5.790E-06,0.080
-5.780E-06,0.080
-5.770E-06,0.080
-5.760E-06,0.080
-5.750E-06,0.120
-5.740E-06,0.000
-5.730E-06,0.000
-5.720E-06,0.040
-5.710E-06,0.000
-5.700E-06,0.040
-5.690E-06,0.000
-5.680E-06,0.040
-5.670E-06,0.040
-5.660E-06,0.000
-5.650E-06,0.040
-5.640E-06,0.000
-5.630E-06,0.040
-5.620E-06,0.000
-5.610E-06,0.000
-5.600E-06,0.000
-5.590E-06,0.000
-5.580E-06,0.080
-5.570E-06,-0.040
-5.560E-06,0.000
-5.550E-06,0.080
-5.540E-06,0.040
-5.530E-06,0.080
-5.520E-06,0.040
-5.510E-06,0.040
-5.500E-06,0.080
-5.490E-06,0.040
-5.480E-06,0.080
-5.470E-06,0.120
-5.460E-06,0.120
-5.450E-06,0.080
-5.440E-06,0.080
-5.430E-06,0.040
-5.420E-06,0.040
-5.410E-06,0.120
-5.400E-06,0.040
-5.390E-06,0.040
-5.380E-06,0.080
-5.370E-06,0.040
-5.360E-06,0.080
-5.350E-06,0.040
-5.340E-06,0.040
-5.330E-06,0.080
-5.320E-06,0.080
-5.310E-06,0.080
-5.300E-06,0.040
-5.290E-06,0.080
-5.280E-06,0.080
-5.270E-06,0.080
-5.260E-06,0.080
-5.250E-06,0.120
-5.240E-06,0.120
-5.230E-06,0.040
-5.220E-06,0.040
-5.210E-06,0.040
-5.200E-06,0.080
-5.190E-06,0.080
-5.180E-06,0.040
-5.170E-06,0.120
-5.160E-06,-0.040
-5.150E-06,0.000
-5.140E-06,0.040
-5.130E-06,0.040
-5.120E-06,0.000
-5.110E-06,0.000
-5.100E-06,0.040
-5.090E-06,0.000
-5.080E-06,-0.040
-5.070E-06,-0.040
-5.060E-06,0.000
-5.050E-06,0.000
-5.040E-06,0.000
-5.030E-06,0.000
-5.020E-06,0.040
-5.010E-06,0.040
-5.000E-06,0.040
-4.990E-06,0.000
-4.980E-06,0.040
-4.970E-06,0.080
-4.960E-06,0.000
-4.950E-06,0.040
-4.940E-06,0.120
-4.930E-06,0.120
-4.920E-06,0.120
-4.910E-06,0.120
-4.900E-06,0.040
-4.890E-06,0.080
-4.880E-06,0.080
-4.870E-06,0.080
-4.860E-06,0.080
-4.850E-06,0.120
-4.840E-06,0.120
-4.830E-06,0.040
-4.820E-06,0.080
-4.810E-06,0.080
-4.800E-06,0.080
-4.790E-06,0.040
-4.780E-06,0.120
-4.770E-06,0.040
-4.760E-06,0.080
-4.750E-06,0.120
-4.740E-06,0.080
-4.730E-06,0.160
-4.720E-06,0.080
-4.710E-06,0.080
-4.700E-06,0.120
-4.690E-06,0.160
-4.680E-06,0.160
-4.670E-06,0.080
-4.660E-06,0.080
-4.650E-06,0.120
-4.640E-06,0.120
-4.630E-06,0.160
-4.620E-06,0.080
-4.610E-06,0.080
-4.600E-06,0.080
-4.590E-06,0.080
-4.580E-06,0.080
-4.570E-06,0.080
-4.560E-06,0.080
-4.550E-06,0.080
-4.540E-06,0.080
-4.530E-06,0.080
-4.520E-06,0.000
-4.510E-06,0.040
-4.500E-06,0.080
-4.490E-06,0.040
-4.480E-06,0.000
-4.470E-06,0.040
-4.460E-06,-0.040
-4.450E-06,0.000
-4.440E-06,0.040
-4.430E-06,0.000
-4.420E-06,0.000
-4.410E-06,0.040
-4.400E-06,-0.040
-4.390E-06,0.000
-4.380E-06,0.000
-4.370E-06,0.040
-4.360E-06,-0.040
-4.350E-06,0.000
-4.340E-06,0.000
-4.330E-06,0.080
-4.320E-06,0.000
-4.310E-06,0.080
-4.300E-06,0.080
-4.290E-06,0.080
-4.280E-06,0.080
-4.270E-06,0.080
-4.260E-06,0.080
-4.250E-06,0.080
-4.240E-06,0.080
-4.230E-06,0.080
-4.220E-06,0.040
-4.210E-06,0.080
-4.200E-06,0.040
-4.190E-06,0.120
-4.180E-06,0.160
-4.170E-06,0.120
-4.160E-06,0.120
-4.150E-06,0.040
-4.140E-06,0.040
-4.130E-06,0.120
-4.120E-06,0.160
-4.110E-06,0.200
-4.100E-06,0.160
-4.090E-06,0.120
-4.080E-06,0.160
-4.070E-06,0.120
-4.060E-06,0.160
-4.050E-06,0.240
-4.040E-06,0.200
-4.030E-06,0.160
-4.020E-06,0.160
-4.010E-06,0.160
-4.000E-06,0.240
-3.990E-06,0.200
-3.980E-06,0.160
-3.970E-06,0.160
-3.960E-06,0.120
-3.950E-06,0.160
-3.940E-06,0.120
-3.930E-06,0.280
-3.920E-06,0.360
-3.910E-06,0.320
-3.900E-06,0.240
-3.890E-06,0.200
-3.880E-06,0.080
-3.870E-06,0.120
-3.860E-06,0.160
-3.850E-06,0.160
-3.840E-06,0.160
-3.830E-06,0.160
-3.820E-06,0.040
-3.810E-06,0.080
-3.800E-06,0.160
-3.790E-06,0.120
-3.780E-06,0.080
-3.770E-06,0.120
-3.760E-06,0.040
-3.750E-06,0.040
-3.740E-06,0.120
-3.730E-06,0.120
-3.720E-06,0.160
-3.710E-06,0.160
-3.700E-06,0.160
-3.690E-06,0.120
-3.680E-06,0.080
-3.670E-06,0.120
-3.660E-06,0.120
-3.650E-06,0.080
-3.640E-06,0.120
-3.630E-06,0.080
-3.620E-06,0.120
-3.610E-06,0.160
-3.600E-06,0.120
-3.590E-06,0.120
-3.580E-06,0.120
-3.570E-06,0.120
-3.560E-06,0.120
-3.550E-06,0.160
-3.540E-06,0.160
-3.530E-06,0.120
-3.520E-06,0.160
-3.510E-06,0.120
-3.500E-06,0.080
-3.490E-06,0.120
-3.480E-06,0.120
-3.470E-06,0.160
-3.460E-06,0.120
-3.450E-06,0.120
-3.440E-06,0.160
-3.430E-06,0.080
-3.420E-06,0.080
-3.410E-06,0.080
-3.400E-06,0.040
-3.390E-06,0.040
-3.380E-06,0.000
-3.370E-06,0.040
-3.360E-06,0.000
-3.350E-06,0.040
-3.340E-06,0.040
-3.330E-06,0.080
-3.320E-06,0.120
-3.310E-06,0.120
-3.300E-06,0.200
-3.290E-06,0.160
-3.280E-06,0.200
-3.270E-06,0.160
-3.260E-06,0.160
-3.250E-06,0.280
-3.240E-06,0.240
-3.230E-06,0.280
-3.220E-06,0.360
-3.210E-06,0.280
-3.200E-06,0.440
-3.190E-06,0.440
-3.180E-06,0.400
-3.170E-06,0.400
-3.160E-06,0.360
-3.150E-06,0.320
-3.140E-06,0.360
-3.130E-06,0.400
-3.120E-06,0.480
-3.110E-06,0.480
-3.100E-06,0.320
-3.090E-06,0.280
-3.080E-06,0.200
-3.070E-06,0.160
-3.060E-06,0.200
-3.050E-06,0.320
-3.040E-06,0.360
-3.030E-06,0.240
-3.020E-06,0.080
-3.010E-06,0.120
-3.000E-06,0.080
-2.990E-06,0.120
-2.980E-06,0.200
-2.970E-06,0.160
-2.960E-06,0.080
-2.950E-06,0.040
-2.940E-06,0.040
-2.930E-06,0.040
-2.920E-06,0.080
-2.910E-06,0.080
-2.900E-06,0.040
-2.890E-06,0.040
-2.880E-06,0.000
-2.870E-06,0.000
-2.860E-06,0.000
-2.850E-06,0.040
-2.840E-06,0.120
-2.830E-06,0.120
-2.820E-06,0.000
-2.810E-06,0.080
-2.800E-06,0.080
-2.790E-06,0.160
-2.780E-06,0.120
-2.770E-06,0.200
-2.760E-06,0.200
-2.750E-06,0.200
-2.740E-06,0.120
-2.730E-06,0.120
-2.720E-06,0.200
-2.710E-06,0.240
-2.700E-06,0.280
-2.690E-06,0.200
-2.680E-06,0.200
-2.670E-06,0.160
-2.660E-06,0.160
-2.650E-06,0.200
-2.640E-06,0.200
-2.630E-06,0.240
-2.620E-06,0.200
-2.610E-06,0.320
-2.600E-06,0.240
-2.590E-06,0.280
-2.580E-06,0.280
-2.570E-06,0.240
-2.560E-06,0.320
-2.550E-06,0.360
-2.540E-06,0.360
-2.530E-06,0.440
-2.520E-06,0.480
-2.510E-06,0.360
-2.500E-06,0.360
-2.490E-06,0.320
-2.480E-06,0.320
-2.470E-06,0.440
-2.460E-06,0.480
-2.450E-06,0.480
-2.440E-06,0.520
-2.430E-06,0.520
-2.420E-06,0.440
-2.410E-06,0.400
-2.400E-06,0.360
-2.390E-06,0.440
-2.380E-06,0.440
-2.370E-06,0.440
-2.360E-06,0.480
-2.350E-06,0.440
-2.340E-06,0.360
-2.330E-06,0.320
-2.320E-06,0.240
-2.310E-06,0.240
-2.300E-06,0.280
-2.290E-06,0.240
-2.280E-06,0.240
-2.270E-06,0.200
-2.260E-06,0.160
-2.250E-06,0.160
-2.240E-06,0.120
-2.230E-06,0.120
-2.220E-06,0.120
-2.210E-06,0.160
-2.200E-06,0.160
-2.190E-06,0.080
-2.180E-06,0.120
-2.170E-06,0.120
-2.160E-06,0.040
-2.150E-06,0.080
-2.140E-06,0.080
-2.130E-06,0.080
-2.120E-06,0.080
-2.110E-06,0.080
-2.100E-06,0.080
-2.090E-06,0.160
-2.080E-06,0.120
-2.070E-06,0.120
-2.060E-06,0.120
-2.050E-06,0.160
-2.040E-06,0.120
-2.030E-06,0.120
-2.020E-06,0.080
-2.010E-06,0.120
-2.000E-06,0.160
-1.990E-06,0.200
-1.980E-06,0.120
-1.970E-06,0.080
-1.960E-06,0.120
-1.950E-06,0.040
-1.940E-06,0.120
-1.930E-06,0.200
-1.920E-06,0.120
-1.910E-06,0.160
-1.900E-06,0.120
-1.890E-06,0.160
-1.880E-06,0.120
-1.870E-06,0.120
-1.860E-06,0.160
-1.850E-06,0.280
-1.840E-06,0.240
-1.830E-06,0.240
-1.820E-06,0.200
-1.810E-06,0.240
-1.800E-06,0.360
-1.790E-06,0.320
-1.780E-06,0.400
-1.770E-06,0.440
-1.760E-06,0.480
-1.750E-06,0.480
-1.740E-06,0.400
-1.730E-06,0.440
-1.720E-06,0.440
-1.710E-06,0.520
-1.700E-06,0.520
-1.690E-06,0.480
-1.680E-06,0.480
-1.670E-06,0.520
-1.660E-06,0.520
-1.650E-06,0.520
-1.640E-06,0.600
-1.630E-06,0.560
-1.620E-06,0.480
-1.610E-06,0.520
-1.600E-06,0.520
-1.590E-06,0.520
-1.580E-06,0.520
-1.570E-06,0.520
-1.560E-06,0.480
-1.550E-06,0.480
-1.540E-06,0.480
-1.530E-06,0.520
-1.520E-06,0.520
-1.510E-06,0.480
-1.500E-06,0.480
-1.490E-06,0.440
-1.480E-06,0.400
-1.470E-06,0.440
-1.460E-06,0.520
-1.450E-06,0.520
-1.440E-06,0.480
-1.430E-06,0.480
-1.420E-06,0.480
-1.410E-06,0.480
-1.400E-06,0.480
-1.390E-06,0.480
-1.380E-06,0.520
-1.370E-06,0.560
-1.360E-06,0.560
-1.350E-06,0.520
-1.340E-06,0.560
-1.330E-06,0.600
-1.320E-06,0.640
-1.310E-06,0.760
-1.300E-06,0.800
-1.290E-06,0.800
-1.280E-06,0.760
-1.270E-06,0.840
-1.260E-06,0.840
-1.250E-06,0.920
-1.240E-06,0.880
-1.230E-06,0.960
-1.220E-06,0.960
-1.210E-06,0.720
-1.200E-06,0.640
-1.190E-06,0.520
-1.180E-06,0.440
-1.170E-06,0.560
-1.160E-06,0.560
-1.150E-06,0.760
-1.140E-06,0.800
-1.130E-06,0.800
-1.120E-06,0.720
-1.110E-06,0.680
-1.100E-06,0.640
-1.090E-06,0.760
-1.080E-06,0.840
-1.070E-06,0.840
-1.060E-06,0.840
-1.050E-06,0.640
-1.040E-06,0.560
-1.030E-06,0.600
-1.020E-06,0.680
-1.010E-06,0.800
-1.000E-06,0.840
-9.900E-07,0.840
-9.800E-07,0.800
-9.700E-07,0.800
-9.600E-07,1.040
-9.500E-07,0.960
-9.400E-07,1.160
-9.300E-07,1.080
-9.200E-07,1.040
-9.100E-07,1.000
-9.000E-07,1.040
-8.900E-07,1.000
-8.800E-07,1.000
-8.700E-07,1.040
-8.600E-07,1.120
-8.500E-07,1.120
-8.400E-07,1.120
-8.300E-07,1.120
-8.200E-07,1.040
-8.100E-07,1.080
-8.000E-07,1.080
-7.900E-07,1.160
-7.800E-07,1.280
-7.700E-07,1.320
-7.600E-07,1.240
-7.500E-07,1.400
-7.400E-07,1.080
-7.300E-07,1.200
-7.200E-07,1.240
-7.100E-07,1.160
-7.000E-07,1.200
-6.900E-07,1.120
-6.800E-07,1.040
-6.700E-07,0.840
-6.600E-07,0.840
-6.500E-07,0.680
-6.400E-07,0.720
-6.300E-07,0.800
-6.200E-07,0.840
-6.100E-07,0.920
-6.000E-07,0.880
-5.900E-07,0.880
-5.800E-07,0.840
-5.700E-07,0.880
-5.600E-07,0.880
-5.500E-07,0.960
-5.400E-07,0.920
-5.300E-07,0.880
-5.200E-07,0.920
-5.100E-07,0.960
-5.000E-07,0.880
-4.900E-07,0.800
-4.800E-07,0.800
-4.700E-07,0.680
-4.600E-07,0.680
-4.500E-07,0.680
-4.400E-07,0.880
-4.300E-07,0.880
-4.200E-07,0.880
-4.100E-07,0.800
-4.000E-07,0.800
-3.900E-07,0.720
-3.800E-07,0.680
-3.700E-07,0.640
-3.600E-07,0.600
-3.500E-07,0.520
-3.400E-07,0.320
-3.300E-07,0.160
-3.200E-07,0.160
-3.100E-07,0.160
-3.000E-07,0.080
-2.900E-07,0.360
-2.800E-07,0.440
-2.700E-07,0.520
-2.600E-07,0.440
-2.500E-07,0.400
-2.400E-07,0.520
-2.300E-07,0.560
-2.200E-07,0.840
-2.100E-07,1.040
-2.000E-07,1.040
-1.900E-07,1.160
-1.800E-07,1.120
-1.700E-07,1.160
-1.600E-07,1.080
-1.500E-07,1.280
-1.400E-07,1.360
-1.300E-07,1.440
-1.200E-07,1.400
-1.100E-07,1.440
-1.000E-07,1.320
-9.000E-08,1.320
-8.000E-08,1.360
-7.000E-08,0.960
-6.000E-08,1.120
-5.000E-08,1.080
-4.000E-08,0.960
-3.000E-08,0.840
-2.000E-08,0.480
-1.000E-08,-0.040
0.000E+00,-0.120
1.000E-08,0.160
2.000E-08,1.400
3.000E-08,2.000
4.000E-08,2.320
5.000E-08,1.560
6.000E-08,0.480
7.000E-08,-0.040
8.000E-08,-0.160
9.000E-08,0.960
1.000E-07,1.400
1.100E-07,1.800
1.200E-07,1.240
1.300E-07,0.520
1.400E-07,-0.040
1.500E-07,-0.080
1.600E-07,0.280
1.700E-07,0.840
1.800E-07,1.040
1.900E-07,1.280
2.000E-07,1.000
2.100E-07,0.560
2.200E-07,0.440
2.300E-07,0.200
2.400E-07,0.400
2.500E-07,0.680
2.600E-07,0.680
2.700E-07,0.560
2.800E-07,0.440
2.900E-07,0.040
3.000E-07,0.440
3.100E-07,0.360
3.200E-07,0.880
3.300E-07,0.920
3.400E-07,0.720
3.500E-07,0.600
3.600E-07,0.080
3.700E-07,0.160
3.800E-07,-0.040
3.900E-07,0.120
4.000E-07,0.160
4.100E-07,0.160
4.200E-07,0.160
4.300E-07,0.000
4.400E-07,-0.080
4.500E-07,-0.120
4.600E-07,-0.080
4.700E-07,-0.080
4.800E-07,0.000
4.900E-07,0.040
5.000E-07,0.200
5.100E-07,0.320
5.200E-07,0.400
5.300E-07,0.440
5.400E-07,0.480
5.500E-07,0.560
5.600E-07,0.680
5.700E-07,0.720
5.800E-07,0.800
5.900E-07,0.720
6.000E-07,0.640
6.100E-07,0.520
6.200E-07,0.440
6.300E-07,0.400
6.400E-07,0.320
6.500E-07,0.320
6.600E-07,0.120
6.700E-07,0.040
6.800E-07,-0.040
6.900E-07,0.000
7.000E-07,-0.040
7.100E-07,-0.040
7.200E-07,-0.080
7.300E-07,-0.080
7.400E-07,-0.040
7.500E-07,0.080
7.600E-07,0.160
7.700E-07,0.240
7.800E-07,0.320
7.900E-07,0.360
8.000E-07,0.320
8.100E-07,0.320
8.200E-07,0.280
8.300E-07,0.240
8.400E-07,0.160
8.500E-07,0.160
8.600E-07,0.200
8.700E-07,0.160
8.800E-07,0.320
8.900E-07,0.200
9.000E-07,-0.040
9.100E-07,-0.040
9.200E-07,-0.440
9.300E-07,-0.280
9.400E-07,-0.240
9.500E-07,-0.040
9.600E-07,0.080
9.700E-07,0.000
9.800E-07,0.200
9.900E-07,0.080
1.000E-06,0.000
1.010E-06,0.000
1.020E-06,-0.320
1.030E-06,-0.480
1.040E-06,-0.480
1.050E-06,-0.240
1.060E-06,0.280
1.070E-06,0.480
1.080E-06,0.480
1.090E-06,0.520
1.100E-06,0.480
1.110E-06,0.640
1.120E-06,0.880
1.130E-06,1.200
1.140E-06,1.360
1.150E-06,1.400
1.160E-06,1.440
1.170E-06,1.400
1.180E-06,1.520
1.190E-06,1.480
1.200E-06,1.560
1.210E-06,1.240
1.220E-06,1.040
1.230E-06,1.000
1.240E-06,0.880
1.250E-06,1.080
1.260E-06,1.240
1.270E-06,1.360
1.280E-06,1.200
1.290E-06,0.960
1.300E-06,0.800
1.310E-06,0.800
1.320E-06,0.720
1.330E-06,0.840
1.340E-06,0.680
1.350E-06,0.680
1.360E-06,0.760
1.370E-06,0.680
1.380E-06,0.560
1.390E-06,0.680
1.400E-06,0.560
1.410E-06,0.640
1.420E-06,0.680
1.430E-06,0.680
1.440E-06,0.720
1.450E-06,0.640
1.460E-06,0.520
1.470E-06,0.560
1.480E-06,0.480
1.490E-06,0.480
1.500E-06,0.360
1.510E-06,0.160
1.520E-06,0.080
1.530E-06,0.000
1.540E-06,-0.040
1.550E-06,0.040
1.560E-06,0.160
1.570E-06,0.080
1.580E-06,0.200
1.590E-06,0.120
1.600E-06,0.200
1.610E-06,0.120
1.620E-06,0.160
1.630E-06,0.280
1.640E-06,0.200
1.650E-06,0.280
1.660E-06,0.360
1.670E-06,0.400
1.680E-06,0.400
1.690E-06,0.400
1.700E-06,0.400
1.710E-06,0.400
1.720E-06,0.480
1.730E-06,0.680
1.740E-06,0.680
1.750E-06,0.640
1.760E-06,0.640
1.770E-06,0.600
1.780E-06,0.600
1.790E-06,0.560
1.800E-06,0.600
1.810E-06,0.600
1.820E-06,0.560
1.830E-06,0.600
1.840E-06,0.480
1.850E-06,0.520
1.860E-06,0.440
1.870E-06,0.480
1.880E-06,0.440
1.890E-06,0.440
1.900E-06,0.360
1.910E-06,0.320
1.920E-06,0.360
1.930E-06,0.320
1.940E-06,0.360
1.950E-06,0.320
1.960E-06,0.160
1.970E-06,0.120
1.980E-06,0.160
1.990E-06,0.000
2.000E-06,-0.040
2.010E-06,-0.120
2.020E-06,-0.160
2.030E-06,-0.200
2.040E-06,0.080
2.050E-06,0.440
2.060E-06,0.760
2.070E-06,1.080
2.080E-06,1.200
2.090E-06,1.360
2.100E-06,1.440
2.110E-06,1.640
2.120E-06,1.800
2.130E-06,2.000
2.140E-06,2.080
2.150E-06,1.960
2.160E-06,2.120
2.170E-06,2.080
2.180E-06,2.160
2.190E-06,2.240
2.200E-06,2.360
2.210E-06,2.400
2.220E-06,2.400
2.230E-06,2.560
2.240E-06,2.680
2.250E-06,2.640
2.260E-06,2.720
2.270E-06,2.760
2.280E-06,2.720
2.290E-06,2.680
2.300E-06,2.680
2.310E-06,2.640
2.320E-06,2.480
2.330E-06,2.440
2.340E-06,2.240
2.350E-06,2.240
2.360E-06,2.160
2.370E-06,2.080
2.380E-06,2.000
2.390E-06,2.000
2.400E-06,1.960
2.410E-06,1.920
2.420E-06,2.040
2.430E-06,2.080
2.440E-06,2.160
2.450E-06,2.240
2.460E-06,2.320
2.470E-06,2.320
2.480E-06,2.440
2.490E-06,2.480
2.500E-06,2.640
2.510E-06,2.720
2.520E-06,2.720
2.530E-06,2.680
2.540E-06,2.720
2.550E-06,2.520
2.560E-06,2.520
2.570E-06,2.440
2.580E-06,2.440
2.590E-06,2.480
2.600E-06,2.440
2.610E-06,2.360
2.620E-06,2.120
2.630E-06,1.920
2.640E-06,1.720
2.650E-06,1.520
2.660E-06,1.320
2.670E-06,1.160
2.680E-06,0.960
2.690E-06,0.720
2.700E-06,0.480
2.710E-06,0.200
2.720E-06,0.000
2.730E-06,-0.200
2.740E-06,-0.320
2.750E-06,-0.440
2.760E-06,-0.560
2.770E-06,-0.680
2.780E-06,-0.800
2.790E-06,-0.880
2.800E-06,-0.960
2.810E-06,-0.960
2.820E-06,-1.040
2.830E-06,-1.040
2.840E-06,-1.120
2.850E-06,-1.200
2.860E-06,-1.200
2.870E-06,-1.200
2.880E-06,-1.200
2.890E-06,-1.120
2.900E-06,-1.080
2.910E-06,-1.000
2.920E-06,-1.040
2.930E-06,-1.040
2.940E-06,-1.000
2.950E-06,-0.920
2.960E-06,-0.880
2.970E-06,-0.920
2.980E-06,-0.920
2.990E-06,-0.960
3.000E-06,-1.080
3.010E-06,-1.120
3.020E-06,-1.240
3.030E-06,-1.360
3.040E-06,-1.480
3.050E-06,-1.600
3.060E-06,-1.760
3.070E-06,-1.760
3.080E-06,-1.800
3.090E-06,-1.840
3.100E-06,-1.840
3.110E-06,-1.840
3.120E-06,-1.840
3.130E-06,-1.800
3.140E-06,-1.720
3.150E-06,-1.680
3.160E-06,-1.640
3.170E-06,-1.520
3.180E-06,-1.400
3.190E-06,-1.320
3.200E-06,-1.240
3.210E-06,-1.200
3.220E-06,-1.160
3.230E-06,-1.040
3.240E-06,-1.040
3.250E-06,-0.960
3.260E-06,-0.920
3.270E-06,-0.880
3.280E-06,-0.840
3.290E-06,-0.800
3.300E-06,-0.760
3.310E-06,-0.800
3.320E-06,-0.840
3.330E-06,-0.960
3.340E-06,-0.960
3.350E-06,-1.080
3.360E-06,-1.200
3.370E-06,-1.320
3.380E-06,-1.400
3.390E-06,-1.560
3.400E-06,-1.680
3.410E-06,-1.800
3.420E-06,-1.920
3.430E-06,-1.920
3.440E-06,-2.000
3.450E-06,-2.120
3.460E-06,-2.160
3.470E-06,-2.120
3.480E-06,-2.160
3.490E-06,-2.120
3.500E-06,-2.120
3.510E-06,-2.120
3.520E-06,-2.120
3.530E-06,-2.120
3.540E-06,-2.120
3.550E-06,-2.040
3.560E-06,-2.080
3.570E-06,-2.000
3.580E-06,-2.000
3.590E-06,-2.000
3.600E-06,-2.000
3.610E-06,-1.880
3.620E-06,-1.920
3.630E-06,-1.960
3.640E-06,-1.960
3.650E-06,-1.960
3.660E-06,-2.080
3.670E-06,-2.200
3.680E-06,-2.320
3.690E-06,-2.480
3.700E-06,-2.680
3.710E-06,-2.840
3.720E-06,-3.040
3.730E-06,-3.280
3.740E-06,-3.600
3.750E-06,-3.840
3.760E-06,-4.200
3.770E-06,-4.520
3.780E-06,-4.840
3.790E-06,-5.040
3.800E-06,-5.200
3.810E-06,-5.200
3.820E-06,-5.240
3.830E-06,-5.240
3.840E-06,-5.240
3.850E-06,-5.240
3.860E-06,-5.240
3.870E-06,-5.240
3.880E-06,-5.200
3.890E-06,-5.200
3.900E-06,-5.240
3.910E-06,-5.240
3.920E-06,-5.200
3.930E-06,-5.240
3.940E-06,-5.240
3.950E-06,-5.200
3.960E-06,-5.200
3.970E-06,-5.240
3.980E-06,-5.240
3.990E-06,-5.160
4.000E-06,-5.000
4.010E-06,-4.840
4.020E-06,-4.760
4.030E-06,-4.600
4.040E-06,-4.480
4.050E-06,-4.320
4.060E-06,-4.240
4.070E-06,-4.080
4.080E-06,-3.920
4.090E-06,-3.800
4.100E-06,-3.680
4.110E-06,-3.600
4.120E-06,-3.520
4.130E-06,-3.480
4.140E-06,-3.400
4.150E-06,-3.360
4.160E-06,-3.280
4.170E-06,-3.240
4.180E-06,-3.280
4.190E-06,-3.320
4.200E-06,-3.320
4.210E-06,-3.280
4.220E-06,-3.280
4.230E-06,-3.240
4.240E-06,-3.240
4.250E-06,-3.160
4.260E-06,-3.080
4.270E-06,-3.120
4.280E-06,-3.080
4.290E-06,-3.000
4.300E-06,-3.000
4.310E-06,-2.960
4.320E-06,-2.960
4.330E-06,-2.880
4.340E-06,-2.800
4.350E-06,-2.800
4.360E-06,-2.760
4.370E-06,-2.720
4.380E-06,-2.720
4.390E-06,-2.680
4.400E-06,-2.720
4.410E-06,-2.680
4.420E-06,-2.600
4.430E-06,-2.560
4.440E-06,-2.520
4.450E-06,-2.480
4.460E-06,-2.480
4.470E-06,-2.400
4.480E-06,-2.320
4.490E-06,-2.320
4.500E-06,-2.320
4.510E-06,-2.240
4.520E-06,-2.200
4.530E-06,-2.160
4.540E-06,-2.040
4.550E-06,-2.040
