mediciones/5-27/-17.5/WaveData51124.csv

#timebase=2000000(ps)
,#voltbase=100000(mv/100)
#size=4000
-7.300E-06,0.004
-7.290E-06,0.004
-7.280E-06,-0.004
-7.270E-06,-0.008
-7.260E-06,-0.004
-7.250E-06,0.004
-7.240E-06,0.012
-7.230E-06,0.012
-7.220E-06,0.000
-7.210E-06,-0.004
-7.200E-06,0.000
-7.190E-06,0.000
-7.180E-06,0.004
-7.170E-06,0.012
-7.160E-06,0.012
-7.150E-06,0.004
-7.140E-06,0.000
-7.130E-06,-0.012
-7.120E-06,-0.012
-7.110E-06,0.000
-7.100E-06,0.004
-7.090E-06,0.016
-7.080E-06,0.012
-7.070E-06,0.016
-7.060E-06,0.000
-7.050E-06,0.000
-7.040E-06,0.004
-7.030E-06,0.000
-7.020E-06,0.004
-7.010E-06,0.000
-7.000E-06,-0.004
-6.990E-06,0.000
-6.980E-06,0.000
-6.970E-06,0.008
-6.960E-06,0.004
-6.950E-06,0.008
-6.940E-06,0.004
-6.930E-06,-0.004
-6.920E-06,0.000
-6.910E-06,-0.004
-6.900E-06,0.008
-6.890E-06,0.008
-6.880E-06,0.008
-6.870E-06,0.004
-6.860E-06,0.000
-6.850E-06,0.000
-6.840E-06,-0.004
-6.830E-06,0.000
-6.820E-06,0.000
-6.810E-06,-0.004
-6.800E-06,0.004
-6.790E-06,0.008
-6.780E-06,0.008
-6.770E-06,0.004
-6.760E-06,0.000
-6.750E-06,0.004
-6.740E-06,0.000
-6.730E-06,0.000
-6.720E-06,0.004
-6.710E-06,0.004
-6.700E-06,0.008
-6.690E-06,0.008
-6.680E-06,0.008
-6.670E-06,0.004
-6.660E-06,-0.008
-6.650E-06,-0.008
-6.640E-06,-0.008
-6.630E-06,0.008
-6.620E-06,0.012
-6.610E-06,0.004
-6.600E-06,0.012
-6.590E-06,0.000
-6.580E-06,-0.004
-6.570E-06,-0.004
-6.560E-06,0.000
-6.550E-06,0.008
-6.540E-06,0.012
-6.530E-06,0.004
-6.520E-06,0.000
-6.510E-06,0.000
-6.500E-06,0.004
-6.490E-06,0.004
-6.480E-06,0.012
-6.470E-06,0.012
-6.460E-06,0.004
-6.450E-06,0.004
-6.440E-06,-0.008
-6.430E-06,-0.004
-6.420E-06,-0.004
-6.410E-06,0.012
-6.400E-06,0.008
-6.390E-06,0.000
-6.380E-06,-0.004
-6.370E-06,-0.004
-6.360E-06,0.000
-6.350E-06,0.000
-6.340E-06,0.004
-6.330E-06,0.008
-6.320E-06,0.004
-6.310E-06,0.000
-6.300E-06,-0.004
-6.290E-06,0.000
-6.280E-06,0.008
-6.270E-06,0.016
-6.260E-06,0.008
-6.250E-06,0.000
-6.240E-06,-0.008
-6.230E-06,0.004
-6.220E-06,0.000
-6.210E-06,0.008
-6.200E-06,0.004
-6.190E-06,0.008
-6.180E-06,0.000
-6.170E-06,0.004
-6.160E-06,-0.008
-6.150E-06,-0.008
-6.140E-06,0.000
-6.130E-06,0.008
-6.120E-06,0.012
-6.110E-06,0.008
-6.100E-06,0.008
-6.090E-06,-0.004
-6.080E-06,0.000
-6.070E-06,0.000
-6.060E-06,0.004
-6.050E-06,0.008
-6.040E-06,0.008
-6.030E-06,0.004
-6.020E-06,0.000
-6.010E-06,0.000
-6.000E-06,0.004
-5.990E-06,0.012
-5.980E-06,-0.008
-5.970E-06,-0.008
-5.960E-06,-0.008
-5.950E-06,-0.004
-5.940E-06,0.004
-5.930E-06,0.012
-5.920E-06,0.008
-5.910E-06,0.000
-5.900E-06,-0.004
-5.890E-06,0.000
-5.880E-06,0.000
-5.870E-06,0.016
-5.860E-06,0.012
-5.850E-06,0.000
-5.840E-06,-0.004
-5.830E-06,0.000
-5.820E-06,0.000
-5.810E-06,0.004
-5.800E-06,0.004
-5.790E-06,0.008
-5.780E-06,0.004
-5.770E-06,0.008
-5.760E-06,0.000
-5.750E-06,0.004
-5.740E-06,0.008
-5.730E-06,0.004
-5.720E-06,0.008
-5.710E-06,0.000
-5.700E-06,-0.004
-5.690E-06,-0.004
-5.680E-06,0.000
-5.670E-06,0.012
-5.660E-06,0.012
-5.650E-06,0.000
-5.640E-06,0.004
-5.630E-06,0.004
-5.620E-06,0.000
-5.610E-06,0.000
-5.600E-06,0.008
-5.590E-06,0.004
-5.580E-06,0.008
-5.570E-06,0.004
-5.560E-06,0.000
-5.550E-06,0.000
-5.540E-06,0.008
-5.530E-06,0.000
-5.520E-06,0.000
-5.510E-06,-0.004
-5.500E-06,0.000
-5.490E-06,0.000
-5.480E-06,0.004
-5.470E-06,0.004
-5.460E-06,0.008
-5.450E-06,0.008
-5.440E-06,0.000
-5.430E-06,-0.004
-5.420E-06,0.000
-5.410E-06,0.000
-5.400E-06,-0.004
-5.390E-06,0.008
-5.380E-06,0.000
-5.370E-06,0.008
-5.360E-06,0.000
-5.350E-06,-0.004
-5.340E-06,0.000
-5.330E-06,0.004
-5.320E-06,0.016
-5.310E-06,0.016
-5.300E-06,0.016
-5.290E-06,0.004
-5.280E-06,-0.008
-5.270E-06,-0.008
-5.260E-06,-0.004
-5.250E-06,0.004
-5.240E-06,0.008
-5.230E-06,0.008
-5.220E-06,0.004
-5.210E-06,-0.008
-5.200E-06,0.008
-5.190E-06,0.008
-5.180E-06,0.004
-5.170E-06,0.008
-5.160E-06,0.004
-5.150E-06,0.008
-5.140E-06,0.000
-5.130E-06,-0.004
-5.120E-06,-0.004
-5.110E-06,0.004
-5.100E-06,0.000
-5.090E-06,0.008
-5.080E-06,0.004
-5.070E-06,0.008
-5.060E-06,0.012
-5.050E-06,0.008
-5.040E-06,0.008
-5.030E-06,0.004
-5.020E-06,-0.008
-5.010E-06,-0.004
-5.000E-06,-0.004
-4.990E-06,0.000
-4.980E-06,0.008
-4.970E-06,0.008
-4.960E-06,0.008
-4.950E-06,0.004
-4.940E-06,0.000
-4.930E-06,0.000
-4.920E-06,0.004
-4.910E-06,0.004
-4.900E-06,0.004
-4.890E-06,0.004
-4.880E-06,0.000
-4.870E-06,-0.004
-4.860E-06,-0.004
-4.850E-06,-0.008
-4.840E-06,0.004
-4.830E-06,0.008
-4.820E-06,0.008
-4.810E-06,0.004
-4.800E-06,0.000
-4.790E-06,0.004
-4.780E-06,0.004
-4.770E-06,0.004
-4.760E-06,0.008
-4.750E-06,0.004
-4.740E-06,0.004
-4.730E-06,0.000
-4.720E-06,0.004
-4.710E-06,0.004
-4.700E-06,0.000
-4.690E-06,0.000
-4.680E-06,0.000
-4.670E-06,-0.004
-4.660E-06,0.004
-4.650E-06,0.004
-4.640E-06,0.004
-4.630E-06,0.008
-4.620E-06,0.004
-4.610E-06,0.004
-4.600E-06,0.008
-4.590E-06,-0.004
-4.580E-06,0.000
-4.570E-06,0.000
-4.560E-06,0.004
-4.550E-06,0.000
-4.540E-06,0.004
-4.530E-06,0.004
-4.520E-06,-0.004
-4.510E-06,0.008
-4.500E-06,0.004
-4.490E-06,-0.004
-4.480E-06,0.000
-4.470E-06,0.000
-4.460E-06,0.000
-4.450E-06,0.008
-4.440E-06,0.012
-4.430E-06,0.000
-4.420E-06,0.004
-4.410E-06,0.000
-4.400E-06,-0.004
-4.390E-06,0.000
-4.380E-06,0.004
-4.370E-06,0.004
-4.360E-06,0.004
-4.350E-06,-0.004
-4.340E-06,0.000
-4.330E-06,0.000
-4.320E-06,0.004
-4.310E-06,0.008
-4.300E-06,0.000
-4.290E-06,0.000
-4.280E-06,0.004
-4.270E-06,0.000
-4.260E-06,0.000
-4.250E-06,0.008
-4.240E-06,0.004
-4.230E-06,0.008
-4.220E-06,0.008
-4.210E-06,0.000
-4.200E-06,0.000
-4.190E-06,0.004
-4.180E-06,0.008
-4.170E-06,0.008
-4.160E-06,0.004
-4.150E-06,0.008
-4.140E-06,-0.004
-4.130E-06,0.000
-4.120E-06,0.008
-4.110E-06,0.004
-4.100E-06,0.008
-4.090E-06,0.008
-4.080E-06,0.004
-4.070E-06,0.000
-4.060E-06,-0.004
-4.050E-06,0.004
-4.040E-06,0.008
-4.030E-06,0.012
-4.020E-06,0.004
-4.010E-06,0.000
-4.000E-06,0.004
-3.990E-06,-0.004
-3.980E-06,0.004
-3.970E-06,0.004
-3.960E-06,0.000
-3.950E-06,0.004
-3.940E-06,0.004
-3.930E-06,0.004
-3.920E-06,0.008
-3.910E-06,0.004
-3.900E-06,0.008
-3.890E-06,0.004
-3.880E-06,0.000
-3.870E-06,0.000
-3.860E-06,0.000
-3.850E-06,0.008
-3.840E-06,0.008
-3.830E-06,0.020
-3.820E-06,0.008
-3.810E-06,0.000
-3.800E-06,-0.004
-3.790E-06,-0.012
-3.780E-06,0.000
-3.770E-06,0.000
-3.760E-06,0.008
-3.750E-06,0.004
-3.740E-06,0.004
-3.730E-06,0.000
-3.720E-06,0.000
-3.710E-06,0.008
-3.700E-06,0.008
-3.690E-06,0.008
-3.680E-06,0.000
-3.670E-06,0.000
-3.660E-06,-0.008
-3.650E-06,-0.004
-3.640E-06,0.004
-3.630E-06,0.008
-3.620E-06,0.004
-3.610E-06,0.008
-3.600E-06,0.004
-3.590E-06,-0.004
-3.580E-06,-0.004
-3.570E-06,-0.004
-3.560E-06,0.000
-3.550E-06,-0.004
-3.540E-06,0.004
-3.530E-06,0.004
-3.520E-06,0.004
-3.510E-06,0.004
-3.500E-06,0.004
-3.490E-06,0.000
-3.480E-06,0.000
-3.470E-06,0.000
-3.460E-06,-0.004
-3.450E-06,0.008
-3.440E-06,0.004
-3.430E-06,0.008
-3.420E-06,0.000
-3.410E-06,-0.004
-3.400E-06,0.000
-3.390E-06,0.004
-3.380E-06,0.000
-3.370E-06,0.000
-3.360E-06,0.004
-3.350E-06,0.000
-3.340E-06,0.000
-3.330E-06,0.004
-3.320E-06,0.004
-3.310E-06,0.004
-3.300E-06,0.000
-3.290E-06,0.004
-3.280E-06,0.012
-3.270E-06,0.004
-3.260E-06,0.004
-3.250E-06,0.008
-3.240E-06,-0.004
-3.230E-06,0.004
-3.220E-06,0.012
-3.210E-06,0.008
-3.200E-06,0.012
-3.190E-06,0.012
-3.180E-06,0.008
-3.170E-06,0.004
-3.160E-06,-0.004
-3.150E-06,0.000
-3.140E-06,0.008
-3.130E-06,0.008
-3.120E-06,-0.004
-3.110E-06,-0.008
-3.100E-06,-0.008
-3.090E-06,-0.004
-3.080E-06,0.008
-3.070E-06,0.012
-3.060E-06,0.020
-3.050E-06,0.012
-3.040E-06,0.000
-3.030E-06,-0.008
-3.020E-06,-0.012
-3.010E-06,-0.008
-3.000E-06,-0.004
-2.990E-06,0.004
-2.980E-06,0.004
-2.970E-06,0.004
-2.960E-06,0.000
-2.950E-06,-0.004
-2.940E-06,-0.004
-2.930E-06,0.004
-2.920E-06,0.000
-2.910E-06,0.000
-2.900E-06,0.000
-2.890E-06,-0.004
-2.880E-06,0.004
-2.870E-06,0.000
-2.860E-06,0.004
-2.850E-06,0.008
-2.840E-06,0.004
-2.830E-06,0.004
-2.820E-06,0.004
-2.810E-06,0.000
-2.800E-06,0.004
-2.790E-06,0.000
-2.780E-06,0.004
-2.770E-06,0.008
-2.760E-06,0.012
-2.750E-06,0.004
-2.740E-06,0.000
-2.730E-06,-0.004
-2.720E-06,0.004
-2.710E-06,0.008
-2.700E-06,0.012
-2.690E-06,0.008
-2.680E-06,0.000
-2.670E-06,-0.004
-2.660E-06,-0.004
-2.650E-06,0.004
-2.640E-06,0.004
-2.630E-06,0.008
-2.620E-06,0.008
-2.610E-06,0.008
-2.600E-06,0.004
-2.590E-06,0.004
-2.580E-06,0.008
-2.570E-06,0.004
-2.560E-06,0.008
-2.550E-06,0.012
-2.540E-06,0.012
-2.530E-06,0.020
-2.520E-06,0.008
-2.510E-06,0.008
-2.500E-06,-0.004
-2.490E-06,-0.004
-2.480E-06,0.008
-2.470E-06,0.004
-2.460E-06,0.008
-2.450E-06,-0.008
-2.440E-06,-0.008
-2.430E-06,0.004
-2.420E-06,-0.012
-2.410E-06,0.008
-2.400E-06,0.004
-2.390E-06,0.004
-2.380E-06,0.008
-2.370E-06,0.004
-2.360E-06,0.004
-2.350E-06,-0.008
-2.340E-06,0.000
-2.330E-06,-0.004
-2.320E-06,0.004
-2.310E-06,0.008
-2.300E-06,0.008
-2.290E-06,0.004
-2.280E-06,0.004
-2.270E-06,0.000
-2.260E-06,0.004
-2.250E-06,0.000
-2.240E-06,-0.004
-2.230E-06,0.004
-2.220E-06,0.004
-2.210E-06,0.004
-2.200E-06,0.004
-2.190E-06,0.000
-2.180E-06,0.000
-2.170E-06,-0.004
-2.160E-06,0.000
-2.150E-06,-0.004
-2.140E-06,0.008
-2.130E-06,0.004
-2.120E-06,0.004
-2.110E-06,0.004
-2.100E-06,0.004
-2.090E-06,0.004
-2.080E-06,0.004
-2.070E-06,0.000
-2.060E-06,0.004
-2.050E-06,0.000
-2.040E-06,0.004
-2.030E-06,0.004
-2.020E-06,0.008
-2.010E-06,0.008
-2.000E-06,0.012
-1.990E-06,0.004
-1.980E-06,0.004
-1.970E-06,0.008
-1.960E-06,0.000
-1.950E-06,0.000
-1.940E-06,0.000
-1.930E-06,0.000
-1.920E-06,-0.004
-1.910E-06,0.000
-1.900E-06,0.012
-1.890E-06,0.020
-1.880E-06,0.012
-1.870E-06,0.008
-1.860E-06,0.004
-1.850E-06,0.000
-1.840E-06,-0.004
-1.830E-06,0.000
-1.820E-06,0.008
-1.810E-06,0.012
-1.800E-06,0.004
-1.790E-06,-0.004
-1.780E-06,-0.004
-1.770E-06,-0.008
-1.760E-06,-0.008
-1.750E-06,0.000
-1.740E-06,0.008
-1.730E-06,0.012
-1.720E-06,0.008
-1.710E-06,0.004
-1.700E-06,-0.004
-1.690E-06,0.004
-1.680E-06,0.000
-1.670E-06,0.004
-1.660E-06,0.008
-1.650E-06,0.004
-1.640E-06,0.004
-1.630E-06,0.008
-1.620E-06,0.004
-1.610E-06,0.012
-1.600E-06,0.008
-1.590E-06,0.008
-1.580E-06,0.004
-1.570E-06,-0.004
-1.560E-06,0.000
-1.550E-06,0.008
-1.540E-06,0.004
-1.530E-06,0.004
-1.520E-06,0.008
-1.510E-06,0.004
-1.500E-06,0.004
-1.490E-06,0.000
-1.480E-06,0.000
-1.470E-06,0.004
-1.460E-06,0.012
-1.450E-06,0.012
-1.440E-06,0.012
-1.430E-06,0.008
-1.420E-06,0.004
-1.410E-06,0.004
-1.400E-06,-0.004
-1.390E-06,0.004
-1.380E-06,0.012
-1.370E-06,0.008
-1.360E-06,0.012
-1.350E-06,0.012
-1.340E-06,0.004
-1.330E-06,-0.004
-1.320E-06,-0.004
-1.310E-06,0.000
-1.300E-06,0.008
-1.290E-06,0.012
-1.280E-06,0.012
-1.270E-06,0.012
-1.260E-06,0.008
-1.250E-06,0.008
-1.240E-06,0.004
-1.230E-06,0.008
-1.220E-06,0.004
-1.210E-06,0.008
-1.200E-06,0.008
-1.190E-06,0.012
-1.180E-06,0.012
-1.170E-06,0.012
-1.160E-06,0.020
-1.150E-06,0.016
-1.140E-06,0.020
-1.130E-06,0.008
-1.120E-06,-0.004
-1.110E-06,-0.012
-1.100E-06,-0.008
-1.090E-06,-0.008
-1.080E-06,0.004
-1.070E-06,0.008
-1.060E-06,0.008
-1.050E-06,0.008
-1.040E-06,0.008
-1.030E-06,-0.004
-1.020E-06,-0.004
-1.010E-06,-0.004
-1.000E-06,-0.008
-9.900E-07,-0.004
-9.800E-07,-0.008
-9.700E-07,0.004
-9.600E-07,0.008
-9.500E-07,0.012
-9.400E-07,0.004
-9.300E-07,0.000
-9.200E-07,0.004
-9.100E-07,0.004
-9.000E-07,0.008
-8.900E-07,0.012
-8.800E-07,0.012
-8.700E-07,0.012
-8.600E-07,0.012
-8.500E-07,0.012
-8.400E-07,0.008
-8.300E-07,0.008
-8.200E-07,0.012
-8.100E-07,0.012
-8.000E-07,0.012
-7.900E-07,0.008
-7.800E-07,0.008
-7.700E-07,0.008
-7.600E-07,0.004
-7.500E-07,0.004
-7.400E-07,0.008
-7.300E-07,0.012
-7.200E-07,0.016
-7.100E-07,0.024
-7.000E-07,0.024
-6.900E-07,0.024
-6.800E-07,0.028
-6.700E-07,0.028
-6.600E-07,0.024
-6.500E-07,0.024
-6.400E-07,0.028
-6.300E-07,0.036
-6.200E-07,0.032
-6.100E-07,0.028
-6.000E-07,0.028
-5.900E-07,0.012
-5.800E-07,-0.024
-5.700E-07,-0.036
-5.600E-07,-0.052
-5.500E-07,-0.052
-5.400E-07,-0.036
-5.300E-07,-0.008
-5.200E-07,0.008
-5.100E-07,0.020
-5.000E-07,0.012
-4.900E-07,-0.012
-4.800E-07,-0.032
-4.700E-07,-0.028
-4.600E-07,-0.020
-4.500E-07,0.000
-4.400E-07,0.012
-4.300E-07,0.020
-4.200E-07,0.016
-4.100E-07,0.012
-4.000E-07,0.008
-3.900E-07,0.012
-3.800E-07,0.024
-3.700E-07,0.036
-3.600E-07,0.040
-3.500E-07,0.044
-3.400E-07,0.052
-3.300E-07,0.056
-3.200E-07,0.060
-3.100E-07,0.056
-3.000E-07,0.036
-2.900E-07,0.036
-2.800E-07,0.032
-2.700E-07,0.040
-2.600E-07,0.052
-2.500E-07,0.060
-2.400E-07,0.068
-2.300E-07,0.060
-2.200E-07,0.048
-2.100E-07,0.036
-2.000E-07,0.036
-1.900E-07,0.032
-1.800E-07,0.056
-1.700E-07,0.072
-1.600E-07,0.088
-1.500E-07,0.064
-1.400E-07,0.044
-1.300E-07,-0.004
-1.200E-07,-0.048
-1.100E-07,-0.064
-1.000E-07,-0.088
-9.000E-08,-0.032
-8.000E-08,0.028
-7.000E-08,0.144
-6.000E-08,-0.044
-5.000E-08,-0.248
-4.000E-08,-0.472
-3.000E-08,-0.512
-2.000E-08,-0.284
-1.000E-08,0.060
0.000E+00,0.300
1.000E-08,0.404
2.000E-08,0.240
3.000E-08,-0.068
4.000E-08,-0.248
5.000E-08,-0.288
6.000E-08,-0.144
7.000E-08,0.040
8.000E-08,0.164
9.000E-08,0.168
1.000E-07,0.076
1.100E-07,-0.020
1.200E-07,-0.080
1.300E-07,-0.096
1.400E-07,-0.056
1.500E-07,-0.004
1.600E-07,0.028
1.700E-07,0.048
1.800E-07,0.032
1.900E-07,0.012
2.000E-07,-0.012
2.100E-07,-0.024
2.200E-07,-0.024
2.300E-07,-0.008
2.400E-07,0.016
2.500E-07,0.036
2.600E-07,0.036
2.700E-07,0.020
2.800E-07,0.000
2.900E-07,-0.020
3.000E-07,-0.024
3.100E-07,-0.008
3.200E-07,0.008
3.300E-07,0.024
3.400E-07,0.028
3.500E-07,0.016
3.600E-07,0.004
3.700E-07,0.000
3.800E-07,0.008
3.900E-07,0.016
4.000E-07,0.028
4.100E-07,0.036
4.200E-07,0.032
4.300E-07,0.028
4.400E-07,0.020
4.500E-07,0.020
4.600E-07,0.024
4.700E-07,0.024
4.800E-07,0.032
4.900E-07,0.040
5.000E-07,0.044
5.100E-07,0.048
5.200E-07,0.060
5.300E-07,0.080
5.400E-07,0.080
5.500E-07,0.084
5.600E-07,0.064
5.700E-07,0.040
5.800E-07,0.012
5.900E-07,-0.008
6.000E-07,-0.024
6.100E-07,-0.024
6.200E-07,-0.036
6.300E-07,-0.016
6.400E-07,-0.004
6.500E-07,0.008
6.600E-07,0.016
6.700E-07,0.032
6.800E-07,0.040
6.900E-07,0.044
7.000E-07,-0.008
7.100E-07,-0.128
7.200E-07,-0.280
7.300E-07,-0.320
7.400E-07,-0.212
7.500E-07,-0.004
7.600E-07,0.196
7.700E-07,0.256
7.800E-07,0.228
7.900E-07,0.052
8.000E-07,-0.104
8.100E-07,-0.164
8.200E-07,-0.092
8.300E-07,0.064
8.400E-07,0.148
8.500E-07,0.132
8.600E-07,0.060
8.700E-07,-0.008
8.800E-07,-0.044
8.900E-07,-0.004
9.000E-07,0.004
9.100E-07,0.028
9.200E-07,0.048
9.300E-07,-0.024
9.400E-07,-0.072
9.500E-07,-0.072
9.600E-07,-0.044
9.700E-07,-0.004
9.800E-07,-0.012
9.900E-07,0.016
1.000E-06,-0.004
1.010E-06,-0.008
1.020E-06,0.000
1.030E-06,-0.008
1.040E-06,0.008
1.050E-06,0.008
1.060E-06,0.016
1.070E-06,0.008
1.080E-06,0.016
1.090E-06,0.008
1.100E-06,-0.004
1.110E-06,-0.012
1.120E-06,-0.004
1.130E-06,0.012
1.140E-06,0.020
1.150E-06,0.016
1.160E-06,0.028
1.170E-06,0.016
1.180E-06,0.024
1.190E-06,0.008
1.200E-06,0.012
1.210E-06,0.028
1.220E-06,0.040
1.230E-06,0.064
1.240E-06,0.064
1.250E-06,0.056
1.260E-06,0.040
1.270E-06,0.024
1.280E-06,0.016
1.290E-06,0.032
1.300E-06,0.072
1.310E-06,0.108
1.320E-06,0.132
1.330E-06,0.104
1.340E-06,0.080
1.350E-06,0.040
1.360E-06,-0.004
1.370E-06,-0.068
1.380E-06,-0.108
1.390E-06,-0.128
1.400E-06,-0.104
1.410E-06,-0.048
1.420E-06,-0.012
1.430E-06,0.020
1.440E-06,0.024
1.450E-06,-0.008
1.460E-06,-0.040
1.470E-06,-0.064
1.480E-06,-0.040
1.490E-06,-0.016
1.500E-06,0.008
1.510E-06,0.032
1.520E-06,0.028
1.530E-06,0.040
1.540E-06,0.028
1.550E-06,0.008
1.560E-06,0.020
1.570E-06,0.008
1.580E-06,0.024
1.590E-06,0.032
1.600E-06,0.024
1.610E-06,0.024
1.620E-06,0.028
1.630E-06,0.020
1.640E-06,0.004
1.650E-06,-0.004
1.660E-06,-0.012
1.670E-06,-0.016
1.680E-06,-0.012
1.690E-06,0.004
1.700E-06,0.004
1.710E-06,0.004
1.720E-06,0.012
1.730E-06,0.004
1.740E-06,0.024
1.750E-06,0.044
1.760E-06,0.072
1.770E-06,0.088
1.780E-06,0.092
1.790E-06,0.084
1.800E-06,0.044
1.810E-06,0.020
1.820E-06,0.012
1.830E-06,0.012
1.840E-06,0.048
1.850E-06,0.076
1.860E-06,0.088
1.870E-06,0.108
1.880E-06,0.084
1.890E-06,0.072
1.900E-06,0.056
1.910E-06,0.044
1.920E-06,0.064
1.930E-06,0.088
1.940E-06,0.112
1.950E-06,0.096
1.960E-06,0.076
1.970E-06,0.072
1.980E-06,0.064
1.990E-06,-0.024
2.000E-06,-0.216
2.010E-06,-0.484
2.020E-06,-0.512
2.030E-06,-0.484
2.040E-06,-0.156
2.050E-06,0.160
2.060E-06,0.208
2.070E-06,0.172
2.080E-06,0.096
2.090E-06,-0.164
2.100E-06,-0.212
2.110E-06,-0.192
2.120E-06,-0.036
2.130E-06,0.160
2.140E-06,0.156
2.150E-06,0.088
2.160E-06,-0.064
2.170E-06,-0.096
2.180E-06,-0.108
2.190E-06,-0.040
2.200E-06,0.008
2.210E-06,0.072
2.220E-06,0.068
2.230E-06,0.048
2.240E-06,0.008
2.250E-06,-0.036
2.260E-06,-0.056
2.270E-06,-0.052
2.280E-06,0.000
2.290E-06,0.020
2.300E-06,0.064
2.310E-06,0.040
2.320E-06,0.016
2.330E-06,-0.004
2.340E-06,-0.028
2.350E-06,-0.040
2.360E-06,-0.044
2.370E-06,-0.028
2.380E-06,0.004
2.390E-06,0.000
2.400E-06,0.008
2.410E-06,-0.012
2.420E-06,0.012
2.430E-06,0.004
2.440E-06,0.012
2.450E-06,0.012
2.460E-06,0.036
2.470E-06,0.048
2.480E-06,0.024
2.490E-06,0.008
2.500E-06,-0.004
2.510E-06,-0.004
2.520E-06,0.004
2.530E-06,0.024
2.540E-06,0.032
2.550E-06,0.028
2.560E-06,0.024
2.570E-06,0.028
2.580E-06,0.024
2.590E-06,0.036
2.600E-06,0.048
2.610E-06,0.060
2.620E-06,0.052
2.630E-06,0.060
2.640E-06,0.040
2.650E-06,0.044
2.660E-06,0.040
2.670E-06,0.040
2.680E-06,0.052
2.690E-06,0.056
2.700E-06,0.072
2.710E-06,0.088
2.720E-06,0.092
2.730E-06,0.108
2.740E-06,0.112
2.750E-06,0.124
2.760E-06,0.132
2.770E-06,0.148
2.780E-06,0.152
2.790E-06,0.144
2.800E-06,0.124
2.810E-06,0.088
2.820E-06,0.060
2.830E-06,0.036
2.840E-06,0.048
2.850E-06,0.068
2.860E-06,0.084
2.870E-06,0.096
2.880E-06,0.084
2.890E-06,0.072
2.900E-06,0.064
2.910E-06,0.064
2.920E-06,0.080
2.930E-06,0.104
2.940E-06,0.108
2.950E-06,0.124
2.960E-06,0.112
2.970E-06,0.096
2.980E-06,0.092
2.990E-06,0.080
3.000E-06,0.076
3.010E-06,0.072
3.020E-06,0.064
3.030E-06,0.044
3.040E-06,0.016
3.050E-06,0.000
3.060E-06,-0.004
3.070E-06,0.008
3.080E-06,0.044
3.090E-06,0.072
3.100E-06,0.100
3.110E-06,0.124
3.120E-06,0.120
3.130E-06,0.108
3.140E-06,0.104
3.150E-06,0.092
3.160E-06,0.088
3.170E-06,0.072
3.180E-06,0.036
3.190E-06,0.012
3.200E-06,-0.040
3.210E-06,-0.076
3.220E-06,-0.100
3.230E-06,-0.088
3.240E-06,-0.112
3.250E-06,-0.164
3.260E-06,-0.156
3.270E-06,-0.184
3.280E-06,-0.152
3.290E-06,-0.088
3.300E-06,-0.008
3.310E-06,0.020
3.320E-06,0.028
3.330E-06,-0.016
3.340E-06,-0.064
3.350E-06,-0.160
3.360E-06,-0.132
3.370E-06,-0.100
3.380E-06,-0.100
3.390E-06,-0.032
3.400E-06,-0.024
3.410E-06,0.000
3.420E-06,-0.060
3.430E-06,-0.096
3.440E-06,-0.104
3.450E-06,-0.096
3.460E-06,0.004
3.470E-06,0.088
3.480E-06,0.148
3.490E-06,0.140
3.500E-06,0.076
3.510E-06,0.028
3.520E-06,0.000
3.530E-06,0.012
3.540E-06,0.068
3.550E-06,0.108
3.560E-06,0.148
3.570E-06,0.128
3.580E-06,0.096
3.590E-06,0.076
3.600E-06,0.072
3.610E-06,0.088
3.620E-06,0.128
3.630E-06,0.152
3.640E-06,0.180
3.650E-06,0.184
3.660E-06,0.160
3.670E-06,0.140
3.680E-06,0.140
3.690E-06,0.156
3.700E-06,0.176
3.710E-06,0.192
3.720E-06,0.192
3.730E-06,0.184
3.740E-06,0.168
3.750E-06,0.160
3.760E-06,0.148
3.770E-06,0.148
3.780E-06,0.164
3.790E-06,0.180
3.800E-06,0.180
3.810E-06,0.172
3.820E-06,0.164
3.830E-06,0.160
3.840E-06,0.156
3.850E-06,0.160
3.860E-06,0.176
3.870E-06,0.180
3.880E-06,0.180
3.890E-06,0.180
3.900E-06,0.164
3.910E-06,0.164
3.920E-06,0.156
3.930E-06,0.160
3.940E-06,0.172
3.950E-06,0.176
3.960E-06,0.168
3.970E-06,0.156
3.980E-06,0.152
3.990E-06,0.144
4.000E-06,0.136
4.010E-06,0.140
4.020E-06,0.140
4.030E-06,0.124
4.040E-06,0.112
4.050E-06,0.096
4.060E-06,0.092
4.070E-06,0.104
4.080E-06,0.116
4.090E-06,0.136
4.100E-06,0.144
4.110E-06,0.140
4.120E-06,0.136
4.130E-06,0.144
4.140E-06,0.160
4.150E-06,0.168
4.160E-06,0.172
4.170E-06,0.164
4.180E-06,0.152
4.190E-06,0.136
4.200E-06,0.144
4.210E-06,0.160
4.220E-06,0.172
4.230E-06,0.172
4.240E-06,0.168
4.250E-06,0.160
4.260E-06,0.156
4.270E-06,0.148
4.280E-06,0.156
4.290E-06,0.160
4.300E-06,0.168
4.310E-06,0.164
4.320E-06,0.160
4.330E-06,0.156
4.340E-06,0.152
4.350E-06,0.144
4.360E-06,0.136
4.370E-06,0.132
4.380E-06,0.140
4.390E-06,0.144
4.400E-06,0.148
4.410E-06,0.156
4.420E-06,0.164
4.430E-06,0.160
4.440E-06,0.164
4.450E-06,0.164
4.460E-06,0.172
4.470E-06,0.172
4.480E-06,0.172
4.490E-06,0.172
4.500E-06,0.160
4.510E-06,0.160
4.520E-06,0.164
4.530E-06,0.156
4.540E-06,0.160
