mediciones/5-27/-17.5/WaveData51137.csv

#timebase=2000000(ps)
,#voltbase=1000000(mv/100)
#size=4000
-5.650E-06,0.120
-5.640E-06,0.040
-5.630E-06,0.040
-5.620E-06,0.000
-5.610E-06,0.000
-5.600E-06,0.000
-5.590E-06,0.000
-5.580E-06,0.000
-5.570E-06,0.000
-5.560E-06,-0.040
-5.550E-06,0.000
-5.540E-06,0.000
-5.530E-06,-0.040
-5.520E-06,0.000
-5.510E-06,0.000
-5.500E-06,0.000
-5.490E-06,-0.040
-5.480E-06,-0.040
-5.470E-06,0.000
-5.460E-06,-0.040
-5.450E-06,0.000
-5.440E-06,0.080
-5.430E-06,0.080
-5.420E-06,0.040
-5.410E-06,0.040
-5.400E-06,0.040
-5.390E-06,0.040
-5.380E-06,0.040
-5.370E-06,0.040
-5.360E-06,0.040
-5.350E-06,0.040
-5.340E-06,0.080
-5.330E-06,0.080
-5.320E-06,0.120
-5.310E-06,0.080
-5.300E-06,0.120
-5.290E-06,0.080
-5.280E-06,0.000
-5.270E-06,0.080
-5.260E-06,0.160
-5.250E-06,0.120
-5.240E-06,0.160
-5.230E-06,0.040
-5.220E-06,0.000
-5.210E-06,0.040
-5.200E-06,0.000
-5.190E-06,0.000
-5.180E-06,0.040
-5.170E-06,0.040
-5.160E-06,0.040
-5.150E-06,0.000
-5.140E-06,0.040
-5.130E-06,0.000
-5.120E-06,0.080
-5.110E-06,0.080
-5.100E-06,0.080
-5.090E-06,0.040
-5.080E-06,0.040
-5.070E-06,0.080
-5.060E-06,0.080
-5.050E-06,0.080
-5.040E-06,0.120
-5.030E-06,0.080
-5.020E-06,0.080
-5.010E-06,0.120
-5.000E-06,0.080
-4.990E-06,0.040
-4.980E-06,0.080
-4.970E-06,0.080
-4.960E-06,0.080
-4.950E-06,0.080
-4.940E-06,0.040
-4.930E-06,0.040
-4.920E-06,0.040
-4.910E-06,0.080
-4.900E-06,0.000
-4.890E-06,0.040
-4.880E-06,0.000
-4.870E-06,0.000
-4.860E-06,0.000
-4.850E-06,-0.040
-4.840E-06,0.000
-4.830E-06,0.000
-4.820E-06,0.000
-4.810E-06,0.000
-4.800E-06,-0.040
-4.790E-06,0.000
-4.780E-06,-0.040
-4.770E-06,0.000
-4.760E-06,0.000
-4.750E-06,0.040
-4.740E-06,0.000
-4.730E-06,0.000
-4.720E-06,0.000
-4.710E-06,0.000
-4.700E-06,-0.040
-4.690E-06,0.000
-4.680E-06,0.040
-4.670E-06,0.040
-4.660E-06,0.040
-4.650E-06,0.080
-4.640E-06,0.040
-4.630E-06,0.040
-4.620E-06,0.120
-4.610E-06,0.080
-4.600E-06,0.080
-4.590E-06,0.080
-4.580E-06,0.120
-4.570E-06,0.120
-4.560E-06,0.120
-4.550E-06,0.160
-4.540E-06,0.080
-4.530E-06,0.040
-4.520E-06,0.120
-4.510E-06,0.080
-4.500E-06,0.160
-4.490E-06,0.120
-4.480E-06,0.120
-4.470E-06,0.040
-4.460E-06,0.080
-4.450E-06,0.040
-4.440E-06,0.120
-4.430E-06,0.200
-4.420E-06,0.080
-4.410E-06,0.040
-4.400E-06,0.040
-4.390E-06,0.000
-4.380E-06,0.040
-4.370E-06,0.080
-4.360E-06,0.080
-4.350E-06,0.040
-4.340E-06,0.000
-4.330E-06,0.000
-4.320E-06,0.000
-4.310E-06,-0.040
-4.300E-06,0.000
-4.290E-06,-0.040
-4.280E-06,0.000
-4.270E-06,0.000
-4.260E-06,-0.040
-4.250E-06,-0.040
-4.240E-06,0.000
-4.230E-06,0.000
-4.220E-06,0.000
-4.210E-06,0.000
-4.200E-06,-0.040
-4.190E-06,-0.040
-4.180E-06,0.000
-4.170E-06,0.000
-4.160E-06,0.080
-4.150E-06,0.080
-4.140E-06,0.040
-4.130E-06,0.080
-4.120E-06,0.080
-4.110E-06,0.080
-4.100E-06,0.080
-4.090E-06,0.120
-4.080E-06,0.200
-4.070E-06,0.160
-4.060E-06,0.080
-4.050E-06,0.120
-4.040E-06,0.160
-4.030E-06,0.120
-4.020E-06,0.080
-4.010E-06,0.120
-4.000E-06,0.160
-3.990E-06,0.080
-3.980E-06,0.080
-3.970E-06,0.080
-3.960E-06,0.040
-3.950E-06,0.040
-3.940E-06,0.080
-3.930E-06,0.080
-3.920E-06,0.040
-3.910E-06,0.040
-3.900E-06,0.000
-3.890E-06,0.040
-3.880E-06,0.000
-3.870E-06,0.040
-3.860E-06,0.040
-3.850E-06,0.000
-3.840E-06,0.000
-3.830E-06,0.000
-3.820E-06,0.000
-3.810E-06,-0.040
-3.800E-06,0.000
-3.790E-06,-0.040
-3.780E-06,-0.040
-3.770E-06,0.000
-3.760E-06,-0.040
-3.750E-06,0.000
-3.740E-06,0.000
-3.730E-06,-0.040
-3.720E-06,0.000
-3.710E-06,0.000
-3.700E-06,0.120
-3.690E-06,0.040
-3.680E-06,0.000
-3.670E-06,0.080
-3.660E-06,0.120
-3.650E-06,0.200
-3.640E-06,0.200
-3.630E-06,0.280
-3.620E-06,0.280
-3.610E-06,0.160
-3.600E-06,0.040
-3.590E-06,0.120
-3.580E-06,0.120
-3.570E-06,0.160
-3.560E-06,0.200
-3.550E-06,0.200
-3.540E-06,0.040
-3.530E-06,0.040
-3.520E-06,0.000
-3.510E-06,0.000
-3.500E-06,0.080
-3.490E-06,0.080
-3.480E-06,-0.040
-3.470E-06,0.000
-3.460E-06,-0.120
-3.450E-06,-0.120
-3.440E-06,-0.160
-3.430E-06,-0.040
-3.420E-06,0.000
-3.410E-06,-0.040
-3.400E-06,0.040
-3.390E-06,0.000
-3.380E-06,-0.040
-3.370E-06,-0.040
-3.360E-06,0.080
-3.350E-06,0.120
-3.340E-06,0.120
-3.330E-06,0.160
-3.320E-06,0.080
-3.310E-06,0.000
-3.300E-06,0.040
-3.290E-06,0.120
-3.280E-06,0.200
-3.270E-06,0.160
-3.260E-06,0.160
-3.250E-06,0.120
-3.240E-06,0.120
-3.230E-06,0.120
-3.220E-06,0.080
-3.210E-06,0.080
-3.200E-06,0.080
-3.190E-06,0.080
-3.180E-06,0.000
-3.170E-06,-0.040
-3.160E-06,0.000
-3.150E-06,0.000
-3.140E-06,0.040
-3.130E-06,0.000
-3.120E-06,0.000
-3.110E-06,0.000
-3.100E-06,0.000
-3.090E-06,-0.040
-3.080E-06,0.040
-3.070E-06,0.080
-3.060E-06,0.080
-3.050E-06,0.000
-3.040E-06,0.000
-3.030E-06,0.080
-3.020E-06,0.080
-3.010E-06,0.160
-3.000E-06,0.120
-2.990E-06,0.160
-2.980E-06,0.120
-2.970E-06,0.160
-2.960E-06,0.200
-2.950E-06,0.200
-2.940E-06,0.200
-2.930E-06,0.200
-2.920E-06,0.280
-2.910E-06,0.240
-2.900E-06,0.320
-2.890E-06,0.240
-2.880E-06,0.280
-2.870E-06,0.360
-2.860E-06,0.240
-2.850E-06,0.240
-2.840E-06,0.200
-2.830E-06,0.240
-2.820E-06,0.160
-2.810E-06,0.400
-2.800E-06,0.440
-2.790E-06,0.360
-2.780E-06,0.120
-2.770E-06,0.000
-2.760E-06,-0.040
-2.750E-06,0.120
-2.740E-06,0.280
-2.730E-06,0.400
-2.720E-06,0.240
-2.710E-06,0.080
-2.700E-06,-0.080
-2.690E-06,-0.160
-2.680E-06,-0.080
-2.670E-06,0.120
-2.660E-06,0.200
-2.650E-06,0.080
-2.640E-06,-0.040
-2.630E-06,-0.120
-2.620E-06,-0.120
-2.610E-06,-0.120
-2.600E-06,-0.040
-2.590E-06,0.000
-2.580E-06,-0.080
-2.570E-06,-0.040
-2.560E-06,-0.120
-2.550E-06,-0.120
-2.540E-06,-0.040
-2.530E-06,-0.040
-2.520E-06,-0.040
-2.510E-06,-0.040
-2.500E-06,-0.080
-2.490E-06,-0.040
-2.480E-06,0.000
-2.470E-06,0.080
-2.460E-06,0.080
-2.450E-06,0.160
-2.440E-06,0.160
-2.430E-06,0.160
-2.420E-06,0.080
-2.410E-06,0.120
-2.400E-06,0.160
-2.390E-06,0.160
-2.380E-06,0.200
-2.370E-06,0.120
-2.360E-06,0.120
-2.350E-06,0.160
-2.340E-06,0.120
-2.330E-06,0.120
-2.320E-06,0.120
-2.310E-06,0.120
-2.300E-06,0.040
-2.290E-06,0.040
-2.280E-06,0.040
-2.270E-06,0.040
-2.260E-06,0.080
-2.250E-06,0.000
-2.240E-06,0.000
-2.230E-06,-0.040
-2.220E-06,0.000
-2.210E-06,0.040
-2.200E-06,0.040
-2.190E-06,0.040
-2.180E-06,0.000
-2.170E-06,0.040
-2.160E-06,0.080
-2.150E-06,0.160
-2.140E-06,0.080
-2.130E-06,0.040
-2.120E-06,0.000
-2.110E-06,0.000
-2.100E-06,0.040
-2.090E-06,0.120
-2.080E-06,0.240
-2.070E-06,0.200
-2.060E-06,0.200
-2.050E-06,0.200
-2.040E-06,0.160
-2.030E-06,0.240
-2.020E-06,0.400
-2.010E-06,0.480
-2.000E-06,0.520
-1.990E-06,0.440
-1.980E-06,0.440
-1.970E-06,0.440
-1.960E-06,0.440
-1.950E-06,0.480
-1.940E-06,0.560
-1.930E-06,0.520
-1.920E-06,0.480
-1.910E-06,0.480
-1.900E-06,0.480
-1.890E-06,0.480
-1.880E-06,0.520
-1.870E-06,0.480
-1.860E-06,0.480
-1.850E-06,0.600
-1.840E-06,0.400
-1.830E-06,0.360
-1.820E-06,0.240
-1.810E-06,0.240
-1.800E-06,0.240
-1.790E-06,0.320
-1.780E-06,0.320
-1.770E-06,0.240
-1.760E-06,0.120
-1.750E-06,0.000
-1.740E-06,0.000
-1.730E-06,0.200
-1.720E-06,0.280
-1.710E-06,0.240
-1.700E-06,0.160
-1.690E-06,0.000
-1.680E-06,-0.080
-1.670E-06,-0.040
-1.660E-06,0.080
-1.650E-06,0.200
-1.640E-06,0.160
-1.630E-06,0.120
-1.620E-06,0.080
-1.610E-06,0.000
-1.600E-06,0.080
-1.590E-06,0.040
-1.580E-06,0.080
-1.570E-06,0.040
-1.560E-06,-0.080
-1.550E-06,0.000
-1.540E-06,-0.040
-1.530E-06,0.000
-1.520E-06,0.000
-1.510E-06,-0.040
-1.500E-06,-0.040
-1.490E-06,0.000
-1.480E-06,0.000
-1.470E-06,0.160
-1.460E-06,0.160
-1.450E-06,0.200
-1.440E-06,0.240
-1.430E-06,0.320
-1.420E-06,0.280
-1.410E-06,0.320
-1.400E-06,0.360
-1.390E-06,0.400
-1.380E-06,0.440
-1.370E-06,0.400
-1.360E-06,0.440
-1.350E-06,0.520
-1.340E-06,0.440
-1.330E-06,0.480
-1.320E-06,0.440
-1.310E-06,0.320
-1.300E-06,0.240
-1.290E-06,0.000
-1.280E-06,0.160
-1.270E-06,0.080
-1.260E-06,0.440
-1.250E-06,0.680
-1.240E-06,0.640
-1.230E-06,0.440
-1.220E-06,0.120
-1.210E-06,-0.080
-1.200E-06,0.000
-1.190E-06,0.120
-1.180E-06,0.640
-1.170E-06,0.440
-1.160E-06,0.320
-1.150E-06,0.000
-1.140E-06,-0.160
-1.130E-06,0.000
-1.120E-06,0.440
-1.110E-06,0.520
-1.100E-06,0.480
-1.090E-06,0.200
-1.080E-06,-0.080
-1.070E-06,-0.040
-1.060E-06,0.160
-1.050E-06,0.440
-1.040E-06,0.480
-1.030E-06,0.200
-1.020E-06,-0.040
-1.010E-06,-0.160
-1.000E-06,0.000
-9.900E-07,0.240
-9.800E-07,0.440
-9.700E-07,0.400
-9.600E-07,0.240
-9.500E-07,0.040
-9.400E-07,-0.080
-9.300E-07,0.120
-9.200E-07,0.320
-9.100E-07,0.360
-9.000E-07,0.480
-8.900E-07,0.360
-8.800E-07,0.160
-8.700E-07,0.160
-8.600E-07,0.120
-8.500E-07,0.160
-8.400E-07,0.240
-8.300E-07,0.280
-8.200E-07,0.280
-8.100E-07,0.320
-8.000E-07,0.160
-7.900E-07,0.200
-7.800E-07,0.240
-7.700E-07,0.200
-7.600E-07,0.320
-7.500E-07,0.400
-7.400E-07,0.400
-7.300E-07,0.520
-7.200E-07,0.480
-7.100E-07,0.480
-7.000E-07,0.520
-6.900E-07,0.520
-6.800E-07,0.560
-6.700E-07,0.640
-6.600E-07,0.680
-6.500E-07,0.720
-6.400E-07,0.680
-6.300E-07,0.680
-6.200E-07,0.640
-6.100E-07,0.600
-6.000E-07,0.560
-5.900E-07,0.640
-5.800E-07,0.600
-5.700E-07,0.600
-5.600E-07,0.520
-5.500E-07,0.480
-5.400E-07,0.440
-5.300E-07,0.360
-5.200E-07,0.240
-5.100E-07,0.120
-5.000E-07,0.160
-4.900E-07,0.080
-4.800E-07,0.040
-4.700E-07,-0.080
-4.600E-07,-0.200
-4.500E-07,-0.240
-4.400E-07,-0.200
-4.300E-07,-0.080
-4.200E-07,0.240
-4.100E-07,0.160
-4.000E-07,0.160
-3.900E-07,0.160
-3.800E-07,0.080
-3.700E-07,0.120
-3.600E-07,0.320
-3.500E-07,0.520
-3.400E-07,0.520
-3.300E-07,0.680
-3.200E-07,0.560
-3.100E-07,0.480
-3.000E-07,0.280
-2.900E-07,0.200
-2.800E-07,0.360
-2.700E-07,0.560
-2.600E-07,0.680
-2.500E-07,0.680
-2.400E-07,0.600
-2.300E-07,0.520
-2.200E-07,0.320
-2.100E-07,0.440
-2.000E-07,0.520
-1.900E-07,0.640
-1.800E-07,0.680
-1.700E-07,0.600
-1.600E-07,0.600
-1.500E-07,0.600
-1.400E-07,0.680
-1.300E-07,0.760
-1.200E-07,0.720
-1.100E-07,0.560
-1.000E-07,0.440
-9.000E-08,0.480
-8.000E-08,0.560
-7.000E-08,0.680
-6.000E-08,0.720
-5.000E-08,0.480
-4.000E-08,0.600
-3.000E-08,0.280
-2.000E-08,0.160
-1.000E-08,-0.360
0.000E+00,-0.320
1.000E-08,-0.280
2.000E-08,0.080
3.000E-08,1.160
4.000E-08,1.320
5.000E-08,1.360
6.000E-08,0.560
7.000E-08,-0.240
8.000E-08,-0.480
9.000E-08,0.080
1.000E-07,0.880
1.100E-07,1.600
1.200E-07,1.160
1.300E-07,0.520
1.400E-07,-0.240
1.500E-07,-0.680
1.600E-07,-0.480
1.700E-07,-0.120
1.800E-07,0.320
1.900E-07,0.400
2.000E-07,0.160
2.100E-07,-0.040
2.200E-07,-0.280
2.300E-07,-0.200
2.400E-07,-0.240
2.500E-07,-0.040
2.600E-07,0.120
2.700E-07,0.480
2.800E-07,0.800
2.900E-07,0.840
3.000E-07,0.680
3.100E-07,0.360
3.200E-07,0.120
3.300E-07,0.200
3.400E-07,0.480
3.500E-07,0.640
3.600E-07,0.960
3.700E-07,0.800
3.800E-07,0.720
3.900E-07,0.760
4.000E-07,0.400
4.100E-07,0.680
4.200E-07,0.240
4.300E-07,0.320
4.400E-07,0.200
4.500E-07,0.200
4.600E-07,0.560
4.700E-07,0.400
4.800E-07,0.520
4.900E-07,0.360
5.000E-07,0.080
5.100E-07,0.040
5.200E-07,0.080
5.300E-07,0.280
5.400E-07,0.400
5.500E-07,0.480
5.600E-07,0.440
5.700E-07,0.360
5.800E-07,0.280
5.900E-07,0.200
6.000E-07,0.240
6.100E-07,0.280
6.200E-07,0.360
6.300E-07,0.200
6.400E-07,0.080
6.500E-07,-0.040
6.600E-07,-0.200
6.700E-07,-0.320
6.800E-07,-0.520
6.900E-07,-0.600
7.000E-07,-0.600
7.100E-07,-0.720
7.200E-07,-0.680
7.300E-07,-0.720
7.400E-07,-0.680
7.500E-07,-0.600
7.600E-07,-0.520
7.700E-07,-0.360
7.800E-07,-0.200
7.900E-07,-0.040
8.000E-07,0.040
8.100E-07,0.160
8.200E-07,0.360
8.300E-07,0.480
8.400E-07,0.600
8.500E-07,0.760
8.600E-07,0.840
8.700E-07,0.840
8.800E-07,0.840
8.900E-07,0.880
9.000E-07,0.680
9.100E-07,0.960
9.200E-07,0.640
9.300E-07,0.840
9.400E-07,0.400
9.500E-07,0.320
9.600E-07,-0.040
9.700E-07,0.160
9.800E-07,0.280
9.900E-07,0.600
1.000E-06,0.880
1.010E-06,0.760
1.020E-06,0.600
1.030E-06,0.400
1.040E-06,0.040
1.050E-06,0.440
1.060E-06,0.280
1.070E-06,0.760
1.080E-06,0.440
1.090E-06,0.120
1.100E-06,0.040
1.110E-06,-0.080
1.120E-06,0.160
1.130E-06,0.600
1.140E-06,0.760
1.150E-06,0.640
1.160E-06,0.120
1.170E-06,-0.360
1.180E-06,-0.320
1.190E-06,0.040
1.200E-06,0.520
1.210E-06,0.880
1.220E-06,0.640
1.230E-06,0.240
1.240E-06,-0.200
1.250E-06,-0.320
1.260E-06,-0.280
1.270E-06,0.160
1.280E-06,0.440
1.290E-06,0.520
1.300E-06,0.480
1.310E-06,0.360
1.320E-06,0.280
1.330E-06,0.320
1.340E-06,0.240
1.350E-06,0.240
1.360E-06,0.000
1.370E-06,0.080
1.380E-06,0.080
1.390E-06,0.200
1.400E-06,0.480
1.410E-06,0.360
1.420E-06,0.160
1.430E-06,-0.040
1.440E-06,-0.160
1.450E-06,0.000
1.460E-06,0.080
1.470E-06,0.280
1.480E-06,0.320
1.490E-06,0.280
1.500E-06,0.360
1.510E-06,0.440
1.520E-06,0.560
1.530E-06,0.800
1.540E-06,0.840
1.550E-06,0.880
1.560E-06,0.880
1.570E-06,0.760
1.580E-06,0.680
1.590E-06,0.600
1.600E-06,0.520
1.610E-06,0.400
1.620E-06,0.200
1.630E-06,0.200
1.640E-06,0.120
1.650E-06,-0.040
1.660E-06,-0.040
1.670E-06,-0.080
1.680E-06,-0.160
1.690E-06,-0.200
1.700E-06,-0.160
1.710E-06,-0.160
1.720E-06,-0.120
1.730E-06,-0.080
1.740E-06,0.000
1.750E-06,0.000
1.760E-06,0.120
1.770E-06,-0.040
1.780E-06,0.000
1.790E-06,0.000
1.800E-06,0.080
1.810E-06,0.400
1.820E-06,0.560
1.830E-06,0.720
1.840E-06,0.760
1.850E-06,0.680
1.860E-06,0.720
1.870E-06,0.840
1.880E-06,0.920
1.890E-06,1.000
1.900E-06,0.880
1.910E-06,0.880
1.920E-06,0.800
1.930E-06,0.720
1.940E-06,0.680
1.950E-06,0.680
1.960E-06,0.640
1.970E-06,0.560
1.980E-06,0.440
1.990E-06,0.360
2.000E-06,0.200
2.010E-06,0.200
2.020E-06,0.080
2.030E-06,0.120
2.040E-06,0.120
2.050E-06,0.040
2.060E-06,0.040
2.070E-06,0.000
2.080E-06,-0.080
2.090E-06,-0.160
2.100E-06,-0.240
2.110E-06,-0.320
2.120E-06,-0.400
2.130E-06,-0.520
2.140E-06,-0.400
2.150E-06,-0.040
2.160E-06,0.000
2.170E-06,0.360
2.180E-06,0.240
2.190E-06,0.480
2.200E-06,0.680
2.210E-06,1.000
2.220E-06,1.240
2.230E-06,1.320
2.240E-06,1.240
2.250E-06,1.400
2.260E-06,1.200
2.270E-06,1.200
2.280E-06,1.320
2.290E-06,1.360
2.300E-06,1.520
2.310E-06,1.480
2.320E-06,1.480
2.330E-06,1.400
2.340E-06,1.600
2.350E-06,1.480
2.360E-06,1.480
2.370E-06,1.480
2.380E-06,1.280
2.390E-06,1.200
2.400E-06,1.000
2.410E-06,0.840
2.420E-06,0.800
2.430E-06,0.680
2.440E-06,0.760
2.450E-06,0.680
2.460E-06,0.680
2.470E-06,0.560
2.480E-06,0.320
2.490E-06,0.160
2.500E-06,0.000
2.510E-06,-0.040
2.520E-06,0.080
2.530E-06,0.120
2.540E-06,0.160
2.550E-06,0.200
2.560E-06,0.320
2.570E-06,0.360
2.580E-06,0.360
2.590E-06,0.480
2.600E-06,0.560
2.610E-06,0.640
2.620E-06,0.760
2.630E-06,0.720
2.640E-06,0.680
2.650E-06,0.600
2.660E-06,0.480
2.670E-06,0.480
2.680E-06,0.440
2.690E-06,0.400
2.700E-06,0.160
2.710E-06,0.160
2.720E-06,-0.160
2.730E-06,-0.200
2.740E-06,0.000
2.750E-06,-0.040
2.760E-06,0.000
2.770E-06,-0.120
2.780E-06,-0.080
2.790E-06,-0.080
2.800E-06,0.000
2.810E-06,0.160
2.820E-06,0.400
2.830E-06,0.400
2.840E-06,0.520
2.850E-06,0.600
2.860E-06,0.640
2.870E-06,0.800
2.880E-06,0.960
2.890E-06,1.040
2.900E-06,1.320
2.910E-06,1.360
2.920E-06,1.560
2.930E-06,1.520
2.940E-06,1.560
2.950E-06,1.520
2.960E-06,1.560
2.970E-06,1.680
2.980E-06,1.760
2.990E-06,1.760
3.000E-06,1.760
3.010E-06,1.680
3.020E-06,1.520
3.030E-06,1.400
3.040E-06,1.280
3.050E-06,1.160
3.060E-06,1.040
3.070E-06,0.960
3.080E-06,0.800
3.090E-06,0.680
3.100E-06,0.480
3.110E-06,0.400
3.120E-06,0.400
3.130E-06,0.480
3.140E-06,0.480
3.150E-06,0.560
3.160E-06,0.480
3.170E-06,0.400
3.180E-06,0.360
3.190E-06,0.280
3.200E-06,0.360
3.210E-06,0.360
3.220E-06,0.400
3.230E-06,0.520
3.240E-06,0.520
3.250E-06,0.560
3.260E-06,0.520
3.270E-06,0.600
3.280E-06,0.680
3.290E-06,0.640
3.300E-06,0.680
3.310E-06,0.600
3.320E-06,0.560
3.330E-06,0.760
3.340E-06,0.680
3.350E-06,1.000
3.360E-06,0.920
3.370E-06,0.960
3.380E-06,1.000
3.390E-06,1.280
3.400E-06,1.520
3.410E-06,1.480
3.420E-06,1.840
3.430E-06,1.880
3.440E-06,2.040
3.450E-06,2.400
3.460E-06,2.520
3.470E-06,2.560
3.480E-06,2.680
3.490E-06,2.200
3.500E-06,2.240
3.510E-06,2.160
3.520E-06,1.920
3.530E-06,2.200
3.540E-06,2.000
3.550E-06,2.120
3.560E-06,2.120
3.570E-06,2.040
3.580E-06,2.160
3.590E-06,2.440
3.600E-06,2.760
3.610E-06,2.880
3.620E-06,2.760
3.630E-06,2.840
3.640E-06,2.520
3.650E-06,2.560
3.660E-06,2.600
3.670E-06,2.640
3.680E-06,2.760
3.690E-06,2.680
3.700E-06,2.400
3.710E-06,2.160
3.720E-06,1.800
3.730E-06,1.480
3.740E-06,1.360
3.750E-06,1.240
3.760E-06,1.040
3.770E-06,0.840
3.780E-06,0.560
3.790E-06,0.280
3.800E-06,0.000
3.810E-06,-0.280
3.820E-06,-0.520
3.830E-06,-0.640
3.840E-06,-0.800
3.850E-06,-0.840
3.860E-06,-1.000
3.870E-06,-1.080
3.880E-06,-1.200
3.890E-06,-1.360
3.900E-06,-1.520
3.910E-06,-1.640
3.920E-06,-1.640
3.930E-06,-1.800
3.940E-06,-1.880
3.950E-06,-2.080
3.960E-06,-2.280
3.970E-06,-2.520
3.980E-06,-2.600
3.990E-06,-2.680
4.000E-06,-2.920
4.010E-06,-3.000
4.020E-06,-3.240
4.030E-06,-3.680
4.040E-06,-4.080
4.050E-06,-4.560
4.060E-06,-4.960
4.070E-06,-5.240
4.080E-06,-5.240
4.090E-06,-5.200
4.100E-06,-5.200
4.110E-06,-5.200
4.120E-06,-5.200
4.130E-06,-5.240
4.140E-06,-5.240
4.150E-06,-5.200
4.160E-06,-5.200
4.170E-06,-5.240
4.180E-06,-5.200
4.190E-06,-5.240
4.200E-06,-5.240
4.210E-06,-5.200
4.220E-06,-5.240
4.230E-06,-5.240
4.240E-06,-5.200
4.250E-06,-5.240
4.260E-06,-5.240
4.270E-06,-5.200
4.280E-06,-5.200
4.290E-06,-5.240
4.300E-06,-5.200
4.310E-06,-5.200
4.320E-06,-5.240
4.330E-06,-5.240
4.340E-06,-5.200
4.350E-06,-5.240
4.360E-06,-5.200
4.370E-06,-5.200
4.380E-06,-5.240
4.390E-06,-5.240
4.400E-06,-5.200
4.410E-06,-5.240
4.420E-06,-5.240
4.430E-06,-5.240
4.440E-06,-5.240
4.450E-06,-5.240
4.460E-06,-5.200
4.470E-06,-5.240
4.480E-06,-5.240
4.490E-06,-5.200
4.500E-06,-5.240
4.510E-06,-5.240
4.520E-06,-5.200
4.530E-06,-5.240
4.540E-06,-5.240
4.550E-06,-5.240
4.560E-06,-5.200
4.570E-06,-5.200
4.580E-06,-5.080
4.590E-06,-4.920
4.600E-06,-4.840
4.610E-06,-4.720
4.620E-06,-4.600
4.630E-06,-4.480
4.640E-06,-4.360
4.650E-06,-4.240
4.660E-06,-4.040
4.670E-06,-3.880
4.680E-06,-3.800
4.690E-06,-3.600
4.700E-06,-3.480
4.710E-06,-3.360
4.720E-06,-3.160
4.730E-06,-3.040
4.740E-06,-2.840
4.750E-06,-2.680
4.760E-06,-2.560
4.770E-06,-2.400
4.780E-06,-2.320
4.790E-06,-2.200
4.800E-06,-2.120
4.810E-06,-2.080
4.820E-06,-2.080
4.830E-06,-2.000
4.840E-06,-1.960
4.850E-06,-1.880
4.860E-06,-1.840
4.870E-06,-1.760
4.880E-06,-1.760
4.890E-06,-1.760
4.900E-06,-1.680
4.910E-06,-1.640
4.920E-06,-1.560
4.930E-06,-1.400
4.940E-06,-1.320
4.950E-06,-1.320
4.960E-06,-1.240
4.970E-06,-1.200
4.980E-06,-1.280
4.990E-06,-1.320
5.000E-06,-1.480
5.010E-06,-1.600
5.020E-06,-1.640
5.030E-06,-1.800
5.040E-06,-1.840
5.050E-06,-1.800
5.060E-06,-1.760
5.070E-06,-1.800
5.080E-06,-1.720
5.090E-06,-1.640
5.100E-06,-1.680
5.110E-06,-1.640
5.120E-06,-1.560
5.130E-06,-1.440
5.140E-06,-1.440
5.150E-06,-1.440
5.160E-06,-1.360
5.170E-06,-1.400
5.180E-06,-1.400
5.190E-06,-1.360
5.200E-06,-1.360
5.210E-06,-1.400
5.220E-06,-1.480
5.230E-06,-1.600
5.240E-06,-1.840
5.250E-06,-1.960
5.260E-06,-1.880
5.270E-06,-1.880
5.280E-06,-1.720
5.290E-06,-1.600
5.300E-06,-1.520
5.310E-06,-1.520
5.320E-06,-1.560
5.330E-06,-1.560
5.340E-06,-1.520
5.350E-06,-1.520
5.360E-06,-1.400
5.370E-06,-1.360
5.380E-06,-1.320
5.390E-06,-1.320
5.400E-06,-1.280
5.410E-06,-1.320
5.420E-06,-1.320
5.430E-06,-1.280
5.440E-06,-1.280
5.450E-06,-1.320
5.460E-06,-1.320
5.470E-06,-1.320
5.480E-06,-1.280
5.490E-06,-1.320
5.500E-06,-1.360
5.510E-06,-1.320
5.520E-06,-1.400
5.530E-06,-1.440
5.540E-06,-1.600
5.550E-06,-1.680
5.560E-06,-1.800
5.570E-06,-1.880
5.580E-06,-1.960
5.590E-06,-1.960
5.600E-06,-2.000
5.610E-06,-2.080
5.620E-06,-2.080
5.630E-06,-2.120
5.640E-06,-2.160
5.650E-06,-2.200
5.660E-06,-2.160
5.670E-06,-2.120
5.680E-06,-2.040
5.690E-06,-1.960
5.700E-06,-2.000
5.710E-06,-1.960
5.720E-06,-1.840
5.730E-06,-1.760
5.740E-06,-1.680
5.750E-06,-1.560
5.760E-06,-1.320
5.770E-06,-1.160
5.780E-06,-1.040
5.790E-06,-0.800
5.800E-06,-0.640
5.810E-06,-0.480
5.820E-06,-0.360
5.830E-06,-0.200
5.840E-06,-0.120
5.850E-06,-0.040
5.860E-06,0.000
5.870E-06,0.000
5.880E-06,0.000
5.890E-06,-0.040
5.900E-06,-0.040
5.910E-06,-0.080
5.920E-06,-0.120
5.930E-06,-0.280
5.940E-06,-0.400
5.950E-06,-0.520
5.960E-06,-0.640
5.970E-06,-0.640
5.980E-06,-0.800
5.990E-06,-0.960
6.000E-06,-1.080
6.010E-06,-1.160
6.020E-06,-1.280
6.030E-06,-1.360
6.040E-06,-1.360
6.050E-06,-1.360
6.060E-06,-1.400
6.070E-06,-1.360
6.080E-06,-1.240
6.090E-06,-1.240
6.100E-06,-1.120
6.110E-06,-1.040
6.120E-06,-0.960
6.130E-06,-0.840
6.140E-06,-0.760
6.150E-06,-0.720
6.160E-06,-0.680
6.170E-06,-0.640
6.180E-06,-0.720
6.190E-06,-0.680
6.200E-06,-0.600
6.210E-06,-0.600
