mediciones/5-27/-17.5/WaveData51141.csv

#timebase=2000000(ps)
,#voltbase=1000000(mv/100)
#size=4000
-5.650E-06,0.480
-5.640E-06,0.520
-5.630E-06,0.440
-5.620E-06,0.360
-5.610E-06,0.320
-5.600E-06,0.200
-5.590E-06,0.320
-5.580E-06,0.240
-5.570E-06,0.320
-5.560E-06,0.520
-5.550E-06,0.000
-5.540E-06,-0.040
-5.530E-06,-0.160
-5.520E-06,-0.200
-5.510E-06,0.040
-5.500E-06,0.320
-5.490E-06,0.480
-5.480E-06,0.440
-5.470E-06,0.160
-5.460E-06,-0.040
-5.450E-06,-0.040
-5.440E-06,0.000
-5.430E-06,0.200
-5.420E-06,0.160
-5.410E-06,0.160
-5.400E-06,0.040
-5.390E-06,-0.040
-5.380E-06,-0.120
-5.370E-06,0.000
-5.360E-06,0.000
-5.350E-06,-0.040
-5.340E-06,0.000
-5.330E-06,-0.080
-5.320E-06,-0.080
-5.310E-06,-0.120
-5.300E-06,-0.120
-5.290E-06,-0.240
-5.280E-06,-0.320
-5.270E-06,-0.400
-5.260E-06,-0.440
-5.250E-06,-0.320
-5.240E-06,-0.360
-5.230E-06,-0.240
-5.220E-06,-0.280
-5.210E-06,-0.320
-5.200E-06,-0.320
-5.190E-06,-0.400
-5.180E-06,-0.400
-5.170E-06,-0.320
-5.160E-06,-0.360
-5.150E-06,-0.120
-5.140E-06,-0.400
-5.130E-06,-0.240
-5.120E-06,-0.240
-5.110E-06,-0.240
-5.100E-06,0.200
-5.090E-06,0.400
-5.080E-06,0.640
-5.070E-06,0.600
-5.060E-06,0.240
-5.050E-06,0.160
-5.040E-06,0.320
-5.030E-06,0.120
-5.020E-06,0.200
-5.010E-06,0.160
-5.000E-06,0.000
-4.990E-06,0.080
-4.980E-06,0.200
-4.970E-06,0.360
-4.960E-06,0.320
-4.950E-06,-0.160
-4.940E-06,-0.360
-4.930E-06,-0.480
-4.920E-06,-0.240
-4.910E-06,0.440
-4.900E-06,0.640
-4.890E-06,0.760
-4.880E-06,0.400
-4.870E-06,-0.040
-4.860E-06,-0.240
-4.850E-06,-0.120
-4.840E-06,0.320
-4.830E-06,0.560
-4.820E-06,0.640
-4.810E-06,0.320
-4.800E-06,0.080
-4.790E-06,0.000
-4.780E-06,0.000
-4.770E-06,0.080
-4.760E-06,0.120
-4.750E-06,0.160
-4.740E-06,0.080
-4.730E-06,-0.040
-4.720E-06,-0.080
-4.710E-06,-0.080
-4.700E-06,-0.120
-4.690E-06,-0.120
-4.680E-06,-0.240
-4.670E-06,-0.280
-4.660E-06,-0.320
-4.650E-06,-0.360
-4.640E-06,-0.320
-4.630E-06,-0.320
-4.620E-06,-0.320
-4.610E-06,-0.320
-4.600E-06,-0.320
-4.590E-06,-0.320
-4.580E-06,-0.320
-4.570E-06,-0.200
-4.560E-06,-0.160
-4.550E-06,-0.240
-4.540E-06,-0.120
-4.530E-06,-0.160
-4.520E-06,-0.160
-4.510E-06,0.000
-4.500E-06,0.000
-4.490E-06,0.040
-4.480E-06,0.080
-4.470E-06,0.040
-4.460E-06,-0.040
-4.450E-06,0.000
-4.440E-06,0.080
-4.430E-06,0.080
-4.420E-06,0.120
-4.410E-06,0.120
-4.400E-06,0.120
-4.390E-06,0.120
-4.380E-06,0.080
-4.370E-06,0.080
-4.360E-06,0.040
-4.350E-06,0.000
-4.340E-06,0.000
-4.330E-06,0.040
-4.320E-06,0.040
-4.310E-06,0.040
-4.300E-06,0.000
-4.290E-06,-0.040
-4.280E-06,-0.040
-4.270E-06,-0.080
-4.260E-06,-0.080
-4.250E-06,-0.080
-4.240E-06,-0.120
-4.230E-06,-0.080
-4.220E-06,-0.080
-4.210E-06,0.000
-4.200E-06,-0.080
-4.190E-06,-0.080
-4.180E-06,0.000
-4.170E-06,0.000
-4.160E-06,0.040
-4.150E-06,0.040
-4.140E-06,0.040
-4.130E-06,0.000
-4.120E-06,-0.120
-4.110E-06,-0.080
-4.100E-06,-0.280
-4.090E-06,-0.200
-4.080E-06,0.000
-4.070E-06,0.000
-4.060E-06,0.480
-4.050E-06,0.480
-4.040E-06,0.200
-4.030E-06,0.360
-4.020E-06,0.000
-4.010E-06,0.320
-4.000E-06,0.480
-3.990E-06,0.680
-3.980E-06,0.840
-3.970E-06,0.680
-3.960E-06,0.480
-3.950E-06,0.360
-3.940E-06,0.240
-3.930E-06,0.400
-3.920E-06,0.800
-3.910E-06,0.120
-3.900E-06,0.360
-3.890E-06,-0.080
-3.880E-06,-0.200
-3.870E-06,0.200
-3.860E-06,0.240
-3.850E-06,0.520
-3.840E-06,0.120
-3.830E-06,-0.280
-3.820E-06,-0.480
-3.810E-06,-0.480
-3.800E-06,-0.160
-3.790E-06,-0.040
-3.780E-06,-0.040
-3.770E-06,-0.280
-3.760E-06,-0.520
-3.750E-06,-0.680
-3.740E-06,-0.640
-3.730E-06,-0.400
-3.720E-06,-0.320
-3.710E-06,-0.240
-3.700E-06,-0.240
-3.690E-06,-0.480
-3.680E-06,-0.480
-3.670E-06,-0.320
-3.660E-06,-0.080
-3.650E-06,-0.480
-3.640E-06,-0.160
-3.630E-06,-0.360
-3.620E-06,-0.120
-3.610E-06,0.440
-3.600E-06,0.560
-3.590E-06,0.720
-3.580E-06,0.320
-3.570E-06,0.000
-3.560E-06,0.000
-3.550E-06,0.000
-3.540E-06,0.480
-3.530E-06,0.680
-3.520E-06,0.600
-3.510E-06,0.360
-3.500E-06,0.040
-3.490E-06,0.000
-3.480E-06,0.160
-3.470E-06,0.200
-3.460E-06,0.360
-3.450E-06,0.360
-3.440E-06,0.160
-3.430E-06,0.040
-3.420E-06,-0.040
-3.410E-06,-0.200
-3.400E-06,-0.080
-3.390E-06,-0.160
-3.380E-06,-0.280
-3.370E-06,-0.400
-3.360E-06,-0.520
-3.350E-06,-0.480
-3.340E-06,-0.400
-3.330E-06,-0.360
-3.320E-06,-0.160
-3.310E-06,-0.280
-3.300E-06,-0.360
-3.290E-06,-0.440
-3.280E-06,-0.440
-3.270E-06,-0.280
-3.260E-06,-0.200
-3.250E-06,-0.120
-3.240E-06,-0.120
-3.230E-06,-0.200
-3.220E-06,-0.200
-3.210E-06,-0.200
-3.200E-06,-0.040
-3.190E-06,0.040
-3.180E-06,0.160
-3.170E-06,0.120
-3.160E-06,0.040
-3.150E-06,0.040
-3.140E-06,0.080
-3.130E-06,0.160
-3.120E-06,0.200
-3.110E-06,0.200
-3.100E-06,0.160
-3.090E-06,0.080
-3.080E-06,0.080
-3.070E-06,0.120
-3.060E-06,0.080
-3.050E-06,0.080
-3.040E-06,-0.040
-3.030E-06,-0.040
-3.020E-06,-0.080
-3.010E-06,-0.040
-3.000E-06,0.080
-2.990E-06,0.160
-2.980E-06,0.040
-2.970E-06,-0.040
-2.960E-06,-0.040
-2.950E-06,0.040
-2.940E-06,0.240
-2.930E-06,0.440
-2.920E-06,0.520
-2.910E-06,0.400
-2.900E-06,0.400
-2.890E-06,0.280
-2.880E-06,0.320
-2.870E-06,0.480
-2.860E-06,0.520
-2.850E-06,0.640
-2.840E-06,0.480
-2.830E-06,0.920
-2.820E-06,0.080
-2.810E-06,0.120
-2.800E-06,0.360
-2.790E-06,0.120
-2.780E-06,0.800
-2.770E-06,1.120
-2.760E-06,1.360
-2.750E-06,1.040
-2.740E-06,0.440
-2.730E-06,0.040
-2.720E-06,0.040
-2.710E-06,0.320
-2.700E-06,0.760
-2.690E-06,0.840
-2.680E-06,0.520
-2.670E-06,0.160
-2.660E-06,-0.160
-2.650E-06,-0.360
-2.640E-06,-0.240
-2.630E-06,-0.160
-2.620E-06,-0.240
-2.610E-06,-0.200
-2.600E-06,-0.440
-2.590E-06,-0.720
-2.580E-06,-0.840
-2.570E-06,-1.160
-2.560E-06,-1.120
-2.550E-06,-0.920
-2.540E-06,-0.640
-2.530E-06,-0.360
-2.520E-06,-0.440
-2.510E-06,-0.480
-2.500E-06,-0.440
-2.490E-06,-0.920
-2.480E-06,-0.400
-2.470E-06,-0.320
-2.460E-06,-0.160
-2.450E-06,0.400
-2.440E-06,0.600
-2.430E-06,0.760
-2.420E-06,0.760
-2.410E-06,0.480
-2.400E-06,0.440
-2.390E-06,0.560
-2.380E-06,0.680
-2.370E-06,0.840
-2.360E-06,0.880
-2.350E-06,0.760
-2.340E-06,0.520
-2.330E-06,0.320
-2.320E-06,0.240
-2.310E-06,0.200
-2.300E-06,0.240
-2.290E-06,0.280
-2.280E-06,0.280
-2.270E-06,0.000
-2.260E-06,-0.080
-2.250E-06,-0.280
-2.240E-06,-0.640
-2.230E-06,-0.640
-2.220E-06,-0.640
-2.210E-06,-0.520
-2.200E-06,-0.240
-2.190E-06,-0.240
-2.180E-06,-0.040
-2.170E-06,-0.360
-2.160E-06,-0.680
-2.150E-06,-0.520
-2.140E-06,-0.680
-2.130E-06,-0.480
-2.120E-06,-0.360
-2.110E-06,-0.320
-2.100E-06,-0.240
-2.090E-06,0.040
-2.080E-06,-0.040
-2.070E-06,0.360
-2.060E-06,0.200
-2.050E-06,-0.200
-2.040E-06,0.040
-2.030E-06,-0.080
-2.020E-06,0.040
-2.010E-06,0.560
-2.000E-06,0.320
-1.990E-06,0.440
-1.980E-06,0.200
-1.970E-06,-0.080
-1.960E-06,0.160
-1.950E-06,0.520
-1.940E-06,0.880
-1.930E-06,0.920
-1.920E-06,0.600
-1.910E-06,0.200
-1.900E-06,0.000
-1.890E-06,0.000
-1.880E-06,0.200
-1.870E-06,0.360
-1.860E-06,0.360
-1.850E-06,0.160
-1.840E-06,-0.160
-1.830E-06,-0.320
-1.820E-06,-0.320
-1.810E-06,-0.280
-1.800E-06,-0.240
-1.790E-06,-0.240
-1.780E-06,-0.360
-1.770E-06,-0.440
-1.760E-06,-0.560
-1.750E-06,-0.640
-1.740E-06,-0.600
-1.730E-06,-0.640
-1.720E-06,-0.600
-1.710E-06,-0.560
-1.700E-06,-0.520
-1.690E-06,-0.520
-1.680E-06,-0.480
-1.670E-06,-0.480
-1.660E-06,-0.480
-1.650E-06,-0.440
-1.640E-06,-0.320
-1.630E-06,-0.240
-1.620E-06,-0.040
-1.610E-06,-0.280
-1.600E-06,0.000
-1.590E-06,-0.040
-1.580E-06,-0.400
-1.570E-06,-0.240
-1.560E-06,0.160
-1.550E-06,0.080
-1.540E-06,1.240
-1.530E-06,1.120
-1.520E-06,1.240
-1.510E-06,0.880
-1.500E-06,0.200
-1.490E-06,0.080
-1.480E-06,0.280
-1.470E-06,0.600
-1.460E-06,1.000
-1.450E-06,0.720
-1.440E-06,0.560
-1.430E-06,0.360
-1.420E-06,0.000
-1.410E-06,-0.040
-1.400E-06,0.080
-1.390E-06,0.000
-1.380E-06,0.000
-1.370E-06,-0.360
-1.360E-06,-0.640
-1.350E-06,-0.680
-1.340E-06,-0.480
-1.330E-06,-0.360
-1.320E-06,-0.040
-1.310E-06,-0.080
-1.300E-06,-0.240
-1.290E-06,-0.360
-1.280E-06,-0.520
-1.270E-06,-0.320
-1.260E-06,-0.160
-1.250E-06,-0.080
-1.240E-06,0.000
-1.230E-06,-0.160
-1.220E-06,-0.280
-1.210E-06,-0.280
-1.200E-06,-0.200
-1.190E-06,-0.040
-1.180E-06,0.120
-1.170E-06,0.160
-1.160E-06,0.160
-1.150E-06,0.080
-1.140E-06,0.000
-1.130E-06,0.000
-1.120E-06,-0.040
-1.110E-06,-0.120
-1.100E-06,-0.200
-1.090E-06,-0.320
-1.080E-06,-0.360
-1.070E-06,-0.360
-1.060E-06,-0.400
-1.050E-06,-0.440
-1.040E-06,-0.480
-1.030E-06,-0.480
-1.020E-06,-0.520
-1.010E-06,-0.520
-1.000E-06,-0.560
-9.900E-07,-0.520
-9.800E-07,-0.520
-9.700E-07,-0.480
-9.600E-07,-0.360
-9.500E-07,-0.320
-9.400E-07,-0.240
-9.300E-07,-0.200
-9.200E-07,-0.080
-9.100E-07,-0.080
-9.000E-07,0.000
-8.900E-07,0.000
-8.800E-07,0.000
-8.700E-07,0.080
-8.600E-07,0.200
-8.500E-07,0.240
-8.400E-07,0.200
-8.300E-07,0.200
-8.200E-07,0.200
-8.100E-07,0.200
-8.000E-07,0.240
-7.900E-07,0.360
-7.800E-07,0.320
-7.700E-07,0.360
-7.600E-07,0.360
-7.500E-07,0.320
-7.400E-07,0.240
-7.300E-07,0.240
-7.200E-07,0.240
-7.100E-07,0.240
-7.000E-07,0.280
-6.900E-07,0.320
-6.800E-07,0.320
-6.700E-07,0.320
-6.600E-07,0.320
-6.500E-07,0.160
-6.400E-07,0.120
-6.300E-07,0.200
-6.200E-07,0.040
-6.100E-07,0.080
-6.000E-07,-0.080
-5.900E-07,-0.200
-5.800E-07,-0.280
-5.700E-07,-0.080
-5.600E-07,0.080
-5.500E-07,0.200
-5.400E-07,0.360
-5.300E-07,0.320
-5.200E-07,0.200
-5.100E-07,0.160
-5.000E-07,0.200
-4.900E-07,0.320
-4.800E-07,0.440
-4.700E-07,0.480
-4.600E-07,0.400
-4.500E-07,0.200
-4.400E-07,0.320
-4.300E-07,0.400
-4.200E-07,0.440
-4.100E-07,0.320
-4.000E-07,0.320
-3.900E-07,0.080
-3.800E-07,0.040
-3.700E-07,0.680
-3.600E-07,0.800
-3.500E-07,0.880
-3.400E-07,0.600
-3.300E-07,0.240
-3.200E-07,-0.120
-3.100E-07,0.000
-3.000E-07,0.440
-2.900E-07,0.640
-2.800E-07,0.680
-2.700E-07,0.400
-2.600E-07,0.120
-2.500E-07,0.000
-2.400E-07,0.000
-2.300E-07,0.360
-2.200E-07,0.440
-2.100E-07,0.480
-2.000E-07,0.480
-1.900E-07,0.200
-1.800E-07,0.120
-1.700E-07,0.000
-1.600E-07,0.000
-1.500E-07,0.120
-1.400E-07,-0.040
-1.300E-07,0.120
-1.200E-07,0.280
-1.100E-07,0.320
-1.000E-07,0.160
-9.000E-08,0.000
-8.000E-08,-0.160
-7.000E-08,-0.080
-6.000E-08,0.360
-5.000E-08,0.720
-4.000E-08,0.720
-3.000E-08,1.520
-2.000E-08,0.200
-1.000E-08,-0.360
0.000E+00,-0.160
1.000E-08,-0.640
2.000E-08,1.000
3.000E-08,1.720
4.000E-08,2.720
5.000E-08,2.200
6.000E-08,0.760
7.000E-08,-0.360
8.000E-08,-0.920
9.000E-08,-0.240
1.000E-07,1.040
1.100E-07,1.920
1.200E-07,2.000
1.300E-07,1.280
1.400E-07,0.280
1.500E-07,-0.440
1.600E-07,-0.360
1.700E-07,0.000
1.800E-07,0.600
1.900E-07,0.680
2.000E-07,0.400
2.100E-07,-0.040
2.200E-07,-0.480
2.300E-07,-0.720
2.400E-07,-0.800
2.500E-07,-0.680
2.600E-07,-0.640
2.700E-07,-0.600
2.800E-07,-0.560
2.900E-07,-0.600
3.000E-07,-0.680
3.100E-07,-0.800
3.200E-07,-0.800
3.300E-07,-0.800
3.400E-07,-0.800
3.500E-07,-0.680
3.600E-07,-0.600
3.700E-07,-0.520
3.800E-07,-0.520
3.900E-07,-0.560
4.000E-07,-0.560
4.100E-07,-0.440
4.200E-07,-0.360
4.300E-07,-0.280
4.400E-07,-0.280
4.500E-07,-0.280
4.600E-07,-0.400
4.700E-07,-0.400
4.800E-07,-0.440
4.900E-07,-0.280
5.000E-07,-0.200
5.100E-07,-0.080
5.200E-07,-0.080
5.300E-07,-0.120
5.400E-07,-0.160
5.500E-07,-0.200
5.600E-07,-0.040
5.700E-07,-0.040
5.800E-07,0.040
5.900E-07,0.080
6.000E-07,0.000
6.100E-07,0.000
6.200E-07,0.040
6.300E-07,0.160
6.400E-07,0.200
6.500E-07,0.240
6.600E-07,0.200
6.700E-07,0.240
6.800E-07,0.320
6.900E-07,0.320
7.000E-07,0.320
7.100E-07,0.440
7.200E-07,0.440
7.300E-07,0.360
7.400E-07,0.240
7.500E-07,0.240
7.600E-07,-0.120
7.700E-07,0.040
7.800E-07,-0.120
7.900E-07,-0.160
8.000E-07,-0.320
8.100E-07,-0.360
8.200E-07,-0.760
8.300E-07,-0.280
8.400E-07,-0.240
8.500E-07,0.240
8.600E-07,0.200
8.700E-07,0.040
8.800E-07,0.000
8.900E-07,-0.880
9.000E-07,-0.320
9.100E-07,-0.160
9.200E-07,-0.560
9.300E-07,-0.400
9.400E-07,-1.160
9.500E-07,-1.560
9.600E-07,-0.440
9.700E-07,-0.360
9.800E-07,1.160
9.900E-07,1.480
1.000E-06,1.120
1.010E-06,0.840
1.020E-06,0.080
1.030E-06,0.440
1.040E-06,0.840
1.050E-06,1.040
1.060E-06,1.440
1.070E-06,1.240
1.080E-06,1.080
1.090E-06,0.760
1.100E-06,0.400
1.110E-06,0.200
1.120E-06,0.240
1.130E-06,0.400
1.140E-06,0.680
1.150E-06,0.720
1.160E-06,0.520
1.170E-06,0.160
1.180E-06,-0.320
1.190E-06,-0.680
1.200E-06,-0.840
1.210E-06,-0.840
1.220E-06,-0.800
1.230E-06,-0.760
1.240E-06,-0.920
1.250E-06,-1.080
1.260E-06,-1.280
1.270E-06,-1.400
1.280E-06,-1.400
1.290E-06,-1.360
1.300E-06,-1.320
1.310E-06,-1.200
1.320E-06,-1.160
1.330E-06,-1.120
1.340E-06,-1.120
1.350E-06,-1.040
1.360E-06,-0.880
1.370E-06,-0.600
1.380E-06,-0.400
1.390E-06,-0.280
1.400E-06,-0.120
1.410E-06,-0.160
1.420E-06,-0.200
1.430E-06,-0.120
1.440E-06,-0.120
1.450E-06,0.000
1.460E-06,0.160
1.470E-06,0.160
1.480E-06,0.400
1.490E-06,0.480
1.500E-06,0.480
1.510E-06,0.760
1.520E-06,0.520
1.530E-06,0.760
1.540E-06,0.720
1.550E-06,0.640
1.560E-06,0.760
1.570E-06,0.680
1.580E-06,0.680
1.590E-06,0.520
1.600E-06,0.560
1.610E-06,0.760
1.620E-06,0.840
1.630E-06,1.040
1.640E-06,1.160
1.650E-06,1.120
1.660E-06,1.160
1.670E-06,0.880
1.680E-06,0.960
1.690E-06,0.920
1.700E-06,0.880
1.710E-06,0.920
1.720E-06,0.720
1.730E-06,0.680
1.740E-06,0.320
1.750E-06,0.240
1.760E-06,0.320
1.770E-06,0.480
1.780E-06,0.720
1.790E-06,0.800
1.800E-06,0.680
1.810E-06,0.520
1.820E-06,0.320
1.830E-06,0.440
1.840E-06,0.400
1.850E-06,0.520
1.860E-06,0.440
1.870E-06,0.320
1.880E-06,0.160
1.890E-06,0.160
1.900E-06,0.200
1.910E-06,0.520
1.920E-06,0.880
1.930E-06,1.080
1.940E-06,0.960
1.950E-06,0.800
1.960E-06,0.600
1.970E-06,0.680
1.980E-06,0.880
1.990E-06,1.200
2.000E-06,1.480
2.010E-06,1.520
2.020E-06,1.520
2.030E-06,1.320
2.040E-06,1.160
2.050E-06,1.240
2.060E-06,1.240
2.070E-06,1.400
2.080E-06,1.600
2.090E-06,1.520
2.100E-06,1.680
2.110E-06,1.520
2.120E-06,1.560
2.130E-06,1.760
2.140E-06,1.760
2.150E-06,1.920
2.160E-06,2.040
2.170E-06,2.040
2.180E-06,2.000
2.190E-06,1.880
2.200E-06,1.840
2.210E-06,1.720
2.220E-06,1.840
2.230E-06,1.560
2.240E-06,1.440
2.250E-06,1.040
2.260E-06,0.880
2.270E-06,0.840
2.280E-06,0.680
2.290E-06,0.840
2.300E-06,0.880
2.310E-06,0.920
2.320E-06,1.000
2.330E-06,0.960
2.340E-06,1.040
2.350E-06,1.040
2.360E-06,1.000
2.370E-06,0.920
2.380E-06,0.840
2.390E-06,0.760
2.400E-06,0.600
2.410E-06,0.480
2.420E-06,0.480
2.430E-06,0.400
2.440E-06,0.360
2.450E-06,0.200
2.460E-06,0.160
2.470E-06,0.160
2.480E-06,0.040
2.490E-06,0.080
2.500E-06,0.080
2.510E-06,-0.040
2.520E-06,0.000
2.530E-06,-0.160
2.540E-06,-0.400
2.550E-06,-0.520
2.560E-06,-0.760
2.570E-06,-0.440
2.580E-06,-0.320
2.590E-06,0.000
2.600E-06,0.600
2.610E-06,0.720
2.620E-06,0.920
2.630E-06,0.720
2.640E-06,0.680
2.650E-06,0.520
2.660E-06,0.440
2.670E-06,0.400
2.680E-06,0.440
2.690E-06,0.520
2.700E-06,0.840
2.710E-06,1.240
2.720E-06,1.640
2.730E-06,2.000
2.740E-06,2.120
2.750E-06,2.320
2.760E-06,2.440
2.770E-06,2.640
2.780E-06,2.680
2.790E-06,2.760
2.800E-06,2.920
2.810E-06,2.840
2.820E-06,3.000
2.830E-06,2.600
2.840E-06,2.360
2.850E-06,1.960
2.860E-06,1.720
2.870E-06,1.600
2.880E-06,1.600
2.890E-06,1.520
2.900E-06,1.280
2.910E-06,0.920
2.920E-06,0.400
2.930E-06,-0.040
2.940E-06,-0.320
2.950E-06,-0.440
2.960E-06,-0.560
2.970E-06,-0.720
2.980E-06,-0.960
2.990E-06,-1.360
3.000E-06,-1.760
3.010E-06,-2.280
3.020E-06,-2.960
3.030E-06,-3.600
3.040E-06,-4.360
3.050E-06,-5.160
3.060E-06,-5.240
3.070E-06,-5.200
3.080E-06,-5.240
3.090E-06,-5.240
3.100E-06,-5.200
3.110E-06,-5.240
3.120E-06,-5.240
3.130E-06,-5.240
3.140E-06,-5.200
3.150E-06,-5.240
3.160E-06,-5.240
3.170E-06,-5.200
3.180E-06,-5.240
3.190E-06,-5.200
3.200E-06,-5.200
3.210E-06,-5.200
3.220E-06,-5.240
3.230E-06,-5.240
3.240E-06,-5.240
3.250E-06,-5.200
3.260E-06,-5.240
3.270E-06,-5.240
3.280E-06,-5.240
3.290E-06,-5.240
3.300E-06,-5.240
3.310E-06,-5.200
3.320E-06,-5.120
3.330E-06,-5.160
3.340E-06,-4.840
3.350E-06,-4.720
3.360E-06,-4.640
3.370E-06,-4.400
3.380E-06,-4.280
3.390E-06,-4.080
3.400E-06,-4.160
3.410E-06,-4.120
3.420E-06,-4.160
3.430E-06,-4.120
3.440E-06,-4.000
3.450E-06,-4.000
3.460E-06,-4.000
3.470E-06,-4.120
3.480E-06,-4.280
3.490E-06,-4.440
3.500E-06,-4.560
3.510E-06,-4.760
3.520E-06,-4.720
3.530E-06,-4.840
3.540E-06,-4.880
3.550E-06,-4.840
3.560E-06,-4.920
3.570E-06,-5.040
3.580E-06,-5.080
3.590E-06,-5.200
3.600E-06,-5.240
3.610E-06,-5.240
3.620E-06,-5.200
3.630E-06,-5.200
3.640E-06,-5.200
3.650E-06,-5.200
3.660E-06,-5.200
3.670E-06,-5.200
3.680E-06,-5.200
3.690E-06,-5.120
3.700E-06,-5.000
3.710E-06,-4.800
3.720E-06,-4.520
3.730E-06,-4.280
3.740E-06,-4.040
3.750E-06,-3.880
3.760E-06,-3.680
3.770E-06,-3.520
3.780E-06,-3.320
3.790E-06,-3.160
3.800E-06,-3.000
3.810E-06,-2.880
3.820E-06,-2.840
3.830E-06,-2.800
3.840E-06,-2.720
3.850E-06,-2.800
3.860E-06,-2.880
3.870E-06,-2.920
3.880E-06,-2.960
3.890E-06,-3.000
3.900E-06,-3.120
3.910E-06,-3.120
3.920E-06,-3.240
3.930E-06,-3.200
3.940E-06,-3.200
3.950E-06,-3.080
3.960E-06,-2.920
3.970E-06,-2.760
3.980E-06,-2.600
3.990E-06,-2.560
4.000E-06,-2.480
4.010E-06,-2.480
4.020E-06,-2.360
4.030E-06,-2.280
4.040E-06,-2.200
4.050E-06,-2.080
4.060E-06,-1.880
4.070E-06,-1.840
4.080E-06,-1.760
4.090E-06,-1.680
4.100E-06,-1.680
4.110E-06,-1.560
4.120E-06,-1.600
4.130E-06,-1.520
4.140E-06,-1.480
4.150E-06,-1.440
4.160E-06,-1.440
4.170E-06,-1.440
4.180E-06,-1.520
4.190E-06,-1.480
4.200E-06,-1.520
4.210E-06,-1.520
4.220E-06,-1.560
4.230E-06,-1.680
4.240E-06,-1.680
4.250E-06,-1.800
4.260E-06,-1.840
4.270E-06,-1.880
4.280E-06,-1.880
4.290E-06,-1.960
4.300E-06,-2.000
4.310E-06,-2.000
4.320E-06,-2.040
4.330E-06,-2.080
4.340E-06,-2.080
4.350E-06,-2.040
4.360E-06,-2.000
4.370E-06,-2.080
4.380E-06,-2.040
4.390E-06,-2.000
4.400E-06,-2.000
4.410E-06,-1.920
4.420E-06,-1.840
4.430E-06,-1.800
4.440E-06,-1.760
4.450E-06,-1.760
4.460E-06,-1.720
4.470E-06,-1.720
4.480E-06,-1.600
4.490E-06,-1.600
4.500E-06,-1.480
4.510E-06,-1.480
4.520E-06,-1.520
4.530E-06,-1.480
4.540E-06,-1.440
4.550E-06,-1.440
4.560E-06,-1.440
4.570E-06,-1.480
4.580E-06,-1.440
4.590E-06,-1.440
4.600E-06,-1.480
4.610E-06,-1.440
4.620E-06,-1.440
4.630E-06,-1.440
4.640E-06,-1.440
4.650E-06,-1.480
4.660E-06,-1.480
4.670E-06,-1.440
4.680E-06,-1.440
4.690E-06,-1.400
4.700E-06,-1.320
4.710E-06,-1.280
4.720E-06,-1.280
4.730E-06,-1.240
4.740E-06,-1.280
4.750E-06,-1.280
4.760E-06,-1.240
4.770E-06,-1.200
4.780E-06,-1.200
4.790E-06,-1.240
4.800E-06,-1.240
4.810E-06,-1.280
4.820E-06,-1.360
4.830E-06,-1.320
4.840E-06,-1.320
4.850E-06,-1.320
4.860E-06,-1.320
4.870E-06,-1.280
4.880E-06,-1.280
4.890E-06,-1.280
4.900E-06,-1.280
4.910E-06,-1.320
4.920E-06,-1.280
4.930E-06,-1.240
4.940E-06,-1.280
4.950E-06,-1.200
4.960E-06,-1.160
4.970E-06,-1.160
4.980E-06,-1.120
4.990E-06,-1.160
5.000E-06,-1.240
5.010E-06,-1.280
5.020E-06,-1.320
5.030E-06,-1.360
5.040E-06,-1.320
5.050E-06,-1.360
5.060E-06,-1.360
5.070E-06,-1.320
5.080E-06,-1.320
5.090E-06,-1.320
5.100E-06,-1.360
5.110E-06,-1.320
5.120E-06,-1.320
5.130E-06,-1.280
5.140E-06,-1.240
5.150E-06,-1.240
5.160E-06,-1.200
5.170E-06,-1.200
5.180E-06,-1.160
5.190E-06,-1.120
5.200E-06,-1.120
5.210E-06,-1.080
5.220E-06,-0.960
5.230E-06,-0.960
5.240E-06,-0.800
5.250E-06,-0.600
5.260E-06,-0.280
5.270E-06,0.160
5.280E-06,0.440
5.290E-06,0.640
5.300E-06,0.600
5.310E-06,0.360
5.320E-06,-0.080
5.330E-06,-0.560
5.340E-06,-0.880
5.350E-06,-1.160
5.360E-06,-1.320
5.370E-06,-1.320
5.380E-06,-1.240
5.390E-06,-1.160
5.400E-06,-0.960
5.410E-06,-0.880
5.420E-06,-0.840
5.430E-06,-0.720
5.440E-06,-0.680
5.450E-06,-0.760
5.460E-06,-0.800
5.470E-06,-0.960
5.480E-06,-0.960
5.490E-06,-1.040
5.500E-06,-1.040
5.510E-06,-1.040
5.520E-06,-0.920
5.530E-06,-0.840
5.540E-06,-0.800
5.550E-06,-0.760
5.560E-06,-0.760
5.570E-06,-0.880
5.580E-06,-1.000
5.590E-06,-1.120
5.600E-06,-1.120
5.610E-06,-1.280
5.620E-06,-1.320
5.630E-06,-1.400
5.640E-06,-1.480
5.650E-06,-1.480
5.660E-06,-1.480
5.670E-06,-1.520
5.680E-06,-1.480
5.690E-06,-1.440
5.700E-06,-1.400
5.710E-06,-1.320
5.720E-06,-1.240
5.730E-06,-1.200
5.740E-06,-1.160
5.750E-06,-1.040
5.760E-06,-0.920
5.770E-06,-0.760
5.780E-06,-0.640
5.790E-06,-0.560
5.800E-06,-0.400
5.810E-06,-0.280
5.820E-06,-0.160
5.830E-06,-0.120
5.840E-06,-0.080
5.850E-06,-0.040
5.860E-06,-0.040
5.870E-06,-0.040
5.880E-06,-0.040
5.890E-06,-0.040
5.900E-06,0.000
5.910E-06,0.040
5.920E-06,0.040
5.930E-06,0.040
5.940E-06,0.080
5.950E-06,-0.040
5.960E-06,0.000
5.970E-06,0.000
5.980E-06,-0.040
5.990E-06,-0.080
6.000E-06,-0.080
6.010E-06,-0.040
6.020E-06,-0.040
6.030E-06,-0.120
6.040E-06,-0.120
