mediciones/5-27/-17.5/WaveData51123.csv

#timebase=2000000(ps)
,#voltbase=1000000(mv/100)
#size=4000
-7.300E-06,0.040
-7.290E-06,0.040
-7.280E-06,0.040
-7.270E-06,0.040
-7.260E-06,0.080
-7.250E-06,0.080
-7.240E-06,0.080
-7.230E-06,0.080
-7.220E-06,0.080
-7.210E-06,0.120
-7.200E-06,0.080
-7.190E-06,0.120
-7.180E-06,0.040
-7.170E-06,0.080
-7.160E-06,0.040
-7.150E-06,0.080
-7.140E-06,0.120
-7.130E-06,0.080
-7.120E-06,0.120
-7.110E-06,0.000
-7.100E-06,0.080
-7.090E-06,0.080
-7.080E-06,0.040
-7.070E-06,0.040
-7.060E-06,0.080
-7.050E-06,0.120
-7.040E-06,0.000
-7.030E-06,0.040
-7.020E-06,0.080
-7.010E-06,0.080
-7.000E-06,0.080
-6.990E-06,0.080
-6.980E-06,0.000
-6.970E-06,0.000
-6.960E-06,0.040
-6.950E-06,0.040
-6.940E-06,0.040
-6.930E-06,0.040
-6.920E-06,0.040
-6.910E-06,0.080
-6.900E-06,0.080
-6.890E-06,0.000
-6.880E-06,0.000
-6.870E-06,0.040
-6.860E-06,0.040
-6.850E-06,0.080
-6.840E-06,0.040
-6.830E-06,0.040
-6.820E-06,0.040
-6.810E-06,0.040
-6.800E-06,0.080
-6.790E-06,0.080
-6.780E-06,0.000
-6.770E-06,0.000
-6.760E-06,0.040
-6.750E-06,0.040
-6.740E-06,0.000
-6.730E-06,0.040
-6.720E-06,0.000
-6.710E-06,0.080
-6.700E-06,0.000
-6.690E-06,0.040
-6.680E-06,0.080
-6.670E-06,0.040
-6.660E-06,0.040
-6.650E-06,0.040
-6.640E-06,0.040
-6.630E-06,0.040
-6.620E-06,0.080
-6.610E-06,0.040
-6.600E-06,0.080
-6.590E-06,0.120
-6.580E-06,0.080
-6.570E-06,0.080
-6.560E-06,0.120
-6.550E-06,0.080
-6.540E-06,0.080
-6.530E-06,0.000
-6.520E-06,0.000
-6.510E-06,0.040
-6.500E-06,0.000
-6.490E-06,0.040
-6.480E-06,0.120
-6.470E-06,0.120
-6.460E-06,0.040
-6.450E-06,0.080
-6.440E-06,0.080
-6.430E-06,0.080
-6.420E-06,0.040
-6.410E-06,0.040
-6.400E-06,0.040
-6.390E-06,0.040
-6.380E-06,0.040
-6.370E-06,0.040
-6.360E-06,0.080
-6.350E-06,0.080
-6.340E-06,0.080
-6.330E-06,0.080
-6.320E-06,0.000
-6.310E-06,0.080
-6.300E-06,0.080
-6.290E-06,0.080
-6.280E-06,0.080
-6.270E-06,0.080
-6.260E-06,0.080
-6.250E-06,0.080
-6.240E-06,0.080
-6.230E-06,0.080
-6.220E-06,0.040
-6.210E-06,0.080
-6.200E-06,0.040
-6.190E-06,0.080
-6.180E-06,0.120
-6.170E-06,0.040
-6.160E-06,0.040
-6.150E-06,0.080
-6.140E-06,0.120
-6.130E-06,0.120
-6.120E-06,0.040
-6.110E-06,0.040
-6.100E-06,0.080
-6.090E-06,0.040
-6.080E-06,0.040
-6.070E-06,0.040
-6.060E-06,0.000
-6.050E-06,0.040
-6.040E-06,0.080
-6.030E-06,0.080
-6.020E-06,0.000
-6.010E-06,0.040
-6.000E-06,0.040
-5.990E-06,0.040
-5.980E-06,0.080
-5.970E-06,0.080
-5.960E-06,0.080
-5.950E-06,0.080
-5.940E-06,0.120
-5.930E-06,0.040
-5.920E-06,0.080
-5.910E-06,0.080
-5.900E-06,0.080
-5.890E-06,0.080
-5.880E-06,0.080
-5.870E-06,0.080
-5.860E-06,0.080
-5.850E-06,0.040
-5.840E-06,0.080
-5.830E-06,0.120
-5.820E-06,0.080
-5.810E-06,0.120
-5.800E-06,0.120
-5.790E-06,0.120
-5.780E-06,0.160
-5.770E-06,0.120
-5.760E-06,0.120
-5.750E-06,0.120
-5.740E-06,0.120
-5.730E-06,0.120
-5.720E-06,0.160
-5.710E-06,0.160
-5.700E-06,0.200
-5.690E-06,0.120
-5.680E-06,0.200
-5.670E-06,0.080
-5.660E-06,0.080
-5.650E-06,0.120
-5.640E-06,0.160
-5.630E-06,0.160
-5.620E-06,0.160
-5.610E-06,0.080
-5.600E-06,0.080
-5.590E-06,0.120
-5.580E-06,0.160
-5.570E-06,0.120
-5.560E-06,0.040
-5.550E-06,0.040
-5.540E-06,0.120
-5.530E-06,0.120
-5.520E-06,0.080
-5.510E-06,0.080
-5.500E-06,0.120
-5.490E-06,0.040
-5.480E-06,0.040
-5.470E-06,0.080
-5.460E-06,0.080
-5.450E-06,0.080
-5.440E-06,0.120
-5.430E-06,0.080
-5.420E-06,0.120
-5.410E-06,0.120
-5.400E-06,0.160
-5.390E-06,0.160
-5.380E-06,0.080
-5.370E-06,0.120
-5.360E-06,0.120
-5.350E-06,0.080
-5.340E-06,0.080
-5.330E-06,0.080
-5.320E-06,0.000
-5.310E-06,0.080
-5.300E-06,0.080
-5.290E-06,0.080
-5.280E-06,0.080
-5.270E-06,0.120
-5.260E-06,0.160
-5.250E-06,0.080
-5.240E-06,0.120
-5.230E-06,0.160
-5.220E-06,0.160
-5.210E-06,0.160
-5.200E-06,0.120
-5.190E-06,0.120
-5.180E-06,0.200
-5.170E-06,0.200
-5.160E-06,0.200
-5.150E-06,0.240
-5.140E-06,0.200
-5.130E-06,0.160
-5.120E-06,0.200
-5.110E-06,0.200
-5.100E-06,0.160
-5.090E-06,0.200
-5.080E-06,0.120
-5.070E-06,0.120
-5.060E-06,0.160
-5.050E-06,0.160
-5.040E-06,0.200
-5.030E-06,0.160
-5.020E-06,0.200
-5.010E-06,0.200
-5.000E-06,0.200
-4.990E-06,0.120
-4.980E-06,0.160
-4.970E-06,0.160
-4.960E-06,0.200
-4.950E-06,0.160
-4.940E-06,0.120
-4.930E-06,0.200
-4.920E-06,0.160
-4.910E-06,0.200
-4.900E-06,0.200
-4.890E-06,0.200
-4.880E-06,0.200
-4.870E-06,0.240
-4.860E-06,0.120
-4.850E-06,0.160
-4.840E-06,0.200
-4.830E-06,0.120
-4.820E-06,0.080
-4.810E-06,0.080
-4.800E-06,0.160
-4.790E-06,0.200
-4.780E-06,0.200
-4.770E-06,0.120
-4.760E-06,0.160
-4.750E-06,0.240
-4.740E-06,0.160
-4.730E-06,0.200
-4.720E-06,0.120
-4.710E-06,0.160
-4.700E-06,0.240
-4.690E-06,0.200
-4.680E-06,0.280
-4.670E-06,0.360
-4.660E-06,0.320
-4.650E-06,0.360
-4.640E-06,0.360
-4.630E-06,0.360
-4.620E-06,0.400
-4.610E-06,0.480
-4.600E-06,0.400
-4.590E-06,0.440
-4.580E-06,0.440
-4.570E-06,0.400
-4.560E-06,0.400
-4.550E-06,0.440
-4.540E-06,0.480
-4.530E-06,0.440
-4.520E-06,0.400
-4.510E-06,0.400
-4.500E-06,0.440
-4.490E-06,0.400
-4.480E-06,0.400
-4.470E-06,0.480
-4.460E-06,0.400
-4.450E-06,0.360
-4.440E-06,0.400
-4.430E-06,0.400
-4.420E-06,0.480
-4.410E-06,0.480
-4.400E-06,0.480
-4.390E-06,0.480
-4.380E-06,0.400
-4.370E-06,0.440
-4.360E-06,0.320
-4.350E-06,0.360
-4.340E-06,0.360
-4.330E-06,0.280
-4.320E-06,0.480
-4.310E-06,0.320
-4.300E-06,0.560
-4.290E-06,0.400
-4.280E-06,0.440
-4.270E-06,0.360
-4.260E-06,0.320
-4.250E-06,0.320
-4.240E-06,0.280
-4.230E-06,0.400
-4.220E-06,0.400
-4.210E-06,0.400
-4.200E-06,0.480
-4.190E-06,0.400
-4.180E-06,0.520
-4.170E-06,0.520
-4.160E-06,0.520
-4.150E-06,0.480
-4.140E-06,0.600
-4.130E-06,0.520
-4.120E-06,0.600
-4.110E-06,0.480
-4.100E-06,0.480
-4.090E-06,0.480
-4.080E-06,0.400
-4.070E-06,0.440
-4.060E-06,0.440
-4.050E-06,0.400
-4.040E-06,0.360
-4.030E-06,0.240
-4.020E-06,0.240
-4.010E-06,0.200
-4.000E-06,0.320
-3.990E-06,0.520
-3.980E-06,0.480
-3.970E-06,0.600
-3.960E-06,0.560
-3.950E-06,0.680
-3.940E-06,0.760
-3.930E-06,0.880
-3.920E-06,0.880
-3.910E-06,0.960
-3.900E-06,0.880
-3.890E-06,0.840
-3.880E-06,0.800
-3.870E-06,0.840
-3.860E-06,0.840
-3.850E-06,0.840
-3.840E-06,0.760
-3.830E-06,0.760
-3.820E-06,0.800
-3.810E-06,0.800
-3.800E-06,0.880
-3.790E-06,0.840
-3.780E-06,1.000
-3.770E-06,0.720
-3.760E-06,0.680
-3.750E-06,0.560
-3.740E-06,0.520
-3.730E-06,0.480
-3.720E-06,0.440
-3.710E-06,0.480
-3.700E-06,0.480
-3.690E-06,0.440
-3.680E-06,0.480
-3.670E-06,0.440
-3.660E-06,0.520
-3.650E-06,0.560
-3.640E-06,0.480
-3.630E-06,0.480
-3.620E-06,0.520
-3.610E-06,0.440
-3.600E-06,0.560
-3.590E-06,0.480
-3.580E-06,0.480
-3.570E-06,0.440
-3.560E-06,0.320
-3.550E-06,0.360
-3.540E-06,0.400
-3.530E-06,0.600
-3.520E-06,0.760
-3.510E-06,0.680
-3.500E-06,0.680
-3.490E-06,0.480
-3.480E-06,0.480
-3.470E-06,0.600
-3.460E-06,0.560
-3.450E-06,0.640
-3.440E-06,0.560
-3.430E-06,0.440
-3.420E-06,0.480
-3.410E-06,0.400
-3.400E-06,0.520
-3.390E-06,0.560
-3.380E-06,0.600
-3.370E-06,0.520
-3.360E-06,0.480
-3.350E-06,0.400
-3.340E-06,0.440
-3.330E-06,0.480
-3.320E-06,0.560
-3.310E-06,0.520
-3.300E-06,0.440
-3.290E-06,0.360
-3.280E-06,0.280
-3.270E-06,0.120
-3.260E-06,0.160
-3.250E-06,0.120
-3.240E-06,0.160
-3.230E-06,0.160
-3.220E-06,0.080
-3.210E-06,0.000
-3.200E-06,0.040
-3.190E-06,0.040
-3.180E-06,0.040
-3.170E-06,-0.040
-3.160E-06,0.000
-3.150E-06,-0.040
-3.140E-06,0.000
-3.130E-06,0.040
-3.120E-06,0.000
-3.110E-06,0.040
-3.100E-06,0.000
-3.090E-06,0.000
-3.080E-06,-0.040
-3.070E-06,-0.040
-3.060E-06,0.040
-3.050E-06,0.040
-3.040E-06,0.040
-3.030E-06,0.080
-3.020E-06,0.000
-3.010E-06,0.000
-3.000E-06,0.000
-2.990E-06,0.040
-2.980E-06,0.080
-2.970E-06,0.120
-2.960E-06,0.120
-2.950E-06,0.120
-2.940E-06,0.080
-2.930E-06,0.040
-2.920E-06,0.080
-2.910E-06,0.000
-2.900E-06,0.040
-2.890E-06,0.040
-2.880E-06,0.080
-2.870E-06,0.120
-2.860E-06,0.160
-2.850E-06,0.160
-2.840E-06,0.080
-2.830E-06,0.120
-2.820E-06,0.120
-2.810E-06,0.080
-2.800E-06,0.160
-2.790E-06,0.160
-2.780E-06,0.240
-2.770E-06,0.240
-2.760E-06,0.160
-2.750E-06,0.200
-2.740E-06,0.240
-2.730E-06,0.160
-2.720E-06,0.200
-2.710E-06,0.240
-2.700E-06,0.240
-2.690E-06,0.160
-2.680E-06,0.160
-2.670E-06,0.200
-2.660E-06,0.160
-2.650E-06,0.200
-2.640E-06,0.240
-2.630E-06,0.200
-2.620E-06,0.240
-2.610E-06,0.120
-2.600E-06,0.200
-2.590E-06,0.240
-2.580E-06,0.280
-2.570E-06,0.280
-2.560E-06,0.360
-2.550E-06,0.320
-2.540E-06,0.240
-2.530E-06,0.320
-2.520E-06,0.360
-2.510E-06,0.440
-2.500E-06,0.360
-2.490E-06,0.360
-2.480E-06,0.280
-2.470E-06,0.280
-2.460E-06,0.320
-2.450E-06,0.400
-2.440E-06,0.480
-2.430E-06,0.600
-2.420E-06,0.600
-2.410E-06,0.560
-2.400E-06,0.520
-2.390E-06,0.520
-2.380E-06,0.560
-2.370E-06,0.600
-2.360E-06,0.680
-2.350E-06,0.760
-2.340E-06,0.680
-2.330E-06,0.760
-2.320E-06,0.720
-2.310E-06,0.760
-2.300E-06,0.840
-2.290E-06,0.840
-2.280E-06,0.800
-2.270E-06,0.800
-2.260E-06,0.760
-2.250E-06,0.760
-2.240E-06,0.800
-2.230E-06,0.760
-2.220E-06,0.840
-2.210E-06,0.800
-2.200E-06,0.840
-2.190E-06,0.840
-2.180E-06,0.880
-2.170E-06,0.880
-2.160E-06,0.920
-2.150E-06,0.920
-2.140E-06,0.920
-2.130E-06,0.880
-2.120E-06,0.880
-2.110E-06,0.880
-2.100E-06,0.880
-2.090E-06,1.000
-2.080E-06,0.880
-2.070E-06,1.200
-2.060E-06,0.960
-2.050E-06,1.200
-2.040E-06,1.120
-2.030E-06,1.360
-2.020E-06,1.520
-2.010E-06,1.520
-2.000E-06,1.680
-1.990E-06,1.600
-1.980E-06,1.400
-1.970E-06,1.400
-1.960E-06,1.440
-1.950E-06,1.400
-1.940E-06,1.400
-1.930E-06,1.200
-1.920E-06,1.240
-1.910E-06,1.120
-1.900E-06,0.960
-1.890E-06,0.960
-1.880E-06,0.960
-1.870E-06,1.000
-1.860E-06,1.040
-1.850E-06,0.960
-1.840E-06,1.000
-1.830E-06,0.800
-1.820E-06,0.720
-1.810E-06,0.680
-1.800E-06,0.800
-1.790E-06,0.760
-1.780E-06,0.720
-1.770E-06,0.760
-1.760E-06,0.520
-1.750E-06,0.440
-1.740E-06,0.440
-1.730E-06,0.520
-1.720E-06,0.480
-1.710E-06,0.680
-1.700E-06,0.640
-1.690E-06,0.640
-1.680E-06,0.840
-1.670E-06,0.840
-1.660E-06,0.800
-1.650E-06,0.680
-1.640E-06,0.560
-1.630E-06,0.520
-1.620E-06,0.400
-1.610E-06,0.600
-1.600E-06,0.480
-1.590E-06,0.600
-1.580E-06,0.600
-1.570E-06,0.560
-1.560E-06,0.640
-1.550E-06,0.560
-1.540E-06,0.720
-1.530E-06,0.840
-1.520E-06,0.840
-1.510E-06,0.800
-1.500E-06,0.720
-1.490E-06,0.720
-1.480E-06,0.640
-1.470E-06,0.680
-1.460E-06,0.640
-1.450E-06,0.640
-1.440E-06,0.640
-1.430E-06,0.560
-1.420E-06,0.480
-1.410E-06,0.480
-1.400E-06,0.320
-1.390E-06,0.360
-1.380E-06,0.360
-1.370E-06,0.400
-1.360E-06,0.440
-1.350E-06,0.440
-1.340E-06,0.400
-1.330E-06,0.360
-1.320E-06,0.160
-1.310E-06,0.160
-1.300E-06,0.120
-1.290E-06,0.200
-1.280E-06,0.200
-1.270E-06,0.200
-1.260E-06,-0.040
-1.250E-06,0.160
-1.240E-06,-0.080
-1.230E-06,0.200
-1.220E-06,-0.120
-1.210E-06,-0.160
-1.200E-06,-0.520
-1.190E-06,-0.680
-1.180E-06,-0.360
-1.170E-06,0.040
-1.160E-06,0.840
-1.150E-06,0.800
-1.140E-06,0.480
-1.130E-06,-0.040
-1.120E-06,-0.440
-1.110E-06,-0.360
-1.100E-06,0.200
-1.090E-06,0.760
-1.080E-06,0.760
-1.070E-06,0.560
-1.060E-06,0.000
-1.050E-06,-0.360
-1.040E-06,-0.120
-1.030E-06,0.240
-1.020E-06,0.840
-1.010E-06,0.880
-1.000E-06,0.960
-9.900E-07,0.840
-9.800E-07,0.760
-9.700E-07,1.000
-9.600E-07,0.960
-9.500E-07,1.200
-9.400E-07,1.040
-9.300E-07,1.160
-9.200E-07,1.400
-9.100E-07,1.360
-9.000E-07,1.400
-8.900E-07,1.480
-8.800E-07,1.000
-8.700E-07,1.160
-8.600E-07,0.960
-8.500E-07,1.120
-8.400E-07,1.240
-8.300E-07,1.120
-8.200E-07,1.200
-8.100E-07,0.960
-8.000E-07,0.960
-7.900E-07,0.960
-7.800E-07,0.960
-7.700E-07,1.000
-7.600E-07,0.760
-7.500E-07,0.680
-7.400E-07,0.360
-7.300E-07,0.200
-7.200E-07,0.080
-7.100E-07,0.080
-7.000E-07,0.240
-6.900E-07,0.280
-6.800E-07,0.320
-6.700E-07,0.280
-6.600E-07,0.120
-6.500E-07,0.080
-6.400E-07,0.000
-6.300E-07,0.000
-6.200E-07,-0.080
-6.100E-07,-0.040
-6.000E-07,0.000
-5.900E-07,-0.160
-5.800E-07,-0.240
-5.700E-07,-0.360
-5.600E-07,-0.440
-5.500E-07,-0.440
-5.400E-07,-0.440
-5.300E-07,-0.320
-5.200E-07,-0.320
-5.100E-07,-0.320
-5.000E-07,-0.360
-4.900E-07,-0.360
-4.800E-07,-0.360
-4.700E-07,-0.320
-4.600E-07,-0.400
-4.500E-07,-0.320
-4.400E-07,-0.320
-4.300E-07,-0.320
-4.200E-07,-0.160
-4.100E-07,-0.080
-4.000E-07,-0.080
-3.900E-07,-0.120
-3.800E-07,-0.200
-3.700E-07,-0.280
-3.600E-07,-0.200
-3.500E-07,-0.080
-3.400E-07,-0.080
-3.300E-07,-0.040
-3.200E-07,-0.080
-3.100E-07,-0.080
-3.000E-07,-0.120
-2.900E-07,-0.040
-2.800E-07,0.000
-2.700E-07,-0.080
-2.600E-07,0.000
-2.500E-07,0.000
-2.400E-07,-0.080
-2.300E-07,-0.080
-2.200E-07,-0.080
-2.100E-07,-0.040
-2.000E-07,-0.040
-1.900E-07,-0.080
-1.800E-07,-0.120
-1.700E-07,-0.120
-1.600E-07,-0.160
-1.500E-07,-0.080
-1.400E-07,0.040
-1.300E-07,0.080
-1.200E-07,0.080
-1.100E-07,-0.040
-1.000E-07,-0.040
-9.000E-08,0.000
-8.000E-08,-0.160
-7.000E-08,0.160
-6.000E-08,-0.640
-5.000E-08,0.080
-4.000E-08,-1.320
-3.000E-08,-1.880
-2.000E-08,0.000
-1.000E-08,-4.160
0.000E+00,-0.800
1.000E-08,-1.880
2.000E-08,-0.800
3.000E-08,1.480
4.000E-08,0.440
5.000E-08,1.000
6.000E-08,-0.320
7.000E-08,-1.240
8.000E-08,-0.400
9.000E-08,-1.040
1.000E-07,0.240
1.100E-07,0.200
1.200E-07,-0.320
1.300E-07,-0.640
1.400E-07,-1.240
1.500E-07,-1.680
1.600E-07,-1.600
1.700E-07,-1.600
1.800E-07,-1.840
1.900E-07,-1.960
2.000E-07,-2.600
2.100E-07,-3.280
2.200E-07,-3.840
2.300E-07,-4.480
2.400E-07,-4.760
2.500E-07,-4.960
2.600E-07,-5.080
2.700E-07,-5.120
2.800E-07,-5.240
2.900E-07,-5.240
3.000E-07,-5.200
3.100E-07,-5.240
3.200E-07,-5.240
3.300E-07,-5.200
3.400E-07,-5.240
3.500E-07,-5.080
3.600E-07,-4.880
3.700E-07,-4.880
3.800E-07,-4.680
3.900E-07,-4.400
4.000E-07,-4.240
4.100E-07,-3.800
4.200E-07,-3.680
4.300E-07,-3.520
4.400E-07,-3.520
4.500E-07,-3.720
4.600E-07,-3.880
4.700E-07,-3.920
4.800E-07,-4.200
4.900E-07,-4.520
5.000E-07,-4.800
5.100E-07,-5.240
5.200E-07,-5.240
5.300E-07,-5.240
5.400E-07,-5.240
5.500E-07,-5.200
5.600E-07,-4.840
5.700E-07,-4.440
5.800E-07,-4.400
5.900E-07,-4.440
6.000E-07,-4.120
6.100E-07,-3.920
6.200E-07,-3.640
6.300E-07,-3.360
6.400E-07,-3.280
6.500E-07,-3.360
6.600E-07,-3.480
6.700E-07,-3.440
6.800E-07,-3.200
6.900E-07,-3.000
7.000E-07,-2.760
7.100E-07,-2.560
7.200E-07,-2.520
7.300E-07,-2.560
7.400E-07,-2.680
7.500E-07,-2.960
7.600E-07,-2.960
7.700E-07,-3.160
7.800E-07,-3.240
7.900E-07,-3.160
8.000E-07,-3.200
8.100E-07,-3.080
8.200E-07,-3.040
8.300E-07,-3.120
8.400E-07,-3.000
8.500E-07,-3.200
8.600E-07,-3.240
8.700E-07,-3.280
8.800E-07,-3.560
8.900E-07,-3.280
9.000E-07,-3.000
9.100E-07,-2.480
9.200E-07,-2.240
9.300E-07,-2.320
9.400E-07,-2.320
9.500E-07,-3.560
9.600E-07,-3.320
9.700E-07,-3.840
9.800E-07,-3.560
9.900E-07,-3.160
1.000E-06,-3.120
1.010E-06,-2.680
1.020E-06,-2.640
1.030E-06,-2.240
1.040E-06,-1.800
1.050E-06,-1.320
1.060E-06,-0.840
1.070E-06,-0.600
1.080E-06,-0.480
1.090E-06,-0.360
1.100E-06,-0.400
1.110E-06,-0.400
1.120E-06,-0.320
1.130E-06,-0.480
1.140E-06,-0.680
1.150E-06,-1.200
1.160E-06,-1.640
1.170E-06,-1.800
1.180E-06,-1.840
1.190E-06,-1.680
1.200E-06,-1.440
1.210E-06,-1.400
1.220E-06,-1.400
1.230E-06,-1.560
1.240E-06,-1.720
1.250E-06,-1.680
1.260E-06,-1.640
1.270E-06,-1.680
1.280E-06,-1.480
1.290E-06,-1.520
1.300E-06,-1.360
1.310E-06,-1.200
1.320E-06,-0.960
1.330E-06,-1.080
1.340E-06,-1.280
1.350E-06,-1.520
1.360E-06,-1.680
1.370E-06,-1.800
1.380E-06,-1.840
1.390E-06,-1.800
1.400E-06,-1.760
1.410E-06,-1.680
1.420E-06,-1.680
1.430E-06,-1.600
1.440E-06,-1.600
1.450E-06,-1.640
1.460E-06,-1.640
1.470E-06,-1.600
1.480E-06,-1.480
1.490E-06,-1.360
1.500E-06,-1.360
1.510E-06,-1.400
1.520E-06,-1.480
1.530E-06,-1.280
1.540E-06,-1.360
1.550E-06,-1.120
1.560E-06,-1.120
1.570E-06,-1.080
1.580E-06,-1.120
1.590E-06,-1.080
1.600E-06,-0.920
1.610E-06,-0.680
1.620E-06,-0.720
1.630E-06,-0.880
1.640E-06,-1.200
1.650E-06,-1.640
1.660E-06,-1.600
1.670E-06,-1.720
1.680E-06,-1.360
1.690E-06,-1.160
1.700E-06,-1.000
1.710E-06,-0.800
1.720E-06,-0.760
1.730E-06,-0.600
1.740E-06,-0.360
1.750E-06,-0.120
1.760E-06,0.120
1.770E-06,0.440
1.780E-06,0.560
1.790E-06,0.640
1.800E-06,0.520
1.810E-06,0.680
1.820E-06,0.720
1.830E-06,0.760
1.840E-06,0.720
1.850E-06,0.560
1.860E-06,0.480
1.870E-06,0.240
1.880E-06,0.000
1.890E-06,-0.480
1.900E-06,-0.760
1.910E-06,-1.320
1.920E-06,-1.720
1.930E-06,-1.800
1.940E-06,-2.000
1.950E-06,-2.240
1.960E-06,-2.720
1.970E-06,-3.120
1.980E-06,-3.440
1.990E-06,-3.280
2.000E-06,-2.800
2.010E-06,-1.960
2.020E-06,-0.960
2.030E-06,-0.240
2.040E-06,0.400
2.050E-06,0.640
2.060E-06,0.680
2.070E-06,0.800
2.080E-06,0.600
2.090E-06,0.800
2.100E-06,0.760
2.110E-06,0.840
2.120E-06,0.680
2.130E-06,0.520
2.140E-06,0.320
2.150E-06,0.080
2.160E-06,0.000
2.170E-06,0.000
2.180E-06,-0.040
2.190E-06,-0.040
2.200E-06,-0.200
2.210E-06,-0.480
2.220E-06,-0.720
2.230E-06,-1.120
2.240E-06,-1.560
2.250E-06,-1.840
2.260E-06,-2.040
2.270E-06,-2.240
2.280E-06,-2.440
2.290E-06,-2.560
2.300E-06,-2.800
2.310E-06,-2.920
2.320E-06,-3.040
2.330E-06,-3.120
2.340E-06,-3.120
2.350E-06,-3.080
2.360E-06,-3.080
2.370E-06,-2.920
2.380E-06,-2.920
2.390E-06,-2.920
2.400E-06,-2.880
2.410E-06,-2.880
2.420E-06,-2.920
2.430E-06,-3.040
2.440E-06,-3.120
2.450E-06,-3.280
2.460E-06,-3.520
2.470E-06,-3.680
2.480E-06,-3.920
2.490E-06,-4.120
2.500E-06,-4.160
2.510E-06,-4.320
2.520E-06,-4.200
2.530E-06,-3.840
2.540E-06,-3.640
2.550E-06,-3.240
2.560E-06,-3.160
2.570E-06,-3.160
2.580E-06,-3.320
2.590E-06,-3.520
2.600E-06,-3.440
2.610E-06,-3.240
2.620E-06,-3.120
2.630E-06,-2.960
2.640E-06,-2.960
2.650E-06,-3.200
2.660E-06,-3.200
2.670E-06,-3.360
2.680E-06,-3.320
2.690E-06,-3.240
2.700E-06,-3.240
2.710E-06,-3.240
2.720E-06,-3.360
2.730E-06,-3.560
2.740E-06,-3.880
2.750E-06,-4.280
2.760E-06,-5.040
2.770E-06,-5.240
2.780E-06,-5.240
2.790E-06,-5.240
2.800E-06,-5.200
2.810E-06,-5.240
2.820E-06,-5.240
2.830E-06,-5.000
2.840E-06,-4.400
2.850E-06,-3.680
2.860E-06,-3.040
2.870E-06,-2.240
2.880E-06,-1.760
2.890E-06,-1.640
2.900E-06,-1.640
2.910E-06,-1.760
2.920E-06,-1.760
2.930E-06,-1.560
2.940E-06,-1.160
2.950E-06,-0.880
2.960E-06,-0.840
2.970E-06,-0.880
2.980E-06,-1.280
2.990E-06,-1.720
3.000E-06,-2.280
3.010E-06,-2.880
3.020E-06,-3.320
3.030E-06,-3.800
3.040E-06,-4.360
3.050E-06,-4.880
3.060E-06,-5.240
3.070E-06,-5.240
3.080E-06,-5.240
3.090E-06,-5.240
3.100E-06,-5.240
3.110E-06,-5.200
3.120E-06,-5.240
3.130E-06,-5.240
3.140E-06,-5.200
3.150E-06,-5.240
3.160E-06,-5.200
3.170E-06,-5.240
3.180E-06,-5.240
3.190E-06,-5.240
3.200E-06,-5.200
3.210E-06,-5.240
3.220E-06,-5.240
3.230E-06,-5.240
3.240E-06,-5.240
3.250E-06,-5.240
3.260E-06,-5.240
3.270E-06,-5.240
3.280E-06,-5.240
3.290E-06,-5.000
3.300E-06,-4.760
3.310E-06,-4.640
3.320E-06,-4.480
3.330E-06,-4.400
3.340E-06,-4.200
3.350E-06,-4.120
3.360E-06,-4.040
3.370E-06,-3.880
3.380E-06,-3.640
3.390E-06,-3.440
3.400E-06,-3.280
3.410E-06,-3.200
3.420E-06,-3.200
3.430E-06,-3.080
3.440E-06,-3.000
3.450E-06,-2.760
3.460E-06,-2.520
3.470E-06,-2.520
3.480E-06,-2.440
3.490E-06,-2.440
3.500E-06,-2.400
3.510E-06,-2.280
3.520E-06,-2.160
3.530E-06,-1.960
3.540E-06,-1.920
3.550E-06,-2.040
3.560E-06,-2.000
3.570E-06,-2.040
3.580E-06,-1.960
3.590E-06,-1.840
3.600E-06,-1.760
3.610E-06,-1.720
3.620E-06,-1.720
3.630E-06,-1.600
3.640E-06,-1.600
3.650E-06,-1.720
3.660E-06,-1.600
3.670E-06,-1.560
3.680E-06,-1.520
3.690E-06,-1.440
3.700E-06,-1.400
3.710E-06,-1.280
3.720E-06,-1.240
3.730E-06,-1.240
3.740E-06,-1.240
3.750E-06,-1.240
3.760E-06,-1.240
3.770E-06,-1.280
3.780E-06,-1.320
3.790E-06,-1.480
3.800E-06,-1.520
3.810E-06,-1.600
3.820E-06,-1.680
3.830E-06,-1.720
3.840E-06,-1.760
3.850E-06,-1.800
3.860E-06,-1.760
3.870E-06,-1.840
3.880E-06,-1.760
3.890E-06,-1.760
3.900E-06,-1.720
3.910E-06,-1.680
3.920E-06,-1.560
3.930E-06,-1.480
3.940E-06,-1.400
3.950E-06,-1.280
3.960E-06,-1.160
3.970E-06,-1.120
3.980E-06,-1.080
3.990E-06,-1.000
4.000E-06,-0.880
4.010E-06,-0.840
4.020E-06,-0.800
4.030E-06,-0.760
4.040E-06,-0.680
4.050E-06,-0.640
4.060E-06,-0.640
4.070E-06,-0.640
4.080E-06,-0.640
4.090E-06,-0.640
4.100E-06,-0.640
4.110E-06,-0.600
4.120E-06,-0.640
4.130E-06,-0.640
4.140E-06,-0.640
4.150E-06,-0.680
4.160E-06,-0.680
4.170E-06,-0.760
4.180E-06,-0.760
4.190E-06,-0.760
4.200E-06,-0.760
4.210E-06,-0.760
4.220E-06,-0.760
4.230E-06,-0.800
4.240E-06,-0.800
4.250E-06,-0.920
4.260E-06,-0.960
4.270E-06,-1.000
4.280E-06,-1.040
4.290E-06,-1.000
4.300E-06,-0.960
4.310E-06,-1.000
4.320E-06,-0.960
4.330E-06,-0.960
4.340E-06,-0.960
4.350E-06,-0.920
4.360E-06,-0.920
4.370E-06,-0.920
4.380E-06,-0.840
4.390E-06,-0.880
