mediciones/Mediciones filtradas (saque las feas)/6-10/15/WaveData5556.csv

#timebase=2000000(ps)
,#voltbase=100000(mv/100)
#size=4000
-4.250E-06,0.024
-4.240E-06,0.024
-4.230E-06,0.016
-4.220E-06,0.004
-4.210E-06,-0.008
-4.200E-06,-0.008
-4.190E-06,0.000
-4.180E-06,0.000
-4.170E-06,0.004
-4.160E-06,0.000
-4.150E-06,0.008
-4.140E-06,0.012
-4.130E-06,0.024
-4.120E-06,0.008
-4.110E-06,-0.008
-4.100E-06,-0.024
-4.090E-06,-0.020
-4.080E-06,0.004
-4.070E-06,0.020
-4.060E-06,0.028
-4.050E-06,0.020
-4.040E-06,-0.004
-4.030E-06,-0.020
-4.020E-06,-0.024
-4.010E-06,-0.008
-4.000E-06,0.012
-3.990E-06,0.024
-3.980E-06,0.024
-3.970E-06,0.020
-3.960E-06,-0.004
-3.950E-06,-0.004
-3.940E-06,-0.008
-3.930E-06,0.000
-3.920E-06,0.004
-3.910E-06,0.020
-3.900E-06,0.012
-3.890E-06,0.008
-3.880E-06,0.000
-3.870E-06,-0.004
-3.860E-06,0.000
-3.850E-06,0.000
-3.840E-06,0.004
-3.830E-06,0.008
-3.820E-06,0.008
-3.810E-06,0.008
-3.800E-06,0.008
-3.790E-06,0.008
-3.780E-06,0.008
-3.770E-06,0.004
-3.760E-06,-0.004
-3.750E-06,0.000
-3.740E-06,0.000
-3.730E-06,0.008
-3.720E-06,0.012
-3.710E-06,0.016
-3.700E-06,0.008
-3.690E-06,0.004
-3.680E-06,-0.004
-3.670E-06,-0.004
-3.660E-06,-0.004
-3.650E-06,-0.004
-3.640E-06,0.008
-3.630E-06,0.016
-3.620E-06,0.020
-3.610E-06,0.012
-3.600E-06,-0.004
-3.590E-06,-0.008
-3.580E-06,-0.008
-3.570E-06,-0.004
-3.560E-06,0.000
-3.550E-06,0.016
-3.540E-06,0.020
-3.530E-06,0.012
-3.520E-06,0.012
-3.510E-06,-0.004
-3.500E-06,-0.012
-3.490E-06,-0.012
-3.480E-06,-0.004
-3.470E-06,0.008
-3.460E-06,0.028
-3.450E-06,0.020
-3.440E-06,0.004
-3.430E-06,0.004
-3.420E-06,-0.040
-3.410E-06,-0.020
-3.400E-06,0.000
-3.390E-06,0.008
-3.380E-06,0.008
-3.370E-06,0.000
-3.360E-06,0.012
-3.350E-06,0.008
-3.340E-06,0.008
-3.330E-06,-0.004
-3.320E-06,-0.012
-3.310E-06,-0.008
-3.300E-06,-0.004
-3.290E-06,0.020
-3.280E-06,0.020
-3.270E-06,0.020
-3.260E-06,0.012
-3.250E-06,-0.004
-3.240E-06,-0.004
-3.230E-06,-0.012
-3.220E-06,0.000
-3.210E-06,0.012
-3.200E-06,0.024
-3.190E-06,0.028
-3.180E-06,0.016
-3.170E-06,-0.004
-3.160E-06,-0.012
-3.150E-06,-0.008
-3.140E-06,0.004
-3.130E-06,0.016
-3.120E-06,0.028
-3.110E-06,0.020
-3.100E-06,0.024
-3.090E-06,0.012
-3.080E-06,0.012
-3.070E-06,0.008
-3.060E-06,0.016
-3.050E-06,0.020
-3.040E-06,0.016
-3.030E-06,0.008
-3.020E-06,0.008
-3.010E-06,-0.004
-3.000E-06,-0.004
-2.990E-06,-0.024
-2.980E-06,0.000
-2.970E-06,0.008
-2.960E-06,0.000
-2.950E-06,0.020
-2.940E-06,-0.068
-2.930E-06,-0.060
-2.920E-06,-0.016
-2.910E-06,0.052
-2.900E-06,0.016
-2.890E-06,0.004
-2.880E-06,-0.004
-2.870E-06,-0.004
-2.860E-06,-0.008
-2.850E-06,-0.036
-2.840E-06,-0.004
-2.830E-06,0.020
-2.820E-06,0.044
-2.810E-06,0.000
-2.800E-06,-0.008
-2.790E-06,-0.020
-2.780E-06,-0.008
-2.770E-06,0.012
-2.760E-06,0.024
-2.750E-06,0.032
-2.740E-06,0.012
-2.730E-06,0.016
-2.720E-06,0.004
-2.710E-06,0.048
-2.700E-06,0.020
-2.690E-06,0.040
-2.680E-06,-0.036
-2.670E-06,-0.012
-2.660E-06,-0.028
-2.650E-06,-0.024
-2.640E-06,0.004
-2.630E-06,0.008
-2.620E-06,0.028
-2.610E-06,0.008
-2.600E-06,0.004
-2.590E-06,-0.036
-2.580E-06,-0.028
-2.570E-06,-0.032
-2.560E-06,0.004
-2.550E-06,0.012
-2.540E-06,0.036
-2.530E-06,0.036
-2.520E-06,0.004
-2.510E-06,-0.004
-2.500E-06,-0.044
-2.490E-06,-0.020
-2.480E-06,-0.008
-2.470E-06,0.008
-2.460E-06,0.012
-2.450E-06,0.024
-2.440E-06,0.024
-2.430E-06,0.000
-2.420E-06,0.000
-2.410E-06,0.000
-2.400E-06,-0.004
-2.390E-06,-0.008
-2.380E-06,0.000
-2.370E-06,0.000
-2.360E-06,0.024
-2.350E-06,0.016
-2.340E-06,0.016
-2.330E-06,0.008
-2.320E-06,0.024
-2.310E-06,0.000
-2.300E-06,-0.004
-2.290E-06,0.012
-2.280E-06,0.004
-2.270E-06,0.012
-2.260E-06,0.012
-2.250E-06,0.016
-2.240E-06,0.004
-2.230E-06,0.008
-2.220E-06,-0.016
-2.210E-06,-0.024
-2.200E-06,-0.016
-2.190E-06,0.012
-2.180E-06,0.024
-2.170E-06,0.028
-2.160E-06,0.012
-2.150E-06,-0.016
-2.140E-06,-0.024
-2.130E-06,-0.020
-2.120E-06,0.000
-2.110E-06,0.024
-2.100E-06,0.032
-2.090E-06,0.024
-2.080E-06,0.004
-2.070E-06,-0.016
-2.060E-06,-0.024
-2.050E-06,-0.012
-2.040E-06,0.016
-2.030E-06,0.024
-2.020E-06,0.020
-2.010E-06,0.012
-2.000E-06,-0.004
-1.990E-06,-0.012
-1.980E-06,-0.020
-1.970E-06,-0.008
-1.960E-06,0.000
-1.950E-06,0.016
-1.940E-06,0.020
-1.930E-06,0.012
-1.920E-06,0.008
-1.910E-06,-0.004
-1.900E-06,-0.008
-1.890E-06,-0.012
-1.880E-06,0.000
-1.870E-06,0.008
-1.860E-06,0.024
-1.850E-06,0.012
-1.840E-06,0.008
-1.830E-06,0.000
-1.820E-06,-0.008
-1.810E-06,-0.008
-1.800E-06,-0.004
-1.790E-06,0.012
-1.780E-06,0.024
-1.770E-06,0.016
-1.760E-06,0.004
-1.750E-06,-0.004
-1.740E-06,-0.004
-1.730E-06,0.000
-1.720E-06,0.000
-1.710E-06,0.008
-1.700E-06,0.012
-1.690E-06,0.012
-1.680E-06,0.020
-1.670E-06,0.008
-1.660E-06,0.004
-1.650E-06,-0.004
-1.640E-06,-0.004
-1.630E-06,0.004
-1.620E-06,0.004
-1.610E-06,0.024
-1.600E-06,0.032
-1.590E-06,0.032
-1.580E-06,0.028
-1.570E-06,0.028
-1.560E-06,0.024
-1.550E-06,0.016
-1.540E-06,0.004
-1.530E-06,-0.004
-1.520E-06,-0.012
-1.510E-06,0.004
-1.500E-06,0.024
-1.490E-06,0.032
-1.480E-06,0.024
-1.470E-06,-0.004
-1.460E-06,0.000
-1.450E-06,-0.036
-1.440E-06,-0.016
-1.430E-06,-0.016
-1.420E-06,-0.008
-1.410E-06,0.008
-1.400E-06,-0.016
-1.390E-06,-0.024
-1.380E-06,-0.012
-1.370E-06,-0.008
-1.360E-06,0.000
-1.350E-06,0.008
-1.340E-06,-0.008
-1.330E-06,0.012
-1.320E-06,-0.012
-1.310E-06,0.000
-1.300E-06,0.004
-1.290E-06,0.000
-1.280E-06,-0.004
-1.270E-06,-0.004
-1.260E-06,0.000
-1.250E-06,0.000
-1.240E-06,0.012
-1.230E-06,0.008
-1.220E-06,0.012
-1.210E-06,-0.004
-1.200E-06,0.000
-1.190E-06,0.000
-1.180E-06,0.008
-1.170E-06,0.016
-1.160E-06,0.008
-1.150E-06,0.016
-1.140E-06,0.012
-1.130E-06,0.008
-1.120E-06,0.008
-1.110E-06,0.016
-1.100E-06,0.020
-1.090E-06,0.024
-1.080E-06,0.028
-1.070E-06,0.028
-1.060E-06,0.012
-1.050E-06,0.008
-1.040E-06,0.008
-1.030E-06,0.008
-1.020E-06,0.020
-1.010E-06,0.028
-1.000E-06,0.048
-9.900E-07,0.052
-9.800E-07,0.028
-9.700E-07,0.000
-9.600E-07,-0.016
-9.500E-07,-0.024
-9.400E-07,-0.020
-9.300E-07,0.004
-9.200E-07,0.028
-9.100E-07,0.040
-9.000E-07,0.052
-8.900E-07,0.032
-8.800E-07,-0.024
-8.700E-07,-0.056
-8.600E-07,-0.116
-8.500E-07,-0.088
-8.400E-07,-0.044
-8.300E-07,0.016
-8.200E-07,0.044
-8.100E-07,0.016
-8.000E-07,-0.008
-7.900E-07,-0.040
-7.800E-07,-0.032
-7.700E-07,-0.008
-7.600E-07,0.012
-7.500E-07,0.024
-7.400E-07,0.012
-7.300E-07,0.016
-7.200E-07,0.012
-7.100E-07,0.000
-7.000E-07,0.000
-6.900E-07,-0.008
-6.800E-07,-0.012
-6.700E-07,-0.008
-6.600E-07,0.000
-6.500E-07,0.016
-6.400E-07,0.028
-6.300E-07,0.024
-6.200E-07,0.024
-6.100E-07,0.012
-6.000E-07,-0.008
-5.900E-07,-0.012
-5.800E-07,0.012
-5.700E-07,0.032
-5.600E-07,0.036
-5.500E-07,0.028
-5.400E-07,0.020
-5.300E-07,0.004
-5.200E-07,0.016
-5.100E-07,0.004
-5.000E-07,-0.036
-4.900E-07,-0.040
-4.800E-07,-0.040
-4.700E-07,-0.012
-4.600E-07,0.028
-4.500E-07,0.032
-4.400E-07,0.036
-4.300E-07,0.016
-4.200E-07,-0.016
-4.100E-07,-0.024
-4.000E-07,-0.024
-3.900E-07,0.000
-3.800E-07,0.044
-3.700E-07,0.060
-3.600E-07,0.044
-3.500E-07,0.016
-3.400E-07,-0.008
-3.300E-07,-0.024
-3.200E-07,-0.012
-3.100E-07,0.016
-3.000E-07,0.044
-2.900E-07,0.048
-2.800E-07,0.032
-2.700E-07,0.020
-2.600E-07,0.012
-2.500E-07,0.000
-2.400E-07,0.000
-2.300E-07,0.016
-2.200E-07,0.036
-2.100E-07,0.052
-2.000E-07,0.056
-1.900E-07,0.044
-1.800E-07,0.032
-1.700E-07,0.016
-1.600E-07,0.008
-1.500E-07,0.016
-1.400E-07,0.040
-1.300E-07,0.044
-1.200E-07,0.064
-1.100E-07,0.064
-1.000E-07,0.048
-9.000E-08,0.044
-8.000E-08,0.032
-7.000E-08,0.028
-6.000E-08,0.072
-5.000E-08,-0.224
-4.000E-08,-0.416
-3.000E-08,-0.436
-2.000E-08,-0.104
-1.000E-08,0.256
0.000E+00,0.504
1.000E-08,0.228
2.000E-08,0.004
3.000E-08,-0.232
4.000E-08,-0.304
5.000E-08,-0.332
6.000E-08,0.000
7.000E-08,0.272
8.000E-08,0.260
9.000E-08,0.420
1.000E-07,0.140
1.100E-07,-0.104
1.200E-07,-0.384
1.300E-07,-0.296
1.400E-07,-0.136
1.500E-07,0.188
1.600E-07,0.296
1.700E-07,0.256
1.800E-07,0.136
1.900E-07,-0.076
2.000E-07,-0.132
2.100E-07,-0.184
2.200E-07,-0.064
2.300E-07,0.044
2.400E-07,0.220
2.500E-07,0.236
2.600E-07,0.196
2.700E-07,0.108
2.800E-07,0.004
2.900E-07,-0.068
3.000E-07,-0.104
3.100E-07,-0.108
3.200E-07,-0.088
3.300E-07,-0.028
3.400E-07,0.016
3.500E-07,0.072
3.600E-07,0.048
3.700E-07,0.056
3.800E-07,-0.032
3.900E-07,-0.056
4.000E-07,-0.076
4.100E-07,-0.004
4.200E-07,0.072
4.300E-07,0.088
4.400E-07,0.112
4.500E-07,0.036
4.600E-07,0.000
4.700E-07,-0.056
4.800E-07,-0.032
4.900E-07,-0.004
5.000E-07,0.040
5.100E-07,0.068
5.200E-07,0.088
5.300E-07,0.084
5.400E-07,0.056
5.500E-07,0.052
5.600E-07,0.052
5.700E-07,0.084
5.800E-07,0.088
5.900E-07,0.060
6.000E-07,0.000
6.100E-07,-0.056
6.200E-07,-0.076
6.300E-07,-0.052
6.400E-07,-0.024
6.500E-07,0.008
6.600E-07,0.052
6.700E-07,0.076
6.800E-07,0.104
6.900E-07,0.104
7.000E-07,0.116
7.100E-07,0.128
7.200E-07,0.144
7.300E-07,0.124
7.400E-07,0.068
7.500E-07,-0.004
7.600E-07,-0.044
7.700E-07,-0.024
7.800E-07,0.044
7.900E-07,0.088
8.000E-07,0.136
8.100E-07,0.164
8.200E-07,0.144
8.300E-07,0.116
8.400E-07,0.040
8.500E-07,0.032
8.600E-07,0.008
8.700E-07,0.092
8.800E-07,0.100
8.900E-07,0.136
9.000E-07,0.096
9.100E-07,0.052
9.200E-07,0.044
9.300E-07,0.048
9.400E-07,0.120
9.500E-07,0.176
9.600E-07,0.192
9.700E-07,0.132
9.800E-07,0.036
9.900E-07,-0.248
1.000E-06,-0.452
1.010E-06,-0.508
1.020E-06,-0.400
1.030E-06,-0.088
1.040E-06,0.184
1.050E-06,0.488
1.060E-06,0.540
1.070E-06,0.344
1.080E-06,-0.116
1.090E-06,-0.348
1.100E-06,-0.264
1.110E-06,-0.188
1.120E-06,-0.132
1.130E-06,-0.108
1.140E-06,0.008
1.150E-06,-0.232
1.160E-06,-0.380
1.170E-06,-0.384
1.180E-06,-0.124
1.190E-06,-0.180
1.200E-06,0.020
1.210E-06,0.124
1.220E-06,0.284
1.230E-06,-0.008
1.240E-06,0.036
1.250E-06,-0.152
1.260E-06,-0.208
1.270E-06,-0.148
1.280E-06,-0.176
1.290E-06,0.056
1.300E-06,0.152
1.310E-06,0.256
1.320E-06,0.104
1.330E-06,-0.004
1.340E-06,-0.132
1.350E-06,-0.132
1.360E-06,-0.056
1.370E-06,0.052
1.380E-06,0.196
1.390E-06,0.220
1.400E-06,0.228
1.410E-06,0.104
1.420E-06,0.028
1.430E-06,-0.064
1.440E-06,-0.004
1.450E-06,0.076
1.460E-06,0.204
1.470E-06,0.252
1.480E-06,0.260
1.490E-06,0.196
1.500E-06,0.104
1.510E-06,0.064
1.520E-06,0.056
1.530E-06,0.144
1.540E-06,0.208
1.550E-06,0.300
1.560E-06,0.320
1.570E-06,0.304
1.580E-06,0.228
1.590E-06,0.152
1.600E-06,0.124
1.610E-06,0.132
1.620E-06,0.196
1.630E-06,0.252
1.640E-06,0.296
1.650E-06,0.276
1.660E-06,0.236
1.670E-06,0.176
1.680E-06,0.148
1.690E-06,0.136
1.700E-06,0.180
1.710E-06,0.232
1.720E-06,0.268
1.730E-06,0.268
1.740E-06,0.240
1.750E-06,0.188
1.760E-06,0.148
1.770E-06,0.152
1.780E-06,0.156
1.790E-06,0.184
1.800E-06,0.204
1.810E-06,0.224
1.820E-06,0.220
1.830E-06,0.188
1.840E-06,0.148
1.850E-06,0.088
1.860E-06,0.096
1.870E-06,0.080
1.880E-06,0.120
1.890E-06,0.160
1.900E-06,0.212
1.910E-06,0.184
1.920E-06,0.204
1.930E-06,0.136
1.940E-06,0.144
1.950E-06,0.128
1.960E-06,0.136
1.970E-06,0.172
1.980E-06,0.188
1.990E-06,0.216
2.000E-06,0.212
2.010E-06,0.176
2.020E-06,0.172
2.030E-06,0.172
2.040E-06,0.140
2.050E-06,0.140
2.060E-06,0.168
2.070E-06,0.176
2.080E-06,0.196
2.090E-06,0.204
2.100E-06,0.208
2.110E-06,0.208
2.120E-06,0.224
2.130E-06,0.208
2.140E-06,0.192
2.150E-06,0.200
2.160E-06,0.208
2.170E-06,0.220
2.180E-06,0.228
2.190E-06,0.228
2.200E-06,0.220
2.210E-06,0.208
2.220E-06,0.204
2.230E-06,0.212
2.240E-06,0.208
2.250E-06,0.216
2.260E-06,0.224
2.270E-06,0.224
2.280E-06,0.224
2.290E-06,0.216
2.300E-06,0.208
2.310E-06,0.212
2.320E-06,0.212
2.330E-06,0.220
2.340E-06,0.224
2.350E-06,0.216
2.360E-06,0.220
2.370E-06,0.216
2.380E-06,0.212
2.390E-06,0.212
2.400E-06,0.208
2.410E-06,0.220
2.420E-06,0.216
2.430E-06,0.216
2.440E-06,0.208
2.450E-06,0.220
2.460E-06,0.208
2.470E-06,0.212
2.480E-06,0.208
2.490E-06,0.208
2.500E-06,0.212
2.510E-06,0.208
2.520E-06,0.216
2.530E-06,0.216
2.540E-06,0.212
2.550E-06,0.208
2.560E-06,0.212
2.570E-06,0.208
2.580E-06,0.208
2.590E-06,0.208
2.600E-06,0.212
2.610E-06,0.212
2.620E-06,0.208
2.630E-06,0.208
2.640E-06,0.204
2.650E-06,0.212
2.660E-06,0.204
2.670E-06,0.204
2.680E-06,0.204
2.690E-06,0.204
2.700E-06,0.204
2.710E-06,0.208
2.720E-06,0.200
2.730E-06,0.200
2.740E-06,0.204
2.750E-06,0.196
2.760E-06,0.200
2.770E-06,0.204
2.780E-06,0.200
2.790E-06,0.204
2.800E-06,0.204
2.810E-06,0.204
2.820E-06,0.200
2.830E-06,0.204
2.840E-06,0.200
2.850E-06,0.200
2.860E-06,0.196
2.870E-06,0.196
2.880E-06,0.200
2.890E-06,0.200
2.900E-06,0.200
2.910E-06,0.204
2.920E-06,0.200
2.930E-06,0.200
2.940E-06,0.196
2.950E-06,0.192
2.960E-06,0.192
2.970E-06,0.196
2.980E-06,0.200
2.990E-06,0.200
3.000E-06,0.196
3.010E-06,0.196
3.020E-06,0.196
3.030E-06,0.200
3.040E-06,0.196
3.050E-06,0.192
3.060E-06,0.192
3.070E-06,0.196
3.080E-06,0.196
3.090E-06,0.192
3.100E-06,0.192
3.110E-06,0.196
3.120E-06,0.192
3.130E-06,0.192
3.140E-06,0.192
3.150E-06,0.188
3.160E-06,0.192
3.170E-06,0.192
3.180E-06,0.188
3.190E-06,0.180
3.200E-06,0.184
3.210E-06,0.192
3.220E-06,0.192
3.230E-06,0.188
3.240E-06,0.184
3.250E-06,0.184
3.260E-06,0.188
3.270E-06,0.184
3.280E-06,0.188
3.290E-06,0.180
3.300E-06,0.184
3.310E-06,0.184
3.320E-06,0.184
3.330E-06,0.184
3.340E-06,0.184
3.350E-06,0.184
3.360E-06,0.180
3.370E-06,0.172
3.380E-06,0.176
3.390E-06,0.180
3.400E-06,0.180
3.410E-06,0.176
3.420E-06,0.176
3.430E-06,0.180
3.440E-06,0.180
3.450E-06,0.176
3.460E-06,0.176
3.470E-06,0.168
3.480E-06,0.176
3.490E-06,0.180
3.500E-06,0.180
3.510E-06,0.172
3.520E-06,0.176
3.530E-06,0.172
3.540E-06,0.172
3.550E-06,0.172
3.560E-06,0.172
3.570E-06,0.168
3.580E-06,0.176
3.590E-06,0.172
3.600E-06,0.164
3.610E-06,0.164
3.620E-06,0.168
3.630E-06,0.160
3.640E-06,0.168
3.650E-06,0.164
3.660E-06,0.164
3.670E-06,0.164
3.680E-06,0.168
3.690E-06,0.172
3.700E-06,0.164
3.710E-06,0.168
3.720E-06,0.168
3.730E-06,0.168
3.740E-06,0.168
3.750E-06,0.156
3.760E-06,0.160
3.770E-06,0.164
3.780E-06,0.164
3.790E-06,0.160
3.800E-06,0.156
3.810E-06,0.164
3.820E-06,0.156
3.830E-06,0.160
3.840E-06,0.156
3.850E-06,0.156
3.860E-06,0.156
3.870E-06,0.160
3.880E-06,0.152
3.890E-06,0.160
3.900E-06,0.164
3.910E-06,0.156
3.920E-06,0.152
3.930E-06,0.152
3.940E-06,0.160
3.950E-06,0.160
3.960E-06,0.148
3.970E-06,0.148
3.980E-06,0.152
3.990E-06,0.152
4.000E-06,0.148
4.010E-06,0.152
4.020E-06,0.148
4.030E-06,0.152
4.040E-06,0.148
4.050E-06,0.148
4.060E-06,0.148
4.070E-06,0.152
4.080E-06,0.148
4.090E-06,0.148
4.100E-06,0.144
4.110E-06,0.148
4.120E-06,0.144
4.130E-06,0.144
4.140E-06,0.148
4.150E-06,0.144
4.160E-06,0.144
4.170E-06,0.152
4.180E-06,0.148
4.190E-06,0.148
4.200E-06,0.140
4.210E-06,0.144
4.220E-06,0.144
4.230E-06,0.140
4.240E-06,0.144
4.250E-06,0.140
4.260E-06,0.140
4.270E-06,0.136
4.280E-06,0.140
4.290E-06,0.140
4.300E-06,0.140
4.310E-06,0.140
4.320E-06,0.144
4.330E-06,0.144
4.340E-06,0.140
4.350E-06,0.136
4.360E-06,0.132
4.370E-06,0.132
4.380E-06,0.132
4.390E-06,0.132
4.400E-06,0.136
4.410E-06,0.136
4.420E-06,0.136
4.430E-06,0.132
4.440E-06,0.132
4.450E-06,0.132
4.460E-06,0.136
4.470E-06,0.132
4.480E-06,0.128
4.490E-06,0.128
4.500E-06,0.124
4.510E-06,0.124
4.520E-06,0.128
4.530E-06,0.128
4.540E-06,0.128
4.550E-06,0.124
4.560E-06,0.124
4.570E-06,0.124
4.580E-06,0.120
4.590E-06,0.124
4.600E-06,0.128
4.610E-06,0.124
4.620E-06,0.124
4.630E-06,0.124
4.640E-06,0.124
4.650E-06,0.124
4.660E-06,0.124
4.670E-06,0.120
4.680E-06,0.124
4.690E-06,0.128
4.700E-06,0.128
4.710E-06,0.124
4.720E-06,0.124
4.730E-06,0.124
4.740E-06,0.124
4.750E-06,0.124
4.760E-06,0.124
4.770E-06,0.124
4.780E-06,0.120
4.790E-06,0.116
4.800E-06,0.116
4.810E-06,0.120
4.820E-06,0.120
4.830E-06,0.112
4.840E-06,0.112
4.850E-06,0.112
4.860E-06,0.108
4.870E-06,0.108
4.880E-06,0.112
4.890E-06,0.112
4.900E-06,0.112
4.910E-06,0.104
4.920E-06,0.108
4.930E-06,0.108
4.940E-06,0.108
4.950E-06,0.104
4.960E-06,0.104
4.970E-06,0.108
4.980E-06,0.108
4.990E-06,0.108
5.000E-06,0.108
5.010E-06,0.104
5.020E-06,0.104
5.030E-06,0.108
5.040E-06,0.104
5.050E-06,0.104
5.060E-06,0.104
5.070E-06,0.104
5.080E-06,0.100
5.090E-06,0.100
5.100E-06,0.096
5.110E-06,0.100
5.120E-06,0.100
5.130E-06,0.104
5.140E-06,0.100
5.150E-06,0.100
5.160E-06,0.096
5.170E-06,0.100
5.180E-06,0.100
5.190E-06,0.096
5.200E-06,0.100
5.210E-06,0.096
5.220E-06,0.092
5.230E-06,0.092
5.240E-06,0.092
5.250E-06,0.096
5.260E-06,0.092
5.270E-06,0.088
5.280E-06,0.096
5.290E-06,0.096
5.300E-06,0.092
5.310E-06,0.088
5.320E-06,0.088
5.330E-06,0.092
5.340E-06,0.088
5.350E-06,0.084
5.360E-06,0.088
5.370E-06,0.092
5.380E-06,0.088
5.390E-06,0.088
5.400E-06,0.088
5.410E-06,0.092
5.420E-06,0.088
5.430E-06,0.088
5.440E-06,0.088
5.450E-06,0.084
5.460E-06,0.080
5.470E-06,0.084
5.480E-06,0.084
5.490E-06,0.080
5.500E-06,0.088
5.510E-06,0.080
5.520E-06,0.084
5.530E-06,0.088
5.540E-06,0.084
5.550E-06,0.076
5.560E-06,0.080
5.570E-06,0.076
5.580E-06,0.072
5.590E-06,0.072
5.600E-06,0.072
5.610E-06,0.076
5.620E-06,0.072
5.630E-06,0.076
5.640E-06,0.080
5.650E-06,0.080
5.660E-06,0.072
5.670E-06,0.076
5.680E-06,0.076
5.690E-06,0.072
5.700E-06,0.076
5.710E-06,0.076
5.720E-06,0.076
5.730E-06,0.072
5.740E-06,0.068
5.750E-06,0.068
5.760E-06,0.064
5.770E-06,0.068
5.780E-06,0.072
5.790E-06,0.072
5.800E-06,0.076
5.810E-06,0.068
5.820E-06,0.068
5.830E-06,0.064
5.840E-06,0.064
5.850E-06,0.072
5.860E-06,0.076
5.870E-06,0.068
5.880E-06,0.064
5.890E-06,0.068
5.900E-06,0.060
5.910E-06,0.060
5.920E-06,0.060
5.930E-06,0.060
5.940E-06,0.060
5.950E-06,0.068
5.960E-06,0.068
5.970E-06,0.060
5.980E-06,0.060
5.990E-06,0.056
6.000E-06,0.060
6.010E-06,0.060
6.020E-06,0.064
6.030E-06,0.060
6.040E-06,0.056
6.050E-06,0.060
6.060E-06,0.056
6.070E-06,0.064
6.080E-06,0.056
6.090E-06,0.060
6.100E-06,0.056
6.110E-06,0.056
6.120E-06,0.056
6.130E-06,0.056
6.140E-06,0.060
6.150E-06,0.060
6.160E-06,0.056
6.170E-06,0.060
6.180E-06,0.060
6.190E-06,0.056
6.200E-06,0.056
6.210E-06,0.056
6.220E-06,0.052
6.230E-06,0.056
6.240E-06,0.056
6.250E-06,0.056
6.260E-06,0.060
6.270E-06,0.056
6.280E-06,0.052
6.290E-06,0.052
6.300E-06,0.052
6.310E-06,0.048
6.320E-06,0.052
6.330E-06,0.052
6.340E-06,0.056
6.350E-06,0.052
6.360E-06,0.052
6.370E-06,0.048
6.380E-06,0.052
6.390E-06,0.044
6.400E-06,0.048
6.410E-06,0.048
6.420E-06,0.048
6.430E-06,0.048
6.440E-06,0.044
6.450E-06,0.044
6.460E-06,0.040
6.470E-06,0.044
6.480E-06,0.048
6.490E-06,0.048
6.500E-06,0.044
6.510E-06,0.048
6.520E-06,0.044
6.530E-06,0.048
6.540E-06,0.048
6.550E-06,0.044
6.560E-06,0.048
6.570E-06,0.040
6.580E-06,0.040
6.590E-06,0.044
6.600E-06,0.040
6.610E-06,0.040
6.620E-06,0.044
6.630E-06,0.040
6.640E-06,0.040
6.650E-06,0.036
6.660E-06,0.040
6.670E-06,0.040
6.680E-06,0.048
6.690E-06,0.044
6.700E-06,0.040
6.710E-06,0.036
6.720E-06,0.032
6.730E-06,0.032
6.740E-06,0.032
6.750E-06,0.036
6.760E-06,0.040
6.770E-06,0.036
6.780E-06,0.028
6.790E-06,0.032
6.800E-06,0.032
6.810E-06,0.032
6.820E-06,0.032
6.830E-06,0.032
6.840E-06,0.024
6.850E-06,0.028
6.860E-06,0.028
6.870E-06,0.032
6.880E-06,0.036
6.890E-06,0.036
6.900E-06,0.028
6.910E-06,0.024
6.920E-06,0.024
6.930E-06,0.020
6.940E-06,0.024
6.950E-06,0.028
6.960E-06,0.036
6.970E-06,0.032
6.980E-06,0.028
6.990E-06,0.028
7.000E-06,0.028
7.010E-06,0.024
7.020E-06,0.020
7.030E-06,0.024
7.040E-06,0.028
7.050E-06,0.036
7.060E-06,0.028
7.070E-06,0.020
7.080E-06,0.020
7.090E-06,0.024
7.100E-06,0.024
7.110E-06,0.028
7.120E-06,0.020
7.130E-06,0.024
7.140E-06,0.024
7.150E-06,0.020
7.160E-06,0.024
7.170E-06,0.020
7.180E-06,0.024
7.190E-06,0.020
7.200E-06,0.020
7.210E-06,0.020
7.220E-06,0.024
7.230E-06,0.024
7.240E-06,0.024
7.250E-06,0.020
7.260E-06,0.016
7.270E-06,0.016
7.280E-06,0.016
7.290E-06,0.020
7.300E-06,0.024
7.310E-06,0.016
7.320E-06,0.012
7.330E-06,0.020
7.340E-06,0.008
7.350E-06,0.016
7.360E-06,0.016
7.370E-06,0.016
7.380E-06,0.020
7.390E-06,0.020
7.400E-06,0.016
7.410E-06,0.016
7.420E-06,0.016
7.430E-06,0.016
7.440E-06,0.020
7.450E-06,0.012
7.460E-06,0.008
7.470E-06,0.012
7.480E-06,0.020
7.490E-06,0.016
7.500E-06,0.008
7.510E-06,0.012
7.520E-06,0.012
7.530E-06,0.012
7.540E-06,0.012
7.550E-06,0.008
7.560E-06,0.016
7.570E-06,0.012
7.580E-06,0.012
7.590E-06,0.016
7.600E-06,0.008
7.610E-06,0.012
7.620E-06,0.012
7.630E-06,0.012
7.640E-06,0.012
7.650E-06,0.008
7.660E-06,0.008
7.670E-06,0.008
7.680E-06,0.008
7.690E-06,0.008
7.700E-06,0.008
7.710E-06,0.008
7.720E-06,0.012
7.730E-06,0.008
7.740E-06,0.008
7.750E-06,0.004
7.760E-06,0.000
7.770E-06,0.008
7.780E-06,0.012
7.790E-06,0.012
7.800E-06,0.012
7.810E-06,0.012
