mediciones/Mediciones filtradas (saque las feas)/6-10/15/WaveData5558.csv

#timebase=2000000(ps)
,#voltbase=100000(mv/100)
#size=4000
-4.250E-06,0.008
-4.240E-06,0.008
-4.230E-06,-0.004
-4.220E-06,0.004
-4.210E-06,0.000
-4.200E-06,-0.004
-4.190E-06,-0.004
-4.180E-06,0.000
-4.170E-06,0.004
-4.160E-06,0.004
-4.150E-06,0.004
-4.140E-06,0.008
-4.130E-06,0.004
-4.120E-06,0.000
-4.110E-06,0.012
-4.100E-06,0.000
-4.090E-06,-0.004
-4.080E-06,0.000
-4.070E-06,0.000
-4.060E-06,0.008
-4.050E-06,0.004
-4.040E-06,0.012
-4.030E-06,0.012
-4.020E-06,0.000
-4.010E-06,-0.004
-4.000E-06,-0.004
-3.990E-06,-0.004
-3.980E-06,-0.004
-3.970E-06,0.008
-3.960E-06,0.012
-3.950E-06,0.008
-3.940E-06,0.004
-3.930E-06,-0.004
-3.920E-06,0.004
-3.910E-06,-0.004
-3.900E-06,-0.004
-3.890E-06,0.004
-3.880E-06,0.008
-3.870E-06,0.008
-3.860E-06,0.000
-3.850E-06,0.004
-3.840E-06,0.004
-3.830E-06,0.000
-3.820E-06,0.000
-3.810E-06,0.004
-3.800E-06,-0.004
-3.790E-06,0.008
-3.780E-06,0.000
-3.770E-06,0.012
-3.760E-06,0.000
-3.750E-06,0.000
-3.740E-06,0.004
-3.730E-06,-0.004
-3.720E-06,0.000
-3.710E-06,0.000
-3.700E-06,0.000
-3.690E-06,0.008
-3.680E-06,-0.008
-3.670E-06,0.000
-3.660E-06,0.000
-3.650E-06,0.000
-3.640E-06,0.000
-3.630E-06,0.008
-3.620E-06,0.004
-3.610E-06,0.000
-3.600E-06,0.008
-3.590E-06,0.008
-3.580E-06,0.000
-3.570E-06,0.000
-3.560E-06,0.004
-3.550E-06,0.004
-3.540E-06,0.008
-3.530E-06,0.012
-3.520E-06,0.000
-3.510E-06,0.008
-3.500E-06,0.000
-3.490E-06,0.008
-3.480E-06,0.004
-3.470E-06,0.000
-3.460E-06,0.008
-3.450E-06,-0.004
-3.440E-06,0.008
-3.430E-06,0.008
-3.420E-06,0.008
-3.410E-06,0.008
-3.400E-06,-0.004
-3.390E-06,0.000
-3.380E-06,-0.004
-3.370E-06,0.004
-3.360E-06,0.000
-3.350E-06,0.004
-3.340E-06,0.008
-3.330E-06,0.000
-3.320E-06,0.000
-3.310E-06,0.000
-3.300E-06,-0.004
-3.290E-06,0.008
-3.280E-06,0.012
-3.270E-06,0.008
-3.260E-06,0.008
-3.250E-06,0.008
-3.240E-06,-0.008
-3.230E-06,-0.012
-3.220E-06,0.004
-3.210E-06,0.012
-3.200E-06,0.000
-3.190E-06,0.008
-3.180E-06,0.008
-3.170E-06,-0.008
-3.160E-06,0.004
-3.150E-06,0.008
-3.140E-06,0.004
-3.130E-06,0.008
-3.120E-06,-0.004
-3.110E-06,0.004
-3.100E-06,0.004
-3.090E-06,0.012
-3.080E-06,0.004
-3.070E-06,0.000
-3.060E-06,0.012
-3.050E-06,0.004
-3.040E-06,-0.004
-3.030E-06,-0.008
-3.020E-06,-0.008
-3.010E-06,0.000
-3.000E-06,0.008
-2.990E-06,0.008
-2.980E-06,0.004
-2.970E-06,0.008
-2.960E-06,0.008
-2.950E-06,0.012
-2.940E-06,0.004
-2.930E-06,-0.004
-2.920E-06,0.004
-2.910E-06,0.008
-2.900E-06,0.016
-2.890E-06,0.012
-2.880E-06,-0.004
-2.870E-06,-0.008
-2.860E-06,-0.008
-2.850E-06,0.000
-2.840E-06,0.000
-2.830E-06,0.008
-2.820E-06,0.012
-2.810E-06,0.004
-2.800E-06,0.008
-2.790E-06,0.000
-2.780E-06,-0.008
-2.770E-06,-0.004
-2.760E-06,-0.004
-2.750E-06,-0.004
-2.740E-06,0.004
-2.730E-06,0.008
-2.720E-06,0.008
-2.710E-06,0.000
-2.700E-06,0.000
-2.690E-06,0.004
-2.680E-06,-0.004
-2.670E-06,0.004
-2.660E-06,0.008
-2.650E-06,0.008
-2.640E-06,0.004
-2.630E-06,0.004
-2.620E-06,0.000
-2.610E-06,0.000
-2.600E-06,0.016
-2.590E-06,0.008
-2.580E-06,-0.004
-2.570E-06,-0.004
-2.560E-06,0.000
-2.550E-06,-0.004
-2.540E-06,-0.004
-2.530E-06,0.008
-2.520E-06,0.012
-2.510E-06,0.012
-2.500E-06,0.012
-2.490E-06,0.004
-2.480E-06,-0.004
-2.470E-06,0.004
-2.460E-06,-0.004
-2.450E-06,0.004
-2.440E-06,0.004
-2.430E-06,0.020
-2.420E-06,0.004
-2.410E-06,0.004
-2.400E-06,0.000
-2.390E-06,0.008
-2.380E-06,-0.012
-2.370E-06,-0.004
-2.360E-06,0.012
-2.350E-06,0.016
-2.340E-06,0.008
-2.330E-06,0.004
-2.320E-06,-0.008
-2.310E-06,-0.008
-2.300E-06,0.004
-2.290E-06,0.008
-2.280E-06,0.016
-2.270E-06,0.012
-2.260E-06,0.008
-2.250E-06,0.004
-2.240E-06,0.000
-2.230E-06,-0.004
-2.220E-06,0.000
-2.210E-06,-0.004
-2.200E-06,0.008
-2.190E-06,0.012
-2.180E-06,0.016
-2.170E-06,0.012
-2.160E-06,0.004
-2.150E-06,0.004
-2.140E-06,-0.008
-2.130E-06,-0.004
-2.120E-06,0.000
-2.110E-06,0.004
-2.100E-06,0.012
-2.090E-06,0.020
-2.080E-06,0.008
-2.070E-06,0.008
-2.060E-06,0.000
-2.050E-06,-0.008
-2.040E-06,-0.004
-2.030E-06,-0.008
-2.020E-06,0.008
-2.010E-06,0.020
-2.000E-06,0.024
-1.990E-06,0.008
-1.980E-06,0.000
-1.970E-06,0.004
-1.960E-06,-0.004
-1.950E-06,0.000
-1.940E-06,0.012
-1.930E-06,0.028
-1.920E-06,0.024
-1.910E-06,0.016
-1.900E-06,0.012
-1.890E-06,0.000
-1.880E-06,-0.008
-1.870E-06,-0.020
-1.860E-06,-0.028
-1.850E-06,-0.004
-1.840E-06,0.008
-1.830E-06,0.028
-1.820E-06,0.012
-1.810E-06,0.004
-1.800E-06,-0.004
-1.790E-06,-0.008
-1.780E-06,-0.004
-1.770E-06,0.008
-1.760E-06,0.008
-1.750E-06,0.012
-1.740E-06,-0.004
-1.730E-06,-0.008
-1.720E-06,0.000
-1.710E-06,-0.012
-1.700E-06,0.000
-1.690E-06,0.008
-1.680E-06,0.012
-1.670E-06,0.008
-1.660E-06,0.008
-1.650E-06,0.000
-1.640E-06,-0.004
-1.630E-06,0.000
-1.620E-06,0.004
-1.610E-06,0.012
-1.600E-06,0.016
-1.590E-06,0.004
-1.580E-06,0.008
-1.570E-06,0.008
-1.560E-06,0.004
-1.550E-06,0.008
-1.540E-06,0.020
-1.530E-06,0.024
-1.520E-06,0.028
-1.510E-06,0.000
-1.500E-06,-0.004
-1.490E-06,-0.024
-1.480E-06,-0.012
-1.470E-06,0.012
-1.460E-06,0.040
-1.450E-06,0.040
-1.440E-06,0.044
-1.430E-06,0.036
-1.420E-06,-0.008
-1.410E-06,-0.020
-1.400E-06,-0.024
-1.390E-06,-0.008
-1.380E-06,0.008
-1.370E-06,0.024
-1.360E-06,0.004
-1.350E-06,0.016
-1.340E-06,0.012
-1.330E-06,0.028
-1.320E-06,0.036
-1.310E-06,0.032
-1.300E-06,0.024
-1.290E-06,0.000
-1.280E-06,0.020
-1.270E-06,0.024
-1.260E-06,0.052
-1.250E-06,0.004
-1.240E-06,-0.056
-1.230E-06,-0.096
-1.220E-06,-0.120
-1.210E-06,-0.036
-1.200E-06,0.024
-1.190E-06,0.092
-1.180E-06,0.068
-1.170E-06,0.028
-1.160E-06,-0.032
-1.150E-06,-0.056
-1.140E-06,-0.052
-1.130E-06,-0.016
-1.120E-06,0.024
-1.110E-06,0.044
-1.100E-06,0.060
-1.090E-06,0.036
-1.080E-06,0.012
-1.070E-06,-0.008
-1.060E-06,-0.032
-1.050E-06,-0.028
-1.040E-06,0.004
-1.030E-06,0.028
-1.020E-06,0.052
-1.010E-06,0.048
-1.000E-06,0.048
-9.900E-07,0.028
-9.800E-07,-0.004
-9.700E-07,-0.020
-9.600E-07,-0.052
-9.500E-07,-0.028
-9.400E-07,0.004
-9.300E-07,0.060
-9.200E-07,0.084
-9.100E-07,0.088
-9.000E-07,0.072
-8.900E-07,0.044
-8.800E-07,0.016
-8.700E-07,-0.028
-8.600E-07,-0.040
-8.500E-07,-0.072
-8.400E-07,-0.028
-8.300E-07,0.012
-8.200E-07,0.052
-8.100E-07,0.060
-8.000E-07,0.028
-7.900E-07,-0.008
-7.800E-07,-0.052
-7.700E-07,-0.048
-7.600E-07,-0.008
-7.500E-07,0.040
-7.400E-07,0.076
-7.300E-07,0.088
-7.200E-07,0.072
-7.100E-07,0.036
-7.000E-07,-0.004
-6.900E-07,-0.032
-6.800E-07,-0.040
-6.700E-07,-0.024
-6.600E-07,-0.004
-6.500E-07,0.028
-6.400E-07,0.032
-6.300E-07,0.024
-6.200E-07,0.000
-6.100E-07,-0.008
-6.000E-07,-0.016
-5.900E-07,0.008
-5.800E-07,0.040
-5.700E-07,0.064
-5.600E-07,0.064
-5.500E-07,0.056
-5.400E-07,0.028
-5.300E-07,0.020
-5.200E-07,0.012
-5.100E-07,0.016
-5.000E-07,0.028
-4.900E-07,0.044
-4.800E-07,0.060
-4.700E-07,0.052
-4.600E-07,0.032
-4.500E-07,-0.004
-4.400E-07,-0.012
-4.300E-07,-0.020
-4.200E-07,-0.012
-4.100E-07,0.000
-4.000E-07,0.004
-3.900E-07,0.012
-3.800E-07,0.008
-3.700E-07,0.016
-3.600E-07,0.024
-3.500E-07,0.020
-3.400E-07,0.028
-3.300E-07,0.028
-3.200E-07,0.032
-3.100E-07,0.040
-3.000E-07,0.028
-2.900E-07,0.052
-2.800E-07,0.072
-2.700E-07,0.096
-2.600E-07,0.092
-2.500E-07,0.100
-2.400E-07,0.104
-2.300E-07,0.124
-2.200E-07,0.104
-2.100E-07,0.088
-2.000E-07,0.084
-1.900E-07,0.092
-1.800E-07,0.092
-1.700E-07,0.092
-1.600E-07,0.092
-1.500E-07,0.072
-1.400E-07,0.084
-1.300E-07,0.060
-1.200E-07,0.048
-1.100E-07,0.064
-1.000E-07,0.064
-9.000E-08,0.144
-8.000E-08,0.016
-7.000E-08,0.116
-6.000E-08,-0.024
-5.000E-08,-0.368
-4.000E-08,-0.440
-3.000E-08,-0.512
-2.000E-08,-0.512
-1.000E-08,-0.148
0.000E+00,0.448
1.000E-08,0.540
2.000E-08,0.376
3.000E-08,-0.024
4.000E-08,-0.484
5.000E-08,-0.464
6.000E-08,-0.436
7.000E-08,-0.084
8.000E-08,0.224
9.000E-08,0.380
1.000E-07,0.384
1.100E-07,0.092
1.200E-07,-0.140
1.300E-07,-0.356
1.400E-07,-0.344
1.500E-07,-0.160
1.600E-07,0.076
1.700E-07,0.240
1.800E-07,0.268
1.900E-07,0.140
2.000E-07,-0.020
2.100E-07,-0.156
2.200E-07,-0.216
2.300E-07,-0.176
2.400E-07,-0.036
2.500E-07,0.124
2.600E-07,0.172
2.700E-07,0.176
2.800E-07,0.040
2.900E-07,-0.072
3.000E-07,-0.160
3.100E-07,-0.128
3.200E-07,-0.044
3.300E-07,0.072
3.400E-07,0.148
3.500E-07,0.152
3.600E-07,0.092
3.700E-07,-0.008
3.800E-07,-0.076
3.900E-07,-0.108
4.000E-07,-0.004
4.100E-07,0.076
4.200E-07,0.192
4.300E-07,0.192
4.400E-07,0.180
4.500E-07,0.136
4.600E-07,0.096
4.700E-07,0.124
4.800E-07,0.168
4.900E-07,0.248
5.000E-07,0.284
5.100E-07,0.280
5.200E-07,0.212
5.300E-07,0.188
5.400E-07,0.136
5.500E-07,0.144
5.600E-07,0.164
5.700E-07,0.188
5.800E-07,0.220
5.900E-07,0.216
6.000E-07,0.192
6.100E-07,0.156
6.200E-07,0.140
6.300E-07,0.124
6.400E-07,0.140
6.500E-07,0.172
6.600E-07,0.192
6.700E-07,0.188
6.800E-07,0.176
6.900E-07,0.092
7.000E-07,0.036
7.100E-07,-0.012
7.200E-07,-0.064
7.300E-07,-0.080
7.400E-07,-0.080
7.500E-07,-0.088
7.600E-07,-0.172
7.700E-07,-0.132
7.800E-07,-0.256
7.900E-07,-0.332
8.000E-07,-0.192
8.100E-07,-0.188
8.200E-07,0.004
8.300E-07,-0.024
8.400E-07,0.040
8.500E-07,0.028
8.600E-07,0.124
8.700E-07,0.108
8.800E-07,0.192
8.900E-07,0.324
9.000E-07,0.296
9.100E-07,0.204
9.200E-07,0.072
9.300E-07,0.028
9.400E-07,-0.020
9.500E-07,-0.040
9.600E-07,-0.072
9.700E-07,-0.084
9.800E-07,-0.008
9.900E-07,-0.068
1.000E-06,-0.044
1.010E-06,-0.108
1.020E-06,-0.216
1.030E-06,-0.184
1.040E-06,-0.124
1.050E-06,-0.024
1.060E-06,0.016
1.070E-06,0.056
1.080E-06,0.180
1.090E-06,0.112
1.100E-06,0.140
1.110E-06,0.120
1.120E-06,0.164
1.130E-06,0.156
1.140E-06,0.164
1.150E-06,0.292
1.160E-06,0.240
1.170E-06,0.252
1.180E-06,0.220
1.190E-06,0.176
1.200E-06,0.176
1.210E-06,0.200
1.220E-06,0.232
1.230E-06,0.240
1.240E-06,0.272
1.250E-06,0.252
1.260E-06,0.224
1.270E-06,0.204
1.280E-06,0.188
1.290E-06,0.184
1.300E-06,0.212
1.310E-06,0.232
1.320E-06,0.248
1.330E-06,0.244
1.340E-06,0.228
1.350E-06,0.220
1.360E-06,0.208
1.370E-06,0.196
1.380E-06,0.196
1.390E-06,0.212
1.400E-06,0.212
1.410E-06,0.224
1.420E-06,0.224
1.430E-06,0.220
1.440E-06,0.212
1.450E-06,0.208
1.460E-06,0.208
1.470E-06,0.208
1.480E-06,0.220
1.490E-06,0.220
1.500E-06,0.220
1.510E-06,0.208
1.520E-06,0.204
1.530E-06,0.196
1.540E-06,0.192
1.550E-06,0.196
1.560E-06,0.204
1.570E-06,0.212
1.580E-06,0.208
1.590E-06,0.216
1.600E-06,0.208
1.610E-06,0.200
1.620E-06,0.200
1.630E-06,0.192
1.640E-06,0.204
1.650E-06,0.204
1.660E-06,0.216
1.670E-06,0.220
1.680E-06,0.216
1.690E-06,0.208
1.700E-06,0.200
1.710E-06,0.204
1.720E-06,0.200
1.730E-06,0.216
1.740E-06,0.220
1.750E-06,0.224
1.760E-06,0.220
1.770E-06,0.208
1.780E-06,0.204
1.790E-06,0.200
1.800E-06,0.204
1.810E-06,0.212
1.820E-06,0.220
1.830E-06,0.220
1.840E-06,0.224
1.850E-06,0.208
1.860E-06,0.208
1.870E-06,0.200
1.880E-06,0.204
1.890E-06,0.208
1.900E-06,0.216
1.910E-06,0.220
1.920E-06,0.216
1.930E-06,0.208
1.940E-06,0.204
1.950E-06,0.204
1.960E-06,0.208
1.970E-06,0.212
1.980E-06,0.208
1.990E-06,0.212
2.000E-06,0.220
2.010E-06,0.212
2.020E-06,0.208
2.030E-06,0.208
2.040E-06,0.208
2.050E-06,0.204
2.060E-06,0.204
2.070E-06,0.208
2.080E-06,0.204
2.090E-06,0.204
2.100E-06,0.196
2.110E-06,0.196
2.120E-06,0.200
2.130E-06,0.204
2.140E-06,0.204
2.150E-06,0.208
2.160E-06,0.204
2.170E-06,0.200
2.180E-06,0.204
2.190E-06,0.200
2.200E-06,0.196
2.210E-06,0.196
2.220E-06,0.196
2.230E-06,0.196
2.240E-06,0.192
2.250E-06,0.200
2.260E-06,0.196
2.270E-06,0.200
2.280E-06,0.204
2.290E-06,0.204
2.300E-06,0.196
2.310E-06,0.196
2.320E-06,0.200
2.330E-06,0.204
2.340E-06,0.196
2.350E-06,0.200
2.360E-06,0.200
2.370E-06,0.196
2.380E-06,0.192
2.390E-06,0.196
2.400E-06,0.192
2.410E-06,0.188
2.420E-06,0.192
2.430E-06,0.192
2.440E-06,0.192
2.450E-06,0.188
2.460E-06,0.188
2.470E-06,0.192
2.480E-06,0.188
2.490E-06,0.188
2.500E-06,0.188
2.510E-06,0.192
2.520E-06,0.196
2.530E-06,0.188
2.540E-06,0.184
2.550E-06,0.180
2.560E-06,0.184
2.570E-06,0.188
2.580E-06,0.184
2.590E-06,0.192
2.600E-06,0.184
2.610E-06,0.192
2.620E-06,0.176
2.630E-06,0.176
2.640E-06,0.184
2.650E-06,0.176
2.660E-06,0.184
2.670E-06,0.184
2.680E-06,0.184
2.690E-06,0.192
2.700E-06,0.188
2.710E-06,0.180
2.720E-06,0.184
2.730E-06,0.176
2.740E-06,0.168
2.750E-06,0.176
2.760E-06,0.188
2.770E-06,0.188
2.780E-06,0.192
2.790E-06,0.184
2.800E-06,0.184
2.810E-06,0.164
2.820E-06,0.176
2.830E-06,0.168
2.840E-06,0.176
2.850E-06,0.184
2.860E-06,0.180
2.870E-06,0.180
2.880E-06,0.176
2.890E-06,0.168
2.900E-06,0.172
2.910E-06,0.176
2.920E-06,0.176
2.930E-06,0.180
2.940E-06,0.176
2.950E-06,0.176
2.960E-06,0.172
2.970E-06,0.164
2.980E-06,0.164
2.990E-06,0.164
3.000E-06,0.168
3.010E-06,0.172
3.020E-06,0.168
3.030E-06,0.172
3.040E-06,0.168
3.050E-06,0.160
3.060E-06,0.164
3.070E-06,0.160
3.080E-06,0.160
3.090E-06,0.160
3.100E-06,0.164
3.110E-06,0.176
3.120E-06,0.184
3.130E-06,0.188
3.140E-06,0.184
3.150E-06,0.180
3.160E-06,0.168
3.170E-06,0.160
3.180E-06,0.156
3.190E-06,0.156
3.200E-06,0.164
3.210E-06,0.172
3.220E-06,0.168
3.230E-06,0.168
3.240E-06,0.160
3.250E-06,0.148
3.260E-06,0.144
3.270E-06,0.152
3.280E-06,0.152
3.290E-06,0.160
3.300E-06,0.164
3.310E-06,0.164
3.320E-06,0.152
3.330E-06,0.144
3.340E-06,0.140
3.350E-06,0.148
3.360E-06,0.148
3.370E-06,0.160
3.380E-06,0.160
3.390E-06,0.164
3.400E-06,0.152
3.410E-06,0.144
3.420E-06,0.144
3.430E-06,0.140
3.440E-06,0.140
3.450E-06,0.144
3.460E-06,0.148
3.470E-06,0.148
3.480E-06,0.152
3.490E-06,0.144
3.500E-06,0.140
3.510E-06,0.136
3.520E-06,0.136
3.530E-06,0.136
3.540E-06,0.140
3.550E-06,0.144
3.560E-06,0.152
3.570E-06,0.152
3.580E-06,0.144
3.590E-06,0.140
3.600E-06,0.136
3.610E-06,0.144
3.620E-06,0.136
3.630E-06,0.140
3.640E-06,0.144
3.650E-06,0.144
3.660E-06,0.144
3.670E-06,0.140
3.680E-06,0.132
3.690E-06,0.132
3.700E-06,0.128
3.710E-06,0.136
3.720E-06,0.136
3.730E-06,0.136
3.740E-06,0.136
3.750E-06,0.136
3.760E-06,0.132
3.770E-06,0.128
3.780E-06,0.124
3.790E-06,0.124
3.800E-06,0.132
3.810E-06,0.128
3.820E-06,0.132
3.830E-06,0.128
3.840E-06,0.128
3.850E-06,0.128
3.860E-06,0.124
3.870E-06,0.128
3.880E-06,0.128
3.890E-06,0.128
3.900E-06,0.128
3.910E-06,0.128
3.920E-06,0.124
3.930E-06,0.124
3.940E-06,0.120
3.950E-06,0.120
3.960E-06,0.124
3.970E-06,0.128
3.980E-06,0.124
3.990E-06,0.124
4.000E-06,0.124
4.010E-06,0.124
4.020E-06,0.124
4.030E-06,0.128
4.040E-06,0.124
4.050E-06,0.124
4.060E-06,0.124
4.070E-06,0.128
4.080E-06,0.128
4.090E-06,0.120
4.100E-06,0.120
4.110E-06,0.124
4.120E-06,0.120
4.130E-06,0.120
4.140E-06,0.112
4.150E-06,0.112
4.160E-06,0.120
4.170E-06,0.124
4.180E-06,0.124
4.190E-06,0.112
4.200E-06,0.116
4.210E-06,0.108
4.220E-06,0.108
4.230E-06,0.116
4.240E-06,0.120
4.250E-06,0.124
4.260E-06,0.108
4.270E-06,0.108
4.280E-06,0.108
4.290E-06,0.108
4.300E-06,0.108
4.310E-06,0.108
4.320E-06,0.112
4.330E-06,0.112
4.340E-06,0.108
4.350E-06,0.108
4.360E-06,0.108
4.370E-06,0.104
4.380E-06,0.104
4.390E-06,0.108
4.400E-06,0.108
4.410E-06,0.100
4.420E-06,0.108
4.430E-06,0.096
4.440E-06,0.100
4.450E-06,0.100
4.460E-06,0.096
4.470E-06,0.100
4.480E-06,0.100
4.490E-06,0.100
4.500E-06,0.096
4.510E-06,0.096
4.520E-06,0.088
4.530E-06,0.092
4.540E-06,0.088
4.550E-06,0.096
4.560E-06,0.096
4.570E-06,0.092
4.580E-06,0.096
4.590E-06,0.092
4.600E-06,0.092
4.610E-06,0.092
4.620E-06,0.088
4.630E-06,0.088
4.640E-06,0.092
4.650E-06,0.092
4.660E-06,0.092
4.670E-06,0.092
4.680E-06,0.092
4.690E-06,0.088
4.700E-06,0.092
4.710E-06,0.088
4.720E-06,0.092
4.730E-06,0.096
4.740E-06,0.088
4.750E-06,0.092
4.760E-06,0.088
4.770E-06,0.080
4.780E-06,0.084
4.790E-06,0.084
4.800E-06,0.092
4.810E-06,0.088
4.820E-06,0.088
4.830E-06,0.092
4.840E-06,0.088
4.850E-06,0.084
4.860E-06,0.080
4.870E-06,0.080
4.880E-06,0.084
4.890E-06,0.080
4.900E-06,0.084
4.910E-06,0.088
4.920E-06,0.080
4.930E-06,0.080
4.940E-06,0.072
4.950E-06,0.076
4.960E-06,0.072
4.970E-06,0.076
4.980E-06,0.072
4.990E-06,0.080
5.000E-06,0.076
5.010E-06,0.072
5.020E-06,0.076
5.030E-06,0.076
5.040E-06,0.072
5.050E-06,0.068
5.060E-06,0.072
5.070E-06,0.072
5.080E-06,0.068
5.090E-06,0.068
5.100E-06,0.076
5.110E-06,0.076
5.120E-06,0.068
5.130E-06,0.068
5.140E-06,0.064
5.150E-06,0.068
5.160E-06,0.076
5.170E-06,0.072
5.180E-06,0.072
5.190E-06,0.072
5.200E-06,0.068
5.210E-06,0.064
5.220E-06,0.064
5.230E-06,0.064
5.240E-06,0.068
5.250E-06,0.068
5.260E-06,0.064
5.270E-06,0.068
5.280E-06,0.068
5.290E-06,0.064
5.300E-06,0.060
5.310E-06,0.060
5.320E-06,0.068
5.330E-06,0.064
5.340E-06,0.068
5.350E-06,0.064
5.360E-06,0.064
5.370E-06,0.060
5.380E-06,0.056
5.390E-06,0.064
5.400E-06,0.060
5.410E-06,0.060
5.420E-06,0.060
5.430E-06,0.060
5.440E-06,0.060
5.450E-06,0.060
5.460E-06,0.060
5.470E-06,0.056
5.480E-06,0.056
5.490E-06,0.060
5.500E-06,0.060
5.510E-06,0.068
5.520E-06,0.056
5.530E-06,0.060
5.540E-06,0.052
5.550E-06,0.052
5.560E-06,0.056
5.570E-06,0.048
5.580E-06,0.068
5.590E-06,0.056
5.600E-06,0.056
5.610E-06,0.056
5.620E-06,0.056
5.630E-06,0.052
5.640E-06,0.052
5.650E-06,0.052
5.660E-06,0.052
5.670E-06,0.056
5.680E-06,0.052
5.690E-06,0.052
5.700E-06,0.056
5.710E-06,0.056
5.720E-06,0.052
5.730E-06,0.052
5.740E-06,0.044
5.750E-06,0.044
5.760E-06,0.040
5.770E-06,0.044
5.780E-06,0.048
5.790E-06,0.056
5.800E-06,0.056
5.810E-06,0.044
5.820E-06,0.040
5.830E-06,0.040
5.840E-06,0.044
5.850E-06,0.044
5.860E-06,0.044
5.870E-06,0.048
5.880E-06,0.040
5.890E-06,0.036
5.900E-06,0.028
5.910E-06,0.036
5.920E-06,0.040
5.930E-06,0.040
5.940E-06,0.044
5.950E-06,0.044
5.960E-06,0.032
5.970E-06,0.028
5.980E-06,0.028
5.990E-06,0.032
6.000E-06,0.044
6.010E-06,0.048
6.020E-06,0.044
6.030E-06,0.040
6.040E-06,0.028
6.050E-06,0.020
6.060E-06,0.024
6.070E-06,0.020
6.080E-06,0.032
6.090E-06,0.036
6.100E-06,0.044
6.110E-06,0.040
6.120E-06,0.032
6.130E-06,0.024
6.140E-06,0.028
6.150E-06,0.020
6.160E-06,0.028
6.170E-06,0.028
6.180E-06,0.036
6.190E-06,0.036
6.200E-06,0.028
6.210E-06,0.024
6.220E-06,0.028
6.230E-06,0.028
6.240E-06,0.024
6.250E-06,0.032
6.260E-06,0.036
6.270E-06,0.032
6.280E-06,0.028
6.290E-06,0.032
6.300E-06,0.024
6.310E-06,0.016
6.320E-06,0.024
6.330E-06,0.020
6.340E-06,0.028
6.350E-06,0.028
6.360E-06,0.032
6.370E-06,0.024
6.380E-06,0.028
6.390E-06,0.020
6.400E-06,0.024
6.410E-06,0.024
6.420E-06,0.028
6.430E-06,0.028
6.440E-06,0.020
6.450E-06,0.024
6.460E-06,0.024
6.470E-06,0.024
6.480E-06,0.020
6.490E-06,0.020
6.500E-06,0.020
6.510E-06,0.024
6.520E-06,0.020
6.530E-06,0.024
6.540E-06,0.016
6.550E-06,0.016
6.560E-06,0.020
6.570E-06,0.020
6.580E-06,0.024
6.590E-06,0.020
6.600E-06,0.016
6.610E-06,0.020
6.620E-06,0.012
6.630E-06,0.024
6.640E-06,0.012
6.650E-06,0.020
6.660E-06,0.024
6.670E-06,0.016
6.680E-06,0.020
6.690E-06,0.012
6.700E-06,0.012
6.710E-06,0.008
6.720E-06,0.012
6.730E-06,0.016
6.740E-06,0.016
6.750E-06,0.008
6.760E-06,0.016
6.770E-06,0.012
6.780E-06,0.012
6.790E-06,0.012
6.800E-06,0.012
6.810E-06,0.012
6.820E-06,0.012
6.830E-06,0.012
6.840E-06,0.016
6.850E-06,0.012
6.860E-06,0.012
6.870E-06,0.012
6.880E-06,0.012
6.890E-06,0.004
6.900E-06,0.008
6.910E-06,0.008
6.920E-06,0.012
6.930E-06,0.012
6.940E-06,0.008
6.950E-06,0.004
6.960E-06,0.008
6.970E-06,0.004
6.980E-06,0.008
6.990E-06,0.008
7.000E-06,0.008
7.010E-06,0.008
7.020E-06,0.008
7.030E-06,0.008
7.040E-06,0.000
7.050E-06,0.000
7.060E-06,0.004
7.070E-06,0.000
7.080E-06,0.000
7.090E-06,0.004
7.100E-06,0.012
7.110E-06,0.004
7.120E-06,0.008
7.130E-06,0.008
7.140E-06,0.012
7.150E-06,0.008
7.160E-06,0.004
7.170E-06,0.000
7.180E-06,0.000
7.190E-06,0.000
7.200E-06,0.004
7.210E-06,0.004
7.220E-06,0.004
7.230E-06,0.000
7.240E-06,0.004
7.250E-06,0.000
7.260E-06,0.000
7.270E-06,0.000
7.280E-06,0.000
7.290E-06,0.000
7.300E-06,-0.004
7.310E-06,0.000
7.320E-06,0.000
7.330E-06,0.000
7.340E-06,-0.004
7.350E-06,0.000
7.360E-06,0.000
7.370E-06,-0.004
7.380E-06,0.000
7.390E-06,0.000
7.400E-06,0.000
7.410E-06,0.000
7.420E-06,-0.008
7.430E-06,-0.008
7.440E-06,0.000
7.450E-06,-0.004
7.460E-06,0.000
7.470E-06,0.000
7.480E-06,0.000
7.490E-06,-0.004
7.500E-06,0.000
7.510E-06,0.000
7.520E-06,-0.004
7.530E-06,-0.004
7.540E-06,-0.004
7.550E-06,-0.004
7.560E-06,0.000
7.570E-06,-0.004
7.580E-06,-0.008
7.590E-06,-0.008
7.600E-06,-0.008
7.610E-06,0.000
7.620E-06,-0.004
7.630E-06,-0.004
7.640E-06,-0.004
7.650E-06,-0.004
7.660E-06,-0.008
7.670E-06,-0.004
7.680E-06,-0.004
7.690E-06,-0.008
7.700E-06,-0.008
7.710E-06,-0.008
7.720E-06,-0.008
7.730E-06,-0.012
7.740E-06,-0.008
7.750E-06,-0.008
7.760E-06,-0.012
7.770E-06,-0.004
7.780E-06,-0.004
7.790E-06,-0.008
7.800E-06,-0.012
7.810E-06,-0.016
