mediciones/6-10/10/WaveData5565.csv

#timebase=2000000(ps)
,#voltbase=200000(mv/100)
#size=4000
-4.250E-06,-0.008
-4.240E-06,0.000
-4.230E-06,0.000
-4.220E-06,0.000
-4.210E-06,0.000
-4.200E-06,0.008
-4.190E-06,0.008
-4.180E-06,0.008
-4.170E-06,-0.008
-4.160E-06,-0.008
-4.150E-06,0.000
-4.140E-06,0.008
-4.130E-06,0.008
-4.120E-06,-0.008
-4.110E-06,-0.008
-4.100E-06,0.000
-4.090E-06,0.008
-4.080E-06,0.008
-4.070E-06,0.008
-4.060E-06,0.008
-4.050E-06,-0.008
-4.040E-06,-0.008
-4.030E-06,0.000
-4.020E-06,-0.008
-4.010E-06,0.000
-4.000E-06,0.000
-3.990E-06,0.000
-3.980E-06,0.000
-3.970E-06,-0.008
-3.960E-06,-0.008
-3.950E-06,0.000
-3.940E-06,-0.008
-3.930E-06,0.000
-3.920E-06,-0.008
-3.910E-06,0.000
-3.900E-06,-0.008
-3.890E-06,0.000
-3.880E-06,-0.008
-3.870E-06,0.000
-3.860E-06,0.000
-3.850E-06,0.000
-3.840E-06,0.008
-3.830E-06,0.008
-3.820E-06,-0.008
-3.810E-06,0.000
-3.800E-06,0.000
-3.790E-06,0.000
-3.780E-06,0.000
-3.770E-06,0.000
-3.760E-06,0.008
-3.750E-06,-0.008
-3.740E-06,0.000
-3.730E-06,0.000
-3.720E-06,0.000
-3.710E-06,-0.008
-3.700E-06,-0.008
-3.690E-06,0.000
-3.680E-06,-0.008
-3.670E-06,0.000
-3.660E-06,-0.008
-3.650E-06,0.000
-3.640E-06,0.000
-3.630E-06,0.000
-3.620E-06,0.000
-3.610E-06,0.000
-3.600E-06,0.000
-3.590E-06,0.000
-3.580E-06,0.000
-3.570E-06,0.008
-3.560E-06,-0.008
-3.550E-06,0.000
-3.540E-06,0.000
-3.530E-06,0.000
-3.520E-06,0.000
-3.510E-06,-0.008
-3.500E-06,0.000
-3.490E-06,0.008
-3.480E-06,-0.008
-3.470E-06,-0.008
-3.460E-06,0.000
-3.450E-06,-0.008
-3.440E-06,0.000
-3.430E-06,0.000
-3.420E-06,0.000
-3.410E-06,0.000
-3.400E-06,0.000
-3.390E-06,0.000
-3.380E-06,0.000
-3.370E-06,0.000
-3.360E-06,0.000
-3.350E-06,0.008
-3.340E-06,-0.008
-3.330E-06,-0.008
-3.320E-06,0.000
-3.310E-06,0.008
-3.300E-06,-0.008
-3.290E-06,0.000
-3.280E-06,0.000
-3.270E-06,0.000
-3.260E-06,0.008
-3.250E-06,-0.008
-3.240E-06,0.000
-3.230E-06,0.000
-3.220E-06,0.000
-3.210E-06,0.000
-3.200E-06,0.008
-3.190E-06,0.008
-3.180E-06,-0.008
-3.170E-06,-0.008
-3.160E-06,0.000
-3.150E-06,-0.008
-3.140E-06,0.000
-3.130E-06,0.000
-3.120E-06,0.000
-3.110E-06,0.000
-3.100E-06,0.000
-3.090E-06,0.000
-3.080E-06,0.000
-3.070E-06,0.000
-3.060E-06,0.000
-3.050E-06,0.000
-3.040E-06,0.000
-3.030E-06,0.000
-3.020E-06,-0.008
-3.010E-06,0.000
-3.000E-06,0.000
-2.990E-06,0.000
-2.980E-06,0.000
-2.970E-06,-0.008
-2.960E-06,0.000
-2.950E-06,-0.008
-2.940E-06,0.000
-2.930E-06,0.008
-2.920E-06,0.008
-2.910E-06,-0.008
-2.900E-06,-0.008
-2.890E-06,0.000
-2.880E-06,0.008
-2.870E-06,-0.008
-2.860E-06,-0.008
-2.850E-06,0.000
-2.840E-06,-0.008
-2.830E-06,-0.008
-2.820E-06,0.000
-2.810E-06,0.000
-2.800E-06,0.000
-2.790E-06,0.000
-2.780E-06,0.000
-2.770E-06,0.000
-2.760E-06,0.008
-2.750E-06,0.008
-2.740E-06,0.008
-2.730E-06,-0.008
-2.720E-06,0.000
-2.710E-06,0.000
-2.700E-06,0.000
-2.690E-06,0.000
-2.680E-06,0.000
-2.670E-06,0.000
-2.660E-06,-0.008
-2.650E-06,-0.024
-2.640E-06,0.072
-2.630E-06,0.376
-2.620E-06,1.016
-2.610E-06,1.080
-2.600E-06,1.080
-2.590E-06,1.080
-2.580E-06,1.072
-2.570E-06,0.912
-2.560E-06,-0.240
-2.550E-06,-1.040
-2.540E-06,-1.040
-2.530E-06,-1.040
-2.520E-06,-1.040
-2.510E-06,-1.040
-2.500E-06,-1.040
-2.490E-06,-1.048
-2.480E-06,-1.040
-2.470E-06,-1.032
-2.460E-06,-0.808
-2.450E-06,-0.072
-2.440E-06,0.216
-2.430E-06,0.216
-2.420E-06,0.224
-2.410E-06,0.080
-2.400E-06,0.152
-2.390E-06,0.296
-2.380E-06,0.368
-2.370E-06,0.472
-2.360E-06,0.632
-2.350E-06,0.776
-2.340E-06,0.904
-2.330E-06,1.072
-2.320E-06,1.080
-2.310E-06,1.048
-2.300E-06,0.952
-2.290E-06,0.616
-2.280E-06,0.320
-2.270E-06,0.120
-2.260E-06,-0.144
-2.250E-06,-0.304
-2.240E-06,-0.456
-2.230E-06,-0.632
-2.220E-06,-0.688
-2.210E-06,-0.624
-2.200E-06,-0.448
-2.190E-06,-0.136
-2.180E-06,0.152
-2.170E-06,0.392
-2.160E-06,0.584
-2.150E-06,0.656
-2.140E-06,0.688
-2.130E-06,0.664
-2.120E-06,0.624
-2.110E-06,0.504
-2.100E-06,0.392
-2.090E-06,0.296
-2.080E-06,0.136
-2.070E-06,0.064
-2.060E-06,-0.040
-2.050E-06,-0.208
-2.040E-06,-0.336
-2.030E-06,-0.544
-2.020E-06,-0.728
-2.010E-06,-0.848
-2.000E-06,-0.936
-1.990E-06,-0.968
-1.980E-06,-0.976
-1.970E-06,-1.024
-1.960E-06,-0.952
-1.950E-06,-0.864
-1.940E-06,-0.728
-1.930E-06,-0.496
-1.920E-06,-0.272
-1.910E-06,-0.024
-1.900E-06,0.192
-1.890E-06,0.384
-1.880E-06,0.528
-1.870E-06,0.632
-1.860E-06,0.776
-1.850E-06,0.640
-1.840E-06,0.928
-1.830E-06,0.352
-1.820E-06,0.504
-1.810E-06,0.456
-1.800E-06,0.032
-1.790E-06,0.552
-1.780E-06,0.272
-1.770E-06,0.120
-1.760E-06,0.168
-1.750E-06,-0.144
-1.740E-06,-0.144
-1.730E-06,-0.032
-1.720E-06,-0.128
-1.710E-06,-0.040
-1.700E-06,-0.176
-1.690E-06,-0.352
-1.680E-06,-0.360
-1.670E-06,-0.360
-1.660E-06,-0.232
-1.650E-06,-0.184
-1.640E-06,0.064
-1.630E-06,0.072
-1.620E-06,0.024
-1.610E-06,0.120
-1.600E-06,0.248
-1.590E-06,0.392
-1.580E-06,0.424
-1.570E-06,0.520
-1.560E-06,0.376
-1.550E-06,0.216
-1.540E-06,0.128
-1.530E-06,0.104
-1.520E-06,0.192
-1.510E-06,0.192
-1.500E-06,0.128
-1.490E-06,0.024
-1.480E-06,-0.112
-1.470E-06,-0.200
-1.460E-06,-0.160
-1.450E-06,-0.152
-1.440E-06,-0.088
-1.430E-06,-0.136
-1.420E-06,-0.184
-1.410E-06,-0.232
-1.400E-06,-0.264
-1.390E-06,-0.200
-1.380E-06,-0.176
-1.370E-06,-0.136
-1.360E-06,-0.136
-1.350E-06,-0.192
-1.340E-06,-0.152
-1.330E-06,-0.104
-1.320E-06,-0.048
-1.310E-06,0.016
-1.300E-06,0.072
-1.290E-06,0.064
-1.280E-06,0.088
-1.270E-06,0.104
-1.260E-06,0.128
-1.250E-06,0.168
-1.240E-06,0.184
-1.230E-06,0.200
-1.220E-06,0.200
-1.210E-06,0.184
-1.200E-06,0.184
-1.190E-06,0.208
-1.180E-06,0.192
-1.170E-06,0.192
-1.160E-06,0.168
-1.150E-06,0.104
-1.140E-06,0.088
-1.130E-06,0.088
-1.120E-06,0.064
-1.110E-06,0.096
-1.100E-06,0.072
-1.090E-06,0.040
-1.080E-06,0.000
-1.070E-06,-0.032
-1.060E-06,-0.016
-1.050E-06,-0.008
-1.040E-06,0.008
-1.030E-06,0.016
-1.020E-06,0.032
-1.010E-06,0.024
-1.000E-06,0.064
-9.900E-07,0.096
-9.800E-07,0.096
-9.700E-07,0.144
-9.600E-07,0.136
-9.500E-07,0.112
-9.400E-07,0.096
-9.300E-07,0.104
-9.200E-07,0.080
-9.100E-07,0.112
-9.000E-07,0.000
-8.900E-07,0.000
-8.800E-07,-0.096
-8.700E-07,-0.112
-8.600E-07,-0.008
-8.500E-07,-0.064
-8.400E-07,0.048
-8.300E-07,-0.016
-8.200E-07,0.008
-8.100E-07,0.040
-8.000E-07,0.048
-7.900E-07,0.200
-7.800E-07,0.200
-7.700E-07,0.248
-7.600E-07,0.192
-7.500E-07,0.240
-7.400E-07,0.184
-7.300E-07,0.048
-7.200E-07,-0.080
-7.100E-07,-0.120
-7.000E-07,0.088
-6.900E-07,0.200
-6.800E-07,0.464
-6.700E-07,0.440
-6.600E-07,0.328
-6.500E-07,0.144
-6.400E-07,0.008
-6.300E-07,0.160
-6.200E-07,0.272
-6.100E-07,0.264
-6.000E-07,0.424
-5.900E-07,0.296
-5.800E-07,0.128
-5.700E-07,0.104
-5.600E-07,0.072
-5.500E-07,0.200
-5.400E-07,0.256
-5.300E-07,0.272
-5.200E-07,0.320
-5.100E-07,0.136
-5.000E-07,0.216
-4.900E-07,0.384
-4.800E-07,0.208
-4.700E-07,0.352
-4.600E-07,0.328
-4.500E-07,0.088
-4.400E-07,0.104
-4.300E-07,0.128
-4.200E-07,0.160
-4.100E-07,0.368
-4.000E-07,0.264
-3.900E-07,0.008
-3.800E-07,-0.312
-3.700E-07,-0.864
-3.600E-07,-1.040
-3.500E-07,-1.048
-3.400E-07,-1.040
-3.300E-07,-0.688
-3.200E-07,-0.200
-3.100E-07,0.200
-3.000E-07,0.576
-2.900E-07,0.800
-2.800E-07,0.864
-2.700E-07,0.888
-2.600E-07,0.800
-2.500E-07,0.720
-2.400E-07,0.752
-2.300E-07,0.840
-2.200E-07,0.944
-2.100E-07,1.072
-2.000E-07,1.072
-1.900E-07,1.024
-1.800E-07,0.824
-1.700E-07,0.664
-1.600E-07,0.464
-1.500E-07,0.464
-1.400E-07,0.224
-1.300E-07,0.376
-1.200E-07,0.040
-1.100E-07,-0.136
-1.000E-07,-0.248
-9.000E-08,-0.512
-8.000E-08,-0.328
-7.000E-08,-0.400
-6.000E-08,-0.232
-5.000E-08,-0.264
-4.000E-08,-0.328
-3.000E-08,-0.600
-2.000E-08,-0.960
-1.000E-08,-0.824
0.000E+00,-0.304
1.000E-08,0.072
2.000E-08,1.064
3.000E-08,0.928
4.000E-08,0.672
5.000E-08,0.312
6.000E-08,-0.488
7.000E-08,-0.272
8.000E-08,-0.008
9.000E-08,0.440
1.000E-07,0.736
1.100E-07,0.408
1.200E-07,0.240
1.300E-07,0.128
1.400E-07,0.040
1.500E-07,-0.136
1.600E-07,-0.104
1.700E-07,-0.080
1.800E-07,-0.208
1.900E-07,0.088
2.000E-07,0.264
2.100E-07,0.440
2.200E-07,0.472
2.300E-07,0.456
2.400E-07,0.400
2.500E-07,0.560
2.600E-07,0.848
2.700E-07,1.016
2.800E-07,1.072
2.900E-07,1.080
3.000E-07,1.056
3.100E-07,1.080
3.200E-07,0.936
3.300E-07,1.040
3.400E-07,1.056
3.500E-07,0.888
3.600E-07,0.928
3.700E-07,0.720
3.800E-07,0.640
3.900E-07,0.408
4.000E-07,0.232
4.100E-07,0.168
4.200E-07,-0.192
4.300E-07,-0.184
4.400E-07,-0.392
4.500E-07,-0.432
4.600E-07,-0.224
4.700E-07,-0.136
4.800E-07,0.080
4.900E-07,0.056
5.000E-07,0.088
5.100E-07,0.000
5.200E-07,-0.056
5.300E-07,0.200
5.400E-07,0.144
5.500E-07,0.424
5.600E-07,0.600
5.700E-07,0.432
5.800E-07,0.472
5.900E-07,0.280
6.000E-07,0.192
6.100E-07,0.320
6.200E-07,0.320
6.300E-07,0.400
6.400E-07,0.360
6.500E-07,0.184
6.600E-07,0.032
6.700E-07,-0.072
6.800E-07,-0.168
6.900E-07,-0.200
7.000E-07,-0.128
7.100E-07,-0.200
7.200E-07,-0.200
7.300E-07,-0.160
7.400E-07,-0.176
7.500E-07,-0.120
7.600E-07,-0.072
7.700E-07,-0.064
7.800E-07,-0.024
7.900E-07,0.080
8.000E-07,0.168
8.100E-07,0.304
8.200E-07,0.408
8.300E-07,0.416
8.400E-07,0.384
8.500E-07,0.336
8.600E-07,0.192
8.700E-07,0.048
8.800E-07,0.144
8.900E-07,0.200
9.000E-07,0.528
9.100E-07,1.000
9.200E-07,0.760
9.300E-07,0.472
9.400E-07,0.096
9.500E-07,0.016
9.600E-07,0.088
9.700E-07,-0.032
9.800E-07,0.144
9.900E-07,-0.040
1.000E-06,-0.024
1.010E-06,-0.232
1.020E-06,0.016
1.030E-06,-0.032
1.040E-06,0.136
1.050E-06,0.496
1.060E-06,0.128
1.070E-06,0.384
1.080E-06,0.088
1.090E-06,-0.008
1.100E-06,0.200
1.110E-06,0.168
1.120E-06,0.384
1.130E-06,0.384
1.140E-06,0.480
1.150E-06,0.136
1.160E-06,0.200
1.170E-06,0.184
1.180E-06,-0.072
1.190E-06,-0.184
1.200E-06,-0.248
1.210E-06,-0.528
1.220E-06,-0.384
1.230E-06,-0.352
1.240E-06,-0.336
1.250E-06,-0.320
1.260E-06,-0.384
1.270E-06,-0.544
1.280E-06,-0.680
1.290E-06,-0.664
1.300E-06,-0.344
1.310E-06,-0.104
1.320E-06,0.104
1.330E-06,0.272
1.340E-06,0.040
1.350E-06,0.072
1.360E-06,0.000
1.370E-06,-0.088
1.380E-06,0.040
1.390E-06,-0.032
1.400E-06,-0.120
1.410E-06,-0.120
1.420E-06,-0.072
1.430E-06,-0.064
1.440E-06,0.064
1.450E-06,0.072
1.460E-06,0.048
1.470E-06,0.008
1.480E-06,0.008
1.490E-06,-0.104
1.500E-06,0.064
1.510E-06,0.048
1.520E-06,0.088
1.530E-06,0.144
1.540E-06,0.016
1.550E-06,0.016
1.560E-06,0.072
1.570E-06,0.096
1.580E-06,0.152
1.590E-06,0.008
1.600E-06,-0.008
1.610E-06,-0.064
1.620E-06,-0.072
1.630E-06,-0.040
1.640E-06,-0.088
1.650E-06,-0.008
1.660E-06,-0.424
1.670E-06,-0.104
1.680E-06,-0.120
1.690E-06,-0.696
1.700E-06,0.312
1.710E-06,-0.224
1.720E-06,0.024
1.730E-06,-0.104
1.740E-06,-1.032
1.750E-06,-1.040
1.760E-06,-1.032
1.770E-06,-1.032
1.780E-06,-0.352
1.790E-06,1.072
1.800E-06,0.344
1.810E-06,1.088
1.820E-06,0.360
1.830E-06,-1.040
1.840E-06,-0.048
1.850E-06,-0.352
1.860E-06,-0.352
1.870E-06,0.616
1.880E-06,-0.024
1.890E-06,-0.280
1.900E-06,-0.536
1.910E-06,-0.968
1.920E-06,-0.992
1.930E-06,-0.648
1.940E-06,-0.704
1.950E-06,-0.664
1.960E-06,-0.600
1.970E-06,-1.048
1.980E-06,-1.048
1.990E-06,-1.032
2.000E-06,-1.040
2.010E-06,-1.040
2.020E-06,-1.048
2.030E-06,-1.040
2.040E-06,-1.032
2.050E-06,-1.040
2.060E-06,-1.048
2.070E-06,-1.032
2.080E-06,-1.032
2.090E-06,-1.040
2.100E-06,-1.040
2.110E-06,-1.048
2.120E-06,-1.040
2.130E-06,-1.040
2.140E-06,-1.048
2.150E-06,-1.040
2.160E-06,-1.040
2.170E-06,-1.040
2.180E-06,-1.048
2.190E-06,-1.040
2.200E-06,-1.032
2.210E-06,-1.040
2.220E-06,-1.048
2.230E-06,-1.040
2.240E-06,-1.040
2.250E-06,-1.040
2.260E-06,-1.040
2.270E-06,-1.040
2.280E-06,-1.048
2.290E-06,-1.040
2.300E-06,-1.032
2.310E-06,-1.032
2.320E-06,-1.040
2.330E-06,-1.040
2.340E-06,-1.048
2.350E-06,-1.040
2.360E-06,-0.888
2.370E-06,-0.800
2.380E-06,-0.512
2.390E-06,-0.672
2.400E-06,-0.280
2.410E-06,-0.136
2.420E-06,-0.016
2.430E-06,0.008
2.440E-06,0.000
2.450E-06,-0.184
2.460E-06,-0.376
2.470E-06,-0.280
2.480E-06,-0.352
2.490E-06,-0.280
2.500E-06,-0.320
2.510E-06,-0.440
2.520E-06,-0.568
2.530E-06,-0.536
2.540E-06,-0.504
2.550E-06,-0.440
2.560E-06,-0.264
2.570E-06,-0.344
2.580E-06,-0.160
2.590E-06,-0.056
2.600E-06,-0.208
2.610E-06,-0.016
2.620E-06,-0.088
2.630E-06,-0.120
2.640E-06,0.056
2.650E-06,0.240
2.660E-06,0.536
2.670E-06,0.040
2.680E-06,-0.128
2.690E-06,-0.112
2.700E-06,-0.128
2.710E-06,0.056
2.720E-06,-0.128
2.730E-06,0.200
2.740E-06,0.272
2.750E-06,0.296
2.760E-06,0.504
2.770E-06,0.224
2.780E-06,0.576
2.790E-06,0.584
2.800E-06,0.488
2.810E-06,0.712
2.820E-06,0.760
2.830E-06,1.000
2.840E-06,0.936
2.850E-06,1.032
2.860E-06,1.000
2.870E-06,1.088
2.880E-06,1.080
2.890E-06,1.080
2.900E-06,1.072
2.910E-06,1.080
2.920E-06,1.080
2.930E-06,1.080
2.940E-06,1.064
2.950E-06,0.952
2.960E-06,0.560
2.970E-06,0.312
2.980E-06,0.056
2.990E-06,-0.200
3.000E-06,-0.200
3.010E-06,-0.232
3.020E-06,0.008
3.030E-06,-0.040
3.040E-06,-0.512
3.050E-06,-0.872
3.060E-06,-1.032
3.070E-06,-0.872
3.080E-06,-0.616
3.090E-06,-0.160
3.100E-06,-0.608
3.110E-06,-0.064
3.120E-06,-0.064
3.130E-06,-0.664
3.140E-06,1.072
3.150E-06,-0.512
3.160E-06,-1.040
3.170E-06,-1.040
3.180E-06,-1.040
3.190E-06,-1.048
3.200E-06,-1.040
3.210E-06,-0.520
3.220E-06,1.088
3.230E-06,1.080
3.240E-06,1.088
3.250E-06,1.080
3.260E-06,1.088
3.270E-06,1.080
3.280E-06,1.080
3.290E-06,1.080
3.300E-06,1.080
3.310E-06,1.072
3.320E-06,1.080
3.330E-06,1.088
3.340E-06,1.088
3.350E-06,1.080
3.360E-06,0.840
3.370E-06,0.224
3.380E-06,-0.488
3.390E-06,-1.008
3.400E-06,-1.040
3.410E-06,-1.040
3.420E-06,-1.040
3.430E-06,-1.048
3.440E-06,-1.040
3.450E-06,-1.048
3.460E-06,-1.032
3.470E-06,-1.032
3.480E-06,-1.040
3.490E-06,-1.032
3.500E-06,-1.040
3.510E-06,-1.032
3.520E-06,-0.848
3.530E-06,-0.536
3.540E-06,-0.344
3.550E-06,-0.512
3.560E-06,-0.672
3.570E-06,-1.040
3.580E-06,-1.048
3.590E-06,-1.040
3.600E-06,-1.032
3.610E-06,-1.040
3.620E-06,-1.048
3.630E-06,-1.032
3.640E-06,-1.040
3.650E-06,-1.032
3.660E-06,-0.936
3.670E-06,-0.912
3.680E-06,-1.040
3.690E-06,-1.040
3.700E-06,-1.016
3.710E-06,-0.640
3.720E-06,0.088
3.730E-06,0.336
3.740E-06,0.440
3.750E-06,0.248
3.760E-06,0.552
3.770E-06,0.632
3.780E-06,0.776
3.790E-06,1.080
3.800E-06,0.608
3.810E-06,0.792
3.820E-06,0.968
3.830E-06,0.520
3.840E-06,0.504
3.850E-06,-0.464
3.860E-06,-1.048
3.870E-06,-1.032
3.880E-06,-1.032
3.890E-06,-1.040
3.900E-06,-1.032
3.910E-06,-1.032
3.920E-06,-1.040
3.930E-06,-1.032
3.940E-06,-1.040
3.950E-06,-1.040
3.960E-06,-1.040
3.970E-06,-1.048
3.980E-06,-0.864
3.990E-06,-0.920
4.000E-06,-0.928
4.010E-06,-1.040
4.020E-06,-1.040
4.030E-06,-1.040
4.040E-06,-1.040
4.050E-06,-1.048
4.060E-06,-1.040
4.070E-06,-1.048
4.080E-06,-1.032
4.090E-06,-1.032
4.100E-06,-1.040
4.110E-06,-1.048
4.120E-06,-1.048
4.130E-06,-1.032
4.140E-06,-1.040
4.150E-06,-1.040
4.160E-06,-1.040
4.170E-06,-1.048
4.180E-06,-1.040
4.190E-06,-1.040
4.200E-06,-1.048
4.210E-06,-1.040
4.220E-06,-1.048
4.230E-06,-1.032
4.240E-06,-1.040
4.250E-06,-1.048
4.260E-06,-1.008
4.270E-06,-0.904
4.280E-06,-0.824
4.290E-06,-0.720
4.300E-06,-0.672
4.310E-06,-0.632
4.320E-06,-0.568
4.330E-06,-0.512
4.340E-06,-0.408
4.350E-06,-0.352
4.360E-06,-0.392
4.370E-06,-0.416
4.380E-06,-0.344
4.390E-06,-0.328
4.400E-06,-0.328
4.410E-06,-0.328
4.420E-06,-0.400
4.430E-06,-0.376
4.440E-06,-0.440
4.450E-06,-0.528
4.460E-06,-0.584
4.470E-06,-0.648
4.480E-06,-0.584
4.490E-06,-0.544
4.500E-06,-0.496
4.510E-06,-0.496
4.520E-06,-0.536
4.530E-06,-0.544
4.540E-06,-0.512
4.550E-06,-0.384
4.560E-06,-0.336
4.570E-06,-0.272
4.580E-06,-0.240
4.590E-06,-0.208
4.600E-06,-0.160
4.610E-06,-0.192
4.620E-06,-0.192
4.630E-06,-0.208
4.640E-06,-0.200
4.650E-06,-0.176
4.660E-06,-0.168
4.670E-06,-0.200
4.680E-06,-0.232
4.690E-06,-0.256
4.700E-06,-0.256
4.710E-06,-0.240
4.720E-06,-0.256
4.730E-06,-0.304
4.740E-06,-0.328
4.750E-06,-0.360
4.760E-06,-0.408
4.770E-06,-0.448
4.780E-06,-0.456
4.790E-06,-0.464
4.800E-06,-0.464
4.810E-06,-0.448
4.820E-06,-0.456
4.830E-06,-0.480
4.840E-06,-0.488
4.850E-06,-0.464
4.860E-06,-0.416
4.870E-06,-0.392
4.880E-06,-0.344
4.890E-06,-0.296
4.900E-06,-0.240
4.910E-06,-0.192
4.920E-06,-0.160
4.930E-06,-0.168
4.940E-06,-0.184
4.950E-06,-0.192
4.960E-06,-0.192
4.970E-06,-0.176
4.980E-06,-0.184
4.990E-06,-0.200
5.000E-06,-0.192
5.010E-06,-0.152
5.020E-06,-0.112
5.030E-06,-0.096
5.040E-06,-0.072
5.050E-06,-0.072
5.060E-06,-0.064
5.070E-06,-0.064
5.080E-06,-0.056
5.090E-06,-0.064
5.100E-06,-0.032
5.110E-06,0.016
5.120E-06,0.080
5.130E-06,0.152
5.140E-06,0.176
5.150E-06,0.208
5.160E-06,0.224
5.170E-06,0.248
5.180E-06,0.296
5.190E-06,0.304
5.200E-06,0.328
5.210E-06,0.336
5.220E-06,0.336
5.230E-06,0.312
5.240E-06,0.304
5.250E-06,0.304
5.260E-06,0.296
5.270E-06,0.264
5.280E-06,0.200
5.290E-06,0.096
5.300E-06,0.024
5.310E-06,-0.048
5.320E-06,-0.080
5.330E-06,-0.104
5.340E-06,-0.096
5.350E-06,-0.080
5.360E-06,-0.152
5.370E-06,-0.152
5.380E-06,-0.200
5.390E-06,-0.240
5.400E-06,-0.192
5.410E-06,-0.176
5.420E-06,-0.088
5.430E-06,-0.048
5.440E-06,0.000
5.450E-06,-0.056
5.460E-06,-0.128
5.470E-06,-0.184
5.480E-06,-0.264
5.490E-06,-0.288
5.500E-06,-0.312
5.510E-06,-0.320
5.520E-06,-0.368
5.530E-06,-0.384
5.540E-06,-0.392
5.550E-06,-0.392
5.560E-06,-0.376
5.570E-06,-0.264
5.580E-06,-0.168
5.590E-06,-0.104
5.600E-06,-0.024
5.610E-06,-0.032
5.620E-06,0.000
5.630E-06,0.008
5.640E-06,-0.048
5.650E-06,-0.064
5.660E-06,-0.104
5.670E-06,-0.120
5.680E-06,-0.112
5.690E-06,-0.104
5.700E-06,-0.168
5.710E-06,-0.240
5.720E-06,-0.112
5.730E-06,-0.056
5.740E-06,0.000
5.750E-06,0.064
5.760E-06,0.000
5.770E-06,-0.032
5.780E-06,-0.016
5.790E-06,0.056
5.800E-06,0.144
5.810E-06,0.240
5.820E-06,0.264
5.830E-06,0.312
5.840E-06,0.376
5.850E-06,0.384
5.860E-06,0.488
5.870E-06,0.496
5.880E-06,0.408
5.890E-06,0.424
5.900E-06,0.296
5.910E-06,0.208
5.920E-06,0.232
5.930E-06,0.160
5.940E-06,0.216
5.950E-06,0.280
5.960E-06,0.240
5.970E-06,0.296
5.980E-06,0.240
5.990E-06,0.128
6.000E-06,0.136
6.010E-06,0.120
6.020E-06,0.040
6.030E-06,-0.048
6.040E-06,-0.120
6.050E-06,-0.296
6.060E-06,-0.360
6.070E-06,-0.352
6.080E-06,-0.424
6.090E-06,-0.408
6.100E-06,-0.432
6.110E-06,-0.472
6.120E-06,-0.488
6.130E-06,-0.560
6.140E-06,-0.616
6.150E-06,-0.608
6.160E-06,-0.528
6.170E-06,-0.504
6.180E-06,-0.432
6.190E-06,-0.344
6.200E-06,-0.304
6.210E-06,-0.264
6.220E-06,-0.272
6.230E-06,-0.256
6.240E-06,-0.200
6.250E-06,-0.152
6.260E-06,-0.120
6.270E-06,-0.120
6.280E-06,-0.168
6.290E-06,-0.136
6.300E-06,-0.152
6.310E-06,-0.144
6.320E-06,-0.152
6.330E-06,-0.184
6.340E-06,-0.160
6.350E-06,-0.120
6.360E-06,-0.104
6.370E-06,-0.096
6.380E-06,-0.112
6.390E-06,-0.136
6.400E-06,-0.152
6.410E-06,-0.200
6.420E-06,-0.216
6.430E-06,-0.232
6.440E-06,-0.224
6.450E-06,-0.256
6.460E-06,-0.296
6.470E-06,-0.288
6.480E-06,-0.264
6.490E-06,-0.264
6.500E-06,-0.264
6.510E-06,-0.272
6.520E-06,-0.304
6.530E-06,-0.288
6.540E-06,-0.280
6.550E-06,-0.200
6.560E-06,-0.120
6.570E-06,0.008
6.580E-06,0.112
6.590E-06,0.208
6.600E-06,0.224
6.610E-06,0.224
6.620E-06,0.160
6.630E-06,0.080
6.640E-06,-0.024
6.650E-06,-0.128
6.660E-06,-0.208
6.670E-06,-0.216
6.680E-06,-0.192
6.690E-06,-0.096
6.700E-06,0.008
6.710E-06,0.152
6.720E-06,0.288
6.730E-06,0.400
6.740E-06,0.504
6.750E-06,0.584
6.760E-06,0.632
6.770E-06,0.640
6.780E-06,0.624
6.790E-06,0.576
6.800E-06,0.520
6.810E-06,0.432
6.820E-06,0.360
6.830E-06,0.296
6.840E-06,0.240
6.850E-06,0.224
6.860E-06,0.232
6.870E-06,0.272
6.880E-06,0.304
6.890E-06,0.328
6.900E-06,0.336
6.910E-06,0.328
6.920E-06,0.336
6.930E-06,0.328
6.940E-06,0.328
6.950E-06,0.336
6.960E-06,0.336
6.970E-06,0.360
6.980E-06,0.368
6.990E-06,0.368
7.000E-06,0.312
7.010E-06,0.216
7.020E-06,0.096
7.030E-06,-0.064
7.040E-06,-0.208
7.050E-06,-0.328
7.060E-06,-0.400
7.070E-06,-0.424
7.080E-06,-0.368
7.090E-06,-0.304
7.100E-06,-0.200
7.110E-06,-0.080
7.120E-06,0.000
7.130E-06,0.096
7.140E-06,0.232
7.150E-06,0.360
7.160E-06,0.480
7.170E-06,0.632
7.180E-06,0.704
7.190E-06,0.720
7.200E-06,0.648
7.210E-06,0.536
7.220E-06,0.400
7.230E-06,0.256
7.240E-06,0.168
7.250E-06,0.160
7.260E-06,0.200
7.270E-06,0.336
7.280E-06,0.464
7.290E-06,0.576
7.300E-06,0.696
7.310E-06,0.752
7.320E-06,0.768
7.330E-06,0.736
7.340E-06,0.640
7.350E-06,0.536
7.360E-06,0.392
7.370E-06,0.272
7.380E-06,0.160
7.390E-06,0.088
7.400E-06,0.040
7.410E-06,-0.008
7.420E-06,-0.072
7.430E-06,-0.152
7.440E-06,-0.224
7.450E-06,-0.272
7.460E-06,-0.256
7.470E-06,-0.200
7.480E-06,-0.120
7.490E-06,-0.032
7.500E-06,0.064
7.510E-06,0.112
7.520E-06,0.128
7.530E-06,0.104
7.540E-06,0.000
7.550E-06,-0.064
7.560E-06,-0.168
