mediciones/5-22/0/WaveData4915.csv

#timebase=2000000(ps)
,#voltbase=1000000(mv/100)
#size=4000
-8.400E-06,0.040
-8.390E-06,0.080
-8.380E-06,0.080
-8.370E-06,0.080
-8.360E-06,0.040
-8.350E-06,0.040
-8.340E-06,0.000
-8.330E-06,0.040
-8.320E-06,0.040
-8.310E-06,0.080
-8.300E-06,0.040
-8.290E-06,0.080
-8.280E-06,0.040
-8.270E-06,0.040
-8.260E-06,0.040
-8.250E-06,0.080
-8.240E-06,0.040
-8.230E-06,0.080
-8.220E-06,0.040
-8.210E-06,0.000
-8.200E-06,0.040
-8.190E-06,0.080
-8.180E-06,0.080
-8.170E-06,0.080
-8.160E-06,0.080
-8.150E-06,0.080
-8.140E-06,0.040
-8.130E-06,0.040
-8.120E-06,0.000
-8.110E-06,0.040
-8.100E-06,0.000
-8.090E-06,0.040
-8.080E-06,0.080
-8.070E-06,0.040
-8.060E-06,0.000
-8.050E-06,0.080
-8.040E-06,0.080
-8.030E-06,0.080
-8.020E-06,0.040
-8.010E-06,0.120
-8.000E-06,0.000
-7.990E-06,0.080
-7.980E-06,0.080
-7.970E-06,0.040
-7.960E-06,0.000
-7.950E-06,0.040
-7.940E-06,0.080
-7.930E-06,0.120
-7.920E-06,0.080
-7.910E-06,0.120
-7.900E-06,0.120
-7.890E-06,0.040
-7.880E-06,0.040
-7.870E-06,0.080
-7.860E-06,0.080
-7.850E-06,0.120
-7.840E-06,0.040
-7.830E-06,0.080
-7.820E-06,0.040
-7.810E-06,0.040
-7.800E-06,0.040
-7.790E-06,0.080
-7.780E-06,0.040
-7.770E-06,0.040
-7.760E-06,0.120
-7.750E-06,0.040
-7.740E-06,0.000
-7.730E-06,0.040
-7.720E-06,0.080
-7.710E-06,0.040
-7.700E-06,0.080
-7.690E-06,0.080
-7.680E-06,0.040
-7.670E-06,0.040
-7.660E-06,0.040
-7.650E-06,0.040
-7.640E-06,0.000
-7.630E-06,0.000
-7.620E-06,0.040
-7.610E-06,0.080
-7.600E-06,0.080
-7.590E-06,0.040
-7.580E-06,0.080
-7.570E-06,0.080
-7.560E-06,0.040
-7.550E-06,0.080
-7.540E-06,0.040
-7.530E-06,0.040
-7.520E-06,0.040
-7.510E-06,0.080
-7.500E-06,0.040
-7.490E-06,0.040
-7.480E-06,0.080
-7.470E-06,0.040
-7.460E-06,0.040
-7.450E-06,0.120
-7.440E-06,0.000
-7.430E-06,0.040
-7.420E-06,0.080
-7.410E-06,0.080
-7.400E-06,0.040
-7.390E-06,0.040
-7.380E-06,0.080
-7.370E-06,0.120
-7.360E-06,0.120
-7.350E-06,0.040
-7.340E-06,0.040
-7.330E-06,0.040
-7.320E-06,0.080
-7.310E-06,0.040
-7.300E-06,0.040
-7.290E-06,0.040
-7.280E-06,0.080
-7.270E-06,0.120
-7.260E-06,0.000
-7.250E-06,0.000
-7.240E-06,0.040
-7.230E-06,0.000
-7.220E-06,0.080
-7.210E-06,0.040
-7.200E-06,0.080
-7.190E-06,0.120
-7.180E-06,0.080
-7.170E-06,0.000
-7.160E-06,0.040
-7.150E-06,0.080
-7.140E-06,0.080
-7.130E-06,0.040
-7.120E-06,0.040
-7.110E-06,0.080
-7.100E-06,0.080
-7.090E-06,0.080
-7.080E-06,0.080
-7.070E-06,0.040
-7.060E-06,0.080
-7.050E-06,0.040
-7.040E-06,0.080
-7.030E-06,0.040
-7.020E-06,0.080
-7.010E-06,0.040
-7.000E-06,0.080
-6.990E-06,0.120
-6.980E-06,0.000
-6.970E-06,0.040
-6.960E-06,0.040
-6.950E-06,0.040
-6.940E-06,0.080
-6.930E-06,0.000
-6.920E-06,0.000
-6.910E-06,0.040
-6.900E-06,0.080
-6.890E-06,0.080
-6.880E-06,0.040
-6.870E-06,0.040
-6.860E-06,0.040
-6.850E-06,0.040
-6.840E-06,0.080
-6.830E-06,0.040
-6.820E-06,0.080
-6.810E-06,0.040
-6.800E-06,0.040
-6.790E-06,0.080
-6.780E-06,0.120
-6.770E-06,0.000
-6.760E-06,0.040
-6.750E-06,0.080
-6.740E-06,0.080
-6.730E-06,0.080
-6.720E-06,0.120
-6.710E-06,0.000
-6.700E-06,0.040
-6.690E-06,0.080
-6.680E-06,0.040
-6.670E-06,0.040
-6.660E-06,0.080
-6.650E-06,0.080
-6.640E-06,0.080
-6.630E-06,0.040
-6.620E-06,0.040
-6.610E-06,0.040
-6.600E-06,0.040
-6.590E-06,0.000
-6.580E-06,0.080
-6.570E-06,0.000
-6.560E-06,0.040
-6.550E-06,0.000
-6.540E-06,0.040
-6.530E-06,0.040
-6.520E-06,0.120
-6.510E-06,0.120
-6.500E-06,0.040
-6.490E-06,0.080
-6.480E-06,0.040
-6.470E-06,0.080
-6.460E-06,0.080
-6.450E-06,0.120
-6.440E-06,0.120
-6.430E-06,0.040
-6.420E-06,0.080
-6.410E-06,0.080
-6.400E-06,0.040
-6.390E-06,0.080
-6.380E-06,0.080
-6.370E-06,0.080
-6.360E-06,0.080
-6.350E-06,0.040
-6.340E-06,0.040
-6.330E-06,0.040
-6.320E-06,0.000
-6.310E-06,0.000
-6.300E-06,0.040
-6.290E-06,0.120
-6.280E-06,0.040
-6.270E-06,0.040
-6.260E-06,0.040
-6.250E-06,0.080
-6.240E-06,0.080
-6.230E-06,0.040
-6.220E-06,0.080
-6.210E-06,0.080
-6.200E-06,0.040
-6.190E-06,0.040
-6.180E-06,0.080
-6.170E-06,0.040
-6.160E-06,0.040
-6.150E-06,0.040
-6.140E-06,0.080
-6.130E-06,0.040
-6.120E-06,0.080
-6.110E-06,0.080
-6.100E-06,0.040
-6.090E-06,0.000
-6.080E-06,0.040
-6.070E-06,0.040
-6.060E-06,0.000
-6.050E-06,0.080
-6.040E-06,0.000
-6.030E-06,0.040
-6.020E-06,0.080
-6.010E-06,0.080
-6.000E-06,0.040
-5.990E-06,0.080
-5.980E-06,0.040
-5.970E-06,0.000
-5.960E-06,0.080
-5.950E-06,0.120
-5.940E-06,0.000
-5.930E-06,0.040
-5.920E-06,0.040
-5.910E-06,0.040
-5.900E-06,0.040
-5.890E-06,0.080
-5.880E-06,0.080
-5.870E-06,0.040
-5.860E-06,0.080
-5.850E-06,0.040
-5.840E-06,0.040
-5.830E-06,0.080
-5.820E-06,0.080
-5.810E-06,0.080
-5.800E-06,0.080
-5.790E-06,0.080
-5.780E-06,0.040
-5.770E-06,0.080
-5.760E-06,0.040
-5.750E-06,0.040
-5.740E-06,0.080
-5.730E-06,0.080
-5.720E-06,0.080
-5.710E-06,0.080
-5.700E-06,0.040
-5.690E-06,0.080
-5.680E-06,0.120
-5.670E-06,0.040
-5.660E-06,0.080
-5.650E-06,0.040
-5.640E-06,0.040
-5.630E-06,0.040
-5.620E-06,0.040
-5.610E-06,0.040
-5.600E-06,0.040
-5.590E-06,0.040
-5.580E-06,0.040
-5.570E-06,0.040
-5.560E-06,0.080
-5.550E-06,0.080
-5.540E-06,0.040
-5.530E-06,0.080
-5.520E-06,0.080
-5.510E-06,0.040
-5.500E-06,0.000
-5.490E-06,0.080
-5.480E-06,0.080
-5.470E-06,0.080
-5.460E-06,0.120
-5.450E-06,0.120
-5.440E-06,0.040
-5.430E-06,0.040
-5.420E-06,0.080
-5.410E-06,0.080
-5.400E-06,0.040
-5.390E-06,0.080
-5.380E-06,0.120
-5.370E-06,0.080
-5.360E-06,0.080
-5.350E-06,0.080
-5.340E-06,0.080
-5.330E-06,0.040
-5.320E-06,0.040
-5.310E-06,0.120
-5.300E-06,0.080
-5.290E-06,0.080
-5.280E-06,0.080
-5.270E-06,0.080
-5.260E-06,0.040
-5.250E-06,0.080
-5.240E-06,0.080
-5.230E-06,0.080
-5.220E-06,0.040
-5.210E-06,0.080
-5.200E-06,0.040
-5.190E-06,0.080
-5.180E-06,0.080
-5.170E-06,0.080
-5.160E-06,0.080
-5.150E-06,0.080
-5.140E-06,0.040
-5.130E-06,0.040
-5.120E-06,0.080
-5.110E-06,0.080
-5.100E-06,0.040
-5.090E-06,0.000
-5.080E-06,0.040
-5.070E-06,-0.040
-5.060E-06,0.000
-5.050E-06,0.040
-5.040E-06,0.000
-5.030E-06,0.080
-5.020E-06,0.000
-5.010E-06,0.040
-5.000E-06,0.080
-4.990E-06,0.080
-4.980E-06,0.080
-4.970E-06,0.000
-4.960E-06,0.080
-4.950E-06,0.080
-4.940E-06,0.080
-4.930E-06,0.080
-4.920E-06,0.000
-4.910E-06,0.080
-4.900E-06,0.080
-4.890E-06,0.040
-4.880E-06,0.080
-4.870E-06,0.080
-4.860E-06,0.040
-4.850E-06,0.120
-4.840E-06,0.040
-4.830E-06,0.080
-4.820E-06,0.040
-4.810E-06,0.040
-4.800E-06,0.080
-4.790E-06,0.040
-4.780E-06,0.040
-4.770E-06,0.080
-4.760E-06,0.080
-4.750E-06,0.040
-4.740E-06,0.040
-4.730E-06,0.000
-4.720E-06,0.040
-4.710E-06,0.040
-4.700E-06,0.040
-4.690E-06,0.040
-4.680E-06,0.040
-4.670E-06,0.000
-4.660E-06,0.080
-4.650E-06,0.080
-4.640E-06,0.040
-4.630E-06,0.080
-4.620E-06,0.080
-4.610E-06,0.080
-4.600E-06,0.080
-4.590E-06,0.080
-4.580E-06,0.040
-4.570E-06,0.040
-4.560E-06,0.080
-4.550E-06,0.040
-4.540E-06,0.040
-4.530E-06,0.080
-4.520E-06,0.040
-4.510E-06,0.080
-4.500E-06,0.080
-4.490E-06,0.080
-4.480E-06,0.040
-4.470E-06,0.120
-4.460E-06,0.040
-4.450E-06,0.080
-4.440E-06,0.080
-4.430E-06,0.080
-4.420E-06,0.080
-4.410E-06,0.080
-4.400E-06,0.080
-4.390E-06,0.080
-4.380E-06,0.000
-4.370E-06,0.040
-4.360E-06,0.080
-4.350E-06,0.000
-4.340E-06,0.000
-4.330E-06,0.040
-4.320E-06,0.040
-4.310E-06,0.040
-4.300E-06,0.040
-4.290E-06,0.080
-4.280E-06,0.000
-4.270E-06,0.080
-4.260E-06,0.120
-4.250E-06,0.080
-4.240E-06,0.080
-4.230E-06,0.120
-4.220E-06,0.040
-4.210E-06,0.120
-4.200E-06,0.080
-4.190E-06,0.120
-4.180E-06,0.160
-4.170E-06,0.120
-4.160E-06,0.120
-4.150E-06,0.160
-4.140E-06,0.120
-4.130E-06,0.080
-4.120E-06,0.120
-4.110E-06,0.120
-4.100E-06,0.120
-4.090E-06,0.160
-4.080E-06,0.120
-4.070E-06,0.080
-4.060E-06,0.080
-4.050E-06,0.120
-4.040E-06,0.120
-4.030E-06,0.080
-4.020E-06,0.080
-4.010E-06,0.120
-4.000E-06,0.080
-3.990E-06,0.080
-3.980E-06,0.040
-3.970E-06,0.040
-3.960E-06,0.080
-3.950E-06,0.120
-3.940E-06,0.120
-3.930E-06,0.040
-3.920E-06,0.040
-3.910E-06,0.080
-3.900E-06,0.080
-3.890E-06,0.080
-3.880E-06,0.160
-3.870E-06,0.120
-3.860E-06,0.080
-3.850E-06,0.120
-3.840E-06,0.080
-3.830E-06,0.120
-3.820E-06,0.160
-3.810E-06,0.160
-3.800E-06,0.120
-3.790E-06,0.120
-3.780E-06,0.160
-3.770E-06,0.200
-3.760E-06,0.120
-3.750E-06,0.080
-3.740E-06,0.080
-3.730E-06,0.120
-3.720E-06,0.120
-3.710E-06,0.160
-3.700E-06,0.120
-3.690E-06,0.120
-3.680E-06,0.160
-3.670E-06,0.080
-3.660E-06,0.040
-3.650E-06,0.080
-3.640E-06,0.120
-3.630E-06,0.120
-3.620E-06,0.080
-3.610E-06,0.000
-3.600E-06,0.000
-3.590E-06,0.040
-3.580E-06,0.040
-3.570E-06,0.040
-3.560E-06,0.000
-3.550E-06,0.000
-3.540E-06,0.040
-3.530E-06,0.040
-3.520E-06,0.040
-3.510E-06,0.000
-3.500E-06,0.000
-3.490E-06,-0.040
-3.480E-06,0.000
-3.470E-06,0.040
-3.460E-06,0.040
-3.450E-06,0.040
-3.440E-06,0.080
-3.430E-06,0.080
-3.420E-06,0.080
-3.410E-06,0.080
-3.400E-06,0.120
-3.390E-06,0.120
-3.380E-06,0.120
-3.370E-06,0.160
-3.360E-06,0.120
-3.350E-06,0.160
-3.340E-06,0.200
-3.330E-06,0.160
-3.320E-06,0.200
-3.310E-06,0.240
-3.300E-06,0.200
-3.290E-06,0.200
-3.280E-06,0.280
-3.270E-06,0.320
-3.260E-06,0.280
-3.250E-06,0.240
-3.240E-06,0.280
-3.230E-06,0.200
-3.220E-06,0.240
-3.210E-06,0.200
-3.200E-06,0.160
-3.190E-06,0.200
-3.180E-06,0.200
-3.170E-06,0.200
-3.160E-06,0.200
-3.150E-06,0.280
-3.140E-06,0.280
-3.130E-06,0.200
-3.120E-06,0.240
-3.110E-06,0.200
-3.100E-06,0.160
-3.090E-06,0.200
-3.080E-06,0.160
-3.070E-06,0.240
-3.060E-06,0.280
-3.050E-06,0.240
-3.040E-06,0.240
-3.030E-06,0.320
-3.020E-06,0.360
-3.010E-06,0.320
-3.000E-06,0.280
-2.990E-06,0.280
-2.980E-06,0.280
-2.970E-06,0.280
-2.960E-06,0.320
-2.950E-06,0.320
-2.940E-06,0.360
-2.930E-06,0.320
-2.920E-06,0.320
-2.910E-06,0.360
-2.900E-06,0.320
-2.890E-06,0.360
-2.880E-06,0.360
-2.870E-06,0.320
-2.860E-06,0.320
-2.850E-06,0.360
-2.840E-06,0.360
-2.830E-06,0.280
-2.820E-06,0.280
-2.810E-06,0.320
-2.800E-06,0.280
-2.790E-06,0.240
-2.780E-06,0.240
-2.770E-06,0.280
-2.760E-06,0.200
-2.750E-06,0.200
-2.740E-06,0.200
-2.730E-06,0.240
-2.720E-06,0.160
-2.710E-06,0.160
-2.700E-06,0.200
-2.690E-06,0.240
-2.680E-06,0.240
-2.670E-06,0.200
-2.660E-06,0.200
-2.650E-06,0.200
-2.640E-06,0.200
-2.630E-06,0.240
-2.620E-06,0.240
-2.610E-06,0.200
-2.600E-06,0.160
-2.590E-06,0.200
-2.580E-06,0.160
-2.570E-06,0.200
-2.560E-06,0.240
-2.550E-06,0.200
-2.540E-06,0.200
-2.530E-06,0.200
-2.520E-06,0.200
-2.510E-06,0.200
-2.500E-06,0.200
-2.490E-06,0.240
-2.480E-06,0.200
-2.470E-06,0.160
-2.460E-06,0.160
-2.450E-06,0.200
-2.440E-06,0.200
-2.430E-06,0.280
-2.420E-06,0.240
-2.410E-06,0.200
-2.400E-06,0.160
-2.390E-06,0.280
-2.380E-06,0.280
-2.370E-06,0.360
-2.360E-06,0.320
-2.350E-06,0.320
-2.340E-06,0.320
-2.330E-06,0.320
-2.320E-06,0.320
-2.310E-06,0.360
-2.300E-06,0.320
-2.290E-06,0.320
-2.280E-06,0.360
-2.270E-06,0.320
-2.260E-06,0.320
-2.250E-06,0.360
-2.240E-06,0.400
-2.230E-06,0.440
-2.220E-06,0.440
-2.210E-06,0.400
-2.200E-06,0.360
-2.190E-06,0.440
-2.180E-06,0.440
-2.170E-06,0.480
-2.160E-06,0.520
-2.150E-06,0.480
-2.140E-06,0.400
-2.130E-06,0.440
-2.120E-06,0.480
-2.110E-06,0.440
-2.100E-06,0.480
-2.090E-06,0.560
-2.080E-06,0.520
-2.070E-06,0.480
-2.060E-06,0.440
-2.050E-06,0.480
-2.040E-06,0.520
-2.030E-06,0.480
-2.020E-06,0.520
-2.010E-06,0.520
-2.000E-06,0.560
-1.990E-06,0.480
-1.980E-06,0.440
-1.970E-06,0.400
-1.960E-06,0.440
-1.950E-06,0.440
-1.940E-06,0.480
-1.930E-06,0.560
-1.920E-06,0.560
-1.910E-06,0.640
-1.900E-06,0.480
-1.890E-06,0.600
-1.880E-06,0.520
-1.870E-06,0.440
-1.860E-06,0.600
-1.850E-06,0.520
-1.840E-06,0.560
-1.830E-06,0.600
-1.820E-06,0.520
-1.810E-06,0.440
-1.800E-06,0.520
-1.790E-06,0.440
-1.780E-06,0.520
-1.770E-06,0.560
-1.760E-06,0.560
-1.750E-06,0.520
-1.740E-06,0.560
-1.730E-06,0.520
-1.720E-06,0.560
-1.710E-06,0.560
-1.700E-06,0.480
-1.690E-06,0.560
-1.680E-06,0.600
-1.670E-06,0.600
-1.660E-06,0.600
-1.650E-06,0.640
-1.640E-06,0.640
-1.630E-06,0.640
-1.620E-06,0.680
-1.610E-06,0.640
-1.600E-06,0.680
-1.590E-06,0.720
-1.580E-06,0.760
-1.570E-06,0.800
-1.560E-06,0.920
-1.550E-06,0.880
-1.540E-06,0.840
-1.530E-06,0.840
-1.520E-06,0.840
-1.510E-06,0.840
-1.500E-06,0.880
-1.490E-06,0.880
-1.480E-06,0.880
-1.470E-06,0.880
-1.460E-06,0.840
-1.450E-06,0.680
-1.440E-06,0.720
-1.430E-06,0.720
-1.420E-06,0.760
-1.410E-06,0.680
-1.400E-06,0.600
-1.390E-06,0.600
-1.380E-06,0.680
-1.370E-06,0.640
-1.360E-06,0.680
-1.350E-06,0.680
-1.340E-06,0.640
-1.330E-06,0.560
-1.320E-06,0.600
-1.310E-06,0.640
-1.300E-06,0.640
-1.290E-06,0.680
-1.280E-06,0.640
-1.270E-06,0.640
-1.260E-06,0.600
-1.250E-06,0.640
-1.240E-06,0.680
-1.230E-06,0.640
-1.220E-06,0.680
-1.210E-06,0.640
-1.200E-06,0.760
-1.190E-06,0.840
-1.180E-06,0.840
-1.170E-06,0.920
-1.160E-06,0.920
-1.150E-06,0.920
-1.140E-06,0.880
-1.130E-06,0.880
-1.120E-06,0.840
-1.110E-06,0.880
-1.100E-06,0.960
-1.090E-06,0.960
-1.080E-06,0.960
-1.070E-06,0.960
-1.060E-06,1.000
-1.050E-06,0.960
-1.040E-06,0.880
-1.030E-06,0.800
-1.020E-06,0.680
-1.010E-06,0.560
-1.000E-06,0.520
-9.900E-07,0.520
-9.800E-07,0.560
-9.700E-07,0.560
-9.600E-07,0.440
-9.500E-07,0.400
-9.400E-07,0.320
-9.300E-07,0.320
-9.200E-07,0.320
-9.100E-07,0.400
-9.000E-07,0.360
-8.900E-07,0.320
-8.800E-07,0.320
-8.700E-07,0.400
-8.600E-07,0.480
-8.500E-07,0.520
-8.400E-07,0.480
-8.300E-07,0.560
-8.200E-07,0.680
-8.100E-07,0.680
-8.000E-07,0.840
-7.900E-07,0.880
-7.800E-07,0.920
-7.700E-07,0.960
-7.600E-07,1.040
-7.500E-07,1.000
-7.400E-07,0.960
-7.300E-07,0.960
-7.200E-07,0.960
-7.100E-07,0.960
-7.000E-07,1.040
-6.900E-07,1.280
-6.800E-07,1.240
-6.700E-07,1.280
-6.600E-07,1.280
-6.500E-07,1.200
-6.400E-07,1.160
-6.300E-07,1.320
-6.200E-07,1.480
-6.100E-07,1.640
-6.000E-07,1.680
-5.900E-07,1.600
-5.800E-07,1.480
-5.700E-07,1.400
-5.600E-07,1.360
-5.500E-07,1.440
-5.400E-07,1.520
-5.300E-07,1.520
-5.200E-07,1.520
-5.100E-07,1.440
-5.000E-07,1.400
-4.900E-07,1.360
-4.800E-07,1.400
-4.700E-07,1.400
-4.600E-07,1.400
-4.500E-07,1.360
-4.400E-07,1.320
-4.300E-07,1.360
-4.200E-07,1.360
-4.100E-07,1.480
-4.000E-07,1.520
-3.900E-07,1.480
-3.800E-07,1.480
-3.700E-07,1.480
-3.600E-07,1.400
-3.500E-07,1.480
-3.400E-07,1.480
-3.300E-07,1.480
-3.200E-07,1.560
-3.100E-07,1.480
-3.000E-07,1.520
-2.900E-07,1.480
-2.800E-07,1.360
-2.700E-07,1.520
-2.600E-07,1.600
-2.500E-07,1.680
-2.400E-07,1.800
-2.300E-07,1.840
-2.200E-07,1.840
-2.100E-07,1.800
-2.000E-07,1.760
-1.900E-07,1.680
-1.800E-07,1.720
-1.700E-07,1.600
-1.600E-07,1.560
-1.500E-07,1.600
-1.400E-07,1.640
-1.300E-07,1.520
-1.200E-07,1.560
-1.100E-07,1.440
-1.000E-07,1.280
-9.000E-08,1.320
-8.000E-08,1.440
-7.000E-08,1.400
-6.000E-08,1.480
-5.000E-08,1.680
-4.000E-08,1.560
-3.000E-08,1.200
-2.000E-08,1.200
-1.000E-08,0.320
0.000E+00,0.000
1.000E-08,0.280
2.000E-08,0.880
3.000E-08,1.760
4.000E-08,2.080
5.000E-08,2.320
6.000E-08,1.600
7.000E-08,1.120
8.000E-08,1.040
9.000E-08,0.960
1.000E-07,1.400
1.100E-07,2.680
1.200E-07,3.280
1.300E-07,3.000
1.400E-07,2.720
1.500E-07,2.200
1.600E-07,1.920
1.700E-07,2.160
1.800E-07,2.480
1.900E-07,2.440
2.000E-07,2.480
2.100E-07,2.320
2.200E-07,1.840
2.300E-07,1.600
2.400E-07,1.640
2.500E-07,1.440
2.600E-07,1.480
2.700E-07,1.320
2.800E-07,1.040
2.900E-07,0.600
3.000E-07,0.520
3.100E-07,0.120
3.200E-07,0.360
3.300E-07,0.360
3.400E-07,0.800
3.500E-07,1.320
3.600E-07,1.680
3.700E-07,1.640
3.800E-07,1.600
3.900E-07,1.400
4.000E-07,1.280
4.100E-07,1.760
4.200E-07,2.280
4.300E-07,2.560
4.400E-07,2.720
4.500E-07,2.880
4.600E-07,2.640
4.700E-07,2.600
4.800E-07,2.480
4.900E-07,2.280
5.000E-07,2.200
5.100E-07,1.920
5.200E-07,1.840
5.300E-07,1.760
5.400E-07,1.600
5.500E-07,1.360
5.600E-07,1.240
5.700E-07,1.000
5.800E-07,1.080
5.900E-07,1.240
6.000E-07,1.520
6.100E-07,1.600
6.200E-07,1.920
6.300E-07,2.320
6.400E-07,2.240
6.500E-07,2.320
6.600E-07,2.520
6.700E-07,2.360
6.800E-07,2.360
6.900E-07,2.640
7.000E-07,2.560
7.100E-07,2.720
7.200E-07,2.480
7.300E-07,2.320
7.400E-07,1.560
7.500E-07,1.640
7.600E-07,1.520
7.700E-07,1.440
7.800E-07,1.640
7.900E-07,1.480
8.000E-07,1.160
8.100E-07,1.320
8.200E-07,1.640
8.300E-07,1.680
8.400E-07,1.800
8.500E-07,1.600
8.600E-07,1.280
8.700E-07,1.280
8.800E-07,1.320
8.900E-07,1.360
9.000E-07,1.480
9.100E-07,1.560
9.200E-07,1.360
9.300E-07,1.120
9.400E-07,0.880
9.500E-07,0.320
9.600E-07,0.160
9.700E-07,0.080
9.800E-07,-0.400
9.900E-07,-1.040
1.000E-06,-1.400
1.010E-06,-1.680
1.020E-06,-1.320
1.030E-06,-0.520
1.040E-06,0.120
1.050E-06,0.160
1.060E-06,0.520
1.070E-06,0.480
1.080E-06,0.520
1.090E-06,0.800
1.100E-06,1.080
1.110E-06,1.080
1.120E-06,1.160
1.130E-06,1.280
1.140E-06,1.200
1.150E-06,1.120
1.160E-06,1.400
1.170E-06,1.680
1.180E-06,1.560
1.190E-06,1.840
1.200E-06,2.160
1.210E-06,1.920
1.220E-06,2.040
1.230E-06,2.280
1.240E-06,2.240
1.250E-06,2.160
1.260E-06,2.200
1.270E-06,2.000
1.280E-06,1.880
1.290E-06,1.840
1.300E-06,1.520
1.310E-06,1.080
1.320E-06,0.720
1.330E-06,0.240
1.340E-06,-0.320
1.350E-06,-0.680
1.360E-06,-1.120
1.370E-06,-1.560
1.380E-06,-1.520
1.390E-06,-1.560
1.400E-06,-1.960
1.410E-06,-2.240
1.420E-06,-2.720
1.430E-06,-3.480
1.440E-06,-3.680
1.450E-06,-3.400
1.460E-06,-3.320
1.470E-06,-3.000
1.480E-06,-2.680
1.490E-06,-2.360
1.500E-06,-2.120
1.510E-06,-1.440
1.520E-06,-0.640
1.530E-06,0.000
1.540E-06,0.440
1.550E-06,0.800
1.560E-06,0.720
1.570E-06,0.600
1.580E-06,0.720
1.590E-06,0.960
1.600E-06,1.400
1.610E-06,1.560
1.620E-06,1.800
1.630E-06,1.880
1.640E-06,1.600
1.650E-06,1.320
1.660E-06,1.280
1.670E-06,1.120
1.680E-06,1.000
1.690E-06,0.840
1.700E-06,0.600
1.710E-06,0.040
1.720E-06,-0.560
1.730E-06,-1.280
1.740E-06,-2.200
1.750E-06,-3.280
1.760E-06,-4.360
1.770E-06,-5.200
1.780E-06,-5.240
1.790E-06,-5.240
1.800E-06,-5.240
1.810E-06,-5.240
1.820E-06,-5.240
1.830E-06,-5.200
1.840E-06,-5.240
1.850E-06,-5.240
1.860E-06,-5.200
1.870E-06,-5.240
1.880E-06,-5.240
1.890E-06,-5.240
1.900E-06,-5.240
1.910E-06,-5.240
1.920E-06,-5.240
1.930E-06,-5.240
1.940E-06,-5.200
1.950E-06,-5.240
1.960E-06,-5.240
1.970E-06,-5.240
1.980E-06,-5.240
1.990E-06,-5.200
2.000E-06,-5.200
2.010E-06,-5.240
2.020E-06,-5.240
2.030E-06,-5.240
2.040E-06,-5.240
2.050E-06,-5.240
2.060E-06,-4.840
2.070E-06,-4.440
2.080E-06,-4.240
2.090E-06,-4.200
2.100E-06,-4.360
2.110E-06,-4.440
2.120E-06,-4.560
2.130E-06,-4.600
2.140E-06,-4.680
2.150E-06,-4.840
2.160E-06,-4.880
2.170E-06,-5.040
2.180E-06,-5.120
2.190E-06,-5.200
2.200E-06,-5.160
2.210E-06,-5.160
2.220E-06,-5.160
2.230E-06,-5.160
2.240E-06,-5.200
2.250E-06,-5.200
2.260E-06,-5.040
2.270E-06,-4.920
2.280E-06,-4.680
2.290E-06,-4.520
2.300E-06,-4.400
2.310E-06,-4.320
2.320E-06,-4.240
2.330E-06,-4.080
2.340E-06,-4.000
2.350E-06,-4.040
2.360E-06,-4.120
2.370E-06,-4.120
2.380E-06,-4.360
2.390E-06,-4.360
2.400E-06,-3.960
2.410E-06,-3.600
2.420E-06,-3.160
2.430E-06,-2.960
2.440E-06,-2.880
2.450E-06,-3.000
2.460E-06,-2.840
2.470E-06,-2.560
2.480E-06,-2.280
2.490E-06,-1.880
2.500E-06,-1.600
2.510E-06,-1.360
2.520E-06,-0.920
2.530E-06,-0.640
2.540E-06,-0.240
2.550E-06,0.240
2.560E-06,0.800
2.570E-06,1.200
2.580E-06,1.640
2.590E-06,1.840
2.600E-06,1.920
2.610E-06,1.880
2.620E-06,1.560
2.630E-06,1.240
2.640E-06,0.960
2.650E-06,0.560
2.660E-06,0.160
2.670E-06,-0.240
2.680E-06,-0.640
2.690E-06,-1.040
2.700E-06,-1.120
2.710E-06,-1.320
2.720E-06,-1.400
2.730E-06,-1.400
2.740E-06,-1.320
2.750E-06,-1.320
2.760E-06,-1.240
2.770E-06,-1.240
2.780E-06,-1.240
2.790E-06,-1.160
2.800E-06,-1.200
2.810E-06,-1.200
2.820E-06,-1.240
2.830E-06,-1.280
2.840E-06,-1.400
2.850E-06,-1.480
2.860E-06,-1.600
2.870E-06,-1.720
2.880E-06,-1.840
2.890E-06,-2.040
2.900E-06,-2.040
2.910E-06,-2.120
2.920E-06,-2.160
2.930E-06,-2.200
2.940E-06,-2.200
2.950E-06,-2.160
2.960E-06,-2.120
2.970E-06,-2.040
2.980E-06,-1.920
2.990E-06,-1.800
3.000E-06,-1.640
3.010E-06,-1.520
3.020E-06,-1.400
3.030E-06,-1.360
3.040E-06,-1.280
3.050E-06,-1.160
3.060E-06,-1.200
3.070E-06,-1.320
3.080E-06,-1.360
3.090E-06,-1.480
3.100E-06,-1.720
3.110E-06,-1.840
3.120E-06,-2.080
3.130E-06,-2.120
3.140E-06,-2.240
3.150E-06,-2.240
3.160E-06,-2.240
3.170E-06,-2.200
3.180E-06,-2.000
3.190E-06,-1.800
3.200E-06,-1.560
3.210E-06,-1.240
3.220E-06,-0.960
3.230E-06,-0.640
3.240E-06,-0.520
3.250E-06,-0.400
3.260E-06,-0.320
3.270E-06,-0.240
3.280E-06,-0.240
3.290E-06,-0.160
3.300E-06,-0.080
3.310E-06,-0.040
3.320E-06,0.000
3.330E-06,0.000
3.340E-06,-0.040
3.350E-06,-0.080
3.360E-06,-0.200
3.370E-06,-0.240
3.380E-06,-0.320
3.390E-06,-0.440
3.400E-06,-0.480
3.410E-06,-0.560
