mediciones/5-22/0/WaveData4916.csv

#timebase=2000000(ps)
,#voltbase=100000(mv/100)
#size=4000
-8.400E-06,-0.028
-8.390E-06,-0.016
-8.380E-06,0.016
-8.370E-06,0.004
-8.360E-06,0.016
-8.350E-06,0.016
-8.340E-06,0.028
-8.330E-06,-0.004
-8.320E-06,0.000
-8.310E-06,-0.004
-8.300E-06,-0.008
-8.290E-06,0.020
-8.280E-06,0.024
-8.270E-06,0.012
-8.260E-06,0.004
-8.250E-06,-0.004
-8.240E-06,-0.020
-8.230E-06,-0.004
-8.220E-06,0.012
-8.210E-06,0.020
-8.200E-06,0.020
-8.190E-06,0.008
-8.180E-06,-0.004
-8.170E-06,-0.012
-8.160E-06,-0.008
-8.150E-06,-0.008
-8.140E-06,0.000
-8.130E-06,0.008
-8.120E-06,0.012
-8.110E-06,0.004
-8.100E-06,-0.004
-8.090E-06,-0.024
-8.080E-06,-0.012
-8.070E-06,0.000
-8.060E-06,0.016
-8.050E-06,0.024
-8.040E-06,0.008
-8.030E-06,-0.004
-8.020E-06,-0.016
-8.010E-06,-0.004
-8.000E-06,-0.008
-7.990E-06,0.016
-7.980E-06,0.024
-7.970E-06,0.008
-7.960E-06,-0.004
-7.950E-06,-0.012
-7.940E-06,-0.008
-7.930E-06,0.000
-7.920E-06,0.012
-7.910E-06,0.024
-7.900E-06,0.008
-7.890E-06,-0.004
-7.880E-06,-0.008
-7.870E-06,-0.008
-7.860E-06,0.004
-7.850E-06,0.008
-7.840E-06,0.012
-7.830E-06,0.008
-7.820E-06,0.000
-7.810E-06,-0.004
-7.800E-06,-0.008
-7.790E-06,-0.008
-7.780E-06,0.008
-7.770E-06,0.004
-7.760E-06,0.004
-7.750E-06,0.004
-7.740E-06,0.000
-7.730E-06,0.004
-7.720E-06,0.004
-7.710E-06,0.008
-7.700E-06,0.004
-7.690E-06,0.004
-7.680E-06,0.008
-7.670E-06,0.004
-7.660E-06,0.012
-7.650E-06,0.016
-7.640E-06,0.016
-7.630E-06,0.016
-7.620E-06,0.012
-7.610E-06,0.012
-7.600E-06,0.012
-7.590E-06,0.012
-7.580E-06,-0.012
-7.570E-06,-0.036
-7.560E-06,-0.032
-7.550E-06,-0.036
-7.540E-06,0.008
-7.530E-06,0.036
-7.520E-06,0.044
-7.510E-06,0.020
-7.500E-06,0.008
-7.490E-06,-0.024
-7.480E-06,-0.036
-7.470E-06,0.000
-7.460E-06,0.016
-7.450E-06,0.040
-7.440E-06,0.040
-7.430E-06,0.024
-7.420E-06,-0.008
-7.410E-06,-0.020
-7.400E-06,-0.024
-7.390E-06,-0.004
-7.380E-06,0.020
-7.370E-06,0.024
-7.360E-06,0.012
-7.350E-06,0.000
-7.340E-06,-0.008
-7.330E-06,-0.012
-7.320E-06,-0.004
-7.310E-06,0.000
-7.300E-06,0.012
-7.290E-06,0.024
-7.280E-06,0.032
-7.270E-06,0.020
-7.260E-06,0.004
-7.250E-06,-0.004
-7.240E-06,-0.008
-7.230E-06,-0.004
-7.220E-06,0.008
-7.210E-06,0.028
-7.200E-06,0.016
-7.190E-06,0.008
-7.180E-06,-0.004
-7.170E-06,-0.016
-7.160E-06,-0.012
-7.150E-06,-0.004
-7.140E-06,0.020
-7.130E-06,0.036
-7.120E-06,0.044
-7.110E-06,0.024
-7.100E-06,0.008
-7.090E-06,-0.008
-7.080E-06,-0.024
-7.070E-06,-0.020
-7.060E-06,-0.020
-7.050E-06,-0.008
-7.040E-06,0.016
-7.030E-06,0.008
-7.020E-06,0.004
-7.010E-06,0.004
-7.000E-06,0.000
-6.990E-06,0.000
-6.980E-06,-0.008
-6.970E-06,-0.004
-6.960E-06,-0.008
-6.950E-06,0.000
-6.940E-06,0.008
-6.930E-06,0.012
-6.920E-06,0.012
-6.910E-06,0.004
-6.900E-06,-0.004
-6.890E-06,-0.008
-6.880E-06,-0.004
-6.870E-06,0.004
-6.860E-06,0.012
-6.850E-06,0.020
-6.840E-06,0.020
-6.830E-06,0.004
-6.820E-06,0.004
-6.810E-06,0.004
-6.800E-06,0.008
-6.790E-06,0.012
-6.780E-06,0.008
-6.770E-06,0.004
-6.760E-06,0.008
-6.750E-06,0.016
-6.740E-06,0.004
-6.730E-06,0.000
-6.720E-06,-0.004
-6.710E-06,-0.012
-6.700E-06,-0.012
-6.690E-06,-0.004
-6.680E-06,0.004
-6.670E-06,0.016
-6.660E-06,0.024
-6.650E-06,0.024
-6.640E-06,0.016
-6.630E-06,-0.004
-6.620E-06,-0.008
-6.610E-06,-0.008
-6.600E-06,0.020
-6.590E-06,0.036
-6.580E-06,0.040
-6.570E-06,-0.008
-6.560E-06,-0.048
-6.550E-06,-0.060
-6.540E-06,-0.044
-6.530E-06,-0.016
-6.520E-06,0.028
-6.510E-06,0.056
-6.500E-06,0.040
-6.490E-06,0.032
-6.480E-06,-0.016
-6.470E-06,-0.028
-6.460E-06,-0.028
-6.450E-06,-0.008
-6.440E-06,0.016
-6.430E-06,0.036
-6.420E-06,0.064
-6.410E-06,0.012
-6.400E-06,-0.044
-6.390E-06,-0.060
-6.380E-06,-0.064
-6.370E-06,-0.020
-6.360E-06,0.060
-6.350E-06,0.092
-6.340E-06,0.044
-6.330E-06,-0.024
-6.320E-06,-0.052
-6.310E-06,-0.068
-6.300E-06,-0.008
-6.290E-06,0.044
-6.280E-06,0.072
-6.270E-06,0.056
-6.260E-06,0.000
-6.250E-06,-0.040
-6.240E-06,-0.060
-6.230E-06,-0.020
-6.220E-06,0.028
-6.210E-06,0.056
-6.200E-06,0.056
-6.190E-06,0.000
-6.180E-06,-0.024
-6.170E-06,-0.056
-6.160E-06,-0.032
-6.150E-06,0.004
-6.140E-06,0.040
-6.130E-06,0.048
-6.120E-06,0.028
-6.110E-06,0.000
-6.100E-06,-0.028
-6.090E-06,-0.024
-6.080E-06,-0.008
-6.070E-06,0.024
-6.060E-06,0.032
-6.050E-06,0.032
-6.040E-06,0.012
-6.030E-06,-0.012
-6.020E-06,-0.036
-6.010E-06,-0.024
-6.000E-06,-0.004
-5.990E-06,0.008
-5.980E-06,0.024
-5.970E-06,0.012
-5.960E-06,0.016
-5.950E-06,0.004
-5.940E-06,0.008
-5.930E-06,-0.004
-5.920E-06,0.000
-5.910E-06,0.000
-5.900E-06,0.000
-5.890E-06,-0.004
-5.880E-06,0.008
-5.870E-06,0.008
-5.860E-06,0.012
-5.850E-06,0.012
-5.840E-06,0.004
-5.830E-06,0.008
-5.820E-06,0.008
-5.810E-06,0.008
-5.800E-06,0.004
-5.790E-06,0.000
-5.780E-06,-0.004
-5.770E-06,-0.004
-5.760E-06,0.008
-5.750E-06,0.024
-5.740E-06,0.020
-5.730E-06,0.016
-5.720E-06,0.024
-5.710E-06,-0.004
-5.700E-06,-0.008
-5.690E-06,-0.004
-5.680E-06,-0.004
-5.670E-06,0.004
-5.660E-06,0.016
-5.650E-06,0.004
-5.640E-06,-0.008
-5.630E-06,-0.028
-5.620E-06,-0.016
-5.610E-06,-0.012
-5.600E-06,0.016
-5.590E-06,0.036
-5.580E-06,0.008
-5.570E-06,-0.016
-5.560E-06,-0.024
-5.550E-06,-0.024
-5.540E-06,-0.004
-5.530E-06,0.036
-5.520E-06,0.032
-5.510E-06,0.020
-5.500E-06,0.000
-5.490E-06,-0.020
-5.480E-06,-0.024
-5.470E-06,-0.008
-5.460E-06,0.008
-5.450E-06,0.016
-5.440E-06,0.020
-5.430E-06,0.016
-5.420E-06,0.016
-5.410E-06,0.008
-5.400E-06,0.008
-5.390E-06,0.008
-5.380E-06,0.004
-5.370E-06,0.000
-5.360E-06,-0.004
-5.350E-06,0.012
-5.340E-06,0.032
-5.330E-06,0.052
-5.320E-06,0.028
-5.310E-06,-0.004
-5.300E-06,-0.040
-5.290E-06,-0.036
-5.280E-06,-0.028
-5.270E-06,0.000
-5.260E-06,0.028
-5.250E-06,0.036
-5.240E-06,0.040
-5.230E-06,0.032
-5.220E-06,0.020
-5.210E-06,0.024
-5.200E-06,0.024
-5.190E-06,0.004
-5.180E-06,-0.008
-5.170E-06,-0.036
-5.160E-06,-0.036
-5.150E-06,-0.024
-5.140E-06,0.024
-5.130E-06,0.068
-5.120E-06,0.096
-5.110E-06,0.044
-5.100E-06,-0.012
-5.090E-06,-0.072
-5.080E-06,-0.088
-5.070E-06,-0.036
-5.060E-06,0.020
-5.050E-06,0.092
-5.040E-06,0.100
-5.030E-06,0.072
-5.020E-06,0.004
-5.010E-06,-0.068
-5.000E-06,-0.072
-4.990E-06,-0.032
-4.980E-06,0.036
-4.970E-06,0.084
-4.960E-06,0.064
-4.950E-06,0.012
-4.940E-06,-0.044
-4.930E-06,-0.068
-4.920E-06,-0.068
-4.910E-06,-0.008
-4.900E-06,0.048
-4.890E-06,0.080
-4.880E-06,0.068
-4.870E-06,0.028
-4.860E-06,-0.024
-4.850E-06,-0.036
-4.840E-06,-0.032
-4.830E-06,0.004
-4.820E-06,0.052
-4.810E-06,0.084
-4.800E-06,0.096
-4.790E-06,0.072
-4.780E-06,0.028
-4.770E-06,-0.028
-4.760E-06,-0.036
-4.750E-06,-0.040
-4.740E-06,0.008
-4.730E-06,0.036
-4.720E-06,0.040
-4.710E-06,0.020
-4.700E-06,-0.012
-4.690E-06,-0.032
-4.680E-06,-0.032
-4.670E-06,0.008
-4.660E-06,0.052
-4.650E-06,0.068
-4.640E-06,0.036
-4.630E-06,-0.012
-4.620E-06,-0.032
-4.610E-06,-0.036
-4.600E-06,0.000
-4.590E-06,0.040
-4.580E-06,0.056
-4.570E-06,0.048
-4.560E-06,0.012
-4.550E-06,-0.008
-4.540E-06,-0.032
-4.530E-06,0.000
-4.520E-06,0.012
-4.510E-06,0.060
-4.500E-06,0.064
-4.490E-06,0.008
-4.480E-06,-0.072
-4.470E-06,-0.144
-4.460E-06,-0.104
-4.450E-06,-0.016
-4.440E-06,0.128
-4.430E-06,0.140
-4.420E-06,-0.016
-4.410E-06,-0.192
-4.400E-06,-0.244
-4.390E-06,-0.184
-4.380E-06,0.000
-4.370E-06,0.180
-4.360E-06,0.272
-4.350E-06,0.220
-4.340E-06,0.056
-4.330E-06,-0.104
-4.320E-06,-0.212
-4.310E-06,-0.140
-4.300E-06,-0.032
-4.290E-06,0.008
-4.280E-06,0.024
-4.270E-06,0.044
-4.260E-06,-0.008
-4.250E-06,-0.024
-4.240E-06,-0.028
-4.230E-06,-0.004
-4.220E-06,-0.008
-4.210E-06,0.008
-4.200E-06,0.012
-4.190E-06,0.000
-4.180E-06,0.032
-4.170E-06,0.040
-4.160E-06,0.032
-4.150E-06,0.012
-4.140E-06,0.000
-4.130E-06,-0.012
-4.120E-06,0.004
-4.110E-06,0.032
-4.100E-06,0.060
-4.090E-06,0.064
-4.080E-06,0.056
-4.070E-06,0.056
-4.060E-06,0.040
-4.050E-06,0.028
-4.040E-06,-0.020
-4.030E-06,-0.036
-4.020E-06,-0.044
-4.010E-06,-0.032
-4.000E-06,-0.012
-3.990E-06,0.008
-3.980E-06,0.044
-3.970E-06,0.056
-3.960E-06,0.028
-3.950E-06,-0.032
-3.940E-06,-0.024
-3.930E-06,-0.036
-3.920E-06,0.000
-3.910E-06,0.008
-3.900E-06,0.032
-3.890E-06,0.016
-3.880E-06,-0.032
-3.870E-06,-0.040
-3.860E-06,-0.068
-3.850E-06,-0.008
-3.840E-06,0.020
-3.830E-06,0.016
-3.820E-06,-0.004
-3.810E-06,-0.016
-3.800E-06,-0.024
-3.790E-06,-0.016
-3.780E-06,0.000
-3.770E-06,0.020
-3.760E-06,0.024
-3.750E-06,0.012
-3.740E-06,0.004
-3.730E-06,-0.020
-3.720E-06,-0.004
-3.710E-06,0.000
-3.700E-06,0.008
-3.690E-06,0.024
-3.680E-06,0.028
-3.670E-06,0.028
-3.660E-06,0.016
-3.650E-06,0.012
-3.640E-06,0.028
-3.630E-06,0.056
-3.620E-06,0.092
-3.610E-06,0.116
-3.600E-06,0.064
-3.590E-06,0.008
-3.580E-06,-0.064
-3.570E-06,-0.096
-3.560E-06,-0.076
-3.550E-06,-0.028
-3.540E-06,0.040
-3.530E-06,0.056
-3.520E-06,0.048
-3.510E-06,-0.004
-3.500E-06,-0.068
-3.490E-06,-0.064
-3.480E-06,-0.036
-3.470E-06,-0.004
-3.460E-06,0.036
-3.450E-06,0.040
-3.440E-06,0.020
-3.430E-06,-0.008
-3.420E-06,-0.028
-3.410E-06,-0.036
-3.400E-06,-0.012
-3.390E-06,0.012
-3.380E-06,0.028
-3.370E-06,0.040
-3.360E-06,0.020
-3.350E-06,0.012
-3.340E-06,0.004
-3.330E-06,0.004
-3.320E-06,0.008
-3.310E-06,0.020
-3.300E-06,0.032
-3.290E-06,0.040
-3.280E-06,0.036
-3.270E-06,0.044
-3.260E-06,0.044
-3.250E-06,0.048
-3.240E-06,0.052
-3.230E-06,0.044
-3.220E-06,0.016
-3.210E-06,-0.024
-3.200E-06,-0.044
-3.190E-06,-0.052
-3.180E-06,-0.048
-3.170E-06,-0.052
-3.160E-06,-0.048
-3.150E-06,-0.052
-3.140E-06,-0.036
-3.130E-06,-0.008
-3.120E-06,0.040
-3.110E-06,0.056
-3.100E-06,0.024
-3.090E-06,-0.020
-3.080E-06,-0.040
-3.070E-06,-0.040
-3.060E-06,0.008
-3.050E-06,0.064
-3.040E-06,0.072
-3.030E-06,0.056
-3.020E-06,0.012
-3.010E-06,-0.028
-3.000E-06,-0.056
-2.990E-06,-0.036
-2.980E-06,0.004
-2.970E-06,0.052
-2.960E-06,0.060
-2.950E-06,0.020
-2.940E-06,-0.016
-2.930E-06,-0.036
-2.920E-06,-0.016
-2.910E-06,0.008
-2.900E-06,0.060
-2.890E-06,0.060
-2.880E-06,0.060
-2.870E-06,0.028
-2.860E-06,-0.016
-2.850E-06,-0.044
-2.840E-06,-0.064
-2.830E-06,-0.024
-2.820E-06,-0.008
-2.810E-06,0.020
-2.800E-06,0.024
-2.790E-06,0.056
-2.780E-06,0.036
-2.770E-06,0.024
-2.760E-06,-0.028
-2.750E-06,-0.072
-2.740E-06,-0.072
-2.730E-06,-0.056
-2.720E-06,-0.024
-2.710E-06,0.012
-2.700E-06,0.044
-2.690E-06,0.040
-2.680E-06,0.012
-2.670E-06,-0.024
-2.660E-06,-0.040
-2.650E-06,-0.032
-2.640E-06,-0.012
-2.630E-06,0.020
-2.620E-06,0.056
-2.610E-06,0.060
-2.600E-06,0.024
-2.590E-06,0.000
-2.580E-06,-0.036
-2.570E-06,-0.056
-2.560E-06,-0.028
-2.550E-06,0.000
-2.540E-06,0.028
-2.530E-06,0.040
-2.520E-06,0.028
-2.510E-06,0.008
-2.500E-06,0.000
-2.490E-06,-0.016
-2.480E-06,-0.004
-2.470E-06,0.012
-2.460E-06,0.040
-2.450E-06,0.060
-2.440E-06,0.064
-2.430E-06,0.056
-2.420E-06,0.056
-2.410E-06,0.052
-2.400E-06,0.056
-2.390E-06,0.060
-2.380E-06,0.048
-2.370E-06,0.032
-2.360E-06,-0.024
-2.350E-06,-0.072
-2.340E-06,-0.088
-2.330E-06,-0.084
-2.320E-06,-0.040
-2.310E-06,0.016
-2.300E-06,0.048
-2.290E-06,0.028
-2.280E-06,0.004
-2.270E-06,-0.028
-2.260E-06,-0.040
-2.250E-06,-0.040
-2.240E-06,-0.012
-2.230E-06,0.020
-2.220E-06,0.044
-2.210E-06,0.040
-2.200E-06,0.032
-2.190E-06,0.008
-2.180E-06,0.000
-2.170E-06,0.012
-2.160E-06,0.024
-2.150E-06,0.064
-2.140E-06,0.088
-2.130E-06,0.084
-2.120E-06,0.056
-2.110E-06,-0.004
-2.100E-06,-0.052
-2.090E-06,-0.100
-2.080E-06,-0.056
-2.070E-06,0.000
-2.060E-06,0.056
-2.050E-06,0.092
-2.040E-06,0.012
-2.030E-06,-0.068
-2.020E-06,-0.156
-2.010E-06,-0.156
-2.000E-06,-0.108
-1.990E-06,0.004
-1.980E-06,0.116
-1.970E-06,0.124
-1.960E-06,0.104
-1.950E-06,-0.020
-1.940E-06,-0.084
-1.930E-06,-0.084
-1.920E-06,-0.044
-1.910E-06,0.008
-1.900E-06,0.096
-1.890E-06,0.100
-1.880E-06,0.068
-1.870E-06,0.040
-1.860E-06,-0.008
-1.850E-06,-0.044
-1.840E-06,-0.008
-1.830E-06,0.032
-1.820E-06,0.068
-1.810E-06,0.108
-1.800E-06,0.052
-1.790E-06,-0.024
-1.780E-06,-0.096
-1.770E-06,-0.140
-1.760E-06,-0.100
-1.750E-06,0.008
-1.740E-06,0.108
-1.730E-06,0.152
-1.720E-06,0.140
-1.710E-06,-0.012
-1.700E-06,-0.108
-1.690E-06,-0.152
-1.680E-06,-0.172
-1.670E-06,-0.084
-1.660E-06,0.016
-1.650E-06,0.108
-1.640E-06,0.072
-1.630E-06,0.048
-1.620E-06,-0.072
-1.610E-06,-0.112
-1.600E-06,-0.068
-1.590E-06,-0.032
-1.580E-06,0.004
-1.570E-06,0.064
-1.560E-06,0.048
-1.550E-06,0.000
-1.540E-06,-0.016
-1.530E-06,-0.040
-1.520E-06,-0.020
-1.510E-06,0.008
-1.500E-06,0.040
-1.490E-06,0.036
-1.480E-06,0.040
-1.470E-06,0.024
-1.460E-06,0.008
-1.450E-06,0.008
-1.440E-06,0.012
-1.430E-06,0.020
-1.420E-06,0.040
-1.410E-06,0.060
-1.400E-06,0.068
-1.390E-06,0.080
-1.380E-06,0.084
-1.370E-06,0.088
-1.360E-06,0.060
-1.350E-06,0.004
-1.340E-06,-0.040
-1.330E-06,-0.096
-1.320E-06,-0.104
-1.310E-06,-0.084
-1.300E-06,-0.032
-1.290E-06,0.000
-1.280E-06,0.036
-1.270E-06,0.028
-1.260E-06,0.000
-1.250E-06,-0.012
-1.240E-06,-0.036
-1.230E-06,-0.040
-1.220E-06,-0.024
-1.210E-06,0.012
-1.200E-06,0.000
-1.190E-06,0.020
-1.180E-06,-0.004
-1.170E-06,0.000
-1.160E-06,-0.016
-1.150E-06,-0.016
-1.140E-06,-0.016
-1.130E-06,-0.008
-1.120E-06,0.000
-1.110E-06,0.004
-1.100E-06,0.024
-1.090E-06,0.012
-1.080E-06,0.008
-1.070E-06,-0.008
-1.060E-06,-0.020
-1.050E-06,-0.008
-1.040E-06,0.000
-1.030E-06,0.012
-1.020E-06,0.024
-1.010E-06,0.028
-1.000E-06,0.008
-9.900E-07,0.000
-9.800E-07,-0.008
-9.700E-07,0.012
-9.600E-07,0.020
-9.500E-07,0.040
-9.400E-07,0.032
-9.300E-07,0.036
-9.200E-07,0.024
-9.100E-07,0.020
-9.000E-07,0.008
-8.900E-07,0.008
-8.800E-07,0.012
-8.700E-07,0.004
-8.600E-07,0.000
-8.500E-07,-0.008
-8.400E-07,0.000
-8.300E-07,0.008
-8.200E-07,0.008
-8.100E-07,0.016
-8.000E-07,0.008
-7.900E-07,0.012
-7.800E-07,0.028
-7.700E-07,0.028
-7.600E-07,0.044
-7.500E-07,0.044
-7.400E-07,0.044
-7.300E-07,0.040
-7.200E-07,0.044
-7.100E-07,0.044
-7.000E-07,0.036
-6.900E-07,0.040
-6.800E-07,0.024
-6.700E-07,-0.004
-6.600E-07,-0.028
-6.500E-07,-0.040
-6.400E-07,-0.020
-6.300E-07,-0.004
-6.200E-07,0.020
-6.100E-07,0.024
-6.000E-07,0.012
-5.900E-07,-0.008
-5.800E-07,-0.028
-5.700E-07,-0.036
-5.600E-07,-0.028
-5.500E-07,0.004
-5.400E-07,0.036
-5.300E-07,0.064
-5.200E-07,0.060
-5.100E-07,0.040
-5.000E-07,0.024
-4.900E-07,0.012
-4.800E-07,0.020
-4.700E-07,0.032
-4.600E-07,0.068
-4.500E-07,0.100
-4.400E-07,0.108
-4.300E-07,0.104
-4.200E-07,0.088
-4.100E-07,0.076
-4.000E-07,0.060
-3.900E-07,0.060
-3.800E-07,0.068
-3.700E-07,0.060
-3.600E-07,0.024
-3.500E-07,-0.020
-3.400E-07,-0.052
-3.300E-07,-0.072
-3.200E-07,-0.056
-3.100E-07,0.020
-3.000E-07,0.068
-2.900E-07,0.104
-2.800E-07,0.120
-2.700E-07,0.076
-2.600E-07,0.044
-2.500E-07,0.008
-2.400E-07,0.024
-2.300E-07,0.052
-2.200E-07,0.088
-2.100E-07,0.088
-2.000E-07,0.076
-1.900E-07,0.056
-1.800E-07,0.028
-1.700E-07,0.044
-1.600E-07,0.064
-1.500E-07,0.096
-1.400E-07,0.124
-1.300E-07,0.140
-1.200E-07,0.104
-1.100E-07,0.060
-1.000E-07,0.056
-9.000E-08,0.060
-8.000E-08,0.008
-7.000E-08,-0.132
-6.000E-08,-0.356
-5.000E-08,-0.512
-4.000E-08,-0.512
-3.000E-08,-0.512
-2.000E-08,-0.268
-1.000E-08,0.128
0.000E+00,0.396
1.000E-08,0.428
2.000E-08,0.212
3.000E-08,-0.092
4.000E-08,-0.356
5.000E-08,-0.396
6.000E-08,-0.176
7.000E-08,0.104
8.000E-08,0.336
9.000E-08,0.408
1.000E-07,0.284
1.100E-07,0.072
1.200E-07,-0.132
1.300E-07,-0.224
1.400E-07,-0.208
1.500E-07,-0.076
1.600E-07,0.044
1.700E-07,0.120
1.800E-07,0.108
1.900E-07,0.032
2.000E-07,-0.048
2.100E-07,-0.116
2.200E-07,-0.104
2.300E-07,-0.024
2.400E-07,0.068
2.500E-07,0.144
2.600E-07,0.156
2.700E-07,0.100
2.800E-07,0.004
2.900E-07,-0.124
3.000E-07,-0.172
3.100E-07,-0.152
3.200E-07,-0.068
3.300E-07,0.036
3.400E-07,0.100
3.500E-07,0.092
3.600E-07,0.020
3.700E-07,-0.064
3.800E-07,-0.136
3.900E-07,-0.136
4.000E-07,-0.068
4.100E-07,0.016
4.200E-07,0.092
4.300E-07,0.120
4.400E-07,0.072
4.500E-07,0.000
4.600E-07,-0.052
4.700E-07,-0.072
4.800E-07,-0.032
4.900E-07,0.024
5.000E-07,0.084
5.100E-07,0.104
5.200E-07,0.092
5.300E-07,0.044
5.400E-07,-0.008
5.500E-07,-0.032
5.600E-07,-0.016
5.700E-07,0.020
5.800E-07,0.064
5.900E-07,0.096
6.000E-07,0.108
6.100E-07,0.076
6.200E-07,0.052
6.300E-07,0.020
6.400E-07,0.020
6.500E-07,0.044
6.600E-07,0.088
6.700E-07,0.124
6.800E-07,0.144
6.900E-07,0.160
7.000E-07,0.140
7.100E-07,0.128
7.200E-07,0.116
7.300E-07,0.120
7.400E-07,0.136
7.500E-07,0.152
7.600E-07,0.160
7.700E-07,0.156
7.800E-07,0.144
7.900E-07,0.136
8.000E-07,0.128
8.100E-07,0.124
8.200E-07,0.124
8.300E-07,0.132
8.400E-07,0.140
8.500E-07,0.136
8.600E-07,0.140
8.700E-07,0.140
8.800E-07,0.132
8.900E-07,0.128
9.000E-07,0.120
9.100E-07,0.124
9.200E-07,0.124
9.300E-07,0.140
9.400E-07,0.140
9.500E-07,0.140
9.600E-07,0.144
9.700E-07,0.128
9.800E-07,0.092
9.900E-07,0.044
1.000E-06,-0.060
1.010E-06,-0.184
1.020E-06,-0.176
1.030E-06,-0.200
1.040E-06,-0.232
1.050E-06,-0.160
1.060E-06,-0.124
1.070E-06,-0.132
1.080E-06,-0.192
1.090E-06,-0.184
1.100E-06,-0.144
1.110E-06,-0.056
1.120E-06,0.092
1.130E-06,0.016
1.140E-06,-0.056
1.150E-06,-0.168
1.160E-06,-0.232
1.170E-06,-0.236
1.180E-06,-0.104
1.190E-06,0.028
1.200E-06,0.136
1.210E-06,0.152
1.220E-06,0.092
1.230E-06,-0.084
1.240E-06,-0.232
1.250E-06,-0.264
1.260E-06,-0.208
1.270E-06,-0.044
1.280E-06,0.100
1.290E-06,0.200
1.300E-06,0.212
1.310E-06,0.128
1.320E-06,-0.032
1.330E-06,-0.180
1.340E-06,-0.200
1.350E-06,-0.072
1.360E-06,0.080
1.370E-06,0.256
1.380E-06,0.284
1.390E-06,0.220
1.400E-06,0.092
1.410E-06,-0.056
1.420E-06,-0.108
1.430E-06,-0.080
1.440E-06,0.012
1.450E-06,0.128
1.460E-06,0.184
1.470E-06,0.160
1.480E-06,0.060
1.490E-06,-0.040
1.500E-06,-0.112
1.510E-06,-0.116
1.520E-06,-0.044
1.530E-06,0.024
1.540E-06,0.088
1.550E-06,0.112
1.560E-06,0.092
1.570E-06,0.028
1.580E-06,-0.028
1.590E-06,-0.008
1.600E-06,0.008
1.610E-06,0.056
1.620E-06,0.124
1.630E-06,0.156
1.640E-06,0.132
1.650E-06,0.092
1.660E-06,0.040
1.670E-06,0.036
1.680E-06,0.060
1.690E-06,0.104
1.700E-06,0.152
1.710E-06,0.180
1.720E-06,0.164
1.730E-06,0.128
1.740E-06,0.100
1.750E-06,0.072
1.760E-06,0.092
1.770E-06,0.124
1.780E-06,0.172
1.790E-06,0.200
1.800E-06,0.200
1.810E-06,0.172
1.820E-06,0.148
1.830E-06,0.128
1.840E-06,0.128
1.850E-06,0.144
1.860E-06,0.172
1.870E-06,0.192
1.880E-06,0.192
1.890E-06,0.184
1.900E-06,0.156
1.910E-06,0.140
1.920E-06,0.132
1.930E-06,0.140
1.940E-06,0.156
1.950E-06,0.172
1.960E-06,0.172
1.970E-06,0.172
1.980E-06,0.172
1.990E-06,0.156
2.000E-06,0.144
2.010E-06,0.144
2.020E-06,0.136
2.030E-06,0.132
2.040E-06,0.124
2.050E-06,0.108
2.060E-06,0.088
2.070E-06,0.032
2.080E-06,-0.008
2.090E-06,-0.044
2.100E-06,-0.036
2.110E-06,-0.024
2.120E-06,-0.008
2.130E-06,-0.044
2.140E-06,-0.100
2.150E-06,-0.136
2.160E-06,-0.132
2.170E-06,-0.024
2.180E-06,0.036
2.190E-06,0.040
2.200E-06,0.020
2.210E-06,-0.032
2.220E-06,-0.108
2.230E-06,-0.176
2.240E-06,-0.192
2.250E-06,-0.128
2.260E-06,-0.032
2.270E-06,-0.004
2.280E-06,-0.032
2.290E-06,-0.064
2.300E-06,-0.128
2.310E-06,-0.156
2.320E-06,-0.112
2.330E-06,-0.008
2.340E-06,0.092
2.350E-06,0.144
2.360E-06,0.128
2.370E-06,0.068
2.380E-06,0.020
2.390E-06,-0.012
2.400E-06,0.040
2.410E-06,0.116
2.420E-06,0.204
2.430E-06,0.252
2.440E-06,0.236
2.450E-06,0.192
2.460E-06,0.128
2.470E-06,0.092
2.480E-06,0.092
2.490E-06,0.140
2.500E-06,0.180
2.510E-06,0.216
2.520E-06,0.216
2.530E-06,0.200
2.540E-06,0.156
2.550E-06,0.136
2.560E-06,0.128
2.570E-06,0.140
2.580E-06,0.180
2.590E-06,0.196
2.600E-06,0.208
2.610E-06,0.192
2.620E-06,0.176
2.630E-06,0.160
2.640E-06,0.148
2.650E-06,0.144
2.660E-06,0.160
2.670E-06,0.184
2.680E-06,0.192
2.690E-06,0.188
2.700E-06,0.172
2.710E-06,0.160
2.720E-06,0.148
2.730E-06,0.152
2.740E-06,0.156
2.750E-06,0.168
2.760E-06,0.176
2.770E-06,0.180
2.780E-06,0.172
2.790E-06,0.156
2.800E-06,0.156
2.810E-06,0.152
2.820E-06,0.160
2.830E-06,0.156
2.840E-06,0.160
2.850E-06,0.160
2.860E-06,0.160
2.870E-06,0.148
2.880E-06,0.148
2.890E-06,0.136
2.900E-06,0.144
2.910E-06,0.156
2.920E-06,0.156
2.930E-06,0.160
2.940E-06,0.156
2.950E-06,0.144
2.960E-06,0.136
2.970E-06,0.132
2.980E-06,0.128
2.990E-06,0.140
3.000E-06,0.144
3.010E-06,0.140
3.020E-06,0.152
3.030E-06,0.140
3.040E-06,0.140
3.050E-06,0.140
3.060E-06,0.144
3.070E-06,0.148
3.080E-06,0.160
3.090E-06,0.168
3.100E-06,0.160
3.110E-06,0.160
3.120E-06,0.148
3.130E-06,0.144
3.140E-06,0.152
3.150E-06,0.156
3.160E-06,0.160
3.170E-06,0.168
3.180E-06,0.160
3.190E-06,0.160
3.200E-06,0.148
3.210E-06,0.148
3.220E-06,0.152
3.230E-06,0.156
3.240E-06,0.152
3.250E-06,0.160
3.260E-06,0.160
3.270E-06,0.156
