mediciones/5-15/5.9/WaveData47557.csv

#timebase=2000000(ps)
,#voltbase=100000(mv/100)
#size=4000
-8.400E-06,0.000
-8.390E-06,0.004
-8.380E-06,0.000
-8.370E-06,0.004
-8.360E-06,0.004
-8.350E-06,0.004
-8.340E-06,0.008
-8.330E-06,0.008
-8.320E-06,0.000
-8.310E-06,0.000
-8.300E-06,0.004
-8.290E-06,0.008
-8.280E-06,0.004
-8.270E-06,0.000
-8.260E-06,0.000
-8.250E-06,0.004
-8.240E-06,0.004
-8.230E-06,0.004
-8.220E-06,0.004
-8.210E-06,0.000
-8.200E-06,0.004
-8.190E-06,0.000
-8.180E-06,0.004
-8.170E-06,0.000
-8.160E-06,0.004
-8.150E-06,0.004
-8.140E-06,0.004
-8.130E-06,0.004
-8.120E-06,0.000
-8.110E-06,0.000
-8.100E-06,0.000
-8.090E-06,0.004
-8.080E-06,0.004
-8.070E-06,0.004
-8.060E-06,0.004
-8.050E-06,0.004
-8.040E-06,0.004
-8.030E-06,0.004
-8.020E-06,0.004
-8.010E-06,0.012
-8.000E-06,0.036
-7.990E-06,0.088
-7.980E-06,0.108
-7.970E-06,0.060
-7.960E-06,-0.024
-7.950E-06,-0.172
-7.940E-06,-0.188
-7.930E-06,-0.140
-7.920E-06,0.036
-7.910E-06,0.208
-7.900E-06,0.228
-7.890E-06,0.144
-7.880E-06,-0.036
-7.870E-06,-0.192
-7.860E-06,-0.196
-7.850E-06,-0.080
-7.840E-06,0.044
-7.830E-06,0.168
-7.820E-06,0.172
-7.810E-06,0.108
-7.800E-06,-0.008
-7.790E-06,-0.112
-7.780E-06,-0.140
-7.770E-06,-0.116
-7.760E-06,-0.028
-7.750E-06,0.060
-7.740E-06,0.124
-7.730E-06,0.132
-7.720E-06,0.088
-7.710E-06,-0.004
-7.700E-06,-0.088
-7.690E-06,-0.124
-7.680E-06,-0.096
-7.670E-06,0.000
-7.660E-06,0.084
-7.650E-06,0.132
-7.640E-06,0.100
-7.630E-06,0.020
-7.620E-06,-0.076
-7.610E-06,-0.128
-7.600E-06,-0.108
-7.590E-06,-0.040
-7.580E-06,0.056
-7.570E-06,0.108
-7.560E-06,0.104
-7.550E-06,0.048
-7.540E-06,-0.008
-7.530E-06,-0.060
-7.520E-06,-0.064
-7.510E-06,-0.032
-7.500E-06,0.012
-7.490E-06,0.056
-7.480E-06,0.064
-7.470E-06,0.048
-7.460E-06,0.008
-7.450E-06,-0.024
-7.440E-06,-0.056
-7.430E-06,-0.048
-7.420E-06,-0.024
-7.410E-06,0.016
-7.400E-06,0.056
-7.390E-06,0.060
-7.380E-06,0.044
-7.370E-06,0.004
-7.360E-06,-0.028
-7.350E-06,-0.040
-7.340E-06,-0.036
-7.330E-06,-0.004
-7.320E-06,0.028
-7.310E-06,0.044
-7.300E-06,0.036
-7.290E-06,0.008
-7.280E-06,-0.024
-7.270E-06,-0.044
-7.260E-06,-0.032
-7.250E-06,-0.012
-7.240E-06,0.024
-7.230E-06,0.032
-7.220E-06,0.032
-7.210E-06,0.016
-7.200E-06,0.000
-7.190E-06,-0.008
-7.180E-06,-0.016
-7.170E-06,-0.008
-7.160E-06,0.016
-7.150E-06,0.024
-7.140E-06,0.016
-7.130E-06,0.008
-7.120E-06,0.000
-7.110E-06,-0.004
-7.100E-06,-0.016
-7.090E-06,-0.012
-7.080E-06,0.004
-7.070E-06,0.012
-7.060E-06,0.020
-7.050E-06,0.012
-7.040E-06,0.004
-7.030E-06,-0.004
-7.020E-06,0.000
-7.010E-06,-0.004
-7.000E-06,0.004
-6.990E-06,0.008
-6.980E-06,0.008
-6.970E-06,0.008
-6.960E-06,0.008
-6.950E-06,-0.004
-6.940E-06,-0.004
-6.930E-06,-0.004
-6.920E-06,0.000
-6.910E-06,0.008
-6.900E-06,0.012
-6.890E-06,0.008
-6.880E-06,0.008
-6.870E-06,0.004
-6.860E-06,0.000
-6.850E-06,-0.004
-6.840E-06,0.004
-6.830E-06,0.004
-6.820E-06,0.012
-6.810E-06,0.016
-6.800E-06,0.008
-6.790E-06,-0.008
-6.780E-06,-0.008
-6.770E-06,-0.008
-6.760E-06,0.000
-6.750E-06,0.004
-6.740E-06,0.012
-6.730E-06,0.004
-6.720E-06,0.004
-6.710E-06,0.000
-6.700E-06,-0.008
-6.690E-06,-0.008
-6.680E-06,0.008
-6.670E-06,0.012
-6.660E-06,0.012
-6.650E-06,0.008
-6.640E-06,0.004
-6.630E-06,0.000
-6.620E-06,0.004
-6.610E-06,-0.004
-6.600E-06,0.000
-6.590E-06,0.012
-6.580E-06,0.016
-6.570E-06,0.016
-6.560E-06,0.000
-6.550E-06,0.000
-6.540E-06,-0.008
-6.530E-06,-0.004
-6.520E-06,0.000
-6.510E-06,0.008
-6.500E-06,0.008
-6.490E-06,0.004
-6.480E-06,0.004
-6.470E-06,0.000
-6.460E-06,0.000
-6.450E-06,0.000
-6.440E-06,-0.004
-6.430E-06,0.008
-6.420E-06,0.008
-6.410E-06,0.008
-6.400E-06,0.008
-6.390E-06,0.004
-6.380E-06,-0.004
-6.370E-06,-0.008
-6.360E-06,-0.004
-6.350E-06,-0.004
-6.340E-06,0.008
-6.330E-06,0.012
-6.320E-06,0.020
-6.310E-06,0.008
-6.300E-06,-0.008
-6.290E-06,-0.008
-6.280E-06,-0.008
-6.270E-06,-0.004
-6.260E-06,0.008
-6.250E-06,0.016
-6.240E-06,0.016
-6.230E-06,0.008
-6.220E-06,-0.004
-6.210E-06,-0.004
-6.200E-06,-0.004
-6.190E-06,-0.004
-6.180E-06,0.008
-6.170E-06,0.012
-6.160E-06,0.008
-6.150E-06,0.008
-6.140E-06,0.008
-6.130E-06,-0.004
-6.120E-06,-0.004
-6.110E-06,-0.012
-6.100E-06,-0.016
-6.090E-06,0.000
-6.080E-06,0.008
-6.070E-06,0.024
-6.060E-06,0.020
-6.050E-06,0.012
-6.040E-06,0.000
-6.030E-06,-0.008
-6.020E-06,-0.008
-6.010E-06,0.000
-6.000E-06,0.012
-5.990E-06,0.020
-5.980E-06,0.012
-5.970E-06,0.008
-5.960E-06,0.000
-5.950E-06,0.000
-5.940E-06,-0.004
-5.930E-06,0.000
-5.920E-06,0.012
-5.910E-06,0.012
-5.900E-06,0.008
-5.890E-06,-0.004
-5.880E-06,-0.004
-5.870E-06,-0.008
-5.860E-06,-0.004
-5.850E-06,0.004
-5.840E-06,0.004
-5.830E-06,0.012
-5.820E-06,0.008
-5.810E-06,0.012
-5.800E-06,0.004
-5.790E-06,0.000
-5.780E-06,-0.008
-5.770E-06,-0.008
-5.760E-06,-0.004
-5.750E-06,0.004
-5.740E-06,0.020
-5.730E-06,0.024
-5.720E-06,0.012
-5.710E-06,0.004
-5.700E-06,0.004
-5.690E-06,-0.004
-5.680E-06,-0.004
-5.670E-06,0.004
-5.660E-06,-0.008
-5.650E-06,-0.008
-5.640E-06,0.000
-5.630E-06,-0.004
-5.620E-06,0.000
-5.610E-06,0.004
-5.600E-06,0.012
-5.590E-06,0.000
-5.580E-06,0.004
-5.570E-06,0.012
-5.560E-06,-0.004
-5.550E-06,-0.004
-5.540E-06,-0.004
-5.530E-06,0.004
-5.520E-06,0.008
-5.510E-06,0.004
-5.500E-06,0.000
-5.490E-06,-0.004
-5.480E-06,0.004
-5.470E-06,0.004
-5.460E-06,0.008
-5.450E-06,0.004
-5.440E-06,0.000
-5.430E-06,0.000
-5.420E-06,0.000
-5.410E-06,0.008
-5.400E-06,0.012
-5.390E-06,0.004
-5.380E-06,0.008
-5.370E-06,0.008
-5.360E-06,0.000
-5.350E-06,-0.008
-5.340E-06,-0.004
-5.330E-06,0.000
-5.320E-06,0.004
-5.310E-06,0.004
-5.300E-06,0.000
-5.290E-06,0.004
-5.280E-06,0.004
-5.270E-06,0.000
-5.260E-06,0.000
-5.250E-06,0.004
-5.240E-06,0.000
-5.230E-06,0.004
-5.220E-06,0.008
-5.210E-06,0.004
-5.200E-06,0.000
-5.190E-06,0.004
-5.180E-06,0.008
-5.170E-06,0.008
-5.160E-06,0.008
-5.150E-06,0.000
-5.140E-06,0.000
-5.130E-06,-0.004
-5.120E-06,0.000
-5.110E-06,0.008
-5.100E-06,0.016
-5.090E-06,0.012
-5.080E-06,0.012
-5.070E-06,0.008
-5.060E-06,0.000
-5.050E-06,-0.004
-5.040E-06,-0.004
-5.030E-06,0.000
-5.020E-06,0.004
-5.010E-06,0.016
-5.000E-06,0.020
-4.990E-06,0.020
-4.980E-06,0.008
-4.970E-06,0.004
-4.960E-06,-0.012
-4.950E-06,-0.016
-4.940E-06,-0.004
-4.930E-06,0.012
-4.920E-06,0.016
-4.910E-06,0.024
-4.900E-06,0.000
-4.890E-06,-0.016
-4.880E-06,-0.020
-4.870E-06,-0.008
-4.860E-06,0.012
-4.850E-06,0.024
-4.840E-06,0.020
-4.830E-06,0.004
-4.820E-06,-0.008
-4.810E-06,-0.020
-4.800E-06,-0.016
-4.790E-06,0.000
-4.780E-06,0.024
-4.770E-06,0.028
-4.760E-06,0.012
-4.750E-06,-0.004
-4.740E-06,-0.012
-4.730E-06,-0.016
-4.720E-06,0.000
-4.710E-06,0.012
-4.700E-06,0.024
-4.690E-06,0.020
-4.680E-06,0.012
-4.670E-06,-0.004
-4.660E-06,0.000
-4.650E-06,-0.004
-4.640E-06,-0.004
-4.630E-06,0.008
-4.620E-06,0.004
-4.610E-06,0.008
-4.600E-06,0.004
-4.590E-06,-0.004
-4.580E-06,-0.004
-4.570E-06,0.000
-4.560E-06,0.008
-4.550E-06,0.000
-4.540E-06,0.004
-4.530E-06,0.000
-4.520E-06,0.008
-4.510E-06,0.016
-4.500E-06,0.008
-4.490E-06,0.000
-4.480E-06,0.000
-4.470E-06,0.000
-4.460E-06,0.000
-4.450E-06,0.008
-4.440E-06,0.008
-4.430E-06,0.008
-4.420E-06,0.000
-4.410E-06,-0.004
-4.400E-06,0.000
-4.390E-06,0.004
-4.380E-06,0.004
-4.370E-06,0.012
-4.360E-06,0.000
-4.350E-06,0.000
-4.340E-06,-0.008
-4.330E-06,0.000
-4.320E-06,0.012
-4.310E-06,0.024
-4.300E-06,0.020
-4.290E-06,0.004
-4.280E-06,-0.008
-4.270E-06,-0.024
-4.260E-06,-0.004
-4.250E-06,-0.004
-4.240E-06,0.020
-4.230E-06,0.020
-4.220E-06,0.020
-4.210E-06,0.004
-4.200E-06,-0.004
-4.190E-06,-0.008
-4.180E-06,-0.008
-4.170E-06,-0.004
-4.160E-06,0.004
-4.150E-06,0.004
-4.140E-06,0.008
-4.130E-06,0.012
-4.120E-06,0.008
-4.110E-06,0.008
-4.100E-06,0.000
-4.090E-06,-0.004
-4.080E-06,0.004
-4.070E-06,0.004
-4.060E-06,0.008
-4.050E-06,0.000
-4.040E-06,-0.004
-4.030E-06,-0.004
-4.020E-06,-0.008
-4.010E-06,0.008
-4.000E-06,0.000
-3.990E-06,0.000
-3.980E-06,-0.004
-3.970E-06,0.000
-3.960E-06,0.016
-3.950E-06,0.020
-3.940E-06,0.008
-3.930E-06,-0.004
-3.920E-06,-0.016
-3.910E-06,-0.020
-3.900E-06,-0.008
-3.890E-06,0.016
-3.880E-06,0.028
-3.870E-06,0.024
-3.860E-06,0.008
-3.850E-06,-0.008
-3.840E-06,-0.024
-3.830E-06,-0.008
-3.820E-06,0.000
-3.810E-06,0.016
-3.800E-06,0.012
-3.790E-06,0.008
-3.780E-06,0.004
-3.770E-06,0.000
-3.760E-06,0.000
-3.750E-06,0.004
-3.740E-06,0.004
-3.730E-06,0.000
-3.720E-06,0.008
-3.710E-06,0.004
-3.700E-06,0.008
-3.690E-06,0.008
-3.680E-06,0.012
-3.670E-06,0.004
-3.660E-06,0.000
-3.650E-06,-0.004
-3.640E-06,0.004
-3.630E-06,0.016
-3.620E-06,0.008
-3.610E-06,0.012
-3.600E-06,0.008
-3.590E-06,0.004
-3.580E-06,0.004
-3.570E-06,0.008
-3.560E-06,0.012
-3.550E-06,0.016
-3.540E-06,0.008
-3.530E-06,0.008
-3.520E-06,0.012
-3.510E-06,0.012
-3.500E-06,0.012
-3.490E-06,-0.004
-3.480E-06,-0.012
-3.470E-06,-0.020
-3.460E-06,-0.008
-3.450E-06,0.008
-3.440E-06,0.028
-3.430E-06,0.040
-3.420E-06,0.024
-3.410E-06,0.004
-3.400E-06,0.000
-3.390E-06,-0.004
-3.380E-06,0.008
-3.370E-06,0.024
-3.360E-06,0.012
-3.350E-06,-0.008
-3.340E-06,-0.024
-3.330E-06,-0.040
-3.320E-06,-0.020
-3.310E-06,0.004
-3.300E-06,0.024
-3.290E-06,0.028
-3.280E-06,0.028
-3.270E-06,0.012
-3.260E-06,0.000
-3.250E-06,-0.012
-3.240E-06,-0.016
-3.230E-06,-0.016
-3.220E-06,0.000
-3.210E-06,0.016
-3.200E-06,0.032
-3.190E-06,0.036
-3.180E-06,0.032
-3.170E-06,0.012
-3.160E-06,-0.024
-3.150E-06,-0.028
-3.140E-06,-0.024
-3.130E-06,0.020
-3.120E-06,0.040
-3.110E-06,0.044
-3.100E-06,0.020
-3.090E-06,-0.024
-3.080E-06,-0.052
-3.070E-06,-0.048
-3.060E-06,-0.024
-3.050E-06,0.008
-3.040E-06,0.044
-3.030E-06,0.056
-3.020E-06,0.028
-3.010E-06,-0.004
-3.000E-06,-0.028
-2.990E-06,-0.024
-2.980E-06,-0.004
-2.970E-06,0.032
-2.960E-06,0.048
-2.950E-06,0.052
-2.940E-06,0.048
-2.930E-06,0.036
-2.920E-06,0.008
-2.910E-06,-0.008
-2.900E-06,-0.020
-2.890E-06,-0.004
-2.880E-06,0.028
-2.870E-06,0.052
-2.860E-06,0.044
-2.850E-06,0.012
-2.840E-06,-0.024
-2.830E-06,-0.008
-2.820E-06,-0.068
-2.810E-06,-0.088
-2.800E-06,-0.064
-2.790E-06,-0.036
-2.780E-06,0.052
-2.770E-06,0.068
-2.760E-06,0.072
-2.750E-06,0.012
-2.740E-06,-0.044
-2.730E-06,-0.088
-2.720E-06,-0.080
-2.710E-06,-0.024
-2.700E-06,0.048
-2.690E-06,0.100
-2.680E-06,0.088
-2.670E-06,0.024
-2.660E-06,-0.056
-2.650E-06,-0.068
-2.640E-06,-0.040
-2.630E-06,0.032
-2.620E-06,0.072
-2.610E-06,0.064
-2.600E-06,0.020
-2.590E-06,-0.024
-2.580E-06,-0.044
-2.570E-06,-0.028
-2.560E-06,0.016
-2.550E-06,0.064
-2.540E-06,0.096
-2.530E-06,0.084
-2.520E-06,0.056
-2.510E-06,-0.008
-2.500E-06,-0.072
-2.490E-06,-0.100
-2.480E-06,-0.088
-2.470E-06,-0.024
-2.460E-06,0.044
-2.450E-06,0.100
-2.440E-06,0.088
-2.430E-06,0.040
-2.420E-06,-0.024
-2.410E-06,-0.056
-2.400E-06,-0.036
-2.390E-06,0.012
-2.380E-06,0.108
-2.370E-06,0.140
-2.360E-06,0.016
-2.350E-06,-0.100
-2.340E-06,-0.160
-2.330E-06,-0.168
-2.320E-06,-0.068
-2.310E-06,0.080
-2.300E-06,0.172
-2.290E-06,0.132
-2.280E-06,0.028
-2.270E-06,-0.076
-2.260E-06,-0.140
-2.250E-06,-0.120
-2.240E-06,-0.028
-2.230E-06,0.072
-2.220E-06,0.124
-2.210E-06,0.100
-2.200E-06,0.032
-2.190E-06,-0.036
-2.180E-06,-0.084
-2.170E-06,-0.064
-2.160E-06,-0.020
-2.150E-06,0.040
-2.140E-06,0.068
-2.130E-06,0.084
-2.120E-06,0.064
-2.110E-06,0.056
-2.100E-06,-0.004
-2.090E-06,-0.076
-2.080E-06,-0.088
-2.070E-06,-0.088
-2.060E-06,-0.040
-2.050E-06,0.044
-2.040E-06,0.092
-2.030E-06,0.052
-2.020E-06,0.012
-2.010E-06,-0.044
-2.000E-06,-0.056
-1.990E-06,-0.044
-1.980E-06,-0.012
-1.970E-06,0.024
-1.960E-06,0.032
-1.950E-06,0.036
-1.940E-06,0.024
-1.930E-06,0.008
-1.920E-06,-0.012
-1.910E-06,-0.028
-1.900E-06,-0.032
-1.890E-06,-0.004
-1.880E-06,0.024
-1.870E-06,0.052
-1.860E-06,0.060
-1.850E-06,0.032
-1.840E-06,0.004
-1.830E-06,-0.020
-1.820E-06,-0.016
-1.810E-06,0.004
-1.800E-06,0.040
-1.790E-06,0.076
-1.780E-06,0.088
-1.770E-06,0.072
-1.760E-06,0.028
-1.750E-06,-0.040
-1.740E-06,-0.100
-1.730E-06,-0.088
-1.720E-06,-0.008
-1.710E-06,0.096
-1.700E-06,0.128
-1.690E-06,0.080
-1.680E-06,-0.072
-1.670E-06,-0.188
-1.660E-06,-0.156
-1.650E-06,-0.076
-1.640E-06,0.064
-1.630E-06,0.128
-1.620E-06,0.148
-1.610E-06,0.064
-1.600E-06,-0.052
-1.590E-06,-0.132
-1.580E-06,-0.124
-1.570E-06,-0.036
-1.560E-06,0.044
-1.550E-06,0.108
-1.540E-06,0.092
-1.530E-06,0.048
-1.520E-06,-0.012
-1.510E-06,-0.048
-1.500E-06,-0.068
-1.490E-06,-0.044
-1.480E-06,0.012
-1.470E-06,0.068
-1.460E-06,0.104
-1.450E-06,0.092
-1.440E-06,0.056
-1.430E-06,-0.004
-1.420E-06,-0.052
-1.410E-06,-0.088
-1.400E-06,-0.048
-1.390E-06,-0.004
-1.380E-06,0.040
-1.370E-06,0.060
-1.360E-06,0.024
-1.350E-06,0.004
-1.340E-06,-0.008
-1.330E-06,0.008
-1.320E-06,0.020
-1.310E-06,0.048
-1.300E-06,0.052
-1.290E-06,0.032
-1.280E-06,0.008
-1.270E-06,-0.008
-1.260E-06,0.008
-1.250E-06,0.036
-1.240E-06,0.088
-1.230E-06,0.076
-1.220E-06,0.044
-1.210E-06,-0.036
-1.200E-06,-0.104
-1.190E-06,-0.136
-1.180E-06,-0.124
-1.170E-06,-0.048
-1.160E-06,0.052
-1.150E-06,0.108
-1.140E-06,0.104
-1.130E-06,0.056
-1.120E-06,-0.012
-1.110E-06,-0.060
-1.100E-06,-0.056
-1.090E-06,-0.004
-1.080E-06,0.048
-1.070E-06,0.092
-1.060E-06,0.104
-1.050E-06,0.088
-1.040E-06,0.036
-1.030E-06,-0.008
-1.020E-06,-0.016
-1.010E-06,-0.004
-1.000E-06,0.032
-9.900E-07,0.044
-9.800E-07,0.004
-9.700E-07,-0.056
-9.600E-07,-0.104
-9.500E-07,-0.112
-9.400E-07,-0.072
-9.300E-07,-0.004
-9.200E-07,0.060
-9.100E-07,0.080
-9.000E-07,0.056
-8.900E-07,0.008
-8.800E-07,-0.024
-8.700E-07,-0.008
-8.600E-07,0.024
-8.500E-07,0.064
-8.400E-07,0.084
-8.300E-07,0.064
-8.200E-07,0.008
-8.100E-07,-0.012
-8.000E-07,-0.020
-7.900E-07,0.032
-7.800E-07,0.120
-7.700E-07,0.124
-7.600E-07,0.064
-7.500E-07,-0.044
-7.400E-07,-0.136
-7.300E-07,-0.256
-7.200E-07,-0.232
-7.100E-07,-0.104
-7.000E-07,0.056
-6.900E-07,0.164
-6.800E-07,0.168
-6.700E-07,0.084
-6.600E-07,-0.056
-6.500E-07,-0.140
-6.400E-07,-0.156
-6.300E-07,-0.068
-6.200E-07,0.036
-6.100E-07,0.136
-6.000E-07,0.168
-5.900E-07,0.132
-5.800E-07,0.024
-5.700E-07,-0.068
-5.600E-07,-0.072
-5.500E-07,-0.020
-5.400E-07,0.084
-5.300E-07,0.156
-5.200E-07,0.168
-5.100E-07,0.104
-5.000E-07,0.028
-4.900E-07,-0.044
-4.800E-07,-0.060
-4.700E-07,-0.028
-4.600E-07,0.040
-4.500E-07,0.108
-4.400E-07,0.128
-4.300E-07,0.100
-4.200E-07,0.048
-4.100E-07,0.016
-4.000E-07,0.000
-3.900E-07,0.008
-3.800E-07,-0.024
-3.700E-07,-0.064
-3.600E-07,-0.092
-3.500E-07,-0.072
-3.400E-07,-0.028
-3.300E-07,0.048
-3.200E-07,0.100
-3.100E-07,0.092
-3.000E-07,0.060
-2.900E-07,0.004
-2.800E-07,-0.056
-2.700E-07,-0.084
-2.600E-07,-0.092
-2.500E-07,-0.056
-2.400E-07,0.000
-2.300E-07,0.020
-2.200E-07,0.036
-2.100E-07,0.012
-2.000E-07,-0.012
-1.900E-07,-0.008
-1.800E-07,0.028
-1.700E-07,0.124
-1.600E-07,0.208
-1.500E-07,0.252
-1.400E-07,0.224
-1.300E-07,0.132
-1.200E-07,0.056
-1.100E-07,0.008
-1.000E-07,0.036
-9.000E-08,0.136
-8.000E-08,0.224
-7.000E-08,0.088
-6.000E-08,-0.124
-5.000E-08,-0.512
-4.000E-08,-0.512
-3.000E-08,-0.512
-2.000E-08,-0.272
-1.000E-08,0.268
0.000E+00,0.540
1.000E-08,0.540
2.000E-08,0.192
3.000E-08,-0.320
4.000E-08,-0.512
5.000E-08,-0.476
6.000E-08,-0.076
7.000E-08,0.404
8.000E-08,0.540
9.000E-08,0.504
1.000E-07,0.140
1.100E-07,-0.176
1.200E-07,-0.408
1.300E-07,-0.436
1.400E-07,-0.280
1.500E-07,-0.184
1.600E-07,0.016
1.700E-07,0.144
1.800E-07,0.220
1.900E-07,0.092
2.000E-07,0.000
2.100E-07,-0.184
2.200E-07,-0.216
2.300E-07,-0.128
2.400E-07,0.000
2.500E-07,0.168
2.600E-07,0.192
2.700E-07,0.144
2.800E-07,-0.032
2.900E-07,-0.136
3.000E-07,-0.204
3.100E-07,-0.108
3.200E-07,0.016
3.300E-07,0.136
3.400E-07,0.156
3.500E-07,0.108
3.600E-07,0.008
3.700E-07,-0.088
3.800E-07,-0.092
3.900E-07,-0.056
4.000E-07,0.032
4.100E-07,0.088
4.200E-07,0.128
4.300E-07,0.088
4.400E-07,0.028
4.500E-07,-0.040
4.600E-07,-0.056
4.700E-07,-0.020
4.800E-07,0.044
4.900E-07,0.108
5.000E-07,0.124
5.100E-07,0.128
5.200E-07,0.100
5.300E-07,0.088
5.400E-07,0.072
5.500E-07,0.108
5.600E-07,0.136
5.700E-07,0.180
5.800E-07,0.188
5.900E-07,0.176
6.000E-07,0.164
6.100E-07,0.140
6.200E-07,0.128
6.300E-07,0.120
6.400E-07,0.140
6.500E-07,0.136
6.600E-07,0.128
6.700E-07,0.128
6.800E-07,0.144
6.900E-07,0.172
7.000E-07,0.192
7.100E-07,0.164
7.200E-07,-0.104
7.300E-07,-0.320
7.400E-07,-0.420
7.500E-07,-0.228
7.600E-07,0.008
7.700E-07,0.320
7.800E-07,0.440
7.900E-07,0.168
8.000E-07,-0.364
8.100E-07,-0.512
8.200E-07,-0.508
8.300E-07,-0.508
8.400E-07,-0.004
8.500E-07,0.536
8.600E-07,0.540
8.700E-07,0.540
8.800E-07,0.092
8.900E-07,-0.372
9.000E-07,-0.468
9.100E-07,-0.204
9.200E-07,0.156
9.300E-07,0.400
9.400E-07,0.224
9.500E-07,-0.260
9.600E-07,-0.508
9.700E-07,-0.508
9.800E-07,-0.460
9.900E-07,-0.028
1.000E-06,0.308
1.010E-06,0.464
1.020E-06,0.316
1.030E-06,0.000
1.040E-06,-0.284
1.050E-06,-0.356
1.060E-06,-0.228
1.070E-06,0.016
1.080E-06,0.244
1.090E-06,0.288
1.100E-06,0.208
1.110E-06,0.020
1.120E-06,-0.164
1.130E-06,-0.240
1.140E-06,-0.140
1.150E-06,0.032
1.160E-06,0.164
1.170E-06,0.244
1.180E-06,0.204
1.190E-06,0.064
1.200E-06,-0.056
1.210E-06,-0.096
1.220E-06,-0.088
1.230E-06,0.028
1.240E-06,0.164
1.250E-06,0.220
1.260E-06,0.188
1.270E-06,0.092
1.280E-06,-0.016
1.290E-06,-0.104
1.300E-06,-0.144
1.310E-06,-0.092
1.320E-06,0.020
1.330E-06,0.092
1.340E-06,0.124
1.350E-06,0.104
1.360E-06,0.056
1.370E-06,0.000
1.380E-06,0.004
1.390E-06,0.096
1.400E-06,0.176
1.410E-06,0.260
1.420E-06,0.304
1.430E-06,0.300
1.440E-06,0.220
1.450E-06,0.152
1.460E-06,0.116
1.470E-06,0.124
1.480E-06,0.168
1.490E-06,0.212
1.500E-06,0.228
1.510E-06,0.208
1.520E-06,0.180
1.530E-06,0.128
1.540E-06,0.108
1.550E-06,0.084
1.560E-06,0.124
1.570E-06,0.156
1.580E-06,0.192
1.590E-06,0.204
1.600E-06,0.208
1.610E-06,0.204
1.620E-06,0.200
1.630E-06,0.176
1.640E-06,0.112
1.650E-06,-0.072
1.660E-06,-0.104
1.670E-06,-0.508
1.680E-06,-0.508
1.690E-06,-0.508
1.700E-06,-0.512
1.710E-06,-0.512
1.720E-06,-0.512
1.730E-06,-0.376
1.740E-06,0.000
1.750E-06,-0.012
1.760E-06,-0.040
1.770E-06,0.048
1.780E-06,0.096
1.790E-06,0.008
1.800E-06,-0.260
1.810E-06,-0.260
1.820E-06,-0.220
1.830E-06,0.148
1.840E-06,0.336
1.850E-06,0.312
1.860E-06,-0.208
1.870E-06,-0.448
1.880E-06,-0.384
1.890E-06,-0.052
1.900E-06,0.260
1.910E-06,0.440
1.920E-06,0.348
1.930E-06,0.076
1.940E-06,-0.204
1.950E-06,-0.416
1.960E-06,-0.316
1.970E-06,-0.092
1.980E-06,0.248
1.990E-06,0.412
2.000E-06,0.416
2.010E-06,0.160
2.020E-06,-0.136
2.030E-06,-0.372
2.040E-06,-0.368
2.050E-06,-0.124
2.060E-06,0.168
2.070E-06,0.368
2.080E-06,0.352
2.090E-06,0.176
2.100E-06,-0.136
2.110E-06,-0.300
2.120E-06,-0.320
2.130E-06,-0.108
2.140E-06,0.140
2.150E-06,0.336
2.160E-06,0.364
2.170E-06,0.196
2.180E-06,-0.040
2.190E-06,-0.216
2.200E-06,-0.228
2.210E-06,-0.072
2.220E-06,0.196
2.230E-06,0.392
2.240E-06,0.432
2.250E-06,0.292
2.260E-06,0.088
2.270E-06,-0.068
2.280E-06,-0.084
2.290E-06,0.056
2.300E-06,0.280
2.310E-06,0.468
2.320E-06,0.496
2.330E-06,0.408
2.340E-06,0.196
2.350E-06,0.024
2.360E-06,-0.040
2.370E-06,0.028
2.380E-06,0.152
2.390E-06,0.264
2.400E-06,0.276
2.410E-06,0.180
2.420E-06,0.020
2.430E-06,-0.136
2.440E-06,-0.212
2.450E-06,-0.192
2.460E-06,-0.068
2.470E-06,0.032
2.480E-06,0.128
2.490E-06,0.136
2.500E-06,0.080
2.510E-06,0.016
2.520E-06,-0.032
2.530E-06,-0.012
2.540E-06,0.040
2.550E-06,0.160
2.560E-06,0.244
2.570E-06,0.300
2.580E-06,0.284
2.590E-06,0.228
2.600E-06,0.168
2.610E-06,0.152
2.620E-06,0.164
2.630E-06,0.216
2.640E-06,0.276
2.650E-06,0.312
2.660E-06,0.312
2.670E-06,0.264
2.680E-06,0.212
2.690E-06,0.156
2.700E-06,0.168
2.710E-06,0.200
2.720E-06,0.244
2.730E-06,0.280
2.740E-06,0.272
2.750E-06,0.228
2.760E-06,0.168
2.770E-06,0.072
2.780E-06,-0.056
2.790E-06,-0.244
2.800E-06,-0.424
2.810E-06,-0.424
2.820E-06,-0.272
2.830E-06,0.012
2.840E-06,0.244
2.850E-06,0.356
2.860E-06,0.356
2.870E-06,0.116
2.880E-06,-0.276
2.890E-06,-0.508
2.900E-06,-0.508
2.910E-06,-0.512
2.920E-06,-0.512
2.930E-06,-0.500
2.940E-06,-0.076
2.950E-06,0.164
2.960E-06,0.176
2.970E-06,-0.104
2.980E-06,-0.444
2.990E-06,-0.512
3.000E-06,-0.508
3.010E-06,-0.456
3.020E-06,-0.044
3.030E-06,0.324
3.040E-06,0.448
3.050E-06,0.276
3.060E-06,-0.156
3.070E-06,-0.508
3.080E-06,-0.512
3.090E-06,-0.512
3.100E-06,-0.168
3.110E-06,0.292
3.120E-06,0.540
3.130E-06,0.540
3.140E-06,0.228
3.150E-06,-0.216
3.160E-06,-0.476
3.170E-06,-0.436
3.180E-06,-0.132
3.190E-06,0.256
3.200E-06,0.540
3.210E-06,0.544
3.220E-06,0.484
3.230E-06,0.172
3.240E-06,-0.108
3.250E-06,-0.220
3.260E-06,-0.072
