mediciones/5-15/5.9/WaveData47547.csv

#timebase=2000000(ps)
,#voltbase=100000(mv/100)
#size=4000
-8.400E-06,0.000
-8.390E-06,0.000
-8.380E-06,0.008
-8.370E-06,0.008
-8.360E-06,0.008
-8.350E-06,0.004
-8.340E-06,-0.004
-8.330E-06,-0.004
-8.320E-06,0.000
-8.310E-06,0.004
-8.300E-06,0.004
-8.290E-06,0.012
-8.280E-06,0.004
-8.270E-06,0.008
-8.260E-06,-0.004
-8.250E-06,-0.004
-8.240E-06,0.000
-8.230E-06,0.000
-8.220E-06,0.008
-8.210E-06,0.008
-8.200E-06,0.008
-8.190E-06,0.000
-8.180E-06,0.000
-8.170E-06,0.008
-8.160E-06,0.012
-8.150E-06,-0.004
-8.140E-06,-0.004
-8.130E-06,-0.012
-8.120E-06,0.008
-8.110E-06,0.028
-8.100E-06,0.012
-8.090E-06,-0.008
-8.080E-06,-0.012
-8.070E-06,0.008
-8.060E-06,0.004
-8.050E-06,0.008
-8.040E-06,0.008
-8.030E-06,0.004
-8.020E-06,0.004
-8.010E-06,0.008
-8.000E-06,-0.004
-7.990E-06,-0.004
-7.980E-06,0.004
-7.970E-06,-0.004
-7.960E-06,0.012
-7.950E-06,0.000
-7.940E-06,0.004
-7.930E-06,0.008
-7.920E-06,0.012
-7.910E-06,-0.004
-7.900E-06,0.004
-7.890E-06,0.004
-7.880E-06,-0.004
-7.870E-06,0.012
-7.860E-06,0.016
-7.850E-06,0.012
-7.840E-06,-0.004
-7.830E-06,0.004
-7.820E-06,0.000
-7.810E-06,-0.008
-7.800E-06,0.000
-7.790E-06,0.004
-7.780E-06,0.004
-7.770E-06,0.012
-7.760E-06,0.008
-7.750E-06,0.000
-7.740E-06,-0.008
-7.730E-06,-0.008
-7.720E-06,-0.004
-7.710E-06,-0.004
-7.700E-06,0.008
-7.690E-06,0.012
-7.680E-06,0.004
-7.670E-06,0.000
-7.660E-06,0.004
-7.650E-06,-0.016
-7.640E-06,0.000
-7.630E-06,0.000
-7.620E-06,0.016
-7.610E-06,0.008
-7.600E-06,-0.004
-7.590E-06,0.000
-7.580E-06,0.012
-7.570E-06,0.012
-7.560E-06,-0.012
-7.550E-06,0.008
-7.540E-06,0.004
-7.530E-06,0.008
-7.520E-06,0.004
-7.510E-06,0.012
-7.500E-06,0.004
-7.490E-06,0.000
-7.480E-06,0.004
-7.470E-06,0.004
-7.460E-06,-0.004
-7.450E-06,0.000
-7.440E-06,0.004
-7.430E-06,0.004
-7.420E-06,0.004
-7.410E-06,0.004
-7.400E-06,0.004
-7.390E-06,0.004
-7.380E-06,-0.004
-7.370E-06,-0.004
-7.360E-06,-0.004
-7.350E-06,-0.004
-7.340E-06,0.012
-7.330E-06,0.008
-7.320E-06,0.004
-7.310E-06,-0.004
-7.300E-06,0.000
-7.290E-06,-0.004
-7.280E-06,0.000
-7.270E-06,0.008
-7.260E-06,0.004
-7.250E-06,0.008
-7.240E-06,0.004
-7.230E-06,0.000
-7.220E-06,-0.004
-7.210E-06,0.000
-7.200E-06,0.004
-7.190E-06,0.008
-7.180E-06,0.012
-7.170E-06,0.012
-7.160E-06,0.000
-7.150E-06,0.000
-7.140E-06,0.000
-7.130E-06,-0.004
-7.120E-06,-0.004
-7.110E-06,0.000
-7.100E-06,0.004
-7.090E-06,0.012
-7.080E-06,0.000
-7.070E-06,0.004
-7.060E-06,0.004
-7.050E-06,0.000
-7.040E-06,0.000
-7.030E-06,0.004
-7.020E-06,0.000
-7.010E-06,0.000
-7.000E-06,0.004
-6.990E-06,0.004
-6.980E-06,0.004
-6.970E-06,0.004
-6.960E-06,0.004
-6.950E-06,0.000
-6.940E-06,0.004
-6.930E-06,0.000
-6.920E-06,0.000
-6.910E-06,0.004
-6.900E-06,0.008
-6.890E-06,0.004
-6.880E-06,0.004
-6.870E-06,0.000
-6.860E-06,0.004
-6.850E-06,0.000
-6.840E-06,0.000
-6.830E-06,0.004
-6.820E-06,0.004
-6.810E-06,0.000
-6.800E-06,0.004
-6.790E-06,0.004
-6.780E-06,0.004
-6.770E-06,0.000
-6.760E-06,0.000
-6.750E-06,0.008
-6.740E-06,-0.004
-6.730E-06,-0.004
-6.720E-06,0.000
-6.710E-06,0.004
-6.700E-06,0.000
-6.690E-06,0.004
-6.680E-06,0.000
-6.670E-06,0.004
-6.660E-06,0.004
-6.650E-06,0.004
-6.640E-06,0.000
-6.630E-06,0.000
-6.620E-06,0.004
-6.610E-06,0.004
-6.600E-06,0.004
-6.590E-06,0.004
-6.580E-06,0.008
-6.570E-06,-0.004
-6.560E-06,0.000
-6.550E-06,0.004
-6.540E-06,0.004
-6.530E-06,0.000
-6.520E-06,0.008
-6.510E-06,0.008
-6.500E-06,0.004
-6.490E-06,0.004
-6.480E-06,-0.004
-6.470E-06,0.000
-6.460E-06,0.004
-6.450E-06,0.004
-6.440E-06,0.008
-6.430E-06,0.004
-6.420E-06,0.000
-6.410E-06,0.000
-6.400E-06,0.000
-6.390E-06,-0.004
-6.380E-06,0.004
-6.370E-06,0.000
-6.360E-06,0.004
-6.350E-06,0.004
-6.340E-06,0.004
-6.330E-06,-0.004
-6.320E-06,0.004
-6.310E-06,0.000
-6.300E-06,0.008
-6.290E-06,0.004
-6.280E-06,0.004
-6.270E-06,0.000
-6.260E-06,0.004
-6.250E-06,0.004
-6.240E-06,-0.004
-6.230E-06,0.000
-6.220E-06,0.004
-6.210E-06,0.000
-6.200E-06,0.000
-6.190E-06,0.004
-6.180E-06,0.008
-6.170E-06,0.008
-6.160E-06,0.008
-6.150E-06,0.004
-6.140E-06,0.008
-6.130E-06,0.004
-6.120E-06,0.008
-6.110E-06,0.000
-6.100E-06,0.004
-6.090E-06,0.004
-6.080E-06,0.004
-6.070E-06,0.004
-6.060E-06,0.004
-6.050E-06,0.000
-6.040E-06,0.004
-6.030E-06,0.004
-6.020E-06,0.000
-6.010E-06,0.000
-6.000E-06,0.004
-5.990E-06,0.004
-5.980E-06,0.000
-5.970E-06,0.000
-5.960E-06,0.004
-5.950E-06,0.004
-5.940E-06,0.004
-5.930E-06,0.000
-5.920E-06,0.000
-5.910E-06,0.000
-5.900E-06,0.008
-5.890E-06,0.008
-5.880E-06,0.008
-5.870E-06,0.000
-5.860E-06,0.004
-5.850E-06,0.004
-5.840E-06,-0.004
-5.830E-06,0.000
-5.820E-06,0.008
-5.810E-06,0.008
-5.800E-06,0.004
-5.790E-06,0.004
-5.780E-06,-0.004
-5.770E-06,0.000
-5.760E-06,0.000
-5.750E-06,0.008
-5.740E-06,0.008
-5.730E-06,0.008
-5.720E-06,0.000
-5.710E-06,0.004
-5.700E-06,0.008
-5.690E-06,0.008
-5.680E-06,0.004
-5.670E-06,0.000
-5.660E-06,0.004
-5.650E-06,0.004
-5.640E-06,0.004
-5.630E-06,0.000
-5.620E-06,0.004
-5.610E-06,0.000
-5.600E-06,0.008
-5.590E-06,0.004
-5.580E-06,0.000
-5.570E-06,0.004
-5.560E-06,0.004
-5.550E-06,0.008
-5.540E-06,0.012
-5.530E-06,0.008
-5.520E-06,0.004
-5.510E-06,-0.004
-5.500E-06,-0.004
-5.490E-06,0.004
-5.480E-06,0.012
-5.470E-06,0.012
-5.460E-06,0.000
-5.450E-06,-0.004
-5.440E-06,-0.004
-5.430E-06,-0.004
-5.420E-06,0.004
-5.410E-06,0.000
-5.400E-06,0.000
-5.390E-06,0.004
-5.380E-06,-0.004
-5.370E-06,0.000
-5.360E-06,-0.004
-5.350E-06,0.004
-5.340E-06,0.000
-5.330E-06,0.004
-5.320E-06,0.004
-5.310E-06,0.008
-5.300E-06,0.008
-5.290E-06,0.000
-5.280E-06,0.000
-5.270E-06,0.000
-5.260E-06,0.008
-5.250E-06,0.004
-5.240E-06,0.004
-5.230E-06,0.008
-5.220E-06,0.012
-5.210E-06,0.004
-5.200E-06,0.000
-5.190E-06,-0.004
-5.180E-06,-0.004
-5.170E-06,0.004
-5.160E-06,0.008
-5.150E-06,0.012
-5.140E-06,0.000
-5.130E-06,0.000
-5.120E-06,0.020
-5.110E-06,0.004
-5.100E-06,0.004
-5.090E-06,-0.008
-5.080E-06,0.016
-5.070E-06,0.012
-5.060E-06,0.012
-5.050E-06,-0.036
-5.040E-06,0.012
-5.030E-06,0.024
-5.020E-06,0.004
-5.010E-06,0.028
-5.000E-06,-0.068
-4.990E-06,-0.024
-4.980E-06,0.088
-4.970E-06,0.064
-4.960E-06,-0.064
-4.950E-06,-0.028
-4.940E-06,0.000
-4.930E-06,-0.012
-4.920E-06,0.028
-4.910E-06,0.036
-4.900E-06,0.032
-4.890E-06,-0.032
-4.880E-06,0.008
-4.870E-06,-0.004
-4.860E-06,-0.032
-4.850E-06,-0.004
-4.840E-06,0.060
-4.830E-06,0.032
-4.820E-06,-0.012
-4.810E-06,-0.008
-4.800E-06,-0.008
-4.790E-06,0.000
-4.780E-06,0.012
-4.770E-06,0.016
-4.760E-06,-0.004
-4.750E-06,0.000
-4.740E-06,0.012
-4.730E-06,0.000
-4.720E-06,-0.008
-4.710E-06,0.008
-4.700E-06,0.004
-4.690E-06,-0.004
-4.680E-06,-0.004
-4.670E-06,0.004
-4.660E-06,0.008
-4.650E-06,0.012
-4.640E-06,0.016
-4.630E-06,0.000
-4.620E-06,-0.024
-4.610E-06,0.004
-4.600E-06,0.012
-4.590E-06,0.012
-4.580E-06,0.012
-4.570E-06,0.004
-4.560E-06,-0.016
-4.550E-06,-0.008
-4.540E-06,0.000
-4.530E-06,0.000
-4.520E-06,0.004
-4.510E-06,0.012
-4.500E-06,0.008
-4.490E-06,0.008
-4.480E-06,0.004
-4.470E-06,-0.008
-4.460E-06,-0.004
-4.450E-06,0.004
-4.440E-06,0.008
-4.430E-06,0.012
-4.420E-06,0.012
-4.410E-06,0.004
-4.400E-06,0.004
-4.390E-06,0.000
-4.380E-06,0.000
-4.370E-06,0.000
-4.360E-06,0.004
-4.350E-06,0.012
-4.340E-06,0.012
-4.330E-06,0.000
-4.320E-06,0.000
-4.310E-06,0.000
-4.300E-06,0.004
-4.290E-06,-0.004
-4.280E-06,0.008
-4.270E-06,0.004
-4.260E-06,0.004
-4.250E-06,0.004
-4.240E-06,0.000
-4.230E-06,0.004
-4.220E-06,0.004
-4.210E-06,0.000
-4.200E-06,-0.004
-4.190E-06,0.000
-4.180E-06,0.008
-4.170E-06,0.000
-4.160E-06,0.004
-4.150E-06,0.008
-4.140E-06,0.000
-4.130E-06,0.004
-4.120E-06,-0.004
-4.110E-06,0.000
-4.100E-06,0.000
-4.090E-06,0.008
-4.080E-06,0.016
-4.070E-06,0.016
-4.060E-06,0.012
-4.050E-06,-0.008
-4.040E-06,-0.016
-4.030E-06,0.000
-4.020E-06,0.008
-4.010E-06,0.016
-4.000E-06,0.012
-3.990E-06,0.000
-3.980E-06,0.004
-3.970E-06,-0.008
-3.960E-06,0.008
-3.950E-06,0.008
-3.940E-06,0.000
-3.930E-06,-0.004
-3.920E-06,0.008
-3.910E-06,0.016
-3.900E-06,0.008
-3.890E-06,0.000
-3.880E-06,-0.008
-3.870E-06,-0.008
-3.860E-06,-0.008
-3.850E-06,0.016
-3.840E-06,0.020
-3.830E-06,0.000
-3.820E-06,0.016
-3.810E-06,-0.024
-3.800E-06,-0.020
-3.790E-06,0.008
-3.780E-06,0.020
-3.770E-06,0.008
-3.760E-06,0.012
-3.750E-06,0.008
-3.740E-06,-0.004
-3.730E-06,0.004
-3.720E-06,0.008
-3.710E-06,-0.004
-3.700E-06,-0.004
-3.690E-06,0.004
-3.680E-06,0.012
-3.670E-06,0.008
-3.660E-06,0.008
-3.650E-06,0.000
-3.640E-06,-0.008
-3.630E-06,-0.004
-3.620E-06,0.000
-3.610E-06,0.000
-3.600E-06,0.020
-3.590E-06,0.012
-3.580E-06,0.012
-3.570E-06,0.004
-3.560E-06,-0.008
-3.550E-06,-0.008
-3.540E-06,-0.004
-3.530E-06,0.012
-3.520E-06,0.004
-3.510E-06,0.008
-3.500E-06,0.004
-3.490E-06,0.004
-3.480E-06,0.004
-3.470E-06,0.012
-3.460E-06,0.004
-3.450E-06,0.004
-3.440E-06,0.008
-3.430E-06,0.008
-3.420E-06,0.012
-3.410E-06,-0.004
-3.400E-06,0.000
-3.390E-06,0.000
-3.380E-06,0.004
-3.370E-06,0.008
-3.360E-06,0.008
-3.350E-06,0.012
-3.340E-06,0.000
-3.330E-06,-0.004
-3.320E-06,-0.004
-3.310E-06,0.008
-3.300E-06,0.012
-3.290E-06,0.012
-3.280E-06,0.012
-3.270E-06,0.000
-3.260E-06,-0.008
-3.250E-06,0.004
-3.240E-06,-0.008
-3.230E-06,0.020
-3.220E-06,0.004
-3.210E-06,0.016
-3.200E-06,0.008
-3.190E-06,-0.004
-3.180E-06,0.008
-3.170E-06,0.008
-3.160E-06,-0.008
-3.150E-06,0.004
-3.140E-06,0.016
-3.130E-06,0.008
-3.120E-06,0.008
-3.110E-06,0.012
-3.100E-06,0.000
-3.090E-06,-0.008
-3.080E-06,-0.004
-3.070E-06,0.008
-3.060E-06,0.008
-3.050E-06,0.012
-3.040E-06,0.004
-3.030E-06,-0.008
-3.020E-06,-0.004
-3.010E-06,-0.004
-3.000E-06,0.000
-2.990E-06,0.008
-2.980E-06,0.008
-2.970E-06,0.012
-2.960E-06,0.008
-2.950E-06,-0.004
-2.940E-06,0.000
-2.930E-06,0.000
-2.920E-06,0.004
-2.910E-06,0.000
-2.900E-06,0.012
-2.890E-06,0.008
-2.880E-06,0.000
-2.870E-06,-0.004
-2.860E-06,0.008
-2.850E-06,0.012
-2.840E-06,0.004
-2.830E-06,-0.008
-2.820E-06,0.004
-2.810E-06,0.024
-2.800E-06,0.016
-2.790E-06,-0.008
-2.780E-06,0.004
-2.770E-06,0.004
-2.760E-06,0.008
-2.750E-06,0.012
-2.740E-06,0.008
-2.730E-06,0.008
-2.720E-06,0.016
-2.710E-06,-0.008
-2.700E-06,-0.016
-2.690E-06,-0.020
-2.680E-06,-0.012
-2.670E-06,0.000
-2.660E-06,0.084
-2.650E-06,0.000
-2.640E-06,-0.036
-2.630E-06,-0.012
-2.620E-06,0.012
-2.610E-06,0.004
-2.600E-06,-0.004
-2.590E-06,0.012
-2.580E-06,0.000
-2.570E-06,0.004
-2.560E-06,0.020
-2.550E-06,0.016
-2.540E-06,-0.004
-2.530E-06,-0.012
-2.520E-06,-0.004
-2.510E-06,0.008
-2.500E-06,0.012
-2.490E-06,0.012
-2.480E-06,0.004
-2.470E-06,0.012
-2.460E-06,0.016
-2.450E-06,0.004
-2.440E-06,-0.004
-2.430E-06,-0.020
-2.420E-06,0.024
-2.410E-06,0.048
-2.400E-06,0.028
-2.390E-06,-0.004
-2.380E-06,0.008
-2.370E-06,0.004
-2.360E-06,0.004
-2.350E-06,0.012
-2.340E-06,0.004
-2.330E-06,-0.004
-2.320E-06,-0.008
-2.310E-06,0.012
-2.300E-06,0.024
-2.290E-06,0.008
-2.280E-06,-0.004
-2.270E-06,0.000
-2.260E-06,0.000
-2.250E-06,0.008
-2.240E-06,0.016
-2.230E-06,0.020
-2.220E-06,0.016
-2.210E-06,0.012
-2.200E-06,-0.004
-2.190E-06,-0.004
-2.180E-06,-0.008
-2.170E-06,0.004
-2.160E-06,0.016
-2.150E-06,0.016
-2.140E-06,0.012
-2.130E-06,0.004
-2.120E-06,0.008
-2.110E-06,0.008
-2.100E-06,0.012
-2.090E-06,0.012
-2.080E-06,0.008
-2.070E-06,0.004
-2.060E-06,-0.004
-2.050E-06,0.000
-2.040E-06,0.008
-2.030E-06,0.012
-2.020E-06,0.012
-2.010E-06,-0.004
-2.000E-06,-0.004
-1.990E-06,-0.008
-1.980E-06,0.004
-1.970E-06,0.028
-1.960E-06,0.040
-1.950E-06,0.036
-1.940E-06,0.028
-1.930E-06,0.016
-1.920E-06,-0.004
-1.910E-06,0.000
-1.900E-06,0.000
-1.890E-06,0.008
-1.880E-06,0.012
-1.870E-06,0.004
-1.860E-06,-0.004
-1.850E-06,-0.012
-1.840E-06,-0.016
-1.830E-06,-0.020
-1.820E-06,-0.004
-1.810E-06,0.008
-1.800E-06,0.016
-1.790E-06,0.024
-1.780E-06,0.028
-1.770E-06,0.004
-1.760E-06,-0.008
-1.750E-06,-0.012
-1.740E-06,-0.004
-1.730E-06,0.020
-1.720E-06,0.024
-1.710E-06,0.056
-1.700E-06,0.036
-1.690E-06,0.012
-1.680E-06,-0.024
-1.670E-06,-0.040
-1.660E-06,-0.032
-1.650E-06,-0.004
-1.640E-06,0.028
-1.630E-06,0.052
-1.620E-06,0.060
-1.610E-06,0.040
-1.600E-06,0.004
-1.590E-06,-0.028
-1.580E-06,-0.024
-1.570E-06,-0.008
-1.560E-06,0.020
-1.550E-06,0.044
-1.540E-06,0.040
-1.530E-06,0.004
-1.520E-06,-0.020
-1.510E-06,-0.024
-1.500E-06,0.000
-1.490E-06,0.024
-1.480E-06,0.056
-1.470E-06,0.080
-1.460E-06,0.080
-1.450E-06,0.056
-1.440E-06,0.020
-1.430E-06,0.004
-1.420E-06,0.000
-1.410E-06,0.000
-1.400E-06,0.008
-1.390E-06,0.028
-1.380E-06,0.048
-1.370E-06,0.056
-1.360E-06,0.044
-1.350E-06,0.024
-1.340E-06,-0.008
-1.330E-06,-0.032
-1.320E-06,-0.056
-1.310E-06,-0.060
-1.300E-06,-0.036
-1.290E-06,0.004
-1.280E-06,0.028
-1.270E-06,0.028
-1.260E-06,0.008
-1.250E-06,-0.024
-1.240E-06,-0.040
-1.230E-06,-0.028
-1.220E-06,0.012
-1.210E-06,0.052
-1.200E-06,0.064
-1.190E-06,0.060
-1.180E-06,0.016
-1.170E-06,-0.008
-1.160E-06,-0.020
-1.150E-06,0.000
-1.140E-06,0.032
-1.130E-06,0.064
-1.120E-06,0.072
-1.110E-06,0.048
-1.100E-06,0.024
-1.090E-06,0.008
-1.080E-06,-0.004
-1.070E-06,0.004
-1.060E-06,0.024
-1.050E-06,0.040
-1.040E-06,0.064
-1.030E-06,0.068
-1.020E-06,0.052
-1.010E-06,0.028
-1.000E-06,0.008
-9.900E-07,-0.008
-9.800E-07,-0.004
-9.700E-07,0.012
-9.600E-07,0.044
-9.500E-07,0.044
-9.400E-07,0.024
-9.300E-07,0.000
-9.200E-07,-0.032
-9.100E-07,-0.036
-9.000E-07,-0.008
-8.900E-07,0.024
-8.800E-07,0.060
-8.700E-07,0.076
-8.600E-07,0.060
-8.500E-07,0.040
-8.400E-07,0.020
-8.300E-07,0.028
-8.200E-07,0.052
-8.100E-07,0.088
-8.000E-07,0.108
-7.900E-07,0.096
-7.800E-07,0.092
-7.700E-07,0.076
-7.600E-07,0.060
-7.500E-07,0.048
-7.400E-07,0.060
-7.300E-07,0.076
-7.200E-07,0.100
-7.100E-07,0.124
-7.000E-07,0.112
-6.900E-07,0.060
-6.800E-07,0.012
-6.700E-07,0.012
-6.600E-07,0.020
-6.500E-07,0.076
-6.400E-07,0.164
-6.300E-07,0.208
-6.200E-07,0.208
-6.100E-07,0.156
-6.000E-07,0.096
-5.900E-07,0.032
-5.800E-07,-0.008
-5.700E-07,-0.016
-5.600E-07,-0.012
-5.500E-07,0.012
-5.400E-07,0.020
-5.300E-07,-0.004
-5.200E-07,-0.024
-5.100E-07,-0.008
-5.000E-07,0.000
-4.900E-07,0.012
-4.800E-07,0.020
-4.700E-07,0.040
-4.600E-07,0.088
-4.500E-07,0.108
-4.400E-07,0.108
-4.300E-07,0.088
-4.200E-07,0.044
-4.100E-07,-0.008
-4.000E-07,-0.040
-3.900E-07,-0.044
-3.800E-07,-0.024
-3.700E-07,0.000
-3.600E-07,-0.008
-3.500E-07,-0.012
-3.400E-07,-0.032
-3.300E-07,-0.072
-3.200E-07,-0.088
-3.100E-07,-0.080
-3.000E-07,-0.060
-2.900E-07,-0.020
-2.800E-07,0.016
-2.700E-07,0.064
-2.600E-07,0.084
-2.500E-07,0.068
-2.400E-07,0.052
-2.300E-07,0.056
-2.200E-07,0.084
-2.100E-07,0.132
-2.000E-07,0.152
-1.900E-07,0.172
-1.800E-07,0.160
-1.700E-07,0.132
-1.600E-07,0.128
-1.500E-07,0.132
-1.400E-07,0.144
-1.300E-07,0.180
-1.200E-07,0.204
-1.100E-07,0.204
-1.000E-07,0.156
-9.000E-08,0.108
-8.000E-08,0.024
-7.000E-08,-0.048
-6.000E-08,-0.408
-5.000E-08,-0.508
-4.000E-08,-0.508
-3.000E-08,-0.512
-2.000E-08,-0.264
-1.000E-08,0.224
0.000E+00,0.540
1.000E-08,0.384
2.000E-08,0.108
3.000E-08,-0.304
4.000E-08,-0.488
5.000E-08,-0.188
6.000E-08,0.332
7.000E-08,0.540
8.000E-08,0.540
9.000E-08,0.472
1.000E-07,-0.008
1.100E-07,-0.440
1.200E-07,-0.512
1.300E-07,-0.512
1.400E-07,-0.448
1.500E-07,-0.072
1.600E-07,0.076
1.700E-07,0.012
1.800E-07,-0.236
1.900E-07,-0.304
2.000E-07,-0.284
2.100E-07,-0.368
2.200E-07,-0.152
2.300E-07,-0.120
2.400E-07,0.000
2.500E-07,0.004
2.600E-07,-0.060
2.700E-07,-0.140
2.800E-07,-0.172
2.900E-07,-0.176
3.000E-07,-0.084
3.100E-07,0.092
3.200E-07,0.140
3.300E-07,0.192
3.400E-07,0.044
3.500E-07,-0.032
3.600E-07,-0.132
3.700E-07,-0.096
3.800E-07,-0.028
3.900E-07,0.092
4.000E-07,0.132
4.100E-07,0.088
4.200E-07,0.044
4.300E-07,-0.024
4.400E-07,-0.008
4.500E-07,-0.040
4.600E-07,0.008
4.700E-07,0.040
4.800E-07,0.124
4.900E-07,0.076
5.000E-07,0.044
5.100E-07,0.004
5.200E-07,-0.016
5.300E-07,-0.016
5.400E-07,-0.032
5.500E-07,-0.004
5.600E-07,0.028
5.700E-07,0.092
5.800E-07,0.088
5.900E-07,0.104
6.000E-07,0.104
6.100E-07,0.100
6.200E-07,0.096
6.300E-07,0.120
6.400E-07,0.148
6.500E-07,0.136
6.600E-07,0.120
6.700E-07,0.076
6.800E-07,0.044
6.900E-07,0.012
7.000E-07,0.036
7.100E-07,0.060
7.200E-07,0.108
7.300E-07,0.164
7.400E-07,0.168
7.500E-07,0.160
7.600E-07,0.136
7.700E-07,0.136
7.800E-07,0.152
7.900E-07,0.200
8.000E-07,0.224
8.100E-07,0.232
8.200E-07,0.212
8.300E-07,0.164
8.400E-07,0.124
8.500E-07,0.116
8.600E-07,0.164
8.700E-07,0.188
8.800E-07,0.176
8.900E-07,-0.016
9.000E-07,-0.132
9.100E-07,-0.112
9.200E-07,-0.124
9.300E-07,-0.312
9.400E-07,-0.512
9.500E-07,-0.508
9.600E-07,-0.508
9.700E-07,-0.512
9.800E-07,-0.024
9.900E-07,0.540
1.000E-06,0.540
1.010E-06,0.536
1.020E-06,-0.200
1.030E-06,-0.508
1.040E-06,-0.508
1.050E-06,-0.424
1.060E-06,0.120
1.070E-06,0.540
1.080E-06,0.540
1.090E-06,0.520
1.100E-06,0.104
1.110E-06,-0.404
1.120E-06,-0.512
1.130E-06,-0.452
1.140E-06,0.056
1.150E-06,0.340
1.160E-06,0.540
1.170E-06,0.424
1.180E-06,0.144
1.190E-06,-0.224
1.200E-06,-0.400
1.210E-06,-0.340
1.220E-06,-0.120
1.230E-06,0.176
1.240E-06,0.296
1.250E-06,0.324
1.260E-06,0.136
1.270E-06,-0.048
1.280E-06,-0.240
1.290E-06,-0.204
1.300E-06,-0.104
1.310E-06,0.096
1.320E-06,0.228
1.330E-06,0.280
1.340E-06,0.240
1.350E-06,0.112
1.360E-06,0.024
1.370E-06,-0.040
1.380E-06,-0.024
1.390E-06,0.032
1.400E-06,0.140
1.410E-06,0.200
1.420E-06,0.236
1.430E-06,0.208
1.440E-06,0.132
1.450E-06,0.072
1.460E-06,0.044
1.470E-06,0.080
1.480E-06,0.132
1.490E-06,0.204
1.500E-06,0.244
1.510E-06,0.244
1.520E-06,0.192
1.530E-06,0.128
1.540E-06,0.080
1.550E-06,0.068
1.560E-06,0.100
1.570E-06,0.140
1.580E-06,0.176
1.590E-06,0.156
1.600E-06,0.128
1.610E-06,0.072
1.620E-06,0.064
1.630E-06,0.076
1.640E-06,0.128
1.650E-06,0.176
1.660E-06,0.208
1.670E-06,0.240
1.680E-06,0.204
1.690E-06,0.076
1.700E-06,-0.096
1.710E-06,-0.196
1.720E-06,-0.316
1.730E-06,-0.356
1.740E-06,-0.448
1.750E-06,-0.220
1.760E-06,0.200
1.770E-06,0.320
1.780E-06,0.268
1.790E-06,-0.112
1.800E-06,-0.512
1.810E-06,-0.512
1.820E-06,-0.508
1.830E-06,-0.500
1.840E-06,-0.020
1.850E-06,0.196
1.860E-06,0.244
1.870E-06,0.044
1.880E-06,-0.256
1.890E-06,-0.488
1.900E-06,-0.512
1.910E-06,-0.364
1.920E-06,0.048
1.930E-06,0.428
1.940E-06,0.536
1.950E-06,0.376
1.960E-06,0.016
1.970E-06,-0.308
1.980E-06,-0.456
1.990E-06,-0.304
2.000E-06,0.032
2.010E-06,0.368
2.020E-06,0.516
2.030E-06,0.440
2.040E-06,0.192
2.050E-06,-0.116
2.060E-06,-0.288
2.070E-06,-0.268
2.080E-06,-0.072
2.090E-06,0.192
2.100E-06,0.384
2.110E-06,0.392
2.120E-06,0.224
2.130E-06,-0.016
2.140E-06,-0.184
2.150E-06,-0.196
2.160E-06,-0.044
2.170E-06,0.200
2.180E-06,0.400
2.190E-06,0.448
2.200E-06,0.328
2.210E-06,0.100
2.220E-06,-0.124
2.230E-06,-0.200
2.240E-06,-0.108
2.250E-06,0.120
2.260E-06,0.336
2.270E-06,0.444
2.280E-06,0.384
2.290E-06,0.204
2.300E-06,-0.004
2.310E-06,-0.108
2.320E-06,-0.056
2.330E-06,0.120
2.340E-06,0.308
2.350E-06,0.440
2.360E-06,0.440
2.370E-06,0.320
2.380E-06,0.160
2.390E-06,0.036
2.400E-06,0.012
2.410E-06,0.108
2.420E-06,0.260
2.430E-06,0.392
2.440E-06,0.440
2.450E-06,0.364
2.460E-06,0.212
2.470E-06,0.056
2.480E-06,-0.032
2.490E-06,-0.044
2.500E-06,0.052
2.510E-06,0.084
2.520E-06,-0.100
2.530E-06,-0.416
2.540E-06,-0.512
2.550E-06,-0.512
2.560E-06,-0.512
2.570E-06,-0.372
2.580E-06,0.136
2.590E-06,0.524
2.600E-06,0.544
2.610E-06,0.420
2.620E-06,0.176
2.630E-06,-0.108
2.640E-06,-0.272
2.650E-06,-0.160
2.660E-06,-0.024
2.670E-06,0.200
2.680E-06,0.300
2.690E-06,0.332
2.700E-06,0.196
2.710E-06,-0.056
2.720E-06,-0.308
2.730E-06,-0.332
2.740E-06,-0.120
2.750E-06,0.156
2.760E-06,0.460
2.770E-06,0.456
2.780E-06,0.284
2.790E-06,-0.068
2.800E-06,-0.324
2.810E-06,-0.400
2.820E-06,-0.220
2.830E-06,0.136
2.840E-06,0.468
2.850E-06,0.540
2.860E-06,0.432
2.870E-06,0.212
2.880E-06,-0.092
2.890E-06,-0.212
2.900E-06,-0.128
2.910E-06,0.132
2.920E-06,0.400
2.930E-06,0.536
2.940E-06,0.540
2.950E-06,0.344
2.960E-06,0.096
2.970E-06,-0.088
2.980E-06,-0.076
2.990E-06,0.064
3.000E-06,0.300
3.010E-06,0.456
3.020E-06,0.500
3.030E-06,0.380
3.040E-06,0.188
3.050E-06,-0.004
3.060E-06,-0.084
3.070E-06,-0.012
3.080E-06,0.152
3.090E-06,0.348
3.100E-06,0.440
3.110E-06,0.420
3.120E-06,0.284
3.130E-06,0.132
3.140E-06,0.028
3.150E-06,0.028
3.160E-06,0.136
3.170E-06,0.268
3.180E-06,0.352
3.190E-06,0.332
3.200E-06,0.208
3.210E-06,0.092
3.220E-06,0.000
3.230E-06,-0.004
3.240E-06,0.092
3.250E-06,0.208
3.260E-06,0.236
3.270E-06,0.188
3.280E-06,0.052
3.290E-06,-0.120
3.300E-06,-0.220
3.310E-06,-0.236
3.320E-06,-0.152
3.330E-06,0.000
