mediciones/5-15/5.9/WaveData47565.csv

#timebase=2000000(ps)
,#voltbase=100000(mv/100)
#size=4000
-8.400E-06,0.000
-8.390E-06,0.000
-8.380E-06,0.008
-8.370E-06,0.004
-8.360E-06,-0.004
-8.350E-06,0.000
-8.340E-06,0.004
-8.330E-06,0.004
-8.320E-06,0.004
-8.310E-06,0.008
-8.300E-06,0.000
-8.290E-06,0.008
-8.280E-06,0.008
-8.270E-06,0.000
-8.260E-06,0.000
-8.250E-06,0.008
-8.240E-06,0.008
-8.230E-06,0.008
-8.220E-06,0.004
-8.210E-06,0.000
-8.200E-06,0.008
-8.190E-06,0.004
-8.180E-06,0.000
-8.170E-06,-0.004
-8.160E-06,0.000
-8.150E-06,0.008
-8.140E-06,0.004
-8.130E-06,-0.004
-8.120E-06,0.004
-8.110E-06,0.000
-8.100E-06,0.000
-8.090E-06,0.000
-8.080E-06,0.008
-8.070E-06,0.000
-8.060E-06,0.004
-8.050E-06,0.004
-8.040E-06,0.004
-8.030E-06,0.000
-8.020E-06,0.000
-8.010E-06,0.004
-8.000E-06,0.004
-7.990E-06,0.004
-7.980E-06,0.004
-7.970E-06,0.004
-7.960E-06,0.004
-7.950E-06,0.000
-7.940E-06,-0.004
-7.930E-06,0.000
-7.920E-06,0.004
-7.910E-06,0.000
-7.900E-06,0.004
-7.890E-06,-0.004
-7.880E-06,0.000
-7.870E-06,0.000
-7.860E-06,0.004
-7.850E-06,0.004
-7.840E-06,0.004
-7.830E-06,0.012
-7.820E-06,0.004
-7.810E-06,0.004
-7.800E-06,-0.004
-7.790E-06,-0.004
-7.780E-06,0.008
-7.770E-06,0.000
-7.760E-06,0.004
-7.750E-06,-0.004
-7.740E-06,0.008
-7.730E-06,0.008
-7.720E-06,0.008
-7.710E-06,0.000
-7.700E-06,0.000
-7.690E-06,0.004
-7.680E-06,0.008
-7.670E-06,0.008
-7.660E-06,0.000
-7.650E-06,0.004
-7.640E-06,0.000
-7.630E-06,0.000
-7.620E-06,0.008
-7.610E-06,-0.004
-7.600E-06,0.000
-7.590E-06,0.000
-7.580E-06,0.004
-7.570E-06,0.004
-7.560E-06,0.004
-7.550E-06,0.000
-7.540E-06,-0.004
-7.530E-06,0.000
-7.520E-06,0.004
-7.510E-06,0.012
-7.500E-06,0.008
-7.490E-06,0.012
-7.480E-06,0.004
-7.470E-06,0.008
-7.460E-06,0.004
-7.450E-06,-0.008
-7.440E-06,-0.004
-7.430E-06,0.008
-7.420E-06,0.008
-7.410E-06,0.004
-7.400E-06,0.000
-7.390E-06,0.000
-7.380E-06,0.004
-7.370E-06,0.008
-7.360E-06,0.000
-7.350E-06,0.000
-7.340E-06,-0.004
-7.330E-06,0.008
-7.320E-06,0.008
-7.310E-06,0.004
-7.300E-06,0.000
-7.290E-06,0.000
-7.280E-06,0.000
-7.270E-06,0.004
-7.260E-06,0.004
-7.250E-06,-0.004
-7.240E-06,0.004
-7.230E-06,0.004
-7.220E-06,0.004
-7.210E-06,0.004
-7.200E-06,0.000
-7.190E-06,-0.008
-7.180E-06,0.000
-7.170E-06,0.008
-7.160E-06,0.004
-7.150E-06,0.004
-7.140E-06,0.004
-7.130E-06,0.004
-7.120E-06,0.004
-7.110E-06,0.008
-7.100E-06,0.000
-7.090E-06,0.000
-7.080E-06,0.004
-7.070E-06,0.004
-7.060E-06,0.004
-7.050E-06,0.008
-7.040E-06,0.004
-7.030E-06,0.000
-7.020E-06,0.004
-7.010E-06,0.000
-7.000E-06,0.000
-6.990E-06,0.012
-6.980E-06,0.008
-6.970E-06,0.004
-6.960E-06,0.008
-6.950E-06,0.004
-6.940E-06,-0.004
-6.930E-06,0.000
-6.920E-06,-0.004
-6.910E-06,0.004
-6.900E-06,0.004
-6.890E-06,0.008
-6.880E-06,-0.004
-6.870E-06,0.000
-6.860E-06,0.000
-6.850E-06,-0.004
-6.840E-06,0.000
-6.830E-06,0.008
-6.820E-06,0.004
-6.810E-06,0.004
-6.800E-06,0.000
-6.790E-06,0.000
-6.780E-06,0.004
-6.770E-06,0.004
-6.760E-06,0.004
-6.750E-06,0.008
-6.740E-06,0.008
-6.730E-06,0.000
-6.720E-06,0.000
-6.710E-06,0.000
-6.700E-06,0.000
-6.690E-06,0.004
-6.680E-06,0.008
-6.670E-06,0.004
-6.660E-06,0.004
-6.650E-06,0.004
-6.640E-06,0.000
-6.630E-06,0.000
-6.620E-06,0.000
-6.610E-06,0.000
-6.600E-06,0.004
-6.590E-06,0.004
-6.580E-06,0.008
-6.570E-06,0.004
-6.560E-06,-0.004
-6.550E-06,0.000
-6.540E-06,0.000
-6.530E-06,0.008
-6.520E-06,0.000
-6.510E-06,0.004
-6.500E-06,0.004
-6.490E-06,0.004
-6.480E-06,0.004
-6.470E-06,0.004
-6.460E-06,0.000
-6.450E-06,0.004
-6.440E-06,0.004
-6.430E-06,0.000
-6.420E-06,0.000
-6.410E-06,0.000
-6.400E-06,0.008
-6.390E-06,-0.004
-6.380E-06,0.000
-6.370E-06,0.004
-6.360E-06,0.008
-6.350E-06,0.004
-6.340E-06,0.004
-6.330E-06,0.004
-6.320E-06,0.008
-6.310E-06,0.000
-6.300E-06,0.004
-6.290E-06,0.000
-6.280E-06,0.000
-6.270E-06,-0.004
-6.260E-06,0.000
-6.250E-06,0.008
-6.240E-06,0.004
-6.230E-06,0.004
-6.220E-06,0.004
-6.210E-06,0.008
-6.200E-06,-0.004
-6.190E-06,-0.004
-6.180E-06,0.000
-6.170E-06,0.004
-6.160E-06,0.008
-6.150E-06,0.000
-6.140E-06,0.000
-6.130E-06,0.000
-6.120E-06,0.004
-6.110E-06,0.000
-6.100E-06,0.004
-6.090E-06,0.008
-6.080E-06,0.008
-6.070E-06,0.000
-6.060E-06,0.000
-6.050E-06,0.004
-6.040E-06,0.008
-6.030E-06,0.008
-6.020E-06,0.008
-6.010E-06,0.008
-6.000E-06,0.008
-5.990E-06,0.004
-5.980E-06,0.004
-5.970E-06,0.004
-5.960E-06,0.008
-5.950E-06,0.008
-5.940E-06,0.000
-5.930E-06,0.004
-5.920E-06,0.000
-5.910E-06,-0.004
-5.900E-06,0.004
-5.890E-06,0.008
-5.880E-06,0.004
-5.870E-06,0.000
-5.860E-06,0.004
-5.850E-06,0.004
-5.840E-06,0.008
-5.830E-06,0.004
-5.820E-06,0.000
-5.810E-06,0.000
-5.800E-06,0.000
-5.790E-06,0.004
-5.780E-06,0.004
-5.770E-06,0.008
-5.760E-06,0.008
-5.750E-06,0.004
-5.740E-06,0.000
-5.730E-06,0.000
-5.720E-06,0.000
-5.710E-06,0.004
-5.700E-06,0.008
-5.690E-06,0.004
-5.680E-06,0.004
-5.670E-06,0.000
-5.660E-06,0.000
-5.650E-06,0.004
-5.640E-06,0.000
-5.630E-06,0.008
-5.620E-06,0.004
-5.610E-06,0.000
-5.600E-06,0.000
-5.590E-06,0.000
-5.580E-06,0.000
-5.570E-06,0.004
-5.560E-06,0.004
-5.550E-06,0.004
-5.540E-06,0.004
-5.530E-06,0.000
-5.520E-06,0.008
-5.510E-06,-0.004
-5.500E-06,0.000
-5.490E-06,0.004
-5.480E-06,-0.004
-5.470E-06,0.000
-5.460E-06,0.008
-5.450E-06,0.004
-5.440E-06,0.004
-5.430E-06,0.000
-5.420E-06,-0.004
-5.410E-06,0.000
-5.400E-06,0.008
-5.390E-06,0.004
-5.380E-06,0.008
-5.370E-06,0.004
-5.360E-06,0.000
-5.350E-06,-0.004
-5.340E-06,0.000
-5.330E-06,0.004
-5.320E-06,0.000
-5.310E-06,0.008
-5.300E-06,0.008
-5.290E-06,0.008
-5.280E-06,0.000
-5.270E-06,0.000
-5.260E-06,0.000
-5.250E-06,0.000
-5.240E-06,0.008
-5.230E-06,0.012
-5.220E-06,0.004
-5.210E-06,0.004
-5.200E-06,0.004
-5.190E-06,0.004
-5.180E-06,0.000
-5.170E-06,0.004
-5.160E-06,0.004
-5.150E-06,0.004
-5.140E-06,0.000
-5.130E-06,0.004
-5.120E-06,-0.004
-5.110E-06,0.004
-5.100E-06,0.004
-5.090E-06,0.004
-5.080E-06,0.008
-5.070E-06,0.004
-5.060E-06,0.000
-5.050E-06,-0.004
-5.040E-06,0.000
-5.030E-06,0.004
-5.020E-06,0.008
-5.010E-06,0.008
-5.000E-06,0.008
-4.990E-06,0.004
-4.980E-06,0.004
-4.970E-06,0.004
-4.960E-06,0.000
-4.950E-06,0.000
-4.940E-06,0.004
-4.930E-06,0.004
-4.920E-06,0.008
-4.910E-06,0.008
-4.900E-06,0.008
-4.890E-06,0.004
-4.880E-06,0.004
-4.870E-06,0.000
-4.860E-06,0.000
-4.850E-06,0.000
-4.840E-06,0.004
-4.830E-06,0.008
-4.820E-06,0.008
-4.810E-06,0.004
-4.800E-06,0.000
-4.790E-06,-0.004
-4.780E-06,0.000
-4.770E-06,0.004
-4.760E-06,0.004
-4.750E-06,0.004
-4.740E-06,0.008
-4.730E-06,0.004
-4.720E-06,0.000
-4.710E-06,-0.004
-4.700E-06,0.004
-4.690E-06,0.004
-4.680E-06,0.004
-4.670E-06,-0.004
-4.660E-06,0.000
-4.650E-06,0.004
-4.640E-06,0.008
-4.630E-06,0.004
-4.620E-06,0.008
-4.610E-06,0.000
-4.600E-06,0.000
-4.590E-06,0.008
-4.580E-06,0.004
-4.570E-06,0.000
-4.560E-06,0.004
-4.550E-06,0.008
-4.540E-06,-0.004
-4.530E-06,0.000
-4.520E-06,0.000
-4.510E-06,0.004
-4.500E-06,0.008
-4.490E-06,0.004
-4.480E-06,0.004
-4.470E-06,0.000
-4.460E-06,-0.004
-4.450E-06,0.000
-4.440E-06,0.008
-4.430E-06,0.012
-4.420E-06,0.000
-4.410E-06,0.004
-4.400E-06,0.004
-4.390E-06,0.004
-4.380E-06,0.000
-4.370E-06,0.000
-4.360E-06,0.004
-4.350E-06,0.000
-4.340E-06,0.004
-4.330E-06,0.008
-4.320E-06,0.008
-4.310E-06,0.012
-4.300E-06,0.012
-4.290E-06,0.004
-4.280E-06,0.000
-4.270E-06,-0.008
-4.260E-06,-0.004
-4.250E-06,0.000
-4.240E-06,0.004
-4.230E-06,0.012
-4.220E-06,0.008
-4.210E-06,0.008
-4.200E-06,0.004
-4.190E-06,-0.004
-4.180E-06,-0.004
-4.170E-06,0.004
-4.160E-06,0.000
-4.150E-06,0.004
-4.140E-06,0.008
-4.130E-06,0.008
-4.120E-06,0.008
-4.110E-06,0.000
-4.100E-06,0.000
-4.090E-06,0.000
-4.080E-06,0.000
-4.070E-06,0.004
-4.060E-06,0.008
-4.050E-06,0.012
-4.040E-06,0.012
-4.030E-06,0.008
-4.020E-06,0.000
-4.010E-06,-0.004
-4.000E-06,0.004
-3.990E-06,0.000
-3.980E-06,0.008
-3.970E-06,0.012
-3.960E-06,0.012
-3.950E-06,0.004
-3.940E-06,0.000
-3.930E-06,0.000
-3.920E-06,0.004
-3.910E-06,0.000
-3.900E-06,-0.004
-3.890E-06,0.008
-3.880E-06,0.008
-3.870E-06,0.016
-3.860E-06,0.012
-3.850E-06,0.004
-3.840E-06,-0.004
-3.830E-06,-0.008
-3.820E-06,-0.004
-3.810E-06,0.004
-3.800E-06,0.012
-3.790E-06,0.020
-3.780E-06,0.016
-3.770E-06,0.004
-3.760E-06,0.000
-3.750E-06,-0.004
-3.740E-06,0.000
-3.730E-06,0.012
-3.720E-06,0.016
-3.710E-06,0.012
-3.700E-06,0.008
-3.690E-06,0.000
-3.680E-06,0.000
-3.670E-06,0.004
-3.660E-06,0.012
-3.650E-06,0.016
-3.640E-06,0.020
-3.630E-06,0.016
-3.620E-06,0.004
-3.610E-06,0.000
-3.600E-06,-0.008
-3.590E-06,-0.004
-3.580E-06,0.012
-3.570E-06,0.028
-3.560E-06,0.028
-3.550E-06,0.020
-3.540E-06,0.008
-3.530E-06,0.000
-3.520E-06,-0.004
-3.510E-06,-0.004
-3.500E-06,0.004
-3.490E-06,0.012
-3.480E-06,0.024
-3.470E-06,0.020
-3.460E-06,0.024
-3.450E-06,0.016
-3.440E-06,0.016
-3.430E-06,0.016
-3.420E-06,0.012
-3.410E-06,0.028
-3.400E-06,0.020
-3.390E-06,0.000
-3.380E-06,-0.012
-3.370E-06,-0.020
-3.360E-06,-0.008
-3.350E-06,0.004
-3.340E-06,0.024
-3.330E-06,0.016
-3.320E-06,0.020
-3.310E-06,0.012
-3.300E-06,0.004
-3.290E-06,0.000
-3.280E-06,0.000
-3.270E-06,0.008
-3.260E-06,0.028
-3.250E-06,0.040
-3.240E-06,0.036
-3.230E-06,0.036
-3.220E-06,0.020
-3.210E-06,0.004
-3.200E-06,0.000
-3.190E-06,-0.024
-3.180E-06,-0.044
-3.170E-06,-0.044
-3.160E-06,-0.044
-3.150E-06,-0.020
-3.140E-06,-0.004
-3.130E-06,0.012
-3.120E-06,-0.008
-3.110E-06,-0.028
-3.100E-06,-0.044
-3.090E-06,-0.028
-3.080E-06,-0.004
-3.070E-06,0.028
-3.060E-06,0.052
-3.050E-06,0.048
-3.040E-06,0.008
-3.030E-06,-0.012
-3.020E-06,-0.040
-3.010E-06,-0.044
-3.000E-06,-0.032
-2.990E-06,-0.004
-2.980E-06,0.012
-2.970E-06,0.028
-2.960E-06,0.028
-2.950E-06,0.028
-2.940E-06,0.024
-2.930E-06,0.012
-2.920E-06,0.012
-2.910E-06,-0.012
-2.900E-06,-0.056
-2.890E-06,-0.084
-2.880E-06,-0.040
-2.870E-06,0.020
-2.860E-06,0.092
-2.850E-06,0.108
-2.840E-06,0.056
-2.830E-06,-0.028
-2.820E-06,-0.092
-2.810E-06,-0.084
-2.800E-06,-0.028
-2.790E-06,0.048
-2.780E-06,0.092
-2.770E-06,0.080
-2.760E-06,0.020
-2.750E-06,-0.044
-2.740E-06,-0.068
-2.730E-06,-0.044
-2.720E-06,0.008
-2.710E-06,0.032
-2.700E-06,0.044
-2.690E-06,0.024
-2.680E-06,0.000
-2.670E-06,-0.008
-2.660E-06,0.000
-2.650E-06,0.000
-2.640E-06,-0.008
-2.630E-06,-0.004
-2.620E-06,-0.008
-2.610E-06,0.016
-2.600E-06,0.036
-2.590E-06,0.044
-2.580E-06,0.024
-2.570E-06,0.000
-2.560E-06,-0.024
-2.550E-06,-0.024
-2.540E-06,0.004
-2.530E-06,0.028
-2.520E-06,0.040
-2.510E-06,0.012
-2.500E-06,-0.024
-2.490E-06,-0.052
-2.480E-06,-0.040
-2.470E-06,-0.004
-2.460E-06,0.024
-2.450E-06,0.048
-2.440E-06,0.024
-2.430E-06,0.004
-2.420E-06,-0.008
-2.410E-06,-0.020
-2.400E-06,-0.004
-2.390E-06,0.004
-2.380E-06,0.016
-2.370E-06,0.016
-2.360E-06,0.012
-2.350E-06,0.000
-2.340E-06,0.000
-2.330E-06,0.004
-2.320E-06,0.008
-2.310E-06,0.008
-2.300E-06,0.008
-2.290E-06,0.008
-2.280E-06,0.008
-2.270E-06,0.012
-2.260E-06,0.016
-2.250E-06,0.016
-2.240E-06,0.012
-2.230E-06,0.012
-2.220E-06,0.012
-2.210E-06,0.016
-2.200E-06,0.024
-2.190E-06,0.020
-2.180E-06,0.016
-2.170E-06,0.016
-2.160E-06,0.020
-2.150E-06,0.020
-2.140E-06,0.016
-2.130E-06,0.020
-2.120E-06,0.004
-2.110E-06,0.008
-2.100E-06,0.000
-2.090E-06,0.012
-2.080E-06,0.028
-2.070E-06,0.024
-2.060E-06,0.032
-2.050E-06,0.032
-2.040E-06,0.016
-2.030E-06,0.000
-2.020E-06,0.008
-2.010E-06,0.020
-2.000E-06,0.040
-1.990E-06,0.048
-1.980E-06,0.044
-1.970E-06,0.036
-1.960E-06,0.036
-1.950E-06,0.040
-1.940E-06,0.036
-1.930E-06,0.032
-1.920E-06,0.028
-1.910E-06,0.020
-1.900E-06,0.012
-1.890E-06,0.008
-1.880E-06,0.008
-1.870E-06,0.008
-1.860E-06,0.024
-1.850E-06,0.052
-1.840E-06,0.092
-1.830E-06,0.132
-1.820E-06,0.152
-1.810E-06,0.144
-1.800E-06,0.120
-1.790E-06,0.092
-1.780E-06,0.072
-1.770E-06,0.100
-1.760E-06,0.112
-1.750E-06,0.132
-1.740E-06,0.120
-1.730E-06,0.072
-1.720E-06,0.032
-1.710E-06,0.012
-1.700E-06,0.016
-1.690E-06,0.028
-1.680E-06,0.056
-1.670E-06,0.056
-1.660E-06,0.068
-1.650E-06,0.056
-1.640E-06,0.044
-1.630E-06,0.012
-1.620E-06,0.020
-1.610E-06,0.024
-1.600E-06,0.020
-1.590E-06,0.000
-1.580E-06,-0.044
-1.570E-06,-0.080
-1.560E-06,-0.104
-1.550E-06,-0.084
-1.540E-06,-0.052
-1.530E-06,-0.012
-1.520E-06,-0.028
-1.510E-06,-0.008
-1.500E-06,-0.032
-1.490E-06,-0.040
-1.480E-06,-0.068
-1.470E-06,-0.020
-1.460E-06,0.032
-1.450E-06,0.044
-1.440E-06,0.032
-1.430E-06,-0.016
-1.420E-06,-0.036
-1.410E-06,-0.068
-1.400E-06,-0.016
-1.390E-06,0.064
-1.380E-06,0.108
-1.370E-06,0.092
-1.360E-06,0.032
-1.350E-06,-0.004
-1.340E-06,-0.060
-1.330E-06,-0.072
-1.320E-06,-0.064
-1.310E-06,-0.008
-1.300E-06,0.056
-1.290E-06,0.072
-1.280E-06,0.056
-1.270E-06,0.000
-1.260E-06,-0.068
-1.250E-06,-0.072
-1.240E-06,-0.048
-1.230E-06,-0.004
-1.220E-06,0.044
-1.210E-06,0.112
-1.200E-06,0.160
-1.190E-06,0.152
-1.180E-06,0.100
-1.170E-06,0.016
-1.160E-06,-0.020
-1.150E-06,-0.016
-1.140E-06,0.068
-1.130E-06,0.164
-1.120E-06,0.208
-1.110E-06,0.188
-1.100E-06,0.088
-1.090E-06,-0.016
-1.080E-06,-0.056
-1.070E-06,-0.036
-1.060E-06,0.060
-1.050E-06,0.148
-1.040E-06,0.200
-1.030E-06,0.172
-1.020E-06,0.072
-1.010E-06,-0.024
-1.000E-06,-0.084
-9.900E-07,-0.084
-9.800E-07,-0.028
-9.700E-07,0.056
-9.600E-07,0.132
-9.500E-07,0.128
-9.400E-07,0.076
-9.300E-07,-0.004
-9.200E-07,-0.072
-9.100E-07,-0.096
-9.000E-07,-0.068
-8.900E-07,0.008
-8.800E-07,0.076
-8.700E-07,0.052
-8.600E-07,0.008
-8.500E-07,-0.028
-8.400E-07,-0.072
-8.300E-07,-0.076
-8.200E-07,-0.036
-8.100E-07,0.024
-8.000E-07,0.088
-7.900E-07,0.104
-7.800E-07,0.068
-7.700E-07,0.024
-7.600E-07,-0.016
-7.500E-07,-0.012
-7.400E-07,0.016
-7.300E-07,0.096
-7.200E-07,0.164
-7.100E-07,0.160
-7.000E-07,0.124
-6.900E-07,0.060
-6.800E-07,0.004
-6.700E-07,0.000
-6.600E-07,0.028
-6.500E-07,0.080
-6.400E-07,0.124
-6.300E-07,0.124
-6.200E-07,0.112
-6.100E-07,0.092
-6.000E-07,0.072
-5.900E-07,0.080
-5.800E-07,0.120
-5.700E-07,0.168
-5.600E-07,0.212
-5.500E-07,0.224
-5.400E-07,0.224
-5.300E-07,0.192
-5.200E-07,0.160
-5.100E-07,0.140
-5.000E-07,0.144
-4.900E-07,0.176
-4.800E-07,0.200
-4.700E-07,0.224
-4.600E-07,0.216
-4.500E-07,0.196
-4.400E-07,0.152
-4.300E-07,0.132
-4.200E-07,0.132
-4.100E-07,0.152
-4.000E-07,0.180
-3.900E-07,0.200
-3.800E-07,0.192
-3.700E-07,0.196
-3.600E-07,0.188
-3.500E-07,0.152
-3.400E-07,0.140
-3.300E-07,0.148
-3.200E-07,0.176
-3.100E-07,0.184
-3.000E-07,0.180
-2.900E-07,0.124
-2.800E-07,0.056
-2.700E-07,0.020
-2.600E-07,0.008
-2.500E-07,0.124
-2.400E-07,0.224
-2.300E-07,0.176
-2.200E-07,0.152
-2.100E-07,-0.140
-2.000E-07,-0.328
-1.900E-07,-0.512
-1.800E-07,-0.512
-1.700E-07,-0.508
-1.600E-07,-0.508
-1.500E-07,-0.508
-1.400E-07,-0.512
-1.300E-07,-0.512
-1.200E-07,-0.512
-1.100E-07,-0.280
-1.000E-07,-0.088
-9.000E-08,0.068
-8.000E-08,0.256
-7.000E-08,0.228
-6.000E-08,-0.256
-5.000E-08,-0.464
-4.000E-08,-0.432
-3.000E-08,-0.172
-2.000E-08,0.196
-1.000E-08,0.424
0.000E+00,0.452
1.000E-08,0.152
2.000E-08,0.004
3.000E-08,-0.160
4.000E-08,-0.088
5.000E-08,-0.076
6.000E-08,0.248
7.000E-08,0.428
8.000E-08,0.452
9.000E-08,0.292
1.000E-07,0.072
1.100E-07,-0.052
1.200E-07,-0.096
1.300E-07,0.040
1.400E-07,0.144
1.500E-07,0.328
1.600E-07,0.328
1.700E-07,0.292
1.800E-07,0.108
1.900E-07,-0.028
2.000E-07,-0.124
2.100E-07,-0.080
2.200E-07,0.048
2.300E-07,0.172
2.400E-07,0.272
2.500E-07,0.224
2.600E-07,0.180
2.700E-07,0.068
2.800E-07,0.044
2.900E-07,0.056
3.000E-07,0.160
3.100E-07,0.276
3.200E-07,0.364
3.300E-07,0.380
3.400E-07,0.312
3.500E-07,0.232
3.600E-07,0.152
3.700E-07,0.144
3.800E-07,0.168
3.900E-07,0.252
4.000E-07,0.308
4.100E-07,0.340
4.200E-07,0.292
4.300E-07,0.232
4.400E-07,0.152
4.500E-07,0.116
4.600E-07,0.132
4.700E-07,0.192
4.800E-07,0.260
4.900E-07,0.284
5.000E-07,0.284
5.100E-07,0.232
5.200E-07,0.192
5.300E-07,0.140
5.400E-07,0.156
5.500E-07,0.196
5.600E-07,0.256
5.700E-07,0.284
5.800E-07,0.268
5.900E-07,0.228
6.000E-07,0.152
6.100E-07,0.088
6.200E-07,0.024
6.300E-07,0.000
6.400E-07,-0.020
6.500E-07,-0.020
6.600E-07,-0.028
6.700E-07,-0.036
6.800E-07,-0.012
6.900E-07,-0.004
7.000E-07,0.008
7.100E-07,0.064
7.200E-07,0.104
7.300E-07,0.108
7.400E-07,0.104
7.500E-07,0.040
7.600E-07,0.008
7.700E-07,0.004
7.800E-07,0.028
7.900E-07,0.016
8.000E-07,0.036
8.100E-07,0.028
8.200E-07,0.000
8.300E-07,-0.016
8.400E-07,-0.040
8.500E-07,-0.008
8.600E-07,-0.020
8.700E-07,-0.004
8.800E-07,0.024
8.900E-07,0.132
9.000E-07,0.076
9.100E-07,0.104
9.200E-07,0.108
9.300E-07,0.124
9.400E-07,0.112
9.500E-07,0.128
9.600E-07,0.204
9.700E-07,0.240
9.800E-07,0.300
9.900E-07,0.260
1.000E-06,0.240
1.010E-06,0.192
1.020E-06,0.188
1.030E-06,0.188
1.040E-06,0.220
1.050E-06,0.236
1.060E-06,0.260
1.070E-06,0.260
1.080E-06,0.224
1.090E-06,0.208
1.100E-06,0.192
1.110E-06,0.208
1.120E-06,0.216
1.130E-06,0.244
1.140E-06,0.244
1.150E-06,0.256
1.160E-06,0.240
1.170E-06,0.224
1.180E-06,0.204
1.190E-06,0.200
1.200E-06,0.216
1.210E-06,0.224
1.220E-06,0.244
1.230E-06,0.240
1.240E-06,0.240
1.250E-06,0.216
1.260E-06,0.208
1.270E-06,0.196
1.280E-06,0.200
1.290E-06,0.208
1.300E-06,0.208
1.310E-06,0.200
1.320E-06,0.192
1.330E-06,0.184
1.340E-06,0.180
1.350E-06,0.192
1.360E-06,0.196
1.370E-06,0.184
1.380E-06,0.168
1.390E-06,0.152
1.400E-06,0.152
1.410E-06,0.192
1.420E-06,0.220
1.430E-06,0.232
1.440E-06,0.236
1.450E-06,0.220
1.460E-06,0.196
1.470E-06,0.172
1.480E-06,0.168
1.490E-06,0.164
1.500E-06,0.192
1.510E-06,0.224
1.520E-06,0.236
1.530E-06,0.228
1.540E-06,0.200
1.550E-06,0.172
1.560E-06,0.160
1.570E-06,0.168
1.580E-06,0.192
1.590E-06,0.228
1.600E-06,0.236
1.610E-06,0.232
1.620E-06,0.212
1.630E-06,0.192
1.640E-06,0.184
1.650E-06,0.192
1.660E-06,0.200
1.670E-06,0.220
1.680E-06,0.232
1.690E-06,0.236
1.700E-06,0.224
1.710E-06,0.204
1.720E-06,0.192
1.730E-06,0.192
1.740E-06,0.192
1.750E-06,0.208
1.760E-06,0.224
1.770E-06,0.224
1.780E-06,0.220
1.790E-06,0.208
1.800E-06,0.192
1.810E-06,0.192
1.820E-06,0.192
1.830E-06,0.204
1.840E-06,0.212
1.850E-06,0.216
1.860E-06,0.208
1.870E-06,0.204
1.880E-06,0.192
1.890E-06,0.184
1.900E-06,0.184
1.910E-06,0.188
1.920E-06,0.192
1.930E-06,0.196
1.940E-06,0.200
1.950E-06,0.192
1.960E-06,0.192
1.970E-06,0.188
1.980E-06,0.184
1.990E-06,0.192
2.000E-06,0.196
2.010E-06,0.196
2.020E-06,0.196
2.030E-06,0.196
2.040E-06,0.188
2.050E-06,0.184
2.060E-06,0.184
2.070E-06,0.192
2.080E-06,0.192
2.090E-06,0.200
2.100E-06,0.200
2.110E-06,0.192
2.120E-06,0.188
2.130E-06,0.184
2.140E-06,0.184
2.150E-06,0.188
2.160E-06,0.188
2.170E-06,0.192
2.180E-06,0.200
2.190E-06,0.196
2.200E-06,0.188
2.210E-06,0.180
2.220E-06,0.172
2.230E-06,0.180
2.240E-06,0.188
2.250E-06,0.192
2.260E-06,0.192
2.270E-06,0.196
2.280E-06,0.180
2.290E-06,0.172
2.300E-06,0.172
2.310E-06,0.176
2.320E-06,0.188
2.330E-06,0.192
2.340E-06,0.188
2.350E-06,0.184
2.360E-06,0.180
2.370E-06,0.168
2.380E-06,0.172
2.390E-06,0.164
2.400E-06,0.176
2.410E-06,0.188
2.420E-06,0.192
2.430E-06,0.176
2.440E-06,0.172
2.450E-06,0.160
2.460E-06,0.156
2.470E-06,0.164
2.480E-06,0.172
2.490E-06,0.184
2.500E-06,0.188
2.510E-06,0.176
2.520E-06,0.172
2.530E-06,0.160
2.540E-06,0.160
2.550E-06,0.164
2.560E-06,0.180
2.570E-06,0.188
2.580E-06,0.192
2.590E-06,0.180
2.600E-06,0.172
2.610E-06,0.164
2.620E-06,0.152
2.630E-06,0.156
2.640E-06,0.176
2.650E-06,0.176
2.660E-06,0.180
2.670E-06,0.176
2.680E-06,0.172
2.690E-06,0.164
2.700E-06,0.164
2.710E-06,0.160
2.720E-06,0.164
2.730E-06,0.156
2.740E-06,0.160
2.750E-06,0.160
2.760E-06,0.164
2.770E-06,0.156
2.780E-06,0.160
2.790E-06,0.168
2.800E-06,0.172
2.810E-06,0.164
2.820E-06,0.164
2.830E-06,0.156
2.840E-06,0.152
2.850E-06,0.156
2.860E-06,0.164
2.870E-06,0.164
2.880E-06,0.172
2.890E-06,0.164
2.900E-06,0.156
2.910E-06,0.156
2.920E-06,0.148
2.930E-06,0.152
2.940E-06,0.156
2.950E-06,0.164
2.960E-06,0.164
2.970E-06,0.156
2.980E-06,0.152
2.990E-06,0.152
3.000E-06,0.144
3.010E-06,0.152
3.020E-06,0.152
3.030E-06,0.160
3.040E-06,0.156
3.050E-06,0.148
3.060E-06,0.140
3.070E-06,0.136
3.080E-06,0.140
3.090E-06,0.144
3.100E-06,0.152
3.110E-06,0.152
3.120E-06,0.148
3.130E-06,0.144
3.140E-06,0.140
3.150E-06,0.136
3.160E-06,0.140
3.170E-06,0.140
3.180E-06,0.152
3.190E-06,0.152
3.200E-06,0.152
3.210E-06,0.152
3.220E-06,0.152
3.230E-06,0.144
3.240E-06,0.144
3.250E-06,0.140
3.260E-06,0.140
3.270E-06,0.144
3.280E-06,0.144
3.290E-06,0.144
3.300E-06,0.144
3.310E-06,0.136
3.320E-06,0.140
3.330E-06,0.140
3.340E-06,0.140
3.350E-06,0.132
3.360E-06,0.136
3.370E-06,0.132
3.380E-06,0.136
3.390E-06,0.136
3.400E-06,0.140
3.410E-06,0.132
3.420E-06,0.128
