mediciones/5-15/5.9/WaveData47568.csv

#timebase=2000000(ps)
,#voltbase=500000(mv/100)
#size=4000
-8.400E-06,0.060
-8.390E-06,0.080
-8.380E-06,0.120
-8.370E-06,0.100
-8.360E-06,0.100
-8.350E-06,0.120
-8.340E-06,0.080
-8.330E-06,0.120
-8.320E-06,0.100
-8.310E-06,0.120
-8.300E-06,0.120
-8.290E-06,0.120
-8.280E-06,0.120
-8.270E-06,0.100
-8.260E-06,0.100
-8.250E-06,0.120
-8.240E-06,0.120
-8.230E-06,0.080
-8.220E-06,0.080
-8.210E-06,0.080
-8.200E-06,0.080
-8.190E-06,0.060
-8.180E-06,0.080
-8.170E-06,0.080
-8.160E-06,0.060
-8.150E-06,0.020
-8.140E-06,0.020
-8.130E-06,0.000
-8.120E-06,0.000
-8.110E-06,0.000
-8.100E-06,0.000
-8.090E-06,0.000
-8.080E-06,0.040
-8.070E-06,0.060
-8.060E-06,0.040
-8.050E-06,0.060
-8.040E-06,0.040
-8.030E-06,-0.040
-8.020E-06,-0.040
-8.010E-06,-0.020
-8.000E-06,0.000
-7.990E-06,-0.060
-7.980E-06,0.000
-7.970E-06,0.000
-7.960E-06,0.000
-7.950E-06,0.020
-7.940E-06,-0.020
-7.930E-06,0.020
-7.920E-06,0.020
-7.910E-06,0.060
-7.900E-06,0.080
-7.890E-06,0.040
-7.880E-06,-0.040
-7.870E-06,-0.080
-7.860E-06,-0.120
-7.850E-06,-0.060
-7.840E-06,-0.120
-7.830E-06,-0.100
-7.820E-06,-0.100
-7.810E-06,-0.140
-7.800E-06,-0.100
-7.790E-06,-0.060
-7.780E-06,-0.020
-7.770E-06,-0.020
-7.760E-06,-0.020
-7.750E-06,0.000
-7.740E-06,0.000
-7.730E-06,0.040
-7.720E-06,0.080
-7.710E-06,0.080
-7.700E-06,0.100
-7.690E-06,0.100
-7.680E-06,0.080
-7.670E-06,0.080
-7.660E-06,0.100
-7.650E-06,0.100
-7.640E-06,0.140
-7.630E-06,0.120
-7.620E-06,0.100
-7.610E-06,0.100
-7.600E-06,0.100
-7.590E-06,0.100
-7.580E-06,0.080
-7.570E-06,0.120
-7.560E-06,0.100
-7.550E-06,0.060
-7.540E-06,0.080
-7.530E-06,0.100
-7.520E-06,0.080
-7.510E-06,0.060
-7.500E-06,0.060
-7.490E-06,0.040
-7.480E-06,0.020
-7.470E-06,0.000
-7.460E-06,0.000
-7.450E-06,0.000
-7.440E-06,0.000
-7.430E-06,-0.020
-7.420E-06,-0.060
-7.410E-06,-0.040
-7.400E-06,-0.040
-7.390E-06,-0.040
-7.380E-06,-0.080
-7.370E-06,0.000
-7.360E-06,0.020
-7.350E-06,0.060
-7.340E-06,0.100
-7.330E-06,0.060
-7.320E-06,0.000
-7.310E-06,0.000
-7.300E-06,0.000
-7.290E-06,0.000
-7.280E-06,0.000
-7.270E-06,-0.040
-7.260E-06,-0.060
-7.250E-06,-0.080
-7.240E-06,-0.080
-7.230E-06,-0.060
-7.220E-06,-0.040
-7.210E-06,-0.020
-7.200E-06,-0.080
-7.190E-06,-0.080
-7.180E-06,-0.080
-7.170E-06,-0.100
-7.160E-06,-0.120
-7.150E-06,-0.100
-7.140E-06,-0.020
-7.130E-06,-0.140
-7.120E-06,-0.020
-7.110E-06,-0.120
-7.100E-06,-0.140
-7.090E-06,-0.140
-7.080E-06,-0.080
-7.070E-06,-0.100
-7.060E-06,-0.080
-7.050E-06,-0.080
-7.040E-06,-0.100
-7.030E-06,-0.040
-7.020E-06,-0.060
-7.010E-06,-0.060
-7.000E-06,-0.120
-6.990E-06,-0.120
-6.980E-06,-0.140
-6.970E-06,-0.080
-6.960E-06,-0.080
-6.950E-06,-0.080
-6.940E-06,-0.040
-6.930E-06,0.040
-6.920E-06,0.080
-6.910E-06,0.180
-6.900E-06,0.080
-6.890E-06,0.060
-6.880E-06,0.040
-6.870E-06,0.020
-6.860E-06,0.060
-6.850E-06,0.100
-6.840E-06,0.060
-6.830E-06,0.040
-6.820E-06,0.020
-6.810E-06,-0.020
-6.800E-06,0.020
-6.790E-06,0.020
-6.780E-06,0.000
-6.770E-06,-0.020
-6.760E-06,-0.020
-6.750E-06,-0.040
-6.740E-06,-0.020
-6.730E-06,0.020
-6.720E-06,0.000
-6.710E-06,0.000
-6.700E-06,-0.020
-6.690E-06,-0.040
-6.680E-06,-0.080
-6.670E-06,-0.020
-6.660E-06,0.020
-6.650E-06,0.020
-6.640E-06,0.040
-6.630E-06,0.000
-6.620E-06,0.000
-6.610E-06,0.000
-6.600E-06,-0.020
-6.590E-06,0.000
-6.580E-06,0.000
-6.570E-06,0.000
-6.560E-06,0.000
-6.550E-06,0.000
-6.540E-06,-0.020
-6.530E-06,-0.020
-6.520E-06,0.000
-6.510E-06,0.000
-6.500E-06,-0.060
-6.490E-06,-0.060
-6.480E-06,-0.020
-6.470E-06,-0.040
-6.460E-06,0.000
-6.450E-06,-0.060
-6.440E-06,0.060
-6.430E-06,0.000
-6.420E-06,0.020
-6.410E-06,0.040
-6.400E-06,-0.020
-6.390E-06,-0.060
-6.380E-06,-0.060
-6.370E-06,-0.080
-6.360E-06,-0.060
-6.350E-06,-0.080
-6.340E-06,-0.140
-6.330E-06,-0.080
-6.320E-06,-0.120
-6.310E-06,-0.080
-6.300E-06,-0.040
-6.290E-06,-0.040
-6.280E-06,-0.040
-6.270E-06,-0.040
-6.260E-06,0.000
-6.250E-06,0.000
-6.240E-06,0.040
-6.230E-06,0.060
-6.220E-06,0.080
-6.210E-06,0.060
-6.200E-06,0.060
-6.190E-06,0.060
-6.180E-06,0.040
-6.170E-06,0.020
-6.160E-06,0.040
-6.150E-06,0.060
-6.140E-06,0.140
-6.130E-06,0.140
-6.120E-06,0.160
-6.110E-06,0.180
-6.100E-06,0.080
-6.090E-06,0.100
-6.080E-06,0.080
-6.070E-06,0.080
-6.060E-06,0.100
-6.050E-06,0.040
-6.040E-06,0.020
-6.030E-06,-0.020
-6.020E-06,-0.040
-6.010E-06,-0.060
-6.000E-06,-0.100
-5.990E-06,-0.080
-5.980E-06,-0.120
-5.970E-06,-0.100
-5.960E-06,-0.100
-5.950E-06,-0.080
-5.940E-06,-0.100
-5.930E-06,-0.120
-5.920E-06,-0.120
-5.910E-06,-0.120
-5.900E-06,-0.160
-5.890E-06,-0.180
-5.880E-06,-0.160
-5.870E-06,-0.160
-5.860E-06,0.000
-5.850E-06,-0.180
-5.840E-06,-0.020
-5.830E-06,-0.200
-5.820E-06,-0.120
-5.810E-06,0.060
-5.800E-06,0.120
-5.790E-06,0.200
-5.780E-06,0.060
-5.770E-06,-0.160
-5.760E-06,-0.180
-5.750E-06,-0.160
-5.740E-06,-0.020
-5.730E-06,0.020
-5.720E-06,-0.100
-5.710E-06,-0.180
-5.700E-06,-0.200
-5.690E-06,-0.160
-5.680E-06,-0.060
-5.670E-06,0.000
-5.660E-06,-0.020
-5.650E-06,-0.040
-5.640E-06,-0.060
-5.630E-06,-0.040
-5.620E-06,-0.020
-5.610E-06,0.040
-5.600E-06,0.080
-5.590E-06,0.040
-5.580E-06,-0.020
-5.570E-06,0.000
-5.560E-06,0.040
-5.550E-06,0.100
-5.540E-06,0.180
-5.530E-06,0.180
-5.520E-06,0.120
-5.510E-06,0.100
-5.500E-06,0.080
-5.490E-06,0.120
-5.480E-06,0.160
-5.470E-06,0.180
-5.460E-06,0.120
-5.450E-06,0.080
-5.440E-06,0.040
-5.430E-06,0.020
-5.420E-06,0.080
-5.410E-06,0.080
-5.400E-06,0.040
-5.390E-06,-0.020
-5.380E-06,-0.020
-5.370E-06,-0.040
-5.360E-06,-0.040
-5.350E-06,-0.060
-5.340E-06,-0.020
-5.330E-06,-0.020
-5.320E-06,0.000
-5.310E-06,-0.020
-5.300E-06,-0.020
-5.290E-06,-0.020
-5.280E-06,0.020
-5.270E-06,0.040
-5.260E-06,0.020
-5.250E-06,-0.020
-5.240E-06,-0.020
-5.230E-06,0.020
-5.220E-06,0.040
-5.210E-06,0.100
-5.200E-06,0.160
-5.190E-06,0.160
-5.180E-06,0.160
-5.170E-06,0.120
-5.160E-06,0.100
-5.150E-06,0.040
-5.140E-06,0.000
-5.130E-06,-0.040
-5.120E-06,-0.080
-5.110E-06,-0.160
-5.100E-06,-0.180
-5.090E-06,-0.140
-5.080E-06,-0.140
-5.070E-06,-0.140
-5.060E-06,-0.200
-5.050E-06,-0.220
-5.040E-06,-0.260
-5.030E-06,-0.260
-5.020E-06,-0.260
-5.010E-06,-0.240
-5.000E-06,-0.280
-4.990E-06,-0.180
-4.980E-06,-0.240
-4.970E-06,-0.260
-4.960E-06,-0.320
-4.950E-06,-0.420
-4.940E-06,-0.380
-4.930E-06,-0.380
-4.920E-06,-0.340
-4.910E-06,-0.040
-4.900E-06,-0.260
-4.890E-06,-0.040
-4.880E-06,-0.180
-4.870E-06,-0.100
-4.860E-06,-0.060
-4.850E-06,-0.020
-4.840E-06,-0.020
-4.830E-06,0.000
-4.820E-06,-0.040
-4.810E-06,0.000
-4.800E-06,-0.020
-4.790E-06,0.000
-4.780E-06,0.060
-4.770E-06,0.100
-4.760E-06,0.020
-4.750E-06,-0.020
-4.740E-06,0.000
-4.730E-06,0.040
-4.720E-06,0.100
-4.710E-06,0.120
-4.700E-06,0.200
-4.690E-06,0.220
-4.680E-06,0.240
-4.670E-06,0.240
-4.660E-06,0.200
-4.650E-06,0.180
-4.640E-06,0.180
-4.630E-06,0.140
-4.620E-06,0.120
-4.610E-06,0.100
-4.600E-06,0.060
-4.590E-06,0.020
-4.580E-06,-0.020
-4.570E-06,-0.060
-4.560E-06,-0.100
-4.550E-06,-0.140
-4.540E-06,-0.120
-4.530E-06,-0.100
-4.520E-06,-0.100
-4.510E-06,-0.060
-4.500E-06,-0.020
-4.490E-06,-0.040
-4.480E-06,-0.080
-4.470E-06,-0.080
-4.460E-06,-0.060
-4.450E-06,-0.080
-4.440E-06,-0.100
-4.430E-06,-0.100
-4.420E-06,-0.040
-4.410E-06,-0.020
-4.400E-06,0.040
-4.390E-06,0.080
-4.380E-06,0.120
-4.370E-06,0.180
-4.360E-06,0.140
-4.350E-06,0.120
-4.340E-06,0.140
-4.330E-06,0.100
-4.320E-06,0.140
-4.310E-06,0.100
-4.300E-06,0.060
-4.290E-06,0.000
-4.280E-06,-0.040
-4.270E-06,-0.080
-4.260E-06,-0.100
-4.250E-06,-0.100
-4.240E-06,-0.120
-4.230E-06,-0.160
-4.220E-06,-0.160
-4.210E-06,-0.180
-4.200E-06,-0.180
-4.190E-06,-0.160
-4.180E-06,-0.180
-4.170E-06,-0.200
-4.160E-06,-0.300
-4.150E-06,-0.260
-4.140E-06,-0.280
-4.130E-06,-0.260
-4.120E-06,-0.260
-4.110E-06,-0.300
-4.100E-06,-0.280
-4.090E-06,-0.320
-4.080E-06,-0.320
-4.070E-06,-0.300
-4.060E-06,-0.320
-4.050E-06,-0.340
-4.040E-06,-0.340
-4.030E-06,-0.380
-4.020E-06,-0.400
-4.010E-06,-0.320
-4.000E-06,-0.400
-3.990E-06,-0.320
-3.980E-06,-0.440
-3.970E-06,-0.480
-3.960E-06,-0.540
-3.950E-06,-0.360
-3.940E-06,-0.520
-3.930E-06,-0.300
-3.920E-06,-0.400
-3.910E-06,-0.320
-3.900E-06,-0.340
-3.890E-06,-0.340
-3.880E-06,-0.360
-3.870E-06,-0.360
-3.860E-06,-0.520
-3.850E-06,-0.480
-3.840E-06,-0.460
-3.830E-06,-0.420
-3.820E-06,-0.280
-3.810E-06,-0.360
-3.800E-06,-0.300
-3.790E-06,-0.160
-3.780E-06,-0.100
-3.770E-06,0.020
-3.760E-06,0.080
-3.750E-06,0.060
-3.740E-06,0.060
-3.730E-06,-0.020
-3.720E-06,-0.040
-3.710E-06,-0.020
-3.700E-06,-0.080
-3.690E-06,-0.120
-3.680E-06,-0.180
-3.670E-06,-0.200
-3.660E-06,-0.240
-3.650E-06,-0.180
-3.640E-06,-0.180
-3.630E-06,-0.100
-3.620E-06,-0.060
-3.610E-06,-0.020
-3.600E-06,0.000
-3.590E-06,-0.020
-3.580E-06,0.000
-3.570E-06,-0.020
-3.560E-06,-0.020
-3.550E-06,-0.080
-3.540E-06,-0.180
-3.530E-06,-0.160
-3.520E-06,-0.260
-3.510E-06,-0.160
-3.500E-06,-0.160
-3.490E-06,-0.180
-3.480E-06,-0.160
-3.470E-06,-0.180
-3.460E-06,-0.180
-3.450E-06,-0.180
-3.440E-06,-0.240
-3.430E-06,-0.220
-3.420E-06,-0.160
-3.410E-06,-0.080
-3.400E-06,-0.060
-3.390E-06,-0.040
-3.380E-06,-0.060
-3.370E-06,-0.140
-3.360E-06,-0.160
-3.350E-06,-0.240
-3.340E-06,-0.220
-3.330E-06,-0.280
-3.320E-06,-0.340
-3.310E-06,-0.340
-3.300E-06,-0.360
-3.290E-06,-0.360
-3.280E-06,-0.340
-3.270E-06,-0.360
-3.260E-06,-0.400
-3.250E-06,-0.380
-3.240E-06,-0.300
-3.230E-06,-0.260
-3.220E-06,-0.180
-3.210E-06,-0.120
-3.200E-06,-0.120
-3.190E-06,-0.020
-3.180E-06,0.000
-3.170E-06,0.060
-3.160E-06,0.120
-3.150E-06,0.140
-3.140E-06,0.120
-3.130E-06,0.140
-3.120E-06,0.160
-3.110E-06,0.200
-3.100E-06,0.240
-3.090E-06,0.280
-3.080E-06,0.240
-3.070E-06,0.220
-3.060E-06,0.200
-3.050E-06,0.160
-3.040E-06,0.160
-3.030E-06,0.080
-3.020E-06,0.000
-3.010E-06,0.000
-3.000E-06,-0.060
-2.990E-06,-0.040
-2.980E-06,-0.020
-2.970E-06,-0.020
-2.960E-06,0.000
-2.950E-06,-0.020
-2.940E-06,-0.020
-2.930E-06,-0.080
-2.920E-06,-0.080
-2.910E-06,-0.120
-2.900E-06,-0.160
-2.890E-06,-0.220
-2.880E-06,-0.300
-2.870E-06,-0.380
-2.860E-06,-0.400
-2.850E-06,-0.480
-2.840E-06,-0.520
-2.830E-06,-0.520
-2.820E-06,-0.540
-2.810E-06,-0.520
-2.800E-06,-0.540
-2.790E-06,-0.540
-2.780E-06,-0.500
-2.770E-06,-0.480
-2.760E-06,-0.420
-2.750E-06,-0.440
-2.740E-06,-0.360
-2.730E-06,-0.360
-2.720E-06,-0.360
-2.710E-06,-0.340
-2.700E-06,-0.360
-2.690E-06,-0.340
-2.680E-06,-0.340
-2.670E-06,-0.340
-2.660E-06,-0.320
-2.650E-06,-0.340
-2.640E-06,-0.340
-2.630E-06,-0.340
-2.620E-06,-0.220
-2.610E-06,-0.280
-2.600E-06,-0.060
-2.590E-06,-0.160
-2.580E-06,-0.060
-2.570E-06,0.040
-2.560E-06,0.160
-2.550E-06,0.300
-2.540E-06,0.360
-2.530E-06,0.300
-2.520E-06,0.180
-2.510E-06,0.000
-2.500E-06,0.000
-2.490E-06,-0.060
-2.480E-06,-0.080
-2.470E-06,-0.160
-2.460E-06,-0.220
-2.450E-06,-0.280
-2.440E-06,-0.300
-2.430E-06,-0.340
-2.420E-06,-0.420
-2.410E-06,-0.480
-2.400E-06,-0.520
-2.390E-06,-0.640
-2.380E-06,-0.580
-2.370E-06,-0.680
-2.360E-06,-0.660
-2.350E-06,-0.740
-2.340E-06,-0.800
-2.330E-06,-0.840
-2.320E-06,-0.860
-2.310E-06,-0.960
-2.300E-06,-0.980
-2.290E-06,-0.960
-2.280E-06,-1.020
-2.270E-06,-0.940
-2.260E-06,-0.900
-2.250E-06,-0.880
-2.240E-06,-0.740
-2.230E-06,-0.760
-2.220E-06,-0.740
-2.210E-06,-0.780
-2.200E-06,-0.760
-2.190E-06,-0.760
-2.180E-06,-0.800
-2.170E-06,-0.680
-2.160E-06,-0.760
-2.150E-06,-0.740
-2.140E-06,-0.380
-2.130E-06,-0.260
-2.120E-06,-0.140
-2.110E-06,-0.020
-2.100E-06,-0.340
-2.090E-06,-0.600
-2.080E-06,-0.600
-2.070E-06,-0.660
-2.060E-06,-0.440
-2.050E-06,-0.600
-2.040E-06,-0.900
-2.030E-06,-1.080
-2.020E-06,-1.100
-2.010E-06,-1.020
-2.000E-06,-0.860
-1.990E-06,-0.880
-1.980E-06,-0.860
-1.970E-06,-0.820
-1.960E-06,-0.680
-1.950E-06,-0.620
-1.940E-06,-0.560
-1.930E-06,-0.460
-1.920E-06,-0.180
-1.910E-06,-0.020
-1.900E-06,0.200
-1.890E-06,0.260
-1.880E-06,0.340
-1.870E-06,0.480
-1.860E-06,0.480
-1.850E-06,0.700
-1.840E-06,0.620
-1.830E-06,0.600
-1.820E-06,0.540
-1.810E-06,0.420
-1.800E-06,0.440
-1.790E-06,0.380
-1.780E-06,0.200
-1.770E-06,0.080
-1.760E-06,-0.060
-1.750E-06,-0.120
-1.740E-06,-0.200
-1.730E-06,-0.340
-1.720E-06,-0.520
-1.710E-06,-0.660
-1.700E-06,-0.740
-1.690E-06,-0.780
-1.680E-06,-0.760
-1.670E-06,-0.740
-1.660E-06,-0.640
-1.650E-06,-0.560
-1.640E-06,-0.440
-1.630E-06,-0.360
-1.620E-06,-0.300
-1.610E-06,-0.220
-1.600E-06,-0.140
-1.590E-06,-0.040
-1.580E-06,-0.020
-1.570E-06,0.000
-1.560E-06,0.040
-1.550E-06,0.080
-1.540E-06,0.080
-1.530E-06,0.100
-1.520E-06,0.060
-1.510E-06,0.000
-1.500E-06,-0.080
-1.490E-06,-0.180
-1.480E-06,-0.260
-1.470E-06,-0.280
-1.460E-06,-0.260
-1.450E-06,-0.240
-1.440E-06,-0.260
-1.430E-06,-0.300
-1.420E-06,-0.420
-1.410E-06,-0.560
-1.400E-06,-0.780
-1.390E-06,-0.880
-1.380E-06,-1.120
-1.370E-06,-1.320
-1.360E-06,-1.540
-1.350E-06,-1.720
-1.340E-06,-1.840
-1.330E-06,-1.860
-1.320E-06,-1.840
-1.310E-06,-1.680
-1.300E-06,-1.600
-1.290E-06,-1.340
-1.280E-06,-1.420
-1.270E-06,-1.420
-1.260E-06,-1.340
-1.250E-06,-1.360
-1.240E-06,-1.320
-1.230E-06,-1.340
-1.220E-06,-1.700
-1.210E-06,-1.620
-1.200E-06,-2.120
-1.190E-06,-1.860
-1.180E-06,-1.900
-1.170E-06,-1.520
-1.160E-06,-1.120
-1.150E-06,-0.960
-1.140E-06,-0.660
-1.130E-06,-0.720
-1.120E-06,-0.880
-1.110E-06,-0.840
-1.100E-06,-0.900
-1.090E-06,-0.760
-1.080E-06,-0.640
-1.070E-06,-0.900
-1.060E-06,-1.040
-1.050E-06,-1.300
-1.040E-06,-1.360
-1.030E-06,-1.220
-1.020E-06,-1.180
-1.010E-06,-1.140
-1.000E-06,-1.180
-9.900E-07,-1.200
-9.800E-07,-1.100
-9.700E-07,-1.020
-9.600E-07,-0.700
-9.500E-07,-0.640
-9.400E-07,-0.160
-9.300E-07,0.080
-9.200E-07,0.540
-9.100E-07,0.960
-9.000E-07,1.240
-8.900E-07,1.320
-8.800E-07,1.100
-8.700E-07,0.900
-8.600E-07,0.600
-8.500E-07,0.500
-8.400E-07,0.320
-8.300E-07,0.120
-8.200E-07,-0.160
-8.100E-07,-0.260
-8.000E-07,-0.400
-7.900E-07,-0.400
-7.800E-07,-0.380
-7.700E-07,-0.480
-7.600E-07,-0.580
-7.500E-07,-0.680
-7.400E-07,-0.740
-7.300E-07,-0.740
-7.200E-07,-0.720
-7.100E-07,-0.680
-7.000E-07,-0.600
-6.900E-07,-0.580
-6.800E-07,-0.540
-6.700E-07,-0.540
-6.600E-07,-0.580
-6.500E-07,-0.600
-6.400E-07,-0.580
-6.300E-07,-0.560
-6.200E-07,-0.580
-6.100E-07,-0.540
-6.000E-07,-0.520
-5.900E-07,-0.500
-5.800E-07,-0.520
-5.700E-07,-0.520
-5.600E-07,-0.440
-5.500E-07,-0.400
-5.400E-07,-0.380
-5.300E-07,-0.600
-5.200E-07,-0.440
-5.100E-07,-0.540
-5.000E-07,-0.160
-4.900E-07,0.040
-4.800E-07,0.180
-4.700E-07,0.160
-4.600E-07,0.080
-4.500E-07,-0.160
-4.400E-07,-0.280
-4.300E-07,-0.280
-4.200E-07,-0.340
-4.100E-07,-0.420
-4.000E-07,-0.560
-3.900E-07,-0.760
-3.800E-07,-1.000
-3.700E-07,-1.360
-3.600E-07,-1.620
-3.500E-07,-1.960
-3.400E-07,-2.180
-3.300E-07,-2.400
-3.200E-07,-2.580
-3.100E-07,-2.560
-3.000E-07,-2.420
-2.900E-07,-2.120
-2.800E-07,-1.340
-2.700E-07,-1.040
-2.600E-07,-0.700
-2.500E-07,-0.720
-2.400E-07,-0.880
-2.300E-07,-0.940
-2.200E-07,-1.180
-2.100E-07,-1.400
-2.000E-07,-1.520
-1.900E-07,-1.940
-1.800E-07,-2.040
-1.700E-07,-2.460
-1.600E-07,-2.500
-1.500E-07,-2.660
-1.400E-07,-2.380
-1.300E-07,-2.320
-1.200E-07,-1.880
-1.100E-07,-1.480
-1.000E-07,-0.920
-9.000E-08,-0.600
-8.000E-08,-0.700
-7.000E-08,-0.760
-6.000E-08,-1.080
-5.000E-08,-0.640
-4.000E-08,-0.840
-3.000E-08,-0.240
-2.000E-08,-0.620
-1.000E-08,-0.880
0.000E+00,-1.440
1.000E-08,-1.840
2.000E-08,-2.020
3.000E-08,-1.760
4.000E-08,-1.680
5.000E-08,-1.760
6.000E-08,-1.760
7.000E-08,-1.760
8.000E-08,-1.520
9.000E-08,-1.340
1.000E-07,-1.200
1.100E-07,-1.120
1.200E-07,-0.940
1.300E-07,-0.780
1.400E-07,-0.600
1.500E-07,-0.540
1.600E-07,-0.500
1.700E-07,-0.380
1.800E-07,-0.200
1.900E-07,0.040
2.000E-07,0.220
2.100E-07,0.480
2.200E-07,0.660
2.300E-07,0.860
2.400E-07,0.960
2.500E-07,1.000
2.600E-07,1.080
2.700E-07,1.100
2.800E-07,1.160
2.900E-07,1.140
3.000E-07,1.100
3.100E-07,0.980
3.200E-07,0.780
3.300E-07,0.640
3.400E-07,0.520
3.500E-07,0.360
3.600E-07,0.300
3.700E-07,0.140
3.800E-07,0.000
3.900E-07,-0.160
4.000E-07,-0.360
4.100E-07,-0.540
4.200E-07,-0.660
4.300E-07,-0.700
4.400E-07,-0.680
4.500E-07,-0.740
4.600E-07,-0.740
4.700E-07,-0.760
4.800E-07,-0.740
4.900E-07,-0.720
5.000E-07,-0.720
5.100E-07,-0.740
5.200E-07,-0.740
5.300E-07,-0.700
5.400E-07,-0.720
5.500E-07,-0.680
5.600E-07,-0.660
5.700E-07,-0.620
5.800E-07,-0.560
5.900E-07,-0.540
6.000E-07,-0.480
6.100E-07,-0.380
6.200E-07,-0.240
6.300E-07,-0.100
6.400E-07,-0.060
6.500E-07,0.040
6.600E-07,0.100
6.700E-07,0.180
6.800E-07,0.280
6.900E-07,0.220
7.000E-07,0.440
7.100E-07,1.080
7.200E-07,1.180
7.300E-07,1.980
7.400E-07,2.080
7.500E-07,1.600
7.600E-07,1.280
7.700E-07,0.160
7.800E-07,0.360
7.900E-07,0.540
8.000E-07,0.900
8.100E-07,0.800
8.200E-07,0.600
8.300E-07,-0.320
8.400E-07,-0.800
8.500E-07,-1.000
8.600E-07,-1.360
8.700E-07,-1.100
8.800E-07,-1.680
8.900E-07,-1.800
9.000E-07,-2.240
9.100E-07,-2.300
9.200E-07,-2.220
9.300E-07,-2.380
9.400E-07,-2.400
9.500E-07,-2.540
9.600E-07,-2.180
9.700E-07,-1.920
9.800E-07,-1.560
9.900E-07,-1.420
1.000E-06,-1.200
1.010E-06,-0.880
1.020E-06,-0.500
1.030E-06,-0.200
1.040E-06,-0.120
1.050E-06,0.040
1.060E-06,0.180
1.070E-06,0.200
1.080E-06,0.140
1.090E-06,0.020
1.100E-06,-0.100
1.110E-06,-0.180
1.120E-06,-0.300
1.130E-06,-0.540
1.140E-06,-0.680
1.150E-06,-0.900
1.160E-06,-0.980
1.170E-06,-0.940
1.180E-06,-0.920
1.190E-06,-0.780
1.200E-06,-0.760
1.210E-06,-0.720
1.220E-06,-0.800
1.230E-06,-0.940
1.240E-06,-1.140
1.250E-06,-1.300
1.260E-06,-1.420
1.270E-06,-1.520
1.280E-06,-1.620
1.290E-06,-1.700
1.300E-06,-1.760
1.310E-06,-1.760
1.320E-06,-1.720
1.330E-06,-1.580
1.340E-06,-1.500
1.350E-06,-1.460
1.360E-06,-1.380
1.370E-06,-1.360
1.380E-06,-1.340
1.390E-06,-1.360
1.400E-06,-1.360
1.410E-06,-1.400
1.420E-06,-1.440
1.430E-06,-1.540
1.440E-06,-1.660
1.450E-06,-1.800
1.460E-06,-1.960
1.470E-06,-2.160
1.480E-06,-2.300
1.490E-06,-2.400
1.500E-06,-2.480
1.510E-06,-2.520
1.520E-06,-2.520
1.530E-06,-2.520
1.540E-06,-2.440
1.550E-06,-2.400
1.560E-06,-2.440
1.570E-06,-2.400
1.580E-06,-2.520
1.590E-06,-2.560
1.600E-06,-2.600
1.610E-06,-2.660
1.620E-06,-2.660
1.630E-06,-2.640
1.640E-06,-2.660
1.650E-06,-2.660
1.660E-06,-2.660
1.670E-06,-2.660
1.680E-06,-2.640
1.690E-06,-2.640
1.700E-06,-2.640
1.710E-06,-2.660
1.720E-06,-2.600
1.730E-06,-2.480
1.740E-06,-2.420
1.750E-06,-2.380
1.760E-06,-2.460
1.770E-06,-2.520
1.780E-06,-2.660
1.790E-06,-2.660
1.800E-06,-2.660
1.810E-06,-2.680
1.820E-06,-2.680
1.830E-06,-2.680
1.840E-06,-2.680
1.850E-06,-2.660
1.860E-06,-2.660
1.870E-06,-2.660
1.880E-06,-2.660
1.890E-06,-2.660
1.900E-06,-2.640
1.910E-06,-2.640
1.920E-06,-2.640
1.930E-06,-2.640
1.940E-06,-2.660
1.950E-06,-2.660
1.960E-06,-2.660
1.970E-06,-2.660
1.980E-06,-2.660
1.990E-06,-2.660
2.000E-06,-2.660
2.010E-06,-2.660
2.020E-06,-2.680
2.030E-06,-2.680
2.040E-06,-2.660
2.050E-06,-2.660
2.060E-06,-2.660
2.070E-06,-2.660
2.080E-06,-2.660
2.090E-06,-2.660
2.100E-06,-2.660
2.110E-06,-2.640
2.120E-06,-2.660
2.130E-06,-2.660
2.140E-06,-2.500
2.150E-06,-2.160
2.160E-06,-1.860
2.170E-06,-1.620
2.180E-06,-1.420
2.190E-06,-1.280
2.200E-06,-1.140
2.210E-06,-1.020
2.220E-06,-0.940
2.230E-06,-0.860
2.240E-06,-0.760
2.250E-06,-0.600
2.260E-06,-0.500
2.270E-06,-0.360
2.280E-06,-0.280
2.290E-06,-0.240
2.300E-06,-0.160
2.310E-06,-0.160
2.320E-06,-0.140
2.330E-06,-0.180
2.340E-06,-0.200
2.350E-06,-0.280
2.360E-06,-0.340
2.370E-06,-0.380
2.380E-06,-0.380
2.390E-06,-0.340
2.400E-06,-0.340
2.410E-06,-0.280
2.420E-06,-0.200
2.430E-06,-0.100
2.440E-06,0.020
2.450E-06,0.140
2.460E-06,0.260
2.470E-06,0.360
2.480E-06,0.420
2.490E-06,0.500
2.500E-06,0.520
2.510E-06,0.520
2.520E-06,0.520
2.530E-06,0.540
2.540E-06,0.500
2.550E-06,0.480
2.560E-06,0.440
2.570E-06,0.360
2.580E-06,0.240
2.590E-06,0.180
2.600E-06,0.060
2.610E-06,0.000
2.620E-06,-0.140
2.630E-06,-0.180
2.640E-06,-0.240
2.650E-06,-0.340
2.660E-06,-0.320
2.670E-06,-0.340
2.680E-06,-0.300
2.690E-06,-0.240
2.700E-06,-0.200
2.710E-06,-0.100
2.720E-06,-0.040
2.730E-06,-0.040
2.740E-06,-0.080
2.750E-06,-0.140
2.760E-06,-0.280
2.770E-06,-0.440
2.780E-06,-0.600
2.790E-06,-0.760
2.800E-06,-1.000
2.810E-06,-1.200
2.820E-06,-1.380
2.830E-06,-1.580
2.840E-06,-1.720
2.850E-06,-1.880
2.860E-06,-2.040
2.870E-06,-2.140
2.880E-06,-2.220
2.890E-06,-2.300
2.900E-06,-2.340
2.910E-06,-2.360
2.920E-06,-2.300
2.930E-06,-2.200
2.940E-06,-2.060
2.950E-06,-1.940
2.960E-06,-1.900
2.970E-06,-1.900
2.980E-06,-1.960
2.990E-06,-2.080
3.000E-06,-2.220
3.010E-06,-2.340
3.020E-06,-2.380
3.030E-06,-2.420
