mediciones/5-15/5.9/WaveData47574.csv

#timebase=2000000(ps)
,#voltbase=100000(mv/100)
#size=4000
-8.400E-06,0.008
-8.390E-06,0.004
-8.380E-06,0.004
-8.370E-06,-0.004
-8.360E-06,0.000
-8.350E-06,-0.004
-8.340E-06,0.004
-8.330E-06,0.004
-8.320E-06,0.008
-8.310E-06,0.008
-8.300E-06,0.004
-8.290E-06,0.004
-8.280E-06,0.000
-8.270E-06,0.000
-8.260E-06,0.000
-8.250E-06,0.000
-8.240E-06,0.004
-8.230E-06,0.004
-8.220E-06,0.008
-8.210E-06,0.008
-8.200E-06,0.004
-8.190E-06,0.004
-8.180E-06,0.004
-8.170E-06,-0.004
-8.160E-06,-0.004
-8.150E-06,0.004
-8.140E-06,0.004
-8.130E-06,0.008
-8.120E-06,0.004
-8.110E-06,0.000
-8.100E-06,0.004
-8.090E-06,0.000
-8.080E-06,0.000
-8.070E-06,0.000
-8.060E-06,0.000
-8.050E-06,0.000
-8.040E-06,0.000
-8.030E-06,0.008
-8.020E-06,0.012
-8.010E-06,0.012
-8.000E-06,0.000
-7.990E-06,-0.004
-7.980E-06,-0.004
-7.970E-06,0.008
-7.960E-06,0.020
-7.950E-06,0.020
-7.940E-06,0.008
-7.930E-06,0.000
-7.920E-06,-0.008
-7.910E-06,-0.004
-7.900E-06,0.000
-7.890E-06,0.012
-7.880E-06,0.012
-7.870E-06,0.012
-7.860E-06,0.004
-7.850E-06,0.000
-7.840E-06,-0.004
-7.830E-06,0.008
-7.820E-06,0.000
-7.810E-06,-0.004
-7.800E-06,0.000
-7.790E-06,-0.004
-7.780E-06,0.000
-7.770E-06,0.008
-7.760E-06,0.008
-7.750E-06,0.004
-7.740E-06,-0.004
-7.730E-06,-0.008
-7.720E-06,-0.004
-7.710E-06,0.008
-7.700E-06,0.012
-7.690E-06,0.012
-7.680E-06,0.008
-7.670E-06,0.000
-7.660E-06,-0.004
-7.650E-06,0.000
-7.640E-06,0.008
-7.630E-06,0.008
-7.620E-06,0.012
-7.610E-06,0.008
-7.600E-06,0.000
-7.590E-06,-0.004
-7.580E-06,0.000
-7.570E-06,0.004
-7.560E-06,0.008
-7.550E-06,0.004
-7.540E-06,0.004
-7.530E-06,0.000
-7.520E-06,0.008
-7.510E-06,0.004
-7.500E-06,0.004
-7.490E-06,0.000
-7.480E-06,0.000
-7.470E-06,0.000
-7.460E-06,0.000
-7.450E-06,0.008
-7.440E-06,0.012
-7.430E-06,0.008
-7.420E-06,0.004
-7.410E-06,-0.004
-7.400E-06,-0.008
-7.390E-06,0.004
-7.380E-06,0.008
-7.370E-06,0.020
-7.360E-06,0.024
-7.350E-06,0.008
-7.340E-06,-0.016
-7.330E-06,-0.008
-7.320E-06,-0.008
-7.310E-06,0.000
-7.300E-06,0.004
-7.290E-06,0.012
-7.280E-06,0.008
-7.270E-06,0.000
-7.260E-06,-0.004
-7.250E-06,-0.008
-7.240E-06,0.004
-7.230E-06,0.016
-7.220E-06,0.012
-7.210E-06,0.004
-7.200E-06,0.000
-7.190E-06,-0.004
-7.180E-06,0.000
-7.170E-06,0.008
-7.160E-06,0.008
-7.150E-06,0.004
-7.140E-06,-0.008
-7.130E-06,0.008
-7.120E-06,0.012
-7.110E-06,0.008
-7.100E-06,0.004
-7.090E-06,0.004
-7.080E-06,-0.004
-7.070E-06,-0.008
-7.060E-06,-0.004
-7.050E-06,0.004
-7.040E-06,0.012
-7.030E-06,0.012
-7.020E-06,0.004
-7.010E-06,-0.004
-7.000E-06,-0.012
-6.990E-06,0.000
-6.980E-06,-0.004
-6.970E-06,0.004
-6.960E-06,0.008
-6.950E-06,0.012
-6.940E-06,0.008
-6.930E-06,0.004
-6.920E-06,-0.004
-6.910E-06,0.000
-6.900E-06,0.004
-6.890E-06,0.004
-6.880E-06,0.004
-6.870E-06,0.008
-6.860E-06,0.008
-6.850E-06,0.008
-6.840E-06,0.008
-6.830E-06,0.004
-6.820E-06,-0.008
-6.810E-06,-0.012
-6.800E-06,0.000
-6.790E-06,0.004
-6.780E-06,0.020
-6.770E-06,0.016
-6.760E-06,0.008
-6.750E-06,0.000
-6.740E-06,-0.008
-6.730E-06,0.000
-6.720E-06,-0.008
-6.710E-06,0.004
-6.700E-06,0.008
-6.690E-06,0.020
-6.680E-06,0.008
-6.670E-06,0.000
-6.660E-06,-0.004
-6.650E-06,-0.004
-6.640E-06,0.000
-6.630E-06,-0.004
-6.620E-06,0.004
-6.610E-06,0.000
-6.600E-06,0.004
-6.590E-06,0.000
-6.580E-06,0.012
-6.570E-06,0.008
-6.560E-06,0.000
-6.550E-06,0.000
-6.540E-06,0.004
-6.530E-06,-0.004
-6.520E-06,0.008
-6.510E-06,0.012
-6.500E-06,0.016
-6.490E-06,0.024
-6.480E-06,0.024
-6.470E-06,0.004
-6.460E-06,-0.004
-6.450E-06,0.000
-6.440E-06,0.008
-6.430E-06,0.012
-6.420E-06,0.012
-6.410E-06,0.008
-6.400E-06,0.004
-6.390E-06,0.008
-6.380E-06,-0.004
-6.370E-06,-0.020
-6.360E-06,-0.004
-6.350E-06,-0.004
-6.340E-06,0.004
-6.330E-06,0.020
-6.320E-06,0.008
-6.310E-06,0.012
-6.300E-06,0.000
-6.290E-06,0.004
-6.280E-06,0.000
-6.270E-06,0.000
-6.260E-06,-0.004
-6.250E-06,-0.008
-6.240E-06,-0.004
-6.230E-06,0.012
-6.220E-06,0.024
-6.210E-06,0.028
-6.200E-06,0.008
-6.190E-06,-0.004
-6.180E-06,-0.024
-6.170E-06,-0.016
-6.160E-06,0.004
-6.150E-06,0.024
-6.140E-06,0.036
-6.130E-06,0.036
-6.120E-06,0.016
-6.110E-06,-0.004
-6.100E-06,-0.048
-6.090E-06,-0.060
-6.080E-06,-0.028
-6.070E-06,0.008
-6.060E-06,0.040
-6.050E-06,0.056
-6.040E-06,0.032
-6.030E-06,-0.040
-6.020E-06,-0.064
-6.010E-06,-0.044
-6.000E-06,0.008
-5.990E-06,0.056
-5.980E-06,0.060
-5.970E-06,0.028
-5.960E-06,-0.032
-5.950E-06,-0.052
-5.940E-06,-0.040
-5.930E-06,0.008
-5.920E-06,0.044
-5.910E-06,0.044
-5.900E-06,0.024
-5.890E-06,-0.004
-5.880E-06,-0.028
-5.870E-06,-0.020
-5.860E-06,0.000
-5.850E-06,0.012
-5.840E-06,0.012
-5.830E-06,0.008
-5.820E-06,0.008
-5.810E-06,0.008
-5.800E-06,0.016
-5.790E-06,0.000
-5.780E-06,-0.004
-5.770E-06,-0.008
-5.760E-06,-0.004
-5.750E-06,0.000
-5.740E-06,0.012
-5.730E-06,0.020
-5.720E-06,0.008
-5.710E-06,0.000
-5.700E-06,-0.008
-5.690E-06,-0.008
-5.680E-06,0.004
-5.670E-06,0.008
-5.660E-06,0.016
-5.650E-06,0.008
-5.640E-06,0.000
-5.630E-06,-0.008
-5.620E-06,-0.004
-5.610E-06,0.008
-5.600E-06,0.012
-5.590E-06,0.000
-5.580E-06,0.004
-5.570E-06,0.000
-5.560E-06,0.000
-5.550E-06,0.000
-5.540E-06,0.000
-5.530E-06,0.004
-5.520E-06,0.004
-5.510E-06,0.008
-5.500E-06,0.008
-5.490E-06,0.004
-5.480E-06,-0.004
-5.470E-06,-0.004
-5.460E-06,-0.008
-5.450E-06,0.000
-5.440E-06,0.012
-5.430E-06,0.024
-5.420E-06,0.012
-5.410E-06,0.000
-5.400E-06,-0.008
-5.390E-06,-0.012
-5.380E-06,-0.004
-5.370E-06,0.004
-5.360E-06,0.016
-5.350E-06,0.016
-5.340E-06,0.008
-5.330E-06,0.008
-5.320E-06,0.000
-5.310E-06,0.000
-5.300E-06,0.000
-5.290E-06,0.000
-5.280E-06,0.004
-5.270E-06,0.004
-5.260E-06,0.004
-5.250E-06,0.008
-5.240E-06,0.004
-5.230E-06,0.004
-5.220E-06,0.000
-5.210E-06,-0.004
-5.200E-06,0.000
-5.190E-06,0.000
-5.180E-06,0.004
-5.170E-06,0.012
-5.160E-06,0.016
-5.150E-06,0.000
-5.140E-06,0.000
-5.130E-06,-0.008
-5.120E-06,-0.004
-5.110E-06,0.004
-5.100E-06,0.012
-5.090E-06,0.012
-5.080E-06,0.008
-5.070E-06,0.004
-5.060E-06,-0.004
-5.050E-06,-0.004
-5.040E-06,-0.004
-5.030E-06,0.008
-5.020E-06,0.008
-5.010E-06,0.012
-5.000E-06,0.008
-4.990E-06,0.004
-4.980E-06,-0.004
-4.970E-06,0.000
-4.960E-06,0.000
-4.950E-06,0.008
-4.940E-06,0.004
-4.930E-06,0.008
-4.920E-06,0.008
-4.910E-06,0.004
-4.900E-06,0.008
-4.890E-06,-0.004
-4.880E-06,0.000
-4.870E-06,-0.004
-4.860E-06,0.000
-4.850E-06,0.004
-4.840E-06,0.004
-4.830E-06,0.012
-4.820E-06,0.004
-4.810E-06,0.000
-4.800E-06,-0.004
-4.790E-06,0.000
-4.780E-06,-0.004
-4.770E-06,0.004
-4.760E-06,0.012
-4.750E-06,0.012
-4.740E-06,0.012
-4.730E-06,0.008
-4.720E-06,0.000
-4.710E-06,-0.004
-4.700E-06,0.000
-4.690E-06,0.004
-4.680E-06,0.012
-4.670E-06,0.008
-4.660E-06,0.004
-4.650E-06,0.004
-4.640E-06,-0.004
-4.630E-06,0.000
-4.620E-06,-0.004
-4.610E-06,0.000
-4.600E-06,0.004
-4.590E-06,0.008
-4.580E-06,0.008
-4.570E-06,0.012
-4.560E-06,0.004
-4.550E-06,0.008
-4.540E-06,-0.004
-4.530E-06,-0.004
-4.520E-06,0.000
-4.510E-06,0.008
-4.500E-06,0.016
-4.490E-06,0.020
-4.480E-06,0.012
-4.470E-06,0.008
-4.460E-06,-0.004
-4.450E-06,-0.008
-4.440E-06,-0.004
-4.430E-06,0.004
-4.420E-06,0.020
-4.410E-06,0.028
-4.400E-06,0.016
-4.390E-06,0.004
-4.380E-06,0.000
-4.370E-06,0.004
-4.360E-06,0.008
-4.350E-06,0.000
-4.340E-06,0.008
-4.330E-06,-0.068
-4.320E-06,-0.068
-4.310E-06,-0.028
-4.300E-06,0.032
-4.290E-06,0.048
-4.280E-06,0.052
-4.270E-06,0.000
-4.260E-06,-0.056
-4.250E-06,-0.048
-4.240E-06,-0.020
-4.230E-06,0.032
-4.220E-06,0.056
-4.210E-06,0.052
-4.200E-06,-0.004
-4.190E-06,-0.032
-4.180E-06,-0.040
-4.170E-06,-0.008
-4.160E-06,0.032
-4.150E-06,0.052
-4.140E-06,0.032
-4.130E-06,-0.004
-4.120E-06,-0.024
-4.110E-06,-0.028
-4.100E-06,-0.004
-4.090E-06,0.012
-4.080E-06,0.020
-4.070E-06,0.008
-4.060E-06,0.008
-4.050E-06,0.000
-4.040E-06,0.000
-4.030E-06,0.004
-4.020E-06,-0.004
-4.010E-06,-0.004
-4.000E-06,0.000
-3.990E-06,-0.004
-3.980E-06,0.004
-3.970E-06,0.012
-3.960E-06,0.008
-3.950E-06,0.008
-3.940E-06,-0.004
-3.930E-06,-0.008
-3.920E-06,-0.004
-3.910E-06,0.008
-3.900E-06,0.020
-3.890E-06,0.024
-3.880E-06,0.012
-3.870E-06,-0.004
-3.860E-06,-0.004
-3.850E-06,-0.004
-3.840E-06,0.008
-3.830E-06,0.024
-3.820E-06,0.016
-3.810E-06,0.008
-3.800E-06,0.004
-3.790E-06,-0.004
-3.780E-06,-0.008
-3.770E-06,0.004
-3.760E-06,0.016
-3.750E-06,0.012
-3.740E-06,0.016
-3.730E-06,0.012
-3.720E-06,0.000
-3.710E-06,-0.012
-3.700E-06,-0.004
-3.690E-06,0.004
-3.680E-06,0.012
-3.670E-06,0.028
-3.660E-06,0.016
-3.650E-06,0.012
-3.640E-06,0.000
-3.630E-06,-0.004
-3.620E-06,0.000
-3.610E-06,0.000
-3.600E-06,0.000
-3.590E-06,0.008
-3.580E-06,0.024
-3.570E-06,0.020
-3.560E-06,0.024
-3.550E-06,0.024
-3.540E-06,0.008
-3.530E-06,0.000
-3.520E-06,-0.008
-3.510E-06,-0.008
-3.500E-06,0.004
-3.490E-06,-0.020
-3.480E-06,-0.012
-3.470E-06,-0.024
-3.460E-06,-0.004
-3.450E-06,0.004
-3.440E-06,0.024
-3.430E-06,0.004
-3.420E-06,-0.012
-3.410E-06,-0.024
-3.400E-06,-0.008
-3.390E-06,0.012
-3.380E-06,0.044
-3.370E-06,0.048
-3.360E-06,-0.032
-3.350E-06,-0.040
-3.340E-06,-0.012
-3.330E-06,-0.004
-3.320E-06,-0.004
-3.310E-06,0.040
-3.300E-06,0.060
-3.290E-06,0.004
-3.280E-06,-0.048
-3.270E-06,-0.032
-3.260E-06,-0.040
-3.250E-06,0.044
-3.240E-06,0.064
-3.230E-06,-0.012
-3.220E-06,-0.004
-3.210E-06,0.060
-3.200E-06,0.008
-3.190E-06,-0.068
-3.180E-06,0.000
-3.170E-06,0.020
-3.160E-06,-0.008
-3.150E-06,-0.008
-3.140E-06,0.028
-3.130E-06,0.040
-3.120E-06,0.028
-3.110E-06,0.008
-3.100E-06,-0.020
-3.090E-06,-0.008
-3.080E-06,-0.008
-3.070E-06,0.012
-3.060E-06,0.008
-3.050E-06,0.012
-3.040E-06,0.000
-3.030E-06,0.000
-3.020E-06,0.000
-3.010E-06,-0.004
-3.000E-06,0.004
-2.990E-06,0.012
-2.980E-06,0.032
-2.970E-06,0.052
-2.960E-06,0.068
-2.950E-06,0.052
-2.940E-06,0.056
-2.930E-06,0.056
-2.920E-06,0.056
-2.910E-06,0.004
-2.900E-06,-0.052
-2.890E-06,-0.140
-2.880E-06,-0.164
-2.870E-06,-0.056
-2.860E-06,0.088
-2.850E-06,0.216
-2.840E-06,0.188
-2.830E-06,0.056
-2.820E-06,-0.096
-2.810E-06,-0.208
-2.800E-06,-0.192
-2.790E-06,-0.060
-2.780E-06,0.112
-2.770E-06,0.212
-2.760E-06,0.192
-2.750E-06,0.056
-2.740E-06,-0.092
-2.730E-06,-0.160
-2.720E-06,-0.136
-2.710E-06,-0.028
-2.700E-06,0.072
-2.690E-06,0.120
-2.680E-06,0.096
-2.670E-06,0.004
-2.660E-06,-0.060
-2.650E-06,-0.060
-2.640E-06,-0.020
-2.630E-06,0.032
-2.620E-06,0.028
-2.610E-06,0.024
-2.600E-06,0.004
-2.590E-06,-0.004
-2.580E-06,-0.008
-2.570E-06,0.004
-2.560E-06,-0.004
-2.550E-06,-0.020
-2.540E-06,-0.040
-2.530E-06,-0.032
-2.520E-06,0.016
-2.510E-06,0.052
-2.500E-06,0.044
-2.490E-06,-0.008
-2.480E-06,-0.048
-2.470E-06,-0.068
-2.460E-06,-0.028
-2.450E-06,0.016
-2.440E-06,0.080
-2.430E-06,0.084
-2.420E-06,0.028
-2.410E-06,-0.032
-2.400E-06,-0.072
-2.390E-06,-0.056
-2.380E-06,0.000
-2.370E-06,0.052
-2.360E-06,0.072
-2.350E-06,0.052
-2.340E-06,0.008
-2.330E-06,-0.016
-2.320E-06,-0.028
-2.310E-06,-0.020
-2.300E-06,0.004
-2.290E-06,0.020
-2.280E-06,0.044
-2.270E-06,0.036
-2.260E-06,0.032
-2.250E-06,0.008
-2.240E-06,-0.012
-2.230E-06,-0.024
-2.220E-06,-0.024
-2.210E-06,-0.008
-2.200E-06,0.012
-2.190E-06,0.020
-2.180E-06,0.016
-2.170E-06,0.012
-2.160E-06,-0.004
-2.150E-06,-0.004
-2.140E-06,0.004
-2.130E-06,0.036
-2.120E-06,0.032
-2.110E-06,0.012
-2.100E-06,-0.020
-2.090E-06,-0.028
-2.080E-06,-0.008
-2.070E-06,0.000
-2.060E-06,0.024
-2.050E-06,0.016
-2.040E-06,0.000
-2.030E-06,-0.024
-2.020E-06,-0.020
-2.010E-06,-0.004
-2.000E-06,0.016
-1.990E-06,0.024
-1.980E-06,0.024
-1.970E-06,0.004
-1.960E-06,-0.008
-1.950E-06,-0.008
-1.940E-06,-0.004
-1.930E-06,0.008
-1.920E-06,0.020
-1.910E-06,0.032
-1.900E-06,0.024
-1.890E-06,0.020
-1.880E-06,0.012
-1.870E-06,0.000
-1.860E-06,0.008
-1.850E-06,0.012
-1.840E-06,0.008
-1.830E-06,0.012
-1.820E-06,0.004
-1.810E-06,0.000
-1.800E-06,0.004
-1.790E-06,0.000
-1.780E-06,-0.008
-1.770E-06,-0.016
-1.760E-06,-0.004
-1.750E-06,0.020
-1.740E-06,0.044
-1.730E-06,0.048
-1.720E-06,0.028
-1.710E-06,0.024
-1.700E-06,0.004
-1.690E-06,0.012
-1.680E-06,0.036
-1.670E-06,0.072
-1.660E-06,0.088
-1.650E-06,0.084
-1.640E-06,0.060
-1.630E-06,0.024
-1.620E-06,0.012
-1.610E-06,0.024
-1.600E-06,0.056
-1.590E-06,0.088
-1.580E-06,0.104
-1.570E-06,-0.032
-1.560E-06,-0.248
-1.550E-06,-0.384
-1.540E-06,-0.336
-1.530E-06,-0.032
-1.520E-06,0.248
-1.510E-06,0.388
-1.500E-06,0.320
-1.490E-06,0.008
-1.480E-06,-0.232
-1.470E-06,-0.300
-1.460E-06,-0.180
-1.450E-06,0.092
-1.440E-06,0.236
-1.430E-06,0.192
-1.420E-06,0.096
-1.410E-06,-0.080
-1.400E-06,-0.184
-1.390E-06,-0.128
-1.380E-06,-0.040
-1.370E-06,-0.052
-1.360E-06,-0.052
-1.350E-06,-0.092
-1.340E-06,-0.128
-1.330E-06,0.044
-1.320E-06,0.208
-1.310E-06,0.192
-1.300E-06,-0.056
-1.290E-06,-0.204
-1.280E-06,-0.204
-1.270E-06,-0.036
-1.260E-06,0.164
-1.250E-06,0.228
-1.240E-06,0.176
-1.230E-06,0.036
-1.220E-06,-0.088
-1.210E-06,-0.164
-1.200E-06,-0.108
-1.190E-06,0.008
-1.180E-06,0.088
-1.170E-06,0.012
-1.160E-06,0.024
-1.150E-06,0.012
-1.140E-06,-0.036
-1.130E-06,-0.024
-1.120E-06,-0.040
-1.110E-06,-0.004
-1.100E-06,0.000
-1.090E-06,0.020
-1.080E-06,0.056
-1.070E-06,0.064
-1.060E-06,0.032
-1.050E-06,-0.012
-1.040E-06,-0.080
-1.030E-06,-0.108
-1.020E-06,-0.024
-1.010E-06,0.056
-1.000E-06,0.080
-9.900E-07,0.044
-9.800E-07,0.020
-9.700E-07,-0.048
-9.600E-07,-0.044
-9.500E-07,-0.028
-9.400E-07,0.032
-9.300E-07,0.056
-9.200E-07,0.084
-9.100E-07,0.064
-9.000E-07,0.000
-8.900E-07,-0.008
-8.800E-07,0.008
-8.700E-07,0.060
-8.600E-07,0.076
-8.500E-07,0.120
-8.400E-07,0.124
-8.300E-07,0.076
-8.200E-07,0.004
-8.100E-07,-0.104
-8.000E-07,-0.184
-7.900E-07,-0.172
-7.800E-07,-0.088
-7.700E-07,0.040
-7.600E-07,0.124
-7.500E-07,0.160
-7.400E-07,0.104
-7.300E-07,-0.020
-7.200E-07,-0.108
-7.100E-07,-0.136
-7.000E-07,-0.060
-6.900E-07,0.068
-6.800E-07,0.160
-6.700E-07,0.172
-6.600E-07,0.100
-6.500E-07,-0.004
-6.400E-07,-0.064
-6.300E-07,-0.052
-6.200E-07,0.052
-6.100E-07,0.176
-6.000E-07,0.160
-5.900E-07,0.040
-5.800E-07,-0.128
-5.700E-07,-0.220
-5.600E-07,-0.216
-5.500E-07,-0.108
-5.400E-07,0.028
-5.300E-07,0.128
-5.200E-07,0.176
-5.100E-07,0.108
-5.000E-07,-0.024
-4.900E-07,-0.128
-4.800E-07,-0.152
-4.700E-07,-0.092
-4.600E-07,0.020
-4.500E-07,0.124
-4.400E-07,0.156
-4.300E-07,0.120
-4.200E-07,0.044
-4.100E-07,-0.036
-4.000E-07,-0.052
-3.900E-07,0.000
-3.800E-07,0.076
-3.700E-07,0.168
-3.600E-07,0.232
-3.500E-07,0.212
-3.400E-07,0.108
-3.300E-07,-0.040
-3.200E-07,-0.128
-3.100E-07,-0.136
-3.000E-07,-0.044
-2.900E-07,0.056
-2.800E-07,0.128
-2.700E-07,0.112
-2.600E-07,0.012
-2.500E-07,-0.128
-2.400E-07,-0.196
-2.300E-07,-0.168
-2.200E-07,-0.040
-2.100E-07,0.140
-2.000E-07,0.256
-1.900E-07,0.256
-1.800E-07,0.156
-1.700E-07,0.056
-1.600E-07,-0.016
-1.500E-07,-0.088
-1.400E-07,-0.152
-1.300E-07,-0.244
-1.200E-07,-0.240
-1.100E-07,-0.028
-1.000E-07,0.160
-9.000E-08,0.320
-8.000E-08,0.276
-7.000E-08,0.108
-6.000E-08,-0.368
-5.000E-08,-0.508
-4.000E-08,-0.512
-3.000E-08,-0.456
-2.000E-08,0.000
-1.000E-08,0.460
0.000E+00,0.540
1.000E-08,0.316
2.000E-08,-0.208
3.000E-08,-0.512
4.000E-08,-0.464
5.000E-08,-0.056
6.000E-08,0.264
7.000E-08,0.380
8.000E-08,0.204
9.000E-08,0.012
1.000E-07,-0.228
1.100E-07,-0.204
1.200E-07,-0.156
1.300E-07,0.040
1.400E-07,0.136
1.500E-07,0.192
1.600E-07,0.088
1.700E-07,-0.024
1.800E-07,-0.108
1.900E-07,-0.116
2.000E-07,-0.004
2.100E-07,0.068
2.200E-07,0.156
2.300E-07,0.124
2.400E-07,0.068
2.500E-07,-0.048
2.600E-07,-0.092
2.700E-07,-0.088
2.800E-07,0.008
2.900E-07,0.092
3.000E-07,0.080
3.100E-07,0.040
3.200E-07,-0.068
3.300E-07,-0.116
3.400E-07,-0.104
3.500E-07,0.000
3.600E-07,0.112
3.700E-07,0.192
3.800E-07,0.160
3.900E-07,0.064
4.000E-07,-0.064
4.100E-07,-0.132
4.200E-07,-0.080
4.300E-07,0.056
4.400E-07,0.236
4.500E-07,0.328
4.600E-07,0.312
4.700E-07,0.184
4.800E-07,0.032
4.900E-07,-0.068
5.000E-07,-0.048
5.100E-07,0.056
5.200E-07,0.200
5.300E-07,0.288
5.400E-07,0.272
5.500E-07,0.188
5.600E-07,0.044
5.700E-07,-0.036
5.800E-07,-0.040
5.900E-07,0.028
6.000E-07,0.152
6.100E-07,0.264
6.200E-07,0.272
6.300E-07,0.216
6.400E-07,0.096
6.500E-07,0.012
6.600E-07,0.004
6.700E-07,0.064
6.800E-07,0.036
6.900E-07,0.004
7.000E-07,-0.036
7.100E-07,0.064
7.200E-07,-0.024
7.300E-07,-0.456
7.400E-07,-0.508
7.500E-07,-0.512
7.600E-07,-0.508
7.700E-07,-0.472
7.800E-07,0.288
7.900E-07,0.540
8.000E-07,0.540
8.100E-07,0.032
8.200E-07,-0.348
8.300E-07,-0.508
8.400E-07,-0.508
8.500E-07,-0.120
8.600E-07,0.372
8.700E-07,0.540
8.800E-07,0.500
8.900E-07,0.136
9.000E-07,-0.288
9.100E-07,-0.460
9.200E-07,-0.436
9.300E-07,-0.088
9.400E-07,0.244
9.500E-07,0.436
9.600E-07,0.360
9.700E-07,0.112
9.800E-07,-0.208
9.900E-07,-0.372
1.000E-06,-0.312
1.010E-06,-0.076
1.020E-06,0.208
1.030E-06,0.340
1.040E-06,0.308
1.050E-06,0.104
1.060E-06,-0.120
1.070E-06,-0.288
1.080E-06,-0.240
1.090E-06,-0.064
1.100E-06,0.152
1.110E-06,0.252
1.120E-06,0.224
1.130E-06,0.104
1.140E-06,-0.080
1.150E-06,-0.164
1.160E-06,-0.144
1.170E-06,0.020
1.180E-06,0.144
1.190E-06,0.220
1.200E-06,0.208
1.210E-06,0.072
1.220E-06,-0.060
1.230E-06,-0.092
1.240E-06,0.004
1.250E-06,0.120
1.260E-06,0.260
1.270E-06,0.324
1.280E-06,0.308
1.290E-06,0.224
1.300E-06,0.128
1.310E-06,0.080
1.320E-06,0.120
1.330E-06,0.208
1.340E-06,0.244
1.350E-06,0.228
1.360E-06,0.124
1.370E-06,0.000
1.380E-06,-0.136
1.390E-06,-0.220
1.400E-06,-0.208
1.410E-06,-0.084
1.420E-06,-0.016
1.430E-06,0.016
1.440E-06,0.036
1.450E-06,-0.020
1.460E-06,-0.100
1.470E-06,-0.164
1.480E-06,-0.188
1.490E-06,-0.168
1.500E-06,-0.060
1.510E-06,0.032
1.520E-06,0.072
1.530E-06,0.064
1.540E-06,0.056
1.550E-06,0.056
1.560E-06,0.048
1.570E-06,0.084
1.580E-06,0.140
1.590E-06,0.208
1.600E-06,0.240
1.610E-06,0.252
1.620E-06,0.228
1.630E-06,0.156
1.640E-06,0.080
1.650E-06,0.032
1.660E-06,-0.024
1.670E-06,-0.112
1.680E-06,-0.192
1.690E-06,-0.284
1.700E-06,-0.200
1.710E-06,-0.192
1.720E-06,-0.116
1.730E-06,0.008
1.740E-06,0.144
1.750E-06,0.120
1.760E-06,0.040
1.770E-06,0.004
1.780E-06,0.008
1.790E-06,0.084
1.800E-06,0.152
1.810E-06,0.232
1.820E-06,0.272
1.830E-06,0.256
1.840E-06,0.224
1.850E-06,0.212
1.860E-06,0.188
1.870E-06,0.192
1.880E-06,0.192
1.890E-06,0.180
1.900E-06,0.088
1.910E-06,-0.052
1.920E-06,-0.160
1.930E-06,-0.272
1.940E-06,-0.252
1.950E-06,-0.156
1.960E-06,0.016
1.970E-06,0.020
1.980E-06,-0.060
1.990E-06,-0.244
2.000E-06,-0.376
2.010E-06,-0.360
2.020E-06,-0.204
2.030E-06,0.060
2.040E-06,0.256
2.050E-06,0.340
2.060E-06,0.232
2.070E-06,0.084
2.080E-06,-0.028
2.090E-06,0.004
2.100E-06,0.152
2.110E-06,0.308
2.120E-06,0.356
2.130E-06,0.272
2.140E-06,0.100
2.150E-06,-0.100
2.160E-06,-0.180
2.170E-06,-0.156
2.180E-06,-0.004
2.190E-06,0.156
2.200E-06,0.252
2.210E-06,0.208
2.220E-06,0.060
2.230E-06,-0.100
2.240E-06,-0.208
2.250E-06,-0.172
2.260E-06,-0.020
2.270E-06,0.208
2.280E-06,0.356
2.290E-06,0.420
2.300E-06,0.344
2.310E-06,0.188
2.320E-06,0.024
2.330E-06,-0.080
2.340E-06,-0.120
2.350E-06,-0.064
2.360E-06,0.048
2.370E-06,0.124
2.380E-06,0.128
2.390E-06,0.044
2.400E-06,-0.060
2.410E-06,-0.140
2.420E-06,-0.140
2.430E-06,-0.064
2.440E-06,0.060
2.450E-06,0.192
2.460E-06,0.232
2.470E-06,0.228
2.480E-06,0.140
2.490E-06,0.048
2.500E-06,0.012
2.510E-06,0.080
2.520E-06,0.228
2.530E-06,0.388
2.540E-06,0.480
2.550E-06,0.448
2.560E-06,0.312
2.570E-06,0.140
2.580E-06,0.060
2.590E-06,0.068
2.600E-06,0.160
2.610E-06,0.272
2.620E-06,0.344
2.630E-06,0.312
2.640E-06,0.200
2.650E-06,0.060
2.660E-06,-0.048
2.670E-06,-0.076
2.680E-06,-0.040
2.690E-06,0.028
2.700E-06,0.068
2.710E-06,0.096
2.720E-06,0.120
2.730E-06,0.108
2.740E-06,0.124
2.750E-06,0.144
2.760E-06,0.172
2.770E-06,0.216
2.780E-06,0.244
2.790E-06,0.260
2.800E-06,0.260
2.810E-06,0.256
2.820E-06,0.252
2.830E-06,0.256
2.840E-06,0.260
2.850E-06,0.264
2.860E-06,0.264
2.870E-06,0.268
2.880E-06,0.260
2.890E-06,0.268
2.900E-06,0.276
2.910E-06,0.276
2.920E-06,0.272
2.930E-06,0.260
2.940E-06,0.256
2.950E-06,0.244
2.960E-06,0.252
2.970E-06,0.260
2.980E-06,0.276
2.990E-06,0.284
3.000E-06,0.284
3.010E-06,0.272
3.020E-06,0.272
3.030E-06,0.272
3.040E-06,0.276
3.050E-06,0.276
3.060E-06,0.280
3.070E-06,0.272
3.080E-06,0.260
3.090E-06,0.244
3.100E-06,0.240
3.110E-06,0.236
3.120E-06,0.248
3.130E-06,0.268
3.140E-06,0.276
3.150E-06,0.276
3.160E-06,0.260
3.170E-06,0.240
3.180E-06,0.228
3.190E-06,0.236
3.200E-06,0.244
3.210E-06,0.264
3.220E-06,0.276
3.230E-06,0.276
3.240E-06,0.264
3.250E-06,0.240
3.260E-06,0.228
3.270E-06,0.224
3.280E-06,0.240
3.290E-06,0.256
