mediciones/5-15/5.9/WaveData47552.csv

#timebase=2000000(ps)
,#voltbase=500000(mv/100)
#size=4000
-8.400E-06,0.020
-8.390E-06,0.060
-8.380E-06,0.020
-8.370E-06,0.060
-8.360E-06,0.080
-8.350E-06,0.080
-8.340E-06,0.060
-8.330E-06,0.060
-8.320E-06,0.060
-8.310E-06,0.060
-8.300E-06,0.080
-8.290E-06,0.020
-8.280E-06,0.060
-8.270E-06,0.080
-8.260E-06,0.040
-8.250E-06,0.040
-8.240E-06,0.060
-8.230E-06,0.060
-8.220E-06,0.040
-8.210E-06,0.060
-8.200E-06,0.040
-8.190E-06,0.040
-8.180E-06,0.080
-8.170E-06,0.040
-8.160E-06,0.060
-8.150E-06,0.020
-8.140E-06,0.040
-8.130E-06,0.040
-8.120E-06,0.040
-8.110E-06,0.080
-8.100E-06,0.060
-8.090E-06,0.020
-8.080E-06,0.060
-8.070E-06,0.060
-8.060E-06,0.060
-8.050E-06,0.040
-8.040E-06,0.040
-8.030E-06,0.040
-8.020E-06,0.040
-8.010E-06,0.080
-8.000E-06,0.060
-7.990E-06,0.040
-7.980E-06,0.040
-7.970E-06,0.060
-7.960E-06,0.040
-7.950E-06,0.060
-7.940E-06,0.020
-7.930E-06,0.040
-7.920E-06,0.060
-7.910E-06,0.040
-7.900E-06,0.040
-7.890E-06,0.040
-7.880E-06,0.060
-7.870E-06,0.060
-7.860E-06,0.080
-7.850E-06,0.040
-7.840E-06,0.060
-7.830E-06,0.040
-7.820E-06,0.040
-7.810E-06,0.060
-7.800E-06,0.040
-7.790E-06,0.040
-7.780E-06,0.020
-7.770E-06,0.060
-7.760E-06,0.020
-7.750E-06,0.040
-7.740E-06,0.060
-7.730E-06,0.040
-7.720E-06,0.040
-7.710E-06,0.080
-7.700E-06,0.040
-7.690E-06,0.020
-7.680E-06,0.040
-7.670E-06,0.060
-7.660E-06,0.020
-7.650E-06,0.040
-7.640E-06,-0.060
-7.630E-06,-0.340
-7.620E-06,-0.880
-7.610E-06,-1.700
-7.600E-06,-2.440
-7.590E-06,-2.660
-7.580E-06,-2.660
-7.570E-06,-2.640
-7.560E-06,-2.080
-7.550E-06,-1.400
-7.540E-06,-0.520
-7.530E-06,0.460
-7.520E-06,1.380
-7.510E-06,2.240
-7.500E-06,2.660
-7.490E-06,2.760
-7.480E-06,2.560
-7.470E-06,2.260
-7.460E-06,2.000
-7.450E-06,1.720
-7.440E-06,1.540
-7.430E-06,1.200
-7.420E-06,1.060
-7.410E-06,0.940
-7.400E-06,0.900
-7.390E-06,0.940
-7.380E-06,0.920
-7.370E-06,0.820
-7.360E-06,0.600
-7.350E-06,0.240
-7.340E-06,-0.160
-7.330E-06,-0.580
-7.320E-06,-0.920
-7.310E-06,-1.260
-7.300E-06,-1.580
-7.290E-06,-1.780
-7.280E-06,-1.900
-7.270E-06,-1.820
-7.260E-06,-1.640
-7.250E-06,-1.340
-7.240E-06,-0.940
-7.230E-06,-0.580
-7.220E-06,-0.240
-7.210E-06,0.120
-7.200E-06,0.420
-7.190E-06,0.640
-7.180E-06,0.720
-7.170E-06,0.720
-7.160E-06,0.580
-7.150E-06,0.380
-7.140E-06,0.180
-7.130E-06,0.000
-7.120E-06,-0.120
-7.110E-06,-0.200
-7.100E-06,-0.260
-7.090E-06,-0.260
-7.080E-06,-0.260
-7.070E-06,-0.180
-7.060E-06,-0.100
-7.050E-06,-0.020
-7.040E-06,0.060
-7.030E-06,0.100
-7.020E-06,0.120
-7.010E-06,0.140
-7.000E-06,0.140
-6.990E-06,0.140
-6.980E-06,0.060
-6.970E-06,0.080
-6.960E-06,0.060
-6.950E-06,0.120
-6.940E-06,0.140
-6.930E-06,0.220
-6.920E-06,0.300
-6.910E-06,0.440
-6.900E-06,0.520
-6.890E-06,0.620
-6.880E-06,0.700
-6.870E-06,0.740
-6.860E-06,0.740
-6.850E-06,0.680
-6.840E-06,0.580
-6.830E-06,0.420
-6.820E-06,0.280
-6.810E-06,0.100
-6.800E-06,-0.060
-6.790E-06,-0.220
-6.780E-06,-0.320
-6.770E-06,-0.380
-6.760E-06,-0.400
-6.750E-06,-0.320
-6.740E-06,-0.280
-6.730E-06,-0.200
-6.720E-06,-0.080
-6.710E-06,0.000
-6.700E-06,0.100
-6.690E-06,0.160
-6.680E-06,0.180
-6.670E-06,0.200
-6.660E-06,0.220
-6.650E-06,0.200
-6.640E-06,0.160
-6.630E-06,0.160
-6.620E-06,0.180
-6.610E-06,0.180
-6.600E-06,0.160
-6.590E-06,0.160
-6.580E-06,0.160
-6.570E-06,0.180
-6.560E-06,0.180
-6.550E-06,0.180
-6.540E-06,0.180
-6.530E-06,0.120
-6.520E-06,0.080
-6.510E-06,0.020
-6.500E-06,-0.020
-6.490E-06,-0.080
-6.480E-06,-0.140
-6.470E-06,-0.160
-6.460E-06,-0.200
-6.450E-06,-0.220
-6.440E-06,-0.200
-6.430E-06,-0.180
-6.420E-06,-0.160
-6.410E-06,-0.120
-6.400E-06,-0.080
-6.390E-06,-0.040
-6.380E-06,-0.020
-6.370E-06,0.020
-6.360E-06,0.080
-6.350E-06,0.100
-6.340E-06,0.120
-6.330E-06,0.160
-6.320E-06,0.160
-6.310E-06,0.180
-6.300E-06,0.200
-6.290E-06,0.220
-6.280E-06,0.220
-6.270E-06,0.260
-6.260E-06,0.260
-6.250E-06,0.240
-6.240E-06,0.260
-6.230E-06,0.260
-6.220E-06,0.260
-6.210E-06,0.240
-6.200E-06,0.220
-6.190E-06,0.160
-6.180E-06,0.160
-6.170E-06,0.140
-6.160E-06,0.080
-6.150E-06,0.040
-6.140E-06,0.000
-6.130E-06,-0.060
-6.120E-06,-0.080
-6.110E-06,-0.120
-6.100E-06,-0.140
-6.090E-06,-0.180
-6.080E-06,-0.160
-6.070E-06,-0.160
-6.060E-06,-0.180
-6.050E-06,-0.160
-6.040E-06,-0.140
-6.030E-06,-0.120
-6.020E-06,-0.100
-6.010E-06,-0.100
-6.000E-06,-0.040
-5.990E-06,-0.040
-5.980E-06,-0.020
-5.970E-06,0.020
-5.960E-06,0.040
-5.950E-06,0.040
-5.940E-06,0.080
-5.930E-06,0.060
-5.920E-06,0.080
-5.910E-06,0.080
-5.900E-06,0.060
-5.890E-06,0.040
-5.880E-06,0.020
-5.870E-06,0.060
-5.860E-06,0.040
-5.850E-06,0.040
-5.840E-06,0.020
-5.830E-06,0.040
-5.820E-06,0.060
-5.810E-06,0.080
-5.800E-06,0.040
-5.790E-06,0.020
-5.780E-06,0.020
-5.770E-06,0.000
-5.760E-06,0.020
-5.750E-06,0.000
-5.740E-06,0.000
-5.730E-06,0.000
-5.720E-06,0.000
-5.710E-06,-0.040
-5.700E-06,-0.020
-5.690E-06,0.000
-5.680E-06,0.000
-5.670E-06,0.000
-5.660E-06,-0.020
-5.650E-06,-0.020
-5.640E-06,-0.020
-5.630E-06,-0.040
-5.620E-06,-0.020
-5.610E-06,-0.040
-5.600E-06,-0.080
-5.590E-06,-0.060
-5.580E-06,-0.080
-5.570E-06,-0.080
-5.560E-06,-0.100
-5.550E-06,-0.080
-5.540E-06,-0.080
-5.530E-06,-0.060
-5.520E-06,-0.040
-5.510E-06,-0.040
-5.500E-06,0.000
-5.490E-06,-0.020
-5.480E-06,0.000
-5.470E-06,-0.020
-5.460E-06,0.020
-5.450E-06,0.020
-5.440E-06,0.060
-5.430E-06,0.060
-5.420E-06,0.060
-5.410E-06,0.080
-5.400E-06,0.100
-5.390E-06,0.080
-5.380E-06,0.120
-5.370E-06,0.100
-5.360E-06,0.100
-5.350E-06,0.120
-5.340E-06,0.100
-5.330E-06,0.080
-5.320E-06,0.080
-5.310E-06,0.060
-5.300E-06,0.040
-5.290E-06,0.040
-5.280E-06,0.020
-5.270E-06,0.000
-5.260E-06,-0.040
-5.250E-06,-0.020
-5.240E-06,-0.080
-5.230E-06,-0.100
-5.220E-06,-0.100
-5.210E-06,-0.140
-5.200E-06,-0.140
-5.190E-06,-0.120
-5.180E-06,-0.120
-5.170E-06,-0.100
-5.160E-06,-0.120
-5.150E-06,-0.100
-5.140E-06,-0.060
-5.130E-06,-0.080
-5.120E-06,-0.060
-5.110E-06,-0.020
-5.100E-06,-0.020
-5.090E-06,0.040
-5.080E-06,0.060
-5.070E-06,0.100
-5.060E-06,0.060
-5.050E-06,0.040
-5.040E-06,0.060
-5.030E-06,0.020
-5.020E-06,0.060
-5.010E-06,0.020
-5.000E-06,0.040
-4.990E-06,0.060
-4.980E-06,0.080
-4.970E-06,0.060
-4.960E-06,0.040
-4.950E-06,0.100
-4.940E-06,0.060
-4.930E-06,0.040
-4.920E-06,0.020
-4.910E-06,0.000
-4.900E-06,-0.020
-4.890E-06,0.000
-4.880E-06,0.000
-4.870E-06,0.000
-4.860E-06,-0.020
-4.850E-06,-0.020
-4.840E-06,-0.020
-4.830E-06,0.000
-4.820E-06,-0.020
-4.810E-06,-0.020
-4.800E-06,0.000
-4.790E-06,-0.020
-4.780E-06,0.020
-4.770E-06,0.020
-4.760E-06,0.040
-4.750E-06,0.020
-4.740E-06,0.020
-4.730E-06,0.020
-4.720E-06,0.020
-4.710E-06,0.020
-4.700E-06,0.040
-4.690E-06,0.020
-4.680E-06,0.040
-4.670E-06,0.000
-4.660E-06,0.000
-4.650E-06,0.000
-4.640E-06,0.020
-4.630E-06,0.060
-4.620E-06,0.040
-4.610E-06,0.040
-4.600E-06,0.000
-4.590E-06,0.040
-4.580E-06,0.020
-4.570E-06,0.020
-4.560E-06,0.020
-4.550E-06,0.000
-4.540E-06,-0.020
-4.530E-06,0.000
-4.520E-06,0.000
-4.510E-06,0.000
-4.500E-06,0.020
-4.490E-06,0.020
-4.480E-06,0.020
-4.470E-06,0.000
-4.460E-06,-0.020
-4.450E-06,-0.040
-4.440E-06,0.000
-4.430E-06,-0.020
-4.420E-06,0.000
-4.410E-06,-0.020
-4.400E-06,-0.020
-4.390E-06,-0.020
-4.380E-06,-0.020
-4.370E-06,-0.040
-4.360E-06,0.020
-4.350E-06,-0.020
-4.340E-06,0.000
-4.330E-06,0.000
-4.320E-06,0.020
-4.310E-06,0.020
-4.300E-06,0.020
-4.290E-06,0.020
-4.280E-06,-0.020
-4.270E-06,0.000
-4.260E-06,0.000
-4.250E-06,0.000
-4.240E-06,0.000
-4.230E-06,-0.020
-4.220E-06,0.000
-4.210E-06,0.000
-4.200E-06,-0.020
-4.190E-06,0.000
-4.180E-06,0.020
-4.170E-06,-0.040
-4.160E-06,0.020
-4.150E-06,-0.020
-4.140E-06,0.040
-4.130E-06,0.060
-4.120E-06,0.040
-4.110E-06,0.040
-4.100E-06,0.000
-4.090E-06,0.000
-4.080E-06,-0.040
-4.070E-06,-0.080
-4.060E-06,-0.100
-4.050E-06,-0.080
-4.040E-06,-0.080
-4.030E-06,-0.080
-4.020E-06,-0.080
-4.010E-06,-0.080
-4.000E-06,-0.080
-3.990E-06,-0.100
-3.980E-06,-0.080
-3.970E-06,-0.080
-3.960E-06,-0.100
-3.950E-06,-0.100
-3.940E-06,-0.120
-3.930E-06,-0.100
-3.920E-06,-0.060
-3.910E-06,-0.060
-3.900E-06,-0.060
-3.890E-06,-0.060
-3.880E-06,-0.060
-3.870E-06,-0.020
-3.860E-06,-0.020
-3.850E-06,-0.040
-3.840E-06,-0.020
-3.830E-06,-0.020
-3.820E-06,-0.040
-3.810E-06,-0.040
-3.800E-06,-0.060
-3.790E-06,-0.060
-3.780E-06,-0.040
-3.770E-06,-0.060
-3.760E-06,-0.040
-3.750E-06,-0.100
-3.740E-06,-0.040
-3.730E-06,-0.040
-3.720E-06,-0.060
-3.710E-06,-0.100
-3.700E-06,-0.100
-3.690E-06,-0.140
-3.680E-06,-0.160
-3.670E-06,-0.160
-3.660E-06,-0.120
-3.650E-06,-0.060
-3.640E-06,-0.020
-3.630E-06,0.000
-3.620E-06,-0.060
-3.610E-06,-0.060
-3.600E-06,-0.100
-3.590E-06,-0.120
-3.580E-06,-0.120
-3.570E-06,-0.140
-3.560E-06,-0.140
-3.550E-06,-0.160
-3.540E-06,-0.160
-3.530E-06,-0.160
-3.520E-06,-0.160
-3.510E-06,-0.160
-3.500E-06,-0.160
-3.490E-06,-0.200
-3.480E-06,-0.200
-3.470E-06,-0.160
-3.460E-06,-0.160
-3.450E-06,-0.160
-3.440E-06,-0.120
-3.430E-06,-0.160
-3.420E-06,-0.120
-3.410E-06,-0.160
-3.400E-06,-0.180
-3.390E-06,-0.180
-3.380E-06,-0.140
-3.370E-06,-0.140
-3.360E-06,-0.080
-3.350E-06,-0.120
-3.340E-06,-0.120
-3.330E-06,-0.100
-3.320E-06,-0.100
-3.310E-06,-0.120
-3.300E-06,-0.080
-3.290E-06,-0.120
-3.280E-06,-0.100
-3.270E-06,-0.100
-3.260E-06,-0.060
-3.250E-06,-0.100
-3.240E-06,-0.120
-3.230E-06,-0.120
-3.220E-06,-0.180
-3.210E-06,-0.160
-3.200E-06,-0.220
-3.190E-06,-0.200
-3.180E-06,-0.240
-3.170E-06,-0.200
-3.160E-06,-0.200
-3.150E-06,-0.240
-3.140E-06,-0.260
-3.130E-06,-0.320
-3.120E-06,-0.420
-3.110E-06,-0.460
-3.100E-06,-0.500
-3.090E-06,-0.500
-3.080E-06,-0.500
-3.070E-06,-0.460
-3.060E-06,-0.480
-3.050E-06,-0.360
-3.040E-06,-0.400
-3.030E-06,-0.400
-3.020E-06,-0.380
-3.010E-06,-0.400
-3.000E-06,-0.360
-2.990E-06,-0.360
-2.980E-06,-0.340
-2.970E-06,-0.360
-2.960E-06,-0.300
-2.950E-06,-0.260
-2.940E-06,-0.220
-2.930E-06,-0.180
-2.920E-06,-0.160
-2.910E-06,-0.200
-2.900E-06,-0.180
-2.890E-06,-0.180
-2.880E-06,-0.200
-2.870E-06,-0.200
-2.860E-06,-0.160
-2.850E-06,-0.160
-2.840E-06,-0.180
-2.830E-06,-0.180
-2.820E-06,-0.160
-2.810E-06,-0.140
-2.800E-06,-0.120
-2.790E-06,-0.100
-2.780E-06,-0.060
-2.770E-06,-0.060
-2.760E-06,-0.060
-2.750E-06,0.000
-2.740E-06,0.000
-2.730E-06,-0.040
-2.720E-06,0.000
-2.710E-06,-0.020
-2.700E-06,-0.020
-2.690E-06,-0.060
-2.680E-06,-0.060
-2.670E-06,-0.080
-2.660E-06,-0.120
-2.650E-06,-0.160
-2.640E-06,-0.180
-2.630E-06,-0.180
-2.620E-06,-0.200
-2.610E-06,-0.240
-2.600E-06,-0.240
-2.590E-06,-0.280
-2.580E-06,-0.280
-2.570E-06,-0.300
-2.560E-06,-0.320
-2.550E-06,-0.340
-2.540E-06,-0.360
-2.530E-06,-0.400
-2.520E-06,-0.420
-2.510E-06,-0.420
-2.500E-06,-0.460
-2.490E-06,-0.500
-2.480E-06,-0.580
-2.470E-06,-0.600
-2.460E-06,-0.620
-2.450E-06,-0.660
-2.440E-06,-0.680
-2.430E-06,-0.680
-2.420E-06,-0.700
-2.410E-06,-0.720
-2.400E-06,-0.700
-2.390E-06,-0.660
-2.380E-06,-0.640
-2.370E-06,-0.620
-2.360E-06,-0.680
-2.350E-06,-0.720
-2.340E-06,-0.860
-2.330E-06,-0.880
-2.320E-06,-0.880
-2.310E-06,-0.940
-2.300E-06,-0.860
-2.290E-06,-0.960
-2.280E-06,-0.920
-2.270E-06,-0.960
-2.260E-06,-0.960
-2.250E-06,-1.020
-2.240E-06,-0.960
-2.230E-06,-1.060
-2.220E-06,-0.980
-2.210E-06,-0.800
-2.200E-06,-0.620
-2.190E-06,-0.640
-2.180E-06,-0.520
-2.170E-06,-0.760
-2.160E-06,-0.840
-2.150E-06,-0.720
-2.140E-06,-0.680
-2.130E-06,-0.480
-2.120E-06,-0.420
-2.110E-06,-0.620
-2.100E-06,-0.660
-2.090E-06,-0.660
-2.080E-06,-0.580
-2.070E-06,-0.420
-2.060E-06,-0.400
-2.050E-06,-0.460
-2.040E-06,-0.520
-2.030E-06,-0.500
-2.020E-06,-0.420
-2.010E-06,-0.400
-2.000E-06,-0.360
-1.990E-06,-0.320
-1.980E-06,-0.300
-1.970E-06,-0.300
-1.960E-06,-0.320
-1.950E-06,-0.320
-1.940E-06,-0.280
-1.930E-06,-0.240
-1.920E-06,-0.240
-1.910E-06,-0.260
-1.900E-06,-0.260
-1.890E-06,-0.220
-1.880E-06,-0.160
-1.870E-06,-0.160
-1.860E-06,-0.180
-1.850E-06,-0.220
-1.840E-06,-0.260
-1.830E-06,-0.240
-1.820E-06,-0.280
-1.810E-06,-0.320
-1.800E-06,-0.360
-1.790E-06,-0.440
-1.780E-06,-0.520
-1.770E-06,-0.540
-1.760E-06,-0.600
-1.750E-06,-0.580
-1.740E-06,-0.600
-1.730E-06,-0.540
-1.720E-06,-0.500
-1.710E-06,-0.460
-1.700E-06,-0.440
-1.690E-06,-0.460
-1.680E-06,-0.480
-1.670E-06,-0.460
-1.660E-06,-0.500
-1.650E-06,-0.520
-1.640E-06,-0.560
-1.630E-06,-0.580
-1.620E-06,-0.600
-1.610E-06,-0.640
-1.600E-06,-0.680
-1.590E-06,-0.760
-1.580E-06,-0.900
-1.570E-06,-1.020
-1.560E-06,-1.140
-1.550E-06,-1.200
-1.540E-06,-1.260
-1.530E-06,-1.260
-1.520E-06,-1.280
-1.510E-06,-1.260
-1.500E-06,-1.240
-1.490E-06,-1.240
-1.480E-06,-1.220
-1.470E-06,-1.240
-1.460E-06,-1.220
-1.450E-06,-1.160
-1.440E-06,-1.140
-1.430E-06,-1.060
-1.420E-06,-1.120
-1.410E-06,-1.020
-1.400E-06,-1.060
-1.390E-06,-1.020
-1.380E-06,-1.040
-1.370E-06,-1.040
-1.360E-06,-1.040
-1.350E-06,-1.020
-1.340E-06,-1.060
-1.330E-06,-0.960
-1.320E-06,-0.900
-1.310E-06,-0.820
-1.300E-06,-0.840
-1.290E-06,-0.860
-1.280E-06,-0.920
-1.270E-06,-0.900
-1.260E-06,-0.860
-1.250E-06,-0.860
-1.240E-06,-0.880
-1.230E-06,-0.900
-1.220E-06,-0.840
-1.210E-06,-0.820
-1.200E-06,-0.700
-1.190E-06,-0.740
-1.180E-06,-0.800
-1.170E-06,-0.860
-1.160E-06,-0.920
-1.150E-06,-0.860
-1.140E-06,-0.840
-1.130E-06,-0.840
-1.120E-06,-0.840
-1.110E-06,-0.860
-1.100E-06,-0.980
-1.090E-06,-1.020
-1.080E-06,-1.040
-1.070E-06,-1.200
-1.060E-06,-1.240
-1.050E-06,-1.340
-1.040E-06,-1.360
-1.030E-06,-1.360
-1.020E-06,-1.400
-1.010E-06,-1.360
-1.000E-06,-1.440
-9.900E-07,-1.480
-9.800E-07,-1.520
-9.700E-07,-1.540
-9.600E-07,-1.600
-9.500E-07,-1.500
-9.400E-07,-1.620
-9.300E-07,-1.600
-9.200E-07,-1.760
-9.100E-07,-1.840
-9.000E-07,-1.920
-8.900E-07,-1.940
-8.800E-07,-1.940
-8.700E-07,-1.940
-8.600E-07,-1.940
-8.500E-07,-1.900
-8.400E-07,-1.860
-8.300E-07,-1.820
-8.200E-07,-1.740
-8.100E-07,-1.660
-8.000E-07,-1.540
-7.900E-07,-1.560
-7.800E-07,-1.620
-7.700E-07,-1.600
-7.600E-07,-1.520
-7.500E-07,-1.600
-7.400E-07,-1.580
-7.300E-07,-1.600
-7.200E-07,-1.660
-7.100E-07,-1.700
-7.000E-07,-1.820
-6.900E-07,-1.960
-6.800E-07,-2.180
-6.700E-07,-2.260
-6.600E-07,-2.480
-6.500E-07,-2.640
-6.400E-07,-2.620
-6.300E-07,-2.580
-6.200E-07,-2.180
-6.100E-07,-1.880
-6.000E-07,-1.580
-5.900E-07,-1.240
-5.800E-07,-1.160
-5.700E-07,-0.860
-5.600E-07,-0.740
-5.500E-07,-0.420
-5.400E-07,-0.300
-5.300E-07,-0.380
-5.200E-07,-0.440
-5.100E-07,-0.580
-5.000E-07,-0.800
-4.900E-07,-0.620
-4.800E-07,-0.680
-4.700E-07,-0.600
-4.600E-07,-0.360
-4.500E-07,-0.520
-4.400E-07,-0.340
-4.300E-07,-0.700
-4.200E-07,-0.740
-4.100E-07,-1.080
-4.000E-07,-1.140
-3.900E-07,-1.360
-3.800E-07,-1.320
-3.700E-07,-1.360
-3.600E-07,-1.400
-3.500E-07,-1.300
-3.400E-07,-1.320
-3.300E-07,-1.200
-3.200E-07,-1.060
-3.100E-07,-0.940
-3.000E-07,-1.000
-2.900E-07,-0.980
-2.800E-07,-1.000
-2.700E-07,-0.880
-2.600E-07,-0.800
-2.500E-07,-0.720
-2.400E-07,-0.640
-2.300E-07,-0.580
-2.200E-07,-0.560
-2.100E-07,-0.580
-2.000E-07,-0.580
-1.900E-07,-0.600
-1.800E-07,-0.660
-1.700E-07,-0.700
-1.600E-07,-0.820
-1.500E-07,-0.840
-1.400E-07,-0.880
-1.300E-07,-0.880
-1.200E-07,-1.000
-1.100E-07,-1.020
-1.000E-07,-1.300
-9.000E-08,-1.080
-8.000E-08,-1.640
-7.000E-08,-1.380
-6.000E-08,-1.040
-5.000E-08,0.760
-4.000E-08,-0.280
-3.000E-08,2.180
-2.000E-08,2.040
-1.000E-08,1.180
0.000E+00,2.000
1.000E-08,0.560
2.000E-08,0.020
3.000E-08,0.560
4.000E-08,-0.580
5.000E-08,-0.400
6.000E-08,-0.360
7.000E-08,-0.980
8.000E-08,-1.120
9.000E-08,-0.920
1.000E-07,-0.960
1.100E-07,-0.760
1.200E-07,-0.600
1.300E-07,-0.860
1.400E-07,-1.080
1.500E-07,-0.580
1.600E-07,-0.640
1.700E-07,-0.500
1.800E-07,-0.600
1.900E-07,-0.680
2.000E-07,-0.580
2.100E-07,-0.320
2.200E-07,-0.260
2.300E-07,-0.300
2.400E-07,-0.180
2.500E-07,0.020
2.600E-07,0.140
2.700E-07,0.260
2.800E-07,0.260
2.900E-07,0.180
3.000E-07,0.240
3.100E-07,0.080
3.200E-07,0.060
3.300E-07,-0.180
3.400E-07,-0.240
3.500E-07,-0.540
3.600E-07,-0.800
3.700E-07,-1.200
3.800E-07,-1.660
3.900E-07,-2.060
4.000E-07,-2.460
4.100E-07,-2.680
4.200E-07,-2.680
4.300E-07,-2.660
4.400E-07,-2.640
4.500E-07,-2.300
4.600E-07,-1.960
4.700E-07,-1.720
4.800E-07,-1.420
4.900E-07,-1.340
5.000E-07,-1.180
5.100E-07,-1.240
5.200E-07,-1.220
5.300E-07,-1.440
5.400E-07,-1.700
5.500E-07,-2.040
5.600E-07,-2.340
5.700E-07,-2.480
5.800E-07,-2.320
5.900E-07,-2.060
6.000E-07,-1.860
6.100E-07,-1.760
6.200E-07,-1.960
6.300E-07,-1.980
6.400E-07,-1.980
6.500E-07,-1.540
6.600E-07,-0.680
6.700E-07,-0.340
6.800E-07,0.620
6.900E-07,0.880
7.000E-07,1.120
7.100E-07,0.820
7.200E-07,0.300
7.300E-07,-0.620
7.400E-07,-1.060
7.500E-07,-1.640
7.600E-07,-1.800
7.700E-07,-1.820
7.800E-07,-2.240
7.900E-07,-2.400
8.000E-07,-2.580
8.100E-07,-2.420
8.200E-07,-2.260
8.300E-07,-1.980
8.400E-07,-1.860
8.500E-07,-1.880
8.600E-07,-1.520
8.700E-07,-1.440
8.800E-07,-1.240
8.900E-07,-1.060
9.000E-07,-1.040
9.100E-07,-0.860
9.200E-07,-0.680
9.300E-07,-0.560
9.400E-07,-0.480
9.500E-07,-0.300
9.600E-07,-0.220
9.700E-07,0.000
9.800E-07,0.240
9.900E-07,0.440
1.000E-06,0.660
1.010E-06,0.700
1.020E-06,0.640
1.030E-06,0.520
1.040E-06,0.420
1.050E-06,0.360
1.060E-06,0.260
1.070E-06,0.220
1.080E-06,0.060
1.090E-06,-0.180
1.100E-06,-0.400
1.110E-06,-0.680
1.120E-06,-0.880
1.130E-06,-0.980
1.140E-06,-0.980
1.150E-06,-0.900
1.160E-06,-0.780
1.170E-06,-0.620
1.180E-06,-0.400
1.190E-06,-0.320
1.200E-06,-0.260
1.210E-06,-0.260
1.220E-06,-0.280
1.230E-06,-0.380
1.240E-06,-0.500
1.250E-06,-0.620
1.260E-06,-0.720
1.270E-06,-0.800
1.280E-06,-0.900
1.290E-06,-1.000
1.300E-06,-1.100
1.310E-06,-1.140
1.320E-06,-1.220
1.330E-06,-1.340
1.340E-06,-1.440
1.350E-06,-1.560
1.360E-06,-1.660
1.370E-06,-1.880
1.380E-06,-2.000
1.390E-06,-2.320
1.400E-06,-2.340
1.410E-06,-2.600
1.420E-06,-2.560
1.430E-06,-2.680
1.440E-06,-2.680
1.450E-06,-2.660
1.460E-06,-2.660
1.470E-06,-2.660
1.480E-06,-2.400
1.490E-06,-1.500
1.500E-06,-0.660
1.510E-06,0.020
1.520E-06,1.660
1.530E-06,1.520
1.540E-06,2.600
1.550E-06,2.580
1.560E-06,2.340
1.570E-06,2.060
1.580E-06,1.120
1.590E-06,0.500
1.600E-06,-0.080
1.610E-06,-0.360
1.620E-06,-0.880
1.630E-06,-1.000
1.640E-06,-1.560
1.650E-06,-1.840
1.660E-06,-1.860
1.670E-06,-2.040
1.680E-06,-2.000
1.690E-06,-1.920
1.700E-06,-1.900
1.710E-06,-1.740
1.720E-06,-1.480
1.730E-06,-1.240
1.740E-06,-1.100
1.750E-06,-0.860
1.760E-06,-0.840
1.770E-06,-0.660
1.780E-06,-0.520
1.790E-06,-0.400
1.800E-06,-0.320
1.810E-06,-0.200
1.820E-06,-0.120
1.830E-06,-0.020
1.840E-06,0.100
1.850E-06,0.160
1.860E-06,0.160
1.870E-06,0.120
1.880E-06,-0.020
1.890E-06,-0.100
1.900E-06,-0.220
1.910E-06,-0.440
1.920E-06,-0.660
1.930E-06,-0.940
1.940E-06,-1.260
1.950E-06,-1.520
1.960E-06,-1.800
1.970E-06,-1.980
1.980E-06,-2.080
1.990E-06,-2.160
2.000E-06,-2.040
2.010E-06,-1.900
2.020E-06,-1.640
2.030E-06,-1.480
2.040E-06,-1.240
2.050E-06,-1.180
2.060E-06,-1.040
2.070E-06,-1.020
2.080E-06,-0.980
2.090E-06,-0.980
2.100E-06,-1.040
2.110E-06,-1.180
2.120E-06,-1.280
2.130E-06,-1.280
2.140E-06,-1.300
2.150E-06,-0.980
2.160E-06,-1.040
2.170E-06,-1.000
2.180E-06,-1.320
2.190E-06,-1.380
2.200E-06,-1.620
2.210E-06,-1.360
2.220E-06,-1.240
2.230E-06,-0.980
2.240E-06,-1.120
2.250E-06,-1.060
2.260E-06,-1.060
2.270E-06,-1.020
2.280E-06,-0.680
2.290E-06,-0.580
2.300E-06,-0.300
2.310E-06,-0.560
2.320E-06,-0.760
2.330E-06,-0.940
2.340E-06,-1.140
2.350E-06,-1.020
2.360E-06,-0.900
2.370E-06,-0.720
2.380E-06,-0.800
2.390E-06,-0.840
2.400E-06,-1.140
2.410E-06,-1.280
2.420E-06,-1.320
2.430E-06,-1.520
2.440E-06,-1.460
2.450E-06,-1.460
2.460E-06,-1.240
2.470E-06,-1.180
2.480E-06,-1.080
2.490E-06,-1.200
2.500E-06,-1.160
2.510E-06,-1.000
2.520E-06,-0.800
2.530E-06,-0.680
2.540E-06,-0.540
2.550E-06,-0.520
2.560E-06,-0.300
2.570E-06,-0.240
2.580E-06,-0.140
2.590E-06,-0.220
2.600E-06,-0.240
2.610E-06,-0.340
2.620E-06,-0.420
2.630E-06,-0.580
2.640E-06,-0.740
2.650E-06,-0.900
2.660E-06,-1.000
2.670E-06,-1.140
2.680E-06,-1.240
2.690E-06,-1.320
2.700E-06,-1.380
2.710E-06,-1.420
2.720E-06,-1.440
2.730E-06,-1.400
2.740E-06,-1.340
2.750E-06,-1.240
2.760E-06,-1.120
2.770E-06,-1.100
2.780E-06,-1.040
2.790E-06,-1.100
2.800E-06,-1.080
2.810E-06,-1.060
2.820E-06,-1.000
2.830E-06,-1.020
2.840E-06,-1.020
2.850E-06,-0.940
2.860E-06,-0.940
2.870E-06,-0.880
2.880E-06,-0.840
2.890E-06,-0.800
2.900E-06,-0.740
2.910E-06,-0.620
2.920E-06,-0.460
2.930E-06,-0.260
2.940E-06,-0.060
2.950E-06,0.140
2.960E-06,0.280
2.970E-06,0.340
2.980E-06,0.300
2.990E-06,0.140
3.000E-06,-0.080
3.010E-06,-0.380
3.020E-06,-0.700
3.030E-06,-0.920
