mediciones/Mediciones filtradas (saque las feas)/5-15/37.5/WaveData47494.csv

#timebase=2000000(ps)
,#voltbase=100000(mv/100)
#size=4000
-8.400E-06,0.004
-8.390E-06,0.004
-8.380E-06,0.004
-8.370E-06,0.000
-8.360E-06,0.004
-8.350E-06,0.004
-8.340E-06,0.008
-8.330E-06,0.008
-8.320E-06,0.000
-8.310E-06,-0.004
-8.300E-06,0.004
-8.290E-06,0.000
-8.280E-06,0.000
-8.270E-06,0.004
-8.260E-06,0.004
-8.250E-06,0.000
-8.240E-06,0.004
-8.230E-06,0.004
-8.220E-06,0.004
-8.210E-06,0.000
-8.200E-06,0.000
-8.190E-06,0.000
-8.180E-06,0.004
-8.170E-06,0.000
-8.160E-06,0.004
-8.150E-06,0.004
-8.140E-06,0.004
-8.130E-06,0.004
-8.120E-06,0.004
-8.110E-06,0.004
-8.100E-06,0.000
-8.090E-06,0.000
-8.080E-06,0.004
-8.070E-06,0.008
-8.060E-06,0.008
-8.050E-06,0.000
-8.040E-06,0.000
-8.030E-06,0.004
-8.020E-06,0.004
-8.010E-06,0.004
-8.000E-06,0.004
-7.990E-06,0.004
-7.980E-06,0.004
-7.970E-06,0.000
-7.960E-06,0.004
-7.950E-06,0.008
-7.940E-06,0.000
-7.930E-06,0.004
-7.920E-06,0.004
-7.910E-06,0.004
-7.900E-06,0.004
-7.890E-06,0.004
-7.880E-06,0.004
-7.870E-06,0.004
-7.860E-06,0.000
-7.850E-06,0.004
-7.840E-06,0.004
-7.830E-06,0.004
-7.820E-06,0.004
-7.810E-06,0.004
-7.800E-06,0.004
-7.790E-06,0.000
-7.780E-06,0.000
-7.770E-06,0.004
-7.760E-06,0.000
-7.750E-06,0.004
-7.740E-06,0.000
-7.730E-06,0.004
-7.720E-06,0.004
-7.710E-06,0.004
-7.700E-06,-0.004
-7.690E-06,0.004
-7.680E-06,0.000
-7.670E-06,0.004
-7.660E-06,0.004
-7.650E-06,0.004
-7.640E-06,0.004
-7.630E-06,0.008
-7.620E-06,0.000
-7.610E-06,-0.004
-7.600E-06,0.004
-7.590E-06,0.000
-7.580E-06,0.004
-7.570E-06,0.004
-7.560E-06,0.004
-7.550E-06,0.000
-7.540E-06,0.004
-7.530E-06,0.008
-7.520E-06,0.008
-7.510E-06,0.000
-7.500E-06,0.000
-7.490E-06,0.000
-7.480E-06,0.004
-7.470E-06,0.000
-7.460E-06,0.004
-7.450E-06,0.004
-7.440E-06,0.004
-7.430E-06,0.004
-7.420E-06,0.004
-7.410E-06,0.008
-7.400E-06,0.000
-7.390E-06,0.004
-7.380E-06,0.004
-7.370E-06,0.004
-7.360E-06,0.004
-7.350E-06,0.000
-7.340E-06,0.004
-7.330E-06,0.000
-7.320E-06,0.004
-7.310E-06,0.000
-7.300E-06,0.004
-7.290E-06,0.004
-7.280E-06,0.004
-7.270E-06,0.004
-7.260E-06,0.004
-7.250E-06,0.004
-7.240E-06,0.004
-7.230E-06,0.004
-7.220E-06,0.004
-7.210E-06,0.000
-7.200E-06,0.004
-7.190E-06,0.004
-7.180E-06,0.004
-7.170E-06,0.004
-7.160E-06,0.004
-7.150E-06,0.008
-7.140E-06,0.000
-7.130E-06,0.000
-7.120E-06,0.004
-7.110E-06,0.004
-7.100E-06,0.004
-7.090E-06,0.004
-7.080E-06,0.008
-7.070E-06,0.008
-7.060E-06,0.008
-7.050E-06,0.008
-7.040E-06,0.008
-7.030E-06,0.000
-7.020E-06,0.004
-7.010E-06,0.004
-7.000E-06,0.004
-6.990E-06,0.004
-6.980E-06,0.004
-6.970E-06,0.004
-6.960E-06,0.008
-6.950E-06,0.008
-6.940E-06,0.000
-6.930E-06,0.004
-6.920E-06,0.004
-6.910E-06,0.004
-6.900E-06,0.000
-6.890E-06,0.000
-6.880E-06,0.004
-6.870E-06,0.000
-6.860E-06,0.004
-6.850E-06,0.000
-6.840E-06,0.004
-6.830E-06,0.008
-6.820E-06,0.008
-6.810E-06,0.008
-6.800E-06,0.000
-6.790E-06,0.004
-6.780E-06,0.004
-6.770E-06,0.004
-6.760E-06,0.004
-6.750E-06,0.000
-6.740E-06,0.000
-6.730E-06,0.004
-6.720E-06,0.000
-6.710E-06,0.004
-6.700E-06,0.004
-6.690E-06,0.004
-6.680E-06,0.008
-6.670E-06,0.008
-6.660E-06,0.000
-6.650E-06,0.000
-6.640E-06,0.004
-6.630E-06,0.000
-6.620E-06,0.004
-6.610E-06,0.004
-6.600E-06,0.000
-6.590E-06,0.004
-6.580E-06,0.004
-6.570E-06,0.004
-6.560E-06,0.004
-6.550E-06,0.000
-6.540E-06,0.004
-6.530E-06,0.004
-6.520E-06,0.004
-6.510E-06,0.004
-6.500E-06,0.004
-6.490E-06,-0.004
-6.480E-06,0.004
-6.470E-06,0.004
-6.460E-06,0.004
-6.450E-06,0.004
-6.440E-06,0.004
-6.430E-06,0.004
-6.420E-06,0.004
-6.410E-06,0.004
-6.400E-06,0.004
-6.390E-06,0.000
-6.380E-06,0.004
-6.370E-06,-0.004
-6.360E-06,0.000
-6.350E-06,0.004
-6.340E-06,0.000
-6.330E-06,0.004
-6.320E-06,0.004
-6.310E-06,0.004
-6.300E-06,0.008
-6.290E-06,0.008
-6.280E-06,0.000
-6.270E-06,0.000
-6.260E-06,0.004
-6.250E-06,0.004
-6.240E-06,0.004
-6.230E-06,0.004
-6.220E-06,0.004
-6.210E-06,0.004
-6.200E-06,0.004
-6.190E-06,0.004
-6.180E-06,0.000
-6.170E-06,0.000
-6.160E-06,0.000
-6.150E-06,0.004
-6.140E-06,0.008
-6.130E-06,0.000
-6.120E-06,0.000
-6.110E-06,0.004
-6.100E-06,0.008
-6.090E-06,0.008
-6.080E-06,0.000
-6.070E-06,0.000
-6.060E-06,0.004
-6.050E-06,0.000
-6.040E-06,0.004
-6.030E-06,-0.004
-6.020E-06,0.000
-6.010E-06,0.008
-6.000E-06,0.008
-5.990E-06,0.008
-5.980E-06,0.000
-5.970E-06,0.004
-5.960E-06,0.004
-5.950E-06,0.004
-5.940E-06,0.004
-5.930E-06,0.004
-5.920E-06,0.004
-5.910E-06,0.004
-5.900E-06,0.004
-5.890E-06,0.004
-5.880E-06,0.000
-5.870E-06,0.004
-5.860E-06,0.008
-5.850E-06,0.000
-5.840E-06,0.000
-5.830E-06,0.004
-5.820E-06,0.004
-5.810E-06,0.004
-5.800E-06,0.004
-5.790E-06,0.004
-5.780E-06,0.000
-5.770E-06,0.004
-5.760E-06,0.004
-5.750E-06,0.000
-5.740E-06,0.000
-5.730E-06,-0.004
-5.720E-06,0.004
-5.710E-06,0.004
-5.700E-06,0.004
-5.690E-06,0.004
-5.680E-06,0.004
-5.670E-06,0.004
-5.660E-06,0.004
-5.650E-06,0.004
-5.640E-06,0.004
-5.630E-06,0.004
-5.620E-06,0.008
-5.610E-06,0.008
-5.600E-06,0.000
-5.590E-06,-0.004
-5.580E-06,0.004
-5.570E-06,0.004
-5.560E-06,0.004
-5.550E-06,0.000
-5.540E-06,0.004
-5.530E-06,0.004
-5.520E-06,0.000
-5.510E-06,0.004
-5.500E-06,0.008
-5.490E-06,0.000
-5.480E-06,0.004
-5.470E-06,0.004
-5.460E-06,0.004
-5.450E-06,0.004
-5.440E-06,0.004
-5.430E-06,0.004
-5.420E-06,0.004
-5.410E-06,0.000
-5.400E-06,0.000
-5.390E-06,0.000
-5.380E-06,0.004
-5.370E-06,0.004
-5.360E-06,0.004
-5.350E-06,0.004
-5.340E-06,0.004
-5.330E-06,0.000
-5.320E-06,0.000
-5.310E-06,0.004
-5.300E-06,0.004
-5.290E-06,0.004
-5.280E-06,0.004
-5.270E-06,0.004
-5.260E-06,0.008
-5.250E-06,0.008
-5.240E-06,0.000
-5.230E-06,-0.004
-5.220E-06,0.004
-5.210E-06,0.008
-5.200E-06,0.008
-5.190E-06,0.000
-5.180E-06,0.004
-5.170E-06,0.004
-5.160E-06,0.004
-5.150E-06,0.004
-5.140E-06,0.000
-5.130E-06,0.004
-5.120E-06,0.004
-5.110E-06,0.004
-5.100E-06,0.004
-5.090E-06,0.000
-5.080E-06,0.000
-5.070E-06,0.004
-5.060E-06,0.004
-5.050E-06,0.008
-5.040E-06,0.000
-5.030E-06,0.000
-5.020E-06,0.004
-5.010E-06,0.004
-5.000E-06,0.004
-4.990E-06,0.004
-4.980E-06,0.004
-4.970E-06,0.004
-4.960E-06,0.004
-4.950E-06,0.004
-4.940E-06,0.004
-4.930E-06,0.004
-4.920E-06,0.004
-4.910E-06,0.004
-4.900E-06,0.004
-4.890E-06,0.004
-4.880E-06,0.008
-4.870E-06,0.000
-4.860E-06,0.000
-4.850E-06,0.000
-4.840E-06,0.000
-4.830E-06,0.004
-4.820E-06,0.004
-4.810E-06,0.004
-4.800E-06,0.004
-4.790E-06,0.008
-4.780E-06,0.000
-4.770E-06,0.004
-4.760E-06,0.004
-4.750E-06,0.004
-4.740E-06,0.000
-4.730E-06,-0.004
-4.720E-06,0.000
-4.710E-06,0.004
-4.700E-06,0.000
-4.690E-06,0.004
-4.680E-06,0.004
-4.670E-06,0.004
-4.660E-06,0.004
-4.650E-06,0.004
-4.640E-06,0.004
-4.630E-06,0.000
-4.620E-06,0.004
-4.610E-06,0.004
-4.600E-06,0.000
-4.590E-06,0.004
-4.580E-06,0.004
-4.570E-06,0.004
-4.560E-06,0.008
-4.550E-06,0.008
-4.540E-06,0.000
-4.530E-06,0.004
-4.520E-06,0.004
-4.510E-06,0.004
-4.500E-06,0.004
-4.490E-06,0.008
-4.480E-06,0.000
-4.470E-06,0.004
-4.460E-06,0.004
-4.450E-06,0.004
-4.440E-06,0.000
-4.430E-06,0.000
-4.420E-06,0.000
-4.410E-06,0.004
-4.400E-06,0.004
-4.390E-06,0.000
-4.380E-06,0.004
-4.370E-06,0.004
-4.360E-06,0.004
-4.350E-06,0.004
-4.340E-06,0.004
-4.330E-06,0.004
-4.320E-06,0.004
-4.310E-06,0.004
-4.300E-06,0.008
-4.290E-06,0.000
-4.280E-06,0.004
-4.270E-06,0.004
-4.260E-06,0.004
-4.250E-06,0.004
-4.240E-06,0.004
-4.230E-06,0.004
-4.220E-06,0.004
-4.210E-06,0.004
-4.200E-06,0.004
-4.190E-06,0.000
-4.180E-06,0.004
-4.170E-06,0.004
-4.160E-06,0.004
-4.150E-06,0.004
-4.140E-06,0.004
-4.130E-06,0.004
-4.120E-06,0.008
-4.110E-06,0.000
-4.100E-06,0.004
-4.090E-06,0.004
-4.080E-06,0.004
-4.070E-06,0.000
-4.060E-06,0.000
-4.050E-06,0.000
-4.040E-06,0.008
-4.030E-06,0.008
-4.020E-06,0.008
-4.010E-06,0.000
-4.000E-06,0.004
-3.990E-06,0.004
-3.980E-06,0.004
-3.970E-06,0.004
-3.960E-06,0.000
-3.950E-06,0.004
-3.940E-06,0.000
-3.930E-06,0.000
-3.920E-06,0.004
-3.910E-06,0.004
-3.900E-06,0.004
-3.890E-06,0.008
-3.880E-06,0.000
-3.870E-06,0.004
-3.860E-06,0.000
-3.850E-06,0.004
-3.840E-06,0.000
-3.830E-06,0.004
-3.820E-06,0.004
-3.810E-06,0.004
-3.800E-06,-0.004
-3.790E-06,0.000
-3.780E-06,0.000
-3.770E-06,0.000
-3.760E-06,0.004
-3.750E-06,0.000
-3.740E-06,0.004
-3.730E-06,0.004
-3.720E-06,0.000
-3.710E-06,0.000
-3.700E-06,0.000
-3.690E-06,0.004
-3.680E-06,0.004
-3.670E-06,0.004
-3.660E-06,0.008
-3.650E-06,0.000
-3.640E-06,0.004
-3.630E-06,0.004
-3.620E-06,0.000
-3.610E-06,0.000
-3.600E-06,0.004
-3.590E-06,0.004
-3.580E-06,0.004
-3.570E-06,0.000
-3.560E-06,0.004
-3.550E-06,-0.004
-3.540E-06,0.004
-3.530E-06,0.004
-3.520E-06,0.000
-3.510E-06,0.004
-3.500E-06,0.004
-3.490E-06,0.004
-3.480E-06,0.000
-3.470E-06,0.004
-3.460E-06,0.000
-3.450E-06,0.000
-3.440E-06,-0.004
-3.430E-06,0.000
-3.420E-06,0.008
-3.410E-06,0.008
-3.400E-06,0.008
-3.390E-06,0.008
-3.380E-06,0.008
-3.370E-06,0.008
-3.360E-06,-0.004
-3.350E-06,0.004
-3.340E-06,0.004
-3.330E-06,0.008
-3.320E-06,0.024
-3.310E-06,0.076
-3.300E-06,0.108
-3.290E-06,0.088
-3.280E-06,0.000
-3.270E-06,-0.140
-3.260E-06,-0.216
-3.250E-06,-0.172
-3.240E-06,-0.004
-3.230E-06,0.192
-3.220E-06,0.240
-3.210E-06,0.176
-3.200E-06,0.000
-3.190E-06,-0.176
-3.180E-06,-0.228
-3.170E-06,-0.136
-3.160E-06,0.024
-3.150E-06,0.172
-3.140E-06,0.204
-3.130E-06,0.132
-3.120E-06,0.004
-3.110E-06,-0.124
-3.100E-06,-0.164
-3.090E-06,-0.128
-3.080E-06,-0.036
-3.070E-06,0.072
-3.060E-06,0.132
-3.050E-06,0.132
-3.040E-06,0.088
-3.030E-06,0.000
-3.020E-06,-0.084
-3.010E-06,-0.116
-3.000E-06,-0.100
-2.990E-06,-0.004
-2.980E-06,0.084
-2.970E-06,0.128
-2.960E-06,0.120
-2.950E-06,0.032
-2.940E-06,-0.064
-2.930E-06,-0.136
-2.920E-06,-0.124
-2.910E-06,-0.052
-2.900E-06,0.048
-2.890E-06,0.096
-2.880E-06,0.120
-2.870E-06,0.076
-2.860E-06,0.008
-2.850E-06,-0.060
-2.840E-06,-0.076
-2.830E-06,-0.056
-2.820E-06,-0.012
-2.810E-06,0.056
-2.800E-06,0.068
-2.790E-06,0.076
-2.780E-06,0.028
-2.770E-06,-0.024
-2.760E-06,-0.068
-2.750E-06,-0.064
-2.740E-06,-0.028
-2.730E-06,0.012
-2.720E-06,0.056
-2.710E-06,0.068
-2.700E-06,0.060
-2.690E-06,0.008
-2.680E-06,-0.028
-2.670E-06,-0.052
-2.660E-06,-0.036
-2.650E-06,-0.004
-2.640E-06,0.032
-2.630E-06,0.060
-2.620E-06,0.036
-2.610E-06,0.012
-2.600E-06,-0.024
-2.590E-06,-0.036
-2.580E-06,-0.044
-2.570E-06,-0.004
-2.560E-06,0.004
-2.550E-06,0.024
-2.540E-06,0.036
-2.530E-06,0.028
-2.520E-06,0.000
-2.510E-06,-0.020
-2.500E-06,-0.012
-2.490E-06,-0.020
-2.480E-06,0.008
-2.470E-06,0.012
-2.460E-06,0.028
-2.450E-06,0.016
-2.440E-06,0.008
-2.430E-06,-0.008
-2.420E-06,-0.016
-2.410E-06,-0.012
-2.400E-06,0.000
-2.390E-06,0.016
-2.380E-06,0.012
-2.370E-06,0.016
-2.360E-06,0.004
-2.350E-06,0.004
-2.340E-06,-0.004
-2.330E-06,0.004
-2.320E-06,0.004
-2.310E-06,0.012
-2.300E-06,0.004
-2.290E-06,0.008
-2.280E-06,0.008
-2.270E-06,0.004
-2.260E-06,0.000
-2.250E-06,0.000
-2.240E-06,0.000
-2.230E-06,0.004
-2.220E-06,0.008
-2.210E-06,0.012
-2.200E-06,0.012
-2.190E-06,0.004
-2.180E-06,0.004
-2.170E-06,0.004
-2.160E-06,0.008
-2.150E-06,0.004
-2.140E-06,0.008
-2.130E-06,0.016
-2.120E-06,0.004
-2.110E-06,0.000
-2.100E-06,-0.004
-2.090E-06,0.000
-2.080E-06,0.008
-2.070E-06,0.012
-2.060E-06,0.012
-2.050E-06,0.008
-2.040E-06,0.008
-2.030E-06,0.012
-2.020E-06,0.004
-2.010E-06,0.008
-2.000E-06,0.012
-1.990E-06,0.012
-1.980E-06,0.016
-1.970E-06,0.024
-1.960E-06,0.024
-1.950E-06,0.012
-1.940E-06,0.000
-1.930E-06,-0.008
-1.920E-06,-0.008
-1.910E-06,-0.008
-1.900E-06,0.012
-1.890E-06,0.008
-1.880E-06,0.020
-1.870E-06,0.008
-1.860E-06,0.000
-1.850E-06,-0.004
-1.840E-06,-0.004
-1.830E-06,0.008
-1.820E-06,0.020
-1.810E-06,0.032
-1.800E-06,0.024
-1.790E-06,0.008
-1.780E-06,0.004
-1.770E-06,0.000
-1.760E-06,0.008
-1.750E-06,0.016
-1.740E-06,0.012
-1.730E-06,0.012
-1.720E-06,0.016
-1.710E-06,0.016
-1.700E-06,0.008
-1.690E-06,0.008
-1.680E-06,0.004
-1.670E-06,0.000
-1.660E-06,0.000
-1.650E-06,0.000
-1.640E-06,0.008
-1.630E-06,0.004
-1.620E-06,0.008
-1.610E-06,0.004
-1.600E-06,0.000
-1.590E-06,0.000
-1.580E-06,0.000
-1.570E-06,0.008
-1.560E-06,0.024
-1.550E-06,0.032
-1.540E-06,0.032
-1.530E-06,0.032
-1.520E-06,0.032
-1.510E-06,0.024
-1.500E-06,0.024
-1.490E-06,0.032
-1.480E-06,0.028
-1.470E-06,0.020
-1.460E-06,0.028
-1.450E-06,0.052
-1.440E-06,0.048
-1.430E-06,0.032
-1.420E-06,0.016
-1.410E-06,-0.004
-1.400E-06,-0.028
-1.390E-06,-0.064
-1.380E-06,-0.068
-1.370E-06,-0.064
-1.360E-06,-0.056
-1.350E-06,-0.036
-1.340E-06,-0.004
-1.330E-06,0.016
-1.320E-06,0.012
-1.310E-06,-0.004
-1.300E-06,-0.028
-1.290E-06,-0.036
-1.280E-06,-0.024
-1.270E-06,0.000
-1.260E-06,0.028
-1.250E-06,0.032
-1.240E-06,0.028
-1.230E-06,0.016
-1.220E-06,0.004
-1.210E-06,-0.004
-1.200E-06,-0.004
-1.190E-06,-0.004
-1.180E-06,0.000
-1.170E-06,0.024
-1.160E-06,0.032
-1.150E-06,0.044
-1.140E-06,0.056
-1.130E-06,0.048
-1.120E-06,0.032
-1.110E-06,0.016
-1.100E-06,0.004
-1.090E-06,0.008
-1.080E-06,0.012
-1.070E-06,0.012
-1.060E-06,0.008
-1.050E-06,0.008
-1.040E-06,0.008
-1.030E-06,0.024
-1.020E-06,0.020
-1.010E-06,0.004
-1.000E-06,-0.004
-9.900E-07,-0.008
-9.800E-07,-0.004
-9.700E-07,0.004
-9.600E-07,0.020
-9.500E-07,0.036
-9.400E-07,0.028
-9.300E-07,0.032
-9.200E-07,0.016
-9.100E-07,0.020
-9.000E-07,0.028
-8.900E-07,0.056
-8.800E-07,0.084
-8.700E-07,0.096
-8.600E-07,0.092
-8.500E-07,0.072
-8.400E-07,0.044
-8.300E-07,0.024
-8.200E-07,0.036
-8.100E-07,0.052
-8.000E-07,0.072
-7.900E-07,0.092
-7.800E-07,0.072
-7.700E-07,0.048
-7.600E-07,0.036
-7.500E-07,0.032
-7.400E-07,0.056
-7.300E-07,0.092
-7.200E-07,0.136
-7.100E-07,0.160
-7.000E-07,0.172
-6.900E-07,0.164
-6.800E-07,0.152
-6.700E-07,0.156
-6.600E-07,0.164
-6.500E-07,0.196
-6.400E-07,0.204
-6.300E-07,0.200
-6.200E-07,0.180
-6.100E-07,0.128
-6.000E-07,0.068
-5.900E-07,0.020
-5.800E-07,0.016
-5.700E-07,0.080
-5.600E-07,0.148
-5.500E-07,0.192
-5.400E-07,0.204
-5.300E-07,0.164
-5.200E-07,0.100
-5.100E-07,0.056
-5.000E-07,0.056
-4.900E-07,0.068
-4.800E-07,0.100
-4.700E-07,0.116
-4.600E-07,0.100
-4.500E-07,0.056
-4.400E-07,0.012
-4.300E-07,-0.004
-4.200E-07,0.040
-4.100E-07,0.084
-4.000E-07,0.128
-3.900E-07,0.156
-3.800E-07,0.100
-3.700E-07,0.028
-3.600E-07,-0.028
-3.500E-07,-0.028
-3.400E-07,0.028
-3.300E-07,0.112
-3.200E-07,0.196
-3.100E-07,0.260
-3.000E-07,0.264
-2.900E-07,0.236
-2.800E-07,0.160
-2.700E-07,0.092
-2.600E-07,0.064
-2.500E-07,0.108
-2.400E-07,0.168
-2.300E-07,0.144
-2.200E-07,-0.016
-2.100E-07,-0.292
-2.000E-07,-0.512
-1.900E-07,-0.512
-1.800E-07,-0.436
-1.700E-07,-0.196
-1.600E-07,0.088
-1.500E-07,0.108
-1.400E-07,-0.196
-1.300E-07,-0.512
-1.200E-07,-0.508
-1.100E-07,-0.512
-1.000E-07,-0.224
-9.000E-08,0.216
-8.000E-08,0.344
-7.000E-08,0.248
-6.000E-08,0.092
-5.000E-08,-0.064
-4.000E-08,-0.152
-3.000E-08,-0.136
-2.000E-08,0.100
-1.000E-08,0.324
0.000E+00,0.532
1.000E-08,0.448
2.000E-08,0.216
3.000E-08,-0.160
4.000E-08,-0.404
5.000E-08,-0.480
6.000E-08,-0.340
7.000E-08,0.000
8.000E-08,0.196
9.000E-08,0.256
1.000E-07,0.024
1.100E-07,-0.200
1.200E-07,-0.384
1.300E-07,-0.364
1.400E-07,-0.196
1.500E-07,0.052
1.600E-07,0.208
1.700E-07,0.184
1.800E-07,0.024
1.900E-07,-0.164
2.000E-07,-0.220
2.100E-07,-0.180
2.200E-07,-0.016
2.300E-07,0.140
2.400E-07,0.296
2.500E-07,0.336
2.600E-07,0.272
2.700E-07,0.156
2.800E-07,0.044
2.900E-07,0.032
3.000E-07,0.096
3.100E-07,0.256
3.200E-07,0.364
3.300E-07,0.436
3.400E-07,0.372
3.500E-07,0.260
3.600E-07,0.156
3.700E-07,0.132
3.800E-07,0.192
3.900E-07,0.280
4.000E-07,0.364
4.100E-07,0.376
4.200E-07,0.332
4.300E-07,0.244
4.400E-07,0.192
4.500E-07,0.156
4.600E-07,0.192
4.700E-07,0.260
4.800E-07,0.328
4.900E-07,0.348
5.000E-07,0.308
5.100E-07,0.248
5.200E-07,0.188
5.300E-07,0.164
5.400E-07,0.188
5.500E-07,0.244
5.600E-07,0.296
5.700E-07,0.328
5.800E-07,0.300
5.900E-07,0.256
6.000E-07,0.192
6.100E-07,0.148
6.200E-07,0.148
6.300E-07,0.196
6.400E-07,0.248
6.500E-07,0.284
6.600E-07,0.280
6.700E-07,0.236
6.800E-07,0.172
6.900E-07,0.144
7.000E-07,0.144
7.100E-07,0.180
7.200E-07,0.224
7.300E-07,0.256
7.400E-07,0.264
7.500E-07,0.252
7.600E-07,0.232
7.700E-07,0.216
7.800E-07,0.216
7.900E-07,0.208
8.000E-07,0.212
8.100E-07,0.216
8.200E-07,0.216
8.300E-07,0.212
8.400E-07,0.204
8.500E-07,0.204
8.600E-07,0.196
8.700E-07,0.192
8.800E-07,0.176
8.900E-07,0.168
9.000E-07,0.176
9.100E-07,0.168
9.200E-07,0.140
9.300E-07,0.084
9.400E-07,0.032
9.500E-07,-0.024
9.600E-07,-0.012
9.700E-07,0.008
9.800E-07,0.028
9.900E-07,0.056
1.000E-06,0.064
1.010E-06,0.064
1.020E-06,0.084
1.030E-06,0.140
1.040E-06,0.240
1.050E-06,0.324
1.060E-06,0.352
1.070E-06,0.312
1.080E-06,0.252
1.090E-06,0.208
1.100E-06,0.208
1.110E-06,0.256
1.120E-06,0.292
1.130E-06,0.316
1.140E-06,0.308
1.150E-06,0.272
1.160E-06,0.236
1.170E-06,0.212
1.180E-06,0.208
1.190E-06,0.232
1.200E-06,0.260
1.210E-06,0.280
1.220E-06,0.288
1.230E-06,0.272
1.240E-06,0.248
1.250E-06,0.232
1.260E-06,0.224
1.270E-06,0.236
1.280E-06,0.256
1.290E-06,0.272
1.300E-06,0.276
1.310E-06,0.268
1.320E-06,0.252
1.330E-06,0.232
1.340E-06,0.224
1.350E-06,0.228
1.360E-06,0.240
1.370E-06,0.260
1.380E-06,0.264
1.390E-06,0.260
1.400E-06,0.240
1.410E-06,0.232
1.420E-06,0.232
1.430E-06,0.228
1.440E-06,0.244
1.450E-06,0.256
1.460E-06,0.260
1.470E-06,0.256
1.480E-06,0.244
1.490E-06,0.236
1.500E-06,0.228
1.510E-06,0.236
1.520E-06,0.240
1.530E-06,0.248
1.540E-06,0.252
1.550E-06,0.244
1.560E-06,0.240
1.570E-06,0.236
1.580E-06,0.228
1.590E-06,0.228
1.600E-06,0.232
1.610E-06,0.232
1.620E-06,0.236
1.630E-06,0.236
1.640E-06,0.236
1.650E-06,0.236
1.660E-06,0.232
1.670E-06,0.232
1.680E-06,0.228
1.690E-06,0.224
1.700E-06,0.228
1.710E-06,0.220
1.720E-06,0.220
1.730E-06,0.220
1.740E-06,0.220
1.750E-06,0.228
1.760E-06,0.228
1.770E-06,0.236
1.780E-06,0.232
1.790E-06,0.228
1.800E-06,0.224
1.810E-06,0.216
1.820E-06,0.216
1.830E-06,0.224
1.840E-06,0.228
1.850E-06,0.240
1.860E-06,0.236
1.870E-06,0.232
1.880E-06,0.228
1.890E-06,0.216
1.900E-06,0.212
1.910E-06,0.220
1.920E-06,0.224
1.930E-06,0.228
1.940E-06,0.236
1.950E-06,0.232
1.960E-06,0.224
1.970E-06,0.228
1.980E-06,0.220
1.990E-06,0.224
2.000E-06,0.224
2.010E-06,0.224
2.020E-06,0.228
2.030E-06,0.228
2.040E-06,0.232
2.050E-06,0.224
2.060E-06,0.220
2.070E-06,0.216
2.080E-06,0.216
2.090E-06,0.224
2.100E-06,0.228
2.110E-06,0.224
2.120E-06,0.228
2.130E-06,0.224
2.140E-06,0.220
2.150E-06,0.212
2.160E-06,0.208
2.170E-06,0.212
2.180E-06,0.216
2.190E-06,0.220
2.200E-06,0.220
2.210E-06,0.212
2.220E-06,0.208
2.230E-06,0.204
2.240E-06,0.204
2.250E-06,0.204
2.260E-06,0.204
2.270E-06,0.208
2.280E-06,0.204
2.290E-06,0.204
2.300E-06,0.204
2.310E-06,0.204
2.320E-06,0.200
2.330E-06,0.200
2.340E-06,0.204
2.350E-06,0.200
2.360E-06,0.196
2.370E-06,0.196
2.380E-06,0.200
2.390E-06,0.204
2.400E-06,0.200
2.410E-06,0.196
2.420E-06,0.192
2.430E-06,0.200
2.440E-06,0.204
2.450E-06,0.212
2.460E-06,0.228
2.470E-06,0.224
2.480E-06,0.216
2.490E-06,0.196
2.500E-06,0.184
2.510E-06,0.172
2.520E-06,0.184
2.530E-06,0.196
2.540E-06,0.208
2.550E-06,0.224
2.560E-06,0.216
2.570E-06,0.200
2.580E-06,0.188
2.590E-06,0.168
2.600E-06,0.168
2.610E-06,0.172
2.620E-06,0.196
2.630E-06,0.216
2.640E-06,0.220
2.650E-06,0.208
2.660E-06,0.192
2.670E-06,0.180
2.680E-06,0.164
2.690E-06,0.164
2.700E-06,0.180
2.710E-06,0.196
2.720E-06,0.204
2.730E-06,0.204
2.740E-06,0.196
2.750E-06,0.180
2.760E-06,0.164
2.770E-06,0.160
2.780E-06,0.172
2.790E-06,0.188
2.800E-06,0.200
2.810E-06,0.204
2.820E-06,0.196
2.830E-06,0.176
2.840E-06,0.168
2.850E-06,0.160
2.860E-06,0.160
2.870E-06,0.172
2.880E-06,0.184
2.890E-06,0.188
2.900E-06,0.188
2.910E-06,0.184
2.920E-06,0.164
2.930E-06,0.160
2.940E-06,0.164
2.950E-06,0.160
2.960E-06,0.176
2.970E-06,0.180
2.980E-06,0.188
2.990E-06,0.180
3.000E-06,0.168
3.010E-06,0.164
3.020E-06,0.156
3.030E-06,0.160
3.040E-06,0.160
3.050E-06,0.164
3.060E-06,0.176
3.070E-06,0.180
3.080E-06,0.172
3.090E-06,0.164
3.100E-06,0.156
3.110E-06,0.160
3.120E-06,0.156
3.130E-06,0.160
3.140E-06,0.176
3.150E-06,0.176
3.160E-06,0.176
3.170E-06,0.168
3.180E-06,0.164
3.190E-06,0.152
3.200E-06,0.156
3.210E-06,0.156
3.220E-06,0.160
3.230E-06,0.160
3.240E-06,0.164
3.250E-06,0.164
3.260E-06,0.156
3.270E-06,0.160
3.280E-06,0.156
3.290E-06,0.160
3.300E-06,0.152
3.310E-06,0.156
3.320E-06,0.156
3.330E-06,0.160
3.340E-06,0.156
3.350E-06,0.148
3.360E-06,0.148
3.370E-06,0.152
3.380E-06,0.152
3.390E-06,0.148
3.400E-06,0.152
3.410E-06,0.156
3.420E-06,0.152
3.430E-06,0.140
3.440E-06,0.144
3.450E-06,0.144
