mediciones/6-26/20.0/WaveData59098.csv

#timebase=2000000(ps)
,#voltbase=200000(mv/100)
#size=4000
-8.150E-06,0.000
-8.140E-06,0.000
-8.130E-06,0.008
-8.120E-06,-0.008
-8.110E-06,-0.008
-8.100E-06,0.008
-8.090E-06,-0.008
-8.080E-06,0.000
-8.070E-06,-0.008
-8.060E-06,0.000
-8.050E-06,0.000
-8.040E-06,0.000
-8.030E-06,0.008
-8.020E-06,0.008
-8.010E-06,0.008
-8.000E-06,0.016
-7.990E-06,0.008
-7.980E-06,0.008
-7.970E-06,0.008
-7.960E-06,0.016
-7.950E-06,0.000
-7.940E-06,0.000
-7.930E-06,0.000
-7.920E-06,0.008
-7.910E-06,0.008
-7.900E-06,0.000
-7.890E-06,0.000
-7.880E-06,0.008
-7.870E-06,0.008
-7.860E-06,0.000
-7.850E-06,0.000
-7.840E-06,0.000
-7.830E-06,0.000
-7.820E-06,0.000
-7.810E-06,0.000
-7.800E-06,0.000
-7.790E-06,0.008
-7.780E-06,0.000
-7.770E-06,0.000
-7.760E-06,0.000
-7.750E-06,0.008
-7.740E-06,0.008
-7.730E-06,0.008
-7.720E-06,0.008
-7.710E-06,0.000
-7.700E-06,-0.008
-7.690E-06,0.008
-7.680E-06,0.016
-7.670E-06,0.008
-7.660E-06,0.016
-7.650E-06,0.008
-7.640E-06,0.008
-7.630E-06,0.008
-7.620E-06,0.008
-7.610E-06,0.008
-7.600E-06,0.016
-7.590E-06,0.000
-7.580E-06,0.000
-7.570E-06,0.008
-7.560E-06,0.000
-7.550E-06,0.000
-7.540E-06,0.000
-7.530E-06,0.000
-7.520E-06,0.000
-7.510E-06,0.000
-7.500E-06,0.000
-7.490E-06,0.000
-7.480E-06,0.008
-7.470E-06,0.000
-7.460E-06,-0.008
-7.450E-06,-0.008
-7.440E-06,0.008
-7.430E-06,0.000
-7.420E-06,0.008
-7.410E-06,0.008
-7.400E-06,-0.008
-7.390E-06,0.000
-7.380E-06,0.000
-7.370E-06,0.000
-7.360E-06,0.000
-7.350E-06,0.008
-7.340E-06,0.008
-7.330E-06,0.016
-7.320E-06,-0.008
-7.310E-06,0.000
-7.300E-06,0.000
-7.290E-06,0.000
-7.280E-06,-0.008
-7.270E-06,0.000
-7.260E-06,0.008
-7.250E-06,0.008
-7.240E-06,-0.008
-7.230E-06,0.000
-7.220E-06,0.000
-7.210E-06,0.000
-7.200E-06,0.000
-7.190E-06,-0.008
-7.180E-06,0.008
-7.170E-06,0.008
-7.160E-06,0.000
-7.150E-06,0.008
-7.140E-06,0.000
-7.130E-06,0.000
-7.120E-06,0.008
-7.110E-06,0.000
-7.100E-06,-0.008
-7.090E-06,0.000
-7.080E-06,0.000
-7.070E-06,0.008
-7.060E-06,0.000
-7.050E-06,0.000
-7.040E-06,0.000
-7.030E-06,0.008
-7.020E-06,0.008
-7.010E-06,0.000
-7.000E-06,0.000
-6.990E-06,0.008
-6.980E-06,0.000
-6.970E-06,0.008
-6.960E-06,0.000
-6.950E-06,0.000
-6.940E-06,0.000
-6.930E-06,0.008
-6.920E-06,0.008
-6.910E-06,0.008
-6.900E-06,0.008
-6.890E-06,-0.008
-6.880E-06,0.008
-6.870E-06,0.008
-6.860E-06,0.000
-6.850E-06,0.000
-6.840E-06,0.000
-6.830E-06,0.000
-6.820E-06,0.000
-6.810E-06,0.000
-6.800E-06,0.000
-6.790E-06,0.000
-6.780E-06,0.000
-6.770E-06,0.000
-6.760E-06,0.008
-6.750E-06,-0.008
-6.740E-06,0.000
-6.730E-06,0.000
-6.720E-06,0.000
-6.710E-06,0.008
-6.700E-06,0.008
-6.690E-06,0.008
-6.680E-06,0.008
-6.670E-06,0.008
-6.660E-06,-0.008
-6.650E-06,0.000
-6.640E-06,0.008
-6.630E-06,0.008
-6.620E-06,0.000
-6.610E-06,0.008
-6.600E-06,0.000
-6.590E-06,-0.008
-6.580E-06,0.000
-6.570E-06,0.000
-6.560E-06,0.008
-6.550E-06,0.008
-6.540E-06,-0.008
-6.530E-06,0.000
-6.520E-06,0.000
-6.510E-06,0.000
-6.500E-06,0.000
-6.490E-06,0.000
-6.480E-06,-0.008
-6.470E-06,0.000
-6.460E-06,0.008
-6.450E-06,0.008
-6.440E-06,-0.008
-6.430E-06,-0.008
-6.420E-06,0.000
-6.410E-06,0.000
-6.400E-06,0.000
-6.390E-06,0.000
-6.380E-06,0.008
-6.370E-06,0.000
-6.360E-06,0.000
-6.350E-06,-0.008
-6.340E-06,0.000
-6.330E-06,0.000
-6.320E-06,0.000
-6.310E-06,0.000
-6.300E-06,0.000
-6.290E-06,0.000
-6.280E-06,0.000
-6.270E-06,0.008
-6.260E-06,0.000
-6.250E-06,0.000
-6.240E-06,0.008
-6.230E-06,0.008
-6.220E-06,0.000
-6.210E-06,0.000
-6.200E-06,0.008
-6.190E-06,0.008
-6.180E-06,0.000
-6.170E-06,0.000
-6.160E-06,0.008
-6.150E-06,0.000
-6.140E-06,0.000
-6.130E-06,-0.008
-6.120E-06,-0.008
-6.110E-06,0.000
-6.100E-06,-0.008
-6.090E-06,0.000
-6.080E-06,0.000
-6.070E-06,0.000
-6.060E-06,0.008
-6.050E-06,0.008
-6.040E-06,0.008
-6.030E-06,-0.008
-6.020E-06,-0.008
-6.010E-06,0.008
-6.000E-06,0.016
-5.990E-06,0.008
-5.980E-06,-0.008
-5.970E-06,-0.008
-5.960E-06,0.000
-5.950E-06,0.008
-5.940E-06,0.008
-5.930E-06,0.008
-5.920E-06,0.000
-5.910E-06,0.000
-5.900E-06,0.000
-5.890E-06,0.000
-5.880E-06,-0.008
-5.870E-06,0.000
-5.860E-06,0.000
-5.850E-06,0.008
-5.840E-06,0.000
-5.830E-06,0.000
-5.820E-06,0.000
-5.810E-06,0.000
-5.800E-06,0.016
-5.790E-06,0.008
-5.780E-06,0.000
-5.770E-06,0.000
-5.760E-06,0.000
-5.750E-06,0.008
-5.740E-06,0.008
-5.730E-06,0.008
-5.720E-06,0.000
-5.710E-06,0.000
-5.700E-06,-0.008
-5.690E-06,-0.008
-5.680E-06,0.000
-5.670E-06,0.008
-5.660E-06,0.024
-5.650E-06,0.056
-5.640E-06,0.088
-5.630E-06,0.112
-5.620E-06,0.088
-5.610E-06,0.016
-5.600E-06,-0.072
-5.590E-06,-0.144
-5.580E-06,-0.144
-5.570E-06,-0.088
-5.560E-06,0.016
-5.550E-06,0.112
-5.540E-06,0.152
-5.530E-06,0.072
-5.520E-06,-0.008
-5.510E-06,-0.072
-5.500E-06,-0.088
-5.490E-06,0.000
-5.480E-06,0.056
-5.470E-06,0.112
-5.460E-06,0.080
-5.450E-06,0.016
-5.440E-06,-0.064
-5.430E-06,-0.096
-5.420E-06,-0.080
-5.410E-06,-0.008
-5.400E-06,0.072
-5.390E-06,0.080
-5.380E-06,0.072
-5.370E-06,0.024
-5.360E-06,0.000
-5.350E-06,-0.040
-5.340E-06,-0.024
-5.330E-06,-0.016
-5.320E-06,0.008
-5.310E-06,0.024
-5.300E-06,0.008
-5.290E-06,-0.008
-5.280E-06,-0.032
-5.270E-06,-0.024
-5.260E-06,-0.016
-5.250E-06,0.008
-5.240E-06,0.024
-5.230E-06,0.040
-5.220E-06,0.032
-5.210E-06,0.032
-5.200E-06,0.008
-5.190E-06,0.000
-5.180E-06,-0.016
-5.170E-06,-0.016
-5.160E-06,-0.008
-5.150E-06,-0.008
-5.140E-06,0.008
-5.130E-06,0.008
-5.120E-06,0.008
-5.110E-06,0.000
-5.100E-06,0.000
-5.090E-06,0.000
-5.080E-06,0.008
-5.070E-06,0.024
-5.060E-06,0.032
-5.050E-06,0.016
-5.040E-06,0.008
-5.030E-06,0.000
-5.020E-06,-0.016
-5.010E-06,-0.008
-5.000E-06,-0.008
-4.990E-06,0.008
-4.980E-06,0.008
-4.970E-06,0.008
-4.960E-06,0.008
-4.950E-06,0.008
-4.940E-06,0.000
-4.930E-06,-0.008
-4.920E-06,0.016
-4.910E-06,0.024
-4.900E-06,0.008
-4.890E-06,0.008
-4.880E-06,0.000
-4.870E-06,0.000
-4.860E-06,-0.008
-4.850E-06,0.000
-4.840E-06,-0.008
-4.830E-06,0.000
-4.820E-06,0.000
-4.810E-06,0.008
-4.800E-06,0.000
-4.790E-06,0.016
-4.780E-06,0.008
-4.770E-06,0.000
-4.760E-06,0.000
-4.750E-06,0.008
-4.740E-06,-0.008
-4.730E-06,0.008
-4.720E-06,0.016
-4.710E-06,0.016
-4.700E-06,0.016
-4.690E-06,0.000
-4.680E-06,0.000
-4.670E-06,0.000
-4.660E-06,0.000
-4.650E-06,0.000
-4.640E-06,0.008
-4.630E-06,0.016
-4.620E-06,0.008
-4.610E-06,0.000
-4.600E-06,0.000
-4.590E-06,0.000
-4.580E-06,0.000
-4.570E-06,0.008
-4.560E-06,0.008
-4.550E-06,0.008
-4.540E-06,0.000
-4.530E-06,0.000
-4.520E-06,-0.008
-4.510E-06,-0.008
-4.500E-06,0.000
-4.490E-06,0.008
-4.480E-06,0.000
-4.470E-06,0.008
-4.460E-06,0.016
-4.450E-06,0.008
-4.440E-06,0.000
-4.430E-06,0.000
-4.420E-06,0.008
-4.410E-06,0.024
-4.400E-06,0.016
-4.390E-06,0.000
-4.380E-06,0.000
-4.370E-06,0.000
-4.360E-06,0.000
-4.350E-06,0.008
-4.340E-06,0.008
-4.330E-06,0.000
-4.320E-06,0.000
-4.310E-06,0.000
-4.300E-06,0.000
-4.290E-06,0.008
-4.280E-06,-0.008
-4.270E-06,0.008
-4.260E-06,0.016
-4.250E-06,0.016
-4.240E-06,0.016
-4.230E-06,-0.008
-4.220E-06,0.000
-4.210E-06,-0.008
-4.200E-06,-0.008
-4.190E-06,0.000
-4.180E-06,0.008
-4.170E-06,0.016
-4.160E-06,0.000
-4.150E-06,0.000
-4.140E-06,-0.008
-4.130E-06,0.000
-4.120E-06,0.008
-4.110E-06,0.016
-4.100E-06,0.008
-4.090E-06,0.016
-4.080E-06,0.008
-4.070E-06,0.000
-4.060E-06,0.008
-4.050E-06,-0.008
-4.040E-06,0.000
-4.030E-06,0.008
-4.020E-06,0.008
-4.010E-06,0.008
-4.000E-06,0.008
-3.990E-06,0.000
-3.980E-06,0.000
-3.970E-06,0.000
-3.960E-06,-0.008
-3.950E-06,0.000
-3.940E-06,0.008
-3.930E-06,0.016
-3.920E-06,0.008
-3.910E-06,0.008
-3.900E-06,0.000
-3.890E-06,-0.008
-3.880E-06,0.008
-3.870E-06,0.000
-3.860E-06,0.016
-3.850E-06,0.008
-3.840E-06,0.016
-3.830E-06,0.008
-3.820E-06,0.000
-3.810E-06,0.000
-3.800E-06,0.008
-3.790E-06,0.008
-3.780E-06,0.008
-3.770E-06,0.008
-3.760E-06,0.016
-3.750E-06,0.016
-3.740E-06,0.008
-3.730E-06,0.016
-3.720E-06,0.024
-3.710E-06,0.016
-3.700E-06,0.024
-3.690E-06,0.024
-3.680E-06,0.032
-3.670E-06,0.040
-3.660E-06,0.032
-3.650E-06,0.024
-3.640E-06,0.008
-3.630E-06,0.016
-3.620E-06,0.040
-3.610E-06,0.048
-3.600E-06,0.032
-3.590E-06,0.024
-3.580E-06,0.000
-3.570E-06,-0.016
-3.560E-06,-0.016
-3.550E-06,-0.008
-3.540E-06,0.008
-3.530E-06,0.024
-3.520E-06,0.032
-3.510E-06,0.048
-3.500E-06,0.048
-3.490E-06,0.024
-3.480E-06,0.040
-3.470E-06,0.000
-3.460E-06,0.056
-3.450E-06,0.064
-3.440E-06,-0.048
-3.430E-06,-0.064
-3.420E-06,-0.088
-3.410E-06,-0.008
-3.400E-06,0.000
-3.390E-06,0.016
-3.380E-06,0.112
-3.370E-06,0.080
-3.360E-06,0.016
-3.350E-06,-0.048
-3.340E-06,-0.112
-3.330E-06,-0.352
-3.320E-06,-0.088
-3.310E-06,0.248
-3.300E-06,0.184
-3.290E-06,0.088
-3.280E-06,-0.072
-3.270E-06,-0.064
-3.260E-06,-0.088
-3.250E-06,-0.016
-3.240E-06,0.040
-3.230E-06,0.096
-3.220E-06,0.152
-3.210E-06,0.072
-3.200E-06,-0.048
-3.190E-06,-0.168
-3.180E-06,-0.200
-3.170E-06,-0.016
-3.160E-06,0.040
-3.150E-06,0.152
-3.140E-06,0.056
-3.130E-06,0.040
-3.120E-06,-0.008
-3.110E-06,-0.104
-3.100E-06,-0.080
-3.090E-06,-0.184
-3.080E-06,-0.088
-3.070E-06,0.048
-3.060E-06,0.128
-3.050E-06,0.056
-3.040E-06,0.024
-3.030E-06,-0.056
-3.020E-06,-0.072
-3.010E-06,-0.072
-3.000E-06,-0.040
-2.990E-06,0.024
-2.980E-06,0.088
-2.970E-06,0.088
-2.960E-06,0.008
-2.950E-06,-0.024
-2.940E-06,-0.056
-2.930E-06,-0.016
-2.920E-06,0.016
-2.910E-06,0.064
-2.900E-06,0.056
-2.890E-06,0.008
-2.880E-06,0.000
-2.870E-06,-0.016
-2.860E-06,0.000
-2.850E-06,0.008
-2.840E-06,0.024
-2.830E-06,0.016
-2.820E-06,-0.008
-2.810E-06,-0.024
-2.800E-06,-0.056
-2.790E-06,-0.048
-2.780E-06,0.000
-2.770E-06,0.040
-2.760E-06,0.056
-2.750E-06,0.024
-2.740E-06,-0.008
-2.730E-06,-0.048
-2.720E-06,-0.040
-2.710E-06,-0.016
-2.700E-06,0.000
-2.690E-06,0.040
-2.680E-06,0.040
-2.670E-06,0.032
-2.660E-06,0.000
-2.650E-06,-0.016
-2.640E-06,-0.024
-2.630E-06,-0.008
-2.620E-06,0.008
-2.610E-06,0.032
-2.600E-06,0.024
-2.590E-06,0.016
-2.580E-06,0.016
-2.570E-06,0.000
-2.560E-06,-0.008
-2.550E-06,-0.008
-2.540E-06,0.000
-2.530E-06,0.032
-2.520E-06,0.048
-2.510E-06,0.064
-2.500E-06,0.056
-2.490E-06,0.056
-2.480E-06,0.032
-2.470E-06,-0.040
-2.460E-06,-0.008
-2.450E-06,-0.016
-2.440E-06,-0.048
-2.430E-06,-0.016
-2.420E-06,0.000
-2.410E-06,0.048
-2.400E-06,0.008
-2.390E-06,-0.024
-2.380E-06,-0.016
-2.370E-06,0.032
-2.360E-06,0.032
-2.350E-06,0.032
-2.340E-06,-0.016
-2.330E-06,-0.032
-2.320E-06,-0.024
-2.310E-06,-0.008
-2.300E-06,0.040
-2.290E-06,0.040
-2.280E-06,0.056
-2.270E-06,0.024
-2.260E-06,0.000
-2.250E-06,-0.032
-2.240E-06,-0.040
-2.230E-06,0.008
-2.220E-06,0.064
-2.210E-06,0.096
-2.200E-06,0.080
-2.190E-06,0.048
-2.180E-06,0.000
-2.170E-06,-0.024
-2.160E-06,-0.016
-2.150E-06,0.016
-2.140E-06,0.072
-2.130E-06,0.112
-2.120E-06,0.088
-2.110E-06,0.032
-2.100E-06,-0.016
-2.090E-06,-0.048
-2.080E-06,-0.048
-2.070E-06,0.008
-2.060E-06,0.056
-2.050E-06,0.088
-2.040E-06,0.088
-2.030E-06,0.072
-2.020E-06,0.064
-2.010E-06,0.048
-2.000E-06,0.024
-1.990E-06,0.032
-1.980E-06,0.048
-1.970E-06,0.048
-1.960E-06,-0.048
-1.950E-06,0.008
-1.940E-06,-0.336
-1.930E-06,-0.408
-1.920E-06,-0.120
-1.910E-06,-0.336
-1.900E-06,0.168
-1.890E-06,0.192
-1.880E-06,0.208
-1.870E-06,-0.008
-1.860E-06,0.056
-1.850E-06,0.024
-1.840E-06,-0.064
-1.830E-06,0.008
-1.820E-06,0.104
-1.810E-06,0.192
-1.800E-06,0.216
-1.790E-06,0.176
-1.780E-06,-0.040
-1.770E-06,-0.120
-1.760E-06,-0.048
-1.750E-06,0.056
-1.740E-06,0.160
-1.730E-06,0.048
-1.720E-06,0.024
-1.710E-06,0.104
-1.700E-06,-0.368
-1.690E-06,-0.176
-1.680E-06,-0.432
-1.670E-06,-0.480
-1.660E-06,-0.104
-1.650E-06,0.312
-1.640E-06,0.504
-1.630E-06,0.128
-1.620E-06,0.008
-1.610E-06,-0.320
-1.600E-06,-0.216
-1.590E-06,-0.016
-1.580E-06,0.080
-1.570E-06,0.112
-1.560E-06,0.160
-1.550E-06,0.120
-1.540E-06,-0.096
-1.530E-06,-0.136
-1.520E-06,-0.240
-1.510E-06,-0.128
-1.500E-06,0.048
-1.490E-06,0.184
-1.480E-06,0.184
-1.470E-06,0.072
-1.460E-06,0.008
-1.450E-06,-0.072
-1.440E-06,-0.056
-1.430E-06,-0.032
-1.420E-06,0.024
-1.410E-06,0.088
-1.400E-06,0.088
-1.390E-06,0.072
-1.380E-06,0.032
-1.370E-06,0.008
-1.360E-06,0.024
-1.350E-06,0.056
-1.340E-06,0.024
-1.330E-06,0.040
-1.320E-06,-0.016
-1.310E-06,-0.032
-1.300E-06,0.032
-1.290E-06,0.040
-1.280E-06,0.040
-1.270E-06,0.088
-1.260E-06,0.072
-1.250E-06,0.008
-1.240E-06,-0.048
-1.230E-06,-0.088
-1.220E-06,-0.088
-1.210E-06,-0.008
-1.200E-06,0.080
-1.190E-06,0.128
-1.180E-06,0.152
-1.170E-06,0.088
-1.160E-06,0.016
-1.150E-06,-0.072
-1.140E-06,-0.088
-1.130E-06,-0.048
-1.120E-06,0.032
-1.110E-06,0.144
-1.100E-06,0.216
-1.090E-06,0.240
-1.080E-06,0.176
-1.070E-06,0.080
-1.060E-06,0.008
-1.050E-06,-0.088
-1.040E-06,-0.224
-1.030E-06,-0.144
-1.020E-06,-0.008
-1.010E-06,-0.008
-1.000E-06,-0.040
-9.900E-07,-0.144
-9.800E-07,-0.160
-9.700E-07,-0.104
-9.600E-07,-0.032
-9.500E-07,0.064
-9.400E-07,0.056
-9.300E-07,0.024
-9.200E-07,0.024
-9.100E-07,-0.048
-9.000E-07,-0.040
-8.900E-07,0.000
-8.800E-07,0.048
-8.700E-07,0.032
-8.600E-07,0.080
-8.500E-07,0.072
-8.400E-07,0.048
-8.300E-07,0.064
-8.200E-07,0.064
-8.100E-07,0.072
-8.000E-07,0.080
-7.900E-07,0.096
-7.800E-07,0.088
-7.700E-07,0.088
-7.600E-07,0.072
-7.500E-07,-0.008
-7.400E-07,-0.112
-7.300E-07,-0.136
-7.200E-07,-0.168
-7.100E-07,-0.088
-7.000E-07,0.088
-6.900E-07,0.208
-6.800E-07,0.264
-6.700E-07,0.152
-6.600E-07,-0.008
-6.500E-07,-0.224
-6.400E-07,-0.224
-6.300E-07,-0.136
-6.200E-07,0.064
-6.100E-07,0.256
-6.000E-07,0.320
-5.900E-07,0.208
-5.800E-07,0.000
-5.700E-07,-0.088
-5.600E-07,-0.200
-5.500E-07,-0.128
-5.400E-07,0.048
-5.300E-07,0.296
-5.200E-07,0.384
-5.100E-07,0.264
-5.000E-07,0.152
-4.900E-07,-0.056
-4.800E-07,-0.120
-4.700E-07,-0.072
-4.600E-07,0.104
-4.500E-07,0.248
-4.400E-07,0.208
-4.300E-07,0.168
-4.200E-07,0.024
-4.100E-07,-0.064
-4.000E-07,0.000
-3.900E-07,-0.008
-3.800E-07,0.144
-3.700E-07,0.248
-3.600E-07,0.232
-3.500E-07,0.088
-3.400E-07,0.024
-3.300E-07,-0.064
-3.200E-07,-0.024
-3.100E-07,0.056
-3.000E-07,0.040
-2.900E-07,0.152
-2.800E-07,0.104
-2.700E-07,0.144
-2.600E-07,0.056
-2.500E-07,0.072
-2.400E-07,0.056
-2.300E-07,0.120
-2.200E-07,0.208
-2.100E-07,0.184
-2.000E-07,0.288
-1.900E-07,0.184
-1.800E-07,0.192
-1.700E-07,0.176
-1.600E-07,0.168
-1.500E-07,0.224
-1.400E-07,0.264
-1.300E-07,0.280
-1.200E-07,0.248
-1.100E-07,0.192
-1.000E-07,0.184
-9.000E-08,0.200
-8.000E-08,0.160
-7.000E-08,-0.080
-6.000E-08,-0.120
-5.000E-08,-0.272
-4.000E-08,-0.408
-3.000E-08,-0.152
-2.000E-08,0.048
-1.000E-08,0.512
0.000E+00,0.808
1.000E-08,0.808
2.000E-08,0.480
3.000E-08,0.040
4.000E-08,-0.320
5.000E-08,-0.568
6.000E-08,-0.696
7.000E-08,-0.144
8.000E-08,0.152
9.000E-08,0.208
1.000E-07,0.504
1.100E-07,0.352
1.200E-07,-0.080
1.300E-07,-0.600
1.400E-07,-0.904
1.500E-07,-1.024
1.600E-07,-0.344
1.700E-07,0.032
1.800E-07,0.696
1.900E-07,0.712
2.000E-07,0.648
2.100E-07,0.128
2.200E-07,-0.360
2.300E-07,-0.312
2.400E-07,-0.512
2.500E-07,0.216
2.600E-07,0.656
2.700E-07,1.080
2.800E-07,1.000
2.900E-07,0.472
3.000E-07,-0.056
3.100E-07,-0.368
3.200E-07,-0.288
3.300E-07,-0.016
3.400E-07,0.496
3.500E-07,0.760
3.600E-07,0.808
3.700E-07,0.456
3.800E-07,0.000
3.900E-07,-0.344
4.000E-07,-0.480
4.100E-07,-0.248
4.200E-07,0.104
4.300E-07,0.480
4.400E-07,0.592
4.500E-07,0.464
4.600E-07,0.184
4.700E-07,-0.072
4.800E-07,-0.144
4.900E-07,0.000
5.000E-07,0.288
5.100E-07,0.584
5.200E-07,0.712
5.300E-07,0.616
5.400E-07,0.344
5.500E-07,0.072
5.600E-07,-0.032
5.700E-07,-0.008
5.800E-07,0.192
5.900E-07,0.392
6.000E-07,0.544
6.100E-07,0.512
6.200E-07,0.320
6.300E-07,0.096
6.400E-07,-0.096
6.500E-07,-0.152
6.600E-07,-0.008
6.700E-07,0.264
6.800E-07,0.488
6.900E-07,0.512
7.000E-07,0.424
7.100E-07,0.256
7.200E-07,0.024
7.300E-07,-0.080
7.400E-07,0.000
7.500E-07,0.216
7.600E-07,0.400
7.700E-07,0.504
7.800E-07,0.504
7.900E-07,0.304
8.000E-07,0.128
8.100E-07,0.016
8.200E-07,0.032
8.300E-07,0.160
8.400E-07,0.336
8.500E-07,0.448
8.600E-07,0.480
8.700E-07,0.416
8.800E-07,0.280
8.900E-07,0.184
9.000E-07,0.144
9.100E-07,0.200
9.200E-07,0.304
9.300E-07,0.392
9.400E-07,0.448
9.500E-07,0.400
9.600E-07,0.320
9.700E-07,0.216
9.800E-07,0.176
9.900E-07,0.192
1.000E-06,0.272
1.010E-06,0.352
1.020E-06,0.400
1.030E-06,0.392
1.040E-06,0.344
1.050E-06,0.280
1.060E-06,0.248
1.070E-06,0.216
1.080E-06,0.272
1.090E-06,0.328
1.100E-06,0.376
1.110E-06,0.384
1.120E-06,0.352
1.130E-06,0.304
1.140E-06,0.264
1.150E-06,0.248
1.160E-06,0.256
1.170E-06,0.288
1.180E-06,0.328
1.190E-06,0.352
1.200E-06,0.344
1.210E-06,0.304
1.220E-06,0.264
1.230E-06,0.248
1.240E-06,0.256
1.250E-06,0.296
1.260E-06,0.304
1.270E-06,0.344
1.280E-06,0.336
1.290E-06,0.312
1.300E-06,0.280
1.310E-06,0.264
1.320E-06,0.256
1.330E-06,0.272
1.340E-06,0.296
1.350E-06,0.304
1.360E-06,0.304
1.370E-06,0.304
1.380E-06,0.296
1.390E-06,0.280
1.400E-06,0.264
1.410E-06,0.280
1.420E-06,0.288
1.430E-06,0.312
1.440E-06,0.320
1.450E-06,0.304
1.460E-06,0.288
1.470E-06,0.280
1.480E-06,0.272
1.490E-06,0.272
1.500E-06,0.272
1.510E-06,0.288
1.520E-06,0.296
1.530E-06,0.288
1.540E-06,0.272
1.550E-06,0.272
1.560E-06,0.272
1.570E-06,0.272
1.580E-06,0.272
1.590E-06,0.288
1.600E-06,0.280
1.610E-06,0.288
1.620E-06,0.288
1.630E-06,0.288
1.640E-06,0.272
1.650E-06,0.272
1.660E-06,0.272
1.670E-06,0.280
1.680E-06,0.288
1.690E-06,0.296
1.700E-06,0.272
1.710E-06,0.272
1.720E-06,0.280
1.730E-06,0.264
1.740E-06,0.264
1.750E-06,0.264
1.760E-06,0.256
1.770E-06,0.264
1.780E-06,0.264
1.790E-06,0.272
1.800E-06,0.272
1.810E-06,0.272
1.820E-06,0.280
1.830E-06,0.264
1.840E-06,0.272
1.850E-06,0.264
1.860E-06,0.264
1.870E-06,0.264
1.880E-06,0.264
1.890E-06,0.264
1.900E-06,0.256
1.910E-06,0.264
1.920E-06,0.264
1.930E-06,0.256
1.940E-06,0.264
1.950E-06,0.256
1.960E-06,0.256
1.970E-06,0.256
1.980E-06,0.256
1.990E-06,0.256
2.000E-06,0.264
2.010E-06,0.264
2.020E-06,0.264
2.030E-06,0.264
2.040E-06,0.264
2.050E-06,0.264
2.060E-06,0.248
2.070E-06,0.256
2.080E-06,0.248
2.090E-06,0.256
2.100E-06,0.248
2.110E-06,0.256
2.120E-06,0.256
2.130E-06,0.256
2.140E-06,0.256
2.150E-06,0.248
2.160E-06,0.256
2.170E-06,0.248
2.180E-06,0.248
2.190E-06,0.248
2.200E-06,0.248
2.210E-06,0.248
2.220E-06,0.248
2.230E-06,0.240
2.240E-06,0.240
2.250E-06,0.232
2.260E-06,0.248
2.270E-06,0.248
2.280E-06,0.240
2.290E-06,0.240
2.300E-06,0.248
2.310E-06,0.248
2.320E-06,0.240
2.330E-06,0.240
2.340E-06,0.248
2.350E-06,0.240
2.360E-06,0.248
2.370E-06,0.224
2.380E-06,0.224
2.390E-06,0.240
2.400E-06,0.232
2.410E-06,0.240
2.420E-06,0.240
2.430E-06,0.248
2.440E-06,0.224
2.450E-06,0.216
2.460E-06,0.224
2.470E-06,0.240
2.480E-06,0.232
2.490E-06,0.224
2.500E-06,0.224
2.510E-06,0.224
2.520E-06,0.224
2.530E-06,0.216
2.540E-06,0.216
2.550E-06,0.224
2.560E-06,0.232
2.570E-06,0.224
2.580E-06,0.216
2.590E-06,0.224
2.600E-06,0.224
2.610E-06,0.216
2.620E-06,0.208
2.630E-06,0.224
2.640E-06,0.224
2.650E-06,0.224
2.660E-06,0.208
2.670E-06,0.216
2.680E-06,0.216
2.690E-06,0.216
2.700E-06,0.208
2.710E-06,0.208
2.720E-06,0.208
2.730E-06,0.200
2.740E-06,0.208
2.750E-06,0.208
2.760E-06,0.208
2.770E-06,0.208
2.780E-06,0.208
2.790E-06,0.208
2.800E-06,0.208
2.810E-06,0.208
2.820E-06,0.208
2.830E-06,0.208
2.840E-06,0.200
2.850E-06,0.208
2.860E-06,0.192
2.870E-06,0.192
2.880E-06,0.192
2.890E-06,0.208
2.900E-06,0.208
2.910E-06,0.192
2.920E-06,0.192
2.930E-06,0.192
2.940E-06,0.192
2.950E-06,0.192
2.960E-06,0.200
2.970E-06,0.192
2.980E-06,0.192
2.990E-06,0.192
3.000E-06,0.184
3.010E-06,0.184
3.020E-06,0.184
3.030E-06,0.184
3.040E-06,0.192
3.050E-06,0.184
3.060E-06,0.184
3.070E-06,0.184
3.080E-06,0.192
3.090E-06,0.184
3.100E-06,0.184
3.110E-06,0.184
3.120E-06,0.192
3.130E-06,0.184
3.140E-06,0.192
3.150E-06,0.184
3.160E-06,0.184
3.170E-06,0.184
3.180E-06,0.176
3.190E-06,0.176
3.200E-06,0.176
3.210E-06,0.184
3.220E-06,0.184
3.230E-06,0.184
3.240E-06,0.176
3.250E-06,0.184
3.260E-06,0.176
3.270E-06,0.184
3.280E-06,0.184
3.290E-06,0.176
3.300E-06,0.184
3.310E-06,0.184
3.320E-06,0.176
3.330E-06,0.176
3.340E-06,0.168
3.350E-06,0.160
3.360E-06,0.168
3.370E-06,0.168
3.380E-06,0.184
3.390E-06,0.176
3.400E-06,0.176
3.410E-06,0.168
3.420E-06,0.176
3.430E-06,0.176
3.440E-06,0.176
3.450E-06,0.168
3.460E-06,0.160
3.470E-06,0.160
3.480E-06,0.168
3.490E-06,0.168
3.500E-06,0.152
3.510E-06,0.152
3.520E-06,0.152
3.530E-06,0.152
3.540E-06,0.152
3.550E-06,0.152
3.560E-06,0.152
3.570E-06,0.160
3.580E-06,0.152
3.590E-06,0.152
3.600E-06,0.152
3.610E-06,0.152
3.620E-06,0.160
3.630E-06,0.152
3.640E-06,0.152
