mediciones/6-26/20.0/WaveData59265.csv

#timebase=2000000(ps)
,#voltbase=200000(mv/100)
#size=4000
-8.150E-06,-0.008
-8.140E-06,0.000
-8.130E-06,0.000
-8.120E-06,0.000
-8.110E-06,0.000
-8.100E-06,-0.008
-8.090E-06,0.000
-8.080E-06,-0.008
-8.070E-06,0.000
-8.060E-06,0.000
-8.050E-06,0.000
-8.040E-06,0.000
-8.030E-06,0.000
-8.020E-06,0.000
-8.010E-06,-0.008
-8.000E-06,-0.008
-7.990E-06,0.000
-7.980E-06,0.000
-7.970E-06,0.000
-7.960E-06,0.000
-7.950E-06,0.008
-7.940E-06,0.008
-7.930E-06,0.008
-7.920E-06,0.008
-7.910E-06,0.008
-7.900E-06,0.008
-7.890E-06,0.016
-7.880E-06,0.008
-7.870E-06,-0.008
-7.860E-06,-0.008
-7.850E-06,0.000
-7.840E-06,0.008
-7.830E-06,0.008
-7.820E-06,0.008
-7.810E-06,-0.008
-7.800E-06,0.000
-7.790E-06,0.000
-7.780E-06,0.000
-7.770E-06,0.000
-7.760E-06,0.000
-7.750E-06,0.000
-7.740E-06,-0.008
-7.730E-06,0.000
-7.720E-06,-0.008
-7.710E-06,-0.008
-7.700E-06,0.000
-7.690E-06,0.008
-7.680E-06,-0.008
-7.670E-06,-0.008
-7.660E-06,0.000
-7.650E-06,0.008
-7.640E-06,-0.008
-7.630E-06,0.000
-7.620E-06,0.000
-7.610E-06,0.000
-7.600E-06,0.000
-7.590E-06,0.000
-7.580E-06,0.000
-7.570E-06,0.000
-7.560E-06,0.008
-7.550E-06,0.008
-7.540E-06,0.008
-7.530E-06,0.008
-7.520E-06,-0.008
-7.510E-06,0.000
-7.500E-06,0.000
-7.490E-06,0.000
-7.480E-06,0.000
-7.470E-06,-0.008
-7.460E-06,-0.008
-7.450E-06,0.000
-7.440E-06,0.008
-7.430E-06,0.008
-7.420E-06,-0.008
-7.410E-06,-0.008
-7.400E-06,0.000
-7.390E-06,-0.008
-7.380E-06,0.000
-7.370E-06,0.000
-7.360E-06,0.008
-7.350E-06,0.000
-7.340E-06,-0.008
-7.330E-06,-0.008
-7.320E-06,0.000
-7.310E-06,0.000
-7.300E-06,0.000
-7.290E-06,0.000
-7.280E-06,0.000
-7.270E-06,-0.008
-7.260E-06,0.008
-7.250E-06,-0.008
-7.240E-06,0.008
-7.230E-06,0.000
-7.220E-06,0.000
-7.210E-06,0.008
-7.200E-06,-0.008
-7.190E-06,0.000
-7.180E-06,0.000
-7.170E-06,0.000
-7.160E-06,-0.008
-7.150E-06,0.000
-7.140E-06,0.000
-7.130E-06,0.000
-7.120E-06,-0.008
-7.110E-06,0.000
-7.100E-06,0.000
-7.090E-06,0.000
-7.080E-06,0.000
-7.070E-06,0.000
-7.060E-06,0.000
-7.050E-06,0.008
-7.040E-06,0.000
-7.030E-06,0.000
-7.020E-06,0.000
-7.010E-06,0.000
-7.000E-06,0.000
-6.990E-06,0.008
-6.980E-06,0.000
-6.970E-06,0.000
-6.960E-06,0.000
-6.950E-06,0.000
-6.940E-06,0.000
-6.930E-06,0.000
-6.920E-06,0.000
-6.910E-06,-0.008
-6.900E-06,0.000
-6.890E-06,0.000
-6.880E-06,0.000
-6.870E-06,0.000
-6.860E-06,0.000
-6.850E-06,-0.008
-6.840E-06,0.000
-6.830E-06,-0.008
-6.820E-06,0.000
-6.810E-06,0.000
-6.800E-06,0.000
-6.790E-06,0.000
-6.780E-06,0.000
-6.770E-06,-0.008
-6.760E-06,-0.008
-6.750E-06,0.000
-6.740E-06,-0.008
-6.730E-06,0.008
-6.720E-06,0.000
-6.710E-06,0.000
-6.700E-06,0.008
-6.690E-06,0.008
-6.680E-06,-0.008
-6.670E-06,-0.008
-6.660E-06,0.000
-6.650E-06,0.008
-6.640E-06,-0.008
-6.630E-06,0.000
-6.620E-06,0.000
-6.610E-06,0.000
-6.600E-06,0.000
-6.590E-06,0.000
-6.580E-06,0.000
-6.570E-06,-0.008
-6.560E-06,0.000
-6.550E-06,0.000
-6.540E-06,0.000
-6.530E-06,0.008
-6.520E-06,-0.008
-6.510E-06,-0.008
-6.500E-06,0.008
-6.490E-06,-0.008
-6.480E-06,0.000
-6.470E-06,0.000
-6.460E-06,0.008
-6.450E-06,0.000
-6.440E-06,0.000
-6.430E-06,0.000
-6.420E-06,0.000
-6.410E-06,0.000
-6.400E-06,-0.008
-6.390E-06,0.000
-6.380E-06,-0.008
-6.370E-06,-0.008
-6.360E-06,0.000
-6.350E-06,-0.008
-6.340E-06,0.000
-6.330E-06,-0.008
-6.320E-06,0.000
-6.310E-06,0.000
-6.300E-06,0.000
-6.290E-06,0.000
-6.280E-06,0.000
-6.270E-06,0.000
-6.260E-06,0.000
-6.250E-06,-0.008
-6.240E-06,0.008
-6.230E-06,-0.008
-6.220E-06,0.000
-6.210E-06,0.000
-6.200E-06,0.000
-6.190E-06,0.000
-6.180E-06,0.000
-6.170E-06,0.000
-6.160E-06,0.000
-6.150E-06,0.000
-6.140E-06,0.000
-6.130E-06,0.000
-6.120E-06,0.000
-6.110E-06,0.000
-6.100E-06,0.008
-6.090E-06,0.000
-6.080E-06,-0.008
-6.070E-06,0.000
-6.060E-06,-0.008
-6.050E-06,-0.008
-6.040E-06,0.000
-6.030E-06,0.008
-6.020E-06,0.000
-6.010E-06,0.000
-6.000E-06,0.000
-5.990E-06,0.000
-5.980E-06,0.000
-5.970E-06,0.000
-5.960E-06,0.000
-5.950E-06,-0.008
-5.940E-06,0.000
-5.930E-06,0.000
-5.920E-06,0.000
-5.910E-06,-0.008
-5.900E-06,0.000
-5.890E-06,0.000
-5.880E-06,0.000
-5.870E-06,0.000
-5.860E-06,0.000
-5.850E-06,0.000
-5.840E-06,0.000
-5.830E-06,-0.008
-5.820E-06,0.000
-5.810E-06,0.000
-5.800E-06,0.000
-5.790E-06,0.008
-5.780E-06,0.008
-5.770E-06,0.008
-5.760E-06,-0.008
-5.750E-06,0.000
-5.740E-06,0.000
-5.730E-06,0.000
-5.720E-06,0.000
-5.710E-06,0.000
-5.700E-06,0.000
-5.690E-06,0.000
-5.680E-06,0.000
-5.670E-06,0.000
-5.660E-06,0.008
-5.650E-06,0.008
-5.640E-06,0.016
-5.630E-06,-0.008
-5.620E-06,0.000
-5.610E-06,0.000
-5.600E-06,0.000
-5.590E-06,0.016
-5.580E-06,0.000
-5.570E-06,0.000
-5.560E-06,0.000
-5.550E-06,0.000
-5.540E-06,-0.008
-5.530E-06,0.000
-5.520E-06,0.008
-5.510E-06,0.008
-5.500E-06,0.008
-5.490E-06,-0.008
-5.480E-06,-0.008
-5.470E-06,0.000
-5.460E-06,0.000
-5.450E-06,0.000
-5.440E-06,0.000
-5.430E-06,0.008
-5.420E-06,-0.008
-5.410E-06,0.000
-5.400E-06,0.000
-5.390E-06,0.008
-5.380E-06,0.000
-5.370E-06,-0.008
-5.360E-06,0.000
-5.350E-06,0.000
-5.340E-06,0.000
-5.330E-06,0.000
-5.320E-06,0.008
-5.310E-06,-0.008
-5.300E-06,0.008
-5.290E-06,0.000
-5.280E-06,0.000
-5.270E-06,0.000
-5.260E-06,0.000
-5.250E-06,0.008
-5.240E-06,-0.008
-5.230E-06,0.000
-5.220E-06,0.000
-5.210E-06,0.000
-5.200E-06,0.000
-5.190E-06,0.000
-5.180E-06,0.000
-5.170E-06,0.000
-5.160E-06,0.000
-5.150E-06,0.008
-5.140E-06,-0.008
-5.130E-06,0.000
-5.120E-06,0.000
-5.110E-06,0.000
-5.100E-06,-0.008
-5.090E-06,0.000
-5.080E-06,0.000
-5.070E-06,0.000
-5.060E-06,-0.008
-5.050E-06,0.000
-5.040E-06,-0.008
-5.030E-06,0.000
-5.020E-06,0.000
-5.010E-06,0.000
-5.000E-06,0.000
-4.990E-06,0.000
-4.980E-06,0.000
-4.970E-06,0.000
-4.960E-06,0.000
-4.950E-06,0.008
-4.940E-06,-0.008
-4.930E-06,-0.008
-4.920E-06,0.000
-4.910E-06,0.016
-4.900E-06,-0.008
-4.890E-06,-0.008
-4.880E-06,0.000
-4.870E-06,0.008
-4.860E-06,-0.008
-4.850E-06,0.000
-4.840E-06,0.000
-4.830E-06,0.000
-4.820E-06,0.008
-4.810E-06,-0.008
-4.800E-06,-0.008
-4.790E-06,0.008
-4.780E-06,0.008
-4.770E-06,0.008
-4.760E-06,0.008
-4.750E-06,0.008
-4.740E-06,-0.008
-4.730E-06,-0.008
-4.720E-06,0.000
-4.710E-06,-0.008
-4.700E-06,0.000
-4.690E-06,-0.008
-4.680E-06,0.000
-4.670E-06,0.008
-4.660E-06,-0.008
-4.650E-06,0.000
-4.640E-06,0.000
-4.630E-06,-0.008
-4.620E-06,0.000
-4.610E-06,0.000
-4.600E-06,0.000
-4.590E-06,0.000
-4.580E-06,0.000
-4.570E-06,0.000
-4.560E-06,0.000
-4.550E-06,-0.008
-4.540E-06,0.000
-4.530E-06,-0.008
-4.520E-06,-0.008
-4.510E-06,0.000
-4.500E-06,-0.008
-4.490E-06,0.000
-4.480E-06,-0.008
-4.470E-06,0.000
-4.460E-06,0.000
-4.450E-06,0.000
-4.440E-06,0.000
-4.430E-06,0.000
-4.420E-06,-0.008
-4.410E-06,0.000
-4.400E-06,-0.008
-4.390E-06,0.000
-4.380E-06,0.008
-4.370E-06,0.008
-4.360E-06,0.008
-4.350E-06,0.016
-4.340E-06,0.008
-4.330E-06,-0.008
-4.320E-06,0.008
-4.310E-06,0.000
-4.300E-06,0.000
-4.290E-06,0.000
-4.280E-06,-0.008
-4.270E-06,0.008
-4.260E-06,0.000
-4.250E-06,0.008
-4.240E-06,0.000
-4.230E-06,0.000
-4.220E-06,0.000
-4.210E-06,0.000
-4.200E-06,-0.008
-4.190E-06,0.000
-4.180E-06,0.000
-4.170E-06,0.000
-4.160E-06,-0.008
-4.150E-06,0.000
-4.140E-06,0.008
-4.130E-06,-0.008
-4.120E-06,0.000
-4.110E-06,0.000
-4.100E-06,0.000
-4.090E-06,0.000
-4.080E-06,0.000
-4.070E-06,-0.008
-4.060E-06,-0.008
-4.050E-06,0.000
-4.040E-06,-0.008
-4.030E-06,0.000
-4.020E-06,0.000
-4.010E-06,0.016
-4.000E-06,0.016
-3.990E-06,0.008
-3.980E-06,0.000
-3.970E-06,-0.008
-3.960E-06,-0.016
-3.950E-06,0.008
-3.940E-06,-0.008
-3.930E-06,0.008
-3.920E-06,0.016
-3.910E-06,0.008
-3.900E-06,0.000
-3.890E-06,0.000
-3.880E-06,-0.008
-3.870E-06,0.000
-3.860E-06,0.000
-3.850E-06,0.008
-3.840E-06,0.008
-3.830E-06,0.000
-3.820E-06,0.000
-3.810E-06,0.000
-3.800E-06,0.000
-3.790E-06,0.008
-3.780E-06,0.008
-3.770E-06,-0.008
-3.760E-06,0.000
-3.750E-06,-0.008
-3.740E-06,0.000
-3.730E-06,0.000
-3.720E-06,0.000
-3.710E-06,0.000
-3.700E-06,-0.008
-3.690E-06,0.000
-3.680E-06,0.000
-3.670E-06,0.000
-3.660E-06,-0.016
-3.650E-06,-0.008
-3.640E-06,0.040
-3.630E-06,0.264
-3.620E-06,0.784
-3.610E-06,1.072
-3.600E-06,1.080
-3.590E-06,1.080
-3.580E-06,1.072
-3.570E-06,0.136
-3.560E-06,-0.880
-3.550E-06,-1.040
-3.540E-06,-1.040
-3.530E-06,-1.040
-3.520E-06,-1.040
-3.510E-06,-1.040
-3.500E-06,-1.048
-3.490E-06,-1.040
-3.480E-06,-1.040
-3.470E-06,-0.648
-3.460E-06,-0.144
-3.450E-06,0.104
-3.440E-06,0.136
-3.430E-06,0.168
-3.420E-06,0.160
-3.410E-06,0.296
-3.400E-06,0.400
-3.390E-06,0.456
-3.380E-06,0.472
-3.370E-06,0.416
-3.360E-06,0.376
-3.350E-06,0.400
-3.340E-06,0.440
-3.330E-06,0.552
-3.320E-06,0.568
-3.310E-06,0.552
-3.300E-06,0.424
-3.290E-06,0.224
-3.280E-06,0.016
-3.270E-06,-0.120
-3.260E-06,-0.224
-3.250E-06,-0.264
-3.240E-06,-0.240
-3.230E-06,-0.192
-3.220E-06,-0.104
-3.210E-06,-0.008
-3.200E-06,0.096
-3.190E-06,0.248
-3.180E-06,0.392
-3.170E-06,0.528
-3.160E-06,0.632
-3.150E-06,0.680
-3.140E-06,0.648
-3.130E-06,0.576
-3.120E-06,0.416
-3.110E-06,0.280
-3.100E-06,0.144
-3.090E-06,0.000
-3.080E-06,-0.136
-3.070E-06,-0.280
-3.060E-06,-0.448
-3.050E-06,-0.592
-3.040E-06,-0.704
-3.030E-06,-0.824
-3.020E-06,-0.872
-3.010E-06,-0.896
-3.000E-06,-0.872
-2.990E-06,-0.784
-2.980E-06,-0.632
-2.970E-06,-0.456
-2.960E-06,-0.296
-2.950E-06,-0.112
-2.940E-06,0.024
-2.930E-06,0.176
-2.920E-06,0.320
-2.910E-06,0.416
-2.900E-06,0.504
-2.890E-06,0.520
-2.880E-06,0.496
-2.870E-06,0.440
-2.860E-06,0.360
-2.850E-06,0.272
-2.840E-06,0.176
-2.830E-06,0.088
-2.820E-06,0.016
-2.810E-06,-0.056
-2.800E-06,-0.088
-2.790E-06,-0.096
-2.780E-06,-0.104
-2.770E-06,-0.112
-2.760E-06,-0.120
-2.750E-06,-0.136
-2.740E-06,-0.128
-2.730E-06,-0.144
-2.720E-06,-0.144
-2.710E-06,-0.104
-2.700E-06,-0.048
-2.690E-06,0.032
-2.680E-06,0.120
-2.670E-06,0.184
-2.660E-06,0.240
-2.650E-06,0.248
-2.640E-06,0.248
-2.630E-06,0.272
-2.620E-06,0.232
-2.610E-06,0.208
-2.600E-06,0.152
-2.590E-06,0.096
-2.580E-06,0.040
-2.570E-06,0.000
-2.560E-06,-0.040
-2.550E-06,-0.064
-2.540E-06,-0.088
-2.530E-06,-0.096
-2.520E-06,-0.112
-2.510E-06,-0.088
-2.500E-06,-0.088
-2.490E-06,-0.056
-2.480E-06,-0.048
-2.470E-06,-0.032
-2.460E-06,-0.032
-2.450E-06,-0.016
-2.440E-06,-0.008
-2.430E-06,0.000
-2.420E-06,0.000
-2.410E-06,0.000
-2.400E-06,0.000
-2.390E-06,0.000
-2.380E-06,0.000
-2.370E-06,0.008
-2.360E-06,0.008
-2.350E-06,0.024
-2.340E-06,0.016
-2.330E-06,0.048
-2.320E-06,0.048
-2.310E-06,0.064
-2.300E-06,0.064
-2.290E-06,0.032
-2.280E-06,0.040
-2.270E-06,0.064
-2.260E-06,0.048
-2.250E-06,0.072
-2.240E-06,0.056
-2.230E-06,0.064
-2.220E-06,0.048
-2.210E-06,0.008
-2.200E-06,0.048
-2.190E-06,0.072
-2.180E-06,0.040
-2.170E-06,0.048
-2.160E-06,0.008
-2.150E-06,0.000
-2.140E-06,0.096
-2.130E-06,0.200
-2.120E-06,0.280
-2.110E-06,0.280
-2.100E-06,0.152
-2.090E-06,0.040
-2.080E-06,0.016
-2.070E-06,0.040
-2.060E-06,0.112
-2.050E-06,0.168
-2.040E-06,0.168
-2.030E-06,0.144
-2.020E-06,0.064
-2.010E-06,0.016
-2.000E-06,-0.008
-1.990E-06,0.016
-1.980E-06,0.032
-1.970E-06,0.024
-1.960E-06,0.000
-1.950E-06,-0.048
-1.940E-06,-0.080
-1.930E-06,-0.112
-1.920E-06,-0.136
-1.910E-06,-0.120
-1.900E-06,-0.096
-1.890E-06,-0.088
-1.880E-06,-0.072
-1.870E-06,-0.040
-1.860E-06,-0.040
-1.850E-06,-0.016
-1.840E-06,0.016
-1.830E-06,0.056
-1.820E-06,0.104
-1.810E-06,0.136
-1.800E-06,0.152
-1.790E-06,0.152
-1.780E-06,0.128
-1.770E-06,0.120
-1.760E-06,0.104
-1.750E-06,0.112
-1.740E-06,0.112
-1.730E-06,0.136
-1.720E-06,0.136
-1.710E-06,0.104
-1.700E-06,0.072
-1.690E-06,0.040
-1.680E-06,0.016
-1.670E-06,0.040
-1.660E-06,0.040
-1.650E-06,0.056
-1.640E-06,0.064
-1.630E-06,0.064
-1.620E-06,0.032
-1.610E-06,0.016
-1.600E-06,0.024
-1.590E-06,0.048
-1.580E-06,0.072
-1.570E-06,0.104
-1.560E-06,0.112
-1.550E-06,0.096
-1.540E-06,0.088
-1.530E-06,0.064
-1.520E-06,0.072
-1.510E-06,0.040
-1.500E-06,0.024
-1.490E-06,0.016
-1.480E-06,0.000
-1.470E-06,-0.008
-1.460E-06,-0.024
-1.450E-06,0.000
-1.440E-06,0.040
-1.430E-06,0.120
-1.420E-06,0.184
-1.410E-06,0.184
-1.400E-06,0.096
-1.390E-06,0.016
-1.380E-06,-0.016
-1.370E-06,0.024
-1.360E-06,0.088
-1.350E-06,0.144
-1.340E-06,0.160
-1.330E-06,0.136
-1.320E-06,0.080
-1.310E-06,0.032
-1.300E-06,0.024
-1.290E-06,0.048
-1.280E-06,0.040
-1.270E-06,0.008
-1.260E-06,-0.064
-1.250E-06,-0.224
-1.240E-06,-0.368
-1.230E-06,-0.408
-1.220E-06,-0.360
-1.210E-06,-0.104
-1.200E-06,0.144
-1.190E-06,0.360
-1.180E-06,0.384
-1.170E-06,0.264
-1.160E-06,0.120
-1.150E-06,0.080
-1.140E-06,0.152
-1.130E-06,0.296
-1.120E-06,0.416
-1.110E-06,0.448
-1.100E-06,0.384
-1.090E-06,0.296
-1.080E-06,0.176
-1.070E-06,0.136
-1.060E-06,0.144
-1.050E-06,0.144
-1.040E-06,0.120
-1.030E-06,0.088
-1.020E-06,0.048
-1.010E-06,0.016
-1.000E-06,-0.016
-9.900E-07,-0.008
-9.800E-07,-0.008
-9.700E-07,0.024
-9.600E-07,0.008
-9.500E-07,-0.008
-9.400E-07,-0.008
-9.300E-07,-0.016
-9.200E-07,-0.008
-9.100E-07,0.032
-9.000E-07,0.048
-8.900E-07,0.088
-8.800E-07,0.104
-8.700E-07,0.112
-8.600E-07,0.200
-8.500E-07,0.224
-8.400E-07,0.200
-8.300E-07,0.152
-8.200E-07,0.040
-8.100E-07,-0.032
-8.000E-07,-0.032
-7.900E-07,-0.008
-7.800E-07,0.040
-7.700E-07,0.040
-7.600E-07,-0.008
-7.500E-07,-0.064
-7.400E-07,-0.096
-7.300E-07,-0.064
-7.200E-07,-0.032
-7.100E-07,0.000
-7.000E-07,0.064
-6.900E-07,0.072
-6.800E-07,0.088
-6.700E-07,0.104
-6.600E-07,0.120
-6.500E-07,0.144
-6.400E-07,0.192
-6.300E-07,0.232
-6.200E-07,0.224
-6.100E-07,0.240
-6.000E-07,0.216
-5.900E-07,0.168
-5.800E-07,0.160
-5.700E-07,0.136
-5.600E-07,0.096
-5.500E-07,0.080
-5.400E-07,0.016
-5.300E-07,-0.016
-5.200E-07,-0.016
-5.100E-07,-0.024
-5.000E-07,0.016
-4.900E-07,0.024
-4.800E-07,0.024
-4.700E-07,0.056
-4.600E-07,0.040
-4.500E-07,0.088
-4.400E-07,0.160
-4.300E-07,0.208
-4.200E-07,0.248
-4.100E-07,0.240
-4.000E-07,0.232
-3.900E-07,0.216
-3.800E-07,0.232
-3.700E-07,0.240
-3.600E-07,0.256
-3.500E-07,0.248
-3.400E-07,0.224
-3.300E-07,0.192
-3.200E-07,0.224
-3.100E-07,0.208
-3.000E-07,0.176
-2.900E-07,0.064
-2.800E-07,0.240
-2.700E-07,0.568
-2.600E-07,0.072
-2.500E-07,0.368
-2.400E-07,0.320
-2.300E-07,0.168
-2.200E-07,0.968
-2.100E-07,1.080
-2.000E-07,0.808
-1.900E-07,0.400
-1.800E-07,-0.304
-1.700E-07,-0.384
-1.600E-07,0.040
-1.500E-07,0.312
-1.400E-07,0.480
-1.300E-07,0.288
-1.200E-07,-0.232
-1.100E-07,-0.576
-1.000E-07,-0.656
-9.000E-08,-0.456
-8.000E-08,-0.104
-7.000E-08,0.240
-6.000E-08,0.264
-5.000E-08,0.080
-4.000E-08,-0.752
-3.000E-08,-0.664
-2.000E-08,-0.904
-1.000E-08,-0.128
0.000E+00,0.904
1.000E-08,1.080
2.000E-08,1.080
3.000E-08,1.080
4.000E-08,0.440
5.000E-08,0.296
6.000E-08,0.192
7.000E-08,0.584
8.000E-08,1.024
9.000E-08,1.032
1.000E-07,0.768
1.100E-07,0.680
1.200E-07,0.040
1.300E-07,-0.320
1.400E-07,-0.048
1.500E-07,-0.136
1.600E-07,0.224
1.700E-07,0.520
1.800E-07,0.120
1.900E-07,-0.024
2.000E-07,-0.104
2.100E-07,-0.368
2.200E-07,0.000
2.300E-07,0.032
2.400E-07,-0.024
2.500E-07,0.096
2.600E-07,-0.032
2.700E-07,-0.224
2.800E-07,-0.192
2.900E-07,-0.240
3.000E-07,-0.224
3.100E-07,-0.088
3.200E-07,-0.104
3.300E-07,-0.120
3.400E-07,-0.384
3.500E-07,-0.232
3.600E-07,-0.264
3.700E-07,-0.240
3.800E-07,0.008
3.900E-07,-0.112
4.000E-07,-0.072
4.100E-07,-0.016
4.200E-07,-0.096
4.300E-07,0.112
4.400E-07,0.184
4.500E-07,0.136
4.600E-07,0.296
4.700E-07,0.344
4.800E-07,0.376
4.900E-07,0.432
5.000E-07,0.424
5.100E-07,0.392
5.200E-07,0.424
5.300E-07,0.360
5.400E-07,0.376
5.500E-07,0.392
5.600E-07,0.384
5.700E-07,0.360
5.800E-07,0.312
5.900E-07,0.224
6.000E-07,0.136
6.100E-07,0.072
6.200E-07,0.056
6.300E-07,0.040
6.400E-07,0.000
6.500E-07,0.024
6.600E-07,0.040
6.700E-07,-0.016
6.800E-07,-0.008
6.900E-07,0.000
7.000E-07,-0.008
7.100E-07,0.032
7.200E-07,0.016
7.300E-07,0.032
7.400E-07,0.040
7.500E-07,0.016
7.600E-07,0.040
7.700E-07,0.040
7.800E-07,0.024
7.900E-07,0.032
8.000E-07,0.024
8.100E-07,0.016
8.200E-07,-0.008
8.300E-07,0.000
8.400E-07,0.000
8.500E-07,0.000
8.600E-07,0.000
8.700E-07,-0.040
8.800E-07,-0.072
8.900E-07,-0.096
9.000E-07,-0.112
9.100E-07,-0.112
9.200E-07,-0.112
9.300E-07,-0.160
9.400E-07,-0.200
9.500E-07,-0.264
9.600E-07,-0.368
9.700E-07,-0.416
9.800E-07,-0.424
9.900E-07,-0.336
1.000E-06,-0.240
1.010E-06,0.088
1.020E-06,0.536
1.030E-06,0.912
1.040E-06,1.080
1.050E-06,1.032
1.060E-06,0.776
1.070E-06,0.520
1.080E-06,0.376
1.090E-06,0.384
1.100E-06,0.504
1.110E-06,0.624
1.120E-06,0.592
1.130E-06,0.480
1.140E-06,0.296
1.150E-06,0.104
1.160E-06,0.016
1.170E-06,0.024
1.180E-06,0.080
1.190E-06,0.096
1.200E-06,0.040
1.210E-06,-0.088
1.220E-06,-0.256
1.230E-06,-0.432
1.240E-06,-0.600
1.250E-06,-0.792
1.260E-06,-0.968
1.270E-06,-0.968
1.280E-06,-0.776
1.290E-06,-0.432
1.300E-06,0.000
1.310E-06,0.328
1.320E-06,0.424
1.330E-06,0.360
1.340E-06,0.184
1.350E-06,0.064
1.360E-06,0.072
1.370E-06,0.192
1.380E-06,0.408
1.390E-06,0.616
1.400E-06,0.664
1.410E-06,0.584
1.420E-06,0.368
1.430E-06,0.136
1.440E-06,0.016
1.450E-06,0.016
1.460E-06,0.032
1.470E-06,0.048
1.480E-06,0.000
1.490E-06,-0.104
1.500E-06,-0.192
1.510E-06,-0.208
1.520E-06,-0.176
1.530E-06,-0.096
1.540E-06,-0.032
1.550E-06,-0.008
1.560E-06,-0.032
1.570E-06,-0.088
1.580E-06,-0.160
1.590E-06,-0.208
1.600E-06,-0.192
1.610E-06,-0.272
1.620E-06,-0.264
1.630E-06,-0.280
1.640E-06,-0.440
1.650E-06,-0.568
1.660E-06,-0.656
1.670E-06,-0.696
1.680E-06,-0.552
1.690E-06,-0.352
1.700E-06,-0.072
1.710E-06,0.384
1.720E-06,0.760
1.730E-06,1.080
1.740E-06,1.072
1.750E-06,1.080
1.760E-06,1.080
1.770E-06,1.088
1.780E-06,1.088
1.790E-06,1.080
1.800E-06,1.080
1.810E-06,0.928
1.820E-06,0.712
1.830E-06,0.480
1.840E-06,0.280
1.850E-06,0.168
1.860E-06,0.136
1.870E-06,0.104
1.880E-06,0.064
1.890E-06,-0.056
1.900E-06,-0.176
1.910E-06,-0.272
1.920E-06,-0.328
1.930E-06,-0.360
1.940E-06,-0.408
1.950E-06,-0.496
1.960E-06,-0.664
1.970E-06,-0.856
1.980E-06,-1.008
1.990E-06,-1.040
2.000E-06,-1.040
2.010E-06,-1.048
2.020E-06,-0.960
2.030E-06,-1.032
2.040E-06,-1.008
2.050E-06,-0.872
2.060E-06,-0.608
2.070E-06,0.080
2.080E-06,0.568
2.090E-06,0.912
2.100E-06,1.048
2.110E-06,0.864
2.120E-06,0.504
2.130E-06,0.528
2.140E-06,0.568
2.150E-06,0.560
2.160E-06,1.008
2.170E-06,1.080
2.180E-06,1.088
2.190E-06,1.088
2.200E-06,1.080
2.210E-06,1.088
2.220E-06,1.080
2.230E-06,1.088
2.240E-06,1.080
2.250E-06,0.976
2.260E-06,0.952
2.270E-06,0.768
2.280E-06,0.720
2.290E-06,0.560
2.300E-06,0.232
2.310E-06,-0.048
2.320E-06,-0.352
2.330E-06,-0.640
2.340E-06,-0.784
2.350E-06,-0.968
2.360E-06,-1.040
2.370E-06,-1.032
2.380E-06,-1.040
2.390E-06,-1.048
2.400E-06,-1.040
2.410E-06,-1.032
2.420E-06,-1.040
2.430E-06,-1.048
2.440E-06,-1.040
2.450E-06,-1.032
2.460E-06,-1.040
2.470E-06,-1.032
2.480E-06,-1.040
2.490E-06,-0.552
2.500E-06,-0.144
2.510E-06,-0.376
2.520E-06,-0.728
2.530E-06,-1.016
2.540E-06,-0.976
2.550E-06,-0.600
2.560E-06,-0.056
2.570E-06,0.552
2.580E-06,1.080
2.590E-06,1.080
2.600E-06,1.080
2.610E-06,1.080
2.620E-06,1.080
2.630E-06,1.072
2.640E-06,1.080
2.650E-06,1.080
2.660E-06,1.088
2.670E-06,1.080
2.680E-06,1.080
2.690E-06,1.080
2.700E-06,1.072
2.710E-06,1.080
2.720E-06,1.088
2.730E-06,1.008
2.740E-06,0.168
2.750E-06,-0.408
2.760E-06,-0.624
2.770E-06,-0.592
2.780E-06,-0.632
2.790E-06,-0.664
2.800E-06,-1.048
2.810E-06,-1.040
2.820E-06,-1.040
2.830E-06,-1.040
2.840E-06,-1.048
2.850E-06,-1.040
2.860E-06,-1.032
2.870E-06,-1.032
2.880E-06,-1.040
2.890E-06,-1.040
2.900E-06,-1.048
2.910E-06,-1.040
2.920E-06,-1.040
2.930E-06,-1.048
2.940E-06,-1.040
2.950E-06,-1.048
2.960E-06,-1.032
2.970E-06,-1.032
2.980E-06,-1.040
2.990E-06,-1.048
3.000E-06,-1.032
3.010E-06,-1.032
3.020E-06,-0.712
3.030E-06,-0.024
3.040E-06,0.600
3.050E-06,1.088
3.060E-06,1.080
3.070E-06,1.072
3.080E-06,1.080
3.090E-06,1.080
3.100E-06,1.080
3.110E-06,1.080
3.120E-06,1.080
3.130E-06,1.072
3.140E-06,1.080
3.150E-06,1.080
3.160E-06,1.088
3.170E-06,1.088
3.180E-06,1.008
3.190E-06,0.400
3.200E-06,-0.496
3.210E-06,-1.032
3.220E-06,-1.040
3.230E-06,-1.032
3.240E-06,-1.040
3.250E-06,-1.048
3.260E-06,-0.560
3.270E-06,0.160
3.280E-06,0.792
3.290E-06,1.088
3.300E-06,1.080
3.310E-06,1.088
3.320E-06,1.088
3.330E-06,1.080
3.340E-06,1.080
3.350E-06,1.080
3.360E-06,1.072
3.370E-06,1.080
3.380E-06,1.088
3.390E-06,1.080
3.400E-06,1.080
3.410E-06,1.072
3.420E-06,1.080
3.430E-06,1.080
3.440E-06,1.088
3.450E-06,1.088
3.460E-06,1.080
3.470E-06,1.080
3.480E-06,0.920
3.490E-06,0.808
3.500E-06,0.768
3.510E-06,0.736
3.520E-06,0.664
3.530E-06,0.640
3.540E-06,0.544
3.550E-06,0.536
3.560E-06,0.464
