mediciones/6-26/20.0/WaveData59271.csv

#timebase=2000000(ps)
,#voltbase=200000(mv/100)
#size=4000
-8.150E-06,-0.008
-8.140E-06,0.008
-8.130E-06,0.000
-8.120E-06,-0.008
-8.110E-06,0.000
-8.100E-06,0.000
-8.090E-06,0.000
-8.080E-06,0.000
-8.070E-06,0.008
-8.060E-06,-0.008
-8.050E-06,0.000
-8.040E-06,0.000
-8.030E-06,0.000
-8.020E-06,0.000
-8.010E-06,0.000
-8.000E-06,-0.008
-7.990E-06,0.000
-7.980E-06,0.000
-7.970E-06,0.008
-7.960E-06,0.008
-7.950E-06,-0.008
-7.940E-06,0.000
-7.930E-06,0.000
-7.920E-06,0.008
-7.910E-06,0.000
-7.900E-06,0.008
-7.890E-06,0.008
-7.880E-06,0.000
-7.870E-06,0.000
-7.860E-06,0.000
-7.850E-06,0.000
-7.840E-06,-0.008
-7.830E-06,0.008
-7.820E-06,0.000
-7.810E-06,0.008
-7.800E-06,0.000
-7.790E-06,0.008
-7.780E-06,0.016
-7.770E-06,0.008
-7.760E-06,0.008
-7.750E-06,-0.008
-7.740E-06,-0.008
-7.730E-06,0.008
-7.720E-06,0.000
-7.710E-06,0.016
-7.700E-06,0.016
-7.690E-06,-0.008
-7.680E-06,0.008
-7.670E-06,0.000
-7.660E-06,0.000
-7.650E-06,0.008
-7.640E-06,0.016
-7.630E-06,0.000
-7.620E-06,0.000
-7.610E-06,0.000
-7.600E-06,0.000
-7.590E-06,0.008
-7.580E-06,-0.008
-7.570E-06,0.016
-7.560E-06,0.008
-7.550E-06,0.008
-7.540E-06,0.016
-7.530E-06,0.008
-7.520E-06,0.000
-7.510E-06,0.000
-7.500E-06,0.000
-7.490E-06,0.016
-7.480E-06,0.008
-7.470E-06,0.008
-7.460E-06,0.008
-7.450E-06,0.000
-7.440E-06,0.000
-7.430E-06,0.000
-7.420E-06,0.000
-7.410E-06,0.000
-7.400E-06,0.008
-7.390E-06,0.000
-7.380E-06,-0.008
-7.370E-06,0.000
-7.360E-06,0.008
-7.350E-06,0.008
-7.340E-06,0.008
-7.330E-06,0.000
-7.320E-06,0.008
-7.310E-06,0.000
-7.300E-06,0.000
-7.290E-06,0.008
-7.280E-06,0.000
-7.270E-06,0.000
-7.260E-06,-0.008
-7.250E-06,0.000
-7.240E-06,0.000
-7.230E-06,0.000
-7.220E-06,0.000
-7.210E-06,0.000
-7.200E-06,0.000
-7.190E-06,0.000
-7.180E-06,0.016
-7.170E-06,0.016
-7.160E-06,0.000
-7.150E-06,0.000
-7.140E-06,0.000
-7.130E-06,0.000
-7.120E-06,-0.008
-7.110E-06,0.000
-7.100E-06,0.016
-7.090E-06,0.008
-7.080E-06,0.000
-7.070E-06,0.000
-7.060E-06,0.000
-7.050E-06,-0.008
-7.040E-06,-0.008
-7.030E-06,0.008
-7.020E-06,0.016
-7.010E-06,0.016
-7.000E-06,-0.008
-6.990E-06,0.000
-6.980E-06,0.000
-6.970E-06,0.000
-6.960E-06,-0.008
-6.950E-06,0.008
-6.940E-06,0.008
-6.930E-06,0.008
-6.920E-06,0.008
-6.910E-06,-0.008
-6.900E-06,0.000
-6.890E-06,0.000
-6.880E-06,0.016
-6.870E-06,0.016
-6.860E-06,0.024
-6.850E-06,0.008
-6.840E-06,0.008
-6.830E-06,0.016
-6.820E-06,0.008
-6.810E-06,0.000
-6.800E-06,0.000
-6.790E-06,0.008
-6.780E-06,0.008
-6.770E-06,0.008
-6.760E-06,0.008
-6.750E-06,0.016
-6.740E-06,0.016
-6.730E-06,0.016
-6.720E-06,0.000
-6.710E-06,0.000
-6.700E-06,0.000
-6.690E-06,0.000
-6.680E-06,-0.008
-6.670E-06,0.000
-6.660E-06,0.000
-6.650E-06,0.000
-6.640E-06,0.000
-6.630E-06,0.000
-6.620E-06,0.000
-6.610E-06,0.000
-6.600E-06,0.008
-6.590E-06,0.016
-6.580E-06,0.016
-6.570E-06,0.016
-6.560E-06,-0.008
-6.550E-06,-0.008
-6.540E-06,0.000
-6.530E-06,-0.008
-6.520E-06,0.000
-6.510E-06,0.008
-6.500E-06,0.000
-6.490E-06,0.000
-6.480E-06,0.000
-6.470E-06,0.000
-6.460E-06,0.008
-6.450E-06,0.016
-6.440E-06,0.000
-6.430E-06,0.000
-6.420E-06,0.000
-6.410E-06,0.000
-6.400E-06,-0.008
-6.390E-06,0.000
-6.380E-06,0.000
-6.370E-06,0.008
-6.360E-06,0.000
-6.350E-06,0.000
-6.340E-06,0.000
-6.330E-06,-0.008
-6.320E-06,0.000
-6.310E-06,0.008
-6.300E-06,0.000
-6.290E-06,0.008
-6.280E-06,-0.008
-6.270E-06,-0.008
-6.260E-06,0.000
-6.250E-06,0.016
-6.240E-06,-0.008
-6.230E-06,0.000
-6.220E-06,0.000
-6.210E-06,0.000
-6.200E-06,0.000
-6.190E-06,0.000
-6.180E-06,0.008
-6.170E-06,0.000
-6.160E-06,-0.008
-6.150E-06,0.000
-6.140E-06,0.016
-6.130E-06,0.016
-6.120E-06,0.000
-6.110E-06,0.000
-6.100E-06,0.008
-6.090E-06,-0.008
-6.080E-06,-0.008
-6.070E-06,0.000
-6.060E-06,0.016
-6.050E-06,0.000
-6.040E-06,0.008
-6.030E-06,0.000
-6.020E-06,0.008
-6.010E-06,0.000
-6.000E-06,0.000
-5.990E-06,0.008
-5.980E-06,0.008
-5.970E-06,0.008
-5.960E-06,0.000
-5.950E-06,0.000
-5.940E-06,0.000
-5.930E-06,-0.008
-5.920E-06,0.008
-5.910E-06,0.000
-5.900E-06,0.008
-5.890E-06,-0.008
-5.880E-06,-0.008
-5.870E-06,0.000
-5.860E-06,-0.008
-5.850E-06,0.000
-5.840E-06,0.016
-5.830E-06,-0.008
-5.820E-06,-0.008
-5.810E-06,0.000
-5.800E-06,0.000
-5.790E-06,0.000
-5.780E-06,0.000
-5.770E-06,0.008
-5.760E-06,0.016
-5.750E-06,0.016
-5.740E-06,0.008
-5.730E-06,-0.008
-5.720E-06,-0.008
-5.710E-06,0.000
-5.700E-06,-0.008
-5.690E-06,0.008
-5.680E-06,0.000
-5.670E-06,0.000
-5.660E-06,0.008
-5.650E-06,0.000
-5.640E-06,0.008
-5.630E-06,-0.008
-5.620E-06,0.000
-5.610E-06,0.008
-5.600E-06,0.000
-5.590E-06,0.000
-5.580E-06,0.000
-5.570E-06,0.008
-5.560E-06,0.008
-5.550E-06,0.016
-5.540E-06,0.008
-5.530E-06,-0.008
-5.520E-06,0.000
-5.510E-06,0.000
-5.500E-06,0.016
-5.490E-06,0.016
-5.480E-06,0.000
-5.470E-06,-0.008
-5.460E-06,0.000
-5.450E-06,0.000
-5.440E-06,0.000
-5.430E-06,0.000
-5.420E-06,0.008
-5.410E-06,0.008
-5.400E-06,0.016
-5.390E-06,-0.008
-5.380E-06,-0.008
-5.370E-06,0.000
-5.360E-06,-0.008
-5.350E-06,0.008
-5.340E-06,0.008
-5.330E-06,0.008
-5.320E-06,0.000
-5.310E-06,0.000
-5.300E-06,0.008
-5.290E-06,0.000
-5.280E-06,0.008
-5.270E-06,0.008
-5.260E-06,0.000
-5.250E-06,0.008
-5.240E-06,0.000
-5.230E-06,0.000
-5.220E-06,0.000
-5.210E-06,-0.008
-5.200E-06,0.008
-5.190E-06,0.008
-5.180E-06,-0.008
-5.170E-06,0.008
-5.160E-06,0.000
-5.150E-06,0.000
-5.140E-06,0.000
-5.130E-06,0.008
-5.120E-06,-0.008
-5.110E-06,-0.008
-5.100E-06,0.000
-5.090E-06,-0.008
-5.080E-06,0.000
-5.070E-06,-0.008
-5.060E-06,0.000
-5.050E-06,0.000
-5.040E-06,0.000
-5.030E-06,0.000
-5.020E-06,0.000
-5.010E-06,0.008
-5.000E-06,0.000
-4.990E-06,0.008
-4.980E-06,-0.008
-4.970E-06,0.000
-4.960E-06,0.000
-4.950E-06,0.000
-4.940E-06,0.008
-4.930E-06,0.008
-4.920E-06,0.000
-4.910E-06,0.000
-4.900E-06,0.000
-4.890E-06,-0.008
-4.880E-06,0.008
-4.870E-06,0.000
-4.860E-06,0.000
-4.850E-06,0.008
-4.840E-06,0.000
-4.830E-06,-0.008
-4.820E-06,0.000
-4.810E-06,0.008
-4.800E-06,-0.008
-4.790E-06,0.008
-4.780E-06,0.008
-4.770E-06,0.008
-4.760E-06,0.008
-4.750E-06,0.008
-4.740E-06,0.008
-4.730E-06,-0.008
-4.720E-06,0.000
-4.710E-06,0.008
-4.700E-06,0.008
-4.690E-06,0.000
-4.680E-06,-0.008
-4.670E-06,-0.008
-4.660E-06,0.000
-4.650E-06,-0.008
-4.640E-06,0.000
-4.630E-06,0.024
-4.620E-06,0.008
-4.610E-06,-0.008
-4.600E-06,0.000
-4.590E-06,-0.008
-4.580E-06,0.008
-4.570E-06,0.016
-4.560E-06,0.000
-4.550E-06,0.000
-4.540E-06,0.000
-4.530E-06,0.008
-4.520E-06,-0.008
-4.510E-06,0.000
-4.500E-06,0.000
-4.490E-06,0.008
-4.480E-06,0.008
-4.470E-06,0.000
-4.460E-06,0.000
-4.450E-06,0.000
-4.440E-06,-0.008
-4.430E-06,0.000
-4.420E-06,0.008
-4.410E-06,0.016
-4.400E-06,-0.008
-4.390E-06,0.008
-4.380E-06,0.000
-4.370E-06,0.000
-4.360E-06,0.000
-4.350E-06,0.000
-4.340E-06,0.008
-4.330E-06,0.016
-4.320E-06,0.016
-4.310E-06,-0.008
-4.300E-06,0.008
-4.290E-06,0.000
-4.280E-06,0.000
-4.270E-06,0.000
-4.260E-06,0.000
-4.250E-06,0.000
-4.240E-06,0.000
-4.230E-06,0.008
-4.220E-06,-0.008
-4.210E-06,0.000
-4.200E-06,0.008
-4.190E-06,0.008
-4.180E-06,-0.008
-4.170E-06,0.008
-4.160E-06,0.008
-4.150E-06,0.008
-4.140E-06,0.000
-4.130E-06,0.000
-4.120E-06,0.000
-4.110E-06,0.000
-4.100E-06,0.008
-4.090E-06,0.008
-4.080E-06,0.016
-4.070E-06,0.008
-4.060E-06,0.000
-4.050E-06,0.000
-4.040E-06,0.008
-4.030E-06,0.008
-4.020E-06,0.008
-4.010E-06,0.016
-4.000E-06,0.000
-3.990E-06,0.000
-3.980E-06,0.000
-3.970E-06,0.008
-3.960E-06,0.008
-3.950E-06,0.008
-3.940E-06,-0.008
-3.930E-06,0.008
-3.920E-06,0.008
-3.910E-06,0.000
-3.900E-06,-0.008
-3.890E-06,-0.008
-3.880E-06,0.000
-3.870E-06,-0.008
-3.860E-06,0.008
-3.850E-06,0.000
-3.840E-06,-0.008
-3.830E-06,0.000
-3.820E-06,0.008
-3.810E-06,0.008
-3.800E-06,-0.008
-3.790E-06,0.000
-3.780E-06,0.000
-3.770E-06,0.000
-3.760E-06,0.016
-3.750E-06,0.016
-3.740E-06,0.016
-3.730E-06,0.000
-3.720E-06,0.000
-3.710E-06,0.000
-3.700E-06,0.000
-3.690E-06,0.008
-3.680E-06,0.008
-3.670E-06,0.000
-3.660E-06,-0.008
-3.650E-06,-0.008
-3.640E-06,0.000
-3.630E-06,0.008
-3.620E-06,0.024
-3.610E-06,0.008
-3.600E-06,0.016
-3.590E-06,0.008
-3.580E-06,-0.008
-3.570E-06,0.000
-3.560E-06,0.000
-3.550E-06,0.000
-3.540E-06,-0.008
-3.530E-06,0.000
-3.520E-06,0.000
-3.510E-06,0.008
-3.500E-06,-0.008
-3.490E-06,0.000
-3.480E-06,0.000
-3.470E-06,0.000
-3.460E-06,0.008
-3.450E-06,0.008
-3.440E-06,0.016
-3.430E-06,0.016
-3.420E-06,0.008
-3.410E-06,-0.008
-3.400E-06,0.000
-3.390E-06,0.000
-3.380E-06,0.000
-3.370E-06,0.008
-3.360E-06,0.000
-3.350E-06,0.008
-3.340E-06,0.008
-3.330E-06,0.008
-3.320E-06,-0.016
-3.310E-06,0.000
-3.300E-06,-0.008
-3.290E-06,0.000
-3.280E-06,-0.008
-3.270E-06,-0.008
-3.260E-06,0.000
-3.250E-06,0.000
-3.240E-06,0.008
-3.230E-06,0.000
-3.220E-06,0.008
-3.210E-06,0.000
-3.200E-06,-0.008
-3.190E-06,0.000
-3.180E-06,0.000
-3.170E-06,0.008
-3.160E-06,0.016
-3.150E-06,0.016
-3.140E-06,0.008
-3.130E-06,-0.008
-3.120E-06,0.000
-3.110E-06,0.000
-3.100E-06,0.008
-3.090E-06,0.008
-3.080E-06,-0.008
-3.070E-06,0.000
-3.060E-06,-0.008
-3.050E-06,0.000
-3.040E-06,0.000
-3.030E-06,0.016
-3.020E-06,0.000
-3.010E-06,0.000
-3.000E-06,0.000
-2.990E-06,0.008
-2.980E-06,0.000
-2.970E-06,0.008
-2.960E-06,0.000
-2.950E-06,0.000
-2.940E-06,0.000
-2.930E-06,0.000
-2.920E-06,0.008
-2.910E-06,0.008
-2.900E-06,0.000
-2.890E-06,0.008
-2.880E-06,0.000
-2.870E-06,0.000
-2.860E-06,0.008
-2.850E-06,0.000
-2.840E-06,-0.008
-2.830E-06,0.008
-2.820E-06,0.000
-2.810E-06,0.000
-2.800E-06,0.000
-2.790E-06,0.000
-2.780E-06,-0.008
-2.770E-06,0.008
-2.760E-06,0.008
-2.750E-06,0.008
-2.740E-06,0.016
-2.730E-06,0.000
-2.720E-06,0.008
-2.710E-06,-0.008
-2.700E-06,-0.008
-2.690E-06,0.000
-2.680E-06,0.016
-2.670E-06,0.016
-2.660E-06,0.008
-2.650E-06,0.000
-2.640E-06,0.000
-2.630E-06,0.000
-2.620E-06,0.000
-2.610E-06,0.008
-2.600E-06,0.016
-2.590E-06,0.016
-2.580E-06,0.000
-2.570E-06,0.000
-2.560E-06,-0.008
-2.550E-06,-0.008
-2.540E-06,0.008
-2.530E-06,0.016
-2.520E-06,0.016
-2.510E-06,0.008
-2.500E-06,0.000
-2.490E-06,-0.016
-2.480E-06,-0.008
-2.470E-06,0.000
-2.460E-06,0.008
-2.450E-06,0.008
-2.440E-06,-0.008
-2.430E-06,0.000
-2.420E-06,0.000
-2.410E-06,0.000
-2.400E-06,-0.008
-2.390E-06,0.000
-2.380E-06,0.000
-2.370E-06,0.000
-2.360E-06,0.000
-2.350E-06,0.016
-2.340E-06,0.016
-2.330E-06,0.016
-2.320E-06,-0.008
-2.310E-06,-0.008
-2.300E-06,0.008
-2.290E-06,0.024
-2.280E-06,0.016
-2.270E-06,0.016
-2.260E-06,0.016
-2.250E-06,0.008
-2.240E-06,0.008
-2.230E-06,0.024
-2.220E-06,0.024
-2.210E-06,0.008
-2.200E-06,0.016
-2.190E-06,0.008
-2.180E-06,0.008
-2.170E-06,0.024
-2.160E-06,0.032
-2.150E-06,0.032
-2.140E-06,0.008
-2.130E-06,0.000
-2.120E-06,0.008
-2.110E-06,0.008
-2.100E-06,0.016
-2.090E-06,0.024
-2.080E-06,0.016
-2.070E-06,0.008
-2.060E-06,0.000
-2.050E-06,0.000
-2.040E-06,0.016
-2.030E-06,0.016
-2.020E-06,0.008
-2.010E-06,0.008
-2.000E-06,0.008
-1.990E-06,0.000
-1.980E-06,0.000
-1.970E-06,0.000
-1.960E-06,0.008
-1.950E-06,0.000
-1.940E-06,0.008
-1.930E-06,-0.008
-1.920E-06,-0.008
-1.910E-06,0.008
-1.900E-06,0.008
-1.890E-06,0.016
-1.880E-06,-0.008
-1.870E-06,0.008
-1.860E-06,0.008
-1.850E-06,0.000
-1.840E-06,0.008
-1.830E-06,0.008
-1.820E-06,0.008
-1.810E-06,0.008
-1.800E-06,-0.008
-1.790E-06,-0.008
-1.780E-06,-0.008
-1.770E-06,0.000
-1.760E-06,0.040
-1.750E-06,0.040
-1.740E-06,0.040
-1.730E-06,0.024
-1.720E-06,0.000
-1.710E-06,0.000
-1.700E-06,0.008
-1.690E-06,0.032
-1.680E-06,0.064
-1.670E-06,0.072
-1.660E-06,0.048
-1.650E-06,0.008
-1.640E-06,-0.008
-1.630E-06,0.008
-1.620E-06,0.040
-1.610E-06,0.064
-1.600E-06,0.056
-1.590E-06,0.040
-1.580E-06,0.032
-1.570E-06,0.024
-1.560E-06,0.016
-1.550E-06,0.040
-1.540E-06,0.088
-1.530E-06,0.112
-1.520E-06,0.136
-1.510E-06,0.112
-1.500E-06,0.104
-1.490E-06,0.088
-1.480E-06,0.080
-1.470E-06,0.096
-1.460E-06,0.112
-1.450E-06,0.104
-1.440E-06,0.128
-1.430E-06,0.144
-1.420E-06,0.136
-1.410E-06,0.160
-1.400E-06,0.152
-1.390E-06,0.152
-1.380E-06,0.168
-1.370E-06,0.160
-1.360E-06,0.144
-1.350E-06,0.152
-1.340E-06,0.152
-1.330E-06,0.168
-1.320E-06,0.184
-1.310E-06,0.224
-1.300E-06,0.248
-1.290E-06,0.288
-1.280E-06,0.296
-1.270E-06,0.320
-1.260E-06,0.328
-1.250E-06,0.328
-1.240E-06,0.360
-1.230E-06,0.392
-1.220E-06,0.424
-1.210E-06,0.432
-1.200E-06,0.432
-1.190E-06,0.464
-1.180E-06,0.520
-1.170E-06,0.568
-1.160E-06,0.560
-1.150E-06,0.664
-1.140E-06,0.688
-1.130E-06,0.664
-1.120E-06,0.656
-1.110E-06,0.632
-1.100E-06,0.648
-1.090E-06,0.728
-1.080E-06,0.752
-1.070E-06,0.864
-1.060E-06,1.064
-1.050E-06,1.016
-1.040E-06,0.960
-1.030E-06,0.960
-1.020E-06,0.848
-1.010E-06,0.672
-1.000E-06,0.896
-9.900E-07,0.808
-9.800E-07,0.680
-9.700E-07,0.688
-9.600E-07,0.664
-9.500E-07,0.688
-9.400E-07,0.696
-9.300E-07,0.568
-9.200E-07,0.552
-9.100E-07,0.480
-9.000E-07,0.336
-8.900E-07,0.264
-8.800E-07,0.240
-8.700E-07,0.224
-8.600E-07,0.184
-8.500E-07,0.040
-8.400E-07,0.040
-8.300E-07,-0.152
-8.200E-07,-0.280
-8.100E-07,-0.360
-8.000E-07,-0.344
-7.900E-07,-0.368
-7.800E-07,-0.288
-7.700E-07,-0.256
-7.600E-07,-0.336
-7.500E-07,-0.384
-7.400E-07,-0.416
-7.300E-07,-0.400
-7.200E-07,-0.368
-7.100E-07,-0.328
-7.000E-07,-0.256
-6.900E-07,-0.128
-6.800E-07,-0.128
-6.700E-07,0.032
-6.600E-07,0.008
-6.500E-07,0.112
-6.400E-07,0.288
-6.300E-07,0.512
-6.200E-07,0.920
-6.100E-07,1.056
-6.000E-07,1.016
-5.900E-07,0.920
-5.800E-07,0.640
-5.700E-07,0.720
-5.600E-07,1.048
-5.500E-07,1.088
-5.400E-07,1.080
-5.300E-07,1.088
-5.200E-07,1.088
-5.100E-07,1.080
-5.000E-07,1.088
-4.900E-07,1.080
-4.800E-07,1.080
-4.700E-07,1.080
-4.600E-07,1.080
-4.500E-07,1.080
-4.400E-07,1.080
-4.300E-07,1.040
-4.200E-07,0.928
-4.100E-07,0.880
-4.000E-07,0.784
-3.900E-07,0.776
-3.800E-07,0.928
-3.700E-07,0.824
-3.600E-07,0.608
-3.500E-07,0.488
-3.400E-07,0.432
-3.300E-07,0.664
-3.200E-07,0.928
-3.100E-07,0.968
-3.000E-07,1.080
-2.900E-07,1.008
-2.800E-07,0.576
-2.700E-07,0.368
-2.600E-07,0.504
-2.500E-07,0.688
-2.400E-07,0.760
-2.300E-07,0.736
-2.200E-07,0.952
-2.100E-07,1.080
-2.000E-07,1.088
-1.900E-07,1.048
-1.800E-07,1.032
-1.700E-07,1.080
-1.600E-07,1.080
-1.500E-07,1.072
-1.400E-07,1.080
-1.300E-07,1.088
-1.200E-07,1.080
-1.100E-07,1.088
-1.000E-07,0.824
-9.000E-08,0.544
-8.000E-08,0.552
-7.000E-08,0.728
-6.000E-08,1.072
-5.000E-08,1.080
-4.000E-08,1.080
-3.000E-08,1.080
-2.000E-08,1.080
-1.000E-08,1.080
0.000E+00,1.088
1.000E-08,1.080
2.000E-08,1.080
3.000E-08,1.080
4.000E-08,1.080
5.000E-08,1.080
6.000E-08,1.080
7.000E-08,1.072
8.000E-08,1.080
9.000E-08,1.080
1.000E-07,1.072
1.100E-07,1.080
1.200E-07,0.864
1.300E-07,0.600
1.400E-07,0.400
1.500E-07,0.288
1.600E-07,0.344
1.700E-07,0.312
1.800E-07,0.320
1.900E-07,0.200
2.000E-07,0.032
2.100E-07,0.136
2.200E-07,0.184
2.300E-07,0.496
2.400E-07,0.800
2.500E-07,1.000
2.600E-07,1.080
2.700E-07,0.880
2.800E-07,0.336
2.900E-07,-0.272
3.000E-07,-1.032
3.100E-07,-1.040
3.200E-07,-1.048
3.300E-07,-1.048
3.400E-07,-1.032
3.500E-07,-1.040
3.600E-07,-1.048
3.700E-07,-1.040
3.800E-07,0.728
3.900E-07,1.088
4.000E-07,1.088
4.100E-07,1.080
4.200E-07,1.080
4.300E-07,1.080
4.400E-07,1.080
4.500E-07,1.080
4.600E-07,1.088
4.700E-07,1.080
4.800E-07,1.080
4.900E-07,1.072
5.000E-07,1.080
5.100E-07,0.880
5.200E-07,-0.464
5.300E-07,-1.048
5.400E-07,-1.040
5.500E-07,-1.032
5.600E-07,-1.040
5.700E-07,-1.032
5.800E-07,-1.040
5.900E-07,-1.032
6.000E-07,-1.040
6.100E-07,-1.040
6.200E-07,-0.496
6.300E-07,1.088
6.400E-07,1.088
6.500E-07,1.080
6.600E-07,1.080
6.700E-07,1.088
6.800E-07,1.088
6.900E-07,1.080
7.000E-07,1.080
7.100E-07,1.080
7.200E-07,1.080
7.300E-07,1.080
7.400E-07,1.072
7.500E-07,0.984
7.600E-07,0.088
7.700E-07,-0.400
7.800E-07,-0.776
7.900E-07,-0.952
8.000E-07,-0.928
8.100E-07,-0.896
8.200E-07,-0.768
8.300E-07,-0.560
8.400E-07,-0.248
8.500E-07,0.032
8.600E-07,0.216
8.700E-07,0.256
8.800E-07,0.152
8.900E-07,-0.008
9.000E-07,-0.216
9.100E-07,-0.424
9.200E-07,-0.640
9.300E-07,-0.904
9.400E-07,-1.032
9.500E-07,-1.040
9.600E-07,-1.032
9.700E-07,-1.040
9.800E-07,-1.032
9.900E-07,-1.040
1.000E-06,-1.040
1.010E-06,-0.920
1.020E-06,-0.800
1.030E-06,-0.720
1.040E-06,-0.680
1.050E-06,-0.624
1.060E-06,-0.576
1.070E-06,-0.512
1.080E-06,-0.392
1.090E-06,-0.304
1.100E-06,-0.176
1.110E-06,-0.056
1.120E-06,0.112
1.130E-06,0.256
1.140E-06,0.416
1.150E-06,0.560
1.160E-06,0.752
1.170E-06,0.920
1.180E-06,1.024
1.190E-06,1.072
1.200E-06,1.048
1.210E-06,0.976
1.220E-06,0.872
1.230E-06,0.736
1.240E-06,0.608
1.250E-06,0.416
1.260E-06,0.264
1.270E-06,0.096
1.280E-06,-0.088
1.290E-06,-0.288
1.300E-06,-0.448
1.310E-06,-0.608
1.320E-06,-0.736
1.330E-06,-0.824
1.340E-06,-0.880
1.350E-06,-0.912
1.360E-06,-0.912
1.370E-06,-0.904
1.380E-06,-0.872
1.390E-06,-0.848
1.400E-06,-0.824
1.410E-06,-0.808
1.420E-06,-0.800
1.430E-06,-0.816
1.440E-06,-0.856
1.450E-06,-0.944
1.460E-06,-1.040
1.470E-06,-1.040
1.480E-06,-1.040
1.490E-06,-1.040
1.500E-06,-1.048
1.510E-06,-1.040
1.520E-06,-1.048
1.530E-06,-1.032
1.540E-06,-1.040
1.550E-06,-1.048
1.560E-06,-1.040
1.570E-06,-1.032
1.580E-06,-1.032
1.590E-06,-1.040
1.600E-06,-1.032
1.610E-06,-1.040
1.620E-06,-0.936
1.630E-06,-0.688
1.640E-06,-0.456
1.650E-06,-0.280
1.660E-06,-0.056
1.670E-06,0.160
1.680E-06,0.280
1.690E-06,0.304
1.700E-06,0.240
1.710E-06,0.144
1.720E-06,0.024
1.730E-06,-0.144
1.740E-06,-0.312
1.750E-06,-0.480
1.760E-06,-0.632
1.770E-06,-0.736
1.780E-06,-0.808
1.790E-06,-0.824
1.800E-06,-0.800
1.810E-06,-0.744
1.820E-06,-0.664
1.830E-06,-0.568
1.840E-06,-0.488
1.850E-06,-0.408
1.860E-06,-0.352
1.870E-06,-0.304
1.880E-06,-0.280
1.890E-06,-0.280
1.900E-06,-0.280
1.910E-06,-0.280
1.920E-06,-0.320
1.930E-06,-0.336
1.940E-06,-0.392
1.950E-06,-0.456
1.960E-06,-0.528
1.970E-06,-0.600
1.980E-06,-0.648
1.990E-06,-0.720
2.000E-06,-0.808
2.010E-06,-0.808
2.020E-06,-0.760
2.030E-06,-0.664
2.040E-06,-0.568
2.050E-06,-0.488
2.060E-06,-0.368
2.070E-06,-0.160
2.080E-06,0.096
2.090E-06,0.344
2.100E-06,0.464
2.110E-06,0.488
2.120E-06,0.432
2.130E-06,0.400
2.140E-06,0.376
2.150E-06,0.344
2.160E-06,0.320
2.170E-06,0.288
2.180E-06,0.232
2.190E-06,0.128
2.200E-06,0.024
2.210E-06,-0.072
2.220E-06,-0.128
2.230E-06,-0.200
2.240E-06,-0.280
2.250E-06,-0.368
2.260E-06,-0.448
2.270E-06,-0.496
2.280E-06,-0.536
2.290E-06,-0.536
2.300E-06,-0.488
2.310E-06,-0.416
2.320E-06,-0.344
2.330E-06,-0.296
2.340E-06,-0.272
2.350E-06,-0.256
2.360E-06,-0.264
2.370E-06,-0.272
2.380E-06,-0.256
2.390E-06,-0.232
2.400E-06,-0.224
2.410E-06,-0.136
2.420E-06,-0.032
2.430E-06,0.112
2.440E-06,0.224
2.450E-06,0.272
2.460E-06,0.304
2.470E-06,0.376
2.480E-06,0.552
2.490E-06,0.728
2.500E-06,0.832
2.510E-06,0.760
2.520E-06,0.568
2.530E-06,0.376
2.540E-06,0.216
2.550E-06,0.112
2.560E-06,0.040
2.570E-06,-0.032
2.580E-06,-0.080
2.590E-06,-0.072
2.600E-06,-0.056
2.610E-06,-0.032
2.620E-06,-0.008
2.630E-06,0.032
2.640E-06,0.152
2.650E-06,0.392
2.660E-06,0.640
2.670E-06,0.864
2.680E-06,0.928
2.690E-06,0.760
2.700E-06,0.568
2.710E-06,0.376
2.720E-06,0.224
2.730E-06,0.024
2.740E-06,-0.224
2.750E-06,-0.400
2.760E-06,-0.512
2.770E-06,-0.520
2.780E-06,-0.488
2.790E-06,-0.440
2.800E-06,-0.416
2.810E-06,-0.352
2.820E-06,-0.232
2.830E-06,-0.080
2.840E-06,0.032
2.850E-06,0.088
2.860E-06,0.072
2.870E-06,-0.008
2.880E-06,-0.096
2.890E-06,-0.216
2.900E-06,-0.336
2.910E-06,-0.400
2.920E-06,-0.240
2.930E-06,-0.008
2.940E-06,0.032
2.950E-06,0.144
2.960E-06,0.088
2.970E-06,0.224
2.980E-06,0.432
2.990E-06,0.496
3.000E-06,0.448
3.010E-06,0.352
3.020E-06,0.224
3.030E-06,0.176
3.040E-06,0.104
3.050E-06,0.024
3.060E-06,-0.040
3.070E-06,-0.056
3.080E-06,-0.032
3.090E-06,0.000
3.100E-06,0.032
3.110E-06,0.056
3.120E-06,0.048
3.130E-06,0.000
3.140E-06,-0.080
3.150E-06,-0.160
3.160E-06,-0.224
3.170E-06,-0.256
3.180E-06,-0.296
3.190E-06,-0.312
3.200E-06,-0.344
3.210E-06,-0.344
3.220E-06,-0.280
3.230E-06,-0.176
3.240E-06,-0.112
3.250E-06,-0.096
3.260E-06,-0.096
3.270E-06,-0.072
3.280E-06,0.008
3.290E-06,0.088
3.300E-06,0.144
3.310E-06,0.112
3.320E-06,0.072
3.330E-06,0.064
3.340E-06,0.120
3.350E-06,0.192
3.360E-06,0.208
3.370E-06,0.168
3.380E-06,0.080
3.390E-06,0.040
3.400E-06,0.032
3.410E-06,-0.008
3.420E-06,0.000
3.430E-06,-0.032
3.440E-06,-0.024
3.450E-06,-0.024
3.460E-06,-0.032
3.470E-06,-0.016
3.480E-06,0.048
3.490E-06,0.160
3.500E-06,0.232
3.510E-06,0.232
3.520E-06,0.200
3.530E-06,0.152
3.540E-06,0.080
3.550E-06,0.016
3.560E-06,-0.056
3.570E-06,-0.104
3.580E-06,-0.088
3.590E-06,-0.056
