mediciones/6-26/20.0/WaveData59104.csv

#timebase=2000000(ps)
,#voltbase=200000(mv/100)
#size=4000
-8.150E-06,0.008
-8.140E-06,0.000
-8.130E-06,-0.008
-8.120E-06,0.008
-8.110E-06,0.008
-8.100E-06,0.008
-8.090E-06,0.008
-8.080E-06,0.000
-8.070E-06,-0.008
-8.060E-06,0.008
-8.050E-06,0.000
-8.040E-06,0.000
-8.030E-06,0.008
-8.020E-06,0.008
-8.010E-06,0.016
-8.000E-06,0.000
-7.990E-06,-0.008
-7.980E-06,0.008
-7.970E-06,0.000
-7.960E-06,-0.008
-7.950E-06,0.008
-7.940E-06,0.008
-7.930E-06,0.008
-7.920E-06,0.000
-7.910E-06,0.000
-7.900E-06,0.008
-7.890E-06,0.008
-7.880E-06,0.000
-7.870E-06,-0.008
-7.860E-06,0.008
-7.850E-06,0.008
-7.840E-06,0.008
-7.830E-06,0.008
-7.820E-06,0.008
-7.810E-06,0.000
-7.800E-06,0.000
-7.790E-06,0.008
-7.780E-06,0.000
-7.770E-06,0.008
-7.760E-06,0.000
-7.750E-06,0.000
-7.740E-06,0.000
-7.730E-06,0.000
-7.720E-06,0.000
-7.710E-06,0.008
-7.700E-06,0.016
-7.690E-06,0.000
-7.680E-06,-0.008
-7.670E-06,0.000
-7.660E-06,0.008
-7.650E-06,0.008
-7.640E-06,0.000
-7.630E-06,0.000
-7.620E-06,0.008
-7.610E-06,0.000
-7.600E-06,0.000
-7.590E-06,0.000
-7.580E-06,0.008
-7.570E-06,-0.008
-7.560E-06,0.008
-7.550E-06,0.008
-7.540E-06,0.000
-7.530E-06,0.008
-7.520E-06,0.000
-7.510E-06,0.008
-7.500E-06,0.008
-7.490E-06,0.000
-7.480E-06,0.008
-7.470E-06,0.000
-7.460E-06,0.008
-7.450E-06,0.000
-7.440E-06,0.008
-7.430E-06,0.000
-7.420E-06,0.008
-7.410E-06,0.008
-7.400E-06,0.000
-7.390E-06,0.000
-7.380E-06,0.000
-7.370E-06,0.016
-7.360E-06,0.008
-7.350E-06,0.008
-7.340E-06,0.000
-7.330E-06,0.000
-7.320E-06,0.008
-7.310E-06,0.008
-7.300E-06,0.000
-7.290E-06,0.008
-7.280E-06,0.000
-7.270E-06,-0.008
-7.260E-06,0.000
-7.250E-06,-0.008
-7.240E-06,0.008
-7.230E-06,0.008
-7.220E-06,0.000
-7.210E-06,0.008
-7.200E-06,0.000
-7.190E-06,0.000
-7.180E-06,0.008
-7.170E-06,0.000
-7.160E-06,-0.008
-7.150E-06,0.000
-7.140E-06,0.016
-7.130E-06,0.008
-7.120E-06,-0.008
-7.110E-06,0.000
-7.100E-06,0.000
-7.090E-06,0.008
-7.080E-06,0.008
-7.070E-06,0.000
-7.060E-06,0.000
-7.050E-06,0.008
-7.040E-06,0.000
-7.030E-06,0.000
-7.020E-06,0.008
-7.010E-06,0.000
-7.000E-06,0.000
-6.990E-06,0.008
-6.980E-06,0.000
-6.970E-06,0.000
-6.960E-06,0.000
-6.950E-06,0.000
-6.940E-06,0.000
-6.930E-06,0.008
-6.920E-06,0.016
-6.910E-06,0.016
-6.900E-06,-0.008
-6.890E-06,0.008
-6.880E-06,0.008
-6.870E-06,0.008
-6.860E-06,0.008
-6.850E-06,0.000
-6.840E-06,0.000
-6.830E-06,0.000
-6.820E-06,0.008
-6.810E-06,-0.008
-6.800E-06,-0.008
-6.790E-06,0.000
-6.780E-06,-0.008
-6.770E-06,0.008
-6.760E-06,0.000
-6.750E-06,0.008
-6.740E-06,0.008
-6.730E-06,0.016
-6.720E-06,0.008
-6.710E-06,-0.008
-6.700E-06,0.000
-6.690E-06,0.008
-6.680E-06,0.016
-6.670E-06,0.016
-6.660E-06,0.000
-6.650E-06,-0.008
-6.640E-06,0.008
-6.630E-06,0.016
-6.620E-06,0.016
-6.610E-06,0.008
-6.600E-06,0.000
-6.590E-06,0.000
-6.580E-06,0.000
-6.570E-06,0.000
-6.560E-06,-0.008
-6.550E-06,0.000
-6.540E-06,0.008
-6.530E-06,0.000
-6.520E-06,0.000
-6.510E-06,-0.008
-6.500E-06,-0.008
-6.490E-06,0.000
-6.480E-06,0.008
-6.470E-06,0.016
-6.460E-06,-0.008
-6.450E-06,0.008
-6.440E-06,0.008
-6.430E-06,0.000
-6.420E-06,0.000
-6.410E-06,0.008
-6.400E-06,0.000
-6.390E-06,0.008
-6.380E-06,-0.008
-6.370E-06,0.000
-6.360E-06,0.000
-6.350E-06,0.000
-6.340E-06,0.000
-6.330E-06,0.000
-6.320E-06,0.000
-6.310E-06,0.000
-6.300E-06,0.000
-6.290E-06,-0.008
-6.280E-06,0.000
-6.270E-06,0.008
-6.260E-06,-0.008
-6.250E-06,0.008
-6.240E-06,0.000
-6.230E-06,-0.008
-6.220E-06,0.008
-6.210E-06,0.000
-6.200E-06,0.000
-6.190E-06,0.000
-6.180E-06,0.000
-6.170E-06,0.000
-6.160E-06,0.000
-6.150E-06,0.008
-6.140E-06,0.008
-6.130E-06,0.016
-6.120E-06,-0.008
-6.110E-06,-0.008
-6.100E-06,0.008
-6.090E-06,0.000
-6.080E-06,0.000
-6.070E-06,0.008
-6.060E-06,-0.008
-6.050E-06,0.000
-6.040E-06,0.008
-6.030E-06,0.000
-6.020E-06,0.008
-6.010E-06,0.008
-6.000E-06,-0.008
-5.990E-06,0.008
-5.980E-06,0.008
-5.970E-06,0.000
-5.960E-06,0.000
-5.950E-06,-0.008
-5.940E-06,0.000
-5.930E-06,0.000
-5.920E-06,0.000
-5.910E-06,-0.008
-5.900E-06,0.000
-5.890E-06,0.008
-5.880E-06,-0.008
-5.870E-06,0.000
-5.860E-06,0.000
-5.850E-06,0.000
-5.840E-06,0.000
-5.830E-06,0.008
-5.820E-06,0.008
-5.810E-06,0.008
-5.800E-06,0.000
-5.790E-06,0.008
-5.780E-06,0.000
-5.770E-06,0.000
-5.760E-06,0.000
-5.750E-06,0.000
-5.740E-06,0.008
-5.730E-06,-0.008
-5.720E-06,0.000
-5.710E-06,0.000
-5.700E-06,0.008
-5.690E-06,0.008
-5.680E-06,0.008
-5.670E-06,0.000
-5.660E-06,0.008
-5.650E-06,0.008
-5.640E-06,0.016
-5.630E-06,0.016
-5.620E-06,-0.008
-5.610E-06,0.000
-5.600E-06,0.000
-5.590E-06,0.008
-5.580E-06,-0.008
-5.570E-06,0.008
-5.560E-06,0.000
-5.550E-06,0.008
-5.540E-06,-0.008
-5.530E-06,0.008
-5.520E-06,0.000
-5.510E-06,0.000
-5.500E-06,0.008
-5.490E-06,0.000
-5.480E-06,0.000
-5.470E-06,0.008
-5.460E-06,0.000
-5.450E-06,-0.008
-5.440E-06,0.000
-5.430E-06,0.008
-5.420E-06,0.008
-5.410E-06,0.008
-5.400E-06,0.008
-5.390E-06,0.000
-5.380E-06,0.008
-5.370E-06,0.000
-5.360E-06,0.000
-5.350E-06,0.000
-5.340E-06,0.000
-5.330E-06,0.008
-5.320E-06,0.000
-5.310E-06,0.000
-5.300E-06,0.008
-5.290E-06,0.000
-5.280E-06,0.000
-5.270E-06,0.008
-5.260E-06,0.008
-5.250E-06,-0.008
-5.240E-06,0.000
-5.230E-06,0.000
-5.220E-06,0.008
-5.210E-06,-0.008
-5.200E-06,0.008
-5.190E-06,0.000
-5.180E-06,0.000
-5.170E-06,0.000
-5.160E-06,-0.008
-5.150E-06,0.008
-5.140E-06,0.008
-5.130E-06,0.008
-5.120E-06,0.008
-5.110E-06,-0.008
-5.100E-06,0.000
-5.090E-06,0.016
-5.080E-06,0.008
-5.070E-06,0.000
-5.060E-06,0.000
-5.050E-06,0.008
-5.040E-06,-0.008
-5.030E-06,0.000
-5.020E-06,0.016
-5.010E-06,-0.008
-5.000E-06,-0.008
-4.990E-06,0.000
-4.980E-06,0.000
-4.970E-06,0.000
-4.960E-06,0.008
-4.950E-06,0.000
-4.940E-06,0.008
-4.930E-06,0.000
-4.920E-06,0.000
-4.910E-06,0.000
-4.900E-06,0.000
-4.890E-06,0.000
-4.880E-06,-0.008
-4.870E-06,0.008
-4.860E-06,0.008
-4.850E-06,0.000
-4.840E-06,0.000
-4.830E-06,0.000
-4.820E-06,-0.008
-4.810E-06,0.000
-4.800E-06,0.008
-4.790E-06,0.016
-4.780E-06,-0.008
-4.770E-06,0.000
-4.760E-06,0.000
-4.750E-06,0.000
-4.740E-06,0.016
-4.730E-06,0.000
-4.720E-06,0.000
-4.710E-06,0.008
-4.700E-06,0.008
-4.690E-06,0.008
-4.680E-06,0.008
-4.670E-06,0.008
-4.660E-06,0.000
-4.650E-06,0.008
-4.640E-06,0.000
-4.630E-06,-0.008
-4.620E-06,0.000
-4.610E-06,0.008
-4.600E-06,0.008
-4.590E-06,0.000
-4.580E-06,0.008
-4.570E-06,-0.008
-4.560E-06,0.000
-4.550E-06,0.008
-4.540E-06,0.000
-4.530E-06,0.016
-4.520E-06,0.008
-4.510E-06,0.016
-4.500E-06,0.000
-4.490E-06,0.008
-4.480E-06,0.000
-4.470E-06,0.008
-4.460E-06,0.008
-4.450E-06,0.064
-4.440E-06,0.120
-4.430E-06,0.136
-4.420E-06,0.128
-4.410E-06,0.024
-4.400E-06,-0.104
-4.390E-06,-0.208
-4.380E-06,-0.328
-4.370E-06,-0.192
-4.360E-06,0.144
-4.350E-06,0.296
-4.340E-06,0.192
-4.330E-06,0.224
-4.320E-06,0.040
-4.310E-06,-0.208
-4.300E-06,-0.224
-4.290E-06,-0.088
-4.280E-06,-0.008
-4.270E-06,0.184
-4.260E-06,0.280
-4.250E-06,0.080
-4.240E-06,-0.040
-4.230E-06,-0.192
-4.220E-06,-0.192
-4.210E-06,-0.144
-4.200E-06,0.064
-4.190E-06,0.152
-4.180E-06,0.192
-4.170E-06,0.152
-4.160E-06,0.008
-4.150E-06,-0.064
-4.140E-06,-0.136
-4.130E-06,-0.080
-4.120E-06,-0.024
-4.110E-06,0.072
-4.100E-06,0.072
-4.090E-06,0.040
-4.080E-06,-0.008
-4.070E-06,-0.056
-4.060E-06,-0.072
-4.050E-06,-0.040
-4.040E-06,0.008
-4.030E-06,0.056
-4.020E-06,0.088
-4.010E-06,0.072
-4.000E-06,0.056
-3.990E-06,-0.016
-3.980E-06,-0.032
-3.970E-06,-0.056
-3.960E-06,-0.048
-3.950E-06,-0.008
-3.940E-06,0.032
-3.930E-06,0.040
-3.920E-06,0.016
-3.910E-06,0.016
-3.900E-06,-0.008
-3.890E-06,-0.016
-3.880E-06,-0.008
-3.870E-06,0.008
-3.860E-06,0.040
-3.850E-06,0.048
-3.840E-06,0.040
-3.830E-06,0.016
-3.820E-06,-0.016
-3.810E-06,-0.032
-3.800E-06,-0.008
-3.790E-06,-0.008
-3.780E-06,0.016
-3.770E-06,0.024
-3.760E-06,0.024
-3.750E-06,0.008
-3.740E-06,0.000
-3.730E-06,0.000
-3.720E-06,-0.008
-3.710E-06,0.008
-3.700E-06,0.008
-3.690E-06,0.016
-3.680E-06,0.024
-3.670E-06,-0.008
-3.660E-06,0.000
-3.650E-06,-0.008
-3.640E-06,0.000
-3.630E-06,0.000
-3.620E-06,0.000
-3.610E-06,0.008
-3.600E-06,0.008
-3.590E-06,0.008
-3.580E-06,0.016
-3.570E-06,0.000
-3.560E-06,0.008
-3.550E-06,0.008
-3.540E-06,0.000
-3.530E-06,0.000
-3.520E-06,0.016
-3.510E-06,0.016
-3.500E-06,0.008
-3.490E-06,0.008
-3.480E-06,-0.008
-3.470E-06,-0.008
-3.460E-06,0.000
-3.450E-06,-0.008
-3.440E-06,0.016
-3.430E-06,0.008
-3.420E-06,0.024
-3.410E-06,0.016
-3.400E-06,0.008
-3.390E-06,-0.008
-3.380E-06,-0.008
-3.370E-06,0.000
-3.360E-06,0.008
-3.350E-06,0.016
-3.340E-06,0.024
-3.330E-06,0.016
-3.320E-06,0.000
-3.310E-06,-0.008
-3.300E-06,0.000
-3.290E-06,0.000
-3.280E-06,-0.008
-3.270E-06,0.008
-3.260E-06,0.016
-3.250E-06,0.016
-3.240E-06,0.008
-3.230E-06,0.000
-3.220E-06,0.000
-3.210E-06,0.000
-3.200E-06,0.016
-3.190E-06,0.008
-3.180E-06,0.016
-3.170E-06,0.016
-3.160E-06,0.024
-3.150E-06,-0.008
-3.140E-06,-0.008
-3.130E-06,0.000
-3.120E-06,-0.008
-3.110E-06,-0.008
-3.100E-06,0.024
-3.090E-06,-0.016
-3.080E-06,-0.016
-3.070E-06,-0.016
-3.060E-06,0.008
-3.050E-06,0.016
-3.040E-06,-0.008
-3.030E-06,0.016
-3.020E-06,0.048
-3.010E-06,0.024
-3.000E-06,0.000
-2.990E-06,-0.016
-2.980E-06,-0.032
-2.970E-06,0.000
-2.960E-06,0.016
-2.950E-06,0.048
-2.940E-06,0.024
-2.930E-06,0.016
-2.920E-06,-0.008
-2.910E-06,0.008
-2.900E-06,0.008
-2.890E-06,0.024
-2.880E-06,0.032
-2.870E-06,0.016
-2.860E-06,0.024
-2.850E-06,-0.008
-2.840E-06,-0.008
-2.830E-06,0.000
-2.820E-06,-0.016
-2.810E-06,0.000
-2.800E-06,0.008
-2.790E-06,0.008
-2.780E-06,0.000
-2.770E-06,0.016
-2.760E-06,0.024
-2.750E-06,0.032
-2.740E-06,0.024
-2.730E-06,0.008
-2.720E-06,0.000
-2.710E-06,-0.008
-2.700E-06,-0.008
-2.690E-06,0.024
-2.680E-06,0.016
-2.670E-06,0.064
-2.660E-06,0.000
-2.650E-06,0.024
-2.640E-06,-0.048
-2.630E-06,-0.016
-2.620E-06,-0.008
-2.610E-06,0.024
-2.600E-06,0.080
-2.590E-06,0.024
-2.580E-06,0.016
-2.570E-06,-0.032
-2.560E-06,-0.088
-2.550E-06,-0.048
-2.540E-06,-0.008
-2.530E-06,0.040
-2.520E-06,0.056
-2.510E-06,0.072
-2.500E-06,0.032
-2.490E-06,-0.024
-2.480E-06,-0.080
-2.470E-06,-0.096
-2.460E-06,-0.032
-2.450E-06,0.024
-2.440E-06,0.072
-2.430E-06,0.088
-2.420E-06,0.056
-2.410E-06,0.000
-2.400E-06,-0.056
-2.390E-06,-0.080
-2.380E-06,-0.048
-2.370E-06,0.008
-2.360E-06,0.072
-2.350E-06,0.072
-2.340E-06,0.048
-2.330E-06,0.016
-2.320E-06,-0.040
-2.310E-06,-0.056
-2.300E-06,-0.032
-2.290E-06,0.008
-2.280E-06,0.072
-2.270E-06,0.104
-2.260E-06,0.072
-2.250E-06,0.024
-2.240E-06,-0.048
-2.230E-06,-0.064
-2.220E-06,-0.072
-2.210E-06,-0.016
-2.200E-06,0.016
-2.190E-06,0.056
-2.180E-06,0.080
-2.170E-06,0.040
-2.160E-06,0.008
-2.150E-06,-0.040
-2.140E-06,-0.056
-2.130E-06,-0.032
-2.120E-06,0.016
-2.110E-06,0.040
-2.100E-06,0.072
-2.090E-06,0.072
-2.080E-06,0.032
-2.070E-06,0.024
-2.060E-06,-0.040
-2.050E-06,-0.064
-2.040E-06,0.064
-2.030E-06,0.048
-2.020E-06,0.040
-2.010E-06,0.192
-2.000E-06,0.064
-1.990E-06,0.112
-1.980E-06,-0.080
-1.970E-06,-0.144
-1.960E-06,-0.120
-1.950E-06,-0.160
-1.940E-06,-0.024
-1.930E-06,0.064
-1.920E-06,0.104
-1.910E-06,0.064
-1.900E-06,-0.008
-1.890E-06,-0.104
-1.880E-06,-0.112
-1.870E-06,-0.040
-1.860E-06,0.032
-1.850E-06,0.088
-1.840E-06,0.088
-1.830E-06,0.048
-1.820E-06,-0.024
-1.810E-06,-0.032
-1.800E-06,-0.056
-1.790E-06,-0.008
-1.780E-06,0.040
-1.770E-06,0.088
-1.760E-06,0.088
-1.750E-06,0.048
-1.740E-06,0.008
-1.730E-06,-0.016
-1.720E-06,-0.016
-1.710E-06,0.008
-1.700E-06,0.048
-1.690E-06,0.072
-1.680E-06,0.056
-1.670E-06,0.032
-1.660E-06,0.008
-1.650E-06,-0.024
-1.640E-06,0.008
-1.630E-06,0.032
-1.620E-06,0.056
-1.610E-06,0.056
-1.600E-06,0.056
-1.590E-06,0.048
-1.580E-06,0.008
-1.570E-06,-0.008
-1.560E-06,0.016
-1.550E-06,0.032
-1.540E-06,0.064
-1.530E-06,0.072
-1.520E-06,0.080
-1.510E-06,0.056
-1.500E-06,0.048
-1.490E-06,0.032
-1.480E-06,0.048
-1.470E-06,0.088
-1.460E-06,0.088
-1.450E-06,0.104
-1.440E-06,-0.016
-1.430E-06,-0.328
-1.420E-06,-0.240
-1.410E-06,-0.288
-1.400E-06,-0.312
-1.390E-06,-0.208
-1.380E-06,-0.312
-1.370E-06,0.264
-1.360E-06,-0.016
-1.350E-06,0.176
-1.340E-06,-0.008
-1.330E-06,-0.208
-1.320E-06,0.208
-1.310E-06,0.176
-1.300E-06,0.152
-1.290E-06,0.040
-1.280E-06,0.008
-1.270E-06,0.096
-1.260E-06,0.136
-1.250E-06,0.208
-1.240E-06,0.136
-1.230E-06,0.120
-1.220E-06,0.048
-1.210E-06,0.024
-1.200E-06,-0.056
-1.190E-06,-0.112
-1.180E-06,0.040
-1.170E-06,0.088
-1.160E-06,0.048
-1.150E-06,-0.088
-1.140E-06,-0.328
-1.130E-06,-0.320
-1.120E-06,-0.192
-1.110E-06,0.016
-1.100E-06,0.152
-1.090E-06,0.096
-1.080E-06,0.032
-1.070E-06,-0.072
-1.060E-06,-0.104
-1.050E-06,-0.168
-1.040E-06,-0.080
-1.030E-06,0.056
-1.020E-06,0.168
-1.010E-06,0.216
-1.000E-06,0.088
-9.900E-07,-0.064
-9.800E-07,-0.152
-9.700E-07,-0.128
-9.600E-07,-0.056
-9.500E-07,0.048
-9.400E-07,0.128
-9.300E-07,0.152
-9.200E-07,0.120
-9.100E-07,0.048
-9.000E-07,-0.008
-8.900E-07,-0.008
-8.800E-07,0.056
-8.700E-07,0.112
-8.600E-07,0.144
-8.500E-07,0.160
-8.400E-07,0.136
-8.300E-07,0.080
-8.200E-07,-0.016
-8.100E-07,-0.008
-8.000E-07,-0.072
-7.900E-07,-0.088
-7.800E-07,-0.096
-7.700E-07,0.056
-7.600E-07,0.088
-7.500E-07,0.080
-7.400E-07,0.056
-7.300E-07,-0.040
-7.200E-07,0.008
-7.100E-07,-0.008
-7.000E-07,0.040
-6.900E-07,0.064
-6.800E-07,0.080
-6.700E-07,0.136
-6.600E-07,0.064
-6.500E-07,0.072
-6.400E-07,0.000
-6.300E-07,0.008
-6.200E-07,0.048
-6.100E-07,0.088
-6.000E-07,0.096
-5.900E-07,0.064
-5.800E-07,0.064
-5.700E-07,0.040
-5.600E-07,0.024
-5.500E-07,0.024
-5.400E-07,0.064
-5.300E-07,0.056
-5.200E-07,0.072
-5.100E-07,0.072
-5.000E-07,0.112
-4.900E-07,0.088
-4.800E-07,0.144
-4.700E-07,0.152
-4.600E-07,0.176
-4.500E-07,0.136
-4.400E-07,0.128
-4.300E-07,0.176
-4.200E-07,0.160
-4.100E-07,0.192
-4.000E-07,0.128
-3.900E-07,0.120
-3.800E-07,-0.048
-3.700E-07,-0.152
-3.600E-07,-0.192
-3.500E-07,-0.144
-3.400E-07,-0.024
-3.300E-07,0.048
-3.200E-07,0.128
-3.100E-07,0.264
-3.000E-07,0.144
-2.900E-07,0.008
-2.800E-07,-0.072
-2.700E-07,-0.048
-2.600E-07,0.000
-2.500E-07,-0.032
-2.400E-07,-0.016
-2.300E-07,-0.088
-2.200E-07,-0.232
-2.100E-07,-0.232
-2.000E-07,-0.240
-1.900E-07,-0.144
-1.800E-07,-0.040
-1.700E-07,0.208
-1.600E-07,0.200
-1.500E-07,0.200
-1.400E-07,0.024
-1.300E-07,-0.184
-1.200E-07,-0.200
-1.100E-07,-0.040
-1.000E-07,0.120
-9.000E-08,0.312
-8.000E-08,0.376
-7.000E-08,0.280
-6.000E-08,0.184
-5.000E-08,0.048
-4.000E-08,-0.072
-3.000E-08,0.064
-2.000E-08,0.240
-1.000E-08,0.416
0.000E+00,0.528
1.000E-08,0.440
2.000E-08,0.312
3.000E-08,0.184
4.000E-08,0.136
5.000E-08,0.136
6.000E-08,0.208
7.000E-08,0.312
8.000E-08,0.400
9.000E-08,0.400
1.000E-07,0.312
1.100E-07,0.160
1.200E-07,0.072
1.300E-07,0.048
1.400E-07,0.088
1.500E-07,0.208
1.600E-07,0.344
1.700E-07,0.408
1.800E-07,0.416
1.900E-07,0.344
2.000E-07,0.224
2.100E-07,0.120
2.200E-07,0.120
2.300E-07,0.160
2.400E-07,0.256
2.500E-07,0.360
2.600E-07,0.408
2.700E-07,0.400
2.800E-07,0.280
2.900E-07,0.168
3.000E-07,0.072
3.100E-07,0.072
3.200E-07,0.176
3.300E-07,0.304
3.400E-07,0.384
3.500E-07,0.392
3.600E-07,0.272
3.700E-07,0.120
3.800E-07,-0.072
3.900E-07,-0.088
4.000E-07,0.008
4.100E-07,-0.016
4.200E-07,-0.016
4.300E-07,-0.152
4.400E-07,-0.192
4.500E-07,-0.376
4.600E-07,-0.424
4.700E-07,-0.456
4.800E-07,-0.608
4.900E-07,-0.400
5.000E-07,-0.016
5.100E-07,0.104
5.200E-07,0.080
5.300E-07,0.032
5.400E-07,0.000
5.500E-07,0.032
5.600E-07,-0.024
5.700E-07,0.096
5.800E-07,0.256
5.900E-07,0.296
6.000E-07,0.344
6.100E-07,0.176
6.200E-07,0.224
6.300E-07,0.144
6.400E-07,0.152
6.500E-07,0.192
6.600E-07,0.208
6.700E-07,0.392
6.800E-07,0.440
6.900E-07,0.432
7.000E-07,0.352
7.100E-07,0.288
7.200E-07,0.216
7.300E-07,0.240
7.400E-07,0.280
7.500E-07,0.328
7.600E-07,0.384
7.700E-07,0.384
7.800E-07,0.344
7.900E-07,0.288
8.000E-07,0.248
8.100E-07,0.224
8.200E-07,0.256
8.300E-07,0.320
8.400E-07,0.376
8.500E-07,0.392
8.600E-07,0.360
8.700E-07,0.312
8.800E-07,0.272
8.900E-07,0.248
9.000E-07,0.248
9.100E-07,0.296
9.200E-07,0.320
9.300E-07,0.352
9.400E-07,0.360
9.500E-07,0.320
9.600E-07,0.288
9.700E-07,0.272
9.800E-07,0.256
9.900E-07,0.264
1.000E-06,0.288
1.010E-06,0.320
1.020E-06,0.312
1.030E-06,0.296
1.040E-06,0.312
1.050E-06,0.280
1.060E-06,0.280
1.070E-06,0.264
1.080E-06,0.280
1.090E-06,0.288
1.100E-06,0.312
1.110E-06,0.320
1.120E-06,0.312
1.130E-06,0.296
1.140E-06,0.288
1.150E-06,0.280
1.160E-06,0.280
1.170E-06,0.288
1.180E-06,0.296
1.190E-06,0.312
1.200E-06,0.312
1.210E-06,0.304
1.220E-06,0.288
1.230E-06,0.288
1.240E-06,0.280
1.250E-06,0.272
1.260E-06,0.280
1.270E-06,0.288
1.280E-06,0.296
1.290E-06,0.304
1.300E-06,0.288
1.310E-06,0.288
1.320E-06,0.280
1.330E-06,0.280
1.340E-06,0.288
1.350E-06,0.296
1.360E-06,0.280
1.370E-06,0.288
1.380E-06,0.288
1.390E-06,0.280
1.400E-06,0.280
1.410E-06,0.280
1.420E-06,0.280
1.430E-06,0.288
1.440E-06,0.296
1.450E-06,0.288
1.460E-06,0.288
1.470E-06,0.272
1.480E-06,0.280
1.490E-06,0.272
1.500E-06,0.280
1.510E-06,0.280
1.520E-06,0.280
1.530E-06,0.272
1.540E-06,0.280
1.550E-06,0.280
1.560E-06,0.264
1.570E-06,0.280
1.580E-06,0.280
1.590E-06,0.280
1.600E-06,0.272
1.610E-06,0.280
1.620E-06,0.272
1.630E-06,0.280
1.640E-06,0.280
1.650E-06,0.280
1.660E-06,0.272
1.670E-06,0.264
1.680E-06,0.264
1.690E-06,0.264
1.700E-06,0.264
1.710E-06,0.272
1.720E-06,0.280
1.730E-06,0.280
1.740E-06,0.264
1.750E-06,0.264
1.760E-06,0.256
1.770E-06,0.248
1.780E-06,0.256
1.790E-06,0.272
1.800E-06,0.272
1.810E-06,0.280
1.820E-06,0.272
1.830E-06,0.256
1.840E-06,0.256
1.850E-06,0.240
1.860E-06,0.248
1.870E-06,0.264
1.880E-06,0.272
1.890E-06,0.280
1.900E-06,0.264
1.910E-06,0.264
1.920E-06,0.256
1.930E-06,0.248
1.940E-06,0.240
1.950E-06,0.256
1.960E-06,0.256
1.970E-06,0.264
1.980E-06,0.256
1.990E-06,0.248
2.000E-06,0.248
2.010E-06,0.248
2.020E-06,0.256
2.030E-06,0.256
2.040E-06,0.264
2.050E-06,0.264
2.060E-06,0.264
2.070E-06,0.264
2.080E-06,0.256
2.090E-06,0.256
2.100E-06,0.248
2.110E-06,0.248
2.120E-06,0.248
2.130E-06,0.248
2.140E-06,0.248
2.150E-06,0.248
2.160E-06,0.248
2.170E-06,0.248
2.180E-06,0.232
2.190E-06,0.232
2.200E-06,0.240
2.210E-06,0.248
2.220E-06,0.248
2.230E-06,0.256
2.240E-06,0.256
2.250E-06,0.256
2.260E-06,0.240
2.270E-06,0.232
2.280E-06,0.232
2.290E-06,0.248
2.300E-06,0.224
2.310E-06,0.248
2.320E-06,0.248
2.330E-06,0.248
2.340E-06,0.240
2.350E-06,0.240
2.360E-06,0.232
2.370E-06,0.224
2.380E-06,0.224
2.390E-06,0.240
2.400E-06,0.248
2.410E-06,0.224
2.420E-06,0.224
2.430E-06,0.216
2.440E-06,0.216
2.450E-06,0.216
2.460E-06,0.232
2.470E-06,0.248
2.480E-06,0.248
2.490E-06,0.248
2.500E-06,0.216
2.510E-06,0.200
2.520E-06,0.192
2.530E-06,0.192
2.540E-06,0.200
2.550E-06,0.216
2.560E-06,0.240
2.570E-06,0.240
2.580E-06,0.240
2.590E-06,0.224
2.600E-06,0.208
2.610E-06,0.184
2.620E-06,0.192
2.630E-06,0.208
2.640E-06,0.216
2.650E-06,0.248
2.660E-06,0.248
2.670E-06,0.216
2.680E-06,0.192
2.690E-06,0.184
2.700E-06,0.184
2.710E-06,0.192
2.720E-06,0.216
2.730E-06,0.232
2.740E-06,0.240
2.750E-06,0.224
2.760E-06,0.216
2.770E-06,0.200
2.780E-06,0.184
2.790E-06,0.184
2.800E-06,0.192
2.810E-06,0.208
2.820E-06,0.208
2.830E-06,0.216
2.840E-06,0.208
2.850E-06,0.184
2.860E-06,0.176
2.870E-06,0.176
2.880E-06,0.184
2.890E-06,0.192
2.900E-06,0.208
2.910E-06,0.208
2.920E-06,0.208
2.930E-06,0.208
2.940E-06,0.200
2.950E-06,0.176
2.960E-06,0.176
2.970E-06,0.192
2.980E-06,0.192
2.990E-06,0.192
3.000E-06,0.208
3.010E-06,0.208
3.020E-06,0.184
3.030E-06,0.176
3.040E-06,0.184
3.050E-06,0.176
3.060E-06,0.184
3.070E-06,0.192
3.080E-06,0.192
3.090E-06,0.192
3.100E-06,0.192
3.110E-06,0.192
3.120E-06,0.176
3.130E-06,0.184
3.140E-06,0.176
3.150E-06,0.184
3.160E-06,0.184
3.170E-06,0.192
3.180E-06,0.176
3.190E-06,0.184
3.200E-06,0.184
3.210E-06,0.176
3.220E-06,0.176
3.230E-06,0.176
3.240E-06,0.176
3.250E-06,0.184
3.260E-06,0.176
3.270E-06,0.184
3.280E-06,0.184
3.290E-06,0.168
3.300E-06,0.160
3.310E-06,0.168
3.320E-06,0.168
3.330E-06,0.176
3.340E-06,0.184
3.350E-06,0.176
3.360E-06,0.176
3.370E-06,0.168
3.380E-06,0.176
3.390E-06,0.168
3.400E-06,0.168
3.410E-06,0.160
3.420E-06,0.168
3.430E-06,0.176
3.440E-06,0.160
3.450E-06,0.160
3.460E-06,0.152
3.470E-06,0.152
3.480E-06,0.168
3.490E-06,0.168
3.500E-06,0.160
3.510E-06,0.160
3.520E-06,0.160
3.530E-06,0.160
3.540E-06,0.160
3.550E-06,0.152
3.560E-06,0.144
3.570E-06,0.152
3.580E-06,0.152
3.590E-06,0.160
3.600E-06,0.160
3.610E-06,0.152
3.620E-06,0.152
3.630E-06,0.144
3.640E-06,0.144
3.650E-06,0.144
