mediciones/6-26/20.0/WaveData59101.csv

#timebase=2000000(ps)
,#voltbase=200000(mv/100)
#size=4000
-8.150E-06,0.000
-8.140E-06,0.000
-8.130E-06,-0.008
-8.120E-06,-0.008
-8.110E-06,0.000
-8.100E-06,-0.008
-8.090E-06,0.000
-8.080E-06,0.000
-8.070E-06,0.000
-8.060E-06,0.008
-8.050E-06,-0.008
-8.040E-06,-0.008
-8.030E-06,0.000
-8.020E-06,0.008
-8.010E-06,0.008
-8.000E-06,-0.008
-7.990E-06,0.000
-7.980E-06,0.000
-7.970E-06,0.000
-7.960E-06,0.000
-7.950E-06,0.000
-7.940E-06,0.000
-7.930E-06,0.000
-7.920E-06,0.000
-7.910E-06,0.008
-7.900E-06,-0.008
-7.890E-06,0.000
-7.880E-06,0.000
-7.870E-06,0.000
-7.860E-06,0.008
-7.850E-06,-0.008
-7.840E-06,0.000
-7.830E-06,0.000
-7.820E-06,0.000
-7.810E-06,0.000
-7.800E-06,0.000
-7.790E-06,0.000
-7.780E-06,0.000
-7.770E-06,-0.008
-7.760E-06,0.000
-7.750E-06,-0.008
-7.740E-06,0.000
-7.730E-06,0.000
-7.720E-06,0.000
-7.710E-06,0.000
-7.700E-06,0.000
-7.690E-06,0.000
-7.680E-06,-0.008
-7.670E-06,0.000
-7.660E-06,0.000
-7.650E-06,0.000
-7.640E-06,-0.008
-7.630E-06,0.000
-7.620E-06,0.000
-7.610E-06,0.000
-7.600E-06,0.000
-7.590E-06,0.000
-7.580E-06,0.000
-7.570E-06,0.000
-7.560E-06,-0.008
-7.550E-06,0.000
-7.540E-06,0.000
-7.530E-06,0.000
-7.520E-06,0.000
-7.510E-06,0.000
-7.500E-06,0.000
-7.490E-06,0.000
-7.480E-06,-0.008
-7.470E-06,0.000
-7.460E-06,-0.008
-7.450E-06,-0.008
-7.440E-06,0.000
-7.430E-06,-0.008
-7.420E-06,0.000
-7.410E-06,0.008
-7.400E-06,-0.008
-7.390E-06,-0.008
-7.380E-06,0.000
-7.370E-06,0.000
-7.360E-06,0.000
-7.350E-06,0.000
-7.340E-06,0.000
-7.330E-06,-0.008
-7.320E-06,0.000
-7.310E-06,0.008
-7.300E-06,-0.008
-7.290E-06,-0.008
-7.280E-06,0.000
-7.270E-06,-0.008
-7.260E-06,0.000
-7.250E-06,0.000
-7.240E-06,0.000
-7.230E-06,0.000
-7.220E-06,-0.008
-7.210E-06,0.000
-7.200E-06,0.000
-7.190E-06,0.000
-7.180E-06,0.000
-7.170E-06,0.008
-7.160E-06,-0.008
-7.150E-06,-0.008
-7.140E-06,0.000
-7.130E-06,-0.008
-7.120E-06,0.000
-7.110E-06,0.000
-7.100E-06,0.000
-7.090E-06,-0.008
-7.080E-06,0.000
-7.070E-06,0.000
-7.060E-06,0.000
-7.050E-06,0.000
-7.040E-06,0.000
-7.030E-06,0.000
-7.020E-06,-0.008
-7.010E-06,-0.008
-7.000E-06,0.000
-6.990E-06,-0.008
-6.980E-06,0.000
-6.970E-06,0.008
-6.960E-06,0.008
-6.950E-06,-0.008
-6.940E-06,0.000
-6.930E-06,0.000
-6.920E-06,0.000
-6.910E-06,0.000
-6.900E-06,0.008
-6.890E-06,0.008
-6.880E-06,0.008
-6.870E-06,0.008
-6.860E-06,-0.008
-6.850E-06,0.008
-6.840E-06,0.000
-6.830E-06,0.000
-6.820E-06,0.000
-6.810E-06,0.000
-6.800E-06,0.000
-6.790E-06,0.000
-6.780E-06,0.000
-6.770E-06,0.000
-6.760E-06,-0.008
-6.750E-06,-0.008
-6.740E-06,0.000
-6.730E-06,-0.008
-6.720E-06,0.000
-6.710E-06,0.000
-6.700E-06,0.000
-6.690E-06,0.008
-6.680E-06,-0.008
-6.670E-06,0.000
-6.660E-06,0.000
-6.650E-06,0.000
-6.640E-06,0.008
-6.630E-06,-0.008
-6.620E-06,0.000
-6.610E-06,0.008
-6.600E-06,0.000
-6.590E-06,0.000
-6.580E-06,0.000
-6.570E-06,0.000
-6.560E-06,0.000
-6.550E-06,0.000
-6.540E-06,0.000
-6.530E-06,-0.008
-6.520E-06,0.000
-6.510E-06,0.000
-6.500E-06,0.008
-6.490E-06,0.000
-6.480E-06,-0.008
-6.470E-06,0.000
-6.460E-06,0.000
-6.450E-06,0.008
-6.440E-06,0.000
-6.430E-06,0.000
-6.420E-06,0.000
-6.410E-06,0.000
-6.400E-06,0.008
-6.390E-06,0.008
-6.380E-06,0.008
-6.370E-06,-0.008
-6.360E-06,0.000
-6.350E-06,0.000
-6.340E-06,0.000
-6.330E-06,0.008
-6.320E-06,-0.008
-6.310E-06,-0.008
-6.300E-06,0.000
-6.290E-06,-0.008
-6.280E-06,-0.008
-6.270E-06,0.000
-6.260E-06,0.008
-6.250E-06,0.008
-6.240E-06,0.008
-6.230E-06,-0.008
-6.220E-06,-0.008
-6.210E-06,0.000
-6.200E-06,-0.008
-6.190E-06,0.000
-6.180E-06,-0.008
-6.170E-06,0.000
-6.160E-06,0.000
-6.150E-06,0.000
-6.140E-06,0.000
-6.130E-06,-0.008
-6.120E-06,0.000
-6.110E-06,-0.008
-6.100E-06,0.000
-6.090E-06,0.000
-6.080E-06,0.000
-6.070E-06,0.008
-6.060E-06,0.008
-6.050E-06,0.008
-6.040E-06,-0.008
-6.030E-06,-0.008
-6.020E-06,0.000
-6.010E-06,0.000
-6.000E-06,0.000
-5.990E-06,0.000
-5.980E-06,-0.008
-5.970E-06,0.000
-5.960E-06,0.000
-5.950E-06,0.000
-5.940E-06,0.008
-5.930E-06,0.008
-5.920E-06,-0.008
-5.910E-06,0.000
-5.900E-06,0.000
-5.890E-06,0.000
-5.880E-06,0.000
-5.870E-06,-0.008
-5.860E-06,0.000
-5.850E-06,0.000
-5.840E-06,0.000
-5.830E-06,0.000
-5.820E-06,0.000
-5.810E-06,-0.008
-5.800E-06,-0.008
-5.790E-06,0.000
-5.780E-06,0.000
-5.770E-06,0.000
-5.760E-06,0.000
-5.750E-06,0.000
-5.740E-06,-0.008
-5.730E-06,0.000
-5.720E-06,-0.008
-5.710E-06,-0.008
-5.700E-06,0.000
-5.690E-06,0.008
-5.680E-06,0.008
-5.670E-06,-0.008
-5.660E-06,0.000
-5.650E-06,0.000
-5.640E-06,0.000
-5.630E-06,-0.008
-5.620E-06,0.000
-5.610E-06,0.000
-5.600E-06,0.000
-5.590E-06,0.000
-5.580E-06,0.000
-5.570E-06,0.000
-5.560E-06,0.000
-5.550E-06,0.000
-5.540E-06,0.000
-5.530E-06,-0.008
-5.520E-06,0.000
-5.510E-06,0.000
-5.500E-06,0.000
-5.490E-06,0.000
-5.480E-06,0.000
-5.470E-06,0.000
-5.460E-06,0.000
-5.450E-06,0.000
-5.440E-06,0.000
-5.430E-06,0.000
-5.420E-06,0.000
-5.410E-06,0.000
-5.400E-06,0.008
-5.390E-06,0.000
-5.380E-06,-0.008
-5.370E-06,0.000
-5.360E-06,0.000
-5.350E-06,0.000
-5.340E-06,-0.008
-5.330E-06,-0.008
-5.320E-06,0.000
-5.310E-06,-0.008
-5.300E-06,-0.008
-5.290E-06,0.000
-5.280E-06,-0.008
-5.270E-06,0.000
-5.260E-06,0.000
-5.250E-06,0.000
-5.240E-06,0.000
-5.230E-06,0.000
-5.220E-06,0.000
-5.210E-06,0.000
-5.200E-06,0.000
-5.190E-06,0.000
-5.180E-06,0.000
-5.170E-06,0.000
-5.160E-06,-0.008
-5.150E-06,-0.008
-5.140E-06,0.000
-5.130E-06,0.000
-5.120E-06,0.000
-5.110E-06,0.000
-5.100E-06,-0.008
-5.090E-06,-0.008
-5.080E-06,0.000
-5.070E-06,0.008
-5.060E-06,-0.008
-5.050E-06,-0.008
-5.040E-06,0.000
-5.030E-06,0.008
-5.020E-06,-0.008
-5.010E-06,-0.008
-5.000E-06,0.000
-4.990E-06,-0.008
-4.980E-06,0.000
-4.970E-06,0.000
-4.960E-06,-0.008
-4.950E-06,0.000
-4.940E-06,0.008
-4.930E-06,0.008
-4.920E-06,0.008
-4.910E-06,0.008
-4.900E-06,0.008
-4.890E-06,0.008
-4.880E-06,-0.008
-4.870E-06,0.000
-4.860E-06,0.000
-4.850E-06,0.000
-4.840E-06,0.008
-4.830E-06,-0.008
-4.820E-06,0.000
-4.810E-06,0.008
-4.800E-06,0.000
-4.790E-06,0.008
-4.780E-06,0.000
-4.770E-06,0.000
-4.760E-06,0.000
-4.750E-06,0.008
-4.740E-06,-0.008
-4.730E-06,0.000
-4.720E-06,0.000
-4.710E-06,0.000
-4.700E-06,0.000
-4.690E-06,0.000
-4.680E-06,-0.008
-4.670E-06,-0.008
-4.660E-06,0.000
-4.650E-06,-0.008
-4.640E-06,0.000
-4.630E-06,0.000
-4.620E-06,0.000
-4.610E-06,0.000
-4.600E-06,0.000
-4.590E-06,0.000
-4.580E-06,0.000
-4.570E-06,-0.008
-4.560E-06,-0.008
-4.550E-06,0.000
-4.540E-06,-0.024
-4.530E-06,-0.016
-4.520E-06,0.040
-4.510E-06,0.312
-4.500E-06,0.920
-4.490E-06,1.080
-4.480E-06,1.072
-4.470E-06,1.080
-4.460E-06,1.088
-4.450E-06,0.456
-4.440E-06,-0.864
-4.430E-06,-1.032
-4.420E-06,-1.032
-4.410E-06,-1.040
-4.400E-06,-1.032
-4.390E-06,-1.032
-4.380E-06,-1.040
-4.370E-06,-1.040
-4.360E-06,-1.040
-4.350E-06,-1.048
-4.340E-06,-0.456
-4.330E-06,0.056
-4.320E-06,0.416
-4.310E-06,0.440
-4.300E-06,0.304
-4.290E-06,0.376
-4.280E-06,0.416
-4.270E-06,0.488
-4.260E-06,0.568
-4.250E-06,0.576
-4.240E-06,0.568
-4.230E-06,0.568
-4.220E-06,0.568
-4.210E-06,0.632
-4.200E-06,0.672
-4.190E-06,0.608
-4.180E-06,0.504
-4.170E-06,0.336
-4.160E-06,0.120
-4.150E-06,-0.064
-4.140E-06,-0.248
-4.130E-06,-0.344
-4.120E-06,-0.368
-4.110E-06,-0.312
-4.100E-06,-0.216
-4.090E-06,-0.048
-4.080E-06,0.144
-4.070E-06,0.336
-4.060E-06,0.512
-4.050E-06,0.648
-4.040E-06,0.736
-4.030E-06,0.768
-4.020E-06,0.736
-4.010E-06,0.664
-4.000E-06,0.520
-3.990E-06,0.360
-3.980E-06,0.136
-3.970E-06,-0.072
-3.960E-06,-0.272
-3.950E-06,-0.456
-3.940E-06,-0.608
-3.930E-06,-0.760
-3.920E-06,-0.912
-3.910E-06,-1.040
-3.900E-06,-1.040
-3.890E-06,-1.040
-3.880E-06,-1.048
-3.870E-06,-1.040
-3.860E-06,-0.832
-3.850E-06,-0.600
-3.840E-06,-0.352
-3.830E-06,-0.136
-3.820E-06,0.048
-3.810E-06,0.232
-3.800E-06,0.408
-3.790E-06,0.568
-3.780E-06,0.664
-3.770E-06,0.704
-3.760E-06,0.664
-3.750E-06,0.568
-3.740E-06,0.440
-3.730E-06,0.328
-3.720E-06,0.200
-3.710E-06,0.088
-3.700E-06,0.000
-3.690E-06,-0.064
-3.680E-06,-0.104
-3.670E-06,-0.136
-3.660E-06,-0.152
-3.650E-06,-0.160
-3.640E-06,-0.168
-3.630E-06,-0.200
-3.620E-06,-0.224
-3.610E-06,-0.232
-3.600E-06,-0.200
-3.590E-06,-0.160
-3.580E-06,-0.104
-3.570E-06,-0.040
-3.560E-06,0.040
-3.550E-06,0.120
-3.540E-06,0.184
-3.530E-06,0.232
-3.520E-06,0.288
-3.510E-06,0.304
-3.500E-06,0.264
-3.490E-06,0.224
-3.480E-06,0.160
-3.470E-06,0.104
-3.460E-06,0.048
-3.450E-06,-0.016
-3.440E-06,-0.048
-3.430E-06,-0.112
-3.420E-06,-0.152
-3.410E-06,-0.160
-3.400E-06,-0.152
-3.390E-06,-0.144
-3.380E-06,-0.104
-3.370E-06,-0.072
-3.360E-06,-0.032
-3.350E-06,-0.048
-3.340E-06,-0.040
-3.330E-06,-0.064
-3.320E-06,-0.056
-3.310E-06,-0.040
-3.300E-06,-0.056
-3.290E-06,-0.064
-3.280E-06,-0.056
-3.270E-06,-0.056
-3.260E-06,-0.032
-3.250E-06,0.008
-3.240E-06,0.032
-3.230E-06,0.032
-3.220E-06,0.040
-3.210E-06,0.040
-3.200E-06,0.072
-3.190E-06,0.096
-3.180E-06,0.096
-3.170E-06,0.112
-3.160E-06,0.096
-3.150E-06,0.072
-3.140E-06,0.000
-3.130E-06,-0.008
-3.120E-06,-0.048
-3.110E-06,-0.064
-3.100E-06,-0.040
-3.090E-06,-0.040
-3.080E-06,-0.040
-3.070E-06,0.008
-3.060E-06,0.064
-3.050E-06,0.120
-3.040E-06,0.112
-3.030E-06,0.112
-3.020E-06,0.088
-3.010E-06,0.048
-3.000E-06,0.088
-2.990E-06,0.112
-2.980E-06,0.144
-2.970E-06,0.144
-2.960E-06,0.128
-2.950E-06,0.088
-2.940E-06,0.040
-2.930E-06,0.040
-2.920E-06,0.056
-2.910E-06,0.072
-2.900E-06,0.064
-2.890E-06,0.040
-2.880E-06,0.016
-2.870E-06,-0.008
-2.860E-06,-0.032
-2.850E-06,-0.048
-2.840E-06,-0.064
-2.830E-06,-0.080
-2.820E-06,-0.096
-2.810E-06,-0.120
-2.800E-06,-0.136
-2.790E-06,-0.144
-2.780E-06,-0.112
-2.770E-06,-0.088
-2.760E-06,-0.048
-2.750E-06,-0.040
-2.740E-06,0.000
-2.730E-06,0.024
-2.720E-06,0.032
-2.710E-06,0.096
-2.700E-06,0.088
-2.690E-06,0.112
-2.680E-06,0.160
-2.670E-06,0.032
-2.660E-06,0.032
-2.650E-06,0.040
-2.640E-06,0.032
-2.630E-06,0.184
-2.620E-06,0.336
-2.610E-06,0.352
-2.600E-06,0.248
-2.590E-06,0.056
-2.580E-06,-0.096
-2.570E-06,-0.072
-2.560E-06,0.024
-2.550E-06,0.136
-2.540E-06,0.184
-2.530E-06,0.112
-2.520E-06,-0.024
-2.510E-06,-0.112
-2.500E-06,-0.144
-2.490E-06,-0.096
-2.480E-06,0.000
-2.470E-06,0.064
-2.460E-06,0.056
-2.450E-06,-0.008
-2.440E-06,-0.048
-2.430E-06,-0.056
-2.420E-06,-0.056
-2.410E-06,-0.008
-2.400E-06,0.016
-2.390E-06,0.032
-2.380E-06,-0.008
-2.370E-06,-0.064
-2.360E-06,-0.080
-2.350E-06,-0.096
-2.340E-06,-0.104
-2.330E-06,-0.080
-2.320E-06,-0.048
-2.310E-06,-0.088
-2.300E-06,-0.120
-2.290E-06,-0.152
-2.280E-06,-0.328
-2.270E-06,-0.376
-2.260E-06,-0.400
-2.250E-06,-0.384
-2.240E-06,-0.208
-2.230E-06,-0.072
-2.220E-06,0.000
-2.210E-06,0.040
-2.200E-06,0.048
-2.190E-06,0.136
-2.180E-06,0.312
-2.170E-06,0.424
-2.160E-06,0.544
-2.150E-06,0.560
-2.140E-06,0.504
-2.130E-06,0.448
-2.120E-06,0.424
-2.110E-06,0.440
-2.100E-06,0.480
-2.090E-06,0.464
-2.080E-06,0.416
-2.070E-06,0.304
-2.060E-06,0.168
-2.050E-06,0.040
-2.040E-06,-0.024
-2.030E-06,-0.096
-2.020E-06,-0.112
-2.010E-06,-0.152
-2.000E-06,-0.200
-1.990E-06,-0.272
-1.980E-06,-0.320
-1.970E-06,-0.360
-1.960E-06,-0.352
-1.950E-06,-0.304
-1.940E-06,-0.264
-1.930E-06,-0.168
-1.920E-06,-0.040
-1.910E-06,-0.088
-1.900E-06,-0.096
-1.890E-06,-0.024
-1.880E-06,-0.056
-1.870E-06,0.200
-1.860E-06,0.472
-1.850E-06,0.584
-1.840E-06,0.504
-1.830E-06,0.216
-1.820E-06,-0.048
-1.810E-06,-0.096
-1.800E-06,-0.008
-1.790E-06,0.160
-1.780E-06,0.264
-1.770E-06,0.200
-1.760E-06,0.008
-1.750E-06,-0.144
-1.740E-06,-0.256
-1.730E-06,-0.208
-1.720E-06,-0.080
-1.710E-06,0.040
-1.700E-06,0.104
-1.690E-06,0.080
-1.680E-06,0.024
-1.670E-06,-0.008
-1.660E-06,0.024
-1.650E-06,0.064
-1.640E-06,0.144
-1.630E-06,0.192
-1.620E-06,0.192
-1.610E-06,0.136
-1.600E-06,0.056
-1.590E-06,-0.016
-1.580E-06,-0.040
-1.570E-06,-0.040
-1.560E-06,-0.024
-1.550E-06,-0.048
-1.540E-06,-0.088
-1.530E-06,-0.168
-1.520E-06,-0.240
-1.510E-06,-0.272
-1.500E-06,-0.328
-1.490E-06,-0.288
-1.480E-06,-0.200
-1.470E-06,-0.064
-1.460E-06,0.088
-1.450E-06,0.184
-1.440E-06,0.200
-1.430E-06,0.152
-1.420E-06,0.072
-1.410E-06,0.096
-1.400E-06,0.184
-1.390E-06,0.296
-1.380E-06,0.392
-1.370E-06,0.400
-1.360E-06,0.336
-1.350E-06,0.216
-1.340E-06,0.136
-1.330E-06,0.096
-1.320E-06,0.128
-1.310E-06,0.160
-1.300E-06,0.176
-1.290E-06,0.112
-1.280E-06,0.016
-1.270E-06,-0.088
-1.260E-06,-0.152
-1.250E-06,-0.192
-1.240E-06,-0.216
-1.230E-06,-0.216
-1.220E-06,-0.216
-1.210E-06,-0.224
-1.200E-06,-0.232
-1.190E-06,-0.216
-1.180E-06,-0.176
-1.170E-06,-0.144
-1.160E-06,-0.104
-1.150E-06,-0.056
-1.140E-06,-0.072
-1.130E-06,-0.072
-1.120E-06,-0.032
-1.110E-06,0.024
-1.100E-06,0.104
-1.090E-06,0.176
-1.080E-06,0.200
-1.070E-06,0.184
-1.060E-06,0.144
-1.050E-06,0.128
-1.040E-06,0.136
-1.030E-06,0.176
-1.020E-06,0.208
-1.010E-06,0.216
-1.000E-06,0.208
-9.900E-07,0.184
-9.800E-07,0.168
-9.700E-07,0.144
-9.600E-07,0.136
-9.500E-07,0.128
-9.400E-07,0.160
-9.300E-07,0.152
-9.200E-07,0.232
-9.100E-07,0.304
-9.000E-07,0.128
-8.900E-07,0.232
-8.800E-07,0.280
-8.700E-07,0.272
-8.600E-07,0.552
-8.500E-07,0.536
-8.400E-07,0.400
-8.300E-07,0.216
-8.200E-07,-0.024
-8.100E-07,-0.040
-8.000E-07,0.056
-7.900E-07,0.064
-7.800E-07,0.056
-7.700E-07,-0.024
-7.600E-07,-0.232
-7.500E-07,-0.336
-7.400E-07,-0.368
-7.300E-07,-0.376
-7.200E-07,-0.296
-7.100E-07,-0.280
-7.000E-07,-0.312
-6.900E-07,-0.392
-6.800E-07,-0.432
-6.700E-07,-0.464
-6.600E-07,-0.416
-6.500E-07,-0.392
-6.400E-07,-0.368
-6.300E-07,-0.352
-6.200E-07,-0.336
-6.100E-07,-0.296
-6.000E-07,-0.280
-5.900E-07,-0.240
-5.800E-07,-0.224
-5.700E-07,-0.208
-5.600E-07,-0.168
-5.500E-07,-0.112
-5.400E-07,-0.064
-5.300E-07,-0.016
-5.200E-07,0.024
-5.100E-07,0.040
-5.000E-07,0.088
-4.900E-07,0.152
-4.800E-07,0.224
-4.700E-07,0.304
-4.600E-07,0.368
-4.500E-07,0.352
-4.400E-07,0.328
-4.300E-07,0.296
-4.200E-07,0.344
-4.100E-07,0.408
-4.000E-07,0.520
-3.900E-07,0.656
-3.800E-07,0.600
-3.700E-07,0.448
-3.600E-07,0.440
-3.500E-07,0.400
-3.400E-07,0.456
-3.300E-07,0.488
-3.200E-07,0.384
-3.100E-07,0.096
-3.000E-07,-0.168
-2.900E-07,-0.280
-2.800E-07,-0.136
-2.700E-07,0.040
-2.600E-07,0.104
-2.500E-07,0.024
-2.400E-07,-0.192
-2.300E-07,-0.296
-2.200E-07,-0.360
-2.100E-07,-0.264
-2.000E-07,-0.112
-1.900E-07,0.192
-1.800E-07,-0.224
-1.700E-07,-0.184
-1.600E-07,-0.200
-1.500E-07,-0.040
-1.400E-07,1.048
-1.300E-07,1.072
-1.200E-07,1.080
-1.100E-07,1.080
-1.000E-07,0.248
-9.000E-08,-0.440
-8.000E-08,-0.368
-7.000E-08,-0.296
-6.000E-08,-0.064
-5.000E-08,-0.288
-4.000E-08,-1.048
-3.000E-08,-1.040
-2.000E-08,-1.040
-1.000E-08,-0.240
0.000E+00,1.080
1.000E-08,1.088
2.000E-08,1.088
3.000E-08,1.080
4.000E-08,0.240
5.000E-08,-0.384
6.000E-08,-0.312
7.000E-08,0.192
8.000E-08,0.920
9.000E-08,0.896
1.000E-07,0.616
1.100E-07,0.104
1.200E-07,-0.672
1.300E-07,-0.888
1.400E-07,-0.784
1.500E-07,-0.536
1.600E-07,-0.384
1.700E-07,-0.528
1.800E-07,-0.824
1.900E-07,-1.032
2.000E-07,-1.032
2.100E-07,-1.040
2.200E-07,-1.040
2.300E-07,-1.040
2.400E-07,-1.048
2.500E-07,-1.040
2.600E-07,-0.912
2.700E-07,-0.584
2.800E-07,-0.224
2.900E-07,-0.200
3.000E-07,-0.368
3.100E-07,-0.776
3.200E-07,-0.712
3.300E-07,-0.600
3.400E-07,0.152
3.500E-07,1.088
3.600E-07,1.088
3.700E-07,1.080
3.800E-07,1.080
3.900E-07,1.072
4.000E-07,1.080
4.100E-07,1.088
4.200E-07,1.080
4.300E-07,1.072
4.400E-07,1.080
4.500E-07,1.080
4.600E-07,0.824
4.700E-07,0.296
4.800E-07,-0.048
4.900E-07,-0.264
5.000E-07,-0.432
5.100E-07,-0.464
5.200E-07,-0.544
5.300E-07,-0.688
5.400E-07,-0.816
5.500E-07,-0.816
5.600E-07,-0.952
5.700E-07,-1.016
5.800E-07,-1.048
5.900E-07,-1.040
6.000E-07,-1.032
6.100E-07,-1.040
6.200E-07,-1.032
6.300E-07,-1.032
6.400E-07,-1.040
6.500E-07,-1.048
6.600E-07,-1.032
6.700E-07,-0.512
6.800E-07,-0.264
6.900E-07,-0.328
7.000E-07,-0.400
7.100E-07,-0.400
7.200E-07,0.088
7.300E-07,0.872
7.400E-07,1.088
7.500E-07,1.080
7.600E-07,1.088
7.700E-07,1.080
7.800E-07,1.080
7.900E-07,1.080
8.000E-07,1.072
8.100E-07,1.080
8.200E-07,1.088
8.300E-07,1.080
8.400E-07,0.696
8.500E-07,0.112
8.600E-07,-0.152
8.700E-07,-0.216
8.800E-07,-0.160
8.900E-07,0.024
9.000E-07,-0.136
9.100E-07,-0.400
9.200E-07,-0.704
9.300E-07,-0.880
9.400E-07,-0.872
9.500E-07,-0.664
9.600E-07,-0.352
9.700E-07,-0.160
9.800E-07,-0.144
9.900E-07,-0.344
1.000E-06,-0.632
1.010E-06,-0.880
1.020E-06,-1.048
1.030E-06,-1.040
1.040E-06,-1.032
1.050E-06,-1.040
1.060E-06,-0.832
1.070E-06,-0.320
1.080E-06,0.016
1.090E-06,0.184
1.100E-06,0.360
1.110E-06,0.376
1.120E-06,1.008
1.130E-06,1.080
1.140E-06,1.072
1.150E-06,1.080
1.160E-06,1.088
1.170E-06,1.080
1.180E-06,1.088
1.190E-06,1.048
1.200E-06,0.672
1.210E-06,0.296
1.220E-06,0.000
1.230E-06,-0.400
1.240E-06,-0.472
1.250E-06,-0.504
1.260E-06,-0.544
1.270E-06,-0.600
1.280E-06,-0.448
1.290E-06,-0.136
1.300E-06,0.080
1.310E-06,0.192
1.320E-06,0.248
1.330E-06,0.208
1.340E-06,-0.008
1.350E-06,0.400
1.360E-06,-0.064
1.370E-06,-0.824
1.380E-06,0.592
1.390E-06,1.080
1.400E-06,1.080
1.410E-06,1.080
1.420E-06,1.072
1.430E-06,1.080
1.440E-06,1.088
1.450E-06,1.088
1.460E-06,1.080
1.470E-06,1.080
1.480E-06,0.136
1.490E-06,-0.632
1.500E-06,-1.048
1.510E-06,-1.048
1.520E-06,-1.048
1.530E-06,-1.048
1.540E-06,-1.032
1.550E-06,-1.032
1.560E-06,-1.040
1.570E-06,-1.048
1.580E-06,-1.032
1.590E-06,-1.040
1.600E-06,-1.040
1.610E-06,-1.048
1.620E-06,-1.040
1.630E-06,-1.040
1.640E-06,-0.672
1.650E-06,0.336
1.660E-06,1.088
1.670E-06,1.080
1.680E-06,1.080
1.690E-06,0.352
1.700E-06,-0.200
1.710E-06,-0.224
1.720E-06,0.352
1.730E-06,1.088
1.740E-06,1.080
1.750E-06,1.080
1.760E-06,1.080
1.770E-06,1.080
1.780E-06,1.072
1.790E-06,1.080
1.800E-06,1.080
1.810E-06,1.088
1.820E-06,1.088
1.830E-06,1.080
1.840E-06,1.080
1.850E-06,1.080
1.860E-06,1.080
1.870E-06,1.088
1.880E-06,1.080
1.890E-06,1.080
1.900E-06,0.872
1.910E-06,0.128
1.920E-06,-0.576
1.930E-06,-1.048
1.940E-06,-1.040
1.950E-06,-1.048
1.960E-06,-1.032
1.970E-06,-1.032
1.980E-06,-1.040
1.990E-06,-1.048
2.000E-06,-1.032
2.010E-06,-1.032
2.020E-06,-1.040
2.030E-06,-1.032
2.040E-06,-1.040
2.050E-06,-0.024
2.060E-06,1.080
2.070E-06,1.088
2.080E-06,1.080
2.090E-06,1.080
2.100E-06,1.080
2.110E-06,1.080
2.120E-06,1.080
2.130E-06,1.072
2.140E-06,1.080
2.150E-06,1.080
2.160E-06,1.080
2.170E-06,1.072
2.180E-06,1.080
2.190E-06,1.080
2.200E-06,1.080
2.210E-06,1.072
2.220E-06,1.080
2.230E-06,1.088
2.240E-06,1.080
2.250E-06,0.864
2.260E-06,0.328
2.270E-06,-0.136
2.280E-06,-0.536
2.290E-06,-0.808
2.300E-06,-0.952
2.310E-06,-0.840
2.320E-06,-0.488
2.330E-06,-0.032
2.340E-06,0.408
2.350E-06,0.800
2.360E-06,1.080
2.370E-06,1.088
2.380E-06,1.088
2.390E-06,1.080
2.400E-06,1.088
2.410E-06,1.080
2.420E-06,1.088
2.430E-06,1.024
2.440E-06,0.704
2.450E-06,0.384
2.460E-06,0.056
2.470E-06,-0.248
2.480E-06,-0.528
2.490E-06,-0.728
2.500E-06,-0.880
2.510E-06,-0.984
2.520E-06,-1.016
2.530E-06,-1.016
2.540E-06,-0.976
2.550E-06,-0.856
2.560E-06,-0.600
2.570E-06,-0.264
2.580E-06,0.192
2.590E-06,0.632
2.600E-06,1.000
2.610E-06,1.072
2.620E-06,1.080
2.630E-06,1.088
2.640E-06,1.080
2.650E-06,1.072
2.660E-06,0.784
2.670E-06,0.416
2.680E-06,0.040
2.690E-06,-0.304
2.700E-06,-0.592
2.710E-06,-0.800
2.720E-06,-0.872
2.730E-06,-0.832
2.740E-06,-0.736
2.750E-06,-0.568
2.760E-06,-0.360
2.770E-06,-0.120
2.780E-06,0.104
2.790E-06,0.296
2.800E-06,0.440
2.810E-06,0.520
2.820E-06,0.544
2.830E-06,0.496
2.840E-06,0.384
2.850E-06,0.216
2.860E-06,0.032
2.870E-06,-0.120
2.880E-06,-0.272
2.890E-06,-0.376
2.900E-06,-0.424
2.910E-06,-0.424
2.920E-06,-0.360
2.930E-06,-0.280
2.940E-06,-0.208
2.950E-06,-0.160
2.960E-06,-0.104
2.970E-06,-0.056
2.980E-06,-0.016
2.990E-06,0.008
3.000E-06,0.016
3.010E-06,-0.008
3.020E-06,-0.032
3.030E-06,-0.080
3.040E-06,-0.152
3.050E-06,-0.200
3.060E-06,-0.288
3.070E-06,-0.336
3.080E-06,-0.384
3.090E-06,-0.408
3.100E-06,-0.392
3.110E-06,-0.384
3.120E-06,-0.376
3.130E-06,-0.352
3.140E-06,-0.304
3.150E-06,-0.232
3.160E-06,-0.144
3.170E-06,-0.040
3.180E-06,0.096
3.190E-06,0.160
3.200E-06,0.176
3.210E-06,0.128
3.220E-06,0.048
3.230E-06,-0.088
3.240E-06,-0.248
3.250E-06,-0.400
3.260E-06,-0.480
3.270E-06,-0.496
3.280E-06,-0.488
3.290E-06,-0.440
3.300E-06,-0.344
3.310E-06,-0.216
3.320E-06,-0.096
3.330E-06,-0.008
3.340E-06,-0.016
3.350E-06,-0.024
3.360E-06,-0.040
3.370E-06,-0.120
3.380E-06,-0.168
3.390E-06,-0.208
3.400E-06,-0.248
3.410E-06,-0.256
3.420E-06,-0.280
3.430E-06,-0.312
3.440E-06,-0.312
3.450E-06,-0.320
3.460E-06,-0.320
3.470E-06,-0.352
3.480E-06,-0.384
