mediciones/mediciones removidas por ser diferentes/60/WaveData47246.csv

#timebase=2000000(ps)
,#voltbase=100000(mv/100)
#size=4000
-8.400E-06,0.004
-8.390E-06,-0.008
-8.380E-06,-0.008
-8.370E-06,0.000
-8.360E-06,0.000
-8.350E-06,0.008
-8.340E-06,0.008
-8.330E-06,0.012
-8.320E-06,0.000
-8.310E-06,0.008
-8.300E-06,-0.004
-8.290E-06,-0.004
-8.280E-06,-0.004
-8.270E-06,0.004
-8.260E-06,0.012
-8.250E-06,0.016
-8.240E-06,0.012
-8.230E-06,0.004
-8.220E-06,-0.012
-8.210E-06,-0.008
-8.200E-06,0.004
-8.190E-06,0.000
-8.180E-06,0.004
-8.170E-06,0.000
-8.160E-06,0.004
-8.150E-06,0.012
-8.140E-06,0.008
-8.130E-06,-0.008
-8.120E-06,0.004
-8.110E-06,0.000
-8.100E-06,-0.004
-8.090E-06,0.008
-8.080E-06,0.008
-8.070E-06,0.012
-8.060E-06,0.012
-8.050E-06,-0.004
-8.040E-06,-0.008
-8.030E-06,-0.012
-8.020E-06,-0.004
-8.010E-06,0.024
-8.000E-06,0.024
-7.990E-06,0.012
-7.980E-06,-0.004
-7.970E-06,-0.008
-7.960E-06,-0.008
-7.950E-06,-0.004
-7.940E-06,0.008
-7.930E-06,0.016
-7.920E-06,0.016
-7.910E-06,0.008
-7.900E-06,0.004
-7.890E-06,0.004
-7.880E-06,0.004
-7.870E-06,0.004
-7.860E-06,0.008
-7.850E-06,-0.008
-7.840E-06,0.004
-7.830E-06,0.008
-7.820E-06,0.008
-7.810E-06,0.012
-7.800E-06,0.000
-7.790E-06,-0.004
-7.780E-06,-0.008
-7.770E-06,-0.004
-7.760E-06,0.008
-7.750E-06,0.012
-7.740E-06,0.012
-7.730E-06,0.012
-7.720E-06,0.004
-7.710E-06,0.000
-7.700E-06,-0.004
-7.690E-06,-0.008
-7.680E-06,0.004
-7.670E-06,0.012
-7.660E-06,0.012
-7.650E-06,-0.004
-7.640E-06,-0.004
-7.630E-06,0.000
-7.620E-06,0.004
-7.610E-06,0.004
-7.600E-06,0.012
-7.590E-06,-0.008
-7.580E-06,-0.012
-7.570E-06,-0.004
-7.560E-06,0.004
-7.550E-06,0.004
-7.540E-06,0.016
-7.530E-06,0.008
-7.520E-06,-0.004
-7.510E-06,-0.012
-7.500E-06,-0.012
-7.490E-06,-0.004
-7.480E-06,0.012
-7.470E-06,0.016
-7.460E-06,0.012
-7.450E-06,0.000
-7.440E-06,-0.004
-7.430E-06,-0.008
-7.420E-06,0.000
-7.410E-06,0.008
-7.400E-06,0.008
-7.390E-06,0.008
-7.380E-06,0.004
-7.370E-06,0.004
-7.360E-06,0.000
-7.350E-06,0.000
-7.340E-06,0.004
-7.330E-06,-0.004
-7.320E-06,-0.004
-7.310E-06,-0.004
-7.300E-06,0.008
-7.290E-06,0.012
-7.280E-06,0.004
-7.270E-06,0.008
-7.260E-06,0.000
-7.250E-06,-0.004
-7.240E-06,0.004
-7.230E-06,0.008
-7.220E-06,0.008
-7.210E-06,0.012
-7.200E-06,0.004
-7.190E-06,-0.004
-7.180E-06,-0.004
-7.170E-06,-0.004
-7.160E-06,0.012
-7.150E-06,0.012
-7.140E-06,0.000
-7.130E-06,-0.008
-7.120E-06,-0.020
-7.110E-06,0.000
-7.100E-06,0.012
-7.090E-06,0.028
-7.080E-06,0.024
-7.070E-06,0.008
-7.060E-06,-0.024
-7.050E-06,-0.028
-7.040E-06,-0.012
-7.030E-06,0.012
-7.020E-06,0.036
-7.010E-06,0.028
-7.000E-06,0.008
-6.990E-06,-0.008
-6.980E-06,-0.016
-6.970E-06,-0.020
-6.960E-06,-0.004
-6.950E-06,0.012
-6.940E-06,0.024
-6.930E-06,0.020
-6.920E-06,0.016
-6.910E-06,-0.004
-6.900E-06,-0.004
-6.890E-06,-0.004
-6.880E-06,-0.008
-6.870E-06,-0.004
-6.860E-06,0.008
-6.850E-06,0.012
-6.840E-06,0.008
-6.830E-06,0.012
-6.820E-06,0.000
-6.810E-06,-0.008
-6.800E-06,-0.012
-6.790E-06,-0.004
-6.780E-06,0.004
-6.770E-06,0.016
-6.760E-06,0.024
-6.750E-06,0.012
-6.740E-06,0.004
-6.730E-06,0.000
-6.720E-06,-0.008
-6.710E-06,-0.012
-6.700E-06,0.004
-6.690E-06,0.008
-6.680E-06,0.012
-6.670E-06,0.016
-6.660E-06,0.008
-6.650E-06,0.000
-6.640E-06,-0.008
-6.630E-06,-0.008
-6.620E-06,0.000
-6.610E-06,0.008
-6.600E-06,0.004
-6.590E-06,0.012
-6.580E-06,0.008
-6.570E-06,-0.004
-6.560E-06,0.000
-6.550E-06,0.004
-6.540E-06,0.008
-6.530E-06,0.000
-6.520E-06,0.004
-6.510E-06,0.004
-6.500E-06,0.008
-6.490E-06,0.004
-6.480E-06,0.004
-6.470E-06,0.000
-6.460E-06,0.004
-6.450E-06,0.004
-6.440E-06,0.000
-6.430E-06,-0.008
-6.420E-06,-0.008
-6.410E-06,0.020
-6.400E-06,0.028
-6.390E-06,0.000
-6.380E-06,-0.008
-6.370E-06,0.000
-6.360E-06,0.000
-6.350E-06,0.024
-6.340E-06,-0.020
-6.330E-06,-0.016
-6.320E-06,0.016
-6.310E-06,-0.012
-6.300E-06,-0.060
-6.290E-06,-0.040
-6.280E-06,0.000
-6.270E-06,0.024
-6.260E-06,0.044
-6.250E-06,0.080
-6.240E-06,0.028
-6.230E-06,-0.056
-6.220E-06,-0.056
-6.210E-06,-0.024
-6.200E-06,-0.028
-6.190E-06,0.028
-6.180E-06,0.076
-6.170E-06,0.056
-6.160E-06,0.000
-6.150E-06,-0.036
-6.140E-06,-0.036
-6.130E-06,-0.028
-6.120E-06,0.000
-6.110E-06,0.032
-6.100E-06,0.044
-6.090E-06,0.028
-6.080E-06,0.004
-6.070E-06,0.000
-6.060E-06,-0.012
-6.050E-06,-0.024
-6.040E-06,-0.016
-6.030E-06,0.004
-6.020E-06,0.020
-6.010E-06,0.024
-6.000E-06,0.028
-5.990E-06,0.016
-5.980E-06,-0.004
-5.970E-06,-0.024
-5.960E-06,-0.016
-5.950E-06,-0.004
-5.940E-06,0.008
-5.930E-06,0.024
-5.920E-06,0.032
-5.910E-06,0.016
-5.900E-06,-0.004
-5.890E-06,-0.012
-5.880E-06,-0.012
-5.870E-06,-0.004
-5.860E-06,0.008
-5.850E-06,0.020
-5.840E-06,0.024
-5.830E-06,0.012
-5.820E-06,0.004
-5.810E-06,0.000
-5.800E-06,0.000
-5.790E-06,0.004
-5.780E-06,0.012
-5.770E-06,0.020
-5.760E-06,0.016
-5.750E-06,0.004
-5.740E-06,0.000
-5.730E-06,-0.004
-5.720E-06,0.012
-5.710E-06,0.016
-5.700E-06,0.020
-5.690E-06,0.004
-5.680E-06,-0.004
-5.670E-06,-0.020
-5.660E-06,-0.036
-5.650E-06,-0.028
-5.640E-06,-0.008
-5.630E-06,0.008
-5.620E-06,0.016
-5.610E-06,0.016
-5.600E-06,-0.008
-5.590E-06,-0.016
-5.580E-06,-0.020
-5.570E-06,0.000
-5.560E-06,0.012
-5.550E-06,0.028
-5.540E-06,0.024
-5.530E-06,0.000
-5.520E-06,-0.008
-5.510E-06,-0.024
-5.500E-06,-0.008
-5.490E-06,0.012
-5.480E-06,0.028
-5.470E-06,0.020
-5.460E-06,0.008
-5.450E-06,-0.004
-5.440E-06,-0.004
-5.430E-06,-0.008
-5.420E-06,0.008
-5.410E-06,0.016
-5.400E-06,0.016
-5.390E-06,0.008
-5.380E-06,0.000
-5.370E-06,0.000
-5.360E-06,0.000
-5.350E-06,0.004
-5.340E-06,0.004
-5.330E-06,0.000
-5.320E-06,0.000
-5.310E-06,0.004
-5.300E-06,0.004
-5.290E-06,0.000
-5.280E-06,0.004
-5.270E-06,0.004
-5.260E-06,0.008
-5.250E-06,0.004
-5.240E-06,0.000
-5.230E-06,0.004
-5.220E-06,0.008
-5.210E-06,0.012
-5.200E-06,0.004
-5.190E-06,0.000
-5.180E-06,0.000
-5.170E-06,0.012
-5.160E-06,0.016
-5.150E-06,0.008
-5.140E-06,0.008
-5.130E-06,0.004
-5.120E-06,0.000
-5.110E-06,-0.004
-5.100E-06,0.008
-5.090E-06,0.016
-5.080E-06,0.020
-5.070E-06,0.012
-5.060E-06,0.008
-5.050E-06,0.004
-5.040E-06,-0.008
-5.030E-06,0.000
-5.020E-06,-0.004
-5.010E-06,0.000
-5.000E-06,0.004
-4.990E-06,0.012
-4.980E-06,0.008
-4.970E-06,0.004
-4.960E-06,0.004
-4.950E-06,0.004
-4.940E-06,0.008
-4.930E-06,0.008
-4.920E-06,0.004
-4.910E-06,0.004
-4.900E-06,0.012
-4.890E-06,0.012
-4.880E-06,0.008
-4.870E-06,0.004
-4.860E-06,0.008
-4.850E-06,0.012
-4.840E-06,0.012
-4.830E-06,0.016
-4.820E-06,0.012
-4.810E-06,0.020
-4.800E-06,0.012
-4.790E-06,0.012
-4.780E-06,0.004
-4.770E-06,0.012
-4.760E-06,0.012
-4.750E-06,0.028
-4.740E-06,0.020
-4.730E-06,-0.004
-4.720E-06,-0.052
-4.710E-06,-0.076
-4.700E-06,-0.104
-4.690E-06,-0.072
-4.680E-06,-0.004
-4.670E-06,0.072
-4.660E-06,0.104
-4.650E-06,0.060
-4.640E-06,-0.004
-4.630E-06,-0.072
-4.620E-06,-0.076
-4.610E-06,-0.028
-4.600E-06,0.032
-4.590E-06,0.076
-4.580E-06,0.068
-4.570E-06,0.020
-4.560E-06,-0.032
-4.550E-06,-0.052
-4.540E-06,-0.044
-4.530E-06,0.004
-4.520E-06,0.036
-4.510E-06,0.052
-4.500E-06,0.032
-4.490E-06,0.004
-4.480E-06,-0.004
-4.470E-06,-0.020
-4.460E-06,-0.008
-4.450E-06,0.000
-4.440E-06,0.012
-4.430E-06,0.020
-4.420E-06,0.024
-4.410E-06,0.028
-4.400E-06,0.012
-4.390E-06,0.000
-4.380E-06,-0.012
-4.370E-06,-0.016
-4.360E-06,-0.008
-4.350E-06,0.016
-4.340E-06,0.040
-4.330E-06,0.048
-4.320E-06,0.024
-4.310E-06,0.012
-4.300E-06,-0.008
-4.290E-06,-0.012
-4.280E-06,0.008
-4.270E-06,0.036
-4.260E-06,0.056
-4.250E-06,0.048
-4.240E-06,0.032
-4.230E-06,0.008
-4.220E-06,0.016
-4.210E-06,-0.016
-4.200E-06,-0.020
-4.190E-06,0.012
-4.180E-06,-0.004
-4.170E-06,-0.032
-4.160E-06,-0.044
-4.150E-06,-0.056
-4.140E-06,-0.020
-4.130E-06,0.016
-4.120E-06,0.052
-4.110E-06,0.020
-4.100E-06,-0.024
-4.090E-06,-0.044
-4.080E-06,-0.060
-4.070E-06,-0.016
-4.060E-06,0.028
-4.050E-06,0.064
-4.040E-06,0.060
-4.030E-06,0.020
-4.020E-06,-0.024
-4.010E-06,-0.048
-4.000E-06,-0.036
-3.990E-06,0.008
-3.980E-06,0.056
-3.970E-06,0.072
-3.960E-06,0.056
-3.950E-06,0.024
-3.940E-06,-0.012
-3.930E-06,-0.040
-3.920E-06,-0.060
-3.910E-06,-0.084
-3.900E-06,-0.024
-3.890E-06,0.072
-3.880E-06,0.092
-3.870E-06,0.060
-3.860E-06,-0.036
-3.850E-06,-0.084
-3.840E-06,-0.080
-3.830E-06,-0.004
-3.820E-06,0.044
-3.810E-06,0.068
-3.800E-06,0.052
-3.790E-06,0.004
-3.780E-06,-0.048
-3.770E-06,-0.072
-3.760E-06,-0.020
-3.750E-06,0.044
-3.740E-06,0.080
-3.730E-06,0.044
-3.720E-06,-0.004
-3.710E-06,-0.036
-3.700E-06,-0.036
-3.690E-06,0.008
-3.680E-06,0.056
-3.670E-06,0.076
-3.660E-06,0.052
-3.650E-06,0.020
-3.640E-06,0.004
-3.630E-06,-0.040
-3.620E-06,-0.072
-3.610E-06,-0.120
-3.600E-06,-0.060
-3.590E-06,0.008
-3.580E-06,0.076
-3.570E-06,0.104
-3.560E-06,0.100
-3.550E-06,0.000
-3.540E-06,-0.128
-3.530E-06,-0.160
-3.520E-06,-0.076
-3.510E-06,0.064
-3.500E-06,0.164
-3.490E-06,0.140
-3.480E-06,0.028
-3.470E-06,-0.092
-3.460E-06,-0.160
-3.450E-06,-0.104
-3.440E-06,0.004
-3.430E-06,0.104
-3.420E-06,0.128
-3.410E-06,0.084
-3.400E-06,0.000
-3.390E-06,-0.072
-3.380E-06,-0.080
-3.370E-06,-0.052
-3.360E-06,0.008
-3.350E-06,0.056
-3.340E-06,0.088
-3.330E-06,0.076
-3.320E-06,0.028
-3.310E-06,-0.004
-3.300E-06,-0.028
-3.290E-06,-0.036
-3.280E-06,-0.004
-3.270E-06,0.048
-3.260E-06,0.104
-3.250E-06,0.088
-3.240E-06,0.008
-3.230E-06,-0.072
-3.220E-06,-0.140
-3.210E-06,-0.108
-3.200E-06,-0.020
-3.190E-06,0.088
-3.180E-06,0.124
-3.170E-06,0.084
-3.160E-06,0.000
-3.150E-06,-0.080
-3.140E-06,-0.108
-3.130E-06,-0.064
-3.120E-06,0.016
-3.110E-06,0.076
-3.100E-06,0.108
-3.090E-06,0.072
-3.080E-06,0.012
-3.070E-06,-0.040
-3.060E-06,-0.052
-3.050E-06,-0.036
-3.040E-06,0.012
-3.030E-06,0.052
-3.020E-06,0.076
-3.010E-06,0.072
-3.000E-06,0.032
-2.990E-06,0.008
-2.980E-06,-0.004
-2.970E-06,0.008
-2.960E-06,0.056
-2.950E-06,0.040
-2.940E-06,0.020
-2.930E-06,-0.056
-2.920E-06,-0.088
-2.910E-06,-0.044
-2.900E-06,0.012
-2.890E-06,0.056
-2.880E-06,0.024
-2.870E-06,-0.004
-2.860E-06,-0.028
-2.850E-06,-0.040
-2.840E-06,-0.020
-2.830E-06,0.012
-2.820E-06,0.024
-2.810E-06,0.024
-2.800E-06,0.000
-2.790E-06,-0.024
-2.780E-06,-0.032
-2.770E-06,-0.004
-2.760E-06,0.020
-2.750E-06,0.028
-2.740E-06,0.028
-2.730E-06,0.012
-2.720E-06,-0.004
-2.710E-06,0.004
-2.700E-06,0.004
-2.690E-06,0.016
-2.680E-06,0.024
-2.670E-06,0.036
-2.660E-06,0.040
-2.650E-06,0.012
-2.640E-06,-0.028
-2.630E-06,-0.100
-2.620E-06,-0.128
-2.610E-06,-0.032
-2.600E-06,0.064
-2.590E-06,0.092
-2.580E-06,0.032
-2.570E-06,0.008
-2.560E-06,-0.008
-2.550E-06,-0.016
-2.540E-06,0.000
-2.530E-06,0.008
-2.520E-06,0.004
-2.510E-06,0.008
-2.500E-06,0.008
-2.490E-06,0.028
-2.480E-06,0.056
-2.470E-06,0.076
-2.460E-06,0.088
-2.450E-06,0.052
-2.440E-06,-0.032
-2.430E-06,-0.108
-2.420E-06,-0.148
-2.410E-06,-0.072
-2.400E-06,0.028
-2.390E-06,0.088
-2.380E-06,0.108
-2.370E-06,0.068
-2.360E-06,0.000
-2.350E-06,-0.080
-2.340E-06,-0.092
-2.330E-06,-0.040
-2.320E-06,0.028
-2.310E-06,0.076
-2.300E-06,0.088
-2.290E-06,0.024
-2.280E-06,-0.036
-2.270E-06,-0.064
-2.260E-06,-0.024
-2.250E-06,0.044
-2.240E-06,0.108
-2.230E-06,0.116
-2.220E-06,0.072
-2.210E-06,0.008
-2.200E-06,-0.060
-2.190E-06,-0.056
-2.180E-06,0.020
-2.170E-06,0.072
-2.160E-06,0.096
-2.150E-06,0.076
-2.140E-06,-0.016
-2.130E-06,-0.272
-2.120E-06,-0.324
-2.110E-06,-0.268
-2.100E-06,-0.044
-2.090E-06,0.188
-2.080E-06,0.348
-2.070E-06,0.284
-2.060E-06,-0.004
-2.050E-06,-0.228
-2.040E-06,-0.328
-2.030E-06,-0.184
-2.020E-06,0.036
-2.010E-06,0.224
-2.000E-06,0.244
-1.990E-06,0.140
-1.980E-06,-0.016
-1.970E-06,-0.144
-1.960E-06,-0.180
-1.950E-06,-0.076
-1.940E-06,0.060
-1.930E-06,0.140
-1.920E-06,0.104
-1.910E-06,-0.012
-1.900E-06,-0.124
-1.890E-06,-0.172
-1.880E-06,-0.072
-1.870E-06,0.044
-1.860E-06,0.096
-1.850E-06,0.108
-1.840E-06,0.064
-1.830E-06,-0.004
-1.820E-06,-0.052
-1.810E-06,-0.068
-1.800E-06,-0.064
-1.790E-06,-0.032
-1.780E-06,0.016
-1.770E-06,0.064
-1.760E-06,0.080
-1.750E-06,0.052
-1.740E-06,-0.004
-1.730E-06,-0.052
-1.720E-06,-0.060
-1.710E-06,-0.028
-1.700E-06,0.032
-1.690E-06,0.072
-1.680E-06,0.076
-1.670E-06,0.052
-1.660E-06,0.012
-1.650E-06,-0.024
-1.640E-06,-0.032
-1.630E-06,-0.008
-1.620E-06,0.040
-1.610E-06,0.072
-1.600E-06,0.064
-1.590E-06,0.028
-1.580E-06,-0.004
-1.570E-06,-0.024
-1.560E-06,0.004
-1.550E-06,0.060
-1.540E-06,0.016
-1.530E-06,-0.008
-1.520E-06,-0.124
-1.510E-06,-0.200
-1.500E-06,-0.104
-1.490E-06,-0.008
-1.480E-06,0.180
-1.470E-06,0.196
-1.460E-06,0.096
-1.450E-06,-0.048
-1.440E-06,-0.164
-1.430E-06,-0.156
-1.420E-06,-0.040
-1.410E-06,0.088
-1.400E-06,0.140
-1.390E-06,0.132
-1.380E-06,-0.004
-1.370E-06,-0.096
-1.360E-06,-0.140
-1.350E-06,-0.072
-1.340E-06,0.008
-1.330E-06,0.104
-1.320E-06,0.116
-1.310E-06,0.064
-1.300E-06,-0.004
-1.290E-06,-0.076
-1.280E-06,-0.080
-1.270E-06,-0.048
-1.260E-06,0.032
-1.250E-06,0.080
-1.240E-06,0.104
-1.230E-06,0.064
-1.220E-06,0.016
-1.210E-06,-0.044
-1.200E-06,-0.056
-1.190E-06,-0.036
-1.180E-06,0.020
-1.170E-06,0.088
-1.160E-06,0.104
-1.150E-06,0.092
-1.140E-06,0.036
-1.130E-06,-0.004
-1.120E-06,-0.016
-1.110E-06,0.008
-1.100E-06,0.060
-1.090E-06,0.120
-1.080E-06,0.132
-1.070E-06,0.092
-1.060E-06,0.008
-1.050E-06,-0.104
-1.040E-06,-0.188
-1.030E-06,-0.204
-1.020E-06,-0.216
-1.010E-06,-0.192
-1.000E-06,-0.052
-9.900E-07,0.044
-9.800E-07,0.184
-9.700E-07,0.232
-9.600E-07,0.144
-9.500E-07,-0.024
-9.400E-07,-0.192
-9.300E-07,-0.232
-9.200E-07,-0.116
-9.100E-07,0.084
-9.000E-07,0.224
-8.900E-07,0.208
-8.800E-07,0.072
-8.700E-07,-0.084
-8.600E-07,-0.196
-8.500E-07,-0.176
-8.400E-07,-0.060
-8.300E-07,0.104
-8.200E-07,0.164
-8.100E-07,0.140
-8.000E-07,0.028
-7.900E-07,-0.092
-7.800E-07,-0.156
-7.700E-07,-0.128
-7.600E-07,-0.032
-7.500E-07,0.064
-7.400E-07,0.132
-7.300E-07,0.108
-7.200E-07,0.048
-7.100E-07,-0.044
-7.000E-07,-0.104
-6.900E-07,-0.104
-6.800E-07,-0.036
-6.700E-07,0.036
-6.600E-07,0.092
-6.500E-07,0.096
-6.400E-07,0.036
-6.300E-07,-0.028
-6.200E-07,-0.084
-6.100E-07,-0.080
-6.000E-07,-0.036
-5.900E-07,0.040
-5.800E-07,0.088
-5.700E-07,0.088
-5.600E-07,0.040
-5.500E-07,-0.016
-5.400E-07,-0.064
-5.300E-07,-0.060
-5.200E-07,-0.020
-5.100E-07,0.028
-5.000E-07,0.072
-4.900E-07,0.072
-4.800E-07,0.032
-4.700E-07,-0.012
-4.600E-07,-0.048
-4.500E-07,-0.048
-4.400E-07,-0.016
-4.300E-07,0.020
-4.200E-07,0.060
-4.100E-07,0.064
-4.000E-07,0.036
-3.900E-07,0.004
-3.800E-07,-0.024
-3.700E-07,-0.028
-3.600E-07,-0.008
-3.500E-07,0.020
-3.400E-07,0.060
-3.300E-07,0.060
-3.200E-07,0.056
-3.100E-07,0.040
-3.000E-07,0.012
-2.900E-07,0.012
-2.800E-07,0.016
-2.700E-07,0.048
-2.600E-07,0.076
-2.500E-07,0.088
-2.400E-07,0.080
-2.300E-07,0.076
-2.200E-07,0.032
-2.100E-07,-0.096
-2.000E-07,-0.148
-1.900E-07,-0.160
-1.800E-07,-0.076
-1.700E-07,0.064
-1.600E-07,0.228
-1.500E-07,0.244
-1.400E-07,0.120
-1.300E-07,-0.072
-1.200E-07,-0.220
-1.100E-07,-0.204
-1.000E-07,-0.044
-9.000E-08,0.144
-8.000E-08,0.312
-7.000E-08,0.324
-6.000E-08,0.120
-5.000E-08,-0.320
-4.000E-08,-0.512
-3.000E-08,-0.512
-2.000E-08,-0.232
-1.000E-08,0.240
0.000E+00,0.544
1.000E-08,0.544
2.000E-08,0.248
3.000E-08,-0.280
4.000E-08,-0.512
5.000E-08,-0.500
6.000E-08,-0.100
7.000E-08,0.288
8.000E-08,0.468
9.000E-08,0.396
1.000E-07,0.068
1.100E-07,-0.224
1.200E-07,-0.360
1.300E-07,-0.300
1.400E-07,-0.072
1.500E-07,0.168
1.600E-07,0.300
1.700E-07,0.256
1.800E-07,0.088
1.900E-07,-0.132
2.000E-07,-0.228
2.100E-07,-0.200
2.200E-07,-0.044
2.300E-07,0.120
2.400E-07,0.204
2.500E-07,0.168
2.600E-07,0.044
2.700E-07,-0.076
2.800E-07,-0.160
2.900E-07,-0.128
3.000E-07,-0.032
3.100E-07,0.088
3.200E-07,0.136
3.300E-07,0.112
3.400E-07,0.024
3.500E-07,-0.044
3.600E-07,-0.084
3.700E-07,-0.052
3.800E-07,0.016
3.900E-07,0.084
4.000E-07,0.108
4.100E-07,0.072
4.200E-07,0.012
4.300E-07,-0.044
4.400E-07,-0.052
4.500E-07,-0.016
4.600E-07,0.044
4.700E-07,0.096
4.800E-07,0.112
4.900E-07,0.084
5.000E-07,0.036
5.100E-07,0.008
5.200E-07,0.012
5.300E-07,0.060
5.400E-07,0.096
5.500E-07,0.136
5.600E-07,0.144
5.700E-07,0.124
5.800E-07,0.072
5.900E-07,0.044
6.000E-07,0.040
6.100E-07,0.024
6.200E-07,-0.072
6.300E-07,-0.376
6.400E-07,-0.436
6.500E-07,-0.352
6.600E-07,-0.104
6.700E-07,0.160
6.800E-07,0.476
6.900E-07,0.368
7.000E-07,0.024
7.100E-07,-0.272
7.200E-07,-0.416
7.300E-07,-0.108
7.400E-07,0.188
7.500E-07,0.416
7.600E-07,0.264
7.700E-07,-0.044
7.800E-07,-0.512
7.900E-07,-0.512
8.000E-07,-0.428
8.100E-07,0.088
8.200E-07,0.544
8.300E-07,0.540
8.400E-07,0.260
8.500E-07,-0.176
8.600E-07,-0.404
8.700E-07,-0.412
8.800E-07,-0.140
8.900E-07,0.124
9.000E-07,0.344
9.100E-07,0.336
9.200E-07,0.160
9.300E-07,-0.096
9.400E-07,-0.264
9.500E-07,-0.252
9.600E-07,-0.096
9.700E-07,0.124
9.800E-07,0.220
9.900E-07,0.224
1.000E-06,0.092
1.010E-06,-0.036
1.020E-06,-0.164
1.030E-06,-0.152
1.040E-06,0.000
1.050E-06,0.152
1.060E-06,0.228
1.070E-06,0.212
1.080E-06,0.112
1.090E-06,-0.012
1.100E-06,-0.016
1.110E-06,0.008
1.120E-06,0.104
1.130E-06,0.160
1.140E-06,0.192
1.150E-06,0.132
1.160E-06,0.016
1.170E-06,-0.132
1.180E-06,-0.220
1.190E-06,-0.196
1.200E-06,-0.112
1.210E-06,0.028
1.220E-06,0.148
1.230E-06,0.236
1.240E-06,0.192
1.250E-06,0.088
1.260E-06,-0.004
1.270E-06,-0.028
1.280E-06,-0.008
1.290E-06,-0.008
1.300E-06,0.036
1.310E-06,-0.056
1.320E-06,-0.128
1.330E-06,-0.116
1.340E-06,0.012
1.350E-06,0.108
1.360E-06,0.152
1.370E-06,0.160
1.380E-06,0.092
1.390E-06,0.004
1.400E-06,-0.072
1.410E-06,-0.144
1.420E-06,-0.308
1.430E-06,-0.288
1.440E-06,-0.112
1.450E-06,0.060
1.460E-06,0.160
1.470E-06,0.176
1.480E-06,0.108
1.490E-06,0.020
1.500E-06,-0.120
1.510E-06,-0.252
1.520E-06,-0.200
1.530E-06,-0.056
1.540E-06,0.096
1.550E-06,0.236
1.560E-06,0.160
1.570E-06,0.036
1.580E-06,-0.076
1.590E-06,-0.120
1.600E-06,-0.076
1.610E-06,0.072
1.620E-06,0.196
1.630E-06,0.240
1.640E-06,0.220
1.650E-06,0.132
1.660E-06,0.064
1.670E-06,0.052
1.680E-06,0.124
1.690E-06,0.216
1.700E-06,0.292
1.710E-06,0.260
1.720E-06,0.160
1.730E-06,0.024
1.740E-06,-0.080
1.750E-06,-0.132
1.760E-06,-0.068
1.770E-06,0.080
1.780E-06,0.176
1.790E-06,0.228
1.800E-06,0.180
1.810E-06,0.096
1.820E-06,-0.008
1.830E-06,-0.056
1.840E-06,-0.036
1.850E-06,0.012
1.860E-06,0.052
1.870E-06,0.008
1.880E-06,-0.064
1.890E-06,-0.108
1.900E-06,-0.148
1.910E-06,-0.184
1.920E-06,-0.124
1.930E-06,-0.136
1.940E-06,-0.204
1.950E-06,-0.160
1.960E-06,-0.088
1.970E-06,-0.044
1.980E-06,0.020
1.990E-06,0.044
2.000E-06,-0.004
2.010E-06,0.028
2.020E-06,0.104
2.030E-06,0.184
2.040E-06,0.220
2.050E-06,0.236
2.060E-06,0.196
2.070E-06,0.160
2.080E-06,0.104
2.090E-06,-0.004
2.100E-06,-0.040
2.110E-06,-0.124
2.120E-06,-0.148
2.130E-06,-0.080
2.140E-06,0.044
2.150E-06,0.092
2.160E-06,0.052
2.170E-06,-0.076
2.180E-06,-0.220
2.190E-06,-0.308
2.200E-06,-0.260
2.210E-06,-0.128
2.220E-06,-0.052
2.230E-06,0.000
2.240E-06,-0.068
2.250E-06,-0.120
2.260E-06,-0.156
2.270E-06,-0.104
2.280E-06,-0.008
2.290E-06,0.104
2.300E-06,0.168
2.310E-06,0.144
2.320E-06,0.128
2.330E-06,0.092
2.340E-06,0.100
2.350E-06,0.104
2.360E-06,0.164
2.370E-06,0.192
2.380E-06,0.212
2.390E-06,0.176
2.400E-06,0.092
2.410E-06,-0.020
2.420E-06,-0.056
2.430E-06,-0.012
2.440E-06,0.072
2.450E-06,0.180
2.460E-06,0.276
2.470E-06,0.288
2.480E-06,0.196
2.490E-06,0.072
2.500E-06,-0.076
2.510E-06,-0.172
2.520E-06,-0.192
2.530E-06,-0.148
2.540E-06,-0.116
2.550E-06,-0.108
2.560E-06,-0.132
2.570E-06,-0.152
2.580E-06,-0.168
2.590E-06,-0.168
2.600E-06,-0.076
2.610E-06,-0.008
2.620E-06,0.060
2.630E-06,0.088
2.640E-06,0.092
2.650E-06,0.064
2.660E-06,0.044
2.670E-06,0.088
2.680E-06,0.204
2.690E-06,0.316
2.700E-06,0.352
2.710E-06,0.304
2.720E-06,0.220
2.730E-06,0.164
2.740E-06,0.148
2.750E-06,0.176
2.760E-06,0.188
2.770E-06,0.172
2.780E-06,0.136
2.790E-06,0.080
2.800E-06,0.016
2.810E-06,-0.028
2.820E-06,-0.040
2.830E-06,-0.008
2.840E-06,0.028
2.850E-06,0.060
2.860E-06,0.064
2.870E-06,0.012
2.880E-06,-0.044
2.890E-06,-0.088
2.900E-06,-0.084
2.910E-06,-0.036
2.920E-06,0.044
2.930E-06,0.136
2.940E-06,0.216
2.950E-06,0.248
2.960E-06,0.228
2.970E-06,0.180
2.980E-06,0.128
2.990E-06,0.088
3.000E-06,0.096
3.010E-06,0.136
3.020E-06,0.192
3.030E-06,0.224
3.040E-06,0.228
3.050E-06,0.232
3.060E-06,0.212
3.070E-06,0.176
3.080E-06,0.132
3.090E-06,0.084
3.100E-06,0.036
3.110E-06,0.012
3.120E-06,0.016
3.130E-06,0.068
3.140E-06,0.140
3.150E-06,0.196
3.160E-06,0.208
3.170E-06,0.084
3.180E-06,-0.112
3.190E-06,-0.344
3.200E-06,-0.484
3.210E-06,-0.508
3.220E-06,-0.316
3.230E-06,-0.044
3.240E-06,0.192
