mediciones/Mediciones filtradas (saque las feas)/5-15/35/WaveData47469.csv

#timebase=2000000(ps)
,#voltbase=100000(mv/100)
#size=4000
-8.400E-06,0.000
-8.390E-06,0.004
-8.380E-06,0.004
-8.370E-06,0.004
-8.360E-06,0.000
-8.350E-06,0.008
-8.340E-06,0.008
-8.330E-06,0.000
-8.320E-06,0.000
-8.310E-06,0.004
-8.300E-06,0.000
-8.290E-06,0.000
-8.280E-06,0.000
-8.270E-06,0.004
-8.260E-06,0.000
-8.250E-06,0.000
-8.240E-06,0.004
-8.230E-06,0.004
-8.220E-06,0.004
-8.210E-06,0.004
-8.200E-06,0.004
-8.190E-06,0.000
-8.180E-06,0.004
-8.170E-06,0.004
-8.160E-06,0.004
-8.150E-06,0.004
-8.140E-06,0.004
-8.130E-06,0.004
-8.120E-06,0.004
-8.110E-06,0.000
-8.100E-06,0.000
-8.090E-06,0.004
-8.080E-06,0.004
-8.070E-06,0.004
-8.060E-06,0.004
-8.050E-06,0.004
-8.040E-06,0.004
-8.030E-06,0.000
-8.020E-06,0.000
-8.010E-06,0.000
-8.000E-06,0.000
-7.990E-06,0.004
-7.980E-06,0.008
-7.970E-06,-0.004
-7.960E-06,0.000
-7.950E-06,0.004
-7.940E-06,0.004
-7.930E-06,0.004
-7.920E-06,0.000
-7.910E-06,0.000
-7.900E-06,0.008
-7.890E-06,0.008
-7.880E-06,0.000
-7.870E-06,0.000
-7.860E-06,0.004
-7.850E-06,0.000
-7.840E-06,0.004
-7.830E-06,0.004
-7.820E-06,0.004
-7.810E-06,0.004
-7.800E-06,0.004
-7.790E-06,0.000
-7.780E-06,0.000
-7.770E-06,0.000
-7.760E-06,0.004
-7.750E-06,0.004
-7.740E-06,0.004
-7.730E-06,0.000
-7.720E-06,0.000
-7.710E-06,-0.004
-7.700E-06,-0.004
-7.690E-06,0.004
-7.680E-06,0.008
-7.670E-06,0.000
-7.660E-06,0.000
-7.650E-06,0.004
-7.640E-06,0.000
-7.630E-06,0.000
-7.620E-06,0.000
-7.610E-06,0.004
-7.600E-06,0.000
-7.590E-06,0.004
-7.580E-06,0.004
-7.570E-06,0.004
-7.560E-06,0.004
-7.550E-06,0.004
-7.540E-06,-0.004
-7.530E-06,0.000
-7.520E-06,0.020
-7.510E-06,0.068
-7.500E-06,0.116
-7.490E-06,0.120
-7.480E-06,0.044
-7.470E-06,-0.096
-7.460E-06,-0.216
-7.450E-06,-0.228
-7.440E-06,-0.092
-7.430E-06,0.132
-7.420E-06,0.272
-7.410E-06,0.240
-7.400E-06,0.088
-7.390E-06,-0.120
-7.380E-06,-0.240
-7.370E-06,-0.208
-7.360E-06,-0.048
-7.350E-06,0.136
-7.340E-06,0.224
-7.330E-06,0.184
-7.320E-06,0.056
-7.310E-06,-0.088
-7.300E-06,-0.184
-7.290E-06,-0.172
-7.280E-06,-0.084
-7.270E-06,0.024
-7.260E-06,0.132
-7.250E-06,0.160
-7.240E-06,0.128
-7.230E-06,0.028
-7.220E-06,-0.072
-7.210E-06,-0.140
-7.200E-06,-0.132
-7.190E-06,-0.052
-7.180E-06,0.060
-7.170E-06,0.136
-7.160E-06,0.140
-7.150E-06,0.076
-7.140E-06,-0.032
-7.130E-06,-0.116
-7.120E-06,-0.144
-7.110E-06,-0.100
-7.100E-06,-0.004
-7.090E-06,0.092
-7.080E-06,0.128
-7.070E-06,0.108
-7.060E-06,0.040
-7.050E-06,-0.032
-7.040E-06,-0.084
-7.030E-06,-0.088
-7.020E-06,-0.032
-7.010E-06,0.036
-7.000E-06,0.084
-6.990E-06,0.088
-6.980E-06,0.044
-6.970E-06,-0.024
-6.960E-06,-0.076
-6.950E-06,-0.088
-6.940E-06,-0.044
-6.930E-06,0.008
-6.920E-06,0.064
-6.910E-06,0.088
-6.900E-06,0.064
-6.890E-06,0.020
-6.880E-06,-0.020
-6.870E-06,-0.040
-6.860E-06,-0.048
-6.850E-06,-0.008
-6.840E-06,0.020
-6.830E-06,0.044
-6.820E-06,0.048
-6.810E-06,0.024
-6.800E-06,-0.004
-6.790E-06,-0.044
-6.780E-06,-0.056
-6.770E-06,-0.040
-6.760E-06,-0.012
-6.750E-06,0.024
-6.740E-06,0.048
-6.730E-06,0.044
-6.720E-06,0.020
-6.710E-06,-0.008
-6.700E-06,-0.036
-6.690E-06,-0.020
-6.680E-06,0.000
-6.670E-06,0.012
-6.660E-06,0.028
-6.650E-06,0.024
-6.640E-06,0.004
-6.630E-06,-0.008
-6.620E-06,-0.008
-6.610E-06,-0.008
-6.600E-06,0.000
-6.590E-06,0.012
-6.580E-06,0.020
-6.570E-06,0.008
-6.560E-06,0.012
-6.550E-06,0.004
-6.540E-06,-0.004
-6.530E-06,-0.008
-6.520E-06,-0.008
-6.510E-06,0.004
-6.500E-06,0.008
-6.490E-06,0.016
-6.480E-06,0.024
-6.470E-06,0.008
-6.460E-06,-0.016
-6.450E-06,-0.020
-6.440E-06,-0.008
-6.430E-06,0.004
-6.420E-06,0.016
-6.410E-06,0.020
-6.400E-06,0.020
-6.390E-06,0.000
-6.380E-06,-0.008
-6.370E-06,-0.008
-6.360E-06,-0.004
-6.350E-06,0.000
-6.340E-06,0.016
-6.330E-06,0.016
-6.320E-06,0.008
-6.310E-06,-0.004
-6.300E-06,-0.004
-6.290E-06,0.000
-6.280E-06,0.004
-6.270E-06,0.000
-6.260E-06,0.004
-6.250E-06,0.012
-6.240E-06,0.016
-6.230E-06,0.008
-6.220E-06,0.004
-6.210E-06,-0.004
-6.200E-06,-0.004
-6.190E-06,-0.020
-6.180E-06,-0.032
-6.170E-06,-0.020
-6.160E-06,0.012
-6.150E-06,0.032
-6.140E-06,0.064
-6.130E-06,0.044
-6.120E-06,0.020
-6.110E-06,-0.024
-6.100E-06,-0.076
-6.090E-06,-0.076
-6.080E-06,-0.024
-6.070E-06,0.032
-6.060E-06,0.056
-6.050E-06,0.064
-6.040E-06,0.028
-6.030E-06,-0.032
-6.020E-06,-0.068
-6.010E-06,-0.056
-6.000E-06,-0.004
-5.990E-06,0.044
-5.980E-06,0.072
-5.970E-06,0.056
-5.960E-06,0.008
-5.950E-06,-0.032
-5.940E-06,-0.052
-5.930E-06,-0.044
-5.920E-06,-0.004
-5.910E-06,0.032
-5.900E-06,0.056
-5.890E-06,0.040
-5.880E-06,0.012
-5.870E-06,-0.016
-5.860E-06,-0.032
-5.850E-06,-0.028
-5.840E-06,0.000
-5.830E-06,0.016
-5.820E-06,0.032
-5.810E-06,0.032
-5.800E-06,0.016
-5.790E-06,0.000
-5.780E-06,-0.016
-5.770E-06,-0.020
-5.760E-06,-0.004
-5.750E-06,0.004
-5.740E-06,0.024
-5.730E-06,0.024
-5.720E-06,0.024
-5.710E-06,0.004
-5.700E-06,-0.012
-5.690E-06,-0.012
-5.680E-06,0.000
-5.670E-06,0.004
-5.660E-06,0.024
-5.650E-06,0.024
-5.640E-06,0.012
-5.630E-06,0.004
-5.620E-06,0.000
-5.610E-06,-0.004
-5.600E-06,0.012
-5.590E-06,0.020
-5.580E-06,0.024
-5.570E-06,0.004
-5.560E-06,-0.004
-5.550E-06,-0.004
-5.540E-06,0.004
-5.530E-06,0.012
-5.520E-06,0.020
-5.510E-06,0.036
-5.500E-06,0.056
-5.490E-06,-0.004
-5.480E-06,-0.020
-5.470E-06,-0.076
-5.460E-06,-0.112
-5.450E-06,-0.056
-5.440E-06,0.056
-5.430E-06,0.084
-5.420E-06,0.064
-5.410E-06,0.040
-5.400E-06,0.004
-5.390E-06,-0.044
-5.380E-06,-0.072
-5.370E-06,-0.072
-5.360E-06,-0.024
-5.350E-06,0.036
-5.340E-06,0.080
-5.330E-06,0.084
-5.320E-06,0.028
-5.310E-06,-0.020
-5.300E-06,-0.072
-5.290E-06,-0.068
-5.280E-06,-0.044
-5.270E-06,0.020
-5.260E-06,0.080
-5.250E-06,0.096
-5.240E-06,0.052
-5.230E-06,-0.016
-5.220E-06,-0.072
-5.210E-06,-0.080
-5.200E-06,-0.036
-5.190E-06,0.028
-5.180E-06,0.080
-5.170E-06,0.076
-5.160E-06,0.040
-5.150E-06,-0.012
-5.140E-06,-0.048
-5.130E-06,-0.052
-5.120E-06,-0.020
-5.110E-06,0.012
-5.100E-06,0.040
-5.090E-06,0.048
-5.080E-06,0.032
-5.070E-06,0.008
-5.060E-06,-0.012
-5.050E-06,-0.024
-5.040E-06,-0.024
-5.030E-06,-0.004
-5.020E-06,0.016
-5.010E-06,0.032
-5.000E-06,0.036
-4.990E-06,0.028
-4.980E-06,0.008
-4.970E-06,-0.008
-4.960E-06,-0.004
-4.950E-06,0.008
-4.940E-06,0.036
-4.930E-06,0.068
-4.920E-06,0.068
-4.910E-06,0.052
-4.900E-06,-0.004
-4.890E-06,-0.040
-4.880E-06,-0.060
-4.870E-06,-0.088
-4.860E-06,-0.064
-4.850E-06,-0.004
-4.840E-06,0.044
-4.830E-06,0.076
-4.820E-06,0.060
-4.810E-06,-0.004
-4.800E-06,-0.160
-4.790E-06,-0.124
-4.780E-06,-0.004
-4.770E-06,0.072
-4.760E-06,0.112
-4.750E-06,0.096
-4.740E-06,0.032
-4.730E-06,-0.072
-4.720E-06,-0.108
-4.710E-06,-0.100
-4.700E-06,-0.004
-4.690E-06,0.092
-4.680E-06,0.132
-4.670E-06,0.064
-4.660E-06,-0.012
-4.650E-06,-0.088
-4.640E-06,-0.092
-4.630E-06,-0.032
-4.620E-06,0.032
-4.610E-06,0.072
-4.600E-06,0.064
-4.590E-06,0.040
-4.580E-06,0.000
-4.570E-06,-0.028
-4.560E-06,-0.044
-4.550E-06,-0.028
-4.540E-06,-0.008
-4.530E-06,0.024
-4.520E-06,0.040
-4.510E-06,0.044
-4.500E-06,0.032
-4.490E-06,0.004
-4.480E-06,-0.024
-4.470E-06,-0.044
-4.460E-06,-0.032
-4.450E-06,-0.004
-4.440E-06,0.036
-4.430E-06,0.056
-4.420E-06,0.040
-4.410E-06,0.008
-4.400E-06,-0.020
-4.390E-06,-0.040
-4.380E-06,-0.020
-4.370E-06,0.012
-4.360E-06,0.036
-4.350E-06,0.036
-4.340E-06,0.024
-4.330E-06,0.004
-4.320E-06,-0.020
-4.310E-06,-0.016
-4.300E-06,0.000
-4.290E-06,0.020
-4.280E-06,0.036
-4.270E-06,0.036
-4.260E-06,0.020
-4.250E-06,-0.004
-4.240E-06,-0.004
-4.230E-06,0.000
-4.220E-06,0.024
-4.210E-06,0.024
-4.200E-06,0.020
-4.190E-06,0.024
-4.180E-06,0.032
-4.170E-06,0.000
-4.160E-06,-0.104
-4.150E-06,-0.108
-4.140E-06,-0.052
-4.130E-06,0.048
-4.120E-06,0.048
-4.110E-06,0.056
-4.100E-06,0.012
-4.090E-06,-0.024
-4.080E-06,-0.060
-4.070E-06,-0.040
-4.060E-06,-0.012
-4.050E-06,-0.004
-4.040E-06,0.032
-4.030E-06,0.072
-4.020E-06,0.060
-4.010E-06,-0.004
-4.000E-06,-0.036
-3.990E-06,-0.076
-3.980E-06,-0.036
-3.970E-06,0.016
-3.960E-06,0.064
-3.950E-06,0.060
-3.940E-06,0.040
-3.930E-06,-0.008
-3.920E-06,-0.044
-3.910E-06,-0.052
-3.900E-06,-0.016
-3.890E-06,0.020
-3.880E-06,0.040
-3.870E-06,0.048
-3.860E-06,0.028
-3.850E-06,0.004
-3.840E-06,-0.020
-3.830E-06,-0.028
-3.820E-06,-0.012
-3.810E-06,0.004
-3.800E-06,0.024
-3.790E-06,0.024
-3.780E-06,0.024
-3.770E-06,0.012
-3.760E-06,0.000
-3.750E-06,-0.012
-3.740E-06,-0.016
-3.730E-06,-0.012
-3.720E-06,0.008
-3.710E-06,0.024
-3.700E-06,0.020
-3.690E-06,0.020
-3.680E-06,0.008
-3.670E-06,-0.004
-3.660E-06,-0.008
-3.650E-06,-0.008
-3.640E-06,0.012
-3.630E-06,0.020
-3.620E-06,0.024
-3.610E-06,0.024
-3.600E-06,0.024
-3.590E-06,0.024
-3.580E-06,0.024
-3.570E-06,0.020
-3.560E-06,0.032
-3.550E-06,0.052
-3.540E-06,0.072
-3.530E-06,0.044
-3.520E-06,-0.004
-3.510E-06,-0.056
-3.500E-06,-0.072
-3.490E-06,-0.056
-3.480E-06,0.008
-3.470E-06,0.044
-3.460E-06,0.032
-3.450E-06,-0.012
-3.440E-06,-0.092
-3.430E-06,-0.068
-3.420E-06,-0.008
-3.410E-06,0.084
-3.400E-06,0.096
-3.390E-06,0.076
-3.380E-06,0.004
-3.370E-06,-0.088
-3.360E-06,-0.104
-3.350E-06,-0.088
-3.340E-06,0.012
-3.330E-06,0.052
-3.320E-06,0.088
-3.310E-06,0.056
-3.300E-06,0.008
-3.290E-06,-0.060
-3.280E-06,-0.068
-3.270E-06,-0.016
-3.260E-06,0.012
-3.250E-06,0.060
-3.240E-06,0.060
-3.230E-06,0.016
-3.220E-06,-0.032
-3.210E-06,-0.036
-3.200E-06,-0.036
-3.190E-06,0.004
-3.180E-06,0.024
-3.170E-06,0.028
-3.160E-06,0.012
-3.150E-06,-0.008
-3.140E-06,-0.016
-3.130E-06,-0.008
-3.120E-06,0.020
-3.110E-06,0.008
-3.100E-06,-0.008
-3.090E-06,-0.004
-3.080E-06,0.004
-3.070E-06,0.024
-3.060E-06,0.024
-3.050E-06,0.016
-3.040E-06,-0.004
-3.030E-06,-0.016
-3.020E-06,-0.016
-3.010E-06,0.000
-3.000E-06,0.012
-2.990E-06,0.024
-2.980E-06,0.012
-2.970E-06,0.000
-2.960E-06,-0.012
-2.950E-06,-0.012
-2.940E-06,0.008
-2.930E-06,0.012
-2.920E-06,0.020
-2.910E-06,0.008
-2.900E-06,0.000
-2.890E-06,-0.012
-2.880E-06,-0.008
-2.870E-06,0.008
-2.860E-06,0.020
-2.850E-06,0.028
-2.840E-06,0.012
-2.830E-06,0.004
-2.820E-06,-0.012
-2.810E-06,0.000
-2.800E-06,0.000
-2.790E-06,0.008
-2.780E-06,0.012
-2.770E-06,0.016
-2.760E-06,0.012
-2.750E-06,0.016
-2.740E-06,0.004
-2.730E-06,0.004
-2.720E-06,0.004
-2.710E-06,0.008
-2.700E-06,0.008
-2.690E-06,0.024
-2.680E-06,0.048
-2.670E-06,0.052
-2.660E-06,0.056
-2.650E-06,0.044
-2.640E-06,0.052
-2.630E-06,0.044
-2.620E-06,0.056
-2.610E-06,0.020
-2.600E-06,-0.012
-2.590E-06,-0.048
-2.580E-06,-0.048
-2.570E-06,-0.032
-2.560E-06,-0.008
-2.550E-06,-0.044
-2.540E-06,-0.020
-2.530E-06,-0.036
-2.520E-06,-0.004
-2.510E-06,0.016
-2.500E-06,0.024
-2.490E-06,0.008
-2.480E-06,0.016
-2.470E-06,-0.008
-2.460E-06,-0.008
-2.450E-06,-0.120
-2.440E-06,-0.120
-2.430E-06,-0.052
-2.420E-06,0.012
-2.410E-06,0.088
-2.400E-06,0.124
-2.390E-06,0.104
-2.380E-06,-0.044
-2.370E-06,-0.080
-2.360E-06,-0.104
-2.350E-06,-0.072
-2.340E-06,0.032
-2.330E-06,0.112
-2.320E-06,0.104
-2.310E-06,0.048
-2.300E-06,-0.016
-2.290E-06,-0.092
-2.280E-06,-0.080
-2.270E-06,-0.028
-2.260E-06,0.044
-2.250E-06,0.076
-2.240E-06,0.072
-2.230E-06,0.024
-2.220E-06,-0.016
-2.210E-06,-0.044
-2.200E-06,-0.056
-2.190E-06,-0.020
-2.180E-06,0.012
-2.170E-06,0.052
-2.160E-06,0.056
-2.150E-06,0.036
-2.140E-06,-0.004
-2.130E-06,-0.032
-2.120E-06,-0.036
-2.110E-06,-0.020
-2.100E-06,0.008
-2.090E-06,0.036
-2.080E-06,0.044
-2.070E-06,0.032
-2.060E-06,0.008
-2.050E-06,-0.028
-2.040E-06,-0.028
-2.030E-06,-0.016
-2.020E-06,0.012
-2.010E-06,0.036
-2.000E-06,0.052
-1.990E-06,0.036
-1.980E-06,0.012
-1.970E-06,-0.004
-1.960E-06,-0.008
-1.950E-06,0.016
-1.940E-06,0.056
-1.930E-06,0.092
-1.920E-06,0.104
-1.910E-06,0.096
-1.900E-06,0.044
-1.890E-06,-0.044
-1.880E-06,-0.172
-1.870E-06,-0.220
-1.860E-06,-0.136
-1.850E-06,0.000
-1.840E-06,0.180
-1.830E-06,0.188
-1.820E-06,0.108
-1.810E-06,-0.044
-1.800E-06,-0.140
-1.790E-06,-0.168
-1.780E-06,-0.076
-1.770E-06,0.060
-1.760E-06,0.136
-1.750E-06,0.140
-1.740E-06,0.052
-1.730E-06,-0.036
-1.720E-06,-0.092
-1.710E-06,-0.056
-1.700E-06,-0.068
-1.690E-06,-0.004
-1.680E-06,-0.016
-1.670E-06,0.004
-1.660E-06,0.068
-1.650E-06,0.104
-1.640E-06,0.088
-1.630E-06,-0.032
-1.620E-06,-0.096
-1.610E-06,-0.104
-1.600E-06,-0.036
-1.590E-06,0.072
-1.580E-06,0.160
-1.570E-06,0.128
-1.560E-06,0.056
-1.550E-06,-0.036
-1.540E-06,-0.128
-1.530E-06,-0.100
-1.520E-06,-0.044
-1.510E-06,0.032
-1.500E-06,0.064
-1.490E-06,0.096
-1.480E-06,0.064
-1.470E-06,0.028
-1.460E-06,-0.052
-1.450E-06,-0.112
-1.440E-06,-0.072
-1.430E-06,0.024
-1.420E-06,0.132
-1.410E-06,0.160
-1.400E-06,0.124
-1.390E-06,-0.012
-1.380E-06,-0.132
-1.370E-06,-0.172
-1.360E-06,-0.088
-1.350E-06,0.056
-1.340E-06,0.188
-1.330E-06,0.208
-1.320E-06,0.104
-1.310E-06,-0.060
-1.300E-06,-0.168
-1.290E-06,-0.168
-1.280E-06,-0.044
-1.270E-06,0.132
-1.260E-06,0.224
-1.250E-06,0.200
-1.240E-06,0.024
-1.230E-06,-0.116
-1.220E-06,-0.232
-1.210E-06,-0.252
-1.200E-06,-0.092
-1.190E-06,0.076
-1.180E-06,0.208
-1.170E-06,0.220
-1.160E-06,0.164
-1.150E-06,-0.016
-1.140E-06,-0.204
-1.130E-06,-0.276
-1.120E-06,-0.188
-1.110E-06,-0.060
-1.100E-06,0.144
-1.090E-06,0.256
-1.080E-06,0.180
-1.070E-06,0.004
-1.060E-06,-0.144
-1.050E-06,-0.200
-1.040E-06,-0.136
-1.030E-06,0.016
-1.020E-06,0.148
-1.010E-06,0.216
-1.000E-06,0.152
-9.900E-07,0.020
-9.800E-07,-0.120
-9.700E-07,-0.148
-9.600E-07,-0.124
-9.500E-07,-0.008
-9.400E-07,0.076
-9.300E-07,0.088
-9.200E-07,0.056
-9.100E-07,-0.004
-9.000E-07,-0.044
-8.900E-07,-0.100
-8.800E-07,-0.060
-8.700E-07,-0.008
-8.600E-07,0.064
-8.500E-07,0.080
-8.400E-07,0.072
-8.300E-07,0.016
-8.200E-07,-0.040
-8.100E-07,-0.064
-8.000E-07,-0.056
-7.900E-07,-0.012
-7.800E-07,0.028
-7.700E-07,0.068
-7.600E-07,0.068
-7.500E-07,0.040
-7.400E-07,0.000
-7.300E-07,-0.020
-7.200E-07,-0.020
-7.100E-07,0.012
-7.000E-07,0.056
-6.900E-07,0.076
-6.800E-07,0.080
-6.700E-07,0.064
-6.600E-07,0.052
-6.500E-07,0.040
-6.400E-07,0.044
-6.300E-07,-0.044
-6.200E-07,-0.148
-6.100E-07,-0.196
-6.000E-07,-0.180
-5.900E-07,-0.016
-5.800E-07,0.156
-5.700E-07,0.264
-5.600E-07,0.196
-5.500E-07,0.036
-5.400E-07,-0.120
-5.300E-07,-0.184
-5.200E-07,-0.100
-5.100E-07,0.072
-5.000E-07,0.172
-4.900E-07,0.164
-4.800E-07,0.060
-4.700E-07,-0.096
-4.600E-07,-0.172
-4.500E-07,-0.136
-4.400E-07,0.004
-4.300E-07,0.160
-4.200E-07,0.228
-4.100E-07,0.188
-4.000E-07,0.088
-3.900E-07,-0.008
-3.800E-07,-0.064
-3.700E-07,-0.040
-3.600E-07,-0.004
-3.500E-07,0.028
-3.400E-07,0.012
-3.300E-07,-0.004
-3.200E-07,0.012
-3.100E-07,0.076
-3.000E-07,0.124
-2.900E-07,0.124
-2.800E-07,0.060
-2.700E-07,-0.040
-2.600E-07,-0.104
-2.500E-07,-0.100
-2.400E-07,-0.028
-2.300E-07,0.052
-2.200E-07,0.096
-2.100E-07,0.092
-2.000E-07,0.044
-1.900E-07,0.000
-1.800E-07,-0.020
-1.700E-07,-0.028
-1.600E-07,-0.020
-1.500E-07,0.012
-1.400E-07,0.064
-1.300E-07,0.048
-1.200E-07,0.024
-1.100E-07,-0.004
-1.000E-07,-0.028
-9.000E-08,-0.028
-8.000E-08,-0.036
-7.000E-08,0.036
-6.000E-08,-0.104
-5.000E-08,-0.140
-4.000E-08,-0.200
-3.000E-08,-0.120
-2.000E-08,0.220
-1.000E-08,0.432
0.000E+00,0.468
1.000E-08,-0.072
2.000E-08,-0.512
3.000E-08,-0.508
4.000E-08,-0.508
5.000E-08,0.164
6.000E-08,0.536
7.000E-08,0.540
8.000E-08,0.540
9.000E-08,-0.084
1.000E-07,-0.512
1.100E-07,-0.508
1.200E-07,-0.512
1.300E-07,0.124
1.400E-07,0.536
1.500E-07,0.540
1.600E-07,0.536
1.700E-07,-0.236
1.800E-07,-0.508
1.900E-07,-0.512
2.000E-07,-0.356
2.100E-07,0.192
2.200E-07,0.540
2.300E-07,0.540
2.400E-07,0.316
2.500E-07,-0.184
2.600E-07,-0.496
2.700E-07,-0.512
2.800E-07,-0.252
2.900E-07,0.144
3.000E-07,0.444
3.100E-07,0.480
3.200E-07,0.236
3.300E-07,-0.096
3.400E-07,-0.376
3.500E-07,-0.400
3.600E-07,-0.224
3.700E-07,0.096
3.800E-07,0.336
3.900E-07,0.388
4.000E-07,0.200
4.100E-07,-0.076
4.200E-07,-0.288
4.300E-07,-0.316
4.400E-07,-0.152
4.500E-07,0.092
4.600E-07,0.280
4.700E-07,0.292
4.800E-07,0.160
4.900E-07,-0.056
5.000E-07,-0.200
5.100E-07,-0.208
5.200E-07,-0.064
5.300E-07,0.148
5.400E-07,0.308
5.500E-07,0.300
5.600E-07,0.140
5.700E-07,-0.056
5.800E-07,-0.196
5.900E-07,-0.176
6.000E-07,-0.044
6.100E-07,0.112
6.200E-07,0.228
6.300E-07,0.220
6.400E-07,0.100
6.500E-07,-0.064
6.600E-07,-0.200
6.700E-07,-0.192
6.800E-07,-0.160
6.900E-07,-0.068
7.000E-07,-0.008
7.100E-07,0.048
7.200E-07,0.028
7.300E-07,0.016
7.400E-07,-0.072
7.500E-07,-0.080
7.600E-07,-0.036
7.700E-07,0.020
7.800E-07,0.068
7.900E-07,0.056
8.000E-07,0.040
8.100E-07,0.004
8.200E-07,-0.024
8.300E-07,-0.052
8.400E-07,-0.032
8.500E-07,-0.008
8.600E-07,0.056
8.700E-07,0.084
8.800E-07,0.096
8.900E-07,0.080
9.000E-07,0.072
9.100E-07,-0.024
9.200E-07,-0.084
9.300E-07,-0.148
9.400E-07,-0.140
9.500E-07,-0.020
9.600E-07,0.092
9.700E-07,0.148
9.800E-07,0.108
9.900E-07,0.028
1.000E-06,-0.092
1.010E-06,-0.132
1.020E-06,-0.088
1.030E-06,0.000
1.040E-06,0.088
1.050E-06,0.136
1.060E-06,0.124
1.070E-06,0.056
1.080E-06,0.004
1.090E-06,-0.032
1.100E-06,-0.008
1.110E-06,0.000
1.120E-06,0.016
1.130E-06,0.020
1.140E-06,0.000
1.150E-06,-0.024
1.160E-06,0.032
1.170E-06,0.108
1.180E-06,0.128
1.190E-06,0.028
1.200E-06,-0.076
1.210E-06,-0.104
1.220E-06,-0.056
1.230E-06,-0.012
1.240E-06,-0.008
1.250E-06,-0.032
1.260E-06,-0.056
1.270E-06,-0.024
1.280E-06,0.060
1.290E-06,0.100
1.300E-06,0.060
1.310E-06,-0.036
1.320E-06,-0.096
1.330E-06,-0.080
1.340E-06,-0.020
1.350E-06,0.024
1.360E-06,0.056
1.370E-06,0.036
1.380E-06,-0.024
1.390E-06,-0.032
1.400E-06,-0.016
1.410E-06,0.008
1.420E-06,0.020
1.430E-06,0.032
1.440E-06,0.028
1.450E-06,0.036
1.460E-06,0.048
1.470E-06,0.056
1.480E-06,0.056
1.490E-06,0.060
1.500E-06,0.068
1.510E-06,0.080
1.520E-06,0.092
1.530E-06,0.076
1.540E-06,0.012
1.550E-06,-0.052
1.560E-06,-0.124
1.570E-06,-0.144
1.580E-06,-0.072
1.590E-06,0.032
1.600E-06,0.108
1.610E-06,0.172
1.620E-06,0.148
1.630E-06,0.056
1.640E-06,-0.024
1.650E-06,-0.084
1.660E-06,-0.120
1.670E-06,-0.044
1.680E-06,0.052
1.690E-06,0.092
1.700E-06,0.096
1.710E-06,0.060
1.720E-06,-0.008
1.730E-06,-0.052
1.740E-06,-0.092
1.750E-06,-0.036
1.760E-06,0.060
1.770E-06,0.072
1.780E-06,-0.008
1.790E-06,-0.076
1.800E-06,-0.152
1.810E-06,-0.152
1.820E-06,-0.048
1.830E-06,0.072
1.840E-06,0.136
1.850E-06,0.020
1.860E-06,0.004
1.870E-06,-0.032
1.880E-06,-0.036
1.890E-06,-0.008
1.900E-06,0.024
1.910E-06,0.064
1.920E-06,0.020
1.930E-06,0.028
1.940E-06,-0.032
1.950E-06,0.000
1.960E-06,-0.040
1.970E-06,-0.028
1.980E-06,-0.052
1.990E-06,-0.064
2.000E-06,-0.048
2.010E-06,-0.040
2.020E-06,0.012
2.030E-06,-0.004
2.040E-06,-0.004
2.050E-06,0.020
2.060E-06,0.072
2.070E-06,0.056
2.080E-06,0.044
2.090E-06,0.008
2.100E-06,0.024
2.110E-06,0.036
2.120E-06,0.064
2.130E-06,-0.008
2.140E-06,-0.084
2.150E-06,-0.160
2.160E-06,-0.092
2.170E-06,0.076
2.180E-06,0.212
2.190E-06,0.164
2.200E-06,-0.036
2.210E-06,-0.288
2.220E-06,-0.364
2.230E-06,-0.140
2.240E-06,0.208
2.250E-06,0.376
2.260E-06,0.212
2.270E-06,-0.020
2.280E-06,-0.252
2.290E-06,-0.272
2.300E-06,-0.084
2.310E-06,0.136
2.320E-06,0.232
2.330E-06,0.184
2.340E-06,0.044
2.350E-06,-0.100
2.360E-06,-0.140
2.370E-06,-0.088
2.380E-06,0.056
2.390E-06,0.192
2.400E-06,0.276
2.410E-06,0.232
2.420E-06,0.036
2.430E-06,-0.220
2.440E-06,-0.380
2.450E-06,-0.308
2.460E-06,-0.032
2.470E-06,0.232
2.480E-06,0.352
2.490E-06,0.208
2.500E-06,-0.060
2.510E-06,-0.264
2.520E-06,-0.268
2.530E-06,-0.084
2.540E-06,0.140
2.550E-06,0.244
2.560E-06,0.192
2.570E-06,0.052
2.580E-06,-0.096
2.590E-06,-0.140
2.600E-06,-0.072
2.610E-06,0.056
2.620E-06,0.176
2.630E-06,0.180
2.640E-06,0.072
2.650E-06,-0.068
2.660E-06,-0.128
2.670E-06,-0.092
2.680E-06,0.000
2.690E-06,0.040
2.700E-06,0.088
2.710E-06,0.132
2.720E-06,0.124
2.730E-06,0.060
2.740E-06,-0.024
2.750E-06,-0.104
2.760E-06,-0.164
2.770E-06,-0.168
2.780E-06,-0.128
2.790E-06,-0.060
2.800E-06,0.020
2.810E-06,0.064
2.820E-06,0.080
2.830E-06,0.036
2.840E-06,-0.048
2.850E-06,-0.076
2.860E-06,-0.064
2.870E-06,-0.024
2.880E-06,0.032
2.890E-06,0.048
2.900E-06,0.028
2.910E-06,0.000
2.920E-06,-0.004
2.930E-06,0.012
2.940E-06,0.008
2.950E-06,0.004
2.960E-06,0.004
2.970E-06,0.028
2.980E-06,0.084
2.990E-06,0.120
3.000E-06,0.124
3.010E-06,0.092
3.020E-06,0.092
3.030E-06,0.092
3.040E-06,0.032
3.050E-06,-0.048
3.060E-06,-0.104
3.070E-06,-0.124
3.080E-06,-0.072
3.090E-06,0.000
3.100E-06,0.044
3.110E-06,0.060
3.120E-06,-0.012
3.130E-06,-0.108
3.140E-06,-0.124
3.150E-06,-0.056
3.160E-06,0.020
3.170E-06,0.068
3.180E-06,0.060
3.190E-06,0.036
3.200E-06,0.028
3.210E-06,0.000
3.220E-06,-0.036
