mediciones/Mediciones filtradas (saque las feas)/5-15/35/WaveData47465.csv

#timebase=2000000(ps)
,#voltbase=100000(mv/100)
#size=4000
-8.400E-06,0.060
-8.390E-06,0.020
-8.380E-06,-0.012
-8.370E-06,-0.040
-8.360E-06,-0.028
-8.350E-06,-0.008
-8.340E-06,0.024
-8.330E-06,0.028
-8.320E-06,0.024
-8.310E-06,0.016
-8.300E-06,-0.004
-8.290E-06,-0.012
-8.280E-06,-0.016
-8.270E-06,-0.004
-8.260E-06,0.000
-8.250E-06,0.016
-8.240E-06,0.016
-8.230E-06,0.016
-8.220E-06,0.008
-8.210E-06,-0.008
-8.200E-06,-0.012
-8.190E-06,-0.008
-8.180E-06,0.004
-8.170E-06,0.020
-8.160E-06,0.020
-8.150E-06,0.012
-8.140E-06,0.004
-8.130E-06,-0.012
-8.120E-06,-0.008
-8.110E-06,0.000
-8.100E-06,0.008
-8.090E-06,0.024
-8.080E-06,0.032
-8.070E-06,0.020
-8.060E-06,0.012
-8.050E-06,0.004
-8.040E-06,0.004
-8.030E-06,0.008
-8.020E-06,0.028
-8.010E-06,0.060
-8.000E-06,0.060
-7.990E-06,0.020
-7.980E-06,-0.040
-7.970E-06,-0.084
-7.960E-06,-0.104
-7.950E-06,-0.064
-7.940E-06,0.024
-7.930E-06,0.072
-7.920E-06,0.060
-7.910E-06,0.028
-7.900E-06,-0.004
-7.890E-06,-0.056
-7.880E-06,-0.064
-7.870E-06,-0.032
-7.860E-06,0.000
-7.850E-06,0.024
-7.840E-06,0.056
-7.830E-06,0.044
-7.820E-06,0.024
-7.810E-06,-0.004
-7.800E-06,-0.036
-7.790E-06,-0.056
-7.780E-06,-0.028
-7.770E-06,0.008
-7.760E-06,0.048
-7.750E-06,0.056
-7.740E-06,0.028
-7.730E-06,0.000
-7.720E-06,-0.036
-7.710E-06,-0.040
-7.700E-06,-0.020
-7.690E-06,0.012
-7.680E-06,0.032
-7.670E-06,0.044
-7.660E-06,0.032
-7.650E-06,0.004
-7.640E-06,-0.020
-7.630E-06,-0.024
-7.620E-06,-0.020
-7.610E-06,-0.004
-7.600E-06,0.016
-7.590E-06,0.028
-7.580E-06,0.028
-7.570E-06,0.020
-7.560E-06,0.004
-7.550E-06,-0.012
-7.540E-06,-0.020
-7.530E-06,-0.012
-7.520E-06,0.004
-7.510E-06,0.024
-7.500E-06,0.020
-7.490E-06,0.020
-7.480E-06,0.008
-7.470E-06,-0.004
-7.460E-06,-0.004
-7.450E-06,0.000
-7.440E-06,0.012
-7.430E-06,0.028
-7.420E-06,0.040
-7.410E-06,0.032
-7.400E-06,0.020
-7.390E-06,0.004
-7.380E-06,-0.024
-7.370E-06,-0.036
-7.360E-06,-0.028
-7.350E-06,0.000
-7.340E-06,0.040
-7.330E-06,0.072
-7.320E-06,0.060
-7.310E-06,0.020
-7.300E-06,-0.024
-7.290E-06,-0.080
-7.280E-06,-0.080
-7.270E-06,-0.048
-7.260E-06,0.016
-7.250E-06,0.060
-7.240E-06,0.084
-7.230E-06,0.052
-7.220E-06,0.000
-7.210E-06,-0.072
-7.200E-06,-0.092
-7.190E-06,-0.048
-7.180E-06,0.020
-7.170E-06,0.080
-7.160E-06,0.084
-7.150E-06,0.040
-7.140E-06,-0.028
-7.130E-06,-0.060
-7.120E-06,-0.056
-7.110E-06,-0.024
-7.100E-06,0.012
-7.090E-06,0.048
-7.080E-06,0.052
-7.070E-06,0.028
-7.060E-06,0.000
-7.050E-06,-0.016
-7.040E-06,-0.036
-7.030E-06,-0.032
-7.020E-06,-0.004
-7.010E-06,0.016
-7.000E-06,0.044
-6.990E-06,0.036
-6.980E-06,0.024
-6.970E-06,-0.012
-6.960E-06,-0.024
-6.950E-06,-0.036
-6.940E-06,-0.012
-6.930E-06,0.024
-6.920E-06,0.048
-6.910E-06,0.040
-6.900E-06,0.004
-6.890E-06,-0.028
-6.880E-06,-0.048
-6.870E-06,-0.020
-6.860E-06,0.016
-6.850E-06,0.036
-6.840E-06,0.040
-6.830E-06,0.016
-6.820E-06,-0.008
-6.810E-06,-0.032
-6.800E-06,-0.028
-6.790E-06,0.000
-6.780E-06,0.020
-6.770E-06,0.028
-6.760E-06,0.028
-6.750E-06,0.004
-6.740E-06,-0.008
-6.730E-06,-0.012
-6.720E-06,-0.016
-6.710E-06,-0.008
-6.700E-06,-0.004
-6.690E-06,0.008
-6.680E-06,0.020
-6.670E-06,0.036
-6.660E-06,0.028
-6.650E-06,-0.004
-6.640E-06,-0.040
-6.630E-06,-0.056
-6.620E-06,-0.024
-6.610E-06,0.020
-6.600E-06,0.064
-6.590E-06,0.076
-6.580E-06,0.028
-6.570E-06,-0.016
-6.560E-06,-0.064
-6.550E-06,-0.064
-6.540E-06,-0.020
-6.530E-06,0.028
-6.520E-06,0.064
-6.510E-06,0.060
-6.500E-06,0.024
-6.490E-06,-0.016
-6.480E-06,-0.048
-6.470E-06,-0.048
-6.460E-06,-0.024
-6.450E-06,0.020
-6.440E-06,0.044
-6.430E-06,0.044
-6.420E-06,0.024
-6.410E-06,-0.004
-6.400E-06,-0.024
-6.390E-06,-0.036
-6.380E-06,-0.016
-6.370E-06,0.008
-6.360E-06,0.024
-6.350E-06,0.036
-6.340E-06,0.028
-6.330E-06,0.016
-6.320E-06,-0.012
-6.310E-06,-0.020
-6.300E-06,-0.024
-6.290E-06,-0.004
-6.280E-06,0.016
-6.270E-06,0.028
-6.260E-06,0.028
-6.250E-06,0.016
-6.240E-06,-0.004
-6.230E-06,-0.020
-6.220E-06,-0.020
-6.210E-06,-0.004
-6.200E-06,0.012
-6.190E-06,0.024
-6.180E-06,0.028
-6.170E-06,0.020
-6.160E-06,-0.004
-6.150E-06,-0.004
-6.140E-06,-0.008
-6.130E-06,0.000
-6.120E-06,0.020
-6.110E-06,0.036
-6.100E-06,0.040
-6.090E-06,0.008
-6.080E-06,-0.024
-6.070E-06,-0.040
-6.060E-06,-0.028
-6.050E-06,0.008
-6.040E-06,0.032
-6.030E-06,0.032
-6.020E-06,0.020
-6.010E-06,0.004
-6.000E-06,-0.008
-5.990E-06,-0.012
-5.980E-06,-0.004
-5.970E-06,0.008
-5.960E-06,-0.028
-5.950E-06,-0.004
-5.940E-06,-0.004
-5.930E-06,0.024
-5.920E-06,0.032
-5.910E-06,0.052
-5.900E-06,0.028
-5.890E-06,-0.036
-5.880E-06,-0.056
-5.870E-06,-0.040
-5.860E-06,0.024
-5.850E-06,0.068
-5.840E-06,0.072
-5.830E-06,0.028
-5.820E-06,-0.024
-5.810E-06,-0.068
-5.800E-06,-0.056
-5.790E-06,-0.008
-5.780E-06,0.044
-5.770E-06,0.060
-5.760E-06,0.036
-5.750E-06,-0.004
-5.740E-06,-0.048
-5.730E-06,-0.040
-5.720E-06,-0.028
-5.710E-06,0.008
-5.700E-06,0.032
-5.690E-06,0.036
-5.680E-06,0.028
-5.670E-06,0.008
-5.660E-06,-0.004
-5.650E-06,-0.016
-5.640E-06,-0.008
-5.630E-06,-0.004
-5.620E-06,0.008
-5.610E-06,0.012
-5.600E-06,0.028
-5.590E-06,0.024
-5.580E-06,0.008
-5.570E-06,-0.004
-5.560E-06,-0.012
-5.550E-06,-0.012
-5.540E-06,0.000
-5.530E-06,0.020
-5.520E-06,0.028
-5.510E-06,0.032
-5.500E-06,0.012
-5.490E-06,-0.012
-5.480E-06,-0.036
-5.470E-06,-0.028
-5.460E-06,-0.004
-5.450E-06,0.020
-5.440E-06,0.040
-5.430E-06,0.032
-5.420E-06,0.008
-5.410E-06,-0.020
-5.400E-06,-0.036
-5.390E-06,-0.032
-5.380E-06,0.000
-5.370E-06,0.024
-5.360E-06,0.040
-5.350E-06,0.024
-5.340E-06,0.000
-5.330E-06,-0.016
-5.320E-06,-0.024
-5.310E-06,-0.012
-5.300E-06,0.000
-5.290E-06,0.020
-5.280E-06,0.028
-5.270E-06,0.020
-5.260E-06,0.008
-5.250E-06,0.004
-5.240E-06,-0.008
-5.230E-06,-0.008
-5.220E-06,-0.008
-5.210E-06,0.012
-5.200E-06,0.024
-5.190E-06,0.020
-5.180E-06,0.024
-5.170E-06,0.024
-5.160E-06,0.024
-5.150E-06,0.016
-5.140E-06,0.012
-5.130E-06,0.024
-5.120E-06,0.028
-5.110E-06,0.028
-5.100E-06,0.004
-5.090E-06,-0.016
-5.080E-06,-0.036
-5.070E-06,-0.024
-5.060E-06,-0.004
-5.050E-06,0.012
-5.040E-06,0.020
-5.030E-06,0.028
-5.020E-06,0.032
-5.010E-06,0.028
-5.000E-06,0.024
-4.990E-06,0.028
-4.980E-06,0.024
-4.970E-06,0.024
-4.960E-06,0.024
-4.950E-06,0.028
-4.940E-06,0.016
-4.930E-06,-0.004
-4.920E-06,-0.032
-4.910E-06,-0.088
-4.900E-06,-0.156
-4.890E-06,-0.124
-4.880E-06,-0.032
-4.870E-06,0.080
-4.860E-06,0.124
-4.850E-06,0.116
-4.840E-06,0.040
-4.830E-06,-0.088
-4.820E-06,-0.140
-4.810E-06,-0.108
-4.800E-06,-0.016
-4.790E-06,0.100
-4.780E-06,0.144
-4.770E-06,0.092
-4.760E-06,-0.020
-4.750E-06,-0.100
-4.740E-06,-0.076
-4.730E-06,-0.012
-4.720E-06,0.024
-4.710E-06,0.032
-4.700E-06,0.004
-4.690E-06,-0.008
-4.680E-06,-0.028
-4.670E-06,0.020
-4.660E-06,0.012
-4.650E-06,0.008
-4.640E-06,-0.008
-4.630E-06,-0.028
-4.620E-06,-0.012
-4.610E-06,0.016
-4.600E-06,0.036
-4.590E-06,0.028
-4.580E-06,0.016
-4.570E-06,-0.020
-4.560E-06,-0.040
-4.550E-06,-0.032
-4.540E-06,0.008
-4.530E-06,0.040
-4.520E-06,0.044
-4.510E-06,0.024
-4.500E-06,-0.008
-4.490E-06,-0.020
-4.480E-06,-0.028
-4.470E-06,-0.004
-4.460E-06,0.008
-4.450E-06,0.028
-4.440E-06,0.020
-4.430E-06,0.012
-4.420E-06,0.000
-4.410E-06,-0.008
-4.400E-06,-0.004
-4.390E-06,0.000
-4.380E-06,0.004
-4.370E-06,0.012
-4.360E-06,0.008
-4.350E-06,0.008
-4.340E-06,0.004
-4.330E-06,0.000
-4.320E-06,-0.004
-4.310E-06,0.008
-4.300E-06,0.016
-4.290E-06,0.012
-4.280E-06,0.016
-4.270E-06,0.024
-4.260E-06,0.020
-4.250E-06,0.012
-4.240E-06,0.016
-4.230E-06,0.020
-4.220E-06,0.044
-4.210E-06,0.060
-4.200E-06,0.064
-4.190E-06,0.064
-4.180E-06,0.016
-4.170E-06,-0.088
-4.160E-06,-0.220
-4.150E-06,-0.260
-4.140E-06,-0.152
-4.130E-06,0.024
-4.120E-06,0.220
-4.110E-06,0.296
-4.100E-06,0.212
-4.090E-06,-0.004
-4.080E-06,-0.208
-4.070E-06,-0.316
-4.060E-06,-0.232
-4.050E-06,0.024
-4.040E-06,0.244
-4.030E-06,0.304
-4.020E-06,0.172
-4.010E-06,-0.044
-4.000E-06,-0.236
-3.990E-06,-0.268
-3.980E-06,-0.140
-3.970E-06,0.072
-3.960E-06,0.220
-3.950E-06,0.220
-3.940E-06,0.108
-3.930E-06,-0.052
-3.920E-06,-0.164
-3.910E-06,-0.184
-3.900E-06,-0.080
-3.890E-06,0.040
-3.880E-06,0.136
-3.870E-06,0.148
-3.860E-06,0.092
-3.850E-06,-0.008
-3.840E-06,-0.100
-3.830E-06,-0.128
-3.820E-06,-0.076
-3.810E-06,0.000
-3.800E-06,0.076
-3.790E-06,0.120
-3.780E-06,0.084
-3.770E-06,0.012
-3.760E-06,-0.064
-3.750E-06,-0.096
-3.740E-06,-0.072
-3.730E-06,-0.004
-3.720E-06,0.072
-3.710E-06,0.104
-3.700E-06,0.084
-3.690E-06,0.012
-3.680E-06,-0.056
-3.670E-06,-0.088
-3.660E-06,-0.060
-3.650E-06,0.004
-3.640E-06,0.076
-3.630E-06,0.108
-3.620E-06,0.084
-3.610E-06,0.032
-3.600E-06,-0.024
-3.590E-06,-0.044
-3.580E-06,-0.028
-3.570E-06,0.012
-3.560E-06,0.024
-3.550E-06,0.020
-3.540E-06,-0.004
-3.530E-06,-0.016
-3.520E-06,-0.092
-3.510E-06,-0.116
-3.500E-06,-0.060
-3.490E-06,0.056
-3.480E-06,0.060
-3.470E-06,0.112
-3.460E-06,0.060
-3.450E-06,-0.020
-3.440E-06,-0.080
-3.430E-06,-0.120
-3.420E-06,-0.040
-3.410E-06,0.016
-3.400E-06,0.092
-3.390E-06,0.088
-3.380E-06,0.040
-3.370E-06,-0.040
-3.360E-06,-0.068
-3.350E-06,-0.056
-3.340E-06,-0.008
-3.330E-06,0.020
-3.320E-06,0.044
-3.310E-06,0.040
-3.300E-06,0.024
-3.290E-06,0.012
-3.280E-06,-0.028
-3.270E-06,-0.024
-3.260E-06,-0.032
-3.250E-06,-0.008
-3.240E-06,0.020
-3.230E-06,0.036
-3.220E-06,0.036
-3.210E-06,0.028
-3.200E-06,0.000
-3.190E-06,-0.020
-3.180E-06,-0.028
-3.170E-06,-0.020
-3.160E-06,0.000
-3.150E-06,0.024
-3.140E-06,0.040
-3.130E-06,0.028
-3.120E-06,0.008
-3.110E-06,-0.008
-3.100E-06,-0.020
-3.090E-06,-0.016
-3.080E-06,-0.008
-3.070E-06,0.004
-3.060E-06,0.020
-3.050E-06,0.020
-3.040E-06,0.016
-3.030E-06,0.004
-3.020E-06,-0.004
-3.010E-06,-0.012
-3.000E-06,-0.008
-2.990E-06,0.000
-2.980E-06,0.008
-2.970E-06,0.012
-2.960E-06,0.020
-2.950E-06,0.008
-2.940E-06,0.004
-2.930E-06,0.000
-2.920E-06,-0.008
-2.910E-06,-0.012
-2.900E-06,0.000
-2.890E-06,0.004
-2.880E-06,0.016
-2.870E-06,0.024
-2.860E-06,0.012
-2.850E-06,0.012
-2.840E-06,0.000
-2.830E-06,0.000
-2.820E-06,0.004
-2.810E-06,0.008
-2.800E-06,0.012
-2.790E-06,0.016
-2.780E-06,0.020
-2.770E-06,0.024
-2.760E-06,0.024
-2.750E-06,0.016
-2.740E-06,-0.004
-2.730E-06,-0.008
-2.720E-06,-0.008
-2.710E-06,0.000
-2.700E-06,0.016
-2.690E-06,0.020
-2.680E-06,0.024
-2.670E-06,0.008
-2.660E-06,-0.004
-2.650E-06,-0.020
-2.640E-06,-0.044
-2.630E-06,-0.060
-2.620E-06,-0.032
-2.610E-06,0.032
-2.600E-06,0.040
-2.590E-06,0.068
-2.580E-06,0.016
-2.570E-06,-0.040
-2.560E-06,-0.068
-2.550E-06,-0.056
-2.540E-06,-0.004
-2.530E-06,0.052
-2.520E-06,0.076
-2.510E-06,0.040
-2.500E-06,0.000
-2.490E-06,-0.060
-2.480E-06,-0.052
-2.470E-06,-0.024
-2.460E-06,0.024
-2.450E-06,0.044
-2.440E-06,0.056
-2.430E-06,0.024
-2.420E-06,-0.008
-2.410E-06,-0.032
-2.400E-06,-0.028
-2.390E-06,-0.008
-2.380E-06,0.012
-2.370E-06,0.032
-2.360E-06,0.032
-2.350E-06,0.020
-2.340E-06,-0.004
-2.330E-06,-0.020
-2.320E-06,-0.016
-2.310E-06,0.000
-2.300E-06,0.012
-2.290E-06,0.024
-2.280E-06,0.028
-2.270E-06,0.028
-2.260E-06,0.008
-2.250E-06,-0.008
-2.240E-06,-0.024
-2.230E-06,-0.016
-2.220E-06,-0.004
-2.210E-06,0.028
-2.200E-06,0.036
-2.190E-06,0.032
-2.180E-06,0.000
-2.170E-06,-0.028
-2.160E-06,-0.032
-2.150E-06,0.000
-2.140E-06,0.008
-2.130E-06,0.024
-2.120E-06,0.012
-2.110E-06,0.004
-2.100E-06,0.004
-2.090E-06,-0.012
-2.080E-06,-0.016
-2.070E-06,-0.024
-2.060E-06,-0.028
-2.050E-06,-0.016
-2.040E-06,0.012
-2.030E-06,0.032
-2.020E-06,0.060
-2.010E-06,0.040
-2.000E-06,-0.012
-1.990E-06,-0.064
-1.980E-06,-0.064
-1.970E-06,-0.028
-1.960E-06,0.028
-1.950E-06,0.072
-1.940E-06,0.060
-1.930E-06,0.008
-1.920E-06,-0.036
-1.910E-06,-0.064
-1.900E-06,-0.044
-1.890E-06,0.000
-1.880E-06,0.048
-1.870E-06,0.056
-1.860E-06,0.036
-1.850E-06,0.008
-1.840E-06,-0.020
-1.830E-06,-0.028
-1.820E-06,-0.024
-1.810E-06,0.000
-1.800E-06,0.020
-1.790E-06,0.040
-1.780E-06,0.032
-1.770E-06,0.016
-1.760E-06,-0.008
-1.750E-06,-0.032
-1.740E-06,-0.024
-1.730E-06,-0.008
-1.720E-06,0.012
-1.710E-06,0.032
-1.700E-06,0.028
-1.690E-06,0.024
-1.680E-06,-0.004
-1.670E-06,-0.024
-1.660E-06,-0.020
-1.650E-06,-0.012
-1.640E-06,0.016
-1.630E-06,0.028
-1.620E-06,0.028
-1.610E-06,0.016
-1.600E-06,-0.012
-1.590E-06,-0.024
-1.580E-06,-0.020
-1.570E-06,-0.004
-1.560E-06,0.012
-1.550E-06,0.032
-1.540E-06,0.028
-1.530E-06,0.020
-1.520E-06,-0.004
-1.510E-06,-0.020
-1.500E-06,-0.028
-1.490E-06,-0.016
-1.480E-06,0.004
-1.470E-06,0.028
-1.460E-06,0.032
-1.450E-06,0.024
-1.440E-06,0.000
-1.430E-06,-0.020
-1.420E-06,-0.016
-1.410E-06,0.000
-1.400E-06,0.012
-1.390E-06,0.016
-1.380E-06,0.016
-1.370E-06,0.016
-1.360E-06,0.012
-1.350E-06,0.000
-1.340E-06,-0.012
-1.330E-06,-0.008
-1.320E-06,0.000
-1.310E-06,0.020
-1.300E-06,0.032
-1.290E-06,0.024
-1.280E-06,0.016
-1.270E-06,0.008
-1.260E-06,-0.008
-1.250E-06,0.000
-1.240E-06,0.000
-1.230E-06,0.020
-1.220E-06,0.040
-1.210E-06,0.048
-1.200E-06,0.056
-1.190E-06,0.044
-1.180E-06,0.036
-1.170E-06,0.044
-1.160E-06,0.056
-1.150E-06,0.068
-1.140E-06,0.080
-1.130E-06,0.068
-1.120E-06,0.020
-1.110E-06,-0.008
-1.100E-06,-0.040
-1.090E-06,-0.060
-1.080E-06,-0.056
-1.070E-06,0.000
-1.060E-06,0.040
-1.050E-06,0.020
-1.040E-06,-0.020
-1.030E-06,-0.064
-1.020E-06,-0.080
-1.010E-06,-0.024
-1.000E-06,0.040
-9.900E-07,0.088
-9.800E-07,0.096
-9.700E-07,0.052
-9.600E-07,0.016
-9.500E-07,-0.052
-9.400E-07,-0.088
-9.300E-07,-0.068
-9.200E-07,-0.024
-9.100E-07,0.020
-9.000E-07,0.044
-8.900E-07,0.052
-8.800E-07,0.024
-8.700E-07,-0.024
-8.600E-07,-0.016
-8.500E-07,0.032
-8.400E-07,0.096
-8.300E-07,0.108
-8.200E-07,0.044
-8.100E-07,-0.064
-8.000E-07,-0.140
-7.900E-07,-0.140
-7.800E-07,-0.068
-7.700E-07,0.056
-7.600E-07,0.152
-7.500E-07,0.180
-7.400E-07,0.116
-7.300E-07,-0.008
-7.200E-07,-0.140
-7.100E-07,-0.192
-7.000E-07,-0.136
-6.900E-07,-0.016
-6.800E-07,0.088
-6.700E-07,0.136
-6.600E-07,0.120
-6.500E-07,0.036
-6.400E-07,-0.068
-6.300E-07,-0.124
-6.200E-07,-0.100
-6.100E-07,-0.004
-6.000E-07,0.104
-5.900E-07,0.148
-5.800E-07,0.116
-5.700E-07,0.044
-5.600E-07,-0.036
-5.500E-07,-0.052
-5.400E-07,0.000
-5.300E-07,0.072
-5.200E-07,0.128
-5.100E-07,0.104
-5.000E-07,0.040
-4.900E-07,-0.040
-4.800E-07,-0.100
-4.700E-07,-0.072
-4.600E-07,0.012
-4.500E-07,0.128
-4.400E-07,0.188
-4.300E-07,0.176
-4.200E-07,0.100
-4.100E-07,0.000
-4.000E-07,-0.072
-3.900E-07,-0.104
-3.800E-07,-0.072
-3.700E-07,-0.008
-3.600E-07,0.064
-3.500E-07,0.096
-3.400E-07,0.092
-3.300E-07,0.036
-3.200E-07,-0.020
-3.100E-07,-0.064
-3.000E-07,-0.048
-2.900E-07,0.008
-2.800E-07,0.076
-2.700E-07,0.124
-2.600E-07,0.104
-2.500E-07,0.044
-2.400E-07,-0.036
-2.300E-07,-0.072
-2.200E-07,-0.164
-2.100E-07,-0.260
-2.000E-07,-0.312
-1.900E-07,-0.200
-1.800E-07,-0.012
-1.700E-07,0.220
-1.600E-07,0.332
-1.500E-07,0.296
-1.400E-07,0.080
-1.300E-07,-0.184
-1.200E-07,-0.308
-1.100E-07,-0.200
-1.000E-07,0.112
-9.000E-08,0.348
-8.000E-08,0.348
-7.000E-08,0.092
-6.000E-08,-0.232
-5.000E-08,-0.452
-4.000E-08,-0.452
-3.000E-08,-0.348
-2.000E-08,-0.068
-1.000E-08,0.344
0.000E+00,0.520
1.000E-08,0.340
2.000E-08,-0.076
3.000E-08,-0.352
4.000E-08,-0.368
5.000E-08,-0.152
6.000E-08,0.144
7.000E-08,0.288
8.000E-08,0.284
9.000E-08,0.160
1.000E-07,0.000
1.100E-07,-0.136
1.200E-07,-0.144
1.300E-07,-0.028
1.400E-07,0.108
1.500E-07,0.096
1.600E-07,-0.080
1.700E-07,-0.268
1.800E-07,-0.376
1.900E-07,-0.196
2.000E-07,0.136
2.100E-07,0.332
2.200E-07,0.320
2.300E-07,0.088
2.400E-07,-0.156
2.500E-07,-0.296
2.600E-07,-0.196
2.700E-07,0.000
2.800E-07,0.140
2.900E-07,0.156
3.000E-07,0.080
3.100E-07,-0.036
3.200E-07,-0.100
3.300E-07,-0.080
3.400E-07,-0.044
3.500E-07,0.012
3.600E-07,0.052
3.700E-07,0.088
3.800E-07,0.068
3.900E-07,0.040
4.000E-07,-0.024
4.100E-07,-0.064
4.200E-07,-0.060
4.300E-07,-0.020
4.400E-07,0.048
4.500E-07,0.084
4.600E-07,0.084
4.700E-07,0.028
4.800E-07,-0.020
4.900E-07,-0.052
5.000E-07,-0.040
5.100E-07,-0.008
5.200E-07,0.028
5.300E-07,0.056
5.400E-07,0.052
5.500E-07,0.032
5.600E-07,0.004
5.700E-07,-0.004
5.800E-07,-0.008
5.900E-07,-0.004
6.000E-07,0.000
6.100E-07,0.000
6.200E-07,0.012
6.300E-07,0.028
6.400E-07,0.036
6.500E-07,0.032
6.600E-07,0.016
6.700E-07,0.012
6.800E-07,0.008
6.900E-07,0.012
7.000E-07,0.020
7.100E-07,0.032
7.200E-07,0.048
7.300E-07,0.056
7.400E-07,0.052
7.500E-07,0.048
7.600E-07,0.036
7.700E-07,0.028
7.800E-07,0.036
7.900E-07,0.056
8.000E-07,0.080
8.100E-07,0.096
8.200E-07,0.104
8.300E-07,0.096
8.400E-07,0.088
8.500E-07,0.056
8.600E-07,0.008
8.700E-07,-0.296
8.800E-07,-0.512
8.900E-07,-0.512
9.000E-07,-0.388
9.100E-07,0.160
9.200E-07,0.540
9.300E-07,0.540
9.400E-07,0.432
9.500E-07,-0.144
9.600E-07,-0.508
9.700E-07,-0.508
9.800E-07,-0.260
9.900E-07,0.244
1.000E-06,0.540
1.010E-06,0.528
1.020E-06,0.208
1.030E-06,-0.204
1.040E-06,-0.432
1.050E-06,-0.412
1.060E-06,-0.164
1.070E-06,0.136
1.080E-06,0.348
1.090E-06,0.340
1.100E-06,0.152
1.110E-06,-0.100
1.120E-06,-0.276
1.130E-06,-0.272
1.140E-06,-0.120
1.150E-06,0.096
1.160E-06,0.244
1.170E-06,0.256
1.180E-06,0.128
1.190E-06,-0.044
1.200E-06,-0.160
1.210E-06,-0.168
1.220E-06,-0.068
1.230E-06,0.060
1.240E-06,0.168
1.250E-06,0.180
1.260E-06,0.124
1.270E-06,0.012
1.280E-06,-0.044
1.290E-06,-0.048
1.300E-06,0.008
1.310E-06,0.076
1.320E-06,0.096
1.330E-06,0.088
1.340E-06,0.032
1.350E-06,-0.004
1.360E-06,-0.020
1.370E-06,0.036
1.380E-06,0.096
1.390E-06,0.156
1.400E-06,0.160
1.410E-06,0.092
1.420E-06,-0.224
1.430E-06,-0.436
1.440E-06,-0.512
1.450E-06,-0.380
1.460E-06,0.008
1.470E-06,0.436
1.480E-06,0.540
1.490E-06,0.340
1.500E-06,-0.152
1.510E-06,-0.504
1.520E-06,-0.472
1.530E-06,-0.152
1.540E-06,0.196
1.550E-06,0.360
1.560E-06,0.332
1.570E-06,0.148
1.580E-06,-0.092
1.590E-06,-0.232
1.600E-06,-0.236
1.610E-06,-0.100
1.620E-06,0.096
1.630E-06,0.288
1.640E-06,0.300
1.650E-06,0.192
1.660E-06,0.024
1.670E-06,-0.124
1.680E-06,-0.176
1.690E-06,-0.116
1.700E-06,0.056
1.710E-06,0.196
1.720E-06,0.228
1.730E-06,0.060
1.740E-06,-0.216
1.750E-06,-0.404
1.760E-06,-0.316
1.770E-06,-0.064
1.780E-06,0.184
1.790E-06,0.292
1.800E-06,0.260
1.810E-06,0.064
1.820E-06,-0.192
1.830E-06,-0.272
1.840E-06,-0.216
1.850E-06,-0.028
1.860E-06,0.140
1.870E-06,0.232
1.880E-06,0.164
1.890E-06,0.008
1.900E-06,-0.108
1.910E-06,-0.176
1.920E-06,-0.140
1.930E-06,-0.056
1.940E-06,0.056
1.950E-06,0.128
1.960E-06,0.164
1.970E-06,0.080
1.980E-06,0.008
1.990E-06,-0.072
2.000E-06,-0.072
2.010E-06,-0.040
2.020E-06,0.052
2.030E-06,0.108
2.040E-06,0.128
2.050E-06,0.100
2.060E-06,0.056
2.070E-06,0.012
2.080E-06,-0.028
2.090E-06,-0.016
2.100E-06,0.020
2.110E-06,0.096
2.120E-06,0.132
2.130E-06,0.140
2.140E-06,0.112
2.150E-06,0.080
2.160E-06,0.056
2.170E-06,0.048
2.180E-06,0.036
2.190E-06,0.060
2.200E-06,0.060
2.210E-06,0.048
2.220E-06,0.028
2.230E-06,0.000
2.240E-06,-0.004
2.250E-06,-0.004
2.260E-06,-0.008
2.270E-06,-0.024
2.280E-06,-0.068
2.290E-06,-0.036
2.300E-06,-0.068
2.310E-06,0.024
2.320E-06,0.176
2.330E-06,0.292
2.340E-06,0.236
2.350E-06,0.092
2.360E-06,-0.008
2.370E-06,-0.036
2.380E-06,0.012
2.390E-06,0.060
2.400E-06,0.116
2.410E-06,0.092
2.420E-06,0.036
2.430E-06,-0.024
2.440E-06,-0.220
2.450E-06,-0.508
2.460E-06,-0.512
2.470E-06,-0.512
2.480E-06,-0.076
2.490E-06,0.420
2.500E-06,0.540
2.510E-06,0.540
2.520E-06,0.052
2.530E-06,-0.512
2.540E-06,-0.512
2.550E-06,-0.344
2.560E-06,-0.088
2.570E-06,0.012
2.580E-06,0.012
2.590E-06,-0.016
2.600E-06,-0.152
2.610E-06,-0.096
2.620E-06,-0.016
2.630E-06,-0.036
2.640E-06,-0.096
2.650E-06,-0.012
2.660E-06,0.108
2.670E-06,0.196
2.680E-06,0.156
2.690E-06,-0.008
2.700E-06,-0.148
2.710E-06,-0.204
2.720E-06,-0.104
2.730E-06,0.072
2.740E-06,0.224
2.750E-06,0.216
2.760E-06,0.124
2.770E-06,-0.040
2.780E-06,-0.152
2.790E-06,-0.172
2.800E-06,-0.104
2.810E-06,0.004
2.820E-06,0.108
2.830E-06,0.164
2.840E-06,0.128
2.850E-06,0.048
2.860E-06,-0.056
2.870E-06,-0.116
2.880E-06,-0.092
2.890E-06,-0.008
2.900E-06,0.068
2.910E-06,0.108
2.920E-06,0.092
2.930E-06,0.028
2.940E-06,-0.028
2.950E-06,-0.068
2.960E-06,-0.056
2.970E-06,0.000
2.980E-06,0.060
2.990E-06,0.092
3.000E-06,0.088
3.010E-06,0.044
3.020E-06,0.004
3.030E-06,-0.008
3.040E-06,0.008
3.050E-06,0.052
3.060E-06,0.092
3.070E-06,0.112
3.080E-06,0.096
3.090E-06,0.060
3.100E-06,0.024
3.110E-06,0.016
3.120E-06,0.036
3.130E-06,0.092
3.140E-06,0.144
3.150E-06,0.160
3.160E-06,0.072
3.170E-06,-0.024
3.180E-06,-0.104
3.190E-06,-0.140
3.200E-06,-0.120
3.210E-06,-0.032
3.220E-06,0.120
