mediciones/Mediciones filtradas (saque las feas)/5-22/-5/WaveData4957.csv

#timebase=2000000(ps)
,#voltbase=1000000(mv/100)
#size=4000
-8.400E-06,-0.040
-8.390E-06,-0.080
-8.380E-06,0.000
-8.370E-06,0.000
-8.360E-06,0.040
-8.350E-06,0.040
-8.340E-06,0.120
-8.330E-06,0.120
-8.320E-06,0.160
-8.310E-06,0.120
-8.300E-06,0.120
-8.290E-06,0.160
-8.280E-06,0.160
-8.270E-06,0.200
-8.260E-06,0.160
-8.250E-06,0.160
-8.240E-06,0.200
-8.230E-06,0.120
-8.220E-06,0.080
-8.210E-06,0.040
-8.200E-06,0.080
-8.190E-06,0.080
-8.180E-06,0.080
-8.170E-06,0.120
-8.160E-06,0.080
-8.150E-06,0.000
-8.140E-06,0.000
-8.130E-06,-0.040
-8.120E-06,0.040
-8.110E-06,-0.040
-8.100E-06,-0.080
-8.090E-06,0.080
-8.080E-06,0.160
-8.070E-06,0.240
-8.060E-06,0.480
-8.050E-06,0.400
-8.040E-06,0.200
-8.030E-06,0.240
-8.020E-06,0.160
-8.010E-06,0.120
-8.000E-06,0.280
-7.990E-06,0.360
-7.980E-06,0.280
-7.970E-06,0.200
-7.960E-06,0.160
-7.950E-06,0.080
-7.940E-06,0.080
-7.930E-06,0.120
-7.920E-06,0.080
-7.910E-06,0.160
-7.900E-06,0.080
-7.890E-06,-0.040
-7.880E-06,0.000
-7.870E-06,0.000
-7.860E-06,-0.160
-7.850E-06,-0.040
-7.840E-06,0.040
-7.830E-06,0.120
-7.820E-06,0.200
-7.810E-06,0.320
-7.800E-06,0.200
-7.790E-06,0.080
-7.780E-06,0.120
-7.770E-06,0.040
-7.760E-06,0.080
-7.750E-06,0.160
-7.740E-06,0.120
-7.730E-06,0.120
-7.720E-06,0.080
-7.710E-06,0.000
-7.700E-06,0.000
-7.690E-06,-0.040
-7.680E-06,0.000
-7.670E-06,-0.040
-7.660E-06,-0.040
-7.650E-06,-0.040
-7.640E-06,-0.040
-7.630E-06,0.000
-7.620E-06,0.000
-7.610E-06,0.040
-7.600E-06,0.040
-7.590E-06,-0.040
-7.580E-06,0.000
-7.570E-06,0.000
-7.560E-06,-0.040
-7.550E-06,0.080
-7.540E-06,0.080
-7.530E-06,0.080
-7.520E-06,0.040
-7.510E-06,0.040
-7.500E-06,0.040
-7.490E-06,0.040
-7.480E-06,0.040
-7.470E-06,0.040
-7.460E-06,0.000
-7.450E-06,0.000
-7.440E-06,0.000
-7.430E-06,-0.040
-7.420E-06,0.000
-7.410E-06,0.000
-7.400E-06,0.000
-7.390E-06,0.000
-7.380E-06,-0.040
-7.370E-06,0.000
-7.360E-06,0.080
-7.350E-06,0.080
-7.340E-06,0.160
-7.330E-06,0.160
-7.320E-06,0.160
-7.310E-06,0.200
-7.300E-06,0.160
-7.290E-06,0.240
-7.280E-06,0.240
-7.270E-06,0.200
-7.260E-06,0.320
-7.250E-06,0.440
-7.240E-06,0.400
-7.230E-06,0.440
-7.220E-06,0.400
-7.210E-06,0.320
-7.200E-06,0.200
-7.190E-06,0.320
-7.180E-06,0.360
-7.170E-06,0.360
-7.160E-06,0.440
-7.150E-06,0.360
-7.140E-06,0.320
-7.130E-06,0.320
-7.120E-06,0.360
-7.110E-06,0.400
-7.100E-06,0.360
-7.090E-06,0.360
-7.080E-06,0.320
-7.070E-06,0.320
-7.060E-06,0.280
-7.050E-06,0.280
-7.040E-06,0.240
-7.030E-06,0.200
-7.020E-06,0.200
-7.010E-06,0.160
-7.000E-06,0.200
-6.990E-06,0.160
-6.980E-06,0.160
-6.970E-06,0.200
-6.960E-06,0.160
-6.950E-06,0.120
-6.940E-06,0.120
-6.930E-06,0.120
-6.920E-06,0.040
-6.910E-06,0.160
-6.900E-06,0.160
-6.890E-06,0.080
-6.880E-06,0.160
-6.870E-06,0.160
-6.860E-06,0.040
-6.850E-06,0.160
-6.840E-06,0.280
-6.830E-06,0.280
-6.820E-06,0.320
-6.810E-06,0.360
-6.800E-06,0.360
-6.790E-06,0.200
-6.780E-06,0.480
-6.770E-06,0.320
-6.760E-06,0.480
-6.750E-06,0.520
-6.740E-06,0.560
-6.730E-06,0.400
-6.720E-06,0.560
-6.710E-06,0.560
-6.700E-06,0.560
-6.690E-06,0.600
-6.680E-06,0.600
-6.670E-06,0.480
-6.660E-06,0.480
-6.650E-06,0.560
-6.640E-06,0.520
-6.630E-06,0.600
-6.620E-06,0.600
-6.610E-06,0.440
-6.600E-06,0.400
-6.590E-06,0.280
-6.580E-06,0.280
-6.570E-06,0.360
-6.560E-06,0.400
-6.550E-06,0.320
-6.540E-06,0.320
-6.530E-06,0.240
-6.520E-06,0.280
-6.510E-06,0.440
-6.500E-06,0.440
-6.490E-06,0.360
-6.480E-06,0.240
-6.470E-06,0.000
-6.460E-06,-0.040
-6.450E-06,0.080
-6.440E-06,0.480
-6.430E-06,0.920
-6.420E-06,0.960
-6.410E-06,0.960
-6.400E-06,0.800
-6.390E-06,0.560
-6.380E-06,0.600
-6.370E-06,0.680
-6.360E-06,0.840
-6.350E-06,0.840
-6.340E-06,0.680
-6.330E-06,0.520
-6.320E-06,0.360
-6.310E-06,0.440
-6.300E-06,0.800
-6.290E-06,0.600
-6.280E-06,-0.040
-6.270E-06,-0.080
-6.260E-06,-0.560
-6.250E-06,-0.520
-6.240E-06,0.080
-6.230E-06,0.640
-6.220E-06,0.480
-6.210E-06,0.440
-6.200E-06,0.000
-6.190E-06,-0.400
-6.180E-06,-0.320
-6.170E-06,0.000
-6.160E-06,0.320
-6.150E-06,0.520
-6.140E-06,0.600
-6.130E-06,0.400
-6.120E-06,0.320
-6.110E-06,0.320
-6.100E-06,0.440
-6.090E-06,0.560
-6.080E-06,0.440
-6.070E-06,0.280
-6.060E-06,0.200
-6.050E-06,0.200
-6.040E-06,0.240
-6.030E-06,0.360
-6.020E-06,0.400
-6.010E-06,0.360
-6.000E-06,0.320
-5.990E-06,0.240
-5.980E-06,0.240
-5.970E-06,0.320
-5.960E-06,0.480
-5.950E-06,0.520
-5.940E-06,0.480
-5.930E-06,0.480
-5.920E-06,0.360
-5.910E-06,0.360
-5.900E-06,0.480
-5.890E-06,0.480
-5.880E-06,0.560
-5.870E-06,0.560
-5.860E-06,0.680
-5.850E-06,0.800
-5.840E-06,0.880
-5.830E-06,0.960
-5.820E-06,0.920
-5.810E-06,0.840
-5.800E-06,0.840
-5.790E-06,0.840
-5.780E-06,0.880
-5.770E-06,1.040
-5.760E-06,1.120
-5.750E-06,1.160
-5.740E-06,1.120
-5.730E-06,1.160
-5.720E-06,1.240
-5.710E-06,1.320
-5.700E-06,1.520
-5.690E-06,1.560
-5.680E-06,1.600
-5.670E-06,1.600
-5.660E-06,1.600
-5.650E-06,1.680
-5.640E-06,1.680
-5.630E-06,1.720
-5.620E-06,1.680
-5.610E-06,1.520
-5.600E-06,1.560
-5.590E-06,1.520
-5.580E-06,1.560
-5.570E-06,1.520
-5.560E-06,1.520
-5.550E-06,1.520
-5.540E-06,1.400
-5.530E-06,1.400
-5.520E-06,1.320
-5.510E-06,1.240
-5.500E-06,1.160
-5.490E-06,1.080
-5.480E-06,1.000
-5.470E-06,1.000
-5.460E-06,1.040
-5.450E-06,0.960
-5.440E-06,1.000
-5.430E-06,1.040
-5.420E-06,1.000
-5.410E-06,1.000
-5.400E-06,1.000
-5.390E-06,1.040
-5.380E-06,1.000
-5.370E-06,1.000
-5.360E-06,0.960
-5.350E-06,0.960
-5.340E-06,1.040
-5.330E-06,1.080
-5.320E-06,1.200
-5.310E-06,1.280
-5.300E-06,1.240
-5.290E-06,1.240
-5.280E-06,1.200
-5.270E-06,1.200
-5.260E-06,1.200
-5.250E-06,1.240
-5.240E-06,1.320
-5.230E-06,1.320
-5.220E-06,1.360
-5.210E-06,1.360
-5.200E-06,1.360
-5.190E-06,1.320
-5.180E-06,1.360
-5.170E-06,1.360
-5.160E-06,1.400
-5.150E-06,1.440
-5.140E-06,1.400
-5.130E-06,1.400
-5.120E-06,1.320
-5.110E-06,1.320
-5.100E-06,1.240
-5.090E-06,1.200
-5.080E-06,1.160
-5.070E-06,1.120
-5.060E-06,1.080
-5.050E-06,1.000
-5.040E-06,1.080
-5.030E-06,1.000
-5.020E-06,1.040
-5.010E-06,1.040
-5.000E-06,1.040
-4.990E-06,1.120
-4.980E-06,1.160
-4.970E-06,1.200
-4.960E-06,1.240
-4.950E-06,1.080
-4.940E-06,1.000
-4.930E-06,1.000
-4.920E-06,0.840
-4.910E-06,0.920
-4.900E-06,0.920
-4.890E-06,0.760
-4.880E-06,0.480
-4.870E-06,0.840
-4.860E-06,0.680
-4.850E-06,1.080
-4.840E-06,1.680
-4.830E-06,1.760
-4.820E-06,1.480
-4.810E-06,1.560
-4.800E-06,1.240
-4.790E-06,0.960
-4.780E-06,0.960
-4.770E-06,0.680
-4.760E-06,0.320
-4.750E-06,-0.040
-4.740E-06,0.080
-4.730E-06,0.160
-4.720E-06,0.320
-4.710E-06,0.280
-4.700E-06,0.120
-4.690E-06,-0.200
-4.680E-06,-0.360
-4.670E-06,-0.120
-4.660E-06,-0.200
-4.650E-06,-0.240
-4.640E-06,0.080
-4.630E-06,0.040
-4.620E-06,0.040
-4.610E-06,0.680
-4.600E-06,0.560
-4.590E-06,0.520
-4.580E-06,0.680
-4.570E-06,0.440
-4.560E-06,0.200
-4.550E-06,0.560
-4.540E-06,0.600
-4.530E-06,0.520
-4.520E-06,0.760
-4.510E-06,0.920
-4.500E-06,0.720
-4.490E-06,1.000
-4.480E-06,1.080
-4.470E-06,1.000
-4.460E-06,0.880
-4.450E-06,0.840
-4.440E-06,0.480
-4.430E-06,0.640
-4.420E-06,0.840
-4.410E-06,1.040
-4.400E-06,0.680
-4.390E-06,0.720
-4.380E-06,0.520
-4.370E-06,0.640
-4.360E-06,1.040
-4.350E-06,1.400
-4.340E-06,1.520
-4.330E-06,1.680
-4.320E-06,1.560
-4.310E-06,1.480
-4.300E-06,1.360
-4.290E-06,1.120
-4.280E-06,1.120
-4.270E-06,0.640
-4.260E-06,0.120
-4.250E-06,-0.160
-4.240E-06,-0.440
-4.230E-06,-0.520
-4.220E-06,-0.280
-4.210E-06,-0.320
-4.200E-06,-0.560
-4.190E-06,-0.680
-4.180E-06,-0.800
-4.170E-06,-0.880
-4.160E-06,-1.120
-4.150E-06,-0.600
-4.140E-06,-0.720
-4.130E-06,-0.640
-4.120E-06,-0.320
-4.110E-06,-0.320
-4.100E-06,-0.520
-4.090E-06,0.080
-4.080E-06,-0.160
-4.070E-06,0.160
-4.060E-06,0.560
-4.050E-06,0.560
-4.040E-06,0.720
-4.030E-06,1.080
-4.020E-06,0.880
-4.010E-06,1.040
-4.000E-06,1.520
-3.990E-06,1.520
-3.980E-06,1.280
-3.970E-06,1.240
-3.960E-06,0.800
-3.950E-06,0.560
-3.940E-06,0.520
-3.930E-06,0.080
-3.920E-06,0.000
-3.910E-06,-0.120
-3.900E-06,-0.520
-3.890E-06,-0.760
-3.880E-06,-0.640
-3.870E-06,-0.720
-3.860E-06,-0.600
-3.850E-06,-0.400
-3.840E-06,-0.400
-3.830E-06,-0.480
-3.820E-06,-0.360
-3.810E-06,-0.360
-3.800E-06,-0.240
-3.790E-06,-0.120
-3.780E-06,-0.040
-3.770E-06,0.040
-3.760E-06,0.240
-3.750E-06,0.440
-3.740E-06,0.440
-3.730E-06,0.480
-3.720E-06,0.520
-3.710E-06,0.640
-3.700E-06,0.640
-3.690E-06,0.760
-3.680E-06,0.760
-3.670E-06,0.760
-3.660E-06,0.800
-3.650E-06,0.720
-3.640E-06,0.680
-3.630E-06,0.640
-3.620E-06,0.560
-3.610E-06,0.480
-3.600E-06,0.400
-3.590E-06,0.240
-3.580E-06,0.200
-3.570E-06,0.120
-3.560E-06,0.040
-3.550E-06,-0.040
-3.540E-06,-0.160
-3.530E-06,-0.320
-3.520E-06,-0.480
-3.510E-06,-0.600
-3.500E-06,-0.760
-3.490E-06,-0.840
-3.480E-06,-1.040
-3.470E-06,-1.120
-3.460E-06,-1.200
-3.450E-06,-1.320
-3.440E-06,-1.320
-3.430E-06,-1.400
-3.420E-06,-1.440
-3.410E-06,-1.400
-3.400E-06,-1.320
-3.390E-06,-1.280
-3.380E-06,-1.280
-3.370E-06,-1.160
-3.360E-06,-1.120
-3.350E-06,-1.040
-3.340E-06,-0.840
-3.330E-06,-0.720
-3.320E-06,-0.600
-3.310E-06,-0.520
-3.300E-06,-0.440
-3.290E-06,-0.440
-3.280E-06,-0.480
-3.270E-06,-0.560
-3.260E-06,-0.600
-3.250E-06,-0.720
-3.240E-06,-0.760
-3.230E-06,-0.640
-3.220E-06,-0.520
-3.210E-06,-0.480
-3.200E-06,-0.240
-3.190E-06,-0.160
-3.180E-06,0.040
-3.170E-06,0.320
-3.160E-06,0.480
-3.150E-06,0.520
-3.140E-06,0.560
-3.130E-06,0.560
-3.120E-06,0.520
-3.110E-06,0.600
-3.100E-06,0.680
-3.090E-06,0.680
-3.080E-06,0.800
-3.070E-06,0.760
-3.060E-06,0.680
-3.050E-06,0.640
-3.040E-06,0.560
-3.030E-06,0.440
-3.020E-06,0.440
-3.010E-06,0.360
-3.000E-06,0.360
-2.990E-06,0.320
-2.980E-06,0.320
-2.970E-06,0.280
-2.960E-06,0.360
-2.950E-06,0.440
-2.940E-06,0.440
-2.930E-06,0.600
-2.920E-06,0.640
-2.910E-06,0.680
-2.900E-06,0.680
-2.890E-06,0.640
-2.880E-06,0.480
-2.870E-06,0.080
-2.860E-06,-0.360
-2.850E-06,-0.720
-2.840E-06,-0.840
-2.830E-06,-0.200
-2.820E-06,0.200
-2.810E-06,0.760
-2.800E-06,1.040
-2.790E-06,0.760
-2.780E-06,0.440
-2.770E-06,0.440
-2.760E-06,0.360
-2.750E-06,0.000
-2.740E-06,0.600
-2.730E-06,0.280
-2.720E-06,-0.120
-2.710E-06,0.960
-2.700E-06,1.880
-2.690E-06,2.320
-2.680E-06,3.560
-2.670E-06,3.520
-2.660E-06,2.080
-2.650E-06,2.000
-2.640E-06,1.800
-2.630E-06,1.280
-2.620E-06,1.920
-2.610E-06,2.640
-2.600E-06,2.280
-2.590E-06,1.880
-2.580E-06,1.600
-2.570E-06,0.720
-2.560E-06,0.400
-2.550E-06,0.320
-2.540E-06,0.240
-2.530E-06,0.000
-2.520E-06,-0.240
-2.510E-06,-0.480
-2.500E-06,-0.720
-2.490E-06,-0.920
-2.480E-06,-0.880
-2.470E-06,-0.840
-2.460E-06,-0.880
-2.450E-06,-0.920
-2.440E-06,-1.120
-2.430E-06,-1.640
-2.420E-06,-1.840
-2.410E-06,-1.920
-2.400E-06,-2.040
-2.390E-06,-2.000
-2.380E-06,-2.040
-2.370E-06,-2.080
-2.360E-06,-2.160
-2.350E-06,-2.160
-2.340E-06,-2.120
-2.330E-06,-2.040
-2.320E-06,-2.000
-2.310E-06,-2.000
-2.300E-06,-1.840
-2.290E-06,-1.840
-2.280E-06,-1.600
-2.270E-06,-1.320
-2.260E-06,-0.960
-2.250E-06,-0.720
-2.240E-06,-0.360
-2.230E-06,-0.160
-2.220E-06,0.000
-2.210E-06,0.240
-2.200E-06,0.160
-2.190E-06,0.240
-2.180E-06,0.360
-2.170E-06,0.480
-2.160E-06,0.840
-2.150E-06,1.000
-2.140E-06,1.400
-2.130E-06,1.440
-2.120E-06,1.800
-2.110E-06,1.720
-2.100E-06,1.720
-2.090E-06,1.560
-2.080E-06,1.560
-2.070E-06,1.640
-2.060E-06,2.080
-2.050E-06,2.320
-2.040E-06,2.480
-2.030E-06,2.080
-2.020E-06,2.040
-2.010E-06,1.360
-2.000E-06,1.320
-1.990E-06,1.480
-1.980E-06,1.360
-1.970E-06,1.480
-1.960E-06,1.560
-1.950E-06,1.240
-1.940E-06,1.040
-1.930E-06,1.000
-1.920E-06,0.600
-1.910E-06,0.640
-1.900E-06,0.600
-1.890E-06,0.440
-1.880E-06,0.360
-1.870E-06,0.040
-1.860E-06,-0.040
-1.850E-06,-0.080
-1.840E-06,0.000
-1.830E-06,0.120
-1.820E-06,0.200
-1.810E-06,0.520
-1.800E-06,0.440
-1.790E-06,0.120
-1.780E-06,-0.680
-1.770E-06,-0.920
-1.760E-06,-1.240
-1.750E-06,-0.840
-1.740E-06,-0.080
-1.730E-06,0.240
-1.720E-06,0.120
-1.710E-06,0.240
-1.700E-06,0.200
-1.690E-06,0.040
-1.680E-06,0.200
-1.670E-06,0.360
-1.660E-06,0.320
-1.650E-06,0.440
-1.640E-06,0.520
-1.630E-06,0.360
-1.620E-06,0.240
-1.610E-06,0.200
-1.600E-06,0.120
-1.590E-06,0.080
-1.580E-06,0.160
-1.570E-06,0.080
-1.560E-06,0.120
-1.550E-06,0.200
-1.540E-06,0.200
-1.530E-06,0.080
-1.520E-06,0.080
-1.510E-06,-0.200
-1.500E-06,-0.520
-1.490E-06,-0.720
-1.480E-06,-0.840
-1.470E-06,-0.840
-1.460E-06,-0.680
-1.450E-06,-0.520
-1.440E-06,-0.480
-1.430E-06,-0.440
-1.420E-06,-0.440
-1.410E-06,-0.480
-1.400E-06,-0.400
-1.390E-06,-0.280
-1.380E-06,-0.160
-1.370E-06,-0.040
-1.360E-06,0.040
-1.350E-06,0.040
-1.340E-06,0.080
-1.330E-06,0.000
-1.320E-06,0.000
-1.310E-06,0.000
-1.300E-06,-0.040
-1.290E-06,-0.040
-1.280E-06,-0.280
-1.270E-06,-0.640
-1.260E-06,-0.800
-1.250E-06,-0.880
-1.240E-06,-0.800
-1.230E-06,-0.640
-1.220E-06,-0.400
-1.210E-06,-0.280
-1.200E-06,-0.040
-1.190E-06,-0.040
-1.180E-06,0.160
-1.170E-06,0.320
-1.160E-06,0.640
-1.150E-06,0.760
-1.140E-06,1.080
-1.130E-06,1.040
-1.120E-06,1.120
-1.110E-06,1.320
-1.100E-06,1.520
-1.090E-06,1.720
-1.080E-06,1.840
-1.070E-06,2.040
-1.060E-06,2.200
-1.050E-06,2.320
-1.040E-06,2.600
-1.030E-06,2.760
-1.020E-06,2.680
-1.010E-06,2.640
-1.000E-06,2.400
-9.900E-07,1.880
-9.800E-07,1.520
-9.700E-07,1.160
-9.600E-07,0.680
-9.500E-07,0.160
-9.400E-07,-0.080
-9.300E-07,-0.680
-9.200E-07,-1.000
-9.100E-07,-1.320
-9.000E-07,-1.480
-8.900E-07,-1.720
-8.800E-07,-1.640
-8.700E-07,-1.720
-8.600E-07,-1.680
-8.500E-07,-1.320
-8.400E-07,-1.120
-8.300E-07,-0.680
-8.200E-07,0.000
-8.100E-07,0.400
-8.000E-07,0.560
-7.900E-07,0.840
-7.800E-07,0.760
-7.700E-07,0.640
-7.600E-07,0.680
-7.500E-07,0.720
-7.400E-07,0.720
-7.300E-07,0.960
-7.200E-07,1.200
-7.100E-07,1.320
-7.000E-07,1.240
-6.900E-07,1.200
-6.800E-07,1.240
-6.700E-07,1.120
-6.600E-07,1.400
-6.500E-07,1.680
-6.400E-07,2.000
-6.300E-07,2.120
-6.200E-07,1.880
-6.100E-07,1.360
-6.000E-07,0.760
-5.900E-07,0.200
-5.800E-07,-0.120
-5.700E-07,-0.200
-5.600E-07,-0.240
-5.500E-07,-0.080
-5.400E-07,0.000
-5.300E-07,-0.240
-5.200E-07,-0.560
-5.100E-07,-1.080
-5.000E-07,-1.680
-4.900E-07,-1.800
-4.800E-07,-1.720
-4.700E-07,-1.400
-4.600E-07,-0.920
-4.500E-07,-0.400
-4.400E-07,-0.080
-4.300E-07,0.280
-4.200E-07,0.480
-4.100E-07,0.560
-4.000E-07,0.840
-3.900E-07,1.040
-3.800E-07,1.280
-3.700E-07,1.280
-3.600E-07,1.120
-3.500E-07,0.960
-3.400E-07,0.720
-3.300E-07,0.560
-3.200E-07,0.600
-3.100E-07,0.720
-3.000E-07,0.760
-2.900E-07,0.720
-2.800E-07,0.600
-2.700E-07,0.000
-2.600E-07,-0.640
-2.500E-07,-1.360
-2.400E-07,-2.120
-2.300E-07,-2.680
-2.200E-07,-2.920
-2.100E-07,-3.080
-2.000E-07,-3.080
-1.900E-07,-3.000
-1.800E-07,-3.000
-1.700E-07,-3.360
-1.600E-07,-3.360
-1.500E-07,-3.760
-1.400E-07,-3.960
-1.300E-07,-3.960
-1.200E-07,-4.320
-1.100E-07,-4.920
-1.000E-07,-5.240
-9.000E-08,-5.240
-8.000E-08,-5.200
-7.000E-08,-5.240
-6.000E-08,-5.240
-5.000E-08,-5.240
-4.000E-08,-5.040
-3.000E-08,-5.200
-2.000E-08,-5.240
-1.000E-08,-5.240
0.000E+00,-5.240
1.000E-08,-4.800
2.000E-08,-3.920
3.000E-08,-2.880
4.000E-08,-1.840
5.000E-08,-0.880
6.000E-08,-0.280
7.000E-08,-0.280
8.000E-08,-0.640
9.000E-08,-1.200
1.000E-07,-2.040
1.100E-07,-2.720
1.200E-07,-3.120
1.300E-07,-3.880
1.400E-07,-4.120
1.500E-07,-4.120
1.600E-07,-4.240
1.700E-07,-4.560
1.800E-07,-4.680
1.900E-07,-4.520
2.000E-07,-4.440
2.100E-07,-3.880
2.200E-07,-3.120
2.300E-07,-2.800
2.400E-07,-2.360
2.500E-07,-2.120
2.600E-07,-2.040
2.700E-07,-2.000
2.800E-07,-1.600
2.900E-07,-1.560
3.000E-07,-1.360
3.100E-07,-0.760
3.200E-07,-0.240
3.300E-07,0.080
3.400E-07,0.280
3.500E-07,0.000
3.600E-07,-0.840
3.700E-07,-1.560
3.800E-07,-2.400
3.900E-07,-2.880
4.000E-07,-3.080
4.100E-07,-3.000
4.200E-07,-2.960
4.300E-07,-2.880
4.400E-07,-3.000
4.500E-07,-3.160
4.600E-07,-3.160
4.700E-07,-2.920
4.800E-07,-2.480
4.900E-07,-1.760
5.000E-07,-0.840
5.100E-07,0.080
5.200E-07,0.720
5.300E-07,1.040
5.400E-07,0.920
5.500E-07,0.480
5.600E-07,-0.040
5.700E-07,-0.680
5.800E-07,-1.280
5.900E-07,-1.880
6.000E-07,-2.320
6.100E-07,-2.960
6.200E-07,-3.560
6.300E-07,-4.240
6.400E-07,-4.800
6.500E-07,-5.240
6.600E-07,-5.240
6.700E-07,-5.240
6.800E-07,-5.200
6.900E-07,-5.200
7.000E-07,-5.040
7.100E-07,-4.400
7.200E-07,-3.680
7.300E-07,-2.720
7.400E-07,-1.840
7.500E-07,-0.880
7.600E-07,-0.080
7.700E-07,0.440
7.800E-07,0.840
7.900E-07,1.160
8.000E-07,1.320
8.100E-07,1.400
8.200E-07,1.400
8.300E-07,1.280
8.400E-07,1.040
8.500E-07,0.760
8.600E-07,0.360
8.700E-07,-0.200
8.800E-07,-0.720
8.900E-07,-1.320
9.000E-07,-1.760
9.100E-07,-2.200
9.200E-07,-2.680
9.300E-07,-2.960
9.400E-07,-3.120
9.500E-07,-3.160
9.600E-07,-3.080
9.700E-07,-3.000
9.800E-07,-2.880
9.900E-07,-2.880
1.000E-06,-2.800
1.010E-06,-2.640
1.020E-06,-2.600
1.030E-06,-2.440
1.040E-06,-2.320
1.050E-06,-2.240
1.060E-06,-2.240
1.070E-06,-2.320
1.080E-06,-2.680
1.090E-06,-3.040
1.100E-06,-3.320
1.110E-06,-3.600
1.120E-06,-3.800
1.130E-06,-3.920
1.140E-06,-3.960
1.150E-06,-3.840
1.160E-06,-3.760
1.170E-06,-3.600
1.180E-06,-3.400
1.190E-06,-2.880
1.200E-06,-2.520
1.210E-06,-1.920
1.220E-06,-1.440
1.230E-06,-1.160
1.240E-06,-0.920
1.250E-06,-0.680
1.260E-06,-0.680
1.270E-06,-0.840
1.280E-06,-0.840
1.290E-06,-0.960
1.300E-06,-1.080
1.310E-06,-1.120
1.320E-06,-1.200
1.330E-06,-1.400
1.340E-06,-1.600
1.350E-06,-1.840
1.360E-06,-2.000
1.370E-06,-2.160
1.380E-06,-2.360
1.390E-06,-2.680
1.400E-06,-2.880
1.410E-06,-2.760
1.420E-06,-2.440
1.430E-06,-2.160
1.440E-06,-2.000
1.450E-06,-1.760
1.460E-06,-1.600
1.470E-06,-1.480
1.480E-06,-1.160
1.490E-06,-0.840
1.500E-06,-0.400
1.510E-06,0.080
1.520E-06,0.520
1.530E-06,0.800
1.540E-06,0.840
1.550E-06,0.680
1.560E-06,0.320
1.570E-06,0.000
1.580E-06,-0.280
1.590E-06,-0.360
1.600E-06,-0.400
1.610E-06,-0.440
1.620E-06,-0.560
1.630E-06,-0.760
1.640E-06,-0.920
1.650E-06,-1.080
1.660E-06,-1.240
1.670E-06,-1.360
1.680E-06,-1.320
1.690E-06,-1.320
1.700E-06,-1.360
1.710E-06,-1.360
1.720E-06,-1.400
1.730E-06,-1.520
1.740E-06,-1.600
1.750E-06,-1.760
1.760E-06,-1.840
1.770E-06,-1.920
1.780E-06,-1.920
1.790E-06,-2.040
1.800E-06,-2.160
1.810E-06,-2.240
1.820E-06,-2.240
1.830E-06,-2.320
1.840E-06,-2.280
1.850E-06,-2.320
1.860E-06,-2.280
1.870E-06,-2.200
1.880E-06,-2.160
1.890E-06,-2.040
1.900E-06,-2.000
1.910E-06,-1.880
1.920E-06,-1.800
1.930E-06,-1.560
1.940E-06,-1.440
1.950E-06,-1.320
1.960E-06,-1.200
1.970E-06,-1.120
1.980E-06,-1.000
1.990E-06,-0.920
2.000E-06,-0.840
2.010E-06,-0.680
2.020E-06,-0.680
2.030E-06,-0.640
2.040E-06,-0.680
2.050E-06,-0.680
2.060E-06,-0.720
2.070E-06,-0.760
2.080E-06,-0.800
2.090E-06,-0.960
2.100E-06,-1.000
2.110E-06,-1.040
2.120E-06,-1.120
2.130E-06,-1.160
2.140E-06,-1.240
2.150E-06,-1.280
2.160E-06,-1.360
2.170E-06,-1.360
2.180E-06,-1.360
2.190E-06,-1.360
2.200E-06,-1.320
2.210E-06,-1.320
2.220E-06,-1.280
2.230E-06,-1.280
2.240E-06,-1.200
2.250E-06,-1.160
2.260E-06,-1.160
2.270E-06,-1.120
2.280E-06,-1.120
2.290E-06,-1.160
2.300E-06,-1.080
2.310E-06,-1.120
2.320E-06,-1.120
2.330E-06,-1.040
2.340E-06,-1.000
2.350E-06,-1.080
2.360E-06,-1.040
2.370E-06,-1.160
2.380E-06,-1.240
2.390E-06,-1.240
2.400E-06,-1.320
2.410E-06,-1.320
2.420E-06,-1.320
2.430E-06,-1.320
2.440E-06,-1.160
2.450E-06,-1.160
2.460E-06,-1.120
2.470E-06,-1.040
2.480E-06,-1.000
2.490E-06,-1.040
2.500E-06,-1.000
2.510E-06,-1.040
2.520E-06,-1.040
2.530E-06,-0.960
2.540E-06,-1.000
2.550E-06,-1.000
2.560E-06,-0.960
2.570E-06,-0.920
2.580E-06,-0.880
2.590E-06,-0.880
2.600E-06,-0.880
2.610E-06,-0.880
2.620E-06,-0.840
2.630E-06,-0.920
2.640E-06,-0.840
2.650E-06,-0.840
2.660E-06,-0.840
2.670E-06,-0.880
2.680E-06,-0.840
2.690E-06,-0.840
2.700E-06,-0.880
2.710E-06,-0.960
2.720E-06,-1.000
2.730E-06,-1.000
2.740E-06,-0.960
2.750E-06,-0.880
2.760E-06,-0.880
2.770E-06,-0.880
2.780E-06,-0.880
2.790E-06,-0.880
2.800E-06,-0.920
2.810E-06,-0.880
2.820E-06,-0.880
2.830E-06,-0.840
2.840E-06,-0.800
2.850E-06,-0.840
2.860E-06,-0.880
2.870E-06,-0.880
2.880E-06,-0.920
2.890E-06,-0.960
2.900E-06,-0.880
2.910E-06,-0.880
2.920E-06,-0.840
2.930E-06,-0.800
2.940E-06,-0.840
2.950E-06,-0.720
2.960E-06,-0.760
2.970E-06,-0.760
2.980E-06,-0.840
2.990E-06,-0.920
3.000E-06,-0.920
3.010E-06,-1.000
3.020E-06,-0.960
3.030E-06,-0.920
3.040E-06,-0.920
3.050E-06,-0.840
3.060E-06,-0.880
3.070E-06,-0.920
3.080E-06,-0.920
3.090E-06,-0.960
3.100E-06,-1.040
3.110E-06,-1.000
3.120E-06,-1.000
3.130E-06,-1.000
3.140E-06,-1.000
3.150E-06,-0.920
3.160E-06,-0.840
3.170E-06,-0.800
3.180E-06,-0.760
3.190E-06,-0.720
3.200E-06,-0.680
