mediciones/Mediciones filtradas (saque las feas)/5-22/-5/WaveData4963.csv

#timebase=2000000(ps)
,#voltbase=1000000(mv/100)
#size=4000
-8.400E-06,0.000
-8.390E-06,0.080
-8.380E-06,0.040
-8.370E-06,0.040
-8.360E-06,0.000
-8.350E-06,0.000
-8.340E-06,0.040
-8.330E-06,0.080
-8.320E-06,0.000
-8.310E-06,0.040
-8.300E-06,0.080
-8.290E-06,0.080
-8.280E-06,0.040
-8.270E-06,0.000
-8.260E-06,0.040
-8.250E-06,0.040
-8.240E-06,0.080
-8.230E-06,0.080
-8.220E-06,0.000
-8.210E-06,0.080
-8.200E-06,0.000
-8.190E-06,0.040
-8.180E-06,0.040
-8.170E-06,0.080
-8.160E-06,0.080
-8.150E-06,0.040
-8.140E-06,0.040
-8.130E-06,0.080
-8.120E-06,0.000
-8.110E-06,0.040
-8.100E-06,0.040
-8.090E-06,0.040
-8.080E-06,0.080
-8.070E-06,0.200
-8.060E-06,0.240
-8.050E-06,0.360
-8.040E-06,0.840
-8.030E-06,1.440
-8.020E-06,1.880
-8.010E-06,1.960
-8.000E-06,1.480
-7.990E-06,0.600
-7.980E-06,-0.280
-7.970E-06,-0.960
-7.960E-06,-1.200
-7.950E-06,-1.200
-7.940E-06,-1.120
-7.930E-06,-1.160
-7.920E-06,-1.320
-7.910E-06,-1.360
-7.900E-06,-1.360
-7.890E-06,-1.160
-7.880E-06,-0.920
-7.870E-06,-0.760
-7.860E-06,-0.640
-7.850E-06,-0.560
-7.840E-06,-0.520
-7.830E-06,-0.480
-7.820E-06,-0.480
-7.810E-06,-0.400
-7.800E-06,-0.360
-7.790E-06,-0.240
-7.780E-06,0.000
-7.770E-06,0.320
-7.760E-06,0.680
-7.750E-06,0.840
-7.740E-06,0.880
-7.730E-06,0.840
-7.720E-06,0.760
-7.710E-06,0.640
-7.700E-06,0.560
-7.690E-06,0.520
-7.680E-06,0.440
-7.670E-06,0.320
-7.660E-06,0.160
-7.650E-06,-0.040
-7.640E-06,-0.240
-7.630E-06,-0.240
-7.620E-06,-0.200
-7.610E-06,-0.160
-7.600E-06,-0.080
-7.590E-06,0.000
-7.580E-06,0.000
-7.570E-06,0.120
-7.560E-06,0.160
-7.550E-06,0.160
-7.540E-06,0.160
-7.530E-06,0.080
-7.520E-06,0.040
-7.510E-06,0.040
-7.500E-06,0.000
-7.490E-06,0.080
-7.480E-06,0.120
-7.470E-06,0.040
-7.460E-06,-0.080
-7.450E-06,-0.120
-7.440E-06,-0.040
-7.430E-06,-0.080
-7.420E-06,-0.080
-7.410E-06,-0.080
-7.400E-06,-0.080
-7.390E-06,-0.160
-7.380E-06,-0.200
-7.370E-06,-0.240
-7.360E-06,-0.280
-7.350E-06,-0.320
-7.340E-06,-0.360
-7.330E-06,-0.320
-7.320E-06,-0.360
-7.310E-06,-0.320
-7.300E-06,-0.240
-7.290E-06,-0.200
-7.280E-06,-0.120
-7.270E-06,0.000
-7.260E-06,0.080
-7.250E-06,0.160
-7.240E-06,0.200
-7.230E-06,0.120
-7.220E-06,0.240
-7.210E-06,0.240
-7.200E-06,0.240
-7.190E-06,0.200
-7.180E-06,0.120
-7.170E-06,0.080
-7.160E-06,0.040
-7.150E-06,0.000
-7.140E-06,0.000
-7.130E-06,-0.040
-7.120E-06,-0.080
-7.110E-06,0.000
-7.100E-06,-0.040
-7.090E-06,0.000
-7.080E-06,-0.080
-7.070E-06,-0.080
-7.060E-06,-0.080
-7.050E-06,-0.160
-7.040E-06,-0.080
-7.030E-06,-0.080
-7.020E-06,-0.160
-7.010E-06,-0.080
-7.000E-06,-0.120
-6.990E-06,-0.080
-6.980E-06,-0.080
-6.970E-06,-0.040
-6.960E-06,0.000
-6.950E-06,0.000
-6.940E-06,0.080
-6.930E-06,0.080
-6.920E-06,0.080
-6.910E-06,0.120
-6.900E-06,0.160
-6.890E-06,0.200
-6.880E-06,0.160
-6.870E-06,0.120
-6.860E-06,0.160
-6.850E-06,0.120
-6.840E-06,0.160
-6.830E-06,0.120
-6.820E-06,0.080
-6.810E-06,0.040
-6.800E-06,0.080
-6.790E-06,0.080
-6.780E-06,0.040
-6.770E-06,0.000
-6.760E-06,-0.040
-6.750E-06,0.000
-6.740E-06,0.040
-6.730E-06,0.040
-6.720E-06,-0.080
-6.710E-06,-0.040
-6.700E-06,-0.120
-6.690E-06,-0.120
-6.680E-06,-0.080
-6.670E-06,-0.040
-6.660E-06,-0.040
-6.650E-06,-0.040
-6.640E-06,-0.160
-6.630E-06,-0.120
-6.620E-06,-0.080
-6.610E-06,-0.040
-6.600E-06,0.000
-6.590E-06,0.000
-6.580E-06,0.000
-6.570E-06,0.040
-6.560E-06,0.080
-6.550E-06,0.040
-6.540E-06,0.120
-6.530E-06,0.120
-6.520E-06,0.120
-6.510E-06,0.160
-6.500E-06,0.120
-6.490E-06,0.160
-6.480E-06,0.080
-6.470E-06,0.160
-6.460E-06,0.160
-6.450E-06,0.120
-6.440E-06,0.080
-6.430E-06,0.080
-6.420E-06,0.000
-6.410E-06,0.040
-6.400E-06,0.040
-6.390E-06,0.080
-6.380E-06,0.000
-6.370E-06,0.040
-6.360E-06,0.000
-6.350E-06,0.000
-6.340E-06,-0.040
-6.330E-06,0.040
-6.320E-06,0.080
-6.310E-06,0.000
-6.300E-06,0.000
-6.290E-06,0.040
-6.280E-06,0.040
-6.270E-06,0.040
-6.260E-06,0.000
-6.250E-06,0.000
-6.240E-06,0.080
-6.230E-06,0.120
-6.220E-06,0.040
-6.210E-06,0.120
-6.200E-06,0.160
-6.190E-06,0.120
-6.180E-06,0.120
-6.170E-06,0.120
-6.160E-06,0.120
-6.150E-06,0.160
-6.140E-06,0.120
-6.130E-06,0.080
-6.120E-06,0.080
-6.110E-06,0.160
-6.100E-06,0.080
-6.090E-06,0.120
-6.080E-06,0.160
-6.070E-06,0.080
-6.060E-06,0.080
-6.050E-06,0.160
-6.040E-06,0.160
-6.030E-06,0.200
-6.020E-06,0.160
-6.010E-06,0.200
-6.000E-06,0.080
-5.990E-06,0.120
-5.980E-06,0.120
-5.970E-06,0.120
-5.960E-06,0.120
-5.950E-06,0.160
-5.940E-06,0.160
-5.930E-06,0.120
-5.920E-06,0.040
-5.910E-06,0.080
-5.900E-06,0.120
-5.890E-06,0.040
-5.880E-06,0.080
-5.870E-06,0.080
-5.860E-06,0.040
-5.850E-06,0.080
-5.840E-06,0.000
-5.830E-06,0.000
-5.820E-06,0.040
-5.810E-06,0.040
-5.800E-06,0.000
-5.790E-06,0.040
-5.780E-06,0.040
-5.770E-06,0.040
-5.760E-06,0.040
-5.750E-06,0.080
-5.740E-06,0.040
-5.730E-06,0.040
-5.720E-06,0.080
-5.710E-06,0.160
-5.700E-06,0.080
-5.690E-06,0.120
-5.680E-06,0.120
-5.670E-06,0.120
-5.660E-06,0.160
-5.650E-06,0.200
-5.640E-06,0.160
-5.630E-06,0.120
-5.620E-06,0.160
-5.610E-06,0.200
-5.600E-06,0.160
-5.590E-06,0.160
-5.580E-06,0.200
-5.570E-06,0.200
-5.560E-06,0.200
-5.550E-06,0.120
-5.540E-06,0.160
-5.530E-06,0.160
-5.520E-06,0.120
-5.510E-06,0.120
-5.500E-06,0.120
-5.490E-06,0.080
-5.480E-06,0.080
-5.470E-06,0.000
-5.460E-06,0.000
-5.450E-06,0.040
-5.440E-06,0.080
-5.430E-06,0.040
-5.420E-06,0.040
-5.410E-06,0.080
-5.400E-06,0.080
-5.390E-06,0.080
-5.380E-06,0.120
-5.370E-06,0.160
-5.360E-06,0.160
-5.350E-06,0.160
-5.340E-06,0.160
-5.330E-06,0.160
-5.320E-06,0.080
-5.310E-06,0.120
-5.300E-06,0.160
-5.290E-06,0.160
-5.280E-06,0.160
-5.270E-06,0.200
-5.260E-06,0.160
-5.250E-06,0.160
-5.240E-06,0.160
-5.230E-06,0.160
-5.220E-06,0.160
-5.210E-06,0.200
-5.200E-06,0.120
-5.190E-06,0.120
-5.180E-06,0.120
-5.170E-06,0.120
-5.160E-06,0.200
-5.150E-06,0.120
-5.140E-06,0.160
-5.130E-06,0.160
-5.120E-06,0.040
-5.110E-06,0.080
-5.100E-06,0.160
-5.090E-06,0.120
-5.080E-06,0.160
-5.070E-06,0.200
-5.060E-06,0.160
-5.050E-06,0.000
-5.040E-06,0.000
-5.030E-06,0.080
-5.020E-06,0.360
-5.010E-06,0.600
-5.000E-06,0.480
-4.990E-06,0.400
-4.980E-06,0.160
-4.970E-06,-0.080
-4.960E-06,-0.080
-4.950E-06,0.520
-4.940E-06,0.720
-4.930E-06,0.600
-4.920E-06,0.560
-4.910E-06,0.400
-4.900E-06,0.040
-4.890E-06,0.160
-4.880E-06,0.480
-4.870E-06,0.520
-4.860E-06,0.480
-4.850E-06,0.520
-4.840E-06,0.200
-4.830E-06,0.080
-4.820E-06,0.200
-4.810E-06,0.360
-4.800E-06,0.320
-4.790E-06,0.320
-4.780E-06,0.160
-4.770E-06,0.040
-4.760E-06,0.160
-4.750E-06,0.280
-4.740E-06,0.320
-4.730E-06,0.400
-4.720E-06,0.240
-4.710E-06,0.000
-4.700E-06,0.000
-4.690E-06,0.040
-4.680E-06,0.120
-4.670E-06,0.240
-4.660E-06,0.360
-4.650E-06,0.160
-4.640E-06,0.000
-4.630E-06,-0.040
-4.620E-06,0.040
-4.610E-06,0.120
-4.600E-06,0.120
-4.590E-06,0.120
-4.580E-06,0.040
-4.570E-06,0.000
-4.560E-06,-0.040
-4.550E-06,0.040
-4.540E-06,0.160
-4.530E-06,0.080
-4.520E-06,0.080
-4.510E-06,0.000
-4.500E-06,-0.040
-4.490E-06,0.000
-4.480E-06,0.040
-4.470E-06,0.040
-4.460E-06,0.120
-4.450E-06,0.160
-4.440E-06,-0.040
-4.430E-06,0.000
-4.420E-06,0.080
-4.410E-06,0.120
-4.400E-06,0.120
-4.390E-06,0.160
-4.380E-06,0.160
-4.370E-06,0.080
-4.360E-06,0.040
-4.350E-06,0.080
-4.340E-06,0.160
-4.330E-06,0.160
-4.320E-06,0.120
-4.310E-06,0.040
-4.300E-06,0.000
-4.290E-06,0.000
-4.280E-06,0.000
-4.270E-06,0.160
-4.260E-06,0.240
-4.250E-06,0.280
-4.240E-06,0.200
-4.230E-06,0.160
-4.220E-06,0.160
-4.210E-06,0.200
-4.200E-06,0.280
-4.190E-06,0.200
-4.180E-06,0.160
-4.170E-06,0.120
-4.160E-06,0.120
-4.150E-06,0.120
-4.140E-06,0.080
-4.130E-06,0.040
-4.120E-06,0.160
-4.110E-06,0.080
-4.100E-06,0.200
-4.090E-06,0.160
-4.080E-06,0.160
-4.070E-06,0.080
-4.060E-06,0.120
-4.050E-06,0.160
-4.040E-06,0.160
-4.030E-06,0.120
-4.020E-06,0.200
-4.010E-06,0.160
-4.000E-06,0.160
-3.990E-06,0.120
-3.980E-06,0.120
-3.970E-06,0.160
-3.960E-06,0.120
-3.950E-06,0.080
-3.940E-06,0.080
-3.930E-06,0.080
-3.920E-06,0.080
-3.910E-06,0.040
-3.900E-06,0.040
-3.890E-06,0.040
-3.880E-06,0.000
-3.870E-06,-0.040
-3.860E-06,0.000
-3.850E-06,0.000
-3.840E-06,0.040
-3.830E-06,-0.040
-3.820E-06,0.000
-3.810E-06,0.000
-3.800E-06,0.000
-3.790E-06,0.000
-3.780E-06,0.000
-3.770E-06,0.000
-3.760E-06,0.000
-3.750E-06,0.000
-3.740E-06,0.000
-3.730E-06,-0.040
-3.720E-06,0.000
-3.710E-06,-0.040
-3.700E-06,0.000
-3.690E-06,0.000
-3.680E-06,0.000
-3.670E-06,-0.040
-3.660E-06,0.000
-3.650E-06,0.000
-3.640E-06,0.000
-3.630E-06,0.000
-3.620E-06,0.000
-3.610E-06,0.000
-3.600E-06,0.000
-3.590E-06,0.040
-3.580E-06,0.040
-3.570E-06,0.080
-3.560E-06,0.080
-3.550E-06,0.080
-3.540E-06,0.160
-3.530E-06,0.200
-3.520E-06,0.320
-3.510E-06,0.360
-3.500E-06,0.280
-3.490E-06,0.240
-3.480E-06,0.200
-3.470E-06,0.160
-3.460E-06,0.360
-3.450E-06,0.440
-3.440E-06,0.440
-3.430E-06,0.320
-3.420E-06,0.360
-3.410E-06,0.320
-3.400E-06,0.320
-3.390E-06,0.360
-3.380E-06,0.400
-3.370E-06,0.320
-3.360E-06,0.240
-3.350E-06,0.320
-3.340E-06,0.240
-3.330E-06,0.240
-3.320E-06,0.320
-3.310E-06,0.400
-3.300E-06,0.400
-3.290E-06,0.400
-3.280E-06,0.320
-3.270E-06,0.200
-3.260E-06,0.240
-3.250E-06,0.320
-3.240E-06,0.320
-3.230E-06,0.360
-3.220E-06,0.360
-3.210E-06,0.200
-3.200E-06,0.120
-3.190E-06,0.120
-3.180E-06,0.080
-3.170E-06,0.120
-3.160E-06,0.160
-3.150E-06,0.080
-3.140E-06,-0.040
-3.130E-06,-0.040
-3.120E-06,0.000
-3.110E-06,-0.040
-3.100E-06,0.000
-3.090E-06,0.040
-3.080E-06,0.000
-3.070E-06,-0.080
-3.060E-06,-0.080
-3.050E-06,-0.080
-3.040E-06,-0.040
-3.030E-06,-0.040
-3.020E-06,-0.040
-3.010E-06,-0.040
-3.000E-06,-0.080
-2.990E-06,-0.120
-2.980E-06,0.000
-2.970E-06,0.000
-2.960E-06,0.000
-2.950E-06,-0.040
-2.940E-06,0.000
-2.930E-06,-0.040
-2.920E-06,-0.040
-2.910E-06,0.000
-2.900E-06,0.000
-2.890E-06,0.040
-2.880E-06,0.040
-2.870E-06,0.040
-2.860E-06,0.080
-2.850E-06,0.080
-2.840E-06,0.160
-2.830E-06,0.160
-2.820E-06,0.200
-2.810E-06,0.080
-2.800E-06,0.160
-2.790E-06,0.160
-2.780E-06,0.240
-2.770E-06,0.200
-2.760E-06,0.240
-2.750E-06,0.280
-2.740E-06,0.280
-2.730E-06,0.240
-2.720E-06,0.200
-2.710E-06,0.280
-2.700E-06,0.320
-2.690E-06,0.400
-2.680E-06,0.400
-2.670E-06,0.400
-2.660E-06,0.360
-2.650E-06,0.360
-2.640E-06,0.320
-2.630E-06,0.440
-2.620E-06,0.480
-2.610E-06,0.560
-2.600E-06,0.480
-2.590E-06,0.520
-2.580E-06,0.440
-2.570E-06,0.480
-2.560E-06,0.480
-2.550E-06,0.480
-2.540E-06,0.560
-2.530E-06,0.600
-2.520E-06,0.600
-2.510E-06,0.640
-2.500E-06,0.720
-2.490E-06,0.640
-2.480E-06,0.640
-2.470E-06,0.720
-2.460E-06,0.640
-2.450E-06,0.600
-2.440E-06,0.680
-2.430E-06,0.680
-2.420E-06,0.800
-2.410E-06,0.960
-2.400E-06,0.760
-2.390E-06,0.760
-2.380E-06,0.800
-2.370E-06,0.560
-2.360E-06,0.640
-2.350E-06,0.840
-2.340E-06,0.800
-2.330E-06,0.800
-2.320E-06,0.960
-2.310E-06,0.800
-2.300E-06,0.600
-2.290E-06,0.680
-2.280E-06,0.640
-2.270E-06,0.520
-2.260E-06,0.560
-2.250E-06,0.520
-2.240E-06,0.440
-2.230E-06,0.440
-2.220E-06,0.440
-2.210E-06,0.360
-2.200E-06,0.320
-2.190E-06,0.240
-2.180E-06,0.200
-2.170E-06,0.080
-2.160E-06,0.040
-2.150E-06,0.040
-2.140E-06,0.040
-2.130E-06,0.040
-2.120E-06,0.000
-2.110E-06,-0.040
-2.100E-06,-0.120
-2.090E-06,-0.120
-2.080E-06,-0.120
-2.070E-06,-0.160
-2.060E-06,-0.240
-2.050E-06,-0.160
-2.040E-06,-0.160
-2.030E-06,-0.200
-2.020E-06,-0.120
-2.010E-06,-0.160
-2.000E-06,-0.200
-1.990E-06,-0.200
-1.980E-06,-0.120
-1.970E-06,-0.120
-1.960E-06,-0.080
-1.950E-06,0.000
-1.940E-06,0.000
-1.930E-06,0.120
-1.920E-06,0.160
-1.910E-06,0.080
-1.900E-06,0.080
-1.890E-06,0.160
-1.880E-06,0.120
-1.870E-06,0.160
-1.860E-06,0.360
-1.850E-06,0.320
-1.840E-06,0.360
-1.830E-06,0.360
-1.820E-06,0.440
-1.810E-06,0.480
-1.800E-06,0.520
-1.790E-06,0.600
-1.780E-06,0.600
-1.770E-06,0.600
-1.760E-06,0.520
-1.750E-06,0.720
-1.740E-06,0.400
-1.730E-06,0.480
-1.720E-06,0.400
-1.710E-06,0.360
-1.700E-06,0.600
-1.690E-06,0.960
-1.680E-06,1.160
-1.670E-06,1.000
-1.660E-06,0.560
-1.650E-06,0.200
-1.640E-06,-0.160
-1.630E-06,0.120
-1.620E-06,0.640
-1.610E-06,0.640
-1.600E-06,0.360
-1.590E-06,0.120
-1.580E-06,-0.360
-1.570E-06,-0.320
-1.560E-06,0.120
-1.550E-06,0.240
-1.540E-06,0.360
-1.530E-06,0.360
-1.520E-06,-0.040
-1.510E-06,-0.120
-1.500E-06,0.080
-1.490E-06,0.360
-1.480E-06,0.440
-1.470E-06,0.600
-1.460E-06,0.400
-1.450E-06,0.120
-1.440E-06,0.160
-1.430E-06,0.240
-1.420E-06,0.440
-1.410E-06,0.600
-1.400E-06,0.480
-1.390E-06,0.360
-1.380E-06,0.160
-1.370E-06,0.080
-1.360E-06,0.080
-1.350E-06,0.120
-1.340E-06,0.080
-1.330E-06,0.080
-1.320E-06,-0.040
-1.310E-06,-0.160
-1.300E-06,-0.240
-1.290E-06,-0.200
-1.280E-06,-0.120
-1.270E-06,-0.160
-1.260E-06,-0.280
-1.250E-06,-0.320
-1.240E-06,-0.360
-1.230E-06,-0.320
-1.220E-06,-0.240
-1.210E-06,-0.240
-1.200E-06,-0.240
-1.190E-06,-0.320
-1.180E-06,-0.440
-1.170E-06,-0.400
-1.160E-06,-0.320
-1.150E-06,-0.240
-1.140E-06,-0.240
-1.130E-06,-0.200
-1.120E-06,-0.240
-1.110E-06,-0.320
-1.100E-06,-0.280
-1.090E-06,-0.200
-1.080E-06,0.000
-1.070E-06,0.040
-1.060E-06,0.160
-1.050E-06,0.160
-1.040E-06,0.200
-1.030E-06,0.280
-1.020E-06,0.400
-1.010E-06,0.560
-1.000E-06,0.680
-9.900E-07,0.840
-9.800E-07,0.840
-9.700E-07,0.880
-9.600E-07,0.880
-9.500E-07,0.880
-9.400E-07,0.840
-9.300E-07,0.760
-9.200E-07,0.720
-9.100E-07,0.720
-9.000E-07,0.800
-8.900E-07,0.880
-8.800E-07,0.920
-8.700E-07,0.920
-8.600E-07,0.920
-8.500E-07,0.840
-8.400E-07,0.680
-8.300E-07,0.600
-8.200E-07,0.520
-8.100E-07,0.600
-8.000E-07,0.800
-7.900E-07,1.000
-7.800E-07,1.080
-7.700E-07,1.080
-7.600E-07,0.720
-7.500E-07,0.560
-7.400E-07,0.440
-7.300E-07,0.240
-7.200E-07,0.320
-7.100E-07,0.360
-7.000E-07,0.240
-6.900E-07,0.320
-6.800E-07,0.360
-6.700E-07,0.280
-6.600E-07,0.280
-6.500E-07,0.360
-6.400E-07,0.320
-6.300E-07,0.320
-6.200E-07,0.440
-6.100E-07,0.520
-6.000E-07,0.640
-5.900E-07,0.800
-5.800E-07,0.840
-5.700E-07,0.880
-5.600E-07,0.880
-5.500E-07,0.920
-5.400E-07,0.920
-5.300E-07,0.960
-5.200E-07,1.160
-5.100E-07,1.240
-5.000E-07,1.440
-4.900E-07,1.440
-4.800E-07,1.520
-4.700E-07,1.640
-4.600E-07,1.680
-4.500E-07,1.720
-4.400E-07,1.840
-4.300E-07,1.840
-4.200E-07,1.760
-4.100E-07,1.680
-4.000E-07,1.440
-3.900E-07,1.280
-3.800E-07,1.320
-3.700E-07,1.320
-3.600E-07,1.440
-3.500E-07,1.520
-3.400E-07,1.560
-3.300E-07,1.480
-3.200E-07,1.400
-3.100E-07,1.400
-3.000E-07,1.440
-2.900E-07,1.480
-2.800E-07,1.600
-2.700E-07,1.560
-2.600E-07,1.600
-2.500E-07,1.600
-2.400E-07,1.520
-2.300E-07,1.440
-2.200E-07,1.320
-2.100E-07,1.200
-2.000E-07,1.120
-1.900E-07,1.040
-1.800E-07,0.960
-1.700E-07,1.000
-1.600E-07,1.080
-1.500E-07,1.120
-1.400E-07,1.240
-1.300E-07,1.160
-1.200E-07,1.000
-1.100E-07,0.840
-1.000E-07,0.480
-9.000E-08,0.480
-8.000E-08,0.440
-7.000E-08,0.800
-6.000E-08,1.000
-5.000E-08,1.320
-4.000E-08,1.760
-3.000E-08,1.440
-2.000E-08,1.400
-1.000E-08,0.920
0.000E+00,0.360
1.000E-08,0.720
2.000E-08,1.240
3.000E-08,2.240
4.000E-08,2.880
5.000E-08,3.000
6.000E-08,2.640
7.000E-08,2.120
8.000E-08,1.600
9.000E-08,1.720
1.000E-07,1.880
1.100E-07,1.840
1.200E-07,1.880
1.300E-07,1.760
1.400E-07,1.280
1.500E-07,1.000
1.600E-07,0.800
1.700E-07,0.600
1.800E-07,0.440
1.900E-07,0.200
2.000E-07,-0.040
2.100E-07,-0.280
2.200E-07,-0.440
2.300E-07,-0.520
2.400E-07,-0.560
2.500E-07,-0.680
2.600E-07,-0.880
2.700E-07,-1.120
2.800E-07,-1.240
2.900E-07,-1.280
3.000E-07,-1.240
3.100E-07,-1.160
3.200E-07,-1.120
3.300E-07,-1.160
3.400E-07,-1.200
3.500E-07,-1.240
3.600E-07,-1.200
3.700E-07,-1.040
3.800E-07,-0.800
3.900E-07,-0.600
4.000E-07,-0.480
4.100E-07,-0.320
4.200E-07,-0.160
4.300E-07,0.000
4.400E-07,0.200
4.500E-07,0.320
4.600E-07,0.480
4.700E-07,0.640
4.800E-07,0.800
4.900E-07,0.960
5.000E-07,1.080
5.100E-07,1.320
5.200E-07,1.520
5.300E-07,1.560
5.400E-07,1.560
5.500E-07,1.480
5.600E-07,1.480
5.700E-07,1.480
5.800E-07,1.360
5.900E-07,1.440
6.000E-07,1.360
6.100E-07,1.200
6.200E-07,1.080
6.300E-07,0.880
6.400E-07,0.560
6.500E-07,0.520
6.600E-07,0.280
6.700E-07,0.160
6.800E-07,0.160
6.900E-07,0.160
7.000E-07,0.240
7.100E-07,0.320
7.200E-07,0.440
7.300E-07,0.400
7.400E-07,0.360
7.500E-07,0.440
7.600E-07,0.600
7.700E-07,0.720
7.800E-07,0.840
7.900E-07,0.960
8.000E-07,1.120
8.100E-07,1.160
8.200E-07,1.160
8.300E-07,1.560
8.400E-07,1.360
8.500E-07,1.480
8.600E-07,1.040
8.700E-07,1.240
8.800E-07,0.960
8.900E-07,1.600
9.000E-07,1.760
9.100E-07,2.000
9.200E-07,1.960
9.300E-07,2.160
9.400E-07,2.280
9.500E-07,2.320
9.600E-07,2.520
9.700E-07,2.280
9.800E-07,2.360
9.900E-07,1.760
1.000E-06,1.120
1.010E-06,0.800
1.020E-06,1.000
1.030E-06,1.400
1.040E-06,2.000
1.050E-06,2.520
1.060E-06,2.440
1.070E-06,2.360
1.080E-06,2.280
1.090E-06,1.840
1.100E-06,1.760
1.110E-06,2.040
1.120E-06,2.120
1.130E-06,2.120
1.140E-06,2.200
1.150E-06,2.040
1.160E-06,1.920
1.170E-06,1.960
1.180E-06,1.880
1.190E-06,1.640
1.200E-06,1.600
1.210E-06,1.440
1.220E-06,1.120
1.230E-06,1.080
1.240E-06,1.000
1.250E-06,0.760
1.260E-06,0.560
1.270E-06,0.360
1.280E-06,0.040
1.290E-06,-0.200
1.300E-06,-0.320
1.310E-06,-0.400
1.320E-06,-0.400
1.330E-06,-0.440
1.340E-06,-0.480
1.350E-06,-0.680
1.360E-06,-0.760
1.370E-06,-0.880
1.380E-06,-0.880
1.390E-06,-0.880
1.400E-06,-0.800
1.410E-06,-0.800
1.420E-06,-0.720
1.430E-06,-0.640
1.440E-06,-0.640
1.450E-06,-0.600
1.460E-06,-0.600
1.470E-06,-0.520
1.480E-06,-0.480
1.490E-06,-0.360
1.500E-06,-0.240
1.510E-06,-0.120
1.520E-06,-0.040
1.530E-06,0.000
1.540E-06,0.120
1.550E-06,0.120
1.560E-06,0.160
1.570E-06,0.160
1.580E-06,0.280
1.590E-06,0.360
1.600E-06,0.400
1.610E-06,0.480
1.620E-06,0.480
1.630E-06,0.480
1.640E-06,0.480
1.650E-06,0.560
1.660E-06,0.600
1.670E-06,0.600
1.680E-06,0.600
1.690E-06,0.560
1.700E-06,0.520
1.710E-06,0.440
1.720E-06,0.400
1.730E-06,0.400
1.740E-06,0.320
1.750E-06,0.240
1.760E-06,0.200
1.770E-06,0.200
1.780E-06,0.080
1.790E-06,0.000
1.800E-06,0.000
1.810E-06,-0.080
1.820E-06,-0.160
1.830E-06,-0.280
1.840E-06,-0.360
1.850E-06,-0.480
1.860E-06,-0.680
1.870E-06,-0.760
1.880E-06,-0.800
1.890E-06,-0.680
1.900E-06,-0.480
1.910E-06,-0.200
1.920E-06,-0.040
1.930E-06,-0.160
1.940E-06,-0.320
1.950E-06,-0.440
1.960E-06,-0.480
1.970E-06,-0.400
1.980E-06,-0.280
1.990E-06,-0.160
2.000E-06,-0.040
2.010E-06,0.160
2.020E-06,0.520
2.030E-06,0.640
2.040E-06,0.560
2.050E-06,0.320
2.060E-06,-0.080
2.070E-06,-0.280
2.080E-06,-0.280
2.090E-06,0.080
2.100E-06,0.640
2.110E-06,0.280
2.120E-06,-0.360
2.130E-06,0.000
2.140E-06,-0.480
2.150E-06,-0.240
2.160E-06,0.040
2.170E-06,-0.160
2.180E-06,-0.840
2.190E-06,-0.120
2.200E-06,0.160
2.210E-06,0.920
2.220E-06,2.360
2.230E-06,3.280
2.240E-06,3.960
2.250E-06,4.120
2.260E-06,3.520
2.270E-06,2.920
2.280E-06,2.640
2.290E-06,2.160
2.300E-06,1.840
2.310E-06,1.840
2.320E-06,1.600
2.330E-06,2.000
2.340E-06,2.160
2.350E-06,2.080
2.360E-06,1.920
2.370E-06,1.520
2.380E-06,1.120
2.390E-06,0.960
2.400E-06,0.800
2.410E-06,0.840
2.420E-06,0.880
2.430E-06,0.720
2.440E-06,0.640
2.450E-06,0.400
2.460E-06,-0.040
2.470E-06,0.000
2.480E-06,-0.080
2.490E-06,-0.240
2.500E-06,-0.240
2.510E-06,-0.320
2.520E-06,-0.480
2.530E-06,-0.680
2.540E-06,-0.840
2.550E-06,-0.920
2.560E-06,-0.880
2.570E-06,-0.800
2.580E-06,-0.760
2.590E-06,-0.720
2.600E-06,-0.720
2.610E-06,-0.680
2.620E-06,-0.680
2.630E-06,-0.560
2.640E-06,-0.480
2.650E-06,-0.400
2.660E-06,-0.320
2.670E-06,-0.200
2.680E-06,-0.160
2.690E-06,-0.080
2.700E-06,-0.080
2.710E-06,-0.080
2.720E-06,0.000
2.730E-06,-0.040
2.740E-06,-0.200
2.750E-06,-0.200
2.760E-06,-0.240
2.770E-06,-0.440
2.780E-06,-0.640
2.790E-06,-0.880
2.800E-06,-1.000
2.810E-06,-0.920
2.820E-06,-0.840
2.830E-06,-0.840
2.840E-06,-0.960
2.850E-06,-1.160
2.860E-06,-1.040
2.870E-06,-0.960
2.880E-06,-1.200
2.890E-06,-1.880
2.900E-06,-2.480
2.910E-06,-2.520
2.920E-06,-1.920
2.930E-06,-0.680
2.940E-06,0.440
2.950E-06,0.240
2.960E-06,-0.280
2.970E-06,-1.680
2.980E-06,-2.960
2.990E-06,-2.880
3.000E-06,-1.760
3.010E-06,0.160
3.020E-06,2.240
3.030E-06,3.640
3.040E-06,3.560
3.050E-06,1.520
3.060E-06,0.240
3.070E-06,-1.160
3.080E-06,-1.240
3.090E-06,0.640
3.100E-06,2.160
3.110E-06,2.680
3.120E-06,4.160
3.130E-06,4.360
3.140E-06,4.000
3.150E-06,4.800
3.160E-06,4.400
3.170E-06,3.640
3.180E-06,4.360
3.190E-06,4.040
3.200E-06,3.160
3.210E-06,3.200
3.220E-06,2.920
3.230E-06,2.200
3.240E-06,2.240
3.250E-06,1.760
3.260E-06,0.840
3.270E-06,0.720
3.280E-06,0.440
3.290E-06,-0.160
3.300E-06,-0.120
3.310E-06,-0.280
3.320E-06,-0.560
3.330E-06,-0.640
3.340E-06,-0.840
3.350E-06,-1.320
