mediciones/Mediciones filtradas (saque las feas)/5-22/-5/WaveData4944.csv

#timebase=2000000(ps)
,#voltbase=100000(mv/100)
#size=4000
-8.400E-06,0.004
-8.390E-06,0.008
-8.380E-06,0.008
-8.370E-06,0.000
-8.360E-06,0.000
-8.350E-06,0.000
-8.340E-06,-0.004
-8.330E-06,0.000
-8.320E-06,0.004
-8.310E-06,0.004
-8.300E-06,0.000
-8.290E-06,0.004
-8.280E-06,0.000
-8.270E-06,0.004
-8.260E-06,0.004
-8.250E-06,0.000
-8.240E-06,0.004
-8.230E-06,0.004
-8.220E-06,0.000
-8.210E-06,0.004
-8.200E-06,0.000
-8.190E-06,0.004
-8.180E-06,0.008
-8.170E-06,-0.004
-8.160E-06,0.004
-8.150E-06,0.000
-8.140E-06,0.004
-8.130E-06,0.000
-8.120E-06,0.004
-8.110E-06,0.000
-8.100E-06,0.000
-8.090E-06,0.000
-8.080E-06,0.000
-8.070E-06,0.004
-8.060E-06,0.000
-8.050E-06,0.004
-8.040E-06,-0.004
-8.030E-06,0.004
-8.020E-06,0.004
-8.010E-06,-0.004
-8.000E-06,0.000
-7.990E-06,0.004
-7.980E-06,0.000
-7.970E-06,0.008
-7.960E-06,0.000
-7.950E-06,0.000
-7.940E-06,0.000
-7.930E-06,0.004
-7.920E-06,0.004
-7.910E-06,0.004
-7.900E-06,0.000
-7.890E-06,0.004
-7.880E-06,0.000
-7.870E-06,0.000
-7.860E-06,0.004
-7.850E-06,0.008
-7.840E-06,0.008
-7.830E-06,0.008
-7.820E-06,0.008
-7.810E-06,0.000
-7.800E-06,0.004
-7.790E-06,0.004
-7.780E-06,0.004
-7.770E-06,0.000
-7.760E-06,0.000
-7.750E-06,0.004
-7.740E-06,0.004
-7.730E-06,0.004
-7.720E-06,0.000
-7.710E-06,0.000
-7.700E-06,0.000
-7.690E-06,0.000
-7.680E-06,-0.004
-7.670E-06,0.000
-7.660E-06,0.004
-7.650E-06,0.004
-7.640E-06,0.004
-7.630E-06,0.004
-7.620E-06,0.004
-7.610E-06,0.000
-7.600E-06,0.004
-7.590E-06,0.000
-7.580E-06,0.000
-7.570E-06,0.004
-7.560E-06,0.000
-7.550E-06,0.000
-7.540E-06,0.004
-7.530E-06,0.000
-7.520E-06,0.000
-7.510E-06,0.000
-7.500E-06,0.004
-7.490E-06,0.004
-7.480E-06,0.000
-7.470E-06,0.000
-7.460E-06,0.004
-7.450E-06,0.004
-7.440E-06,0.004
-7.430E-06,0.000
-7.420E-06,0.000
-7.410E-06,-0.004
-7.400E-06,0.000
-7.390E-06,0.000
-7.380E-06,0.000
-7.370E-06,0.008
-7.360E-06,-0.004
-7.350E-06,-0.004
-7.340E-06,0.004
-7.330E-06,-0.004
-7.320E-06,0.000
-7.310E-06,0.004
-7.300E-06,0.000
-7.290E-06,0.004
-7.280E-06,0.008
-7.270E-06,0.004
-7.260E-06,0.004
-7.250E-06,0.008
-7.240E-06,-0.004
-7.230E-06,0.004
-7.220E-06,0.004
-7.210E-06,0.004
-7.200E-06,0.004
-7.190E-06,0.000
-7.180E-06,0.004
-7.170E-06,0.000
-7.160E-06,0.004
-7.150E-06,0.004
-7.140E-06,0.004
-7.130E-06,0.000
-7.120E-06,0.004
-7.110E-06,-0.004
-7.100E-06,0.000
-7.090E-06,0.004
-7.080E-06,0.000
-7.070E-06,0.004
-7.060E-06,0.004
-7.050E-06,0.000
-7.040E-06,0.004
-7.030E-06,0.004
-7.020E-06,0.008
-7.010E-06,0.000
-7.000E-06,0.000
-6.990E-06,0.004
-6.980E-06,0.000
-6.970E-06,0.004
-6.960E-06,-0.004
-6.950E-06,-0.004
-6.940E-06,0.000
-6.930E-06,0.000
-6.920E-06,0.004
-6.910E-06,0.004
-6.900E-06,0.004
-6.890E-06,0.004
-6.880E-06,0.000
-6.870E-06,-0.004
-6.860E-06,0.000
-6.850E-06,0.008
-6.840E-06,0.000
-6.830E-06,0.000
-6.820E-06,0.004
-6.810E-06,-0.004
-6.800E-06,0.000
-6.790E-06,0.000
-6.780E-06,0.000
-6.770E-06,0.004
-6.760E-06,0.000
-6.750E-06,0.000
-6.740E-06,0.000
-6.730E-06,0.004
-6.720E-06,0.000
-6.710E-06,0.004
-6.700E-06,0.000
-6.690E-06,0.004
-6.680E-06,0.000
-6.670E-06,0.004
-6.660E-06,0.004
-6.650E-06,0.008
-6.640E-06,0.008
-6.630E-06,0.008
-6.620E-06,0.000
-6.610E-06,0.004
-6.600E-06,0.004
-6.590E-06,0.004
-6.580E-06,0.004
-6.570E-06,0.004
-6.560E-06,0.004
-6.550E-06,-0.004
-6.540E-06,0.004
-6.530E-06,0.008
-6.520E-06,0.000
-6.510E-06,0.000
-6.500E-06,0.004
-6.490E-06,0.000
-6.480E-06,0.000
-6.470E-06,0.000
-6.460E-06,0.004
-6.450E-06,-0.004
-6.440E-06,0.004
-6.430E-06,0.004
-6.420E-06,0.004
-6.410E-06,0.004
-6.400E-06,0.004
-6.390E-06,0.008
-6.380E-06,0.000
-6.370E-06,0.000
-6.360E-06,0.004
-6.350E-06,0.004
-6.340E-06,0.004
-6.330E-06,0.000
-6.320E-06,0.004
-6.310E-06,0.000
-6.300E-06,0.004
-6.290E-06,-0.004
-6.280E-06,0.004
-6.270E-06,0.004
-6.260E-06,0.004
-6.250E-06,0.004
-6.240E-06,0.004
-6.230E-06,0.004
-6.220E-06,0.004
-6.210E-06,0.000
-6.200E-06,0.000
-6.190E-06,0.008
-6.180E-06,0.004
-6.170E-06,0.008
-6.160E-06,0.004
-6.150E-06,0.000
-6.140E-06,0.004
-6.130E-06,0.000
-6.120E-06,0.004
-6.110E-06,0.000
-6.100E-06,0.004
-6.090E-06,0.000
-6.080E-06,0.000
-6.070E-06,0.000
-6.060E-06,0.000
-6.050E-06,0.008
-6.040E-06,-0.004
-6.030E-06,0.000
-6.020E-06,0.004
-6.010E-06,0.008
-6.000E-06,0.008
-5.990E-06,0.008
-5.980E-06,0.000
-5.970E-06,0.004
-5.960E-06,0.004
-5.950E-06,0.004
-5.940E-06,0.004
-5.930E-06,0.000
-5.920E-06,0.000
-5.910E-06,0.008
-5.900E-06,0.008
-5.890E-06,0.000
-5.880E-06,0.000
-5.870E-06,0.004
-5.860E-06,0.004
-5.850E-06,0.000
-5.840E-06,0.004
-5.830E-06,0.004
-5.820E-06,0.000
-5.810E-06,0.004
-5.800E-06,0.004
-5.790E-06,0.000
-5.780E-06,0.004
-5.770E-06,0.008
-5.760E-06,0.000
-5.750E-06,0.004
-5.740E-06,0.008
-5.730E-06,-0.004
-5.720E-06,-0.004
-5.710E-06,0.004
-5.700E-06,0.000
-5.690E-06,-0.004
-5.680E-06,0.004
-5.670E-06,0.000
-5.660E-06,0.004
-5.650E-06,0.004
-5.640E-06,0.004
-5.630E-06,-0.004
-5.620E-06,0.004
-5.610E-06,0.004
-5.600E-06,0.004
-5.590E-06,0.000
-5.580E-06,0.004
-5.570E-06,0.004
-5.560E-06,0.004
-5.550E-06,0.000
-5.540E-06,0.000
-5.530E-06,0.004
-5.520E-06,0.004
-5.510E-06,0.004
-5.500E-06,0.000
-5.490E-06,0.004
-5.480E-06,0.000
-5.470E-06,0.004
-5.460E-06,0.000
-5.450E-06,0.004
-5.440E-06,0.004
-5.430E-06,0.004
-5.420E-06,0.004
-5.410E-06,0.004
-5.400E-06,0.004
-5.390E-06,0.004
-5.380E-06,0.004
-5.370E-06,0.004
-5.360E-06,0.004
-5.350E-06,0.004
-5.340E-06,0.000
-5.330E-06,0.004
-5.320E-06,0.004
-5.310E-06,0.000
-5.300E-06,0.004
-5.290E-06,0.000
-5.280E-06,0.004
-5.270E-06,0.000
-5.260E-06,0.004
-5.250E-06,0.008
-5.240E-06,0.000
-5.230E-06,0.000
-5.220E-06,0.004
-5.210E-06,0.000
-5.200E-06,0.004
-5.190E-06,0.008
-5.180E-06,0.008
-5.170E-06,0.000
-5.160E-06,0.004
-5.150E-06,0.004
-5.140E-06,0.008
-5.130E-06,0.008
-5.120E-06,0.004
-5.110E-06,0.000
-5.100E-06,-0.004
-5.090E-06,0.004
-5.080E-06,0.000
-5.070E-06,0.004
-5.060E-06,0.004
-5.050E-06,0.004
-5.040E-06,0.004
-5.030E-06,0.000
-5.020E-06,0.000
-5.010E-06,0.000
-5.000E-06,0.004
-4.990E-06,0.008
-4.980E-06,0.000
-4.970E-06,0.004
-4.960E-06,0.000
-4.950E-06,0.000
-4.940E-06,0.000
-4.930E-06,0.000
-4.920E-06,0.004
-4.910E-06,0.000
-4.900E-06,0.000
-4.890E-06,0.000
-4.880E-06,0.000
-4.870E-06,0.000
-4.860E-06,0.004
-4.850E-06,0.000
-4.840E-06,0.004
-4.830E-06,0.004
-4.820E-06,0.004
-4.810E-06,0.004
-4.800E-06,0.008
-4.790E-06,0.000
-4.780E-06,0.004
-4.770E-06,0.000
-4.760E-06,0.004
-4.750E-06,0.004
-4.740E-06,0.004
-4.730E-06,0.004
-4.720E-06,0.004
-4.710E-06,0.004
-4.700E-06,0.004
-4.690E-06,0.008
-4.680E-06,0.000
-4.670E-06,0.004
-4.660E-06,0.004
-4.650E-06,0.004
-4.640E-06,0.004
-4.630E-06,0.000
-4.620E-06,0.004
-4.610E-06,0.000
-4.600E-06,0.004
-4.590E-06,0.000
-4.580E-06,0.000
-4.570E-06,0.004
-4.560E-06,0.000
-4.550E-06,0.004
-4.540E-06,0.008
-4.530E-06,0.004
-4.520E-06,0.004
-4.510E-06,0.004
-4.500E-06,0.004
-4.490E-06,0.004
-4.480E-06,0.000
-4.470E-06,0.000
-4.460E-06,0.004
-4.450E-06,0.008
-4.440E-06,0.000
-4.430E-06,0.004
-4.420E-06,0.008
-4.410E-06,0.004
-4.400E-06,0.004
-4.390E-06,0.008
-4.380E-06,0.008
-4.370E-06,0.000
-4.360E-06,0.008
-4.350E-06,0.004
-4.340E-06,0.004
-4.330E-06,0.000
-4.320E-06,0.000
-4.310E-06,0.004
-4.300E-06,0.000
-4.290E-06,0.008
-4.280E-06,0.004
-4.270E-06,0.004
-4.260E-06,-0.004
-4.250E-06,-0.004
-4.240E-06,-0.004
-4.230E-06,0.004
-4.220E-06,0.004
-4.210E-06,0.012
-4.200E-06,0.012
-4.190E-06,0.012
-4.180E-06,0.000
-4.170E-06,-0.004
-4.160E-06,-0.008
-4.150E-06,-0.008
-4.140E-06,0.000
-4.130E-06,0.008
-4.120E-06,0.012
-4.110E-06,0.008
-4.100E-06,0.000
-4.090E-06,-0.004
-4.080E-06,-0.004
-4.070E-06,0.000
-4.060E-06,0.008
-4.050E-06,0.012
-4.040E-06,0.012
-4.030E-06,0.004
-4.020E-06,0.000
-4.010E-06,-0.004
-4.000E-06,0.000
-3.990E-06,0.004
-3.980E-06,0.004
-3.970E-06,0.008
-3.960E-06,0.008
-3.950E-06,0.008
-3.940E-06,0.000
-3.930E-06,0.000
-3.920E-06,0.008
-3.910E-06,0.008
-3.900E-06,0.012
-3.890E-06,0.004
-3.880E-06,0.004
-3.870E-06,0.008
-3.860E-06,0.008
-3.850E-06,0.004
-3.840E-06,0.004
-3.830E-06,0.008
-3.820E-06,0.004
-3.810E-06,0.008
-3.800E-06,0.008
-3.790E-06,0.008
-3.780E-06,0.004
-3.770E-06,0.000
-3.760E-06,0.008
-3.750E-06,0.012
-3.740E-06,0.012
-3.730E-06,0.024
-3.720E-06,0.012
-3.710E-06,0.004
-3.700E-06,0.000
-3.690E-06,0.000
-3.680E-06,-0.004
-3.670E-06,0.004
-3.660E-06,0.016
-3.650E-06,0.020
-3.640E-06,0.012
-3.630E-06,0.012
-3.620E-06,-0.004
-3.610E-06,-0.004
-3.600E-06,-0.004
-3.590E-06,0.004
-3.580E-06,0.012
-3.570E-06,0.020
-3.560E-06,0.016
-3.550E-06,0.008
-3.540E-06,-0.004
-3.530E-06,0.000
-3.520E-06,0.000
-3.510E-06,0.004
-3.500E-06,0.016
-3.490E-06,0.028
-3.480E-06,0.020
-3.470E-06,0.016
-3.460E-06,0.012
-3.450E-06,0.004
-3.440E-06,0.008
-3.430E-06,0.004
-3.420E-06,-0.004
-3.410E-06,-0.012
-3.400E-06,-0.028
-3.390E-06,-0.016
-3.380E-06,-0.008
-3.370E-06,0.000
-3.360E-06,-0.008
-3.350E-06,0.004
-3.340E-06,-0.004
-3.330E-06,0.000
-3.320E-06,0.008
-3.310E-06,0.008
-3.300E-06,0.012
-3.290E-06,0.004
-3.280E-06,0.012
-3.270E-06,0.008
-3.260E-06,0.008
-3.250E-06,0.008
-3.240E-06,0.008
-3.230E-06,0.012
-3.220E-06,0.000
-3.210E-06,0.020
-3.200E-06,0.012
-3.190E-06,0.024
-3.180E-06,0.004
-3.170E-06,-0.020
-3.160E-06,-0.024
-3.150E-06,-0.036
-3.140E-06,-0.020
-3.130E-06,-0.012
-3.120E-06,0.012
-3.110E-06,0.016
-3.100E-06,0.008
-3.090E-06,0.004
-3.080E-06,-0.008
-3.070E-06,-0.016
-3.060E-06,-0.004
-3.050E-06,0.004
-3.040E-06,0.004
-3.030E-06,0.012
-3.020E-06,-0.004
-3.010E-06,0.000
-3.000E-06,0.004
-2.990E-06,0.012
-2.980E-06,0.004
-2.970E-06,0.000
-2.960E-06,0.000
-2.950E-06,-0.004
-2.940E-06,0.000
-2.930E-06,0.000
-2.920E-06,0.008
-2.910E-06,0.012
-2.900E-06,0.008
-2.890E-06,0.008
-2.880E-06,0.004
-2.870E-06,0.004
-2.860E-06,0.008
-2.850E-06,0.012
-2.840E-06,0.004
-2.830E-06,0.004
-2.820E-06,0.008
-2.810E-06,0.008
-2.800E-06,0.012
-2.790E-06,0.012
-2.780E-06,0.016
-2.770E-06,0.024
-2.760E-06,0.020
-2.750E-06,0.012
-2.740E-06,0.004
-2.730E-06,-0.004
-2.720E-06,0.000
-2.710E-06,0.008
-2.700E-06,0.016
-2.690E-06,0.020
-2.680E-06,0.024
-2.670E-06,0.020
-2.660E-06,0.020
-2.650E-06,0.012
-2.640E-06,0.012
-2.630E-06,0.012
-2.620E-06,0.016
-2.610E-06,0.028
-2.600E-06,0.032
-2.590E-06,0.044
-2.580E-06,0.028
-2.570E-06,-0.008
-2.560E-06,-0.016
-2.550E-06,-0.036
-2.540E-06,-0.020
-2.530E-06,-0.004
-2.520E-06,0.008
-2.510E-06,0.008
-2.500E-06,0.004
-2.490E-06,-0.004
-2.480E-06,-0.008
-2.470E-06,-0.008
-2.460E-06,-0.008
-2.450E-06,0.008
-2.440E-06,0.024
-2.430E-06,0.024
-2.420E-06,0.012
-2.410E-06,0.024
-2.400E-06,0.040
-2.390E-06,0.028
-2.380E-06,0.004
-2.370E-06,-0.032
-2.360E-06,-0.040
-2.350E-06,-0.036
-2.340E-06,-0.028
-2.330E-06,-0.004
-2.320E-06,0.004
-2.310E-06,0.012
-2.300E-06,-0.008
-2.290E-06,-0.032
-2.280E-06,-0.040
-2.270E-06,-0.028
-2.260E-06,-0.008
-2.250E-06,0.008
-2.240E-06,0.020
-2.230E-06,0.008
-2.220E-06,0.004
-2.210E-06,-0.008
-2.200E-06,-0.008
-2.190E-06,-0.004
-2.180E-06,0.016
-2.170E-06,0.028
-2.160E-06,0.020
-2.150E-06,0.012
-2.140E-06,0.000
-2.130E-06,-0.016
-2.120E-06,-0.024
-2.110E-06,-0.004
-2.100E-06,0.004
-2.090E-06,0.020
-2.080E-06,0.028
-2.070E-06,0.024
-2.060E-06,0.012
-2.050E-06,-0.004
-2.040E-06,-0.008
-2.030E-06,-0.012
-2.020E-06,0.000
-2.010E-06,0.008
-2.000E-06,0.024
-1.990E-06,0.024
-1.980E-06,0.020
-1.970E-06,0.008
-1.960E-06,0.000
-1.950E-06,0.004
-1.940E-06,0.000
-1.930E-06,0.012
-1.920E-06,0.024
-1.910E-06,0.028
-1.900E-06,0.024
-1.890E-06,0.016
-1.880E-06,0.024
-1.870E-06,0.020
-1.860E-06,0.028
-1.850E-06,0.024
-1.840E-06,0.028
-1.830E-06,0.028
-1.820E-06,0.024
-1.810E-06,0.024
-1.800E-06,0.012
-1.790E-06,0.000
-1.780E-06,-0.004
-1.770E-06,-0.004
-1.760E-06,0.008
-1.750E-06,0.024
-1.740E-06,0.020
-1.730E-06,0.028
-1.720E-06,0.028
-1.710E-06,0.012
-1.700E-06,0.000
-1.690E-06,-0.008
-1.680E-06,0.000
-1.670E-06,0.004
-1.660E-06,0.012
-1.650E-06,0.024
-1.640E-06,0.028
-1.630E-06,0.012
-1.620E-06,-0.004
-1.610E-06,-0.004
-1.600E-06,-0.008
-1.590E-06,0.012
-1.580E-06,0.016
-1.570E-06,0.036
-1.560E-06,0.036
-1.550E-06,0.036
-1.540E-06,0.028
-1.530E-06,-0.004
-1.520E-06,0.012
-1.510E-06,0.016
-1.500E-06,0.032
-1.490E-06,0.040
-1.480E-06,0.040
-1.470E-06,0.024
-1.460E-06,-0.004
-1.450E-06,-0.012
-1.440E-06,-0.024
-1.430E-06,-0.008
-1.420E-06,0.000
-1.410E-06,0.000
-1.400E-06,-0.024
-1.390E-06,-0.036
-1.380E-06,-0.040
-1.370E-06,-0.020
-1.360E-06,-0.004
-1.350E-06,0.012
-1.340E-06,0.012
-1.330E-06,-0.004
-1.320E-06,-0.020
-1.310E-06,-0.036
-1.300E-06,-0.040
-1.290E-06,-0.024
-1.280E-06,0.000
-1.270E-06,0.008
-1.260E-06,0.016
-1.250E-06,0.012
-1.240E-06,0.000
-1.230E-06,0.000
-1.220E-06,0.000
-1.210E-06,0.000
-1.200E-06,0.008
-1.190E-06,0.024
-1.180E-06,0.032
-1.170E-06,0.028
-1.160E-06,0.032
-1.150E-06,0.020
-1.140E-06,0.028
-1.130E-06,0.040
-1.120E-06,0.040
-1.110E-06,0.028
-1.100E-06,0.040
-1.090E-06,0.024
-1.080E-06,0.024
-1.070E-06,0.024
-1.060E-06,0.024
-1.050E-06,0.028
-1.040E-06,0.012
-1.030E-06,0.000
-1.020E-06,-0.004
-1.010E-06,-0.004
-1.000E-06,0.008
-9.900E-07,0.016
-9.800E-07,0.020
-9.700E-07,0.028
-9.600E-07,0.044
-9.500E-07,0.044
-9.400E-07,0.040
-9.300E-07,0.044
-9.200E-07,0.040
-9.100E-07,0.040
-9.000E-07,0.040
-8.900E-07,0.032
-8.800E-07,0.040
-8.700E-07,0.040
-8.600E-07,0.048
-8.500E-07,0.048
-8.400E-07,0.044
-8.300E-07,0.040
-8.200E-07,0.036
-8.100E-07,0.040
-8.000E-07,0.040
-7.900E-07,0.024
-7.800E-07,0.012
-7.700E-07,-0.012
-7.600E-07,-0.028
-7.500E-07,-0.028
-7.400E-07,-0.028
-7.300E-07,-0.008
-7.200E-07,0.008
-7.100E-07,0.024
-7.000E-07,0.028
-6.900E-07,0.024
-6.800E-07,0.016
-6.700E-07,0.012
-6.600E-07,0.016
-6.500E-07,0.028
-6.400E-07,0.024
-6.300E-07,0.040
-6.200E-07,0.044
-6.100E-07,0.048
-6.000E-07,0.036
-5.900E-07,0.036
-5.800E-07,0.036
-5.700E-07,0.044
-5.600E-07,0.060
-5.500E-07,0.080
-5.400E-07,0.092
-5.300E-07,0.096
-5.200E-07,0.092
-5.100E-07,0.100
-5.000E-07,0.092
-4.900E-07,0.092
-4.800E-07,0.092
-4.700E-07,0.092
-4.600E-07,0.088
-4.500E-07,0.088
-4.400E-07,0.072
-4.300E-07,0.056
-4.200E-07,0.056
-4.100E-07,0.056
-4.000E-07,0.060
-3.900E-07,0.056
-3.800E-07,0.052
-3.700E-07,0.036
-3.600E-07,0.028
-3.500E-07,0.028
-3.400E-07,0.036
-3.300E-07,0.040
-3.200E-07,0.056
-3.100E-07,0.056
-3.000E-07,0.072
-2.900E-07,0.072
-2.800E-07,0.080
-2.700E-07,0.100
-2.600E-07,0.108
-2.500E-07,0.120
-2.400E-07,0.128
-2.300E-07,0.128
-2.200E-07,0.128
-2.100E-07,0.156
-2.000E-07,0.172
-1.900E-07,0.172
-1.800E-07,0.156
-1.700E-07,0.144
-1.600E-07,0.128
-1.500E-07,0.108
-1.400E-07,0.120
-1.300E-07,0.144
-1.200E-07,0.176
-1.100E-07,0.192
-1.000E-07,0.208
-9.000E-08,0.196
-8.000E-08,0.140
-7.000E-08,0.112
-6.000E-08,0.036
-5.000E-08,-0.148
-4.000E-08,-0.136
-3.000E-08,-0.072
-2.000E-08,0.068
-1.000E-08,0.220
0.000E+00,0.364
1.000E-08,0.300
2.000E-08,0.164
3.000E-08,0.028
4.000E-08,-0.132
5.000E-08,-0.172
6.000E-08,-0.092
7.000E-08,0.068
8.000E-08,0.204
9.000E-08,0.368
1.000E-07,0.352
1.100E-07,0.208
1.200E-07,0.008
1.300E-07,-0.184
1.400E-07,-0.296
1.500E-07,-0.324
1.600E-07,-0.236
1.700E-07,-0.096
1.800E-07,-0.072
1.900E-07,-0.100
2.000E-07,-0.416
2.100E-07,-0.508
2.200E-07,-0.508
2.300E-07,-0.512
2.400E-07,-0.348
2.500E-07,-0.024
2.600E-07,0.120
2.700E-07,0.128
2.800E-07,0.056
2.900E-07,-0.100
3.000E-07,-0.148
3.100E-07,-0.152
3.200E-07,-0.056
3.300E-07,0.036
3.400E-07,0.108
3.500E-07,0.060
3.600E-07,0.024
3.700E-07,-0.064
3.800E-07,-0.140
3.900E-07,-0.160
4.000E-07,-0.024
4.100E-07,0.064
4.200E-07,0.192
4.300E-07,0.204
4.400E-07,0.128
4.500E-07,0.000
4.600E-07,-0.112
4.700E-07,-0.088
4.800E-07,-0.064
4.900E-07,0.096
5.000E-07,0.184
5.100E-07,0.256
5.200E-07,0.228
5.300E-07,0.168
5.400E-07,0.100
5.500E-07,0.060
5.600E-07,0.092
5.700E-07,0.148
5.800E-07,0.220
5.900E-07,0.240
6.000E-07,0.240
6.100E-07,0.188
6.200E-07,0.156
6.300E-07,0.128
6.400E-07,0.140
6.500E-07,0.172
6.600E-07,0.216
6.700E-07,0.236
6.800E-07,0.224
6.900E-07,0.204
7.000E-07,0.176
7.100E-07,0.156
7.200E-07,0.148
7.300E-07,0.172
7.400E-07,0.192
7.500E-07,0.216
7.600E-07,0.220
7.700E-07,0.212
7.800E-07,0.188
7.900E-07,0.176
8.000E-07,0.164
8.100E-07,0.168
8.200E-07,0.184
8.300E-07,0.192
8.400E-07,0.196
8.500E-07,0.200
8.600E-07,0.192
8.700E-07,0.172
8.800E-07,0.172
8.900E-07,0.168
9.000E-07,0.172
9.100E-07,0.176
9.200E-07,0.176
9.300E-07,0.188
9.400E-07,0.192
9.500E-07,0.192
9.600E-07,0.176
9.700E-07,0.172
9.800E-07,0.172
9.900E-07,0.168
1.000E-06,0.180
1.010E-06,0.188
1.020E-06,0.188
1.030E-06,0.188
1.040E-06,0.180
1.050E-06,0.168
1.060E-06,0.164
1.070E-06,0.160
1.080E-06,0.160
1.090E-06,0.164
1.100E-06,0.168
1.110E-06,0.160
1.120E-06,0.152
1.130E-06,0.152
1.140E-06,0.152
1.150E-06,0.160
1.160E-06,0.172
1.170E-06,0.176
1.180E-06,0.180
1.190E-06,0.168
1.200E-06,0.160
1.210E-06,0.156
1.220E-06,0.156
1.230E-06,0.164
1.240E-06,0.176
1.250E-06,0.184
1.260E-06,0.192
1.270E-06,0.188
1.280E-06,0.176
1.290E-06,0.172
1.300E-06,0.172
1.310E-06,0.172
1.320E-06,0.176
1.330E-06,0.176
1.340E-06,0.184
1.350E-06,0.188
1.360E-06,0.180
1.370E-06,0.176
1.380E-06,0.168
1.390E-06,0.168
1.400E-06,0.172
1.410E-06,0.176
1.420E-06,0.176
1.430E-06,0.184
1.440E-06,0.176
1.450E-06,0.172
1.460E-06,0.172
1.470E-06,0.168
1.480E-06,0.176
1.490E-06,0.180
1.500E-06,0.176
1.510E-06,0.180
1.520E-06,0.180
1.530E-06,0.172
1.540E-06,0.172
1.550E-06,0.172
1.560E-06,0.172
1.570E-06,0.168
1.580E-06,0.172
1.590E-06,0.176
1.600E-06,0.172
1.610E-06,0.172
1.620E-06,0.168
1.630E-06,0.168
1.640E-06,0.172
1.650E-06,0.168
1.660E-06,0.168
1.670E-06,0.168
1.680E-06,0.168
1.690E-06,0.164
1.700E-06,0.164
1.710E-06,0.164
1.720E-06,0.160
1.730E-06,0.168
1.740E-06,0.168
1.750E-06,0.160
1.760E-06,0.160
1.770E-06,0.164
1.780E-06,0.156
1.790E-06,0.160
1.800E-06,0.156
1.810E-06,0.164
1.820E-06,0.160
1.830E-06,0.164
1.840E-06,0.160
1.850E-06,0.160
1.860E-06,0.160
1.870E-06,0.156
1.880E-06,0.156
1.890E-06,0.160
1.900E-06,0.160
1.910E-06,0.160
1.920E-06,0.164
1.930E-06,0.160
1.940E-06,0.160
1.950E-06,0.156
1.960E-06,0.152
1.970E-06,0.152
1.980E-06,0.156
1.990E-06,0.156
2.000E-06,0.164
2.010E-06,0.160
2.020E-06,0.160
2.030E-06,0.160
2.040E-06,0.152
2.050E-06,0.156
2.060E-06,0.160
2.070E-06,0.160
2.080E-06,0.160
2.090E-06,0.164
2.100E-06,0.156
2.110E-06,0.156
2.120E-06,0.156
2.130E-06,0.160
2.140E-06,0.160
2.150E-06,0.152
2.160E-06,0.152
2.170E-06,0.160
2.180E-06,0.156
2.190E-06,0.152
2.200E-06,0.156
2.210E-06,0.152
2.220E-06,0.156
2.230E-06,0.160
2.240E-06,0.156
2.250E-06,0.152
2.260E-06,0.156
2.270E-06,0.156
2.280E-06,0.160
2.290E-06,0.152
2.300E-06,0.152
2.310E-06,0.152
2.320E-06,0.152
2.330E-06,0.160
2.340E-06,0.152
2.350E-06,0.152
2.360E-06,0.152
2.370E-06,0.152
2.380E-06,0.148
2.390E-06,0.148
2.400E-06,0.144
2.410E-06,0.148
2.420E-06,0.156
2.430E-06,0.144
2.440E-06,0.148
2.450E-06,0.144
2.460E-06,0.144
2.470E-06,0.144
2.480E-06,0.140
2.490E-06,0.144
2.500E-06,0.144
2.510E-06,0.144
2.520E-06,0.144
2.530E-06,0.144
2.540E-06,0.144
2.550E-06,0.140
2.560E-06,0.140
2.570E-06,0.140
2.580E-06,0.140
2.590E-06,0.140
2.600E-06,0.140
2.610E-06,0.136
2.620E-06,0.140
2.630E-06,0.144
2.640E-06,0.136
2.650E-06,0.136
2.660E-06,0.136
2.670E-06,0.136
2.680E-06,0.136
2.690E-06,0.136
2.700E-06,0.136
2.710E-06,0.128
2.720E-06,0.132
2.730E-06,0.132
2.740E-06,0.132
2.750E-06,0.136
2.760E-06,0.136
2.770E-06,0.136
2.780E-06,0.132
2.790E-06,0.132
2.800E-06,0.140
2.810E-06,0.136
2.820E-06,0.136
2.830E-06,0.132
2.840E-06,0.132
2.850E-06,0.128
2.860E-06,0.128
2.870E-06,0.128
2.880E-06,0.132
2.890E-06,0.132
2.900E-06,0.128
2.910E-06,0.128
2.920E-06,0.128
2.930E-06,0.128
2.940E-06,0.128
2.950E-06,0.128
2.960E-06,0.128
2.970E-06,0.132
2.980E-06,0.132
2.990E-06,0.136
3.000E-06,0.132
3.010E-06,0.128
3.020E-06,0.124
3.030E-06,0.120
3.040E-06,0.128
3.050E-06,0.124
3.060E-06,0.128
3.070E-06,0.128
3.080E-06,0.128
3.090E-06,0.128
3.100E-06,0.128
3.110E-06,0.124
3.120E-06,0.124
3.130E-06,0.128
3.140E-06,0.128
3.150E-06,0.124
3.160E-06,0.124
3.170E-06,0.124
3.180E-06,0.120
3.190E-06,0.124
3.200E-06,0.124
3.210E-06,0.124
3.220E-06,0.124
3.230E-06,0.128
3.240E-06,0.124
3.250E-06,0.124
3.260E-06,0.120
3.270E-06,0.124
3.280E-06,0.120
3.290E-06,0.120
3.300E-06,0.116
3.310E-06,0.116
3.320E-06,0.112
3.330E-06,0.112
3.340E-06,0.108
3.350E-06,0.120
3.360E-06,0.124
3.370E-06,0.128
3.380E-06,0.124
3.390E-06,0.128
3.400E-06,0.124
3.410E-06,0.120
3.420E-06,0.112
3.430E-06,0.112
