mediciones/6-26/45.0/WaveData59313.csv

#timebase=2000000(ps)
,#voltbase=500000(mv/100)
#size=4000
-8.150E-06,0.020
-8.140E-06,-0.020
-8.130E-06,0.060
-8.120E-06,0.120
-8.110E-06,0.100
-8.100E-06,0.080
-8.090E-06,0.020
-8.080E-06,0.020
-8.070E-06,0.000
-8.060E-06,0.080
-8.050E-06,0.080
-8.040E-06,0.080
-8.030E-06,0.080
-8.020E-06,0.040
-8.010E-06,0.020
-8.000E-06,0.020
-7.990E-06,0.000
-7.980E-06,0.060
-7.970E-06,0.040
-7.960E-06,0.080
-7.950E-06,0.100
-7.940E-06,0.020
-7.930E-06,0.040
-7.920E-06,0.020
-7.910E-06,0.020
-7.900E-06,0.060
-7.890E-06,0.080
-7.880E-06,0.100
-7.870E-06,0.060
-7.860E-06,0.040
-7.850E-06,0.060
-7.840E-06,0.040
-7.830E-06,0.040
-7.820E-06,0.080
-7.810E-06,0.040
-7.800E-06,0.080
-7.790E-06,0.060
-7.780E-06,0.020
-7.770E-06,0.040
-7.760E-06,0.060
-7.750E-06,0.080
-7.740E-06,0.080
-7.730E-06,0.040
-7.720E-06,0.100
-7.710E-06,0.040
-7.700E-06,0.040
-7.690E-06,0.060
-7.680E-06,0.040
-7.670E-06,0.060
-7.660E-06,0.080
-7.650E-06,0.060
-7.640E-06,0.080
-7.630E-06,0.060
-7.620E-06,0.060
-7.610E-06,0.040
-7.600E-06,0.060
-7.590E-06,0.060
-7.580E-06,0.060
-7.570E-06,0.040
-7.560E-06,0.080
-7.550E-06,0.060
-7.540E-06,0.040
-7.530E-06,0.080
-7.520E-06,0.060
-7.510E-06,0.080
-7.500E-06,0.080
-7.490E-06,0.060
-7.480E-06,0.040
-7.470E-06,0.060
-7.460E-06,0.080
-7.450E-06,0.060
-7.440E-06,0.040
-7.430E-06,0.060
-7.420E-06,0.080
-7.410E-06,0.060
-7.400E-06,0.060
-7.390E-06,0.060
-7.380E-06,0.080
-7.370E-06,0.060
-7.360E-06,0.040
-7.350E-06,0.060
-7.340E-06,0.100
-7.330E-06,0.040
-7.320E-06,0.020
-7.310E-06,0.060
-7.300E-06,0.060
-7.290E-06,0.040
-7.280E-06,0.060
-7.270E-06,0.080
-7.260E-06,0.100
-7.250E-06,0.080
-7.240E-06,0.080
-7.230E-06,0.060
-7.220E-06,0.040
-7.210E-06,0.040
-7.200E-06,0.060
-7.190E-06,0.080
-7.180E-06,0.080
-7.170E-06,0.100
-7.160E-06,0.040
-7.150E-06,0.040
-7.140E-06,0.020
-7.130E-06,0.060
-7.120E-06,0.080
-7.110E-06,0.100
-7.100E-06,0.060
-7.090E-06,0.060
-7.080E-06,0.060
-7.070E-06,0.060
-7.060E-06,0.060
-7.050E-06,0.040
-7.040E-06,0.100
-7.030E-06,0.080
-7.020E-06,0.060
-7.010E-06,0.020
-7.000E-06,0.040
-6.990E-06,0.100
-6.980E-06,0.080
-6.970E-06,0.100
-6.960E-06,0.060
-6.950E-06,0.060
-6.940E-06,0.060
-6.930E-06,0.100
-6.920E-06,0.100
-6.910E-06,0.040
-6.900E-06,0.060
-6.890E-06,0.040
-6.880E-06,0.040
-6.870E-06,0.060
-6.860E-06,0.040
-6.850E-06,0.040
-6.840E-06,0.100
-6.830E-06,0.060
-6.820E-06,0.040
-6.810E-06,0.040
-6.800E-06,0.040
-6.790E-06,0.040
-6.780E-06,0.060
-6.770E-06,0.100
-6.760E-06,0.080
-6.750E-06,0.060
-6.740E-06,0.060
-6.730E-06,0.060
-6.720E-06,0.040
-6.710E-06,0.040
-6.700E-06,0.080
-6.690E-06,0.080
-6.680E-06,0.060
-6.670E-06,0.040
-6.660E-06,0.060
-6.650E-06,0.020
-6.640E-06,0.060
-6.630E-06,0.040
-6.620E-06,0.060
-6.610E-06,0.080
-6.600E-06,0.100
-6.590E-06,0.060
-6.580E-06,0.060
-6.570E-06,0.080
-6.560E-06,0.020
-6.550E-06,0.040
-6.540E-06,0.100
-6.530E-06,0.040
-6.520E-06,0.060
-6.510E-06,0.080
-6.500E-06,0.080
-6.490E-06,0.040
-6.480E-06,0.040
-6.470E-06,0.060
-6.460E-06,0.100
-6.450E-06,0.100
-6.440E-06,0.060
-6.430E-06,0.060
-6.420E-06,0.080
-6.410E-06,0.060
-6.400E-06,0.040
-6.390E-06,0.060
-6.380E-06,0.060
-6.370E-06,0.080
-6.360E-06,0.060
-6.350E-06,0.060
-6.340E-06,0.060
-6.330E-06,0.060
-6.320E-06,0.080
-6.310E-06,0.080
-6.300E-06,0.040
-6.290E-06,0.020
-6.280E-06,0.040
-6.270E-06,0.040
-6.260E-06,0.060
-6.250E-06,0.040
-6.240E-06,0.080
-6.230E-06,0.040
-6.220E-06,0.040
-6.210E-06,0.060
-6.200E-06,0.060
-6.190E-06,0.040
-6.180E-06,0.080
-6.170E-06,0.040
-6.160E-06,0.080
-6.150E-06,0.060
-6.140E-06,0.060
-6.130E-06,0.080
-6.120E-06,0.060
-6.110E-06,0.020
-6.100E-06,0.060
-6.090E-06,0.080
-6.080E-06,0.060
-6.070E-06,0.040
-6.060E-06,0.060
-6.050E-06,0.080
-6.040E-06,0.080
-6.030E-06,0.040
-6.020E-06,0.020
-6.010E-06,0.020
-6.000E-06,0.040
-5.990E-06,0.060
-5.980E-06,0.040
-5.970E-06,0.040
-5.960E-06,0.040
-5.950E-06,0.020
-5.940E-06,0.060
-5.930E-06,0.060
-5.920E-06,0.060
-5.910E-06,0.080
-5.900E-06,0.080
-5.890E-06,0.080
-5.880E-06,0.020
-5.870E-06,0.040
-5.860E-06,0.040
-5.850E-06,0.060
-5.840E-06,0.100
-5.830E-06,0.020
-5.820E-06,0.040
-5.810E-06,0.020
-5.800E-06,0.040
-5.790E-06,0.040
-5.780E-06,0.080
-5.770E-06,0.040
-5.760E-06,0.060
-5.750E-06,0.060
-5.740E-06,0.040
-5.730E-06,0.060
-5.720E-06,0.040
-5.710E-06,0.040
-5.700E-06,0.060
-5.690E-06,0.080
-5.680E-06,0.060
-5.670E-06,0.020
-5.660E-06,0.060
-5.650E-06,0.080
-5.640E-06,0.080
-5.630E-06,0.080
-5.620E-06,0.040
-5.610E-06,0.060
-5.600E-06,0.040
-5.590E-06,0.080
-5.580E-06,0.060
-5.570E-06,0.040
-5.560E-06,0.080
-5.550E-06,0.040
-5.540E-06,0.060
-5.530E-06,0.060
-5.520E-06,0.040
-5.510E-06,0.080
-5.500E-06,0.080
-5.490E-06,0.040
-5.480E-06,0.060
-5.470E-06,0.040
-5.460E-06,0.060
-5.450E-06,0.060
-5.440E-06,0.080
-5.430E-06,0.040
-5.420E-06,0.040
-5.410E-06,0.040
-5.400E-06,0.060
-5.390E-06,0.080
-5.380E-06,0.040
-5.370E-06,0.040
-5.360E-06,0.060
-5.350E-06,0.060
-5.340E-06,0.080
-5.330E-06,0.060
-5.320E-06,0.060
-5.310E-06,0.060
-5.300E-06,0.040
-5.290E-06,0.080
-5.280E-06,0.040
-5.270E-06,0.040
-5.260E-06,0.060
-5.250E-06,0.060
-5.240E-06,0.060
-5.230E-06,0.060
-5.220E-06,0.040
-5.210E-06,0.080
-5.200E-06,0.060
-5.190E-06,0.080
-5.180E-06,0.040
-5.170E-06,0.040
-5.160E-06,0.040
-5.150E-06,0.040
-5.140E-06,0.080
-5.130E-06,0.040
-5.120E-06,0.040
-5.110E-06,0.060
-5.100E-06,0.080
-5.090E-06,0.080
-5.080E-06,0.040
-5.070E-06,0.040
-5.060E-06,0.060
-5.050E-06,0.060
-5.040E-06,0.080
-5.030E-06,0.040
-5.020E-06,0.040
-5.010E-06,0.060
-5.000E-06,0.040
-4.990E-06,0.060
-4.980E-06,0.060
-4.970E-06,0.060
-4.960E-06,0.060
-4.950E-06,0.080
-4.940E-06,0.060
-4.930E-06,0.040
-4.920E-06,0.060
-4.910E-06,0.040
-4.900E-06,0.060
-4.890E-06,0.060
-4.880E-06,0.080
-4.870E-06,0.080
-4.860E-06,0.080
-4.850E-06,0.080
-4.840E-06,0.080
-4.830E-06,0.080
-4.820E-06,0.080
-4.810E-06,0.040
-4.800E-06,0.020
-4.790E-06,0.060
-4.780E-06,0.020
-4.770E-06,0.040
-4.760E-06,0.040
-4.750E-06,0.040
-4.740E-06,0.060
-4.730E-06,0.040
-4.720E-06,0.040
-4.710E-06,0.060
-4.700E-06,0.080
-4.690E-06,0.060
-4.680E-06,0.040
-4.670E-06,0.060
-4.660E-06,0.040
-4.650E-06,0.060
-4.640E-06,0.040
-4.630E-06,0.080
-4.620E-06,0.060
-4.610E-06,0.080
-4.600E-06,0.080
-4.590E-06,0.020
-4.580E-06,0.020
-4.570E-06,0.060
-4.560E-06,0.040
-4.550E-06,0.060
-4.540E-06,0.080
-4.530E-06,0.080
-4.520E-06,0.080
-4.510E-06,0.060
-4.500E-06,0.060
-4.490E-06,0.040
-4.480E-06,0.040
-4.470E-06,0.040
-4.460E-06,0.080
-4.450E-06,0.080
-4.440E-06,0.060
-4.430E-06,0.040
-4.420E-06,0.080
-4.410E-06,0.080
-4.400E-06,0.060
-4.390E-06,0.060
-4.380E-06,0.100
-4.370E-06,0.060
-4.360E-06,0.060
-4.350E-06,0.060
-4.340E-06,0.080
-4.330E-06,0.080
-4.320E-06,0.040
-4.310E-06,0.080
-4.300E-06,0.060
-4.290E-06,0.080
-4.280E-06,0.060
-4.270E-06,0.060
-4.260E-06,0.060
-4.250E-06,0.060
-4.240E-06,0.080
-4.230E-06,0.060
-4.220E-06,0.020
-4.210E-06,0.040
-4.200E-06,0.040
-4.190E-06,0.020
-4.180E-06,0.060
-4.170E-06,0.080
-4.160E-06,0.060
-4.150E-06,0.080
-4.140E-06,0.020
-4.130E-06,0.060
-4.120E-06,0.080
-4.110E-06,0.060
-4.100E-06,0.080
-4.090E-06,0.080
-4.080E-06,0.060
-4.070E-06,0.040
-4.060E-06,0.060
-4.050E-06,0.080
-4.040E-06,0.060
-4.030E-06,0.020
-4.020E-06,0.060
-4.010E-06,0.040
-4.000E-06,0.060
-3.990E-06,0.040
-3.980E-06,0.080
-3.970E-06,0.080
-3.960E-06,0.080
-3.950E-06,0.080
-3.940E-06,0.080
-3.930E-06,0.080
-3.920E-06,0.080
-3.910E-06,0.080
-3.900E-06,0.040
-3.890E-06,0.080
-3.880E-06,0.060
-3.870E-06,0.100
-3.860E-06,0.100
-3.850E-06,0.060
-3.840E-06,0.080
-3.830E-06,0.060
-3.820E-06,0.080
-3.810E-06,0.040
-3.800E-06,0.040
-3.790E-06,0.060
-3.780E-06,0.080
-3.770E-06,0.020
-3.760E-06,0.080
-3.750E-06,0.080
-3.740E-06,0.060
-3.730E-06,0.040
-3.720E-06,0.060
-3.710E-06,0.060
-3.700E-06,0.080
-3.690E-06,0.060
-3.680E-06,0.060
-3.670E-06,0.080
-3.660E-06,0.040
-3.650E-06,0.040
-3.640E-06,0.040
-3.630E-06,0.060
-3.620E-06,0.060
-3.610E-06,0.060
-3.600E-06,0.080
-3.590E-06,0.060
-3.580E-06,0.040
-3.570E-06,0.080
-3.560E-06,0.060
-3.550E-06,0.040
-3.540E-06,0.060
-3.530E-06,0.060
-3.520E-06,0.060
-3.510E-06,0.040
-3.500E-06,0.080
-3.490E-06,0.080
-3.480E-06,0.060
-3.470E-06,0.060
-3.460E-06,0.060
-3.450E-06,0.080
-3.440E-06,0.060
-3.430E-06,0.080
-3.420E-06,0.060
-3.410E-06,0.040
-3.400E-06,0.060
-3.390E-06,0.080
-3.380E-06,0.060
-3.370E-06,0.040
-3.360E-06,0.080
-3.350E-06,0.100
-3.340E-06,0.060
-3.330E-06,0.080
-3.320E-06,0.060
-3.310E-06,0.040
-3.300E-06,0.040
-3.290E-06,0.040
-3.280E-06,0.060
-3.270E-06,0.060
-3.260E-06,0.060
-3.250E-06,0.040
-3.240E-06,0.060
-3.230E-06,0.040
-3.220E-06,0.100
-3.210E-06,0.060
-3.200E-06,0.040
-3.190E-06,0.060
-3.180E-06,0.040
-3.170E-06,0.060
-3.160E-06,0.080
-3.150E-06,0.060
-3.140E-06,0.040
-3.130E-06,0.080
-3.120E-06,0.060
-3.110E-06,0.080
-3.100E-06,0.060
-3.090E-06,0.060
-3.080E-06,0.040
-3.070E-06,0.100
-3.060E-06,0.060
-3.050E-06,0.040
-3.040E-06,0.040
-3.030E-06,0.060
-3.020E-06,0.060
-3.010E-06,0.060
-3.000E-06,0.080
-2.990E-06,0.060
-2.980E-06,0.080
-2.970E-06,0.040
-2.960E-06,0.040
-2.950E-06,0.060
-2.940E-06,0.040
-2.930E-06,0.040
-2.920E-06,0.060
-2.910E-06,0.040
-2.900E-06,0.060
-2.890E-06,0.080
-2.880E-06,0.060
-2.870E-06,0.080
-2.860E-06,0.060
-2.850E-06,0.080
-2.840E-06,0.040
-2.830E-06,0.040
-2.820E-06,0.060
-2.810E-06,0.040
-2.800E-06,0.040
-2.790E-06,0.060
-2.780E-06,0.040
-2.770E-06,0.060
-2.760E-06,0.060
-2.750E-06,0.040
-2.740E-06,0.080
-2.730E-06,0.080
-2.720E-06,0.040
-2.710E-06,0.060
-2.700E-06,0.100
-2.690E-06,0.100
-2.680E-06,0.080
-2.670E-06,0.060
-2.660E-06,0.080
-2.650E-06,0.080
-2.640E-06,0.020
-2.630E-06,0.060
-2.620E-06,0.080
-2.610E-06,0.040
-2.600E-06,0.040
-2.590E-06,0.040
-2.580E-06,0.060
-2.570E-06,0.080
-2.560E-06,0.020
-2.550E-06,0.040
-2.540E-06,0.080
-2.530E-06,0.060
-2.520E-06,0.060
-2.510E-06,0.080
-2.500E-06,0.040
-2.490E-06,0.060
-2.480E-06,0.080
-2.470E-06,0.060
-2.460E-06,0.080
-2.450E-06,0.080
-2.440E-06,0.040
-2.430E-06,0.040
-2.420E-06,0.060
-2.410E-06,0.060
-2.400E-06,0.040
-2.390E-06,0.060
-2.380E-06,0.040
-2.370E-06,0.040
-2.360E-06,0.080
-2.350E-06,0.080
-2.340E-06,0.020
-2.330E-06,0.040
-2.320E-06,0.040
-2.310E-06,0.020
-2.300E-06,0.040
-2.290E-06,0.080
-2.280E-06,0.040
-2.270E-06,0.040
-2.260E-06,0.060
-2.250E-06,0.040
-2.240E-06,0.060
-2.230E-06,0.040
-2.220E-06,0.100
-2.210E-06,0.040
-2.200E-06,0.080
-2.190E-06,0.060
-2.180E-06,0.060
-2.170E-06,0.080
-2.160E-06,0.080
-2.150E-06,0.060
-2.140E-06,0.060
-2.130E-06,0.060
-2.120E-06,0.060
-2.110E-06,0.040
-2.100E-06,0.080
-2.090E-06,0.080
-2.080E-06,0.080
-2.070E-06,0.040
-2.060E-06,0.040
-2.050E-06,0.060
-2.040E-06,0.080
-2.030E-06,0.060
-2.020E-06,0.080
-2.010E-06,0.060
-2.000E-06,0.080
-1.990E-06,0.080
-1.980E-06,0.040
-1.970E-06,0.080
-1.960E-06,0.080
-1.950E-06,0.080
-1.940E-06,0.060
-1.930E-06,0.080
-1.920E-06,0.080
-1.910E-06,0.080
-1.900E-06,0.060
-1.890E-06,0.060
-1.880E-06,0.080
-1.870E-06,0.060
-1.860E-06,0.060
-1.850E-06,0.100
-1.840E-06,0.060
-1.830E-06,0.080
-1.820E-06,0.040
-1.810E-06,0.040
-1.800E-06,0.040
-1.790E-06,0.080
-1.780E-06,0.040
-1.770E-06,0.060
-1.760E-06,0.060
-1.750E-06,0.040
-1.740E-06,0.040
-1.730E-06,0.060
-1.720E-06,0.040
-1.710E-06,0.060
-1.700E-06,0.060
-1.690E-06,0.080
-1.680E-06,0.060
-1.670E-06,0.060
-1.660E-06,0.080
-1.650E-06,0.100
-1.640E-06,0.040
-1.630E-06,0.080
-1.620E-06,0.060
-1.610E-06,0.040
-1.600E-06,0.080
-1.590E-06,0.040
-1.580E-06,0.080
-1.570E-06,0.080
-1.560E-06,0.080
-1.550E-06,0.080
-1.540E-06,0.060
-1.530E-06,0.060
-1.520E-06,0.080
-1.510E-06,0.080
-1.500E-06,0.060
-1.490E-06,0.060
-1.480E-06,0.080
-1.470E-06,0.080
-1.460E-06,0.060
-1.450E-06,0.100
-1.440E-06,0.040
-1.430E-06,0.080
-1.420E-06,0.060
-1.410E-06,0.100
-1.400E-06,0.100
-1.390E-06,0.100
-1.380E-06,0.080
-1.370E-06,0.080
-1.360E-06,0.040
-1.350E-06,0.020
-1.340E-06,0.060
-1.330E-06,0.060
-1.320E-06,0.100
-1.310E-06,0.120
-1.300E-06,0.080
-1.290E-06,0.060
-1.280E-06,0.040
-1.270E-06,0.080
-1.260E-06,0.040
-1.250E-06,0.060
-1.240E-06,0.080
-1.230E-06,0.080
-1.220E-06,0.040
-1.210E-06,0.080
-1.200E-06,0.080
-1.190E-06,0.040
-1.180E-06,0.080
-1.170E-06,0.080
-1.160E-06,0.060
-1.150E-06,0.100
-1.140E-06,0.040
-1.130E-06,0.060
-1.120E-06,0.060
-1.110E-06,0.080
-1.100E-06,0.140
-1.090E-06,0.140
-1.080E-06,0.100
-1.070E-06,0.120
-1.060E-06,0.020
-1.050E-06,0.040
-1.040E-06,0.080
-1.030E-06,0.180
-1.020E-06,0.220
-1.010E-06,0.160
-1.000E-06,0.220
-9.900E-07,0.260
-9.800E-07,0.160
-9.700E-07,0.240
-9.600E-07,0.360
-9.500E-07,0.140
-9.400E-07,0.220
-9.300E-07,0.280
-9.200E-07,0.320
-9.100E-07,0.320
-9.000E-07,0.360
-8.900E-07,0.340
-8.800E-07,0.140
-8.700E-07,0.200
-8.600E-07,0.280
-8.500E-07,0.360
-8.400E-07,0.320
-8.300E-07,0.280
-8.200E-07,0.180
-8.100E-07,0.140
-8.000E-07,0.100
-7.900E-07,0.080
-7.800E-07,0.160
-7.700E-07,0.160
-7.600E-07,0.100
-7.500E-07,0.020
-7.400E-07,0.000
-7.300E-07,0.060
-7.200E-07,0.180
-7.100E-07,0.000
-7.000E-07,0.000
-6.900E-07,0.000
-6.800E-07,-0.120
-6.700E-07,0.080
-6.600E-07,0.360
-6.500E-07,0.400
-6.400E-07,0.340
-6.300E-07,0.120
-6.200E-07,-0.080
-6.100E-07,-0.040
-6.000E-07,-0.040
-5.900E-07,0.160
-5.800E-07,0.220
-5.700E-07,0.140
-5.600E-07,0.100
-5.500E-07,-0.020
-5.400E-07,-0.060
-5.300E-07,0.020
-5.200E-07,0.060
-5.100E-07,0.140
-5.000E-07,0.100
-4.900E-07,0.040
-4.800E-07,0.000
-4.700E-07,0.000
-4.600E-07,0.000
-4.500E-07,0.060
-4.400E-07,0.100
-4.300E-07,0.080
-4.200E-07,0.060
-4.100E-07,0.000
-4.000E-07,0.000
-3.900E-07,0.000
-3.800E-07,0.060
-3.700E-07,0.100
-3.600E-07,0.120
-3.500E-07,0.140
-3.400E-07,0.140
-3.300E-07,0.120
-3.200E-07,0.080
-3.100E-07,0.080
-3.000E-07,0.080
-2.900E-07,0.100
-2.800E-07,0.060
-2.700E-07,0.100
-2.600E-07,0.120
-2.500E-07,0.080
-2.400E-07,0.080
-2.300E-07,0.100
-2.200E-07,0.080
-2.100E-07,0.040
-2.000E-07,0.100
-1.900E-07,0.100
-1.800E-07,0.100
-1.700E-07,0.120
-1.600E-07,0.140
-1.500E-07,0.140
-1.400E-07,0.140
-1.300E-07,0.180
-1.200E-07,0.200
-1.100E-07,0.240
-1.000E-07,0.260
-9.000E-08,0.240
-8.000E-08,0.200
-7.000E-08,0.200
-6.000E-08,0.220
-5.000E-08,0.260
-4.000E-08,0.340
-3.000E-08,0.480
-2.000E-08,-0.220
-1.000E-08,-0.700
0.000E+00,0.140
1.000E-08,-0.740
2.000E-08,0.740
3.000E-08,1.580
4.000E-08,0.640
5.000E-08,0.720
6.000E-08,-0.240
7.000E-08,-0.780
8.000E-08,0.020
9.000E-08,0.660
1.000E-07,1.500
1.100E-07,1.780
1.200E-07,1.040
1.300E-07,0.160
1.400E-07,-0.380
1.500E-07,-0.620
1.600E-07,-0.200
1.700E-07,0.460
1.800E-07,1.140
1.900E-07,1.180
2.000E-07,0.860
2.100E-07,0.160
2.200E-07,-0.300
2.300E-07,-0.320
2.400E-07,-0.180
2.500E-07,0.020
2.600E-07,0.240
2.700E-07,0.060
2.800E-07,-0.220
2.900E-07,-0.580
3.000E-07,-0.720
3.100E-07,-0.780
3.200E-07,-0.560
3.300E-07,-0.340
3.400E-07,-0.520
3.500E-07,-0.720
3.600E-07,-1.080
3.700E-07,-1.340
3.800E-07,-1.200
3.900E-07,-0.720
4.000E-07,-0.160
4.100E-07,0.600
4.200E-07,-0.080
4.300E-07,-0.200
4.400E-07,-0.420
4.500E-07,-0.540
4.600E-07,0.460
4.700E-07,1.260
4.800E-07,1.680
4.900E-07,1.920
5.000E-07,1.540
5.100E-07,1.420
5.200E-07,1.600
5.300E-07,1.540
5.400E-07,1.700
5.500E-07,1.600
5.600E-07,1.340
5.700E-07,1.100
5.800E-07,0.840
5.900E-07,0.600
6.000E-07,0.580
6.100E-07,0.480
6.200E-07,0.400
6.300E-07,0.160
6.400E-07,-0.100
6.500E-07,-0.420
6.600E-07,-0.760
6.700E-07,-0.920
6.800E-07,-1.040
6.900E-07,-0.980
7.000E-07,-0.840
7.100E-07,-0.820
7.200E-07,-0.880
7.300E-07,-0.980
7.400E-07,-0.960
7.500E-07,-0.880
7.600E-07,-0.680
7.700E-07,-0.580
7.800E-07,-0.500
7.900E-07,-0.480
8.000E-07,-0.580
8.100E-07,-0.640
8.200E-07,-0.580
8.300E-07,-0.440
8.400E-07,-0.300
8.500E-07,-0.060
8.600E-07,0.160
8.700E-07,0.360
8.800E-07,0.460
8.900E-07,0.480
9.000E-07,0.400
9.100E-07,0.380
9.200E-07,0.320
9.300E-07,0.380
9.400E-07,0.520
9.500E-07,0.640
9.600E-07,0.740
9.700E-07,0.740
9.800E-07,0.740
9.900E-07,0.840
1.000E-06,0.760
1.010E-06,0.840
1.020E-06,0.760
1.030E-06,0.640
1.040E-06,0.500
1.050E-06,0.380
1.060E-06,0.300
1.070E-06,0.340
1.080E-06,0.520
1.090E-06,0.680
1.100E-06,0.760
1.110E-06,0.760
1.120E-06,0.560
1.130E-06,0.340
1.140E-06,0.320
1.150E-06,0.260
1.160E-06,0.460
1.170E-06,0.740
1.180E-06,0.920
1.190E-06,1.000
1.200E-06,1.060
1.210E-06,1.040
1.220E-06,0.840
1.230E-06,0.360
1.240E-06,0.020
1.250E-06,0.640
1.260E-06,1.660
1.270E-06,2.780
1.280E-06,2.780
1.290E-06,2.760
1.300E-06,2.760
1.310E-06,2.760
1.320E-06,2.200
1.330E-06,0.820
1.340E-06,-0.180
1.350E-06,-0.960
1.360E-06,-1.400
1.370E-06,-2.100
1.380E-06,-2.660
1.390E-06,-2.640
1.400E-06,-2.660
1.410E-06,-2.660
1.420E-06,-2.660
1.430E-06,-2.060
1.440E-06,-0.300
1.450E-06,1.220
1.460E-06,1.760
1.470E-06,1.880
1.480E-06,1.900
1.490E-06,1.820
1.500E-06,1.700
1.510E-06,1.340
1.520E-06,0.860
1.530E-06,0.500
1.540E-06,0.040
1.550E-06,-0.320
1.560E-06,-0.580
1.570E-06,-0.680
1.580E-06,-0.780
1.590E-06,-0.800
1.600E-06,-0.880
1.610E-06,-0.980
1.620E-06,-1.040
1.630E-06,-1.120
1.640E-06,-1.100
1.650E-06,-1.160
1.660E-06,-1.180
1.670E-06,-1.180
1.680E-06,-1.220
1.690E-06,-1.020
1.700E-06,-1.180
1.710E-06,-1.280
1.720E-06,-0.880
1.730E-06,-0.700
1.740E-06,0.120
1.750E-06,0.780
1.760E-06,0.940
1.770E-06,0.780
1.780E-06,0.520
1.790E-06,0.320
1.800E-06,0.800
1.810E-06,1.380
1.820E-06,1.700
1.830E-06,1.660
1.840E-06,1.140
1.850E-06,0.480
1.860E-06,0.020
1.870E-06,-0.160
1.880E-06,0.040
1.890E-06,0.080
1.900E-06,0.060
1.910E-06,-0.200
1.920E-06,-0.460
1.930E-06,-0.760
1.940E-06,-0.680
1.950E-06,0.260
1.960E-06,1.240
1.970E-06,2.400
1.980E-06,2.760
1.990E-06,2.780
2.000E-06,2.360
2.010E-06,1.580
2.020E-06,0.820
2.030E-06,0.860
2.040E-06,1.000
2.050E-06,1.220
2.060E-06,1.420
2.070E-06,1.260
2.080E-06,0.940
2.090E-06,0.760
2.100E-06,0.520
2.110E-06,0.480
2.120E-06,0.340
2.130E-06,0.000
2.140E-06,-0.480
2.150E-06,-1.040
2.160E-06,-1.600
2.170E-06,-2.240
2.180E-06,-2.380
2.190E-06,-2.660
2.200E-06,-2.680
2.210E-06,-2.440
2.220E-06,-1.600
2.230E-06,-0.480
2.240E-06,1.340
2.250E-06,2.420
2.260E-06,2.620
2.270E-06,1.760
2.280E-06,2.060
2.290E-06,2.760
2.300E-06,2.780
2.310E-06,2.760
2.320E-06,2.760
2.330E-06,2.760
2.340E-06,2.760
2.350E-06,2.740
2.360E-06,1.040
2.370E-06,-0.820
2.380E-06,-2.320
2.390E-06,-2.660
2.400E-06,-2.660
2.410E-06,-2.660
2.420E-06,-2.660
2.430E-06,-2.660
2.440E-06,-2.600
2.450E-06,-1.600
2.460E-06,-0.460
2.470E-06,0.180
2.480E-06,1.220
2.490E-06,1.680
2.500E-06,1.320
2.510E-06,0.740
2.520E-06,-0.160
2.530E-06,-0.540
2.540E-06,-0.380
2.550E-06,-0.300
2.560E-06,0.380
2.570E-06,1.300
2.580E-06,2.000
2.590E-06,2.740
2.600E-06,2.760
2.610E-06,2.080
2.620E-06,0.640
2.630E-06,-1.040
2.640E-06,-2.040
2.650E-06,-2.620
2.660E-06,-2.660
2.670E-06,-2.660
2.680E-06,-2.660
2.690E-06,-2.640
2.700E-06,-2.660
2.710E-06,-2.660
2.720E-06,-1.840
2.730E-06,-0.860
2.740E-06,0.540
2.750E-06,2.280
2.760E-06,2.740
2.770E-06,2.760
2.780E-06,2.780
2.790E-06,2.760
2.800E-06,2.740
2.810E-06,2.680
2.820E-06,1.080
2.830E-06,0.160
2.840E-06,-0.740
2.850E-06,-1.600
2.860E-06,-2.060
2.870E-06,-2.660
2.880E-06,-2.660
2.890E-06,-2.680
2.900E-06,-2.160
2.910E-06,-1.720
2.920E-06,-0.860
2.930E-06,-0.040
2.940E-06,0.860
2.950E-06,1.960
2.960E-06,2.560
2.970E-06,2.700
2.980E-06,2.020
2.990E-06,0.960
3.000E-06,-0.420
3.010E-06,-1.560
3.020E-06,-2.600
3.030E-06,-2.660
3.040E-06,-2.660
3.050E-06,-2.660
3.060E-06,-2.660
3.070E-06,-2.660
3.080E-06,-2.540
3.090E-06,-2.020
3.100E-06,-1.440
3.110E-06,-1.100
3.120E-06,-0.880
3.130E-06,-0.780
3.140E-06,-0.720
3.150E-06,-0.960
3.160E-06,-0.900
3.170E-06,-0.020
3.180E-06,1.120
3.190E-06,2.760
3.200E-06,2.780
3.210E-06,2.760
3.220E-06,2.740
3.230E-06,2.760
3.240E-06,0.220
3.250E-06,-2.520
3.260E-06,-2.660
3.270E-06,-2.640
3.280E-06,-2.660
3.290E-06,-2.660
3.300E-06,-2.660
3.310E-06,-2.520
3.320E-06,-2.240
3.330E-06,-2.000
3.340E-06,-2.120
3.350E-06,-2.100
3.360E-06,-1.860
3.370E-06,-1.360
3.380E-06,-1.060
3.390E-06,-0.940
3.400E-06,-1.100
3.410E-06,-1.260
3.420E-06,-1.580
3.430E-06,-1.900
3.440E-06,-1.880
3.450E-06,-2.380
3.460E-06,-2.400
3.470E-06,-1.680
3.480E-06,-0.820
3.490E-06,0.960
3.500E-06,2.760
3.510E-06,2.760
3.520E-06,2.780
3.530E-06,2.780
3.540E-06,2.760
3.550E-06,2.760
3.560E-06,2.780
3.570E-06,2.180
3.580E-06,0.520
3.590E-06,-0.600
3.600E-06,-1.500
3.610E-06,-2.280
3.620E-06,-2.680
3.630E-06,-2.680
3.640E-06,-2.680
3.650E-06,-2.680
3.660E-06,-2.680
3.670E-06,-2.200
