mediciones/6-26/45.0/WaveData59321.csv

#timebase=2000000(ps)
,#voltbase=500000(mv/100)
#size=4000
-8.150E-06,0.100
-8.140E-06,0.020
-8.130E-06,0.060
-8.120E-06,0.080
-8.110E-06,0.080
-8.100E-06,0.100
-8.090E-06,0.120
-8.080E-06,0.140
-8.070E-06,0.120
-8.060E-06,0.100
-8.050E-06,0.080
-8.040E-06,0.080
-8.030E-06,0.040
-8.020E-06,0.080
-8.010E-06,0.100
-8.000E-06,0.080
-7.990E-06,0.060
-7.980E-06,0.060
-7.970E-06,0.080
-7.960E-06,0.040
-7.950E-06,0.060
-7.940E-06,0.060
-7.930E-06,0.060
-7.920E-06,0.020
-7.910E-06,0.060
-7.900E-06,0.020
-7.890E-06,0.020
-7.880E-06,0.040
-7.870E-06,0.020
-7.860E-06,0.040
-7.850E-06,0.020
-7.840E-06,0.040
-7.830E-06,0.060
-7.820E-06,0.060
-7.810E-06,0.040
-7.800E-06,0.040
-7.790E-06,0.060
-7.780E-06,0.040
-7.770E-06,0.060
-7.760E-06,0.040
-7.750E-06,0.020
-7.740E-06,0.040
-7.730E-06,0.080
-7.720E-06,0.100
-7.710E-06,0.040
-7.700E-06,0.040
-7.690E-06,0.040
-7.680E-06,0.100
-7.670E-06,0.080
-7.660E-06,0.100
-7.650E-06,0.120
-7.640E-06,0.080
-7.630E-06,0.080
-7.620E-06,0.080
-7.610E-06,0.080
-7.600E-06,0.040
-7.590E-06,0.080
-7.580E-06,0.100
-7.570E-06,0.060
-7.560E-06,0.040
-7.550E-06,0.080
-7.540E-06,0.060
-7.530E-06,0.040
-7.520E-06,0.060
-7.510E-06,0.080
-7.500E-06,0.040
-7.490E-06,0.040
-7.480E-06,0.060
-7.470E-06,0.040
-7.460E-06,0.040
-7.450E-06,0.040
-7.440E-06,0.080
-7.430E-06,0.060
-7.420E-06,0.020
-7.410E-06,0.040
-7.400E-06,0.040
-7.390E-06,0.080
-7.380E-06,0.040
-7.370E-06,0.040
-7.360E-06,0.060
-7.350E-06,0.040
-7.340E-06,0.060
-7.330E-06,0.020
-7.320E-06,0.060
-7.310E-06,0.060
-7.300E-06,0.100
-7.290E-06,0.040
-7.280E-06,0.060
-7.270E-06,0.060
-7.260E-06,0.040
-7.250E-06,0.080
-7.240E-06,0.120
-7.230E-06,0.080
-7.220E-06,0.060
-7.210E-06,0.060
-7.200E-06,0.060
-7.190E-06,0.040
-7.180E-06,0.060
-7.170E-06,0.080
-7.160E-06,0.040
-7.150E-06,0.040
-7.140E-06,0.020
-7.130E-06,0.040
-7.120E-06,0.020
-7.110E-06,0.040
-7.100E-06,0.080
-7.090E-06,0.040
-7.080E-06,0.020
-7.070E-06,0.020
-7.060E-06,0.020
-7.050E-06,0.020
-7.040E-06,0.040
-7.030E-06,0.060
-7.020E-06,0.060
-7.010E-06,0.060
-7.000E-06,0.040
-6.990E-06,0.060
-6.980E-06,0.060
-6.970E-06,0.080
-6.960E-06,0.040
-6.950E-06,0.040
-6.940E-06,0.100
-6.930E-06,0.020
-6.920E-06,0.060
-6.910E-06,0.040
-6.900E-06,0.080
-6.890E-06,0.080
-6.880E-06,0.040
-6.870E-06,0.080
-6.860E-06,0.060
-6.850E-06,0.080
-6.840E-06,0.120
-6.830E-06,0.100
-6.820E-06,0.040
-6.810E-06,0.080
-6.800E-06,0.080
-6.790E-06,0.080
-6.780E-06,0.040
-6.770E-06,0.080
-6.760E-06,0.080
-6.750E-06,0.080
-6.740E-06,0.080
-6.730E-06,0.040
-6.720E-06,0.020
-6.710E-06,0.040
-6.700E-06,0.060
-6.690E-06,0.060
-6.680E-06,0.040
-6.670E-06,0.040
-6.660E-06,0.060
-6.650E-06,0.060
-6.640E-06,0.020
-6.630E-06,0.040
-6.620E-06,0.040
-6.610E-06,0.040
-6.600E-06,0.060
-6.590E-06,0.020
-6.580E-06,0.040
-6.570E-06,0.040
-6.560E-06,0.080
-6.550E-06,0.040
-6.540E-06,0.040
-6.530E-06,0.040
-6.520E-06,0.080
-6.510E-06,0.080
-6.500E-06,0.020
-6.490E-06,0.020
-6.480E-06,0.100
-6.470E-06,0.040
-6.460E-06,0.100
-6.450E-06,0.100
-6.440E-06,0.080
-6.430E-06,0.060
-6.420E-06,0.060
-6.410E-06,0.080
-6.400E-06,0.080
-6.390E-06,0.080
-6.380E-06,0.100
-6.370E-06,0.080
-6.360E-06,0.080
-6.350E-06,0.020
-6.340E-06,0.040
-6.330E-06,0.060
-6.320E-06,0.060
-6.310E-06,0.080
-6.300E-06,0.060
-6.290E-06,0.060
-6.280E-06,0.040
-6.270E-06,0.060
-6.260E-06,0.040
-6.250E-06,0.040
-6.240E-06,0.040
-6.230E-06,0.080
-6.220E-06,0.040
-6.210E-06,0.040
-6.200E-06,0.020
-6.190E-06,0.040
-6.180E-06,0.040
-6.170E-06,0.060
-6.160E-06,0.060
-6.150E-06,0.040
-6.140E-06,0.000
-6.130E-06,0.040
-6.120E-06,0.060
-6.110E-06,0.080
-6.100E-06,0.040
-6.090E-06,0.080
-6.080E-06,0.060
-6.070E-06,0.060
-6.060E-06,0.100
-6.050E-06,0.120
-6.040E-06,0.060
-6.030E-06,0.080
-6.020E-06,0.080
-6.010E-06,0.040
-6.000E-06,0.080
-5.990E-06,0.100
-5.980E-06,0.080
-5.970E-06,0.080
-5.960E-06,0.040
-5.950E-06,0.020
-5.940E-06,0.060
-5.930E-06,0.020
-5.920E-06,0.060
-5.910E-06,0.060
-5.900E-06,0.060
-5.890E-06,0.060
-5.880E-06,0.020
-5.870E-06,0.040
-5.860E-06,0.020
-5.850E-06,0.060
-5.840E-06,0.020
-5.830E-06,0.040
-5.820E-06,0.020
-5.810E-06,0.040
-5.800E-06,0.080
-5.790E-06,0.020
-5.780E-06,0.020
-5.770E-06,0.040
-5.760E-06,0.040
-5.750E-06,0.040
-5.740E-06,0.040
-5.730E-06,0.040
-5.720E-06,0.040
-5.710E-06,0.060
-5.700E-06,0.080
-5.690E-06,0.040
-5.680E-06,0.080
-5.670E-06,0.060
-5.660E-06,0.060
-5.650E-06,0.100
-5.640E-06,0.140
-5.630E-06,0.040
-5.620E-06,0.060
-5.610E-06,0.080
-5.600E-06,0.100
-5.590E-06,0.080
-5.580E-06,0.060
-5.570E-06,0.080
-5.560E-06,0.060
-5.550E-06,0.080
-5.540E-06,0.040
-5.530E-06,0.040
-5.520E-06,0.060
-5.510E-06,0.040
-5.500E-06,0.040
-5.490E-06,0.060
-5.480E-06,0.060
-5.470E-06,0.020
-5.460E-06,0.040
-5.450E-06,0.060
-5.440E-06,0.040
-5.430E-06,0.020
-5.420E-06,0.040
-5.410E-06,0.040
-5.400E-06,0.060
-5.390E-06,0.020
-5.380E-06,0.040
-5.370E-06,0.060
-5.360E-06,0.040
-5.350E-06,0.040
-5.340E-06,0.020
-5.330E-06,0.060
-5.320E-06,0.060
-5.310E-06,0.060
-5.300E-06,0.060
-5.290E-06,0.080
-5.280E-06,0.040
-5.270E-06,0.080
-5.260E-06,0.080
-5.250E-06,0.120
-5.240E-06,0.060
-5.230E-06,0.040
-5.220E-06,0.060
-5.210E-06,0.040
-5.200E-06,0.060
-5.190E-06,0.080
-5.180E-06,0.100
-5.170E-06,0.080
-5.160E-06,0.040
-5.150E-06,0.040
-5.140E-06,0.060
-5.130E-06,0.080
-5.120E-06,0.100
-5.110E-06,0.040
-5.100E-06,0.060
-5.090E-06,0.040
-5.080E-06,0.040
-5.070E-06,0.040
-5.060E-06,0.040
-5.050E-06,0.080
-5.040E-06,0.060
-5.030E-06,0.060
-5.020E-06,0.020
-5.010E-06,0.000
-5.000E-06,0.040
-4.990E-06,0.060
-4.980E-06,0.080
-4.970E-06,0.040
-4.960E-06,0.040
-4.950E-06,0.080
-4.940E-06,0.060
-4.930E-06,0.080
-4.920E-06,0.020
-4.910E-06,0.060
-4.900E-06,0.100
-4.890E-06,0.080
-4.880E-06,0.080
-4.870E-06,0.020
-4.860E-06,0.060
-4.850E-06,0.120
-4.840E-06,0.080
-4.830E-06,0.080
-4.820E-06,0.100
-4.810E-06,0.060
-4.800E-06,0.060
-4.790E-06,0.080
-4.780E-06,0.100
-4.770E-06,0.080
-4.760E-06,0.100
-4.750E-06,0.080
-4.740E-06,0.080
-4.730E-06,0.040
-4.720E-06,0.060
-4.710E-06,0.080
-4.700E-06,0.060
-4.690E-06,0.040
-4.680E-06,0.040
-4.670E-06,0.020
-4.660E-06,0.000
-4.650E-06,0.040
-4.640E-06,0.060
-4.630E-06,0.040
-4.620E-06,0.020
-4.610E-06,0.040
-4.600E-06,0.040
-4.590E-06,0.060
-4.580E-06,0.040
-4.570E-06,0.020
-4.560E-06,0.040
-4.550E-06,0.080
-4.540E-06,0.080
-4.530E-06,0.040
-4.520E-06,0.060
-4.510E-06,0.060
-4.500E-06,0.080
-4.490E-06,0.040
-4.480E-06,0.060
-4.470E-06,0.060
-4.460E-06,0.060
-4.450E-06,0.040
-4.440E-06,0.060
-4.430E-06,0.060
-4.420E-06,0.080
-4.410E-06,0.060
-4.400E-06,0.040
-4.390E-06,0.060
-4.380E-06,0.080
-4.370E-06,0.080
-4.360E-06,0.060
-4.350E-06,0.100
-4.340E-06,0.080
-4.330E-06,0.100
-4.320E-06,0.100
-4.310E-06,0.080
-4.300E-06,0.080
-4.290E-06,0.060
-4.280E-06,0.080
-4.270E-06,0.100
-4.260E-06,0.020
-4.250E-06,0.040
-4.240E-06,0.040
-4.230E-06,0.080
-4.220E-06,0.060
-4.210E-06,0.020
-4.200E-06,0.040
-4.190E-06,0.040
-4.180E-06,0.020
-4.170E-06,0.020
-4.160E-06,0.020
-4.150E-06,0.020
-4.140E-06,0.020
-4.130E-06,0.020
-4.120E-06,0.040
-4.110E-06,0.020
-4.100E-06,0.020
-4.090E-06,0.040
-4.080E-06,0.060
-4.070E-06,0.060
-4.060E-06,0.020
-4.050E-06,0.040
-4.040E-06,0.040
-4.030E-06,0.040
-4.020E-06,0.040
-4.010E-06,0.040
-4.000E-06,0.060
-3.990E-06,0.060
-3.980E-06,0.060
-3.970E-06,0.080
-3.960E-06,0.060
-3.950E-06,0.040
-3.940E-06,0.060
-3.930E-06,0.040
-3.920E-06,0.080
-3.910E-06,0.040
-3.900E-06,0.020
-3.890E-06,0.040
-3.880E-06,0.040
-3.870E-06,0.080
-3.860E-06,0.060
-3.850E-06,0.000
-3.840E-06,0.000
-3.830E-06,0.060
-3.820E-06,0.080
-3.810E-06,0.160
-3.800E-06,0.200
-3.790E-06,0.160
-3.780E-06,0.080
-3.770E-06,0.040
-3.760E-06,0.080
-3.750E-06,0.120
-3.740E-06,0.140
-3.730E-06,0.120
-3.720E-06,0.120
-3.710E-06,0.080
-3.700E-06,0.060
-3.690E-06,0.040
-3.680E-06,0.080
-3.670E-06,0.040
-3.660E-06,0.080
-3.650E-06,0.120
-3.640E-06,0.120
-3.630E-06,0.120
-3.620E-06,0.120
-3.610E-06,0.080
-3.600E-06,0.040
-3.590E-06,0.080
-3.580E-06,0.080
-3.570E-06,0.120
-3.560E-06,0.140
-3.550E-06,0.100
-3.540E-06,0.100
-3.530E-06,0.040
-3.520E-06,0.040
-3.510E-06,0.000
-3.500E-06,0.060
-3.490E-06,0.060
-3.480E-06,0.060
-3.470E-06,0.060
-3.460E-06,0.000
-3.450E-06,-0.020
-3.440E-06,-0.020
-3.430E-06,0.000
-3.420E-06,0.000
-3.410E-06,0.020
-3.400E-06,0.020
-3.390E-06,0.000
-3.380E-06,0.000
-3.370E-06,0.000
-3.360E-06,-0.020
-3.350E-06,0.000
-3.340E-06,0.040
-3.330E-06,0.000
-3.320E-06,0.040
-3.310E-06,0.020
-3.300E-06,0.020
-3.290E-06,0.020
-3.280E-06,0.000
-3.270E-06,0.020
-3.260E-06,0.060
-3.250E-06,0.040
-3.240E-06,0.080
-3.230E-06,0.060
-3.220E-06,0.080
-3.210E-06,0.040
-3.200E-06,0.040
-3.190E-06,0.060
-3.180E-06,0.080
-3.170E-06,0.100
-3.160E-06,0.080
-3.150E-06,0.080
-3.140E-06,0.040
-3.130E-06,0.080
-3.120E-06,0.080
-3.110E-06,0.060
-3.100E-06,0.080
-3.090E-06,0.120
-3.080E-06,0.080
-3.070E-06,0.100
-3.060E-06,0.100
-3.050E-06,0.160
-3.040E-06,0.080
-3.030E-06,0.000
-3.020E-06,-0.020
-3.010E-06,-0.040
-3.000E-06,0.020
-2.990E-06,0.160
-2.980E-06,0.280
-2.970E-06,0.300
-2.960E-06,0.220
-2.950E-06,0.140
-2.940E-06,0.100
-2.930E-06,0.020
-2.920E-06,0.060
-2.910E-06,0.100
-2.900E-06,0.180
-2.890E-06,0.120
-2.880E-06,0.060
-2.870E-06,0.000
-2.860E-06,0.000
-2.850E-06,0.000
-2.840E-06,0.080
-2.830E-06,0.120
-2.820E-06,0.160
-2.810E-06,0.120
-2.800E-06,0.080
-2.790E-06,0.020
-2.780E-06,0.040
-2.770E-06,0.080
-2.760E-06,0.100
-2.750E-06,0.160
-2.740E-06,0.160
-2.730E-06,0.100
-2.720E-06,0.040
-2.710E-06,-0.020
-2.700E-06,0.040
-2.690E-06,0.080
-2.680E-06,0.080
-2.670E-06,0.120
-2.660E-06,0.120
-2.650E-06,0.040
-2.640E-06,0.020
-2.630E-06,0.000
-2.620E-06,0.040
-2.610E-06,0.020
-2.600E-06,0.040
-2.590E-06,-0.020
-2.580E-06,0.000
-2.570E-06,0.000
-2.560E-06,0.020
-2.550E-06,0.020
-2.540E-06,0.000
-2.530E-06,0.020
-2.520E-06,0.040
-2.510E-06,0.020
-2.500E-06,0.040
-2.490E-06,0.040
-2.480E-06,0.000
-2.470E-06,0.040
-2.460E-06,0.000
-2.450E-06,0.060
-2.440E-06,0.120
-2.430E-06,0.160
-2.420E-06,0.180
-2.410E-06,0.160
-2.400E-06,0.140
-2.390E-06,0.120
-2.380E-06,0.180
-2.370E-06,0.240
-2.360E-06,0.320
-2.350E-06,0.360
-2.340E-06,0.320
-2.330E-06,0.300
-2.320E-06,0.260
-2.310E-06,0.240
-2.300E-06,0.220
-2.290E-06,0.240
-2.280E-06,0.200
-2.270E-06,0.160
-2.260E-06,0.080
-2.250E-06,0.000
-2.240E-06,-0.040
-2.230E-06,-0.100
-2.220E-06,-0.160
-2.210E-06,-0.160
-2.200E-06,-0.160
-2.190E-06,-0.200
-2.180E-06,-0.220
-2.170E-06,-0.200
-2.160E-06,-0.180
-2.150E-06,-0.140
-2.140E-06,-0.100
-2.130E-06,-0.100
-2.120E-06,-0.120
-2.110E-06,-0.100
-2.100E-06,-0.080
-2.090E-06,-0.040
-2.080E-06,-0.040
-2.070E-06,-0.040
-2.060E-06,-0.020
-2.050E-06,-0.020
-2.040E-06,0.000
-2.030E-06,0.020
-2.020E-06,0.080
-2.010E-06,0.100
-2.000E-06,0.080
-1.990E-06,0.060
-1.980E-06,0.100
-1.970E-06,0.100
-1.960E-06,0.220
-1.950E-06,0.300
-1.940E-06,0.400
-1.930E-06,0.420
-1.920E-06,0.420
-1.910E-06,0.340
-1.900E-06,0.300
-1.890E-06,0.260
-1.880E-06,0.260
-1.870E-06,0.180
-1.860E-06,0.260
-1.850E-06,0.280
-1.840E-06,0.300
-1.830E-06,0.340
-1.820E-06,0.300
-1.810E-06,0.220
-1.800E-06,0.120
-1.790E-06,0.040
-1.780E-06,0.060
-1.770E-06,0.160
-1.760E-06,0.180
-1.750E-06,0.220
-1.740E-06,0.240
-1.730E-06,0.220
-1.720E-06,0.240
-1.710E-06,0.260
-1.700E-06,0.360
-1.690E-06,0.540
-1.680E-06,0.620
-1.670E-06,0.600
-1.660E-06,0.520
-1.650E-06,0.340
-1.640E-06,0.160
-1.630E-06,0.100
-1.620E-06,0.040
-1.610E-06,0.000
-1.600E-06,0.040
-1.590E-06,0.000
-1.580E-06,-0.160
-1.570E-06,-0.260
-1.560E-06,-0.340
-1.550E-06,-0.340
-1.540E-06,-0.360
-1.530E-06,-0.320
-1.520E-06,-0.300
-1.510E-06,-0.260
-1.500E-06,-0.260
-1.490E-06,-0.280
-1.480E-06,-0.260
-1.470E-06,-0.220
-1.460E-06,-0.160
-1.450E-06,-0.140
-1.440E-06,-0.140
-1.430E-06,-0.180
-1.420E-06,-0.160
-1.410E-06,-0.120
-1.400E-06,-0.120
-1.390E-06,-0.060
-1.380E-06,-0.040
-1.370E-06,-0.060
-1.360E-06,-0.040
-1.350E-06,-0.080
-1.340E-06,-0.020
-1.330E-06,-0.020
-1.320E-06,0.100
-1.310E-06,0.220
-1.300E-06,0.420
-1.290E-06,0.460
-1.280E-06,0.560
-1.270E-06,0.580
-1.260E-06,0.560
-1.250E-06,0.640
-1.240E-06,0.600
-1.230E-06,0.520
-1.220E-06,0.500
-1.210E-06,0.380
-1.200E-06,0.220
-1.190E-06,0.080
-1.180E-06,-0.100
-1.170E-06,-0.220
-1.160E-06,-0.220
-1.150E-06,-0.520
-1.140E-06,-0.780
-1.130E-06,-0.380
-1.120E-06,0.060
-1.110E-06,0.860
-1.100E-06,2.060
-1.090E-06,2.760
-1.080E-06,2.760
-1.070E-06,2.760
-1.060E-06,2.740
-1.050E-06,2.540
-1.040E-06,1.620
-1.030E-06,0.860
-1.020E-06,0.520
-1.010E-06,0.320
-1.000E-06,0.040
-9.900E-07,-0.340
-9.800E-07,-0.940
-9.700E-07,-1.480
-9.600E-07,-1.860
-9.500E-07,-2.040
-9.400E-07,-1.880
-9.300E-07,-1.660
-9.200E-07,-1.400
-9.100E-07,-1.240
-9.000E-07,-1.440
-8.900E-07,-1.600
-8.800E-07,-1.780
-8.700E-07,-1.720
-8.600E-07,-1.260
-8.500E-07,-0.980
-8.400E-07,-0.700
-8.300E-07,-0.860
-8.200E-07,-1.480
-8.100E-07,-2.180
-8.000E-07,-2.660
-7.900E-07,-2.640
-7.800E-07,-2.660
-7.700E-07,-2.340
-7.600E-07,-1.440
-7.500E-07,-0.220
-7.400E-07,1.120
-7.300E-07,2.100
-7.200E-07,2.760
-7.100E-07,2.760
-7.000E-07,2.780
-6.900E-07,2.780
-6.800E-07,2.760
-6.700E-07,2.780
-6.600E-07,2.760
-6.500E-07,2.420
-6.400E-07,2.020
-6.300E-07,1.700
-6.200E-07,1.500
-6.100E-07,1.200
-6.000E-07,0.900
-5.900E-07,0.600
-5.800E-07,0.260
-5.700E-07,-0.060
-5.600E-07,-0.260
-5.500E-07,-0.440
-5.400E-07,-0.480
-5.300E-07,-0.700
-5.200E-07,-0.940
-5.100E-07,-1.180
-5.000E-07,-1.400
-4.900E-07,-1.520
-4.800E-07,-1.480
-4.700E-07,-1.340
-4.600E-07,-1.260
-4.500E-07,-1.200
-4.400E-07,-1.260
-4.300E-07,-1.260
-4.200E-07,-1.200
-4.100E-07,-1.100
-4.000E-07,-0.940
-3.900E-07,-0.780
-3.800E-07,-0.600
-3.700E-07,-0.320
-3.600E-07,-0.060
-3.500E-07,0.260
-3.400E-07,0.220
-3.300E-07,-0.200
-3.200E-07,-0.420
-3.100E-07,-0.660
-3.000E-07,-0.340
-2.900E-07,0.220
-2.800E-07,0.820
-2.700E-07,1.340
-2.600E-07,1.840
-2.500E-07,2.260
-2.400E-07,2.480
-2.300E-07,2.200
-2.200E-07,1.700
-2.100E-07,0.900
-2.000E-07,0.080
-1.900E-07,-0.420
-1.800E-07,-0.780
-1.700E-07,-0.820
-1.600E-07,-0.820
-1.500E-07,-0.700
-1.400E-07,-0.280
-1.300E-07,0.200
-1.200E-07,0.680
-1.100E-07,1.040
-1.000E-07,1.200
-9.000E-08,1.340
-8.000E-08,1.460
-7.000E-08,1.540
-6.000E-08,1.660
-5.000E-08,1.480
-4.000E-08,1.280
-3.000E-08,0.840
-2.000E-08,1.040
-1.000E-08,-0.080
0.000E+00,1.120
1.000E-08,2.740
2.000E-08,2.760
3.000E-08,2.780
4.000E-08,2.760
5.000E-08,2.360
6.000E-08,1.520
7.000E-08,2.760
8.000E-08,2.760
9.000E-08,2.740
1.000E-07,2.760
1.100E-07,2.780
1.200E-07,2.760
1.300E-07,-1.360
1.400E-07,-2.660
1.500E-07,-2.660
1.600E-07,-2.660
1.700E-07,-2.680
1.800E-07,-2.680
1.900E-07,-2.660
2.000E-07,-1.340
2.100E-07,1.080
2.200E-07,2.760
2.300E-07,2.740
2.400E-07,2.760
2.500E-07,2.760
2.600E-07,2.760
2.700E-07,2.540
2.800E-07,0.260
2.900E-07,-2.000
3.000E-07,-2.660
3.100E-07,-2.660
3.200E-07,-2.660
3.300E-07,-2.660
3.400E-07,-2.680
3.500E-07,-2.660
3.600E-07,-2.660
3.700E-07,-2.660
3.800E-07,-2.040
3.900E-07,-0.100
4.000E-07,0.860
4.100E-07,1.220
4.200E-07,0.720
4.300E-07,-0.080
4.400E-07,-0.900
4.500E-07,-1.640
4.600E-07,-1.940
4.700E-07,-1.980
4.800E-07,-1.920
4.900E-07,-1.540
5.000E-07,-0.880
5.100E-07,-0.420
5.200E-07,-0.200
5.300E-07,-0.040
5.400E-07,0.260
5.500E-07,0.740
5.600E-07,1.680
5.700E-07,2.780
5.800E-07,2.760
5.900E-07,2.740
6.000E-07,2.760
6.100E-07,2.780
6.200E-07,2.780
6.300E-07,2.760
6.400E-07,2.760
6.500E-07,2.780
6.600E-07,2.760
6.700E-07,2.760
6.800E-07,2.760
6.900E-07,2.320
7.000E-07,0.700
7.100E-07,-0.800
7.200E-07,-2.420
7.300E-07,-2.660
7.400E-07,-2.660
7.500E-07,-2.660
7.600E-07,-2.660
7.700E-07,-2.660
7.800E-07,-2.660
7.900E-07,-2.660
8.000E-07,-2.660
8.100E-07,-2.120
8.200E-07,-1.480
8.300E-07,-0.720
8.400E-07,0.020
8.500E-07,0.720
8.600E-07,1.200
8.700E-07,1.600
8.800E-07,1.800
8.900E-07,2.040
9.000E-07,2.440
9.100E-07,2.460
9.200E-07,2.180
9.300E-07,1.520
9.400E-07,0.460
9.500E-07,-0.420
9.600E-07,-0.940
9.700E-07,-0.700
9.800E-07,-0.260
9.900E-07,0.760
1.000E-06,1.880
1.010E-06,2.760
1.020E-06,2.760
1.030E-06,2.740
1.040E-06,2.760
1.050E-06,2.760
1.060E-06,2.740
1.070E-06,2.760
1.080E-06,2.760
1.090E-06,2.740
1.100E-06,2.760
1.110E-06,-1.760
1.120E-06,-2.660
1.130E-06,-2.660
1.140E-06,-2.640
1.150E-06,-2.660
1.160E-06,-2.660
1.170E-06,-2.660
1.180E-06,-2.660
1.190E-06,-2.640
1.200E-06,-2.640
1.210E-06,-2.320
1.220E-06,0.020
1.230E-06,1.480
1.240E-06,2.520
1.250E-06,2.760
1.260E-06,2.740
1.270E-06,2.760
1.280E-06,2.780
1.290E-06,2.780
1.300E-06,2.760
1.310E-06,2.760
1.320E-06,2.760
1.330E-06,2.340
1.340E-06,1.100
1.350E-06,0.060
1.360E-06,-0.620
1.370E-06,-0.780
1.380E-06,-0.700
1.390E-06,-0.460
1.400E-06,-0.140
1.410E-06,0.340
1.420E-06,0.840
1.430E-06,1.520
1.440E-06,2.280
1.450E-06,2.720
1.460E-06,2.760
1.470E-06,2.780
1.480E-06,2.580
1.490E-06,1.940
1.500E-06,1.060
1.510E-06,0.080
1.520E-06,-0.540
1.530E-06,-0.780
1.540E-06,-0.560
1.550E-06,-0.180
1.560E-06,0.360
1.570E-06,0.840
1.580E-06,1.280
1.590E-06,1.660
1.600E-06,2.000
1.610E-06,2.160
1.620E-06,2.080
1.630E-06,1.580
1.640E-06,1.120
1.650E-06,0.540
1.660E-06,0.240
1.670E-06,-0.020
1.680E-06,-0.600
1.690E-06,-1.260
1.700E-06,-1.760
1.710E-06,-2.060
1.720E-06,-1.500
1.730E-06,-0.680
1.740E-06,0.260
1.750E-06,2.220
1.760E-06,2.760
1.770E-06,2.780
1.780E-06,2.780
1.790E-06,-0.060
1.800E-06,-2.180
1.810E-06,-2.640
1.820E-06,-2.660
1.830E-06,-2.660
1.840E-06,-2.680
1.850E-06,-0.460
1.860E-06,1.800
1.870E-06,2.740
1.880E-06,2.760
1.890E-06,2.760
1.900E-06,2.780
1.910E-06,2.760
1.920E-06,2.740
1.930E-06,2.760
1.940E-06,2.300
1.950E-06,1.460
1.960E-06,0.440
1.970E-06,-0.640
1.980E-06,-1.260
1.990E-06,-1.720
2.000E-06,-1.680
2.010E-06,-1.480
2.020E-06,-1.120
2.030E-06,-0.640
2.040E-06,0.020
2.050E-06,1.080
2.060E-06,2.000
2.070E-06,2.600
2.080E-06,1.940
2.090E-06,0.180
2.100E-06,-1.760
2.110E-06,-2.640
2.120E-06,-2.660
2.130E-06,-2.660
2.140E-06,-1.480
2.150E-06,-0.200
2.160E-06,0.780
2.170E-06,1.380
2.180E-06,1.840
2.190E-06,2.260
2.200E-06,2.620
2.210E-06,2.780
2.220E-06,2.760
2.230E-06,2.740
2.240E-06,2.640
2.250E-06,2.380
2.260E-06,2.040
2.270E-06,1.640
2.280E-06,1.280
2.290E-06,0.940
2.300E-06,0.600
2.310E-06,0.360
2.320E-06,0.300
2.330E-06,0.300
2.340E-06,0.300
2.350E-06,0.360
2.360E-06,0.540
2.370E-06,0.780
2.380E-06,0.940
2.390E-06,1.100
2.400E-06,1.220
2.410E-06,1.300
2.420E-06,1.320
2.430E-06,1.260
2.440E-06,1.180
2.450E-06,1.100
2.460E-06,0.960
2.470E-06,0.760
2.480E-06,0.560
2.490E-06,0.340
2.500E-06,0.120
2.510E-06,-0.060
2.520E-06,-0.220
2.530E-06,-0.320
2.540E-06,-0.420
2.550E-06,-0.500
2.560E-06,-0.540
2.570E-06,-0.500
2.580E-06,-0.440
2.590E-06,-0.320
2.600E-06,-0.040
2.610E-06,0.260
2.620E-06,0.560
2.630E-06,0.880
2.640E-06,1.140
2.650E-06,1.320
2.660E-06,1.500
2.670E-06,1.540
2.680E-06,1.520
2.690E-06,1.460
2.700E-06,1.340
2.710E-06,1.180
2.720E-06,1.080
2.730E-06,1.000
2.740E-06,0.880
2.750E-06,0.800
2.760E-06,0.700
2.770E-06,0.620
2.780E-06,0.560
2.790E-06,0.500
2.800E-06,0.460
2.810E-06,0.500
2.820E-06,0.500
2.830E-06,0.500
2.840E-06,0.560
2.850E-06,0.660
2.860E-06,0.760
2.870E-06,0.860
2.880E-06,0.900
2.890E-06,1.020
2.900E-06,1.080
2.910E-06,1.160
2.920E-06,1.200
2.930E-06,1.140
2.940E-06,1.100
2.950E-06,1.000
2.960E-06,0.840
2.970E-06,0.660
2.980E-06,0.480
2.990E-06,0.280
3.000E-06,0.120
3.010E-06,0.000
3.020E-06,-0.080
3.030E-06,-0.140
3.040E-06,-0.140
3.050E-06,-0.060
3.060E-06,0.060
3.070E-06,0.220
3.080E-06,0.300
3.090E-06,0.380
3.100E-06,0.460
3.110E-06,0.500
3.120E-06,0.520
3.130E-06,0.500
3.140E-06,0.500
3.150E-06,0.520
3.160E-06,0.500
3.170E-06,0.540
3.180E-06,0.500
3.190E-06,0.500
3.200E-06,0.460
3.210E-06,0.420
3.220E-06,0.340
3.230E-06,0.260
3.240E-06,0.060
3.250E-06,-0.160
3.260E-06,-0.340
3.270E-06,-0.540
3.280E-06,-0.580
3.290E-06,-0.500
3.300E-06,-0.420
3.310E-06,-0.260
3.320E-06,-0.100
3.330E-06,0.120
3.340E-06,0.380
3.350E-06,0.540
3.360E-06,0.620
3.370E-06,0.620
3.380E-06,0.680
3.390E-06,0.840
3.400E-06,0.900
3.410E-06,0.840
3.420E-06,0.720
3.430E-06,0.520
3.440E-06,0.340
3.450E-06,0.140
3.460E-06,0.020
3.470E-06,-0.080
3.480E-06,-0.120
3.490E-06,-0.220
3.500E-06,-0.340
3.510E-06,-0.340
3.520E-06,-0.280
3.530E-06,-0.180
3.540E-06,-0.040
3.550E-06,0.020
3.560E-06,0.160
3.570E-06,0.320
3.580E-06,0.500
3.590E-06,0.720
3.600E-06,0.980
3.610E-06,1.100
3.620E-06,1.100
3.630E-06,1.000
3.640E-06,0.820
