mediciones/Mediciones filtradas (saque las feas)/5-15/10/WaveData47300.csv

#timebase=2000000(ps)
,#voltbase=500000(mv/100)
#size=4000
-8.400E-06,0.060
-8.390E-06,0.060
-8.380E-06,0.060
-8.370E-06,0.060
-8.360E-06,0.080
-8.350E-06,0.060
-8.340E-06,0.040
-8.330E-06,0.060
-8.320E-06,0.040
-8.310E-06,0.060
-8.300E-06,0.040
-8.290E-06,0.040
-8.280E-06,0.060
-8.270E-06,0.060
-8.260E-06,0.060
-8.250E-06,0.080
-8.240E-06,0.040
-8.230E-06,0.060
-8.220E-06,0.060
-8.210E-06,0.080
-8.200E-06,0.060
-8.190E-06,0.080
-8.180E-06,0.060
-8.170E-06,0.040
-8.160E-06,0.060
-8.150E-06,0.080
-8.140E-06,0.060
-8.130E-06,0.060
-8.120E-06,0.040
-8.110E-06,0.060
-8.100E-06,0.040
-8.090E-06,0.020
-8.080E-06,0.040
-8.070E-06,0.080
-8.060E-06,0.040
-8.050E-06,0.020
-8.040E-06,0.040
-8.030E-06,0.080
-8.020E-06,0.020
-8.010E-06,0.020
-8.000E-06,0.040
-7.990E-06,0.020
-7.980E-06,0.020
-7.970E-06,0.040
-7.960E-06,0.040
-7.950E-06,0.060
-7.940E-06,0.040
-7.930E-06,0.040
-7.920E-06,0.040
-7.910E-06,0.080
-7.900E-06,0.060
-7.890E-06,0.080
-7.880E-06,0.040
-7.870E-06,0.060
-7.860E-06,0.060
-7.850E-06,0.060
-7.840E-06,0.040
-7.830E-06,0.060
-7.820E-06,0.040
-7.810E-06,0.060
-7.800E-06,0.040
-7.790E-06,0.040
-7.780E-06,0.060
-7.770E-06,0.040
-7.760E-06,0.040
-7.750E-06,0.060
-7.740E-06,0.040
-7.730E-06,0.060
-7.720E-06,0.020
-7.710E-06,0.020
-7.700E-06,0.040
-7.690E-06,0.060
-7.680E-06,0.060
-7.670E-06,0.020
-7.660E-06,0.040
-7.650E-06,0.060
-7.640E-06,0.040
-7.630E-06,0.020
-7.620E-06,0.040
-7.610E-06,0.020
-7.600E-06,0.040
-7.590E-06,0.040
-7.580E-06,0.080
-7.570E-06,0.040
-7.560E-06,0.060
-7.550E-06,0.080
-7.540E-06,0.060
-7.530E-06,0.080
-7.520E-06,0.080
-7.510E-06,0.040
-7.500E-06,0.040
-7.490E-06,0.060
-7.480E-06,0.040
-7.470E-06,0.060
-7.460E-06,0.040
-7.450E-06,0.020
-7.440E-06,0.040
-7.430E-06,0.040
-7.420E-06,0.020
-7.410E-06,0.040
-7.400E-06,0.020
-7.390E-06,0.040
-7.380E-06,0.040
-7.370E-06,0.040
-7.360E-06,0.060
-7.350E-06,0.060
-7.340E-06,0.020
-7.330E-06,0.040
-7.320E-06,0.060
-7.310E-06,0.080
-7.300E-06,0.060
-7.290E-06,0.080
-7.280E-06,0.060
-7.270E-06,0.060
-7.260E-06,0.080
-7.250E-06,0.020
-7.240E-06,0.020
-7.230E-06,0.040
-7.220E-06,0.040
-7.210E-06,0.020
-7.200E-06,0.020
-7.190E-06,0.020
-7.180E-06,0.000
-7.170E-06,0.020
-7.160E-06,0.040
-7.150E-06,0.040
-7.140E-06,0.060
-7.130E-06,0.060
-7.120E-06,0.040
-7.110E-06,0.060
-7.100E-06,0.080
-7.090E-06,0.080
-7.080E-06,0.020
-7.070E-06,0.040
-7.060E-06,0.060
-7.050E-06,0.040
-7.040E-06,0.040
-7.030E-06,0.020
-7.020E-06,0.040
-7.010E-06,0.040
-7.000E-06,0.040
-6.990E-06,0.060
-6.980E-06,0.040
-6.970E-06,0.040
-6.960E-06,0.040
-6.950E-06,0.040
-6.940E-06,0.060
-6.930E-06,0.060
-6.920E-06,0.060
-6.910E-06,0.060
-6.900E-06,0.040
-6.890E-06,0.060
-6.880E-06,0.080
-6.870E-06,0.060
-6.860E-06,0.080
-6.850E-06,0.040
-6.840E-06,0.060
-6.830E-06,0.060
-6.820E-06,0.060
-6.810E-06,0.040
-6.800E-06,0.060
-6.790E-06,0.040
-6.780E-06,0.060
-6.770E-06,0.080
-6.760E-06,0.080
-6.750E-06,0.040
-6.740E-06,0.040
-6.730E-06,0.060
-6.720E-06,0.080
-6.710E-06,0.060
-6.700E-06,0.080
-6.690E-06,0.080
-6.680E-06,0.020
-6.670E-06,0.040
-6.660E-06,0.040
-6.650E-06,0.040
-6.640E-06,0.040
-6.630E-06,0.060
-6.620E-06,0.060
-6.610E-06,0.060
-6.600E-06,0.020
-6.590E-06,0.020
-6.580E-06,0.060
-6.570E-06,0.020
-6.560E-06,0.040
-6.550E-06,0.040
-6.540E-06,0.040
-6.530E-06,0.040
-6.520E-06,0.040
-6.510E-06,0.040
-6.500E-06,0.060
-6.490E-06,0.060
-6.480E-06,0.060
-6.470E-06,0.060
-6.460E-06,0.060
-6.450E-06,0.040
-6.440E-06,0.020
-6.430E-06,0.040
-6.420E-06,0.040
-6.410E-06,0.060
-6.400E-06,0.040
-6.390E-06,0.020
-6.380E-06,0.040
-6.370E-06,0.020
-6.360E-06,0.020
-6.350E-06,0.060
-6.340E-06,0.080
-6.330E-06,0.040
-6.320E-06,0.060
-6.310E-06,0.060
-6.300E-06,0.060
-6.290E-06,0.060
-6.280E-06,0.020
-6.270E-06,0.060
-6.260E-06,0.040
-6.250E-06,0.040
-6.240E-06,0.060
-6.230E-06,0.060
-6.220E-06,0.040
-6.210E-06,0.020
-6.200E-06,0.040
-6.190E-06,0.040
-6.180E-06,0.060
-6.170E-06,0.040
-6.160E-06,0.020
-6.150E-06,0.060
-6.140E-06,0.040
-6.130E-06,0.080
-6.120E-06,0.040
-6.110E-06,0.060
-6.100E-06,0.020
-6.090E-06,0.060
-6.080E-06,0.060
-6.070E-06,0.040
-6.060E-06,0.020
-6.050E-06,0.060
-6.040E-06,0.020
-6.030E-06,0.040
-6.020E-06,0.060
-6.010E-06,0.080
-6.000E-06,0.080
-5.990E-06,0.020
-5.980E-06,0.040
-5.970E-06,0.060
-5.960E-06,0.060
-5.950E-06,0.080
-5.940E-06,0.080
-5.930E-06,0.040
-5.920E-06,0.040
-5.910E-06,0.060
-5.900E-06,0.040
-5.890E-06,0.060
-5.880E-06,0.040
-5.870E-06,0.080
-5.860E-06,0.060
-5.850E-06,0.020
-5.840E-06,0.020
-5.830E-06,0.040
-5.820E-06,0.040
-5.810E-06,0.040
-5.800E-06,0.060
-5.790E-06,0.060
-5.780E-06,0.060
-5.770E-06,0.040
-5.760E-06,0.060
-5.750E-06,0.060
-5.740E-06,0.020
-5.730E-06,0.040
-5.720E-06,0.060
-5.710E-06,0.040
-5.700E-06,0.020
-5.690E-06,0.040
-5.680E-06,0.060
-5.670E-06,0.020
-5.660E-06,0.020
-5.650E-06,0.040
-5.640E-06,0.040
-5.630E-06,0.040
-5.620E-06,0.020
-5.610E-06,0.040
-5.600E-06,0.060
-5.590E-06,0.080
-5.580E-06,0.040
-5.570E-06,0.060
-5.560E-06,0.080
-5.550E-06,0.040
-5.540E-06,0.040
-5.530E-06,0.040
-5.520E-06,0.060
-5.510E-06,0.040
-5.500E-06,0.060
-5.490E-06,0.040
-5.480E-06,0.040
-5.470E-06,0.060
-5.460E-06,0.080
-5.450E-06,0.040
-5.440E-06,0.020
-5.430E-06,0.040
-5.420E-06,0.060
-5.410E-06,0.040
-5.400E-06,0.040
-5.390E-06,0.040
-5.380E-06,0.040
-5.370E-06,0.040
-5.360E-06,0.060
-5.350E-06,0.040
-5.340E-06,0.020
-5.330E-06,0.020
-5.320E-06,0.040
-5.310E-06,0.040
-5.300E-06,0.020
-5.290E-06,0.040
-5.280E-06,0.060
-5.270E-06,0.040
-5.260E-06,0.020
-5.250E-06,0.040
-5.240E-06,0.040
-5.230E-06,0.020
-5.220E-06,0.020
-5.210E-06,0.040
-5.200E-06,0.020
-5.190E-06,0.060
-5.180E-06,0.040
-5.170E-06,0.040
-5.160E-06,0.080
-5.150E-06,0.040
-5.140E-06,0.060
-5.130E-06,0.040
-5.120E-06,0.040
-5.110E-06,0.040
-5.100E-06,0.040
-5.090E-06,0.040
-5.080E-06,0.080
-5.070E-06,0.060
-5.060E-06,0.080
-5.050E-06,0.020
-5.040E-06,0.020
-5.030E-06,0.040
-5.020E-06,0.040
-5.010E-06,0.040
-5.000E-06,0.040
-4.990E-06,0.060
-4.980E-06,0.040
-4.970E-06,0.060
-4.960E-06,0.060
-4.950E-06,0.020
-4.940E-06,0.040
-4.930E-06,0.020
-4.920E-06,0.020
-4.910E-06,0.040
-4.900E-06,0.020
-4.890E-06,0.040
-4.880E-06,0.040
-4.870E-06,0.060
-4.860E-06,0.040
-4.850E-06,0.000
-4.840E-06,0.040
-4.830E-06,0.020
-4.820E-06,0.020
-4.810E-06,0.060
-4.800E-06,0.020
-4.790E-06,0.020
-4.780E-06,0.040
-4.770E-06,0.020
-4.760E-06,0.040
-4.750E-06,0.000
-4.740E-06,0.020
-4.730E-06,0.000
-4.720E-06,0.020
-4.710E-06,-0.020
-4.700E-06,0.000
-4.690E-06,0.000
-4.680E-06,0.020
-4.670E-06,-0.020
-4.660E-06,-0.020
-4.650E-06,0.020
-4.640E-06,0.040
-4.630E-06,0.040
-4.620E-06,0.020
-4.610E-06,0.000
-4.600E-06,0.020
-4.590E-06,0.040
-4.580E-06,-0.020
-4.570E-06,0.000
-4.560E-06,0.000
-4.550E-06,-0.020
-4.540E-06,0.000
-4.530E-06,0.000
-4.520E-06,0.000
-4.510E-06,0.000
-4.500E-06,0.000
-4.490E-06,0.020
-4.480E-06,0.000
-4.470E-06,0.020
-4.460E-06,0.020
-4.450E-06,0.020
-4.440E-06,-0.020
-4.430E-06,-0.020
-4.420E-06,0.000
-4.410E-06,-0.020
-4.400E-06,0.000
-4.390E-06,-0.020
-4.380E-06,0.000
-4.370E-06,0.000
-4.360E-06,0.020
-4.350E-06,0.020
-4.340E-06,0.040
-4.330E-06,0.040
-4.320E-06,0.020
-4.310E-06,0.020
-4.300E-06,0.020
-4.290E-06,0.020
-4.280E-06,0.040
-4.270E-06,0.060
-4.260E-06,0.040
-4.250E-06,0.060
-4.240E-06,0.020
-4.230E-06,0.020
-4.220E-06,0.020
-4.210E-06,0.020
-4.200E-06,0.020
-4.190E-06,0.020
-4.180E-06,0.020
-4.170E-06,0.020
-4.160E-06,0.040
-4.150E-06,0.060
-4.140E-06,0.040
-4.130E-06,0.000
-4.120E-06,0.020
-4.110E-06,0.020
-4.100E-06,0.020
-4.090E-06,0.000
-4.080E-06,0.000
-4.070E-06,0.000
-4.060E-06,0.000
-4.050E-06,0.000
-4.040E-06,0.000
-4.030E-06,0.000
-4.020E-06,0.000
-4.010E-06,0.000
-4.000E-06,-0.020
-3.990E-06,-0.020
-3.980E-06,-0.020
-3.970E-06,-0.020
-3.960E-06,0.000
-3.950E-06,0.000
-3.940E-06,0.000
-3.930E-06,0.000
-3.920E-06,-0.020
-3.910E-06,0.000
-3.900E-06,-0.020
-3.890E-06,0.000
-3.880E-06,0.000
-3.870E-06,0.000
-3.860E-06,0.000
-3.850E-06,0.000
-3.840E-06,0.000
-3.830E-06,0.020
-3.820E-06,0.000
-3.810E-06,0.020
-3.800E-06,0.000
-3.790E-06,0.020
-3.780E-06,0.000
-3.770E-06,0.000
-3.760E-06,0.020
-3.750E-06,0.020
-3.740E-06,0.040
-3.730E-06,0.000
-3.720E-06,0.020
-3.710E-06,0.020
-3.700E-06,0.040
-3.690E-06,0.020
-3.680E-06,0.020
-3.670E-06,0.000
-3.660E-06,0.000
-3.650E-06,0.000
-3.640E-06,0.000
-3.630E-06,0.000
-3.620E-06,0.000
-3.610E-06,-0.020
-3.600E-06,0.000
-3.590E-06,-0.020
-3.580E-06,-0.020
-3.570E-06,-0.020
-3.560E-06,-0.040
-3.550E-06,-0.060
-3.540E-06,-0.040
-3.530E-06,-0.040
-3.520E-06,-0.040
-3.510E-06,-0.060
-3.500E-06,-0.040
-3.490E-06,-0.060
-3.480E-06,0.000
-3.470E-06,-0.020
-3.460E-06,-0.020
-3.450E-06,-0.020
-3.440E-06,-0.020
-3.430E-06,-0.020
-3.420E-06,-0.040
-3.410E-06,-0.060
-3.400E-06,-0.040
-3.390E-06,-0.020
-3.380E-06,-0.040
-3.370E-06,-0.040
-3.360E-06,-0.040
-3.350E-06,-0.060
-3.340E-06,-0.020
-3.330E-06,-0.020
-3.320E-06,0.000
-3.310E-06,-0.020
-3.300E-06,-0.020
-3.290E-06,-0.020
-3.280E-06,-0.020
-3.270E-06,0.000
-3.260E-06,0.000
-3.250E-06,-0.020
-3.240E-06,0.000
-3.230E-06,0.000
-3.220E-06,-0.040
-3.210E-06,-0.060
-3.200E-06,-0.040
-3.190E-06,-0.020
-3.180E-06,-0.020
-3.170E-06,-0.040
-3.160E-06,-0.040
-3.150E-06,-0.020
-3.140E-06,-0.040
-3.130E-06,-0.040
-3.120E-06,-0.040
-3.110E-06,-0.060
-3.100E-06,-0.080
-3.090E-06,-0.060
-3.080E-06,-0.060
-3.070E-06,-0.080
-3.060E-06,-0.100
-3.050E-06,-0.100
-3.040E-06,-0.080
-3.030E-06,-0.100
-3.020E-06,-0.060
-3.010E-06,-0.060
-3.000E-06,-0.060
-2.990E-06,-0.080
-2.980E-06,-0.080
-2.970E-06,-0.100
-2.960E-06,-0.100
-2.950E-06,-0.120
-2.940E-06,-0.140
-2.930E-06,-0.160
-2.920E-06,-0.200
-2.910E-06,-0.260
-2.900E-06,-0.260
-2.890E-06,-0.320
-2.880E-06,-0.340
-2.870E-06,-0.340
-2.860E-06,-0.380
-2.850E-06,-0.420
-2.840E-06,-0.400
-2.830E-06,-0.420
-2.820E-06,-0.400
-2.810E-06,-0.420
-2.800E-06,-0.400
-2.790E-06,-0.340
-2.780E-06,-0.340
-2.770E-06,-0.340
-2.760E-06,-0.340
-2.750E-06,-0.320
-2.740E-06,-0.280
-2.730E-06,-0.300
-2.720E-06,-0.280
-2.710E-06,-0.240
-2.700E-06,-0.220
-2.690E-06,-0.200
-2.680E-06,-0.180
-2.670E-06,-0.180
-2.660E-06,-0.180
-2.650E-06,-0.160
-2.640E-06,-0.120
-2.630E-06,-0.100
-2.620E-06,-0.100
-2.610E-06,-0.040
-2.600E-06,-0.060
-2.590E-06,-0.060
-2.580E-06,-0.040
-2.570E-06,0.000
-2.560E-06,-0.020
-2.550E-06,-0.020
-2.540E-06,0.000
-2.530E-06,0.000
-2.520E-06,-0.020
-2.510E-06,0.000
-2.500E-06,-0.020
-2.490E-06,-0.020
-2.480E-06,-0.020
-2.470E-06,0.000
-2.460E-06,-0.040
-2.450E-06,-0.040
-2.440E-06,-0.040
-2.430E-06,-0.100
-2.420E-06,-0.080
-2.410E-06,-0.140
-2.400E-06,-0.140
-2.390E-06,-0.160
-2.380E-06,-0.160
-2.370E-06,-0.160
-2.360E-06,-0.200
-2.350E-06,-0.200
-2.340E-06,-0.220
-2.330E-06,-0.220
-2.320E-06,-0.260
-2.310E-06,-0.260
-2.300E-06,-0.260
-2.290E-06,-0.260
-2.280E-06,-0.280
-2.270E-06,-0.280
-2.260E-06,-0.280
-2.250E-06,-0.340
-2.240E-06,-0.340
-2.230E-06,-0.320
-2.220E-06,-0.340
-2.210E-06,-0.340
-2.200E-06,-0.340
-2.190E-06,-0.360
-2.180E-06,-0.420
-2.170E-06,-0.420
-2.160E-06,-0.460
-2.150E-06,-0.500
-2.140E-06,-0.500
-2.130E-06,-0.480
-2.120E-06,-0.520
-2.110E-06,-0.520
-2.100E-06,-0.540
-2.090E-06,-0.580
-2.080E-06,-0.600
-2.070E-06,-0.580
-2.060E-06,-0.600
-2.050E-06,-0.580
-2.040E-06,-0.600
-2.030E-06,-0.560
-2.020E-06,-0.560
-2.010E-06,-0.580
-2.000E-06,-0.620
-1.990E-06,-0.660
-1.980E-06,-0.660
-1.970E-06,-0.740
-1.960E-06,-0.820
-1.950E-06,-0.840
-1.940E-06,-0.880
-1.930E-06,-0.900
-1.920E-06,-0.880
-1.910E-06,-0.880
-1.900E-06,-0.920
-1.890E-06,-0.920
-1.880E-06,-0.900
-1.870E-06,-0.860
-1.860E-06,-0.860
-1.850E-06,-0.760
-1.840E-06,-0.680
-1.830E-06,-0.600
-1.820E-06,-0.540
-1.810E-06,-0.500
-1.800E-06,-0.500
-1.790E-06,-0.500
-1.780E-06,-0.520
-1.770E-06,-0.520
-1.760E-06,-0.500
-1.750E-06,-0.480
-1.740E-06,-0.480
-1.730E-06,-0.500
-1.720E-06,-0.440
-1.710E-06,-0.500
-1.700E-06,-0.500
-1.690E-06,-0.520
-1.680E-06,-0.560
-1.670E-06,-0.540
-1.660E-06,-0.540
-1.650E-06,-0.560
-1.640E-06,-0.500
-1.630E-06,-0.520
-1.620E-06,-0.500
-1.610E-06,-0.520
-1.600E-06,-0.500
-1.590E-06,-0.500
-1.580E-06,-0.460
-1.570E-06,-0.480
-1.560E-06,-0.520
-1.550E-06,-0.480
-1.540E-06,-0.500
-1.530E-06,-0.460
-1.520E-06,-0.480
-1.510E-06,-0.520
-1.500E-06,-0.520
-1.490E-06,-0.560
-1.480E-06,-0.560
-1.470E-06,-0.580
-1.460E-06,-0.620
-1.450E-06,-0.680
-1.440E-06,-0.700
-1.430E-06,-0.760
-1.420E-06,-0.800
-1.410E-06,-0.840
-1.400E-06,-0.840
-1.390E-06,-0.900
-1.380E-06,-0.880
-1.370E-06,-0.920
-1.360E-06,-0.960
-1.350E-06,-1.000
-1.340E-06,-1.020
-1.330E-06,-1.000
-1.320E-06,-1.040
-1.310E-06,-1.100
-1.300E-06,-1.160
-1.290E-06,-1.220
-1.280E-06,-1.240
-1.270E-06,-1.300
-1.260E-06,-1.320
-1.250E-06,-1.360
-1.240E-06,-1.360
-1.230E-06,-1.400
-1.220E-06,-1.440
-1.210E-06,-1.480
-1.200E-06,-1.520
-1.190E-06,-1.560
-1.180E-06,-1.620
-1.170E-06,-1.700
-1.160E-06,-1.800
-1.150E-06,-1.820
-1.140E-06,-1.860
-1.130E-06,-1.940
-1.120E-06,-2.000
-1.110E-06,-2.000
-1.100E-06,-2.020
-1.090E-06,-2.120
-1.080E-06,-2.200
-1.070E-06,-2.300
-1.060E-06,-2.280
-1.050E-06,-2.300
-1.040E-06,-2.340
-1.030E-06,-2.260
-1.020E-06,-2.380
-1.010E-06,-2.300
-1.000E-06,-2.420
-9.900E-07,-2.420
-9.800E-07,-2.420
-9.700E-07,-2.460
-9.600E-07,-2.380
-9.500E-07,-2.440
-9.400E-07,-2.300
-9.300E-07,-2.200
-9.200E-07,-2.060
-9.100E-07,-1.960
-9.000E-07,-1.900
-8.900E-07,-1.920
-8.800E-07,-1.920
-8.700E-07,-1.880
-8.600E-07,-1.980
-8.500E-07,-2.000
-8.400E-07,-2.120
-8.300E-07,-2.100
-8.200E-07,-2.140
-8.100E-07,-2.140
-8.000E-07,-2.160
-7.900E-07,-2.240
-7.800E-07,-2.400
-7.700E-07,-2.560
-7.600E-07,-2.660
-7.500E-07,-2.660
-7.400E-07,-2.660
-7.300E-07,-2.660
-7.200E-07,-2.660
-7.100E-07,-2.660
-7.000E-07,-2.660
-6.900E-07,-2.660
-6.800E-07,-2.680
-6.700E-07,-2.680
-6.600E-07,-2.660
-6.500E-07,-2.660
-6.400E-07,-2.660
-6.300E-07,-2.660
-6.200E-07,-2.680
-6.100E-07,-2.680
-6.000E-07,-2.680
-5.900E-07,-2.660
-5.800E-07,-2.660
-5.700E-07,-2.660
-5.600E-07,-2.660
-5.500E-07,-2.640
-5.400E-07,-2.660
-5.300E-07,-2.660
-5.200E-07,-2.660
-5.100E-07,-2.660
-5.000E-07,-2.660
-4.900E-07,-2.680
-4.800E-07,-2.680
-4.700E-07,-2.660
-4.600E-07,-2.660
-4.500E-07,-2.640
-4.400E-07,-2.640
-4.300E-07,-2.660
-4.200E-07,-2.660
-4.100E-07,-2.660
-4.000E-07,-2.660
-3.900E-07,-2.660
-3.800E-07,-2.660
-3.700E-07,-2.660
-3.600E-07,-2.660
-3.500E-07,-2.660
-3.400E-07,-2.660
-3.300E-07,-2.660
-3.200E-07,-2.660
-3.100E-07,-2.660
-3.000E-07,-2.640
-2.900E-07,-2.640
-2.800E-07,-2.660
-2.700E-07,-2.660
-2.600E-07,-2.660
-2.500E-07,-2.660
-2.400E-07,-2.660
-2.300E-07,-2.660
-2.200E-07,-2.660
-2.100E-07,-2.660
-2.000E-07,-2.680
-1.900E-07,-2.660
-1.800E-07,-2.660
-1.700E-07,-2.640
-1.600E-07,-2.640
-1.500E-07,-2.640
-1.400E-07,-2.660
-1.300E-07,-2.660
-1.200E-07,-2.660
-1.100E-07,-2.640
-1.000E-07,-2.660
-9.000E-08,-2.660
-8.000E-08,-2.660
-7.000E-08,-2.660
-6.000E-08,-2.660
-5.000E-08,-2.660
-4.000E-08,-2.660
-3.000E-08,-2.680
-2.000E-08,-2.660
-1.000E-08,-2.660
0.000E+00,-2.660
1.000E-08,-2.680
2.000E-08,-2.680
3.000E-08,-2.660
4.000E-08,-2.460
5.000E-08,-1.100
6.000E-08,-0.440
7.000E-08,-0.100
8.000E-08,-0.420
9.000E-08,-0.680
1.000E-07,-0.860
1.100E-07,-1.700
1.200E-07,-1.500
1.300E-07,-1.840
1.400E-07,-2.080
1.500E-07,-1.900
1.600E-07,-2.520
1.700E-07,-2.500
1.800E-07,-2.420
1.900E-07,-2.460
2.000E-07,-2.440
2.100E-07,-2.360
2.200E-07,-2.440
2.300E-07,-2.400
2.400E-07,-2.360
2.500E-07,-2.520
2.600E-07,-2.480
2.700E-07,-2.380
2.800E-07,-2.200
2.900E-07,-2.120
3.000E-07,-1.960
3.100E-07,-1.920
3.200E-07,-1.760
3.300E-07,-1.580
3.400E-07,-1.360
3.500E-07,-1.160
3.600E-07,-0.940
3.700E-07,-0.820
3.800E-07,-0.820
3.900E-07,-0.920
4.000E-07,-1.120
4.100E-07,-1.340
4.200E-07,-1.500
4.300E-07,-1.520
4.400E-07,-1.620
4.500E-07,-1.440
4.600E-07,-1.500
4.700E-07,-1.340
4.800E-07,-1.400
4.900E-07,-1.340
5.000E-07,-1.300
5.100E-07,-1.140
5.200E-07,-0.940
5.300E-07,-0.760
5.400E-07,-0.560
5.500E-07,-0.520
5.600E-07,-0.400
5.700E-07,-0.340
5.800E-07,-0.380
5.900E-07,-0.360
6.000E-07,-0.540
6.100E-07,-0.700
6.200E-07,-0.940
6.300E-07,-0.900
6.400E-07,-0.960
6.500E-07,-0.960
6.600E-07,-1.040
6.700E-07,-1.040
6.800E-07,-1.120
6.900E-07,-1.140
7.000E-07,-1.180
7.100E-07,-1.220
7.200E-07,-1.200
7.300E-07,-1.280
7.400E-07,-1.340
7.500E-07,-1.420
7.600E-07,-1.420
7.700E-07,-1.380
7.800E-07,-1.360
7.900E-07,-1.360
8.000E-07,-1.460
8.100E-07,-1.560
8.200E-07,-1.720
8.300E-07,-2.060
8.400E-07,-2.200
8.500E-07,-2.380
8.600E-07,-1.860
8.700E-07,-2.600
8.800E-07,-2.160
8.900E-07,-2.660
9.000E-07,-2.660
9.100E-07,-2.660
9.200E-07,-2.660
9.300E-07,-2.660
9.400E-07,-2.640
9.500E-07,-2.640
9.600E-07,-2.640
9.700E-07,-2.280
9.800E-07,-2.220
9.900E-07,-1.220
1.000E-06,-1.140
1.010E-06,-0.400
1.020E-06,-0.240
1.030E-06,0.160
1.040E-06,-0.120
1.050E-06,0.000
1.060E-06,-0.200
1.070E-06,-0.600
1.080E-06,-0.520
1.090E-06,-0.800
1.100E-06,-0.980
1.110E-06,-0.960
1.120E-06,-1.200
1.130E-06,-1.420
1.140E-06,-1.760
1.150E-06,-2.340
1.160E-06,-2.440
1.170E-06,-2.620
1.180E-06,-2.660
1.190E-06,-2.660
1.200E-06,-2.680
1.210E-06,-2.680
1.220E-06,-2.620
1.230E-06,-2.260
1.240E-06,-2.100
1.250E-06,-1.740
1.260E-06,-1.540
1.270E-06,-1.220
1.280E-06,-1.140
1.290E-06,-1.100
1.300E-06,-1.220
1.310E-06,-1.200
1.320E-06,-1.240
1.330E-06,-1.160
1.340E-06,-1.140
1.350E-06,-1.100
1.360E-06,-1.040
1.370E-06,-0.900
1.380E-06,-0.780
1.390E-06,-0.680
1.400E-06,-0.540
1.410E-06,-0.440
1.420E-06,-0.380
1.430E-06,-0.420
1.440E-06,-0.520
1.450E-06,-0.560
1.460E-06,-0.640
1.470E-06,-0.740
1.480E-06,-0.840
1.490E-06,-0.960
1.500E-06,-0.980
1.510E-06,-0.960
1.520E-06,-0.920
1.530E-06,-0.940
1.540E-06,-0.860
1.550E-06,-0.800
1.560E-06,-0.600
1.570E-06,-0.360
1.580E-06,-0.180
1.590E-06,0.000
1.600E-06,0.080
1.610E-06,0.120
1.620E-06,0.200
1.630E-06,0.260
1.640E-06,0.360
1.650E-06,0.420
1.660E-06,0.420
1.670E-06,0.020
1.680E-06,-0.140
1.690E-06,-0.660
1.700E-06,-0.860
1.710E-06,-0.980
1.720E-06,-0.960
1.730E-06,-0.980
1.740E-06,-0.980
1.750E-06,-1.200
1.760E-06,-1.280
1.770E-06,-1.240
1.780E-06,-1.320
1.790E-06,-1.480
1.800E-06,-1.720
1.810E-06,-2.040
1.820E-06,-2.140
1.830E-06,-2.040
1.840E-06,-1.920
1.850E-06,-1.960
1.860E-06,-2.200
1.870E-06,-2.380
1.880E-06,-2.520
1.890E-06,-2.480
1.900E-06,-2.660
1.910E-06,-2.660
1.920E-06,-2.660
1.930E-06,-2.660
1.940E-06,-2.640
1.950E-06,-2.640
1.960E-06,-2.660
1.970E-06,-2.660
1.980E-06,-2.660
1.990E-06,-2.660
2.000E-06,-2.660
2.010E-06,-2.660
2.020E-06,-2.660
2.030E-06,-2.660
2.040E-06,-2.660
2.050E-06,-2.660
2.060E-06,-2.660
2.070E-06,-2.660
2.080E-06,-2.640
2.090E-06,-2.660
2.100E-06,-2.660
2.110E-06,-2.660
2.120E-06,-2.660
2.130E-06,-2.660
2.140E-06,-2.640
2.150E-06,-2.660
2.160E-06,-2.660
2.170E-06,-2.680
2.180E-06,-2.680
2.190E-06,-2.660
2.200E-06,-2.660
2.210E-06,-2.660
2.220E-06,-2.660
2.230E-06,-2.660
2.240E-06,-2.660
2.250E-06,-2.500
2.260E-06,-2.280
2.270E-06,-2.040
2.280E-06,-1.860
2.290E-06,-1.740
2.300E-06,-1.600
2.310E-06,-1.480
2.320E-06,-1.420
2.330E-06,-1.320
2.340E-06,-1.200
2.350E-06,-1.120
2.360E-06,-1.020
2.370E-06,-0.880
2.380E-06,-0.760
2.390E-06,-0.600
2.400E-06,-0.420
2.410E-06,-0.320
2.420E-06,-0.180
2.430E-06,-0.080
2.440E-06,0.000
2.450E-06,0.080
2.460E-06,0.140
2.470E-06,0.160
2.480E-06,0.140
2.490E-06,0.180
2.500E-06,0.120
2.510E-06,0.100
2.520E-06,0.080
2.530E-06,0.040
2.540E-06,-0.020
2.550E-06,0.000
2.560E-06,0.000
2.570E-06,0.020
2.580E-06,0.020
2.590E-06,0.080
2.600E-06,0.120
2.610E-06,0.160
2.620E-06,0.160
2.630E-06,0.160
2.640E-06,0.180
2.650E-06,0.200
2.660E-06,0.180
2.670E-06,0.200
2.680E-06,0.200
2.690E-06,0.260
2.700E-06,0.300
2.710E-06,0.400
2.720E-06,0.400
2.730E-06,0.420
2.740E-06,0.480
2.750E-06,0.520
2.760E-06,0.600
2.770E-06,0.680
2.780E-06,0.760
2.790E-06,0.740
2.800E-06,0.780
2.810E-06,0.820
2.820E-06,0.860
2.830E-06,0.860
2.840E-06,0.800
2.850E-06,0.780
2.860E-06,0.740
2.870E-06,0.740
2.880E-06,0.640
2.890E-06,0.580
2.900E-06,0.480
2.910E-06,0.340
2.920E-06,0.260
2.930E-06,0.120
2.940E-06,0.060
2.950E-06,-0.020
2.960E-06,-0.080
2.970E-06,-0.160
2.980E-06,-0.180
2.990E-06,-0.200
3.000E-06,-0.220
3.010E-06,-0.180
3.020E-06,-0.160
3.030E-06,-0.140
3.040E-06,-0.120
3.050E-06,-0.060
3.060E-06,0.020
3.070E-06,0.040
3.080E-06,0.120
3.090E-06,0.200
3.100E-06,0.260
3.110E-06,0.340
3.120E-06,0.420
3.130E-06,0.560
3.140E-06,0.700
