mediciones/Mediciones filtradas (saque las feas)/5-15/10/WaveData47289.csv

#timebase=2000000(ps)
,#voltbase=100000(mv/100)
#size=4000
-8.400E-06,0.004
-8.390E-06,0.004
-8.380E-06,0.004
-8.370E-06,0.000
-8.360E-06,0.004
-8.350E-06,0.008
-8.340E-06,0.004
-8.330E-06,0.000
-8.320E-06,-0.004
-8.310E-06,0.004
-8.300E-06,0.004
-8.290E-06,0.004
-8.280E-06,0.004
-8.270E-06,0.000
-8.260E-06,0.000
-8.250E-06,0.000
-8.240E-06,0.000
-8.230E-06,0.008
-8.220E-06,0.000
-8.210E-06,0.004
-8.200E-06,0.004
-8.190E-06,0.004
-8.180E-06,0.000
-8.170E-06,0.004
-8.160E-06,0.004
-8.150E-06,-0.004
-8.140E-06,0.004
-8.130E-06,0.000
-8.120E-06,0.000
-8.110E-06,0.004
-8.100E-06,-0.004
-8.090E-06,0.004
-8.080E-06,0.004
-8.070E-06,0.004
-8.060E-06,0.004
-8.050E-06,0.000
-8.040E-06,0.000
-8.030E-06,0.004
-8.020E-06,0.004
-8.010E-06,0.004
-8.000E-06,0.004
-7.990E-06,0.004
-7.980E-06,0.004
-7.970E-06,0.004
-7.960E-06,0.004
-7.950E-06,0.004
-7.940E-06,0.000
-7.930E-06,0.004
-7.920E-06,0.004
-7.910E-06,0.004
-7.900E-06,0.000
-7.890E-06,0.004
-7.880E-06,0.008
-7.870E-06,0.008
-7.860E-06,0.008
-7.850E-06,0.008
-7.840E-06,0.000
-7.830E-06,0.004
-7.820E-06,0.004
-7.810E-06,0.004
-7.800E-06,0.004
-7.790E-06,0.004
-7.780E-06,0.004
-7.770E-06,0.004
-7.760E-06,0.000
-7.750E-06,0.000
-7.740E-06,0.000
-7.730E-06,-0.004
-7.720E-06,0.004
-7.710E-06,0.000
-7.700E-06,0.004
-7.690E-06,0.004
-7.680E-06,0.004
-7.670E-06,-0.004
-7.660E-06,0.004
-7.650E-06,0.004
-7.640E-06,0.004
-7.630E-06,0.000
-7.620E-06,0.000
-7.610E-06,0.004
-7.600E-06,0.004
-7.590E-06,0.004
-7.580E-06,0.000
-7.570E-06,0.004
-7.560E-06,0.000
-7.550E-06,0.004
-7.540E-06,0.004
-7.530E-06,0.004
-7.520E-06,0.004
-7.510E-06,0.008
-7.500E-06,0.008
-7.490E-06,0.000
-7.480E-06,0.000
-7.470E-06,0.004
-7.460E-06,0.008
-7.450E-06,0.004
-7.440E-06,0.000
-7.430E-06,0.000
-7.420E-06,0.004
-7.410E-06,0.008
-7.400E-06,-0.004
-7.390E-06,0.000
-7.380E-06,0.004
-7.370E-06,0.004
-7.360E-06,0.000
-7.350E-06,0.004
-7.340E-06,0.000
-7.330E-06,0.004
-7.320E-06,0.004
-7.310E-06,0.004
-7.300E-06,0.004
-7.290E-06,0.008
-7.280E-06,0.008
-7.270E-06,0.000
-7.260E-06,0.004
-7.250E-06,0.004
-7.240E-06,0.004
-7.230E-06,0.000
-7.220E-06,0.004
-7.210E-06,0.004
-7.200E-06,0.000
-7.190E-06,0.004
-7.180E-06,0.004
-7.170E-06,0.004
-7.160E-06,0.004
-7.150E-06,0.000
-7.140E-06,0.004
-7.130E-06,0.000
-7.120E-06,0.000
-7.110E-06,0.004
-7.100E-06,0.004
-7.090E-06,0.004
-7.080E-06,0.004
-7.070E-06,0.000
-7.060E-06,0.004
-7.050E-06,0.008
-7.040E-06,0.000
-7.030E-06,0.004
-7.020E-06,0.004
-7.010E-06,0.000
-7.000E-06,0.008
-6.990E-06,0.004
-6.980E-06,0.000
-6.970E-06,0.004
-6.960E-06,0.000
-6.950E-06,0.004
-6.940E-06,0.004
-6.930E-06,0.004
-6.920E-06,0.004
-6.910E-06,0.000
-6.900E-06,0.004
-6.890E-06,0.000
-6.880E-06,0.000
-6.870E-06,0.000
-6.860E-06,-0.004
-6.850E-06,0.004
-6.840E-06,0.000
-6.830E-06,0.004
-6.820E-06,0.008
-6.810E-06,0.000
-6.800E-06,0.004
-6.790E-06,0.004
-6.780E-06,0.004
-6.770E-06,0.000
-6.760E-06,0.004
-6.750E-06,0.000
-6.740E-06,0.000
-6.730E-06,0.004
-6.720E-06,0.008
-6.710E-06,0.000
-6.700E-06,0.000
-6.690E-06,0.004
-6.680E-06,0.000
-6.670E-06,0.004
-6.660E-06,0.008
-6.650E-06,-0.004
-6.640E-06,0.000
-6.630E-06,0.004
-6.620E-06,0.004
-6.610E-06,0.004
-6.600E-06,0.004
-6.590E-06,0.008
-6.580E-06,0.000
-6.570E-06,0.000
-6.560E-06,0.004
-6.550E-06,-0.004
-6.540E-06,0.000
-6.530E-06,0.004
-6.520E-06,0.000
-6.510E-06,0.004
-6.500E-06,0.004
-6.490E-06,0.004
-6.480E-06,0.008
-6.470E-06,0.000
-6.460E-06,0.000
-6.450E-06,0.004
-6.440E-06,0.000
-6.430E-06,0.000
-6.420E-06,0.004
-6.410E-06,0.004
-6.400E-06,0.004
-6.390E-06,0.004
-6.380E-06,0.004
-6.370E-06,0.004
-6.360E-06,0.004
-6.350E-06,-0.004
-6.340E-06,0.004
-6.330E-06,-0.004
-6.320E-06,0.000
-6.310E-06,0.004
-6.300E-06,0.008
-6.290E-06,0.000
-6.280E-06,0.004
-6.270E-06,0.000
-6.260E-06,0.004
-6.250E-06,0.004
-6.240E-06,0.004
-6.230E-06,0.004
-6.220E-06,0.000
-6.210E-06,0.000
-6.200E-06,0.004
-6.190E-06,0.000
-6.180E-06,0.004
-6.170E-06,0.000
-6.160E-06,0.000
-6.150E-06,0.004
-6.140E-06,0.000
-6.130E-06,0.004
-6.120E-06,0.004
-6.110E-06,0.004
-6.100E-06,0.004
-6.090E-06,0.004
-6.080E-06,0.008
-6.070E-06,0.008
-6.060E-06,0.000
-6.050E-06,-0.004
-6.040E-06,0.004
-6.030E-06,0.000
-6.020E-06,0.004
-6.010E-06,0.004
-6.000E-06,0.000
-5.990E-06,0.004
-5.980E-06,0.000
-5.970E-06,0.004
-5.960E-06,0.004
-5.950E-06,0.008
-5.940E-06,0.000
-5.930E-06,0.000
-5.920E-06,0.004
-5.910E-06,0.004
-5.900E-06,0.004
-5.890E-06,0.000
-5.880E-06,0.004
-5.870E-06,0.004
-5.860E-06,0.000
-5.850E-06,0.004
-5.840E-06,0.004
-5.830E-06,0.000
-5.820E-06,0.004
-5.810E-06,0.004
-5.800E-06,0.000
-5.790E-06,0.004
-5.780E-06,0.004
-5.770E-06,0.004
-5.760E-06,0.004
-5.750E-06,0.004
-5.740E-06,0.004
-5.730E-06,0.000
-5.720E-06,0.004
-5.710E-06,0.000
-5.700E-06,0.000
-5.690E-06,0.004
-5.680E-06,0.004
-5.670E-06,0.004
-5.660E-06,0.004
-5.650E-06,0.000
-5.640E-06,0.000
-5.630E-06,0.004
-5.620E-06,0.004
-5.610E-06,0.004
-5.600E-06,0.000
-5.590E-06,0.004
-5.580E-06,0.004
-5.570E-06,0.004
-5.560E-06,0.000
-5.550E-06,0.004
-5.540E-06,0.000
-5.530E-06,0.000
-5.520E-06,0.004
-5.510E-06,0.004
-5.500E-06,0.008
-5.490E-06,0.000
-5.480E-06,0.004
-5.470E-06,0.004
-5.460E-06,0.004
-5.450E-06,0.004
-5.440E-06,0.000
-5.430E-06,0.000
-5.420E-06,0.004
-5.410E-06,0.000
-5.400E-06,0.004
-5.390E-06,0.004
-5.380E-06,0.000
-5.370E-06,0.004
-5.360E-06,0.000
-5.350E-06,0.004
-5.340E-06,0.004
-5.330E-06,0.004
-5.320E-06,0.004
-5.310E-06,0.008
-5.300E-06,0.000
-5.290E-06,0.000
-5.280E-06,0.004
-5.270E-06,0.004
-5.260E-06,0.004
-5.250E-06,0.004
-5.240E-06,0.004
-5.230E-06,0.004
-5.220E-06,0.000
-5.210E-06,0.000
-5.200E-06,0.004
-5.190E-06,0.004
-5.180E-06,0.004
-5.170E-06,0.004
-5.160E-06,0.004
-5.150E-06,0.004
-5.140E-06,0.004
-5.130E-06,0.004
-5.120E-06,0.004
-5.110E-06,0.004
-5.100E-06,0.008
-5.090E-06,0.000
-5.080E-06,0.000
-5.070E-06,0.004
-5.060E-06,-0.004
-5.050E-06,0.004
-5.040E-06,0.008
-5.030E-06,0.000
-5.020E-06,0.004
-5.010E-06,0.004
-5.000E-06,0.004
-4.990E-06,0.000
-4.980E-06,0.004
-4.970E-06,0.004
-4.960E-06,0.004
-4.950E-06,0.004
-4.940E-06,0.004
-4.930E-06,0.000
-4.920E-06,0.000
-4.910E-06,0.004
-4.900E-06,-0.004
-4.890E-06,0.004
-4.880E-06,0.008
-4.870E-06,0.008
-4.860E-06,0.004
-4.850E-06,0.000
-4.840E-06,0.000
-4.830E-06,0.004
-4.820E-06,0.000
-4.810E-06,0.004
-4.800E-06,0.008
-4.790E-06,0.008
-4.780E-06,0.008
-4.770E-06,0.000
-4.760E-06,0.004
-4.750E-06,0.000
-4.740E-06,0.004
-4.730E-06,0.000
-4.720E-06,0.004
-4.710E-06,0.004
-4.700E-06,0.004
-4.690E-06,0.000
-4.680E-06,0.004
-4.670E-06,0.004
-4.660E-06,0.004
-4.650E-06,0.008
-4.640E-06,0.008
-4.630E-06,0.000
-4.620E-06,0.004
-4.610E-06,0.004
-4.600E-06,0.004
-4.590E-06,0.000
-4.580E-06,0.004
-4.570E-06,0.004
-4.560E-06,0.004
-4.550E-06,0.004
-4.540E-06,0.004
-4.530E-06,0.004
-4.520E-06,0.000
-4.510E-06,0.000
-4.500E-06,0.004
-4.490E-06,0.000
-4.480E-06,0.000
-4.470E-06,0.000
-4.460E-06,0.004
-4.450E-06,0.000
-4.440E-06,0.000
-4.430E-06,0.004
-4.420E-06,0.004
-4.410E-06,0.004
-4.400E-06,0.008
-4.390E-06,0.008
-4.380E-06,0.008
-4.370E-06,0.008
-4.360E-06,0.008
-4.350E-06,0.008
-4.340E-06,0.008
-4.330E-06,0.004
-4.320E-06,-0.004
-4.310E-06,0.000
-4.300E-06,0.004
-4.290E-06,0.000
-4.280E-06,0.004
-4.270E-06,0.000
-4.260E-06,0.004
-4.250E-06,0.004
-4.240E-06,0.004
-4.230E-06,0.004
-4.220E-06,0.000
-4.210E-06,0.000
-4.200E-06,0.004
-4.190E-06,0.004
-4.180E-06,0.004
-4.170E-06,0.000
-4.160E-06,0.008
-4.150E-06,0.008
-4.140E-06,0.008
-4.130E-06,0.008
-4.120E-06,0.008
-4.110E-06,0.000
-4.100E-06,-0.004
-4.090E-06,0.004
-4.080E-06,0.000
-4.070E-06,0.004
-4.060E-06,0.000
-4.050E-06,0.004
-4.040E-06,0.008
-4.030E-06,0.008
-4.020E-06,0.000
-4.010E-06,0.004
-4.000E-06,0.004
-3.990E-06,0.004
-3.980E-06,0.004
-3.970E-06,0.004
-3.960E-06,0.004
-3.950E-06,0.004
-3.940E-06,0.004
-3.930E-06,0.000
-3.920E-06,0.004
-3.910E-06,0.004
-3.900E-06,0.004
-3.890E-06,0.004
-3.880E-06,0.008
-3.870E-06,0.000
-3.860E-06,0.004
-3.850E-06,0.000
-3.840E-06,0.000
-3.830E-06,0.000
-3.820E-06,0.008
-3.810E-06,0.036
-3.800E-06,0.100
-3.790E-06,0.144
-3.780E-06,0.152
-3.770E-06,0.072
-3.760E-06,-0.092
-3.750E-06,-0.256
-3.740E-06,-0.288
-3.730E-06,-0.176
-3.720E-06,0.088
-3.710E-06,0.272
-3.700E-06,0.332
-3.690E-06,0.192
-3.680E-06,-0.072
-3.670E-06,-0.248
-3.660E-06,-0.268
-3.650E-06,-0.128
-3.640E-06,0.096
-3.630E-06,0.240
-3.620E-06,0.240
-3.610E-06,0.128
-3.600E-06,-0.052
-3.590E-06,-0.188
-3.580E-06,-0.208
-3.570E-06,-0.124
-3.560E-06,-0.004
-3.550E-06,0.112
-3.540E-06,0.160
-3.530E-06,0.152
-3.520E-06,0.068
-3.510E-06,-0.028
-3.500E-06,-0.120
-3.490E-06,-0.128
-3.480E-06,-0.084
-3.470E-06,0.024
-3.460E-06,0.124
-3.450E-06,0.140
-3.440E-06,0.100
-3.430E-06,-0.008
-3.420E-06,-0.120
-3.410E-06,-0.168
-3.400E-06,-0.124
-3.390E-06,-0.028
-3.380E-06,0.076
-3.370E-06,0.136
-3.360E-06,0.128
-3.350E-06,0.056
-3.340E-06,-0.032
-3.330E-06,-0.084
-3.320E-06,-0.080
-3.310E-06,-0.020
-3.300E-06,0.036
-3.290E-06,0.088
-3.280E-06,0.084
-3.270E-06,0.036
-3.260E-06,-0.028
-3.250E-06,-0.072
-3.240E-06,-0.072
-3.230E-06,-0.040
-3.220E-06,0.012
-3.210E-06,0.052
-3.200E-06,0.068
-3.190E-06,0.056
-3.180E-06,0.024
-3.170E-06,0.004
-3.160E-06,-0.016
-3.150E-06,-0.012
-3.140E-06,0.004
-3.130E-06,0.012
-3.120E-06,0.024
-3.110E-06,0.004
-3.100E-06,0.004
-3.090E-06,-0.004
-3.080E-06,-0.004
-3.070E-06,-0.004
-3.060E-06,-0.020
-3.050E-06,-0.020
-3.040E-06,-0.008
-3.030E-06,0.012
-3.020E-06,0.032
-3.010E-06,0.028
-3.000E-06,0.020
-2.990E-06,-0.004
-2.980E-06,-0.012
-2.970E-06,-0.004
-2.960E-06,0.004
-2.950E-06,0.012
-2.940E-06,0.024
-2.930E-06,0.008
-2.920E-06,0.000
-2.910E-06,-0.012
-2.900E-06,-0.008
-2.890E-06,0.000
-2.880E-06,0.004
-2.870E-06,0.004
-2.860E-06,0.008
-2.850E-06,0.008
-2.840E-06,0.008
-2.830E-06,0.008
-2.820E-06,0.008
-2.810E-06,0.008
-2.800E-06,0.000
-2.790E-06,0.000
-2.780E-06,0.000
-2.770E-06,0.004
-2.760E-06,0.020
-2.750E-06,0.020
-2.740E-06,0.024
-2.730E-06,0.040
-2.720E-06,0.036
-2.710E-06,-0.020
-2.700E-06,-0.056
-2.690E-06,-0.064
-2.680E-06,-0.056
-2.670E-06,0.012
-2.660E-06,0.072
-2.650E-06,0.052
-2.640E-06,0.016
-2.630E-06,-0.004
-2.620E-06,-0.012
-2.610E-06,-0.028
-2.600E-06,-0.016
-2.590E-06,-0.008
-2.580E-06,0.016
-2.570E-06,0.024
-2.560E-06,0.020
-2.550E-06,0.012
-2.540E-06,-0.004
-2.530E-06,-0.004
-2.520E-06,-0.024
-2.510E-06,-0.016
-2.500E-06,-0.008
-2.490E-06,0.008
-2.480E-06,0.028
-2.470E-06,0.036
-2.460E-06,0.012
-2.450E-06,-0.004
-2.440E-06,-0.028
-2.430E-06,-0.020
-2.420E-06,-0.004
-2.410E-06,0.016
-2.400E-06,0.032
-2.390E-06,0.024
-2.380E-06,0.012
-2.370E-06,-0.008
-2.360E-06,-0.008
-2.350E-06,-0.004
-2.340E-06,0.008
-2.330E-06,0.016
-2.320E-06,0.028
-2.310E-06,0.032
-2.300E-06,0.032
-2.290E-06,0.028
-2.280E-06,0.016
-2.270E-06,0.020
-2.260E-06,0.020
-2.250E-06,0.036
-2.240E-06,0.056
-2.230E-06,0.068
-2.220E-06,0.080
-2.210E-06,0.080
-2.200E-06,0.076
-2.190E-06,0.060
-2.180E-06,-0.040
-2.170E-06,-0.092
-2.160E-06,-0.132
-2.150E-06,-0.120
-2.140E-06,-0.004
-2.130E-06,0.124
-2.120E-06,0.156
-2.110E-06,0.092
-2.100E-06,-0.008
-2.090E-06,-0.080
-2.080E-06,-0.104
-2.070E-06,-0.120
-2.060E-06,-0.052
-2.050E-06,-0.032
-2.040E-06,0.000
-2.030E-06,0.036
-2.020E-06,0.064
-2.010E-06,0.068
-2.000E-06,0.000
-1.990E-06,-0.060
-1.980E-06,-0.088
-1.970E-06,-0.044
-1.960E-06,0.012
-1.950E-06,0.064
-1.940E-06,0.068
-1.930E-06,0.032
-1.920E-06,-0.004
-1.910E-06,-0.044
-1.900E-06,-0.060
-1.890E-06,-0.040
-1.880E-06,0.016
-1.870E-06,0.060
-1.860E-06,0.080
-1.850E-06,0.040
-1.840E-06,-0.012
-1.830E-06,-0.060
-1.820E-06,-0.060
-1.810E-06,-0.040
-1.800E-06,0.000
-1.790E-06,0.040
-1.780E-06,0.060
-1.770E-06,0.056
-1.760E-06,0.024
-1.750E-06,-0.008
-1.740E-06,-0.056
-1.730E-06,-0.060
-1.720E-06,-0.044
-1.710E-06,0.004
-1.700E-06,0.048
-1.690E-06,0.072
-1.680E-06,0.052
-1.670E-06,0.004
-1.660E-06,-0.040
-1.650E-06,-0.064
-1.640E-06,-0.036
-1.630E-06,0.016
-1.620E-06,0.056
-1.610E-06,0.064
-1.600E-06,0.044
-1.590E-06,0.004
-1.580E-06,-0.020
-1.570E-06,-0.028
-1.560E-06,-0.008
-1.550E-06,0.020
-1.540E-06,0.048
-1.530E-06,0.056
-1.520E-06,0.040
-1.510E-06,0.036
-1.500E-06,0.016
-1.490E-06,0.008
-1.480E-06,0.000
-1.470E-06,0.004
-1.460E-06,0.020
-1.450E-06,0.032
-1.440E-06,0.056
-1.430E-06,0.052
-1.420E-06,0.036
-1.410E-06,0.028
-1.400E-06,0.024
-1.390E-06,0.028
-1.380E-06,0.052
-1.370E-06,0.068
-1.360E-06,0.068
-1.350E-06,0.044
-1.340E-06,0.028
-1.330E-06,0.020
-1.320E-06,0.028
-1.310E-06,0.036
-1.300E-06,0.052
-1.290E-06,0.076
-1.280E-06,0.088
-1.270E-06,0.104
-1.260E-06,0.076
-1.250E-06,-0.020
-1.240E-06,-0.148
-1.230E-06,-0.172
-1.220E-06,-0.084
-1.210E-06,-0.036
-1.200E-06,-0.036
-1.190E-06,-0.200
-1.180E-06,-0.260
-1.170E-06,-0.276
-1.160E-06,-0.100
-1.150E-06,0.120
-1.140E-06,0.256
-1.130E-06,0.216
-1.120E-06,0.008
-1.110E-06,-0.140
-1.100E-06,-0.228
-1.090E-06,-0.116
-1.080E-06,0.032
-1.070E-06,0.192
-1.060E-06,0.188
-1.050E-06,0.104
-1.040E-06,-0.032
-1.030E-06,-0.124
-1.020E-06,-0.120
-1.010E-06,-0.044
-1.000E-06,0.060
-9.900E-07,0.108
-9.800E-07,0.108
-9.700E-07,0.048
-9.600E-07,0.000
-9.500E-07,-0.044
-9.400E-07,-0.056
-9.300E-07,-0.036
-9.200E-07,0.008
-9.100E-07,0.044
-9.000E-07,0.048
-8.900E-07,0.036
-8.800E-07,0.024
-8.700E-07,-0.004
-8.600E-07,-0.036
-8.500E-07,-0.036
-8.400E-07,-0.016
-8.300E-07,0.024
-8.200E-07,0.064
-8.100E-07,0.080
-8.000E-07,0.060
-7.900E-07,0.012
-7.800E-07,-0.020
-7.700E-07,-0.016
-7.600E-07,0.032
-7.500E-07,0.100
-7.400E-07,0.152
-7.300E-07,0.164
-7.200E-07,0.140
-7.100E-07,0.108
-7.000E-07,0.084
-6.900E-07,0.080
-6.800E-07,0.108
-6.700E-07,0.128
-6.600E-07,0.136
-6.500E-07,0.132
-6.400E-07,0.128
-6.300E-07,0.108
-6.200E-07,0.096
-6.100E-07,0.096
-6.000E-07,0.004
-5.900E-07,-0.140
-5.800E-07,-0.336
-5.700E-07,-0.468
-5.600E-07,-0.444
-5.500E-07,-0.288
-5.400E-07,-0.020
-5.300E-07,0.176
-5.200E-07,0.240
-5.100E-07,0.088
-5.000E-07,-0.104
-4.900E-07,-0.212
-4.800E-07,-0.184
-4.700E-07,-0.072
-4.600E-07,0.092
-4.500E-07,0.244
-4.400E-07,0.256
-4.300E-07,0.148
-4.200E-07,0.008
-4.100E-07,-0.068
-4.000E-07,-0.076
-3.900E-07,-0.072
-3.800E-07,0.012
-3.700E-07,-0.004
-3.600E-07,-0.080
-3.500E-07,-0.184
-3.400E-07,-0.080
-3.300E-07,-0.012
-3.200E-07,0.028
-3.100E-07,0.056
-3.000E-07,0.060
-2.900E-07,0.048
-2.800E-07,-0.020
-2.700E-07,-0.056
-2.600E-07,-0.076
-2.500E-07,-0.012
-2.400E-07,0.044
-2.300E-07,0.100
-2.200E-07,0.088
-2.100E-07,0.032
-2.000E-07,-0.020
-1.900E-07,-0.032
-1.800E-07,-0.004
-1.700E-07,0.040
-1.600E-07,0.092
-1.500E-07,0.120
-1.400E-07,0.144
-1.300E-07,0.120
-1.200E-07,0.096
-1.100E-07,0.072
-1.000E-07,0.088
-9.000E-08,0.100
-8.000E-08,0.128
-7.000E-08,0.136
-6.000E-08,0.128
-5.000E-08,0.152
-4.000E-08,-0.512
-3.000E-08,-0.512
-2.000E-08,-0.508
-1.000E-08,0.072
0.000E+00,0.536
1.000E-08,0.536
2.000E-08,0.540
3.000E-08,0.276
4.000E-08,-0.508
5.000E-08,-0.508
6.000E-08,-0.512
7.000E-08,-0.208
8.000E-08,0.540
9.000E-08,0.540
1.000E-07,0.540
1.100E-07,0.112
1.200E-07,-0.512
1.300E-07,-0.508
1.400E-07,-0.512
1.500E-07,-0.140
1.600E-07,0.540
1.700E-07,0.540
1.800E-07,0.540
1.900E-07,0.184
2.000E-07,-0.512
2.100E-07,-0.512
2.200E-07,-0.512
2.300E-07,-0.232
2.400E-07,0.376
2.500E-07,0.540
2.600E-07,0.540
2.700E-07,0.176
2.800E-07,-0.264
2.900E-07,-0.512
3.000E-07,-0.448
3.100E-07,-0.156
3.200E-07,0.200
3.300E-07,0.408
3.400E-07,0.376
3.500E-07,0.172
3.600E-07,-0.104
3.700E-07,-0.268
3.800E-07,-0.304
3.900E-07,-0.140
4.000E-07,0.052
4.100E-07,0.224
4.200E-07,0.244
4.300E-07,0.156
4.400E-07,0.012
4.500E-07,-0.084
4.600E-07,-0.076
4.700E-07,-0.004
4.800E-07,0.036
4.900E-07,-0.024
5.000E-07,-0.084
5.100E-07,-0.100
5.200E-07,0.004
5.300E-07,0.064
5.400E-07,0.068
5.500E-07,0.048
5.600E-07,-0.024
5.700E-07,-0.068
5.800E-07,-0.068
5.900E-07,-0.040
6.000E-07,0.008
6.100E-07,0.072
6.200E-07,0.104
6.300E-07,0.064
6.400E-07,0.000
6.500E-07,-0.056
6.600E-07,-0.080
6.700E-07,-0.040
6.800E-07,0.020
6.900E-07,0.092
7.000E-07,0.144
7.100E-07,0.140
7.200E-07,0.112
7.300E-07,0.024
7.400E-07,-0.088
7.500E-07,-0.176
7.600E-07,-0.204
7.700E-07,-0.084
7.800E-07,0.108
7.900E-07,0.268
8.000E-07,0.216
8.100E-07,0.012
8.200E-07,-0.152
8.300E-07,-0.180
8.400E-07,-0.072
8.500E-07,0.088
8.600E-07,0.160
8.700E-07,0.024
8.800E-07,-0.092
8.900E-07,-0.176
9.000E-07,-0.200
9.100E-07,-0.088
9.200E-07,0.056
9.300E-07,0.196
9.400E-07,0.196
9.500E-07,0.080
9.600E-07,-0.068
9.700E-07,-0.148
9.800E-07,-0.128
9.900E-07,0.008
1.000E-06,0.108
1.010E-06,0.128
1.020E-06,0.084
1.030E-06,0.012
1.040E-06,-0.060
1.050E-06,-0.112
1.060E-06,-0.104
1.070E-06,-0.056
1.080E-06,0.032
1.090E-06,0.096
1.100E-06,0.108
1.110E-06,0.052
1.120E-06,-0.036
1.130E-06,-0.108
1.140E-06,-0.108
1.150E-06,-0.044
1.160E-06,0.048
1.170E-06,0.120
1.180E-06,0.128
1.190E-06,0.076
1.200E-06,-0.020
1.210E-06,-0.084
1.220E-06,-0.104
1.230E-06,-0.052
1.240E-06,0.028
1.250E-06,0.096
1.260E-06,0.124
1.270E-06,0.092
1.280E-06,0.024
1.290E-06,-0.048
1.300E-06,-0.068
1.310E-06,-0.044
1.320E-06,0.028
1.330E-06,0.096
1.340E-06,0.144
1.350E-06,0.128
1.360E-06,0.076
1.370E-06,0.028
1.380E-06,0.000
1.390E-06,0.020
1.400E-06,0.064
1.410E-06,0.124
1.420E-06,0.152
1.430E-06,0.128
1.440E-06,0.092
1.450E-06,0.052
1.460E-06,-0.004
1.470E-06,-0.052
1.480E-06,-0.056
1.490E-06,-0.084
1.500E-06,-0.036
1.510E-06,-0.004
1.520E-06,0.092
1.530E-06,0.116
1.540E-06,0.080
1.550E-06,-0.276
1.560E-06,-0.480
1.570E-06,-0.512
1.580E-06,-0.348
1.590E-06,0.192
1.600E-06,0.540
1.610E-06,0.520
1.620E-06,0.028
1.630E-06,-0.336
1.640E-06,-0.508
1.650E-06,-0.232
1.660E-06,0.056
1.670E-06,0.336
1.680E-06,0.336
1.690E-06,0.184
1.700E-06,-0.104
1.710E-06,-0.292
1.720E-06,-0.248
1.730E-06,-0.100
1.740E-06,0.108
1.750E-06,0.204
1.760E-06,0.220
1.770E-06,0.064
1.780E-06,-0.052
1.790E-06,-0.176
1.800E-06,-0.140
1.810E-06,-0.032
1.820E-06,0.120
1.830E-06,0.204
1.840E-06,0.168
1.850E-06,0.056
1.860E-06,-0.088
1.870E-06,-0.140
1.880E-06,-0.108
1.890E-06,0.024
1.900E-06,0.132
1.910E-06,0.180
1.920E-06,0.112
1.930E-06,-0.020
1.940E-06,-0.248
1.950E-06,-0.448
1.960E-06,-0.436
1.970E-06,-0.212
1.980E-06,0.128
1.990E-06,0.440
2.000E-06,0.540
2.010E-06,0.260
2.020E-06,-0.084
2.030E-06,-0.372
2.040E-06,-0.380
2.050E-06,-0.096
2.060E-06,0.132
2.070E-06,0.364
2.080E-06,0.352
2.090E-06,0.260
2.100E-06,-0.100
2.110E-06,-0.328
2.120E-06,-0.344
2.130E-06,-0.232
2.140E-06,0.056
2.150E-06,0.464
2.160E-06,0.460
2.170E-06,0.064
2.180E-06,-0.368
2.190E-06,-0.512
2.200E-06,-0.504
2.210E-06,-0.096
2.220E-06,0.316
2.230E-06,0.424
2.240E-06,0.392
2.250E-06,0.100
2.260E-06,-0.136
2.270E-06,-0.272
2.280E-06,-0.276
2.290E-06,-0.096
2.300E-06,0.088
2.310E-06,0.244
2.320E-06,0.228
2.330E-06,0.188
2.340E-06,0.008
2.350E-06,-0.104
2.360E-06,-0.184
2.370E-06,-0.140
2.380E-06,-0.040
2.390E-06,0.076
2.400E-06,0.136
2.410E-06,0.124
2.420E-06,0.056
2.430E-06,-0.056
2.440E-06,-0.120
2.450E-06,-0.140
2.460E-06,-0.060
2.470E-06,0.052
2.480E-06,0.156
2.490E-06,0.172
2.500E-06,0.108
2.510E-06,-0.016
2.520E-06,-0.124
2.530E-06,-0.156
2.540E-06,-0.088
2.550E-06,0.020
2.560E-06,0.120
2.570E-06,0.156
2.580E-06,0.104
2.590E-06,0.016
2.600E-06,-0.072
2.610E-06,-0.112
2.620E-06,-0.088
2.630E-06,-0.008
2.640E-06,0.080
2.650E-06,0.128
2.660E-06,0.116
2.670E-06,0.044
2.680E-06,-0.040
2.690E-06,-0.104
2.700E-06,-0.096
2.710E-06,-0.040
2.720E-06,0.048
2.730E-06,0.108
2.740E-06,0.168
2.750E-06,-0.156
2.760E-06,-0.340
2.770E-06,-0.172
2.780E-06,-0.120
2.790E-06,-0.004
2.800E-06,0.320
2.810E-06,0.296
2.820E-06,0.184
2.830E-06,-0.064
2.840E-06,-0.236
2.850E-06,-0.132
2.860E-06,-0.072
2.870E-06,0.056
2.880E-06,0.016
2.890E-06,0.036
2.900E-06,0.012
2.910E-06,0.040
2.920E-06,0.056
2.930E-06,-0.068
2.940E-06,-0.140
2.950E-06,-0.100
2.960E-06,0.008
2.970E-06,0.140
2.980E-06,0.200
2.990E-06,0.092
3.000E-06,-0.052
3.010E-06,-0.148
3.020E-06,-0.164
3.030E-06,-0.096
3.040E-06,0.060
3.050E-06,0.172
3.060E-06,0.156
3.070E-06,0.072
3.080E-06,-0.024
3.090E-06,-0.088
3.100E-06,-0.120
3.110E-06,-0.084
3.120E-06,-0.008
3.130E-06,0.084
3.140E-06,0.132
3.150E-06,0.120
3.160E-06,0.048
3.170E-06,-0.060
3.180E-06,-0.124
3.190E-06,-0.112
3.200E-06,-0.032
3.210E-06,0.064
3.220E-06,0.124
3.230E-06,0.108
3.240E-06,0.048
3.250E-06,-0.032
3.260E-06,-0.096
3.270E-06,-0.100
3.280E-06,-0.040
3.290E-06,0.044
3.300E-06,0.100
3.310E-06,0.116
3.320E-06,0.068
