mediciones/Mediciones filtradas (saque las feas)/5-15/10/WaveData47275.csv

#timebase=2000000(ps)
,#voltbase=100000(mv/100)
#size=4000
-8.400E-06,-0.004
-8.390E-06,-0.072
-8.380E-06,0.032
-8.370E-06,0.044
-8.360E-06,0.128
-8.350E-06,-0.084
-8.340E-06,0.020
-8.330E-06,0.008
-8.320E-06,-0.124
-8.310E-06,-0.052
-8.300E-06,0.184
-8.290E-06,0.152
-8.280E-06,-0.092
-8.270E-06,-0.004
-8.260E-06,-0.068
-8.250E-06,-0.060
-8.240E-06,-0.004
-8.230E-06,0.096
-8.220E-06,0.040
-8.210E-06,0.024
-8.200E-06,0.008
-8.190E-06,-0.028
-8.180E-06,-0.032
-8.170E-06,-0.044
-8.160E-06,0.024
-8.150E-06,0.020
-8.140E-06,0.044
-8.130E-06,0.000
-8.120E-06,0.028
-8.110E-06,-0.012
-8.100E-06,-0.016
-8.090E-06,-0.004
-8.080E-06,0.008
-8.070E-06,-0.012
-8.060E-06,0.000
-8.050E-06,0.036
-8.040E-06,0.008
-8.030E-06,0.040
-8.020E-06,-0.004
-8.010E-06,-0.048
-8.000E-06,-0.024
-7.990E-06,0.016
-7.980E-06,0.032
-7.970E-06,0.020
-7.960E-06,0.028
-7.950E-06,-0.020
-7.940E-06,-0.012
-7.930E-06,0.016
-7.920E-06,0.004
-7.910E-06,-0.024
-7.900E-06,0.020
-7.890E-06,0.008
-7.880E-06,0.036
-7.870E-06,-0.032
-7.860E-06,-0.004
-7.850E-06,-0.004
-7.840E-06,0.016
-7.830E-06,0.032
-7.820E-06,0.016
-7.810E-06,0.008
-7.800E-06,-0.052
-7.790E-06,-0.008
-7.780E-06,-0.072
-7.770E-06,0.072
-7.760E-06,0.080
-7.750E-06,-0.012
-7.740E-06,-0.060
-7.730E-06,0.060
-7.720E-06,-0.016
-7.710E-06,-0.064
-7.700E-06,0.020
-7.690E-06,0.044
-7.680E-06,0.008
-7.670E-06,-0.012
-7.660E-06,0.040
-7.650E-06,-0.028
-7.640E-06,0.004
-7.630E-06,0.008
-7.620E-06,0.012
-7.610E-06,-0.008
-7.600E-06,-0.008
-7.590E-06,0.000
-7.580E-06,0.000
-7.570E-06,0.060
-7.560E-06,-0.028
-7.550E-06,0.020
-7.540E-06,0.012
-7.530E-06,-0.032
-7.520E-06,-0.028
-7.510E-06,0.032
-7.500E-06,0.060
-7.490E-06,-0.008
-7.480E-06,0.004
-7.470E-06,-0.012
-7.460E-06,-0.040
-7.450E-06,0.004
-7.440E-06,0.064
-7.430E-06,0.004
-7.420E-06,0.004
-7.410E-06,0.000
-7.400E-06,-0.012
-7.390E-06,-0.028
-7.380E-06,0.012
-7.370E-06,0.012
-7.360E-06,0.012
-7.350E-06,0.008
-7.340E-06,-0.020
-7.330E-06,0.020
-7.320E-06,0.036
-7.310E-06,0.000
-7.300E-06,-0.032
-7.290E-06,0.032
-7.280E-06,0.000
-7.270E-06,-0.024
-7.260E-06,0.052
-7.250E-06,-0.012
-7.240E-06,-0.012
-7.230E-06,0.056
-7.220E-06,0.024
-7.210E-06,-0.076
-7.200E-06,0.028
-7.190E-06,0.004
-7.180E-06,-0.056
-7.170E-06,0.008
-7.160E-06,0.096
-7.150E-06,-0.028
-7.140E-06,0.028
-7.130E-06,0.016
-7.120E-06,-0.060
-7.110E-06,-0.024
-7.100E-06,-0.056
-7.090E-06,0.052
-7.080E-06,0.080
-7.070E-06,0.048
-7.060E-06,-0.060
-7.050E-06,0.024
-7.040E-06,-0.032
-7.030E-06,-0.064
-7.020E-06,0.016
-7.010E-06,0.040
-7.000E-06,0.016
-6.990E-06,0.004
-6.980E-06,0.044
-6.970E-06,-0.036
-6.960E-06,-0.012
-6.950E-06,-0.020
-6.940E-06,0.012
-6.930E-06,-0.008
-6.920E-06,0.004
-6.910E-06,0.048
-6.900E-06,0.032
-6.890E-06,0.000
-6.880E-06,-0.028
-6.870E-06,-0.060
-6.860E-06,0.008
-6.850E-06,0.060
-6.840E-06,0.012
-6.830E-06,-0.012
-6.820E-06,0.012
-6.810E-06,0.016
-6.800E-06,-0.020
-6.790E-06,0.000
-6.780E-06,0.004
-6.770E-06,0.008
-6.760E-06,0.012
-6.750E-06,0.000
-6.740E-06,-0.004
-6.730E-06,-0.020
-6.720E-06,0.008
-6.710E-06,0.044
-6.700E-06,0.008
-6.690E-06,-0.032
-6.680E-06,0.000
-6.670E-06,0.004
-6.660E-06,-0.008
-6.650E-06,0.012
-6.640E-06,0.024
-6.630E-06,0.004
-6.620E-06,-0.004
-6.610E-06,0.008
-6.600E-06,-0.004
-6.590E-06,-0.008
-6.580E-06,-0.012
-6.570E-06,0.012
-6.560E-06,0.016
-6.550E-06,0.024
-6.540E-06,0.008
-6.530E-06,-0.004
-6.520E-06,0.000
-6.510E-06,0.000
-6.500E-06,-0.004
-6.490E-06,0.028
-6.480E-06,0.004
-6.470E-06,-0.036
-6.460E-06,0.004
-6.450E-06,-0.044
-6.440E-06,0.048
-6.430E-06,0.076
-6.420E-06,0.000
-6.410E-06,-0.068
-6.400E-06,0.024
-6.390E-06,0.000
-6.380E-06,-0.028
-6.370E-06,0.036
-6.360E-06,0.044
-6.350E-06,0.000
-6.340E-06,-0.008
-6.330E-06,0.016
-6.320E-06,-0.028
-6.310E-06,0.004
-6.300E-06,0.008
-6.290E-06,0.024
-6.280E-06,-0.004
-6.270E-06,0.008
-6.260E-06,-0.008
-6.250E-06,0.004
-6.240E-06,0.012
-6.230E-06,-0.008
-6.220E-06,0.004
-6.210E-06,0.000
-6.200E-06,-0.004
-6.190E-06,-0.012
-6.180E-06,0.016
-6.170E-06,0.004
-6.160E-06,0.004
-6.150E-06,0.020
-6.140E-06,0.016
-6.130E-06,-0.020
-6.120E-06,-0.076
-6.110E-06,0.008
-6.100E-06,-0.028
-6.090E-06,0.112
-6.080E-06,0.068
-6.070E-06,-0.044
-6.060E-06,-0.056
-6.050E-06,0.032
-6.040E-06,0.008
-6.030E-06,-0.036
-6.020E-06,0.032
-6.010E-06,0.016
-6.000E-06,0.004
-5.990E-06,0.020
-5.980E-06,0.028
-5.970E-06,-0.024
-5.960E-06,-0.004
-5.950E-06,-0.020
-5.940E-06,0.064
-5.930E-06,-0.004
-5.920E-06,-0.032
-5.910E-06,0.020
-5.900E-06,-0.072
-5.890E-06,0.072
-5.880E-06,0.092
-5.870E-06,0.004
-5.860E-06,-0.124
-5.850E-06,-0.004
-5.840E-06,-0.008
-5.830E-06,0.012
-5.820E-06,0.040
-5.810E-06,0.052
-5.800E-06,0.028
-5.790E-06,-0.028
-5.780E-06,-0.012
-5.770E-06,-0.056
-5.760E-06,0.008
-5.750E-06,0.012
-5.740E-06,0.044
-5.730E-06,0.024
-5.720E-06,0.016
-5.710E-06,-0.020
-5.700E-06,-0.020
-5.690E-06,0.012
-5.680E-06,0.004
-5.670E-06,0.004
-5.660E-06,-0.004
-5.650E-06,0.012
-5.640E-06,0.000
-5.630E-06,0.020
-5.620E-06,0.008
-5.610E-06,0.008
-5.600E-06,-0.012
-5.590E-06,-0.004
-5.580E-06,-0.004
-5.570E-06,0.008
-5.560E-06,0.020
-5.550E-06,0.012
-5.540E-06,0.016
-5.530E-06,-0.008
-5.520E-06,-0.012
-5.510E-06,-0.008
-5.500E-06,0.000
-5.490E-06,0.008
-5.480E-06,0.024
-5.470E-06,0.016
-5.460E-06,0.008
-5.450E-06,-0.008
-5.440E-06,-0.008
-5.430E-06,0.004
-5.420E-06,0.008
-5.410E-06,0.016
-5.400E-06,0.004
-5.390E-06,0.004
-5.380E-06,0.004
-5.370E-06,0.000
-5.360E-06,0.000
-5.350E-06,-0.004
-5.340E-06,0.000
-5.330E-06,0.012
-5.320E-06,0.012
-5.310E-06,0.000
-5.300E-06,0.008
-5.290E-06,-0.036
-5.280E-06,0.008
-5.270E-06,0.012
-5.260E-06,0.016
-5.250E-06,0.008
-5.240E-06,0.000
-5.230E-06,-0.008
-5.220E-06,0.012
-5.210E-06,0.016
-5.200E-06,0.000
-5.190E-06,0.008
-5.180E-06,0.004
-5.170E-06,-0.004
-5.160E-06,0.000
-5.150E-06,0.008
-5.140E-06,0.004
-5.130E-06,0.008
-5.120E-06,0.012
-5.110E-06,0.004
-5.100E-06,-0.004
-5.090E-06,-0.004
-5.080E-06,0.000
-5.070E-06,-0.008
-5.060E-06,0.004
-5.050E-06,0.008
-5.040E-06,0.012
-5.030E-06,0.008
-5.020E-06,0.008
-5.010E-06,0.000
-5.000E-06,0.000
-4.990E-06,0.000
-4.980E-06,0.008
-4.970E-06,0.012
-4.960E-06,0.016
-4.950E-06,0.008
-4.940E-06,0.004
-4.930E-06,-0.004
-4.920E-06,-0.008
-4.910E-06,-0.004
-4.900E-06,0.004
-4.890E-06,0.008
-4.880E-06,0.012
-4.870E-06,0.008
-4.860E-06,0.000
-4.850E-06,-0.008
-4.840E-06,-0.004
-4.830E-06,-0.008
-4.820E-06,0.008
-4.810E-06,0.012
-4.800E-06,0.000
-4.790E-06,0.004
-4.780E-06,-0.004
-4.770E-06,0.004
-4.760E-06,0.012
-4.750E-06,-0.008
-4.740E-06,0.012
-4.730E-06,0.000
-4.720E-06,0.000
-4.710E-06,-0.012
-4.700E-06,0.000
-4.690E-06,-0.012
-4.680E-06,0.028
-4.670E-06,0.020
-4.660E-06,-0.012
-4.650E-06,-0.012
-4.640E-06,0.008
-4.630E-06,0.008
-4.620E-06,-0.012
-4.610E-06,0.008
-4.600E-06,-0.004
-4.590E-06,0.004
-4.580E-06,-0.004
-4.570E-06,0.008
-4.560E-06,0.000
-4.550E-06,-0.004
-4.540E-06,0.008
-4.530E-06,0.012
-4.520E-06,0.004
-4.510E-06,0.004
-4.500E-06,0.004
-4.490E-06,-0.004
-4.480E-06,-0.004
-4.470E-06,-0.004
-4.460E-06,0.004
-4.450E-06,0.008
-4.440E-06,0.004
-4.430E-06,0.000
-4.420E-06,0.004
-4.410E-06,0.004
-4.400E-06,-0.004
-4.390E-06,-0.004
-4.380E-06,0.004
-4.370E-06,0.008
-4.360E-06,0.008
-4.350E-06,0.008
-4.340E-06,0.004
-4.330E-06,0.004
-4.320E-06,-0.004
-4.310E-06,-0.004
-4.300E-06,0.004
-4.290E-06,0.000
-4.280E-06,0.004
-4.270E-06,0.008
-4.260E-06,0.000
-4.250E-06,0.004
-4.240E-06,0.004
-4.230E-06,-0.004
-4.220E-06,-0.004
-4.210E-06,0.000
-4.200E-06,0.000
-4.190E-06,-0.004
-4.180E-06,0.004
-4.170E-06,0.000
-4.160E-06,0.008
-4.150E-06,0.008
-4.140E-06,-0.004
-4.130E-06,-0.004
-4.120E-06,0.012
-4.110E-06,-0.004
-4.100E-06,0.000
-4.090E-06,0.004
-4.080E-06,0.008
-4.070E-06,0.004
-4.060E-06,0.000
-4.050E-06,0.004
-4.040E-06,0.000
-4.030E-06,-0.004
-4.020E-06,0.004
-4.010E-06,0.008
-4.000E-06,0.004
-3.990E-06,0.000
-3.980E-06,0.000
-3.970E-06,0.000
-3.960E-06,0.000
-3.950E-06,0.004
-3.940E-06,0.004
-3.930E-06,0.004
-3.920E-06,0.008
-3.910E-06,-0.004
-3.900E-06,-0.004
-3.890E-06,0.004
-3.880E-06,0.008
-3.870E-06,0.012
-3.860E-06,0.008
-3.850E-06,0.004
-3.840E-06,0.000
-3.830E-06,0.004
-3.820E-06,0.000
-3.810E-06,0.000
-3.800E-06,0.004
-3.790E-06,0.000
-3.780E-06,0.008
-3.770E-06,0.004
-3.760E-06,0.008
-3.750E-06,0.000
-3.740E-06,-0.004
-3.730E-06,-0.004
-3.720E-06,-0.004
-3.710E-06,0.004
-3.700E-06,0.012
-3.690E-06,-0.004
-3.680E-06,0.024
-3.670E-06,-0.004
-3.660E-06,0.004
-3.650E-06,-0.004
-3.640E-06,-0.028
-3.630E-06,-0.004
-3.620E-06,0.048
-3.610E-06,0.028
-3.600E-06,-0.020
-3.590E-06,0.012
-3.580E-06,-0.008
-3.570E-06,-0.020
-3.560E-06,0.004
-3.550E-06,0.012
-3.540E-06,0.004
-3.530E-06,0.008
-3.520E-06,0.020
-3.510E-06,-0.008
-3.500E-06,0.000
-3.490E-06,0.000
-3.480E-06,0.000
-3.470E-06,-0.008
-3.460E-06,0.012
-3.450E-06,-0.004
-3.440E-06,0.012
-3.430E-06,0.016
-3.420E-06,0.032
-3.410E-06,-0.024
-3.400E-06,0.040
-3.390E-06,-0.064
-3.380E-06,0.004
-3.370E-06,0.016
-3.360E-06,-0.036
-3.350E-06,0.024
-3.340E-06,0.120
-3.330E-06,0.040
-3.320E-06,-0.084
-3.310E-06,-0.008
-3.300E-06,-0.056
-3.290E-06,-0.032
-3.280E-06,0.052
-3.270E-06,0.096
-3.260E-06,0.020
-3.250E-06,-0.008
-3.240E-06,-0.008
-3.230E-06,-0.060
-3.220E-06,-0.016
-3.210E-06,-0.004
-3.200E-06,0.040
-3.190E-06,0.020
-3.180E-06,0.028
-3.170E-06,0.004
-3.160E-06,0.000
-3.150E-06,-0.008
-3.140E-06,-0.012
-3.130E-06,0.024
-3.120E-06,-0.020
-3.110E-06,0.004
-3.100E-06,-0.008
-3.090E-06,0.088
-3.080E-06,0.020
-3.070E-06,0.012
-3.060E-06,-0.044
-3.050E-06,-0.124
-3.040E-06,0.056
-3.030E-06,0.128
-3.020E-06,0.076
-3.010E-06,0.008
-3.000E-06,-0.088
-2.990E-06,-0.020
-2.980E-06,-0.004
-2.970E-06,-0.032
-2.960E-06,0.080
-2.950E-06,0.092
-2.940E-06,-0.004
-2.930E-06,-0.028
-2.920E-06,-0.084
-2.910E-06,-0.068
-2.900E-06,0.056
-2.890E-06,0.088
-2.880E-06,0.012
-2.870E-06,-0.008
-2.860E-06,0.008
-2.850E-06,-0.048
-2.840E-06,-0.020
-2.830E-06,0.024
-2.820E-06,0.012
-2.810E-06,0.008
-2.800E-06,0.008
-2.790E-06,0.008
-2.780E-06,-0.008
-2.770E-06,0.008
-2.760E-06,0.008
-2.750E-06,-0.004
-2.740E-06,0.000
-2.730E-06,0.000
-2.720E-06,0.000
-2.710E-06,0.012
-2.700E-06,0.024
-2.690E-06,0.008
-2.680E-06,-0.012
-2.670E-06,-0.016
-2.660E-06,-0.012
-2.650E-06,0.004
-2.640E-06,0.012
-2.630E-06,0.024
-2.620E-06,0.020
-2.610E-06,0.004
-2.600E-06,-0.008
-2.590E-06,-0.012
-2.580E-06,0.000
-2.570E-06,0.008
-2.560E-06,0.016
-2.550E-06,0.024
-2.540E-06,0.012
-2.530E-06,-0.004
-2.520E-06,-0.004
-2.510E-06,-0.004
-2.500E-06,0.004
-2.490E-06,0.008
-2.480E-06,0.012
-2.470E-06,0.008
-2.460E-06,0.012
-2.450E-06,0.008
-2.440E-06,0.004
-2.430E-06,-0.004
-2.420E-06,-0.004
-2.410E-06,0.008
-2.400E-06,0.016
-2.390E-06,0.008
-2.380E-06,0.008
-2.370E-06,0.008
-2.360E-06,0.000
-2.350E-06,0.000
-2.340E-06,0.000
-2.330E-06,0.004
-2.320E-06,0.008
-2.310E-06,0.012
-2.300E-06,0.008
-2.290E-06,0.012
-2.280E-06,0.012
-2.270E-06,0.004
-2.260E-06,-0.008
-2.250E-06,0.000
-2.240E-06,0.004
-2.230E-06,0.008
-2.220E-06,0.024
-2.210E-06,0.024
-2.200E-06,0.008
-2.190E-06,0.000
-2.180E-06,-0.004
-2.170E-06,-0.004
-2.160E-06,0.004
-2.150E-06,0.024
-2.140E-06,0.032
-2.130E-06,0.016
-2.120E-06,0.000
-2.110E-06,0.000
-2.100E-06,-0.004
-2.090E-06,0.012
-2.080E-06,0.012
-2.070E-06,0.024
-2.060E-06,0.012
-2.050E-06,0.000
-2.040E-06,-0.008
-2.030E-06,-0.012
-2.020E-06,-0.008
-2.010E-06,0.008
-2.000E-06,0.016
-1.990E-06,0.016
-1.980E-06,0.008
-1.970E-06,0.004
-1.960E-06,-0.004
-1.950E-06,0.000
-1.940E-06,0.000
-1.930E-06,0.004
-1.920E-06,0.012
-1.910E-06,0.012
-1.900E-06,0.008
-1.890E-06,0.008
-1.880E-06,0.012
-1.870E-06,0.028
-1.860E-06,0.032
-1.850E-06,0.032
-1.840E-06,0.008
-1.830E-06,0.004
-1.820E-06,0.012
-1.810E-06,0.008
-1.800E-06,-0.012
-1.790E-06,-0.044
-1.780E-06,-0.016
-1.770E-06,0.020
-1.760E-06,0.052
-1.750E-06,0.040
-1.740E-06,0.016
-1.730E-06,-0.008
-1.720E-06,-0.012
-1.710E-06,-0.008
-1.700E-06,0.004
-1.690E-06,0.012
-1.680E-06,0.016
-1.670E-06,0.028
-1.660E-06,0.024
-1.650E-06,0.008
-1.640E-06,0.000
-1.630E-06,0.004
-1.620E-06,0.008
-1.610E-06,0.016
-1.600E-06,0.012
-1.590E-06,0.024
-1.580E-06,0.024
-1.570E-06,0.032
-1.560E-06,0.028
-1.550E-06,0.024
-1.540E-06,0.020
-1.530E-06,0.004
-1.520E-06,0.008
-1.510E-06,0.000
-1.500E-06,0.004
-1.490E-06,0.000
-1.480E-06,-0.056
-1.470E-06,-0.072
-1.460E-06,-0.072
-1.450E-06,-0.076
-1.440E-06,-0.008
-1.430E-06,0.076
-1.420E-06,0.156
-1.410E-06,0.136
-1.400E-06,-0.008
-1.390E-06,-0.164
-1.380E-06,-0.240
-1.370E-06,-0.128
-1.360E-06,0.040
-1.350E-06,0.196
-1.340E-06,0.224
-1.330E-06,0.088
-1.320E-06,-0.044
-1.310E-06,-0.144
-1.300E-06,-0.152
-1.290E-06,-0.068
-1.280E-06,0.028
-1.270E-06,0.092
-1.260E-06,0.092
-1.250E-06,0.072
-1.240E-06,0.052
-1.230E-06,0.028
-1.220E-06,0.032
-1.210E-06,-0.020
-1.200E-06,-0.040
-1.190E-06,-0.072
-1.180E-06,-0.076
-1.170E-06,0.024
-1.160E-06,0.108
-1.150E-06,0.136
-1.140E-06,0.020
-1.130E-06,-0.072
-1.120E-06,-0.124
-1.110E-06,-0.096
-1.100E-06,-0.004
-1.090E-06,0.092
-1.080E-06,0.124
-1.070E-06,0.088
-1.060E-06,0.000
-1.050E-06,-0.084
-1.040E-06,-0.100
-1.030E-06,-0.048
-1.020E-06,0.032
-1.010E-06,0.088
-1.000E-06,0.088
-9.900E-07,0.040
-9.800E-07,-0.008
-9.700E-07,-0.032
-9.600E-07,-0.028
-9.500E-07,-0.008
-9.400E-07,0.036
-9.300E-07,0.068
-9.200E-07,0.060
-9.100E-07,0.060
-9.000E-07,0.044
-8.900E-07,0.036
-8.800E-07,0.020
-8.700E-07,0.016
-8.600E-07,0.012
-8.500E-07,0.032
-8.400E-07,0.056
-8.300E-07,0.064
-8.200E-07,0.056
-8.100E-07,0.028
-8.000E-07,0.020
-7.900E-07,0.012
-7.800E-07,0.044
-7.700E-07,0.024
-7.600E-07,-0.120
-7.500E-07,-0.240
-7.400E-07,-0.304
-7.300E-07,-0.212
-7.200E-07,-0.032
-7.100E-07,0.192
-7.000E-07,0.296
-6.900E-07,0.204
-6.800E-07,0.016
-6.700E-07,-0.156
-6.600E-07,-0.216
-6.500E-07,-0.108
-6.400E-07,0.076
-6.300E-07,0.200
-6.200E-07,0.236
-6.100E-07,0.160
-6.000E-07,0.032
-5.900E-07,-0.068
-5.800E-07,-0.072
-5.700E-07,0.004
-5.600E-07,0.132
-5.500E-07,0.212
-5.400E-07,0.208
-5.300E-07,0.140
-5.200E-07,0.028
-5.100E-07,-0.096
-5.000E-07,-0.148
-4.900E-07,-0.124
-4.800E-07,-0.044
-4.700E-07,0.040
-4.600E-07,0.096
-4.500E-07,0.100
-4.400E-07,0.024
-4.300E-07,-0.040
-4.200E-07,-0.088
-4.100E-07,-0.068
-4.000E-07,0.000
-3.900E-07,0.068
-3.800E-07,0.132
-3.700E-07,0.128
-3.600E-07,0.092
-3.500E-07,0.012
-3.400E-07,-0.044
-3.300E-07,-0.064
-3.200E-07,-0.036
-3.100E-07,0.024
-3.000E-07,0.068
-2.900E-07,0.088
-2.800E-07,0.064
-2.700E-07,0.028
-2.600E-07,-0.008
-2.500E-07,-0.020
-2.400E-07,-0.012
-2.300E-07,0.036
-2.200E-07,0.064
-2.100E-07,0.076
-2.000E-07,0.092
-1.900E-07,0.076
-1.800E-07,0.064
-1.700E-07,0.060
-1.600E-07,0.088
-1.500E-07,0.108
-1.400E-07,0.124
-1.300E-07,0.108
-1.200E-07,0.096
-1.100E-07,0.092
-1.000E-07,0.076
-9.000E-08,0.088
-8.000E-08,0.140
-7.000E-08,0.120
-6.000E-08,0.072
-5.000E-08,-0.012
-4.000E-08,-0.304
-3.000E-08,-0.500
-2.000E-08,-0.280
-1.000E-08,-0.044
0.000E+00,0.504
1.000E-08,-0.132
2.000E-08,-0.328
3.000E-08,-0.508
4.000E-08,-0.512
5.000E-08,-0.384
6.000E-08,0.404
7.000E-08,0.544
8.000E-08,0.540
9.000E-08,0.532
1.000E-07,-0.304
1.100E-07,-0.512
1.200E-07,-0.508
1.300E-07,-0.232
1.400E-07,0.124
1.500E-07,0.540
1.600E-07,0.540
1.700E-07,0.520
1.800E-07,0.188
1.900E-07,-0.168
2.000E-07,-0.220
2.100E-07,-0.216
2.200E-07,0.188
2.300E-07,0.280
2.400E-07,0.456
2.500E-07,0.208
2.600E-07,0.064
2.700E-07,-0.216
2.800E-07,-0.244
2.900E-07,-0.152
3.000E-07,0.060
3.100E-07,0.264
3.200E-07,0.236
3.300E-07,0.220
3.400E-07,-0.052
3.500E-07,-0.248
3.600E-07,-0.508
3.700E-07,-0.508
3.800E-07,-0.368
3.900E-07,0.036
4.000E-07,0.368
4.100E-07,0.432
4.200E-07,0.336
4.300E-07,0.000
4.400E-07,-0.184
4.500E-07,-0.312
4.600E-07,-0.148
4.700E-07,0.056
4.800E-07,0.336
4.900E-07,0.380
5.000E-07,0.288
5.100E-07,0.096
5.200E-07,-0.048
5.300E-07,-0.028
5.400E-07,0.060
5.500E-07,0.224
5.600E-07,0.272
5.700E-07,0.324
5.800E-07,0.236
5.900E-07,0.172
6.000E-07,0.044
6.100E-07,-0.060
6.200E-07,-0.140
6.300E-07,-0.128
6.400E-07,-0.040
6.500E-07,0.096
6.600E-07,0.268
6.700E-07,0.192
6.800E-07,0.000
6.900E-07,-0.304
7.000E-07,-0.492
7.100E-07,-0.496
7.200E-07,-0.184
7.300E-07,0.236
7.400E-07,0.544
7.500E-07,0.544
7.600E-07,0.492
7.700E-07,0.160
7.800E-07,-0.188
7.900E-07,-0.272
8.000E-07,-0.164
8.100E-07,0.088
8.200E-07,0.272
8.300E-07,0.364
8.400E-07,0.272
8.500E-07,0.116
8.600E-07,0.004
8.700E-07,-0.060
8.800E-07,0.008
8.900E-07,0.096
9.000E-07,0.160
9.100E-07,0.120
9.200E-07,0.108
9.300E-07,0.060
9.400E-07,0.000
9.500E-07,-0.052
9.600E-07,-0.272
9.700E-07,-0.512
9.800E-07,-0.508
9.900E-07,-0.512
1.000E-06,-0.512
1.010E-06,-0.408
1.020E-06,0.172
1.030E-06,0.472
1.040E-06,0.484
1.050E-06,0.152
1.060E-06,-0.336
1.070E-06,-0.508
1.080E-06,-0.512
1.090E-06,-0.120
1.100E-06,0.380
1.110E-06,0.536
1.120E-06,0.540
1.130E-06,0.228
1.140E-06,-0.136
1.150E-06,-0.300
1.160E-06,-0.228
1.170E-06,0.060
1.180E-06,0.328
1.190E-06,0.524
1.200E-06,0.492
1.210E-06,0.316
1.220E-06,0.032
1.230E-06,-0.160
1.240E-06,-0.168
1.250E-06,0.016
1.260E-06,0.268
1.270E-06,0.428
1.280E-06,0.468
1.290E-06,0.320
1.300E-06,0.132
1.310E-06,-0.040
1.320E-06,-0.064
1.330E-06,0.020
1.340E-06,0.192
1.350E-06,0.328
1.360E-06,0.368
1.370E-06,0.296
1.380E-06,0.148
1.390E-06,0.020
1.400E-06,-0.024
1.410E-06,0.036
1.420E-06,0.140
1.430E-06,0.244
1.440E-06,0.256
1.450E-06,0.188
1.460E-06,0.060
1.470E-06,-0.036
1.480E-06,-0.060
1.490E-06,0.000
1.500E-06,0.108
1.510E-06,0.192
1.520E-06,0.228
1.530E-06,0.176
1.540E-06,0.108
1.550E-06,0.044
1.560E-06,0.028
1.570E-06,0.076
1.580E-06,0.164
1.590E-06,0.232
1.600E-06,0.256
1.610E-06,0.236
1.620E-06,0.164
1.630E-06,0.120
1.640E-06,0.096
1.650E-06,0.136
1.660E-06,0.184
1.670E-06,0.228
1.680E-06,0.236
1.690E-06,0.212
1.700E-06,0.156
1.710E-06,0.104
1.720E-06,0.092
1.730E-06,0.100
1.740E-06,0.140
1.750E-06,0.176
1.760E-06,0.176
1.770E-06,0.144
1.780E-06,0.104
1.790E-06,0.056
1.800E-06,0.032
1.810E-06,0.040
1.820E-06,0.056
1.830E-06,0.064
1.840E-06,0.072
1.850E-06,0.040
1.860E-06,0.016
1.870E-06,-0.004
1.880E-06,0.012
1.890E-06,0.080
1.900E-06,0.140
1.910E-06,0.192
1.920E-06,0.192
1.930E-06,0.188
1.940E-06,0.144
1.950E-06,0.104
1.960E-06,0.096
1.970E-06,0.136
1.980E-06,0.184
1.990E-06,0.208
2.000E-06,0.204
2.010E-06,0.180
2.020E-06,0.160
2.030E-06,0.140
2.040E-06,0.144
2.050E-06,0.152
2.060E-06,0.180
2.070E-06,0.196
2.080E-06,0.204
2.090E-06,0.188
2.100E-06,0.180
2.110E-06,0.156
2.120E-06,0.140
2.130E-06,0.148
2.140E-06,0.156
2.150E-06,0.168
2.160E-06,0.176
2.170E-06,0.176
2.180E-06,0.156
2.190E-06,0.152
2.200E-06,0.140
2.210E-06,0.152
2.220E-06,0.160
2.230E-06,0.168
2.240E-06,0.176
2.250E-06,0.180
2.260E-06,0.168
2.270E-06,0.164
2.280E-06,0.160
2.290E-06,0.160
2.300E-06,0.160
2.310E-06,0.176
2.320E-06,0.176
2.330E-06,0.176
2.340E-06,0.168
2.350E-06,0.160
2.360E-06,0.160
2.370E-06,0.164
2.380E-06,0.160
2.390E-06,0.164
2.400E-06,0.172
2.410E-06,0.172
2.420E-06,0.168
2.430E-06,0.156
2.440E-06,0.156
2.450E-06,0.164
2.460E-06,0.172
2.470E-06,0.180
2.480E-06,0.180
2.490E-06,0.180
2.500E-06,0.172
2.510E-06,0.172
2.520E-06,0.168
2.530E-06,0.164
2.540E-06,0.172
2.550E-06,0.176
2.560E-06,0.172
2.570E-06,0.176
2.580E-06,0.168
2.590E-06,0.164
2.600E-06,0.164
2.610E-06,0.168
2.620E-06,0.168
2.630E-06,0.172
2.640E-06,0.164
2.650E-06,0.168
2.660E-06,0.168
2.670E-06,0.160
2.680E-06,0.156
2.690E-06,0.160
2.700E-06,0.164
2.710E-06,0.164
2.720E-06,0.172
2.730E-06,0.164
2.740E-06,0.168
2.750E-06,0.164
2.760E-06,0.160
2.770E-06,0.164
2.780E-06,0.164
2.790E-06,0.164
2.800E-06,0.164
2.810E-06,0.164
2.820E-06,0.160
2.830E-06,0.164
2.840E-06,0.160
2.850E-06,0.156
2.860E-06,0.160
2.870E-06,0.164
2.880E-06,0.160
2.890E-06,0.160
2.900E-06,0.164
2.910E-06,0.156
2.920E-06,0.152
2.930E-06,0.152
2.940E-06,0.156
2.950E-06,0.152
2.960E-06,0.152
2.970E-06,0.160
2.980E-06,0.160
2.990E-06,0.160
3.000E-06,0.160
3.010E-06,0.152
3.020E-06,0.148
3.030E-06,0.144
3.040E-06,0.140
3.050E-06,0.148
3.060E-06,0.152
3.070E-06,0.156
3.080E-06,0.156
3.090E-06,0.152
3.100E-06,0.152
3.110E-06,0.144
3.120E-06,0.148
3.130E-06,0.148
3.140E-06,0.156
3.150E-06,0.160
3.160E-06,0.156
3.170E-06,0.152
3.180E-06,0.156
3.190E-06,0.152
3.200E-06,0.152
3.210E-06,0.152
3.220E-06,0.156
3.230E-06,0.156
3.240E-06,0.160
3.250E-06,0.156
3.260E-06,0.152
3.270E-06,0.152
3.280E-06,0.152
3.290E-06,0.156
3.300E-06,0.152
3.310E-06,0.148
