mediciones/Mediciones filtradas (saque las feas)/5-15/10/WaveData47264.csv

#timebase=2000000(ps)
,#voltbase=500000(mv/100)
#size=4000
-8.400E-06,0.020
-8.390E-06,0.040
-8.380E-06,0.000
-8.370E-06,0.060
-8.360E-06,0.020
-8.350E-06,0.060
-8.340E-06,0.060
-8.330E-06,0.080
-8.320E-06,0.100
-8.310E-06,0.080
-8.300E-06,0.060
-8.290E-06,0.100
-8.280E-06,0.100
-8.270E-06,0.100
-8.260E-06,0.140
-8.250E-06,0.100
-8.240E-06,0.080
-8.230E-06,0.080
-8.220E-06,0.100
-8.210E-06,0.080
-8.200E-06,0.040
-8.190E-06,0.040
-8.180E-06,0.040
-8.170E-06,0.000
-8.160E-06,-0.020
-8.150E-06,0.000
-8.140E-06,0.000
-8.130E-06,0.020
-8.120E-06,0.000
-8.110E-06,-0.020
-8.100E-06,-0.020
-8.090E-06,-0.040
-8.080E-06,-0.020
-8.070E-06,-0.020
-8.060E-06,0.000
-8.050E-06,0.000
-8.040E-06,0.000
-8.030E-06,0.000
-8.020E-06,0.020
-8.010E-06,0.040
-8.000E-06,0.140
-7.990E-06,0.120
-7.980E-06,0.180
-7.970E-06,0.100
-7.960E-06,0.080
-7.950E-06,0.100
-7.940E-06,0.080
-7.930E-06,0.100
-7.920E-06,0.120
-7.910E-06,0.080
-7.900E-06,0.080
-7.890E-06,0.080
-7.880E-06,0.080
-7.870E-06,0.100
-7.860E-06,0.140
-7.850E-06,0.120
-7.840E-06,0.120
-7.830E-06,0.140
-7.820E-06,0.100
-7.810E-06,0.100
-7.800E-06,0.120
-7.790E-06,0.120
-7.780E-06,0.120
-7.770E-06,0.100
-7.760E-06,0.080
-7.750E-06,0.080
-7.740E-06,0.060
-7.730E-06,0.080
-7.720E-06,0.080
-7.710E-06,0.040
-7.700E-06,0.060
-7.690E-06,0.020
-7.680E-06,0.040
-7.670E-06,0.060
-7.660E-06,0.040
-7.650E-06,0.040
-7.640E-06,0.020
-7.630E-06,0.060
-7.620E-06,0.020
-7.610E-06,0.060
-7.600E-06,0.000
-7.590E-06,0.000
-7.580E-06,0.020
-7.570E-06,0.020
-7.560E-06,0.000
-7.550E-06,0.020
-7.540E-06,-0.020
-7.530E-06,0.000
-7.520E-06,0.020
-7.510E-06,0.020
-7.500E-06,0.040
-7.490E-06,0.040
-7.480E-06,0.080
-7.470E-06,0.060
-7.460E-06,0.060
-7.450E-06,0.080
-7.440E-06,0.080
-7.430E-06,0.060
-7.420E-06,0.080
-7.410E-06,0.100
-7.400E-06,0.080
-7.390E-06,0.100
-7.380E-06,0.080
-7.370E-06,0.080
-7.360E-06,0.100
-7.350E-06,0.140
-7.340E-06,0.120
-7.330E-06,0.140
-7.320E-06,0.160
-7.310E-06,0.120
-7.300E-06,0.140
-7.290E-06,0.120
-7.280E-06,0.120
-7.270E-06,0.140
-7.260E-06,0.120
-7.250E-06,0.120
-7.240E-06,0.180
-7.230E-06,0.060
-7.220E-06,0.060
-7.210E-06,-0.060
-7.200E-06,-0.140
-7.190E-06,-0.140
-7.180E-06,-0.160
-7.170E-06,-0.120
-7.160E-06,-0.100
-7.150E-06,-0.140
-7.140E-06,-0.140
-7.130E-06,-0.180
-7.120E-06,-0.140
-7.110E-06,-0.080
-7.100E-06,-0.080
-7.090E-06,-0.060
-7.080E-06,-0.040
-7.070E-06,-0.060
-7.060E-06,0.000
-7.050E-06,0.020
-7.040E-06,0.060
-7.030E-06,0.100
-7.020E-06,0.140
-7.010E-06,0.120
-7.000E-06,0.180
-6.990E-06,0.180
-6.980E-06,0.220
-6.970E-06,0.180
-6.960E-06,0.220
-6.950E-06,0.220
-6.940E-06,0.220
-6.930E-06,0.220
-6.920E-06,0.180
-6.910E-06,0.160
-6.900E-06,0.180
-6.890E-06,0.180
-6.880E-06,0.160
-6.870E-06,0.160
-6.860E-06,0.160
-6.850E-06,0.160
-6.840E-06,0.120
-6.830E-06,0.140
-6.820E-06,0.100
-6.810E-06,0.080
-6.800E-06,0.040
-6.790E-06,0.040
-6.780E-06,0.040
-6.770E-06,0.040
-6.760E-06,0.000
-6.750E-06,0.000
-6.740E-06,0.000
-6.730E-06,-0.020
-6.720E-06,0.000
-6.710E-06,0.000
-6.700E-06,-0.020
-6.690E-06,0.000
-6.680E-06,0.000
-6.670E-06,0.000
-6.660E-06,-0.020
-6.650E-06,0.000
-6.640E-06,0.000
-6.630E-06,0.000
-6.620E-06,0.040
-6.610E-06,0.040
-6.600E-06,0.020
-6.590E-06,0.020
-6.580E-06,0.060
-6.570E-06,0.040
-6.560E-06,0.060
-6.550E-06,0.060
-6.540E-06,0.060
-6.530E-06,0.080
-6.520E-06,0.060
-6.510E-06,0.060
-6.500E-06,0.080
-6.490E-06,0.080
-6.480E-06,0.080
-6.470E-06,0.080
-6.460E-06,0.060
-6.450E-06,0.040
-6.440E-06,0.040
-6.430E-06,0.060
-6.420E-06,0.020
-6.410E-06,0.040
-6.400E-06,0.060
-6.390E-06,0.040
-6.380E-06,0.020
-6.370E-06,0.040
-6.360E-06,0.080
-6.350E-06,0.040
-6.340E-06,0.060
-6.330E-06,0.080
-6.320E-06,0.060
-6.310E-06,0.080
-6.300E-06,0.040
-6.290E-06,0.080
-6.280E-06,0.060
-6.270E-06,0.080
-6.260E-06,0.060
-6.250E-06,0.060
-6.240E-06,0.080
-6.230E-06,0.100
-6.220E-06,0.080
-6.210E-06,0.100
-6.200E-06,0.080
-6.190E-06,0.100
-6.180E-06,0.080
-6.170E-06,0.080
-6.160E-06,0.080
-6.150E-06,0.080
-6.140E-06,0.020
-6.130E-06,0.000
-6.120E-06,0.020
-6.110E-06,0.060
-6.100E-06,0.060
-6.090E-06,0.020
-6.080E-06,0.040
-6.070E-06,0.040
-6.060E-06,0.060
-6.050E-06,0.060
-6.040E-06,0.080
-6.030E-06,0.080
-6.020E-06,0.080
-6.010E-06,0.080
-6.000E-06,0.060
-5.990E-06,0.040
-5.980E-06,0.040
-5.970E-06,0.060
-5.960E-06,0.040
-5.950E-06,0.020
-5.940E-06,0.020
-5.930E-06,0.020
-5.920E-06,0.040
-5.910E-06,0.000
-5.900E-06,0.040
-5.890E-06,0.060
-5.880E-06,0.060
-5.870E-06,0.020
-5.860E-06,0.060
-5.850E-06,0.060
-5.840E-06,0.060
-5.830E-06,0.060
-5.820E-06,0.100
-5.810E-06,0.060
-5.800E-06,0.040
-5.790E-06,0.060
-5.780E-06,0.080
-5.770E-06,0.060
-5.760E-06,0.060
-5.750E-06,0.060
-5.740E-06,0.060
-5.730E-06,0.080
-5.720E-06,0.100
-5.710E-06,0.100
-5.700E-06,0.140
-5.690E-06,0.120
-5.680E-06,0.080
-5.670E-06,0.060
-5.660E-06,0.080
-5.650E-06,0.060
-5.640E-06,0.080
-5.630E-06,0.100
-5.620E-06,0.060
-5.610E-06,0.060
-5.600E-06,0.060
-5.590E-06,0.060
-5.580E-06,0.080
-5.570E-06,0.080
-5.560E-06,0.080
-5.550E-06,0.000
-5.540E-06,-0.040
-5.530E-06,-0.020
-5.520E-06,-0.020
-5.510E-06,-0.040
-5.500E-06,-0.020
-5.490E-06,-0.020
-5.480E-06,-0.060
-5.470E-06,-0.080
-5.460E-06,-0.060
-5.450E-06,0.020
-5.440E-06,-0.020
-5.430E-06,0.020
-5.420E-06,0.020
-5.410E-06,0.020
-5.400E-06,0.060
-5.390E-06,0.060
-5.380E-06,0.100
-5.370E-06,0.120
-5.360E-06,0.140
-5.350E-06,0.140
-5.340E-06,0.120
-5.330E-06,0.140
-5.320E-06,0.140
-5.310E-06,0.140
-5.300E-06,0.140
-5.290E-06,0.120
-5.280E-06,0.140
-5.270E-06,0.120
-5.260E-06,0.120
-5.250E-06,0.140
-5.240E-06,0.100
-5.230E-06,0.120
-5.220E-06,0.100
-5.210E-06,0.080
-5.200E-06,0.100
-5.190E-06,0.100
-5.180E-06,0.080
-5.170E-06,0.040
-5.160E-06,0.060
-5.150E-06,0.000
-5.140E-06,0.000
-5.130E-06,0.000
-5.120E-06,0.000
-5.110E-06,0.000
-5.100E-06,0.000
-5.090E-06,0.000
-5.080E-06,0.000
-5.070E-06,0.020
-5.060E-06,0.020
-5.050E-06,0.020
-5.040E-06,0.020
-5.030E-06,-0.020
-5.020E-06,-0.020
-5.010E-06,0.040
-5.000E-06,0.060
-4.990E-06,0.040
-4.980E-06,0.080
-4.970E-06,0.060
-4.960E-06,0.080
-4.950E-06,0.080
-4.940E-06,0.120
-4.930E-06,0.120
-4.920E-06,0.100
-4.910E-06,0.140
-4.900E-06,0.120
-4.890E-06,0.140
-4.880E-06,0.120
-4.870E-06,0.100
-4.860E-06,0.080
-4.850E-06,0.080
-4.840E-06,0.100
-4.830E-06,0.120
-4.820E-06,0.100
-4.810E-06,0.080
-4.800E-06,0.040
-4.790E-06,0.040
-4.780E-06,-0.020
-4.770E-06,-0.100
-4.760E-06,-0.100
-4.750E-06,-0.140
-4.740E-06,-0.140
-4.730E-06,-0.160
-4.720E-06,-0.160
-4.710E-06,-0.160
-4.700E-06,-0.180
-4.690E-06,-0.160
-4.680E-06,-0.100
-4.670E-06,-0.100
-4.660E-06,-0.060
-4.650E-06,-0.040
-4.640E-06,-0.040
-4.630E-06,-0.020
-4.620E-06,0.020
-4.610E-06,0.080
-4.600E-06,0.080
-4.590E-06,0.080
-4.580E-06,0.080
-4.570E-06,0.120
-4.560E-06,0.140
-4.550E-06,0.180
-4.540E-06,0.220
-4.530E-06,0.220
-4.520E-06,0.220
-4.510E-06,0.240
-4.500E-06,0.180
-4.490E-06,0.180
-4.480E-06,0.200
-4.470E-06,0.200
-4.460E-06,0.160
-4.450E-06,0.160
-4.440E-06,0.140
-4.430E-06,0.120
-4.420E-06,0.120
-4.410E-06,0.140
-4.400E-06,0.080
-4.390E-06,0.080
-4.380E-06,0.060
-4.370E-06,0.040
-4.360E-06,0.040
-4.350E-06,0.060
-4.340E-06,0.040
-4.330E-06,0.040
-4.320E-06,0.040
-4.310E-06,-0.020
-4.300E-06,0.000
-4.290E-06,0.000
-4.280E-06,0.000
-4.270E-06,0.000
-4.260E-06,0.000
-4.250E-06,0.000
-4.240E-06,0.000
-4.230E-06,0.020
-4.220E-06,0.020
-4.210E-06,0.060
-4.200E-06,0.060
-4.190E-06,0.080
-4.180E-06,0.080
-4.170E-06,0.060
-4.160E-06,0.100
-4.150E-06,0.120
-4.140E-06,0.100
-4.130E-06,0.100
-4.120E-06,0.080
-4.110E-06,0.060
-4.100E-06,0.040
-4.090E-06,0.020
-4.080E-06,0.000
-4.070E-06,0.020
-4.060E-06,0.000
-4.050E-06,0.000
-4.040E-06,0.000
-4.030E-06,0.000
-4.020E-06,0.000
-4.010E-06,-0.020
-4.000E-06,-0.020
-3.990E-06,0.000
-3.980E-06,0.000
-3.970E-06,0.000
-3.960E-06,0.000
-3.950E-06,0.000
-3.940E-06,0.020
-3.930E-06,0.040
-3.920E-06,0.080
-3.910E-06,0.020
-3.900E-06,0.000
-3.890E-06,0.000
-3.880E-06,0.020
-3.870E-06,0.020
-3.860E-06,0.060
-3.850E-06,0.080
-3.840E-06,0.060
-3.830E-06,0.040
-3.820E-06,0.080
-3.810E-06,0.100
-3.800E-06,0.140
-3.790E-06,0.160
-3.780E-06,0.120
-3.770E-06,0.120
-3.760E-06,0.120
-3.750E-06,0.140
-3.740E-06,0.160
-3.730E-06,0.180
-3.720E-06,0.160
-3.710E-06,0.140
-3.700E-06,0.160
-3.690E-06,0.140
-3.680E-06,0.120
-3.670E-06,0.120
-3.660E-06,0.140
-3.650E-06,0.100
-3.640E-06,0.080
-3.630E-06,0.040
-3.620E-06,0.060
-3.610E-06,0.100
-3.600E-06,0.120
-3.590E-06,0.120
-3.580E-06,0.080
-3.570E-06,0.020
-3.560E-06,-0.060
-3.550E-06,-0.080
-3.540E-06,-0.040
-3.530E-06,-0.060
-3.520E-06,-0.080
-3.510E-06,-0.140
-3.500E-06,-0.160
-3.490E-06,-0.160
-3.480E-06,-0.120
-3.470E-06,-0.080
-3.460E-06,-0.040
-3.450E-06,-0.020
-3.440E-06,-0.040
-3.430E-06,-0.040
-3.420E-06,0.020
-3.410E-06,0.020
-3.400E-06,0.040
-3.390E-06,0.100
-3.380E-06,0.100
-3.370E-06,0.120
-3.360E-06,0.120
-3.350E-06,0.180
-3.340E-06,0.180
-3.330E-06,0.160
-3.320E-06,0.200
-3.310E-06,0.180
-3.300E-06,0.160
-3.290E-06,0.160
-3.280E-06,0.180
-3.270E-06,0.180
-3.260E-06,0.160
-3.250E-06,0.120
-3.240E-06,0.100
-3.230E-06,0.080
-3.220E-06,0.080
-3.210E-06,0.080
-3.200E-06,0.080
-3.190E-06,0.020
-3.180E-06,0.000
-3.170E-06,-0.040
-3.160E-06,-0.100
-3.150E-06,-0.100
-3.140E-06,-0.100
-3.130E-06,-0.120
-3.120E-06,-0.100
-3.110E-06,-0.100
-3.100E-06,-0.080
-3.090E-06,-0.100
-3.080E-06,-0.100
-3.070E-06,-0.080
-3.060E-06,-0.060
-3.050E-06,-0.080
-3.040E-06,-0.080
-3.030E-06,-0.060
-3.020E-06,-0.020
-3.010E-06,-0.020
-3.000E-06,-0.020
-2.990E-06,0.000
-2.980E-06,0.000
-2.970E-06,-0.020
-2.960E-06,0.020
-2.950E-06,0.060
-2.940E-06,0.040
-2.930E-06,0.040
-2.920E-06,0.040
-2.910E-06,0.040
-2.900E-06,0.020
-2.890E-06,0.020
-2.880E-06,0.020
-2.870E-06,0.020
-2.860E-06,0.000
-2.850E-06,-0.060
-2.840E-06,-0.060
-2.830E-06,-0.080
-2.820E-06,-0.060
-2.810E-06,-0.080
-2.800E-06,-0.080
-2.790E-06,-0.100
-2.780E-06,-0.120
-2.770E-06,-0.140
-2.760E-06,-0.180
-2.750E-06,-0.180
-2.740E-06,-0.220
-2.730E-06,-0.180
-2.720E-06,-0.220
-2.710E-06,-0.200
-2.700E-06,-0.180
-2.690E-06,-0.140
-2.680E-06,-0.180
-2.670E-06,-0.140
-2.660E-06,-0.160
-2.650E-06,-0.160
-2.640E-06,-0.140
-2.630E-06,-0.120
-2.620E-06,-0.140
-2.610E-06,-0.100
-2.600E-06,-0.060
-2.590E-06,-0.040
-2.580E-06,-0.060
-2.570E-06,-0.020
-2.560E-06,0.000
-2.550E-06,0.020
-2.540E-06,0.060
-2.530E-06,0.020
-2.520E-06,0.060
-2.510E-06,0.080
-2.500E-06,0.060
-2.490E-06,0.040
-2.480E-06,0.080
-2.470E-06,0.080
-2.460E-06,0.100
-2.450E-06,0.120
-2.440E-06,0.080
-2.430E-06,0.060
-2.420E-06,0.080
-2.410E-06,0.080
-2.400E-06,0.060
-2.390E-06,0.080
-2.380E-06,0.080
-2.370E-06,0.060
-2.360E-06,0.040
-2.350E-06,0.060
-2.340E-06,0.040
-2.330E-06,0.040
-2.320E-06,0.040
-2.310E-06,0.020
-2.300E-06,0.020
-2.290E-06,0.020
-2.280E-06,0.000
-2.270E-06,0.000
-2.260E-06,0.000
-2.250E-06,-0.020
-2.240E-06,-0.020
-2.230E-06,-0.020
-2.220E-06,-0.040
-2.210E-06,-0.060
-2.200E-06,-0.020
-2.190E-06,0.000
-2.180E-06,-0.020
-2.170E-06,-0.020
-2.160E-06,-0.040
-2.150E-06,-0.080
-2.140E-06,-0.060
-2.130E-06,-0.040
-2.120E-06,-0.100
-2.110E-06,-0.080
-2.100E-06,-0.120
-2.090E-06,-0.100
-2.080E-06,-0.120
-2.070E-06,-0.160
-2.060E-06,-0.160
-2.050E-06,-0.180
-2.040E-06,-0.200
-2.030E-06,-0.200
-2.020E-06,-0.220
-2.010E-06,-0.220
-2.000E-06,-0.240
-1.990E-06,-0.240
-1.980E-06,-0.240
-1.970E-06,-0.240
-1.960E-06,-0.240
-1.950E-06,-0.300
-1.940E-06,-0.300
-1.930E-06,-0.340
-1.920E-06,-0.400
-1.910E-06,-0.400
-1.900E-06,-0.400
-1.890E-06,-0.460
-1.880E-06,-0.500
-1.870E-06,-0.560
-1.860E-06,-0.560
-1.850E-06,-0.560
-1.840E-06,-0.560
-1.830E-06,-0.560
-1.820E-06,-0.520
-1.810E-06,-0.500
-1.800E-06,-0.520
-1.790E-06,-0.520
-1.780E-06,-0.480
-1.770E-06,-0.440
-1.760E-06,-0.420
-1.750E-06,-0.400
-1.740E-06,-0.360
-1.730E-06,-0.380
-1.720E-06,-0.340
-1.710E-06,-0.320
-1.700E-06,-0.340
-1.690E-06,-0.320
-1.680E-06,-0.340
-1.670E-06,-0.340
-1.660E-06,-0.340
-1.650E-06,-0.320
-1.640E-06,-0.300
-1.630E-06,-0.300
-1.620E-06,-0.300
-1.610E-06,-0.300
-1.600E-06,-0.320
-1.590E-06,-0.320
-1.580E-06,-0.320
-1.570E-06,-0.300
-1.560E-06,-0.260
-1.550E-06,-0.220
-1.540E-06,-0.180
-1.530E-06,-0.160
-1.520E-06,-0.140
-1.510E-06,-0.160
-1.500E-06,-0.180
-1.490E-06,-0.160
-1.480E-06,-0.180
-1.470E-06,-0.180
-1.460E-06,-0.240
-1.450E-06,-0.220
-1.440E-06,-0.240
-1.430E-06,-0.260
-1.420E-06,-0.280
-1.410E-06,-0.260
-1.400E-06,-0.280
-1.390E-06,-0.280
-1.380E-06,-0.240
-1.370E-06,-0.240
-1.360E-06,-0.220
-1.350E-06,-0.180
-1.340E-06,-0.160
-1.330E-06,-0.120
-1.320E-06,-0.120
-1.310E-06,-0.120
-1.300E-06,-0.100
-1.290E-06,-0.080
-1.280E-06,-0.040
-1.270E-06,-0.040
-1.260E-06,-0.040
-1.250E-06,-0.060
-1.240E-06,-0.020
-1.230E-06,-0.020
-1.220E-06,-0.040
-1.210E-06,-0.060
-1.200E-06,-0.060
-1.190E-06,-0.080
-1.180E-06,-0.100
-1.170E-06,-0.120
-1.160E-06,-0.140
-1.150E-06,-0.140
-1.140E-06,-0.140
-1.130E-06,-0.180
-1.120E-06,-0.200
-1.110E-06,-0.180
-1.100E-06,-0.200
-1.090E-06,-0.200
-1.080E-06,-0.200
-1.070E-06,-0.240
-1.060E-06,-0.260
-1.050E-06,-0.320
-1.040E-06,-0.340
-1.030E-06,-0.380
-1.020E-06,-0.400
-1.010E-06,-0.440
-1.000E-06,-0.500
-9.900E-07,-0.560
-9.800E-07,-0.600
-9.700E-07,-0.560
-9.600E-07,-0.660
-9.500E-07,-0.600
-9.400E-07,-0.660
-9.300E-07,-0.620
-9.200E-07,-0.620
-9.100E-07,-0.560
-9.000E-07,-0.560
-8.900E-07,-0.600
-8.800E-07,-0.620
-8.700E-07,-0.700
-8.600E-07,-0.720
-8.500E-07,-0.800
-8.400E-07,-0.820
-8.300E-07,-0.840
-8.200E-07,-0.900
-8.100E-07,-0.920
-8.000E-07,-0.940
-7.900E-07,-0.940
-7.800E-07,-0.940
-7.700E-07,-0.920
-7.600E-07,-1.040
-7.500E-07,-1.100
-7.400E-07,-1.140
-7.300E-07,-1.140
-7.200E-07,-1.120
-7.100E-07,-1.100
-7.000E-07,-1.080
-6.900E-07,-1.000
-6.800E-07,-1.000
-6.700E-07,-0.960
-6.600E-07,-0.900
-6.500E-07,-0.840
-6.400E-07,-0.780
-6.300E-07,-0.700
-6.200E-07,-0.660
-6.100E-07,-0.580
-6.000E-07,-0.540
-5.900E-07,-0.540
-5.800E-07,-0.500
-5.700E-07,-0.460
-5.600E-07,-0.460
-5.500E-07,-0.440
-5.400E-07,-0.440
-5.300E-07,-0.420
-5.200E-07,-0.440
-5.100E-07,-0.460
-5.000E-07,-0.460
-4.900E-07,-0.420
-4.800E-07,-0.400
-4.700E-07,-0.320
-4.600E-07,-0.340
-4.500E-07,-0.260
-4.400E-07,-0.240
-4.300E-07,-0.140
-4.200E-07,-0.100
-4.100E-07,0.000
-4.000E-07,-0.040
-3.900E-07,-0.020
-3.800E-07,-0.180
-3.700E-07,-0.260
-3.600E-07,-0.360
-3.500E-07,-0.440
-3.400E-07,-0.580
-3.300E-07,-0.520
-3.200E-07,-0.760
-3.100E-07,-0.620
-3.000E-07,-0.800
-2.900E-07,-0.740
-2.800E-07,-0.840
-2.700E-07,-0.860
-2.600E-07,-0.800
-2.500E-07,-0.880
-2.400E-07,-0.940
-2.300E-07,-1.000
-2.200E-07,-1.020
-2.100E-07,-1.000
-2.000E-07,-1.020
-1.900E-07,-1.020
-1.800E-07,-0.980
-1.700E-07,-1.020
-1.600E-07,-1.020
-1.500E-07,-1.020
-1.400E-07,-0.980
-1.300E-07,-0.980
-1.200E-07,-1.020
-1.100E-07,-1.020
-1.000E-07,-1.120
-9.000E-08,-1.120
-8.000E-08,-1.200
-7.000E-08,-1.220
-6.000E-08,-0.860
-5.000E-08,-0.580
-4.000E-08,-0.320
-3.000E-08,0.340
-2.000E-08,0.080
-1.000E-08,0.300
0.000E+00,-0.320
1.000E-08,-0.620
2.000E-08,-0.860
3.000E-08,-1.020
4.000E-08,-1.020
5.000E-08,-1.180
6.000E-08,-1.220
7.000E-08,-1.540
8.000E-08,-1.440
9.000E-08,-1.440
1.000E-07,-1.320
1.100E-07,-1.240
1.200E-07,-1.180
1.300E-07,-1.180
1.400E-07,-1.240
1.500E-07,-1.140
1.600E-07,-1.200
1.700E-07,-1.140
1.800E-07,-1.040
1.900E-07,-0.480
2.000E-07,-0.260
2.100E-07,0.700
2.200E-07,0.620
2.300E-07,0.920
2.400E-07,0.540
2.500E-07,0.460
2.600E-07,0.180
2.700E-07,0.260
2.800E-07,-0.040
2.900E-07,-0.160
3.000E-07,-0.480
3.100E-07,-0.740
3.200E-07,-0.840
3.300E-07,-0.860
3.400E-07,-0.880
3.500E-07,-0.880
3.600E-07,-0.920
3.700E-07,-1.120
3.800E-07,-1.140
3.900E-07,-1.280
4.000E-07,-1.240
4.100E-07,-1.180
4.200E-07,-0.900
4.300E-07,-0.800
4.400E-07,-0.500
4.500E-07,-0.400
4.600E-07,-0.360
4.700E-07,-0.340
4.800E-07,-0.460
4.900E-07,-0.520
5.000E-07,-0.500
5.100E-07,-0.600
5.200E-07,-0.700
5.300E-07,-0.840
5.400E-07,-1.000
5.500E-07,-1.120
5.600E-07,-1.260
5.700E-07,-1.380
5.800E-07,-1.480
5.900E-07,-1.500
6.000E-07,-1.560
6.100E-07,-1.600
6.200E-07,-1.660
6.300E-07,-1.820
6.400E-07,-1.720
6.500E-07,-1.360
6.600E-07,-0.900
6.700E-07,-0.320
6.800E-07,0.000
6.900E-07,0.060
7.000E-07,-0.140
7.100E-07,-0.500
7.200E-07,-0.860
7.300E-07,-0.960
7.400E-07,-1.220
7.500E-07,-1.400
7.600E-07,-1.580
7.700E-07,-1.760
7.800E-07,-1.860
7.900E-07,-1.660
8.000E-07,-1.640
8.100E-07,-1.200
8.200E-07,-0.960
8.300E-07,-0.580
8.400E-07,-0.340
8.500E-07,-0.100
8.600E-07,-0.180
8.700E-07,0.000
8.800E-07,-0.080
8.900E-07,0.040
9.000E-07,-0.080
9.100E-07,-0.020
9.200E-07,-0.040
9.300E-07,-0.020
9.400E-07,0.000
9.500E-07,-0.040
9.600E-07,-0.200
9.700E-07,-0.320
9.800E-07,-0.440
9.900E-07,-0.440
1.000E-06,-0.420
1.010E-06,-0.540
1.020E-06,-0.660
1.030E-06,-0.740
1.040E-06,-0.620
1.050E-06,-0.460
1.060E-06,-0.340
1.070E-06,-0.660
1.080E-06,-0.500
1.090E-06,-1.100
1.100E-06,-1.020
1.110E-06,-1.460
1.120E-06,-1.340
1.130E-06,-1.680
1.140E-06,-1.540
1.150E-06,-1.740
1.160E-06,-1.340
1.170E-06,-1.300
1.180E-06,-1.260
1.190E-06,-1.080
1.200E-06,-1.100
1.210E-06,-0.780
1.220E-06,-0.580
1.230E-06,-0.380
1.240E-06,-0.560
1.250E-06,-0.580
1.260E-06,-0.840
1.270E-06,-0.900
1.280E-06,-1.020
1.290E-06,-1.000
1.300E-06,-0.980
1.310E-06,-0.720
1.320E-06,-0.680
1.330E-06,-0.560
1.340E-06,-0.500
1.350E-06,-0.420
1.360E-06,-0.400
1.370E-06,-0.300
1.380E-06,-0.260
1.390E-06,-0.160
1.400E-06,-0.120
1.410E-06,-0.100
1.420E-06,-0.140
1.430E-06,-0.020
1.440E-06,-0.080
1.450E-06,0.080
1.460E-06,0.100
1.470E-06,0.240
1.480E-06,0.260
1.490E-06,0.340
1.500E-06,0.360
1.510E-06,0.360
1.520E-06,0.380
1.530E-06,0.440
1.540E-06,0.440
1.550E-06,0.420
1.560E-06,0.400
1.570E-06,0.300
1.580E-06,0.220
1.590E-06,0.100
1.600E-06,0.020
1.610E-06,-0.260
1.620E-06,-0.320
1.630E-06,-0.360
1.640E-06,-0.540
1.650E-06,-0.660
1.660E-06,-0.780
1.670E-06,-0.920
1.680E-06,-1.020
1.690E-06,-1.160
1.700E-06,-1.200
1.710E-06,-1.420
1.720E-06,-1.520
1.730E-06,-1.680
1.740E-06,-1.860
1.750E-06,-2.000
1.760E-06,-2.120
1.770E-06,-2.180
1.780E-06,-2.260
1.790E-06,-2.320
1.800E-06,-2.340
1.810E-06,-2.300
1.820E-06,-2.200
1.830E-06,-2.120
1.840E-06,-2.020
1.850E-06,-1.860
1.860E-06,-1.720
1.870E-06,-1.580
1.880E-06,-1.420
1.890E-06,-1.380
1.900E-06,-1.340
1.910E-06,-1.280
1.920E-06,-1.240
1.930E-06,-1.180
1.940E-06,-1.060
1.950E-06,-0.920
1.960E-06,-0.720
1.970E-06,-0.500
1.980E-06,-0.320
1.990E-06,-0.100
2.000E-06,0.100
2.010E-06,0.220
2.020E-06,0.380
2.030E-06,0.360
2.040E-06,0.380
2.050E-06,0.240
2.060E-06,0.220
2.070E-06,0.000
2.080E-06,-0.060
2.090E-06,-0.300
2.100E-06,-0.400
2.110E-06,-0.520
2.120E-06,-0.640
2.130E-06,-0.820
2.140E-06,-0.900
2.150E-06,-1.040
2.160E-06,-1.100
2.170E-06,-1.080
2.180E-06,-1.060
2.190E-06,-1.120
2.200E-06,-1.040
2.210E-06,-1.000
2.220E-06,-0.940
2.230E-06,-0.840
2.240E-06,-0.760
2.250E-06,-0.680
2.260E-06,-0.620
2.270E-06,-0.620
2.280E-06,-0.700
2.290E-06,-0.780
2.300E-06,-1.000
2.310E-06,-1.120
2.320E-06,-1.340
2.330E-06,-1.380
2.340E-06,-1.480
2.350E-06,-1.460
2.360E-06,-1.380
2.370E-06,-1.320
2.380E-06,-1.180
2.390E-06,-1.000
2.400E-06,-0.740
2.410E-06,-0.440
2.420E-06,-0.180
2.430E-06,0.080
2.440E-06,0.340
2.450E-06,0.520
2.460E-06,0.780
2.470E-06,0.900
2.480E-06,1.040
2.490E-06,1.080
2.500E-06,1.220
2.510E-06,1.380
2.520E-06,1.640
2.530E-06,1.820
2.540E-06,1.880
2.550E-06,1.960
2.560E-06,1.920
2.570E-06,1.760
2.580E-06,1.620
2.590E-06,1.480
2.600E-06,1.360
2.610E-06,1.320
2.620E-06,1.200
2.630E-06,1.000
2.640E-06,0.660
2.650E-06,0.080
2.660E-06,-0.340
2.670E-06,-0.760
2.680E-06,-1.060
2.690E-06,-1.420
2.700E-06,-1.700
2.710E-06,-2.020
2.720E-06,-2.160
2.730E-06,-2.260
2.740E-06,-2.260
2.750E-06,-2.260
2.760E-06,-2.220
2.770E-06,-2.140
2.780E-06,-1.960
2.790E-06,-1.800
2.800E-06,-1.700
2.810E-06,-1.540
2.820E-06,-1.460
2.830E-06,-1.260
2.840E-06,-1.080
2.850E-06,-0.940
2.860E-06,-0.820
2.870E-06,-0.700
2.880E-06,-0.540
2.890E-06,-0.460
2.900E-06,-0.380
2.910E-06,-0.320
2.920E-06,-0.300
2.930E-06,-0.300
2.940E-06,-0.340
2.950E-06,-0.400
2.960E-06,-0.460
2.970E-06,-0.560
2.980E-06,-0.660
2.990E-06,-0.740
3.000E-06,-0.800
3.010E-06,-0.840
3.020E-06,-0.840
3.030E-06,-0.860
3.040E-06,-0.860
3.050E-06,-0.880
3.060E-06,-0.880
3.070E-06,-0.840
3.080E-06,-0.820
3.090E-06,-0.760
3.100E-06,-0.720
3.110E-06,-0.700
3.120E-06,-0.660
3.130E-06,-0.620
3.140E-06,-0.600
3.150E-06,-0.540
