mediciones/Mediciones filtradas (saque las feas)/5-15/10/WaveData47269.csv

#timebase=2000000(ps)
,#voltbase=100000(mv/100)
#size=4000
-8.400E-06,0.012
-8.390E-06,0.008
-8.380E-06,0.004
-8.370E-06,-0.004
-8.360E-06,-0.004
-8.350E-06,0.000
-8.340E-06,0.000
-8.330E-06,0.004
-8.320E-06,0.012
-8.310E-06,0.000
-8.300E-06,0.004
-8.290E-06,0.000
-8.280E-06,0.000
-8.270E-06,-0.004
-8.260E-06,0.000
-8.250E-06,0.008
-8.240E-06,0.004
-8.230E-06,0.004
-8.220E-06,0.000
-8.210E-06,-0.004
-8.200E-06,-0.004
-8.190E-06,0.000
-8.180E-06,0.000
-8.170E-06,0.004
-8.160E-06,0.004
-8.150E-06,0.004
-8.140E-06,0.008
-8.130E-06,0.004
-8.120E-06,0.000
-8.110E-06,0.000
-8.100E-06,-0.004
-8.090E-06,-0.004
-8.080E-06,0.004
-8.070E-06,0.012
-8.060E-06,0.008
-8.050E-06,0.004
-8.040E-06,0.004
-8.030E-06,0.004
-8.020E-06,0.000
-8.010E-06,-0.004
-8.000E-06,0.000
-7.990E-06,0.000
-7.980E-06,0.000
-7.970E-06,-0.004
-7.960E-06,-0.004
-7.950E-06,-0.004
-7.940E-06,0.004
-7.930E-06,0.008
-7.920E-06,0.012
-7.910E-06,0.012
-7.900E-06,0.008
-7.890E-06,0.000
-7.880E-06,0.000
-7.870E-06,0.000
-7.860E-06,0.004
-7.850E-06,0.004
-7.840E-06,0.004
-7.830E-06,0.004
-7.820E-06,0.000
-7.810E-06,-0.004
-7.800E-06,0.000
-7.790E-06,0.004
-7.780E-06,0.004
-7.770E-06,0.000
-7.760E-06,-0.004
-7.750E-06,-0.004
-7.740E-06,-0.004
-7.730E-06,-0.008
-7.720E-06,0.000
-7.710E-06,0.000
-7.700E-06,0.004
-7.690E-06,0.008
-7.680E-06,0.008
-7.670E-06,0.000
-7.660E-06,0.000
-7.650E-06,-0.004
-7.640E-06,-0.004
-7.630E-06,0.000
-7.620E-06,0.000
-7.610E-06,0.008
-7.600E-06,0.004
-7.590E-06,0.004
-7.580E-06,0.000
-7.570E-06,-0.004
-7.560E-06,-0.004
-7.550E-06,-0.004
-7.540E-06,0.000
-7.530E-06,0.008
-7.520E-06,0.004
-7.510E-06,0.004
-7.500E-06,0.000
-7.490E-06,0.000
-7.480E-06,0.000
-7.470E-06,0.008
-7.460E-06,0.008
-7.450E-06,0.000
-7.440E-06,0.004
-7.430E-06,0.000
-7.420E-06,0.000
-7.410E-06,0.004
-7.400E-06,0.004
-7.390E-06,0.004
-7.380E-06,0.004
-7.370E-06,0.004
-7.360E-06,-0.008
-7.350E-06,0.004
-7.340E-06,0.004
-7.330E-06,0.004
-7.320E-06,0.008
-7.310E-06,0.008
-7.300E-06,0.000
-7.290E-06,-0.004
-7.280E-06,0.000
-7.270E-06,-0.004
-7.260E-06,0.008
-7.250E-06,0.016
-7.240E-06,0.016
-7.230E-06,0.012
-7.220E-06,-0.004
-7.210E-06,-0.004
-7.200E-06,-0.008
-7.190E-06,-0.004
-7.180E-06,0.008
-7.170E-06,0.008
-7.160E-06,0.008
-7.150E-06,0.012
-7.140E-06,0.000
-7.130E-06,-0.004
-7.120E-06,0.000
-7.110E-06,-0.004
-7.100E-06,0.004
-7.090E-06,0.004
-7.080E-06,0.008
-7.070E-06,0.008
-7.060E-06,0.008
-7.050E-06,0.004
-7.040E-06,-0.008
-7.030E-06,-0.008
-7.020E-06,0.000
-7.010E-06,-0.004
-7.000E-06,0.008
-6.990E-06,0.004
-6.980E-06,0.008
-6.970E-06,0.012
-6.960E-06,0.008
-6.950E-06,-0.008
-6.940E-06,-0.008
-6.930E-06,-0.008
-6.920E-06,0.000
-6.910E-06,0.016
-6.900E-06,0.016
-6.890E-06,0.012
-6.880E-06,0.004
-6.870E-06,-0.012
-6.860E-06,-0.012
-6.850E-06,-0.008
-6.840E-06,0.004
-6.830E-06,0.020
-6.820E-06,0.016
-6.810E-06,0.008
-6.800E-06,0.000
-6.790E-06,-0.008
-6.780E-06,-0.008
-6.770E-06,-0.004
-6.760E-06,0.008
-6.750E-06,0.012
-6.740E-06,0.012
-6.730E-06,0.004
-6.720E-06,0.004
-6.710E-06,-0.008
-6.700E-06,-0.004
-6.690E-06,-0.004
-6.680E-06,0.000
-6.670E-06,0.008
-6.660E-06,0.012
-6.650E-06,0.016
-6.640E-06,0.008
-6.630E-06,0.000
-6.620E-06,-0.008
-6.610E-06,-0.004
-6.600E-06,0.000
-6.590E-06,0.012
-6.580E-06,0.012
-6.570E-06,0.012
-6.560E-06,0.004
-6.550E-06,-0.004
-6.540E-06,-0.008
-6.530E-06,-0.004
-6.520E-06,0.004
-6.510E-06,0.008
-6.500E-06,0.016
-6.490E-06,0.004
-6.480E-06,0.000
-6.470E-06,-0.008
-6.460E-06,-0.008
-6.450E-06,-0.004
-6.440E-06,0.004
-6.430E-06,0.016
-6.420E-06,0.016
-6.410E-06,0.004
-6.400E-06,-0.004
-6.390E-06,-0.008
-6.380E-06,-0.008
-6.370E-06,0.008
-6.360E-06,0.016
-6.350E-06,0.016
-6.340E-06,0.012
-6.330E-06,-0.004
-6.320E-06,0.000
-6.310E-06,-0.004
-6.300E-06,0.000
-6.290E-06,0.004
-6.280E-06,0.008
-6.270E-06,0.004
-6.260E-06,0.008
-6.250E-06,0.008
-6.240E-06,0.000
-6.230E-06,-0.004
-6.220E-06,0.000
-6.210E-06,-0.004
-6.200E-06,0.004
-6.190E-06,0.008
-6.180E-06,0.008
-6.170E-06,0.008
-6.160E-06,-0.004
-6.150E-06,-0.004
-6.140E-06,-0.008
-6.130E-06,0.004
-6.120E-06,0.012
-6.110E-06,0.008
-6.100E-06,0.008
-6.090E-06,0.004
-6.080E-06,0.000
-6.070E-06,-0.004
-6.060E-06,-0.004
-6.050E-06,-0.004
-6.040E-06,0.008
-6.030E-06,0.008
-6.020E-06,0.004
-6.010E-06,-0.004
-6.000E-06,-0.004
-5.990E-06,-0.004
-5.980E-06,0.000
-5.970E-06,0.012
-5.960E-06,0.008
-5.950E-06,0.004
-5.940E-06,-0.004
-5.930E-06,0.000
-5.920E-06,0.000
-5.910E-06,0.004
-5.900E-06,0.004
-5.890E-06,0.012
-5.880E-06,0.004
-5.870E-06,0.000
-5.860E-06,-0.008
-5.850E-06,0.000
-5.840E-06,-0.004
-5.830E-06,0.004
-5.820E-06,0.008
-5.810E-06,0.004
-5.800E-06,0.008
-5.790E-06,0.004
-5.780E-06,0.000
-5.770E-06,0.000
-5.760E-06,0.000
-5.750E-06,0.008
-5.740E-06,0.004
-5.730E-06,0.008
-5.720E-06,0.004
-5.710E-06,0.000
-5.700E-06,0.004
-5.690E-06,0.004
-5.680E-06,0.008
-5.670E-06,0.008
-5.660E-06,0.000
-5.650E-06,0.000
-5.640E-06,0.000
-5.630E-06,0.008
-5.620E-06,0.004
-5.610E-06,0.004
-5.600E-06,0.000
-5.590E-06,0.004
-5.580E-06,0.000
-5.570E-06,0.000
-5.560E-06,0.004
-5.550E-06,0.008
-5.540E-06,0.008
-5.530E-06,0.000
-5.520E-06,0.000
-5.510E-06,0.000
-5.500E-06,0.000
-5.490E-06,-0.004
-5.480E-06,0.008
-5.470E-06,0.008
-5.460E-06,0.004
-5.450E-06,0.008
-5.440E-06,-0.004
-5.430E-06,-0.008
-5.420E-06,-0.004
-5.410E-06,0.012
-5.400E-06,0.012
-5.390E-06,0.020
-5.380E-06,0.012
-5.370E-06,0.000
-5.360E-06,-0.004
-5.350E-06,-0.004
-5.340E-06,0.000
-5.330E-06,0.004
-5.320E-06,0.004
-5.310E-06,0.008
-5.300E-06,0.012
-5.290E-06,0.000
-5.280E-06,0.000
-5.270E-06,0.000
-5.260E-06,0.004
-5.250E-06,0.000
-5.240E-06,0.000
-5.230E-06,0.004
-5.220E-06,0.012
-5.210E-06,0.008
-5.200E-06,0.004
-5.190E-06,0.000
-5.180E-06,0.000
-5.170E-06,-0.004
-5.160E-06,0.004
-5.150E-06,0.008
-5.140E-06,0.012
-5.130E-06,0.008
-5.120E-06,0.000
-5.110E-06,-0.008
-5.100E-06,0.000
-5.090E-06,0.008
-5.080E-06,0.012
-5.070E-06,0.008
-5.060E-06,0.008
-5.050E-06,0.000
-5.040E-06,0.000
-5.030E-06,-0.004
-5.020E-06,0.000
-5.010E-06,-0.004
-5.000E-06,-0.008
-4.990E-06,-0.004
-4.980E-06,-0.008
-4.970E-06,-0.004
-4.960E-06,0.004
-4.950E-06,0.004
-4.940E-06,0.012
-4.930E-06,0.016
-4.920E-06,0.012
-4.910E-06,0.000
-4.900E-06,-0.004
-4.890E-06,0.000
-4.880E-06,0.004
-4.870E-06,0.004
-4.860E-06,0.008
-4.850E-06,0.000
-4.840E-06,0.004
-4.830E-06,0.004
-4.820E-06,0.000
-4.810E-06,0.000
-4.800E-06,-0.008
-4.790E-06,0.004
-4.780E-06,0.012
-4.770E-06,0.012
-4.760E-06,0.008
-4.750E-06,0.008
-4.740E-06,-0.008
-4.730E-06,-0.008
-4.720E-06,-0.004
-4.710E-06,0.000
-4.700E-06,0.004
-4.690E-06,0.008
-4.680E-06,0.004
-4.670E-06,0.004
-4.660E-06,0.004
-4.650E-06,0.004
-4.640E-06,0.004
-4.630E-06,0.008
-4.620E-06,0.008
-4.610E-06,0.008
-4.600E-06,0.000
-4.590E-06,-0.004
-4.580E-06,-0.004
-4.570E-06,0.004
-4.560E-06,0.008
-4.550E-06,0.012
-4.540E-06,0.016
-4.530E-06,0.008
-4.520E-06,-0.004
-4.510E-06,0.000
-4.500E-06,-0.008
-4.490E-06,0.000
-4.480E-06,0.004
-4.470E-06,0.012
-4.460E-06,0.008
-4.450E-06,0.008
-4.440E-06,-0.004
-4.430E-06,-0.008
-4.420E-06,-0.004
-4.410E-06,0.000
-4.400E-06,0.012
-4.390E-06,0.024
-4.380E-06,0.016
-4.370E-06,0.012
-4.360E-06,0.000
-4.350E-06,-0.004
-4.340E-06,-0.004
-4.330E-06,0.000
-4.320E-06,0.004
-4.310E-06,0.012
-4.300E-06,0.016
-4.290E-06,0.012
-4.280E-06,0.004
-4.270E-06,0.000
-4.260E-06,-0.004
-4.250E-06,0.000
-4.240E-06,0.000
-4.230E-06,0.008
-4.220E-06,0.012
-4.210E-06,0.012
-4.200E-06,0.012
-4.190E-06,0.008
-4.180E-06,0.008
-4.170E-06,0.000
-4.160E-06,-0.004
-4.150E-06,-0.012
-4.140E-06,0.004
-4.130E-06,0.012
-4.120E-06,0.008
-4.110E-06,0.012
-4.100E-06,0.008
-4.090E-06,0.000
-4.080E-06,-0.008
-4.070E-06,-0.008
-4.060E-06,0.000
-4.050E-06,0.008
-4.040E-06,0.008
-4.030E-06,0.008
-4.020E-06,0.008
-4.010E-06,0.004
-4.000E-06,-0.004
-3.990E-06,-0.004
-3.980E-06,0.004
-3.970E-06,0.012
-3.960E-06,0.020
-3.950E-06,0.020
-3.940E-06,0.012
-3.930E-06,0.000
-3.920E-06,-0.012
-3.910E-06,-0.012
-3.900E-06,0.000
-3.890E-06,0.012
-3.880E-06,0.016
-3.870E-06,0.020
-3.860E-06,0.012
-3.850E-06,0.008
-3.840E-06,0.000
-3.830E-06,-0.008
-3.820E-06,-0.004
-3.810E-06,0.004
-3.800E-06,0.012
-3.790E-06,0.020
-3.780E-06,0.016
-3.770E-06,0.008
-3.760E-06,0.000
-3.750E-06,-0.008
-3.740E-06,-0.004
-3.730E-06,0.008
-3.720E-06,0.008
-3.710E-06,0.012
-3.700E-06,0.012
-3.690E-06,0.000
-3.680E-06,-0.004
-3.670E-06,-0.004
-3.660E-06,-0.004
-3.650E-06,0.012
-3.640E-06,0.012
-3.630E-06,0.012
-3.620E-06,0.008
-3.610E-06,0.004
-3.600E-06,-0.004
-3.590E-06,-0.008
-3.580E-06,-0.004
-3.570E-06,0.004
-3.560E-06,0.020
-3.550E-06,0.020
-3.540E-06,0.012
-3.530E-06,0.000
-3.520E-06,-0.008
-3.510E-06,0.000
-3.500E-06,0.004
-3.490E-06,0.004
-3.480E-06,0.012
-3.470E-06,0.008
-3.460E-06,0.008
-3.450E-06,0.000
-3.440E-06,-0.008
-3.430E-06,-0.004
-3.420E-06,-0.004
-3.410E-06,0.008
-3.400E-06,0.020
-3.390E-06,0.020
-3.380E-06,0.012
-3.370E-06,0.000
-3.360E-06,-0.004
-3.350E-06,0.000
-3.340E-06,-0.004
-3.330E-06,0.000
-3.320E-06,0.012
-3.310E-06,0.016
-3.300E-06,0.012
-3.290E-06,0.008
-3.280E-06,0.004
-3.270E-06,0.000
-3.260E-06,0.000
-3.250E-06,0.008
-3.240E-06,0.012
-3.230E-06,0.004
-3.220E-06,0.008
-3.210E-06,0.008
-3.200E-06,0.008
-3.190E-06,0.008
-3.180E-06,0.000
-3.170E-06,0.004
-3.160E-06,0.008
-3.150E-06,0.008
-3.140E-06,0.012
-3.130E-06,0.012
-3.120E-06,0.012
-3.110E-06,0.000
-3.100E-06,-0.004
-3.090E-06,0.000
-3.080E-06,0.000
-3.070E-06,0.016
-3.060E-06,0.008
-3.050E-06,0.000
-3.040E-06,0.004
-3.030E-06,0.004
-3.020E-06,-0.004
-3.010E-06,0.020
-3.000E-06,0.008
-2.990E-06,0.000
-2.980E-06,0.008
-2.970E-06,0.024
-2.960E-06,0.008
-2.950E-06,-0.004
-2.940E-06,0.000
-2.930E-06,0.008
-2.920E-06,0.008
-2.910E-06,0.008
-2.900E-06,0.020
-2.890E-06,0.016
-2.880E-06,0.000
-2.870E-06,0.004
-2.860E-06,0.008
-2.850E-06,0.008
-2.840E-06,0.004
-2.830E-06,0.008
-2.820E-06,0.004
-2.810E-06,0.008
-2.800E-06,0.008
-2.790E-06,0.020
-2.780E-06,0.008
-2.770E-06,0.012
-2.760E-06,0.016
-2.750E-06,0.012
-2.740E-06,0.012
-2.730E-06,0.012
-2.720E-06,0.016
-2.710E-06,0.020
-2.700E-06,0.024
-2.690E-06,0.024
-2.680E-06,0.024
-2.670E-06,0.016
-2.660E-06,0.012
-2.650E-06,0.008
-2.640E-06,0.004
-2.630E-06,0.004
-2.620E-06,0.004
-2.610E-06,0.004
-2.600E-06,0.008
-2.590E-06,-0.024
-2.580E-06,-0.104
-2.570E-06,-0.172
-2.560E-06,-0.200
-2.550E-06,-0.108
-2.540E-06,0.040
-2.530E-06,0.184
-2.520E-06,0.224
-2.510E-06,0.144
-2.500E-06,0.012
-2.490E-06,-0.112
-2.480E-06,-0.136
-2.470E-06,-0.068
-2.460E-06,0.032
-2.450E-06,0.072
-2.440E-06,0.056
-2.430E-06,0.000
-2.420E-06,-0.060
-2.410E-06,-0.076
-2.400E-06,-0.040
-2.390E-06,0.028
-2.380E-06,0.080
-2.370E-06,0.104
-2.360E-06,0.076
-2.350E-06,0.024
-2.340E-06,-0.008
-2.330E-06,-0.016
-2.320E-06,-0.004
-2.310E-06,0.016
-2.300E-06,0.044
-2.290E-06,0.064
-2.280E-06,0.060
-2.270E-06,0.032
-2.260E-06,-0.008
-2.250E-06,-0.040
-2.240E-06,-0.044
-2.230E-06,-0.028
-2.220E-06,0.012
-2.210E-06,0.040
-2.200E-06,0.068
-2.190E-06,0.056
-2.180E-06,0.028
-2.170E-06,-0.012
-2.160E-06,-0.028
-2.150E-06,-0.024
-2.140E-06,0.004
-2.130E-06,0.056
-2.120E-06,0.072
-2.110E-06,0.064
-2.100E-06,0.032
-2.090E-06,0.004
-2.080E-06,-0.008
-2.070E-06,-0.020
-2.060E-06,0.008
-2.050E-06,0.024
-2.040E-06,0.044
-2.030E-06,0.056
-2.020E-06,0.036
-2.010E-06,0.012
-2.000E-06,-0.008
-1.990E-06,-0.012
-1.980E-06,0.008
-1.970E-06,0.032
-1.960E-06,0.044
-1.950E-06,0.052
-1.940E-06,0.040
-1.930E-06,0.000
-1.920E-06,-0.076
-1.910E-06,-0.188
-1.900E-06,-0.272
-1.890E-06,-0.272
-1.880E-06,-0.152
-1.870E-06,0.068
-1.860E-06,0.232
-1.850E-06,0.276
-1.840E-06,0.188
-1.830E-06,-0.008
-1.820E-06,-0.176
-1.810E-06,-0.224
-1.800E-06,-0.112
-1.790E-06,0.060
-1.780E-06,0.212
-1.770E-06,0.240
-1.760E-06,0.172
-1.750E-06,0.020
-1.740E-06,-0.112
-1.730E-06,-0.156
-1.720E-06,-0.088
-1.710E-06,0.028
-1.700E-06,0.140
-1.690E-06,0.196
-1.680E-06,0.144
-1.670E-06,0.036
-1.660E-06,-0.072
-1.650E-06,-0.128
-1.640E-06,-0.100
-1.630E-06,-0.004
-1.620E-06,0.108
-1.610E-06,0.164
-1.600E-06,0.140
-1.590E-06,0.036
-1.580E-06,-0.072
-1.570E-06,-0.136
-1.560E-06,-0.116
-1.550E-06,-0.040
-1.540E-06,0.048
-1.530E-06,0.104
-1.520E-06,0.096
-1.510E-06,0.028
-1.500E-06,-0.040
-1.490E-06,-0.096
-1.480E-06,-0.084
-1.470E-06,-0.024
-1.460E-06,0.056
-1.450E-06,0.096
-1.440E-06,0.108
-1.430E-06,0.076
-1.420E-06,0.020
-1.410E-06,-0.016
-1.400E-06,-0.020
-1.390E-06,-0.008
-1.380E-06,0.024
-1.370E-06,0.044
-1.360E-06,0.044
-1.350E-06,0.028
-1.340E-06,0.012
-1.330E-06,0.012
-1.320E-06,0.008
-1.310E-06,0.008
-1.300E-06,0.008
-1.290E-06,0.004
-1.280E-06,-0.004
-1.270E-06,-0.016
-1.260E-06,-0.024
-1.250E-06,-0.008
-1.240E-06,0.024
-1.230E-06,0.036
-1.220E-06,0.052
-1.210E-06,0.048
-1.200E-06,0.024
-1.190E-06,-0.004
-1.180E-06,-0.008
-1.170E-06,-0.008
-1.160E-06,0.004
-1.150E-06,0.032
-1.140E-06,0.060
-1.130E-06,0.076
-1.120E-06,0.068
-1.110E-06,0.052
-1.100E-06,0.020
-1.090E-06,-0.008
-1.080E-06,-0.008
-1.070E-06,-0.004
-1.060E-06,0.000
-1.050E-06,-0.056
-1.040E-06,-0.176
-1.030E-06,-0.288
-1.020E-06,-0.336
-1.010E-06,-0.232
-1.000E-06,0.000
-9.900E-07,0.212
-9.800E-07,0.316
-9.700E-07,0.264
-9.600E-07,0.120
-9.500E-07,-0.104
-9.400E-07,-0.248
-9.300E-07,-0.292
-9.200E-07,-0.216
-9.100E-07,-0.108
-9.000E-07,0.000
-8.900E-07,0.056
-8.800E-07,0.040
-8.700E-07,0.012
-8.600E-07,-0.040
-8.500E-07,-0.060
-8.400E-07,-0.064
-8.300E-07,-0.008
-8.200E-07,0.052
-8.100E-07,0.108
-8.000E-07,0.112
-7.900E-07,0.072
-7.800E-07,0.008
-7.700E-07,-0.048
-7.600E-07,-0.056
-7.500E-07,-0.004
-7.400E-07,0.056
-7.300E-07,0.104
-7.200E-07,0.116
-7.100E-07,0.088
-7.000E-07,0.028
-6.900E-07,-0.008
-6.800E-07,-0.020
-6.700E-07,-0.004
-6.600E-07,0.028
-6.500E-07,0.068
-6.400E-07,0.076
-6.300E-07,0.056
-6.200E-07,0.012
-6.100E-07,-0.032
-6.000E-07,-0.040
-5.900E-07,-0.020
-5.800E-07,0.024
-5.700E-07,0.076
-5.600E-07,0.092
-5.500E-07,0.088
-5.400E-07,0.052
-5.300E-07,0.008
-5.200E-07,-0.012
-5.100E-07,-0.008
-5.000E-07,0.032
-4.900E-07,0.060
-4.800E-07,0.084
-4.700E-07,0.076
-4.600E-07,0.056
-4.500E-07,0.024
-4.400E-07,0.008
-4.300E-07,0.008
-4.200E-07,0.032
-4.100E-07,0.068
-4.000E-07,0.088
-3.900E-07,0.076
-3.800E-07,0.052
-3.700E-07,0.016
-3.600E-07,-0.004
-3.500E-07,0.000
-3.400E-07,0.024
-3.300E-07,0.052
-3.200E-07,0.064
-3.100E-07,0.064
-3.000E-07,0.044
-2.900E-07,0.020
-2.800E-07,-0.004
-2.700E-07,0.000
-2.600E-07,0.024
-2.500E-07,0.048
-2.400E-07,0.064
-2.300E-07,0.060
-2.200E-07,0.040
-2.100E-07,0.012
-2.000E-07,-0.008
-1.900E-07,-0.008
-1.800E-07,0.004
-1.700E-07,0.040
-1.600E-07,0.064
-1.500E-07,0.076
-1.400E-07,0.068
-1.300E-07,0.024
-1.200E-07,0.004
-1.100E-07,-0.004
-1.000E-07,0.016
-9.000E-08,-0.024
-8.000E-08,-0.124
-7.000E-08,-0.324
-6.000E-08,-0.508
-5.000E-08,-0.508
-4.000E-08,-0.496
-3.000E-08,-0.164
-2.000E-08,0.192
-1.000E-08,0.424
0.000E+00,0.360
1.000E-08,0.140
2.000E-08,-0.148
3.000E-08,-0.320
4.000E-08,-0.272
5.000E-08,-0.064
6.000E-08,0.196
7.000E-08,0.324
8.000E-08,0.300
9.000E-08,0.088
1.000E-07,-0.108
1.100E-07,-0.232
1.200E-07,-0.192
1.300E-07,-0.060
1.400E-07,0.128
1.500E-07,0.228
1.600E-07,0.212
1.700E-07,0.092
1.800E-07,-0.072
1.900E-07,-0.160
2.000E-07,-0.148
2.100E-07,-0.016
2.200E-07,0.116
2.300E-07,0.204
2.400E-07,0.180
2.500E-07,0.104
2.600E-07,-0.012
2.700E-07,-0.072
2.800E-07,-0.068
2.900E-07,-0.004
3.000E-07,0.100
3.100E-07,0.152
3.200E-07,0.156
3.300E-07,0.076
3.400E-07,-0.004
3.500E-07,-0.072
3.600E-07,-0.060
3.700E-07,0.000
3.800E-07,0.072
3.900E-07,0.120
4.000E-07,0.112
4.100E-07,0.056
4.200E-07,-0.016
4.300E-07,-0.068
4.400E-07,-0.092
4.500E-07,-0.060
4.600E-07,-0.024
4.700E-07,0.024
4.800E-07,0.012
4.900E-07,0.004
5.000E-07,-0.020
5.100E-07,-0.028
5.200E-07,-0.024
5.300E-07,-0.004
5.400E-07,0.024
5.500E-07,0.028
5.600E-07,0.036
5.700E-07,0.012
5.800E-07,-0.004
5.900E-07,-0.012
6.000E-07,-0.008
6.100E-07,0.016
6.200E-07,0.044
6.300E-07,0.068
6.400E-07,0.064
6.500E-07,0.056
6.600E-07,0.036
6.700E-07,0.028
6.800E-07,0.028
6.900E-07,0.040
7.000E-07,0.056
7.100E-07,0.068
7.200E-07,0.068
7.300E-07,0.060
7.400E-07,0.036
7.500E-07,0.032
7.600E-07,0.028
7.700E-07,0.036
7.800E-07,0.056
7.900E-07,0.056
8.000E-07,0.052
8.100E-07,0.032
8.200E-07,0.012
8.300E-07,-0.012
8.400E-07,-0.028
8.500E-07,-0.040
8.600E-07,-0.032
8.700E-07,-0.012
8.800E-07,0.024
8.900E-07,0.072
9.000E-07,0.092
9.100E-07,0.080
9.200E-07,0.036
9.300E-07,-0.020
9.400E-07,-0.072
9.500E-07,-0.104
9.600E-07,-0.100
9.700E-07,-0.076
9.800E-07,-0.036
9.900E-07,-0.016
1.000E-06,-0.036
1.010E-06,-0.064
1.020E-06,-0.072
1.030E-06,-0.108
1.040E-06,-0.116
1.050E-06,-0.100
1.060E-06,-0.064
1.070E-06,-0.028
1.080E-06,0.008
1.090E-06,0.040
1.100E-06,0.052
1.110E-06,0.048
1.120E-06,0.028
1.130E-06,0.020
1.140E-06,0.016
1.150E-06,0.028
1.160E-06,0.056
1.170E-06,0.076
1.180E-06,0.064
1.190E-06,0.044
1.200E-06,0.024
1.210E-06,0.008
1.220E-06,0.008
1.230E-06,0.020
1.240E-06,0.044
1.250E-06,0.060
1.260E-06,0.056
1.270E-06,0.040
1.280E-06,0.028
1.290E-06,0.012
1.300E-06,0.016
1.310E-06,0.024
1.320E-06,0.040
1.330E-06,0.056
1.340E-06,0.052
1.350E-06,0.036
1.360E-06,0.020
1.370E-06,0.012
1.380E-06,0.016
1.390E-06,0.032
1.400E-06,0.044
1.410E-06,0.052
1.420E-06,0.056
1.430E-06,0.044
1.440E-06,0.036
1.450E-06,0.036
1.460E-06,0.036
1.470E-06,0.032
1.480E-06,0.052
1.490E-06,0.060
1.500E-06,0.064
1.510E-06,0.060
1.520E-06,0.052
1.530E-06,0.040
1.540E-06,0.024
1.550E-06,0.016
1.560E-06,0.016
1.570E-06,0.024
1.580E-06,0.028
1.590E-06,0.032
1.600E-06,0.036
1.610E-06,0.040
1.620E-06,0.032
1.630E-06,0.036
1.640E-06,0.032
1.650E-06,0.044
1.660E-06,0.044
1.670E-06,0.044
1.680E-06,0.032
1.690E-06,0.020
1.700E-06,0.008
1.710E-06,0.004
1.720E-06,0.000
1.730E-06,0.000
1.740E-06,0.004
1.750E-06,0.004
1.760E-06,0.020
1.770E-06,0.028
1.780E-06,0.028
1.790E-06,0.028
1.800E-06,0.028
1.810E-06,0.024
1.820E-06,0.024
1.830E-06,0.028
1.840E-06,0.036
1.850E-06,0.044
1.860E-06,0.044
1.870E-06,0.048
1.880E-06,0.036
1.890E-06,0.036
1.900E-06,0.036
1.910E-06,0.036
1.920E-06,0.036
1.930E-06,0.044
1.940E-06,0.040
1.950E-06,0.044
1.960E-06,0.044
1.970E-06,0.044
1.980E-06,0.044
1.990E-06,0.044
2.000E-06,0.040
2.010E-06,0.044
2.020E-06,0.044
2.030E-06,0.036
2.040E-06,0.036
2.050E-06,0.032
2.060E-06,0.020
2.070E-06,0.004
2.080E-06,-0.004
2.090E-06,-0.008
2.100E-06,-0.020
2.110E-06,-0.036
2.120E-06,-0.040
2.130E-06,-0.052
2.140E-06,-0.064
2.150E-06,-0.068
2.160E-06,-0.076
2.170E-06,-0.072
2.180E-06,-0.068
2.190E-06,-0.052
2.200E-06,-0.040
2.210E-06,-0.028
2.220E-06,-0.012
2.230E-06,-0.004
2.240E-06,0.008
2.250E-06,0.008
2.260E-06,0.012
2.270E-06,0.008
2.280E-06,0.020
2.290E-06,0.032
2.300E-06,0.036
2.310E-06,0.040
2.320E-06,0.044
2.330E-06,0.048
2.340E-06,0.044
2.350E-06,0.044
2.360E-06,0.044
2.370E-06,0.048
2.380E-06,0.036
2.390E-06,0.028
2.400E-06,0.024
2.410E-06,0.016
2.420E-06,0.012
2.430E-06,0.024
2.440E-06,0.016
2.450E-06,0.012
2.460E-06,0.012
2.470E-06,0.008
2.480E-06,0.004
2.490E-06,0.004
2.500E-06,0.008
2.510E-06,0.008
2.520E-06,0.012
2.530E-06,0.020
2.540E-06,0.016
2.550E-06,0.020
2.560E-06,0.020
2.570E-06,0.016
2.580E-06,0.020
2.590E-06,0.032
2.600E-06,0.032
2.610E-06,0.044
2.620E-06,0.040
2.630E-06,0.044
2.640E-06,0.040
2.650E-06,0.044
2.660E-06,0.056
2.670E-06,0.060
2.680E-06,0.064
2.690E-06,0.060
2.700E-06,0.056
2.710E-06,0.052
2.720E-06,0.048
2.730E-06,0.056
2.740E-06,0.060
2.750E-06,0.064
2.760E-06,0.060
2.770E-06,0.056
2.780E-06,0.060
2.790E-06,0.056
2.800E-06,0.040
2.810E-06,0.044
2.820E-06,0.048
2.830E-06,0.044
2.840E-06,0.044
2.850E-06,0.044
2.860E-06,0.032
2.870E-06,0.032
2.880E-06,0.020
2.890E-06,0.024
2.900E-06,0.024
2.910E-06,0.024
2.920E-06,0.024
2.930E-06,0.028
2.940E-06,0.020
2.950E-06,0.028
2.960E-06,0.028
2.970E-06,0.032
2.980E-06,0.028
2.990E-06,0.036
3.000E-06,0.044
3.010E-06,0.044
3.020E-06,0.048
3.030E-06,0.044
3.040E-06,0.044
3.050E-06,0.044
3.060E-06,0.040
3.070E-06,0.048
3.080E-06,0.048
3.090E-06,0.052
3.100E-06,0.048
3.110E-06,0.040
3.120E-06,0.044
3.130E-06,0.048
3.140E-06,0.044
3.150E-06,0.048
3.160E-06,0.044
3.170E-06,0.048
3.180E-06,0.040
3.190E-06,0.044
3.200E-06,0.040
3.210E-06,0.036
3.220E-06,0.044
3.230E-06,0.044
3.240E-06,0.044
3.250E-06,0.052
3.260E-06,0.048
3.270E-06,0.048
3.280E-06,0.048
3.290E-06,0.052
3.300E-06,0.056
3.310E-06,0.052
3.320E-06,0.052
3.330E-06,0.052
3.340E-06,0.060
