mediciones/Mediciones filtradas (saque las feas)/6-10/8.6/WaveData5675.csv

#timebase=2000000(ps)
,#voltbase=100000(mv/100)
#size=4000
-4.200E-06,-0.016
-4.190E-06,0.008
-4.180E-06,0.036
-4.170E-06,0.068
-4.160E-06,0.060
-4.150E-06,0.056
-4.140E-06,0.008
-4.130E-06,-0.008
-4.120E-06,-0.016
-4.110E-06,0.028
-4.100E-06,0.060
-4.090E-06,0.096
-4.080E-06,0.116
-4.070E-06,0.092
-4.060E-06,0.080
-4.050E-06,0.056
-4.040E-06,0.044
-4.030E-06,0.020
-4.020E-06,0.024
-4.010E-06,0.020
-4.000E-06,-0.008
-3.990E-06,-0.068
-3.980E-06,-0.128
-3.970E-06,-0.204
-3.960E-06,-0.148
-3.950E-06,-0.080
-3.940E-06,0.064
-3.930E-06,0.152
-3.920E-06,0.188
-3.910E-06,0.076
-3.900E-06,-0.004
-3.890E-06,-0.244
-3.880E-06,-0.244
-3.870E-06,-0.216
-3.860E-06,-0.016
-3.850E-06,0.080
-3.840E-06,0.164
-3.830E-06,0.128
-3.820E-06,0.016
-3.810E-06,-0.080
-3.800E-06,-0.136
-3.790E-06,-0.108
-3.780E-06,-0.008
-3.770E-06,0.108
-3.760E-06,0.144
-3.750E-06,0.120
-3.740E-06,0.024
-3.730E-06,-0.064
-3.720E-06,-0.108
-3.710E-06,-0.068
-3.700E-06,-0.004
-3.690E-06,0.064
-3.680E-06,0.096
-3.670E-06,0.068
-3.660E-06,0.028
-3.650E-06,-0.052
-3.640E-06,-0.064
-3.630E-06,-0.040
-3.620E-06,0.004
-3.610E-06,0.032
-3.600E-06,0.032
-3.590E-06,0.020
-3.580E-06,-0.004
-3.570E-06,-0.028
-3.560E-06,-0.040
-3.550E-06,-0.004
-3.540E-06,0.024
-3.530E-06,0.036
-3.520E-06,0.036
-3.510E-06,0.020
-3.500E-06,-0.004
-3.490E-06,-0.008
-3.480E-06,-0.016
-3.470E-06,-0.004
-3.460E-06,0.020
-3.450E-06,0.028
-3.440E-06,0.020
-3.430E-06,0.008
-3.420E-06,0.008
-3.410E-06,0.000
-3.400E-06,-0.004
-3.390E-06,0.000
-3.380E-06,0.012
-3.370E-06,0.028
-3.360E-06,0.036
-3.350E-06,0.036
-3.340E-06,0.028
-3.330E-06,0.016
-3.320E-06,0.024
-3.310E-06,0.008
-3.300E-06,0.020
-3.290E-06,0.028
-3.280E-06,0.036
-3.270E-06,0.040
-3.260E-06,0.036
-3.250E-06,0.040
-3.240E-06,0.040
-3.230E-06,0.060
-3.220E-06,0.064
-3.210E-06,0.088
-3.200E-06,0.088
-3.190E-06,0.104
-3.180E-06,0.088
-3.170E-06,0.076
-3.160E-06,0.032
-3.150E-06,-0.004
-3.140E-06,-0.008
-3.130E-06,-0.120
-3.120E-06,-0.132
-3.110E-06,-0.164
-3.100E-06,-0.120
-3.090E-06,-0.020
-3.080E-06,0.016
-3.070E-06,0.088
-3.060E-06,0.060
-3.050E-06,0.000
-3.040E-06,-0.016
-3.030E-06,-0.028
-3.020E-06,0.004
-3.010E-06,0.064
-3.000E-06,0.128
-2.990E-06,0.144
-2.980E-06,0.104
-2.970E-06,0.056
-2.960E-06,-0.108
-2.950E-06,-0.356
-2.940E-06,-0.364
-2.930E-06,-0.220
-2.920E-06,-0.016
-2.910E-06,0.140
-2.900E-06,0.196
-2.890E-06,0.160
-2.880E-06,-0.004
-2.870E-06,-0.180
-2.860E-06,-0.232
-2.850E-06,-0.224
-2.840E-06,-0.024
-2.830E-06,0.140
-2.820E-06,0.236
-2.810E-06,0.188
-2.800E-06,0.056
-2.790E-06,-0.088
-2.780E-06,-0.176
-2.770E-06,-0.140
-2.760E-06,-0.052
-2.750E-06,0.076
-2.740E-06,0.144
-2.730E-06,0.144
-2.720E-06,0.056
-2.710E-06,-0.024
-2.700E-06,-0.092
-2.690E-06,-0.088
-2.680E-06,-0.024
-2.670E-06,0.048
-2.660E-06,0.104
-2.650E-06,0.104
-2.640E-06,0.048
-2.630E-06,-0.020
-2.620E-06,-0.064
-2.610E-06,-0.048
-2.600E-06,0.012
-2.590E-06,0.068
-2.580E-06,0.128
-2.570E-06,0.132
-2.560E-06,0.088
-2.550E-06,0.040
-2.540E-06,0.000
-2.530E-06,0.016
-2.520E-06,0.064
-2.510E-06,0.108
-2.500E-06,0.132
-2.490E-06,0.132
-2.480E-06,0.120
-2.470E-06,0.096
-2.460E-06,0.076
-2.450E-06,0.080
-2.440E-06,0.108
-2.430E-06,0.140
-2.420E-06,0.128
-2.410E-06,0.068
-2.400E-06,-0.024
-2.390E-06,-0.096
-2.380E-06,-0.188
-2.370E-06,-0.200
-2.360E-06,-0.204
-2.350E-06,-0.068
-2.340E-06,0.016
-2.330E-06,0.132
-2.320E-06,0.268
-2.310E-06,0.212
-2.300E-06,-0.008
-2.290E-06,-0.112
-2.280E-06,-0.224
-2.270E-06,-0.336
-2.260E-06,-0.208
-2.250E-06,-0.024
-2.240E-06,0.192
-2.230E-06,0.140
-2.220E-06,0.092
-2.210E-06,-0.032
-2.200E-06,-0.192
-2.190E-06,-0.248
-2.180E-06,-0.240
-2.170E-06,-0.096
-2.160E-06,0.168
-2.150E-06,0.248
-2.140E-06,0.212
-2.130E-06,0.012
-2.120E-06,-0.100
-2.110E-06,-0.132
-2.100E-06,-0.040
-2.090E-06,0.012
-2.080E-06,0.208
-2.070E-06,0.044
-2.060E-06,0.044
-2.050E-06,-0.036
-2.040E-06,-0.216
-2.030E-06,-0.172
-2.020E-06,-0.024
-2.010E-06,0.100
-2.000E-06,0.056
-1.990E-06,0.096
-1.980E-06,0.032
-1.970E-06,0.032
-1.960E-06,-0.068
-1.950E-06,-0.084
-1.940E-06,-0.044
-1.930E-06,0.056
-1.920E-06,0.140
-1.910E-06,0.152
-1.900E-06,0.132
-1.890E-06,0.104
-1.880E-06,0.068
-1.870E-06,0.020
-1.860E-06,0.044
-1.850E-06,0.028
-1.840E-06,-0.008
-1.830E-06,-0.068
-1.820E-06,-0.088
-1.810E-06,-0.108
-1.800E-06,-0.036
-1.790E-06,0.012
-1.780E-06,0.060
-1.770E-06,0.100
-1.760E-06,0.112
-1.750E-06,0.120
-1.740E-06,0.104
-1.730E-06,0.100
-1.720E-06,0.112
-1.710E-06,0.140
-1.700E-06,0.156
-1.690E-06,0.144
-1.680E-06,0.088
-1.670E-06,0.020
-1.660E-06,-0.068
-1.650E-06,-0.092
-1.640E-06,-0.136
-1.630E-06,-0.144
-1.620E-06,-0.136
-1.610E-06,-0.060
-1.600E-06,-0.040
-1.590E-06,-0.008
-1.580E-06,-0.028
-1.570E-06,-0.020
-1.560E-06,-0.012
-1.550E-06,-0.040
-1.540E-06,0.000
-1.530E-06,0.004
-1.520E-06,0.060
-1.510E-06,0.044
-1.500E-06,0.060
-1.490E-06,0.068
-1.480E-06,0.060
-1.470E-06,0.068
-1.460E-06,0.060
-1.450E-06,0.088
-1.440E-06,0.132
-1.430E-06,0.160
-1.420E-06,0.124
-1.410E-06,0.092
-1.400E-06,0.048
-1.390E-06,0.044
-1.380E-06,0.024
-1.370E-06,0.060
-1.360E-06,0.028
-1.350E-06,-0.028
-1.340E-06,-0.112
-1.330E-06,-0.168
-1.320E-06,-0.296
-1.310E-06,-0.260
-1.300E-06,-0.280
-1.290E-06,-0.160
-1.280E-06,-0.088
-1.270E-06,-0.048
-1.260E-06,0.088
-1.250E-06,0.112
-1.240E-06,0.040
-1.230E-06,-0.008
-1.220E-06,-0.068
-1.210E-06,-0.072
-1.200E-06,-0.068
-1.190E-06,-0.060
-1.180E-06,0.032
-1.170E-06,0.100
-1.160E-06,0.068
-1.150E-06,0.084
-1.140E-06,0.040
-1.130E-06,0.000
-1.120E-06,0.008
-1.110E-06,-0.008
-1.100E-06,0.064
-1.090E-06,0.092
-1.080E-06,0.128
-1.070E-06,0.088
-1.060E-06,0.080
-1.050E-06,0.044
-1.040E-06,-0.008
-1.030E-06,0.008
-1.020E-06,0.040
-1.010E-06,0.080
-1.000E-06,0.112
-9.900E-07,0.136
-9.800E-07,0.152
-9.700E-07,0.148
-9.600E-07,0.104
-9.500E-07,0.016
-9.400E-07,0.024
-9.300E-07,-0.016
-9.200E-07,-0.068
-9.100E-07,-0.080
-9.000E-07,-0.116
-8.900E-07,-0.136
-8.800E-07,-0.132
-8.700E-07,-0.124
-8.600E-07,-0.084
-8.500E-07,-0.092
-8.400E-07,-0.028
-8.300E-07,0.012
-8.200E-07,0.080
-8.100E-07,0.028
-8.000E-07,-0.016
-7.900E-07,0.000
-7.800E-07,0.080
-7.700E-07,0.044
-7.600E-07,0.044
-7.500E-07,0.076
-7.400E-07,0.080
-7.300E-07,0.052
-7.200E-07,0.036
-7.100E-07,0.028
-7.000E-07,0.048
-6.900E-07,0.088
-6.800E-07,0.140
-6.700E-07,0.172
-6.600E-07,0.160
-6.500E-07,0.140
-6.400E-07,0.124
-6.300E-07,0.112
-6.200E-07,0.120
-6.100E-07,0.140
-6.000E-07,0.168
-5.900E-07,0.192
-5.800E-07,0.192
-5.700E-07,0.160
-5.600E-07,0.128
-5.500E-07,0.092
-5.400E-07,0.092
-5.300E-07,0.068
-5.200E-07,0.068
-5.100E-07,0.092
-5.000E-07,0.080
-4.900E-07,0.084
-4.800E-07,0.096
-4.700E-07,0.088
-4.600E-07,0.040
-4.500E-07,0.028
-4.400E-07,0.056
-4.300E-07,0.104
-4.200E-07,0.152
-4.100E-07,0.152
-4.000E-07,0.184
-3.900E-07,0.160
-3.800E-07,0.048
-3.700E-07,-0.056
-3.600E-07,-0.136
-3.500E-07,-0.120
-3.400E-07,-0.088
-3.300E-07,0.000
-3.200E-07,0.068
-3.100E-07,0.068
-3.000E-07,-0.100
-2.900E-07,-0.148
-2.800E-07,-0.204
-2.700E-07,-0.084
-2.600E-07,-0.040
-2.500E-07,0.012
-2.400E-07,0.104
-2.300E-07,0.116
-2.200E-07,0.084
-2.100E-07,-0.012
-2.000E-07,-0.028
-1.900E-07,0.044
-1.800E-07,0.108
-1.700E-07,0.228
-1.600E-07,0.268
-1.500E-07,0.208
-1.400E-07,0.136
-1.300E-07,0.036
-1.200E-07,-0.012
-1.100E-07,-0.040
-1.000E-07,-0.004
-9.000E-08,0.000
-8.000E-08,0.008
-7.000E-08,0.036
-6.000E-08,-0.076
-5.000E-08,-0.152
-4.000E-08,-0.228
-3.000E-08,-0.092
-2.000E-08,0.048
-1.000E-08,0.208
0.000E+00,0.376
1.000E-08,0.200
2.000E-08,0.196
3.000E-08,-0.040
4.000E-08,-0.152
5.000E-08,-0.160
6.000E-08,0.012
7.000E-08,0.252
8.000E-08,0.324
9.000E-08,0.196
1.000E-07,0.016
1.100E-07,-0.196
1.200E-07,-0.192
1.300E-07,-0.156
1.400E-07,0.080
1.500E-07,0.188
1.600E-07,0.288
1.700E-07,0.216
1.800E-07,0.024
1.900E-07,-0.036
2.000E-07,-0.084
2.100E-07,-0.024
2.200E-07,0.128
2.300E-07,0.204
2.400E-07,0.256
2.500E-07,0.152
2.600E-07,0.104
2.700E-07,-0.040
2.800E-07,-0.140
2.900E-07,-0.096
3.000E-07,0.036
3.100E-07,0.192
3.200E-07,0.292
3.300E-07,0.268
3.400E-07,0.124
3.500E-07,0.008
3.600E-07,-0.080
3.700E-07,-0.088
3.800E-07,0.028
3.900E-07,0.208
4.000E-07,0.376
4.100E-07,0.420
4.200E-07,0.340
4.300E-07,0.176
4.400E-07,0.020
4.500E-07,-0.032
4.600E-07,0.016
4.700E-07,0.144
4.800E-07,0.268
4.900E-07,0.332
5.000E-07,0.292
5.100E-07,0.168
5.200E-07,0.056
5.300E-07,0.008
5.400E-07,0.080
5.500E-07,0.196
5.600E-07,0.316
5.700E-07,0.344
5.800E-07,0.292
5.900E-07,0.200
6.000E-07,0.092
6.100E-07,0.032
6.200E-07,0.056
6.300E-07,0.120
6.400E-07,0.196
6.500E-07,0.224
6.600E-07,0.252
6.700E-07,0.196
6.800E-07,0.136
6.900E-07,0.028
7.000E-07,-0.036
7.100E-07,-0.028
7.200E-07,0.048
7.300E-07,0.148
7.400E-07,0.088
7.500E-07,0.048
7.600E-07,-0.160
7.700E-07,-0.244
7.800E-07,-0.364
7.900E-07,-0.332
8.000E-07,-0.152
8.100E-07,0.152
8.200E-07,0.180
8.300E-07,0.356
8.400E-07,0.272
8.500E-07,0.260
8.600E-07,0.096
8.700E-07,0.080
8.800E-07,0.108
8.900E-07,0.128
9.000E-07,0.308
9.100E-07,0.328
9.200E-07,0.344
9.300E-07,0.244
9.400E-07,0.160
9.500E-07,0.120
9.600E-07,0.088
9.700E-07,0.136
9.800E-07,0.192
9.900E-07,0.240
1.000E-06,0.276
1.010E-06,0.272
1.020E-06,0.220
1.030E-06,0.156
1.040E-06,0.124
1.050E-06,0.136
1.060E-06,0.172
1.070E-06,0.240
1.080E-06,0.264
1.090E-06,0.264
1.100E-06,0.228
1.110E-06,0.184
1.120E-06,0.140
1.130E-06,0.128
1.140E-06,0.148
1.150E-06,0.184
1.160E-06,0.232
1.170E-06,0.244
1.180E-06,0.228
1.190E-06,0.196
1.200E-06,0.160
1.210E-06,0.148
1.220E-06,0.160
1.230E-06,0.188
1.240E-06,0.220
1.250E-06,0.236
1.260E-06,0.232
1.270E-06,0.208
1.280E-06,0.176
1.290E-06,0.160
1.300E-06,0.148
1.310E-06,0.160
1.320E-06,0.196
1.330E-06,0.216
1.340E-06,0.224
1.350E-06,0.208
1.360E-06,0.188
1.370E-06,0.176
1.380E-06,0.160
1.390E-06,0.164
1.400E-06,0.188
1.410E-06,0.208
1.420E-06,0.216
1.430E-06,0.212
1.440E-06,0.196
1.450E-06,0.176
1.460E-06,0.164
1.470E-06,0.160
1.480E-06,0.176
1.490E-06,0.196
1.500E-06,0.200
1.510E-06,0.200
1.520E-06,0.192
1.530E-06,0.184
1.540E-06,0.176
1.550E-06,0.168
1.560E-06,0.176
1.570E-06,0.188
1.580E-06,0.196
1.590E-06,0.204
1.600E-06,0.200
1.610E-06,0.184
1.620E-06,0.176
1.630E-06,0.176
1.640E-06,0.176
1.650E-06,0.192
1.660E-06,0.192
1.670E-06,0.188
1.680E-06,0.188
1.690E-06,0.188
1.700E-06,0.188
1.710E-06,0.180
1.720E-06,0.176
1.730E-06,0.180
1.740E-06,0.184
1.750E-06,0.188
1.760E-06,0.184
1.770E-06,0.184
1.780E-06,0.180
1.790E-06,0.172
1.800E-06,0.172
1.810E-06,0.164
1.820E-06,0.164
1.830E-06,0.176
1.840E-06,0.176
1.850E-06,0.180
1.860E-06,0.168
1.870E-06,0.168
1.880E-06,0.164
1.890E-06,0.164
1.900E-06,0.168
1.910E-06,0.176
1.920E-06,0.176
1.930E-06,0.184
1.940E-06,0.176
1.950E-06,0.168
1.960E-06,0.164
1.970E-06,0.164
1.980E-06,0.168
1.990E-06,0.172
2.000E-06,0.176
2.010E-06,0.172
2.020E-06,0.176
2.030E-06,0.176
2.040E-06,0.168
2.050E-06,0.164
2.060E-06,0.176
2.070E-06,0.172
2.080E-06,0.176
2.090E-06,0.172
2.100E-06,0.168
2.110E-06,0.172
2.120E-06,0.164
2.130E-06,0.168
2.140E-06,0.168
2.150E-06,0.172
2.160E-06,0.172
2.170E-06,0.172
2.180E-06,0.164
2.190E-06,0.168
2.200E-06,0.164
2.210E-06,0.160
2.220E-06,0.160
2.230E-06,0.164
2.240E-06,0.160
2.250E-06,0.164
2.260E-06,0.164
2.270E-06,0.156
2.280E-06,0.156
2.290E-06,0.160
2.300E-06,0.156
2.310E-06,0.156
2.320E-06,0.156
2.330E-06,0.160
2.340E-06,0.160
2.350E-06,0.148
2.360E-06,0.152
2.370E-06,0.156
2.380E-06,0.156
2.390E-06,0.156
2.400E-06,0.156
2.410E-06,0.160
2.420E-06,0.156
2.430E-06,0.148
2.440E-06,0.148
2.450E-06,0.144
2.460E-06,0.152
2.470E-06,0.152
2.480E-06,0.152
2.490E-06,0.156
2.500E-06,0.156
2.510E-06,0.148
2.520E-06,0.148
2.530E-06,0.144
2.540E-06,0.148
2.550E-06,0.152
2.560E-06,0.156
2.570E-06,0.152
2.580E-06,0.152
2.590E-06,0.144
2.600E-06,0.140
2.610E-06,0.140
2.620E-06,0.140
2.630E-06,0.148
2.640E-06,0.144
2.650E-06,0.152
2.660E-06,0.152
2.670E-06,0.148
2.680E-06,0.144
2.690E-06,0.144
2.700E-06,0.140
2.710E-06,0.140
2.720E-06,0.144
2.730E-06,0.144
2.740E-06,0.148
2.750E-06,0.136
2.760E-06,0.140
2.770E-06,0.132
2.780E-06,0.132
2.790E-06,0.132
2.800E-06,0.136
2.810E-06,0.132
2.820E-06,0.132
2.830E-06,0.128
2.840E-06,0.132
2.850E-06,0.128
2.860E-06,0.128
2.870E-06,0.124
2.880E-06,0.124
2.890E-06,0.128
2.900E-06,0.132
2.910E-06,0.132
2.920E-06,0.132
2.930E-06,0.124
2.940E-06,0.124
2.950E-06,0.124
2.960E-06,0.132
2.970E-06,0.136
2.980E-06,0.128
2.990E-06,0.128
3.000E-06,0.128
3.010E-06,0.124
3.020E-06,0.124
3.030E-06,0.124
3.040E-06,0.124
3.050E-06,0.128
3.060E-06,0.128
3.070E-06,0.132
3.080E-06,0.124
3.090E-06,0.128
3.100E-06,0.120
3.110E-06,0.128
3.120E-06,0.128
3.130E-06,0.132
3.140E-06,0.132
3.150E-06,0.128
3.160E-06,0.128
3.170E-06,0.124
3.180E-06,0.124
3.190E-06,0.120
3.200E-06,0.124
3.210E-06,0.120
3.220E-06,0.120
3.230E-06,0.128
3.240E-06,0.124
3.250E-06,0.120
3.260E-06,0.116
3.270E-06,0.116
3.280E-06,0.120
3.290E-06,0.120
3.300E-06,0.120
3.310E-06,0.124
3.320E-06,0.120
3.330E-06,0.120
3.340E-06,0.112
3.350E-06,0.112
3.360E-06,0.116
3.370E-06,0.108
3.380E-06,0.112
3.390E-06,0.112
3.400E-06,0.112
3.410E-06,0.112
3.420E-06,0.104
3.430E-06,0.104
3.440E-06,0.104
3.450E-06,0.108
3.460E-06,0.108
3.470E-06,0.108
3.480E-06,0.112
3.490E-06,0.108
3.500E-06,0.104
3.510E-06,0.104
3.520E-06,0.104
3.530E-06,0.108
3.540E-06,0.108
3.550E-06,0.108
3.560E-06,0.108
3.570E-06,0.108
3.580E-06,0.108
3.590E-06,0.104
3.600E-06,0.104
3.610E-06,0.108
3.620E-06,0.108
3.630E-06,0.108
3.640E-06,0.104
3.650E-06,0.100
3.660E-06,0.096
3.670E-06,0.096
3.680E-06,0.096
3.690E-06,0.100
3.700E-06,0.104
3.710E-06,0.104
3.720E-06,0.104
3.730E-06,0.100
3.740E-06,0.096
3.750E-06,0.096
3.760E-06,0.096
3.770E-06,0.100
3.780E-06,0.096
3.790E-06,0.096
3.800E-06,0.096
3.810E-06,0.096
3.820E-06,0.092
3.830E-06,0.096
3.840E-06,0.092
3.850E-06,0.092
3.860E-06,0.092
3.870E-06,0.092
3.880E-06,0.092
3.890E-06,0.092
3.900E-06,0.092
3.910E-06,0.088
3.920E-06,0.088
3.930E-06,0.088
3.940E-06,0.088
3.950E-06,0.088
3.960E-06,0.088
3.970E-06,0.088
3.980E-06,0.088
3.990E-06,0.092
4.000E-06,0.088
4.010E-06,0.084
4.020E-06,0.088
4.030E-06,0.084
4.040E-06,0.084
4.050E-06,0.088
4.060E-06,0.080
4.070E-06,0.080
4.080E-06,0.088
4.090E-06,0.084
4.100E-06,0.084
4.110E-06,0.084
4.120E-06,0.076
4.130E-06,0.076
4.140E-06,0.076
4.150E-06,0.076
4.160E-06,0.076
4.170E-06,0.084
4.180E-06,0.080
4.190E-06,0.076
4.200E-06,0.068
4.210E-06,0.072
4.220E-06,0.072
4.230E-06,0.076
4.240E-06,0.076
4.250E-06,0.076
4.260E-06,0.080
4.270E-06,0.072
4.280E-06,0.072
4.290E-06,0.068
4.300E-06,0.072
4.310E-06,0.072
4.320E-06,0.080
4.330E-06,0.072
4.340E-06,0.072
4.350E-06,0.064
4.360E-06,0.064
4.370E-06,0.060
4.380E-06,0.064
4.390E-06,0.068
4.400E-06,0.076
4.410E-06,0.072
4.420E-06,0.064
4.430E-06,0.064
4.440E-06,0.068
4.450E-06,0.068
4.460E-06,0.068
4.470E-06,0.068
4.480E-06,0.064
4.490E-06,0.064
4.500E-06,0.060
4.510E-06,0.060
4.520E-06,0.060
4.530E-06,0.060
4.540E-06,0.060
4.550E-06,0.060
4.560E-06,0.064
4.570E-06,0.068
4.580E-06,0.064
4.590E-06,0.060
4.600E-06,0.060
4.610E-06,0.060
4.620E-06,0.060
4.630E-06,0.064
4.640E-06,0.060
4.650E-06,0.064
4.660E-06,0.064
4.670E-06,0.060
4.680E-06,0.060
4.690E-06,0.056
4.700E-06,0.056
4.710E-06,0.056
4.720E-06,0.060
4.730E-06,0.060
4.740E-06,0.068
4.750E-06,0.068
4.760E-06,0.064
4.770E-06,0.060
4.780E-06,0.060
4.790E-06,0.060
4.800E-06,0.060
4.810E-06,0.060
4.820E-06,0.060
4.830E-06,0.056
4.840E-06,0.060
4.850E-06,0.064
4.860E-06,0.060
4.870E-06,0.056
4.880E-06,0.056
4.890E-06,0.056
4.900E-06,0.056
4.910E-06,0.056
4.920E-06,0.056
4.930E-06,0.060
4.940E-06,0.052
4.950E-06,0.056
4.960E-06,0.052
4.970E-06,0.056
4.980E-06,0.052
4.990E-06,0.060
5.000E-06,0.060
5.010E-06,0.056
5.020E-06,0.056
5.030E-06,0.048
5.040E-06,0.048
5.050E-06,0.048
5.060E-06,0.048
5.070E-06,0.048
5.080E-06,0.052
5.090E-06,0.048
5.100E-06,0.048
5.110E-06,0.048
5.120E-06,0.044
5.130E-06,0.048
5.140E-06,0.044
5.150E-06,0.044
5.160E-06,0.048
5.170E-06,0.048
5.180E-06,0.044
5.190E-06,0.048
5.200E-06,0.040
5.210E-06,0.044
5.220E-06,0.040
5.230E-06,0.044
5.240E-06,0.044
5.250E-06,0.044
5.260E-06,0.036
5.270E-06,0.040
5.280E-06,0.036
5.290E-06,0.036
5.300E-06,0.032
5.310E-06,0.036
5.320E-06,0.040
5.330E-06,0.044
5.340E-06,0.040
5.350E-06,0.036
5.360E-06,0.036
5.370E-06,0.036
5.380E-06,0.032
5.390E-06,0.036
5.400E-06,0.036
5.410E-06,0.044
5.420E-06,0.036
5.430E-06,0.036
5.440E-06,0.036
5.450E-06,0.028
5.460E-06,0.028
5.470E-06,0.032
5.480E-06,0.032
5.490E-06,0.036
5.500E-06,0.036
5.510E-06,0.028
5.520E-06,0.032
5.530E-06,0.028
5.540E-06,0.032
5.550E-06,0.048
5.560E-06,0.024
5.570E-06,0.040
5.580E-06,0.016
5.590E-06,0.024
5.600E-06,0.020
5.610E-06,0.028
5.620E-06,0.032
5.630E-06,0.016
5.640E-06,0.024
5.650E-06,0.020
5.660E-06,0.032
5.670E-06,0.032
5.680E-06,0.036
5.690E-06,0.036
5.700E-06,0.032
5.710E-06,0.020
5.720E-06,0.024
5.730E-06,0.020
5.740E-06,0.024
5.750E-06,0.032
5.760E-06,0.028
5.770E-06,0.024
5.780E-06,0.024
5.790E-06,0.020
5.800E-06,0.024
5.810E-06,0.020
5.820E-06,0.020
5.830E-06,0.024
5.840E-06,0.024
5.850E-06,0.024
5.860E-06,0.024
5.870E-06,0.016
5.880E-06,0.020
5.890E-06,0.024
5.900E-06,0.028
5.910E-06,0.028
5.920E-06,0.032
5.930E-06,0.020
5.940E-06,0.024
5.950E-06,0.024
5.960E-06,0.020
5.970E-06,0.012
5.980E-06,0.012
5.990E-06,0.020
6.000E-06,0.016
6.010E-06,0.024
6.020E-06,0.016
6.030E-06,0.016
6.040E-06,0.012
6.050E-06,0.012
6.060E-06,0.020
6.070E-06,0.012
6.080E-06,0.020
6.090E-06,0.024
6.100E-06,0.012
6.110E-06,0.016
6.120E-06,0.016
6.130E-06,0.016
6.140E-06,0.016
6.150E-06,0.008
6.160E-06,0.012
6.170E-06,0.016
6.180E-06,0.016
6.190E-06,0.012
6.200E-06,0.012
6.210E-06,0.012
6.220E-06,0.008
6.230E-06,0.012
6.240E-06,0.016
6.250E-06,0.012
6.260E-06,0.008
6.270E-06,0.012
6.280E-06,0.016
6.290E-06,0.016
6.300E-06,0.004
6.310E-06,0.008
6.320E-06,0.012
6.330E-06,0.008
6.340E-06,0.012
6.350E-06,0.012
6.360E-06,0.012
6.370E-06,0.012
6.380E-06,0.012
6.390E-06,0.012
6.400E-06,0.004
6.410E-06,0.008
6.420E-06,0.008
6.430E-06,0.012
6.440E-06,0.008
6.450E-06,0.008
6.460E-06,0.004
6.470E-06,0.004
6.480E-06,0.000
6.490E-06,0.008
6.500E-06,0.012
6.510E-06,0.004
6.520E-06,0.004
6.530E-06,0.008
6.540E-06,0.008
6.550E-06,-0.004
6.560E-06,0.000
6.570E-06,0.004
6.580E-06,0.004
6.590E-06,0.004
6.600E-06,0.008
6.610E-06,0.000
6.620E-06,0.000
6.630E-06,0.004
6.640E-06,0.004
6.650E-06,0.004
6.660E-06,0.008
6.670E-06,0.000
6.680E-06,0.004
6.690E-06,0.004
6.700E-06,0.004
6.710E-06,0.004
6.720E-06,0.000
6.730E-06,0.000
6.740E-06,0.000
6.750E-06,0.004
6.760E-06,0.000
6.770E-06,0.004
6.780E-06,-0.004
6.790E-06,0.000
6.800E-06,0.000
6.810E-06,-0.004
6.820E-06,0.000
6.830E-06,-0.004
6.840E-06,0.000
6.850E-06,0.000
6.860E-06,0.000
6.870E-06,0.000
6.880E-06,-0.004
6.890E-06,-0.004
6.900E-06,-0.008
6.910E-06,0.000
6.920E-06,0.000
6.930E-06,-0.004
6.940E-06,0.004
6.950E-06,-0.008
6.960E-06,-0.008
6.970E-06,-0.012
6.980E-06,-0.012
6.990E-06,-0.004
7.000E-06,-0.008
7.010E-06,-0.008
7.020E-06,-0.008
7.030E-06,-0.004
7.040E-06,-0.008
7.050E-06,-0.008
7.060E-06,-0.008
7.070E-06,-0.004
7.080E-06,-0.008
7.090E-06,-0.004
7.100E-06,-0.008
7.110E-06,-0.008
7.120E-06,0.000
7.130E-06,-0.008
7.140E-06,-0.008
7.150E-06,-0.008
7.160E-06,-0.004
7.170E-06,-0.008
7.180E-06,-0.008
7.190E-06,-0.008
7.200E-06,-0.012
7.210E-06,-0.012
7.220E-06,-0.016
7.230E-06,-0.008
7.240E-06,-0.008
7.250E-06,-0.012
7.260E-06,-0.008
7.270E-06,-0.008
7.280E-06,-0.008
7.290E-06,-0.012
7.300E-06,-0.008
7.310E-06,-0.012
7.320E-06,-0.012
7.330E-06,-0.016
7.340E-06,-0.016
7.350E-06,-0.016
7.360E-06,-0.008
7.370E-06,-0.004
7.380E-06,-0.012
7.390E-06,-0.008
7.400E-06,-0.016
7.410E-06,-0.016
7.420E-06,-0.024
7.430E-06,-0.016
7.440E-06,-0.008
7.450E-06,-0.008
7.460E-06,-0.020
7.470E-06,-0.020
7.480E-06,-0.016
7.490E-06,-0.016
7.500E-06,-0.020
7.510E-06,-0.016
7.520E-06,-0.016
7.530E-06,-0.016
7.540E-06,-0.016
7.550E-06,-0.024
7.560E-06,-0.020
7.570E-06,-0.020
7.580E-06,-0.016
7.590E-06,-0.020
7.600E-06,-0.024
7.610E-06,-0.012
7.620E-06,-0.016
7.630E-06,-0.020
7.640E-06,-0.024
7.650E-06,-0.024
7.660E-06,-0.020
7.670E-06,-0.020
7.680E-06,-0.016
7.690E-06,-0.024
7.700E-06,-0.020
7.710E-06,-0.020
7.720E-06,-0.020
7.730E-06,-0.024
7.740E-06,-0.028
7.750E-06,-0.024
7.760E-06,-0.016
7.770E-06,-0.024
7.780E-06,-0.024
7.790E-06,-0.020
7.800E-06,-0.020
7.810E-06,-0.024
7.820E-06,-0.024
