mediciones/Mediciones filtradas (saque las feas)/6-10/8.6/WaveData5681.csv

#timebase=2000000(ps)
,#voltbase=100000(mv/100)
#size=4000
-4.200E-06,0.020
-4.190E-06,0.016
-4.180E-06,0.016
-4.170E-06,0.020
-4.160E-06,0.012
-4.150E-06,0.000
-4.140E-06,-0.024
-4.130E-06,-0.120
-4.120E-06,-0.092
-4.110E-06,-0.004
-4.100E-06,0.064
-4.090E-06,0.076
-4.080E-06,0.016
-4.070E-06,0.000
-4.060E-06,-0.032
-4.050E-06,-0.052
-4.040E-06,-0.036
-4.030E-06,0.012
-4.020E-06,0.064
-4.010E-06,0.060
-4.000E-06,0.024
-3.990E-06,-0.024
-3.980E-06,-0.036
-3.970E-06,-0.032
-3.960E-06,-0.004
-3.950E-06,0.028
-3.940E-06,0.040
-3.930E-06,0.028
-3.920E-06,0.012
-3.910E-06,-0.008
-3.900E-06,-0.016
-3.890E-06,-0.012
-3.880E-06,0.012
-3.870E-06,0.020
-3.860E-06,0.024
-3.850E-06,0.024
-3.840E-06,0.004
-3.830E-06,0.000
-3.820E-06,-0.008
-3.810E-06,-0.004
-3.800E-06,0.012
-3.790E-06,0.028
-3.780E-06,0.036
-3.770E-06,-0.072
-3.760E-06,-0.068
-3.750E-06,-0.036
-3.740E-06,0.044
-3.730E-06,0.060
-3.720E-06,0.040
-3.710E-06,0.028
-3.700E-06,0.000
-3.690E-06,-0.028
-3.680E-06,-0.060
-3.670E-06,-0.024
-3.660E-06,0.020
-3.650E-06,0.064
-3.640E-06,0.036
-3.630E-06,0.008
-3.620E-06,-0.016
-3.610E-06,-0.020
-3.600E-06,-0.012
-3.590E-06,0.000
-3.580E-06,0.016
-3.570E-06,0.024
-3.560E-06,0.016
-3.550E-06,0.000
-3.540E-06,0.000
-3.530E-06,-0.004
-3.520E-06,0.000
-3.510E-06,0.004
-3.500E-06,0.012
-3.490E-06,0.012
-3.480E-06,0.000
-3.470E-06,0.004
-3.460E-06,-0.004
-3.450E-06,-0.004
-3.440E-06,-0.004
-3.430E-06,0.008
-3.420E-06,0.008
-3.410E-06,0.008
-3.400E-06,0.008
-3.390E-06,0.000
-3.380E-06,-0.004
-3.370E-06,-0.004
-3.360E-06,0.004
-3.350E-06,0.012
-3.340E-06,0.008
-3.330E-06,0.012
-3.320E-06,0.008
-3.310E-06,-0.004
-3.300E-06,-0.004
-3.290E-06,0.000
-3.280E-06,-0.004
-3.270E-06,0.012
-3.260E-06,0.016
-3.250E-06,0.024
-3.240E-06,0.016
-3.230E-06,0.016
-3.220E-06,0.000
-3.210E-06,0.004
-3.200E-06,0.020
-3.190E-06,0.032
-3.180E-06,0.036
-3.170E-06,0.028
-3.160E-06,0.016
-3.150E-06,-0.032
-3.140E-06,-0.064
-3.130E-06,-0.056
-3.120E-06,0.016
-3.110E-06,0.040
-3.100E-06,0.060
-3.090E-06,0.016
-3.080E-06,0.000
-3.070E-06,-0.024
-3.060E-06,-0.036
-3.050E-06,-0.024
-3.040E-06,0.000
-3.030E-06,0.044
-3.020E-06,0.052
-3.010E-06,0.056
-3.000E-06,0.024
-2.990E-06,0.008
-2.980E-06,-0.008
-2.970E-06,-0.004
-2.960E-06,-0.040
-2.950E-06,-0.040
-2.940E-06,-0.060
-2.930E-06,-0.004
-2.920E-06,0.032
-2.910E-06,0.036
-2.900E-06,0.028
-2.890E-06,-0.004
-2.880E-06,-0.020
-2.870E-06,-0.040
-2.860E-06,-0.028
-2.850E-06,0.000
-2.840E-06,0.020
-2.830E-06,0.044
-2.820E-06,0.040
-2.810E-06,0.008
-2.800E-06,-0.024
-2.790E-06,-0.032
-2.780E-06,-0.024
-2.770E-06,0.008
-2.760E-06,0.040
-2.750E-06,0.048
-2.740E-06,0.040
-2.730E-06,0.024
-2.720E-06,0.024
-2.710E-06,0.008
-2.700E-06,0.028
-2.690E-06,0.028
-2.680E-06,-0.020
-2.670E-06,-0.048
-2.660E-06,-0.080
-2.650E-06,-0.040
-2.640E-06,-0.008
-2.630E-06,0.024
-2.620E-06,0.036
-2.610E-06,0.020
-2.600E-06,0.004
-2.590E-06,-0.024
-2.580E-06,-0.028
-2.570E-06,-0.024
-2.560E-06,0.008
-2.550E-06,0.024
-2.540E-06,0.024
-2.530E-06,0.012
-2.520E-06,-0.004
-2.510E-06,-0.012
-2.500E-06,-0.012
-2.490E-06,-0.008
-2.480E-06,0.012
-2.470E-06,0.024
-2.460E-06,0.012
-2.450E-06,0.012
-2.440E-06,0.004
-2.430E-06,0.000
-2.420E-06,0.004
-2.410E-06,-0.008
-2.400E-06,0.004
-2.390E-06,-0.004
-2.380E-06,0.012
-2.370E-06,0.012
-2.360E-06,0.012
-2.350E-06,0.008
-2.340E-06,0.008
-2.330E-06,0.004
-2.320E-06,-0.004
-2.310E-06,0.004
-2.300E-06,0.012
-2.290E-06,0.016
-2.280E-06,0.020
-2.270E-06,0.024
-2.260E-06,0.012
-2.250E-06,0.004
-2.240E-06,0.012
-2.230E-06,0.016
-2.220E-06,0.016
-2.210E-06,0.016
-2.200E-06,0.032
-2.190E-06,0.024
-2.180E-06,0.024
-2.170E-06,0.028
-2.160E-06,0.020
-2.150E-06,0.024
-2.140E-06,0.024
-2.130E-06,0.020
-2.120E-06,0.024
-2.110E-06,0.020
-2.100E-06,0.024
-2.090E-06,0.028
-2.080E-06,0.024
-2.070E-06,0.032
-2.060E-06,0.036
-2.050E-06,0.032
-2.040E-06,0.020
-2.030E-06,0.012
-2.020E-06,-0.004
-2.010E-06,-0.012
-2.000E-06,-0.020
-1.990E-06,-0.004
-1.980E-06,0.008
-1.970E-06,0.008
-1.960E-06,0.008
-1.950E-06,0.016
-1.940E-06,0.032
-1.930E-06,0.040
-1.920E-06,0.044
-1.910E-06,0.020
-1.900E-06,-0.024
-1.890E-06,-0.084
-1.880E-06,-0.136
-1.870E-06,-0.108
-1.860E-06,0.000
-1.850E-06,0.096
-1.840E-06,0.160
-1.830E-06,0.144
-1.820E-06,0.088
-1.810E-06,-0.012
-1.800E-06,-0.068
-1.790E-06,-0.148
-1.780E-06,-0.132
-1.770E-06,-0.040
-1.760E-06,-0.056
-1.750E-06,-0.040
-1.740E-06,0.012
-1.730E-06,0.032
-1.720E-06,0.028
-1.710E-06,-0.084
-1.700E-06,-0.084
-1.690E-06,-0.036
-1.680E-06,-0.004
-1.670E-06,0.064
-1.660E-06,0.056
-1.650E-06,0.028
-1.640E-06,0.008
-1.630E-06,-0.012
-1.620E-06,-0.048
-1.610E-06,-0.036
-1.600E-06,-0.004
-1.590E-06,0.016
-1.580E-06,0.048
-1.570E-06,0.040
-1.560E-06,0.012
-1.550E-06,-0.008
-1.540E-06,-0.020
-1.530E-06,-0.020
-1.520E-06,0.000
-1.510E-06,0.016
-1.500E-06,0.028
-1.490E-06,0.028
-1.480E-06,0.016
-1.470E-06,0.004
-1.460E-06,-0.008
-1.450E-06,-0.004
-1.440E-06,-0.004
-1.430E-06,0.016
-1.420E-06,0.024
-1.410E-06,0.020
-1.400E-06,0.016
-1.390E-06,0.020
-1.380E-06,0.004
-1.370E-06,-0.004
-1.360E-06,-0.004
-1.350E-06,0.008
-1.340E-06,0.020
-1.330E-06,0.016
-1.320E-06,0.028
-1.310E-06,0.020
-1.300E-06,0.008
-1.290E-06,0.000
-1.280E-06,0.000
-1.270E-06,0.008
-1.260E-06,0.008
-1.250E-06,0.024
-1.240E-06,0.020
-1.230E-06,0.028
-1.220E-06,0.032
-1.210E-06,0.028
-1.200E-06,0.024
-1.190E-06,0.028
-1.180E-06,0.028
-1.170E-06,0.044
-1.160E-06,0.048
-1.150E-06,0.044
-1.140E-06,0.044
-1.130E-06,0.040
-1.120E-06,0.048
-1.110E-06,0.052
-1.100E-06,0.052
-1.090E-06,0.056
-1.080E-06,0.056
-1.070E-06,0.056
-1.060E-06,0.060
-1.050E-06,0.068
-1.040E-06,0.080
-1.030E-06,0.096
-1.020E-06,0.076
-1.010E-06,0.088
-1.000E-06,0.032
-9.900E-07,0.012
-9.800E-07,-0.044
-9.700E-07,-0.108
-9.600E-07,-0.164
-9.500E-07,-0.136
-9.400E-07,-0.064
-9.300E-07,0.020
-9.200E-07,0.068
-9.100E-07,-0.052
-9.000E-07,-0.176
-8.900E-07,-0.204
-8.800E-07,-0.156
-8.700E-07,-0.072
-8.600E-07,0.032
-8.500E-07,0.120
-8.400E-07,0.136
-8.300E-07,0.032
-8.200E-07,-0.104
-8.100E-07,-0.128
-8.000E-07,-0.104
-7.900E-07,-0.060
-7.800E-07,-0.032
-7.700E-07,0.084
-7.600E-07,0.084
-7.500E-07,0.036
-7.400E-07,0.032
-7.300E-07,-0.040
-7.200E-07,-0.072
-7.100E-07,-0.068
-7.000E-07,-0.024
-6.900E-07,0.024
-6.800E-07,0.060
-6.700E-07,0.064
-6.600E-07,0.028
-6.500E-07,0.004
-6.400E-07,-0.040
-6.300E-07,-0.044
-6.200E-07,-0.036
-6.100E-07,0.004
-6.000E-07,0.044
-5.900E-07,0.052
-5.800E-07,0.044
-5.700E-07,0.008
-5.600E-07,-0.020
-5.500E-07,-0.032
-5.400E-07,-0.024
-5.300E-07,-0.004
-5.200E-07,0.028
-5.100E-07,0.048
-5.000E-07,0.044
-4.900E-07,0.024
-4.800E-07,0.000
-4.700E-07,-0.008
-4.600E-07,-0.020
-4.500E-07,-0.012
-4.400E-07,0.008
-4.300E-07,0.028
-4.200E-07,0.032
-4.100E-07,0.028
-4.000E-07,0.020
-3.900E-07,-0.004
-3.800E-07,-0.016
-3.700E-07,-0.024
-3.600E-07,0.024
-3.500E-07,0.040
-3.400E-07,0.056
-3.300E-07,0.056
-3.200E-07,0.024
-3.100E-07,0.000
-3.000E-07,-0.016
-2.900E-07,-0.012
-2.800E-07,0.020
-2.700E-07,0.052
-2.600E-07,0.088
-2.500E-07,0.076
-2.400E-07,0.060
-2.300E-07,0.040
-2.200E-07,0.032
-2.100E-07,0.028
-2.000E-07,0.056
-1.900E-07,0.076
-1.800E-07,0.108
-1.700E-07,0.116
-1.600E-07,0.112
-1.500E-07,0.116
-1.400E-07,0.112
-1.300E-07,0.120
-1.200E-07,0.128
-1.100E-07,0.132
-1.000E-07,0.128
-9.000E-08,0.120
-8.000E-08,0.000
-7.000E-08,-0.088
-6.000E-08,-0.292
-5.000E-08,-0.424
-4.000E-08,-0.368
-3.000E-08,-0.268
-2.000E-08,0.000
-1.000E-08,0.236
0.000E+00,0.336
1.000E-08,0.256
2.000E-08,0.088
3.000E-08,-0.056
4.000E-08,-0.288
5.000E-08,-0.364
6.000E-08,-0.316
7.000E-08,-0.172
8.000E-08,0.032
9.000E-08,0.156
1.000E-07,0.216
1.100E-07,0.164
1.200E-07,0.040
1.300E-07,-0.088
1.400E-07,-0.104
1.500E-07,-0.088
1.600E-07,-0.028
1.700E-07,-0.016
1.800E-07,0.024
1.900E-07,0.028
2.000E-07,-0.076
2.100E-07,-0.048
2.200E-07,-0.040
2.300E-07,0.040
2.400E-07,0.004
2.500E-07,0.024
2.600E-07,0.032
2.700E-07,0.024
2.800E-07,-0.004
2.900E-07,-0.092
3.000E-07,-0.076
3.100E-07,-0.040
3.200E-07,0.060
3.300E-07,0.068
3.400E-07,0.088
3.500E-07,0.028
3.600E-07,-0.008
3.700E-07,-0.052
3.800E-07,-0.048
3.900E-07,-0.012
4.000E-07,0.028
4.100E-07,0.080
4.200E-07,0.068
4.300E-07,0.044
4.400E-07,-0.012
4.500E-07,-0.040
4.600E-07,-0.056
4.700E-07,-0.012
4.800E-07,0.024
4.900E-07,0.060
5.000E-07,0.068
5.100E-07,0.044
5.200E-07,0.008
5.300E-07,-0.020
5.400E-07,-0.020
5.500E-07,-0.020
5.600E-07,0.024
5.700E-07,0.032
5.800E-07,0.064
5.900E-07,0.064
6.000E-07,0.028
6.100E-07,-0.008
6.200E-07,-0.004
6.300E-07,-0.028
6.400E-07,-0.028
6.500E-07,0.012
6.600E-07,0.064
6.700E-07,0.124
6.800E-07,0.124
6.900E-07,0.072
7.000E-07,0.020
7.100E-07,0.012
7.200E-07,0.040
7.300E-07,0.076
7.400E-07,0.128
7.500E-07,0.148
7.600E-07,0.164
7.700E-07,0.112
7.800E-07,0.044
7.900E-07,-0.024
8.000E-07,-0.100
8.100E-07,-0.192
8.200E-07,-0.292
8.300E-07,-0.248
8.400E-07,-0.012
8.500E-07,-0.236
8.600E-07,0.008
8.700E-07,0.108
8.800E-07,0.276
8.900E-07,0.072
9.000E-07,-0.172
9.100E-07,-0.212
9.200E-07,-0.240
9.300E-07,-0.004
9.400E-07,0.144
9.500E-07,0.212
9.600E-07,0.084
9.700E-07,0.056
9.800E-07,-0.096
9.900E-07,-0.080
1.000E-06,-0.068
1.010E-06,-0.008
1.020E-06,0.108
1.030E-06,0.164
1.040E-06,0.060
1.050E-06,-0.008
1.060E-06,-0.052
1.070E-06,-0.108
1.080E-06,-0.056
1.090E-06,0.048
1.100E-06,0.024
1.110E-06,0.016
1.120E-06,-0.012
1.130E-06,-0.072
1.140E-06,-0.040
1.150E-06,-0.040
1.160E-06,0.028
1.170E-06,0.092
1.180E-06,0.120
1.190E-06,0.036
1.200E-06,-0.008
1.210E-06,-0.072
1.220E-06,-0.068
1.230E-06,-0.076
1.240E-06,-0.024
1.250E-06,0.040
1.260E-06,0.072
1.270E-06,0.080
1.280E-06,0.012
1.290E-06,0.012
1.300E-06,-0.052
1.310E-06,-0.052
1.320E-06,-0.044
1.330E-06,-0.008
1.340E-06,0.020
1.350E-06,0.040
1.360E-06,0.060
1.370E-06,0.012
1.380E-06,-0.016
1.390E-06,-0.040
1.400E-06,-0.032
1.410E-06,-0.020
1.420E-06,0.028
1.430E-06,0.036
1.440E-06,0.056
1.450E-06,0.044
1.460E-06,0.008
1.470E-06,-0.032
1.480E-06,-0.044
1.490E-06,-0.024
1.500E-06,0.016
1.510E-06,0.048
1.520E-06,0.056
1.530E-06,0.044
1.540E-06,-0.004
1.550E-06,-0.020
1.560E-06,-0.028
1.570E-06,0.004
1.580E-06,0.032
1.590E-06,0.064
1.600E-06,0.052
1.610E-06,0.024
1.620E-06,0.020
1.630E-06,-0.004
1.640E-06,0.028
1.650E-06,0.040
1.660E-06,0.072
1.670E-06,0.076
1.680E-06,0.060
1.690E-06,0.040
1.700E-06,0.012
1.710E-06,-0.044
1.720E-06,-0.036
1.730E-06,-0.008
1.740E-06,-0.032
1.750E-06,0.020
1.760E-06,0.028
1.770E-06,0.032
1.780E-06,0.020
1.790E-06,0.028
1.800E-06,0.000
1.810E-06,0.016
1.820E-06,0.024
1.830E-06,0.004
1.840E-06,0.004
1.850E-06,0.020
1.860E-06,0.024
1.870E-06,0.036
1.880E-06,0.060
1.890E-06,0.104
1.900E-06,0.132
1.910E-06,0.128
1.920E-06,0.132
1.930E-06,0.116
1.940E-06,0.088
1.950E-06,0.028
1.960E-06,-0.036
1.970E-06,-0.112
1.980E-06,-0.100
1.990E-06,0.008
2.000E-06,-0.072
2.010E-06,0.008
2.020E-06,-0.252
2.030E-06,-0.316
2.040E-06,-0.336
2.050E-06,-0.216
2.060E-06,0.124
2.070E-06,0.228
2.080E-06,0.248
2.090E-06,0.180
2.100E-06,-0.048
2.110E-06,-0.212
2.120E-06,-0.200
2.130E-06,-0.056
2.140E-06,0.108
2.150E-06,0.224
2.160E-06,0.260
2.170E-06,0.180
2.180E-06,0.004
2.190E-06,-0.388
2.200E-06,-0.252
2.210E-06,-0.108
2.220E-06,0.028
2.230E-06,0.052
2.240E-06,0.124
2.250E-06,0.136
2.260E-06,-0.032
2.270E-06,-0.140
2.280E-06,-0.176
2.290E-06,-0.112
2.300E-06,-0.048
2.310E-06,0.056
2.320E-06,0.088
2.330E-06,0.072
2.340E-06,0.040
2.350E-06,0.004
2.360E-06,-0.040
2.370E-06,-0.056
2.380E-06,-0.036
2.390E-06,-0.012
2.400E-06,0.036
2.410E-06,0.060
2.420E-06,0.056
2.430E-06,0.036
2.440E-06,0.024
2.450E-06,0.000
2.460E-06,-0.012
2.470E-06,-0.008
2.480E-06,0.000
2.490E-06,0.008
2.500E-06,0.016
2.510E-06,0.016
2.520E-06,0.012
2.530E-06,0.008
2.540E-06,0.000
2.550E-06,0.000
2.560E-06,0.008
2.570E-06,0.020
2.580E-06,0.020
2.590E-06,0.024
2.600E-06,0.028
2.610E-06,0.016
2.620E-06,0.016
2.630E-06,0.012
2.640E-06,0.004
2.650E-06,0.012
2.660E-06,0.036
2.670E-06,0.056
2.680E-06,0.076
2.690E-06,0.092
2.700E-06,0.092
2.710E-06,0.096
2.720E-06,0.092
2.730E-06,0.096
2.740E-06,0.088
2.750E-06,0.092
2.760E-06,0.096
2.770E-06,0.096
2.780E-06,0.088
2.790E-06,0.064
2.800E-06,0.072
2.810E-06,0.088
2.820E-06,0.108
2.830E-06,0.140
2.840E-06,0.164
2.850E-06,-0.100
2.860E-06,-0.376
2.870E-06,-0.512
2.880E-06,-0.512
2.890E-06,-0.368
2.900E-06,0.200
2.910E-06,0.540
2.920E-06,0.524
2.930E-06,0.392
2.940E-06,-0.040
2.950E-06,-0.380
2.960E-06,-0.412
2.970E-06,-0.232
2.980E-06,0.160
2.990E-06,0.344
3.000E-06,0.400
3.010E-06,0.008
3.020E-06,-0.196
3.030E-06,-0.420
3.040E-06,-0.360
3.050E-06,-0.096
3.060E-06,0.168
3.070E-06,0.324
3.080E-06,0.240
3.090E-06,0.052
3.100E-06,-0.164
3.110E-06,-0.272
3.120E-06,-0.236
3.130E-06,-0.040
3.140E-06,0.164
3.150E-06,0.272
3.160E-06,0.244
3.170E-06,0.068
3.180E-06,-0.116
3.190E-06,-0.228
3.200E-06,-0.176
3.210E-06,-0.052
3.220E-06,0.120
3.230E-06,0.188
3.240E-06,0.164
3.250E-06,0.076
3.260E-06,-0.052
3.270E-06,-0.152
3.280E-06,-0.164
3.290E-06,-0.068
3.300E-06,0.052
3.310E-06,0.172
3.320E-06,0.184
3.330E-06,0.100
3.340E-06,-0.028
3.350E-06,-0.108
3.360E-06,-0.112
3.370E-06,-0.056
3.380E-06,0.036
3.390E-06,0.124
3.400E-06,0.152
3.410E-06,0.096
3.420E-06,0.020
3.430E-06,-0.048
3.440E-06,-0.068
3.450E-06,-0.032
3.460E-06,0.056
3.470E-06,0.144
3.480E-06,0.204
3.490E-06,0.184
3.500E-06,0.128
3.510E-06,0.064
3.520E-06,0.044
3.530E-06,0.076
3.540E-06,0.136
3.550E-06,0.208
3.560E-06,0.244
3.570E-06,0.220
3.580E-06,0.144
3.590E-06,0.068
3.600E-06,0.016
3.610E-06,-0.016
3.620E-06,0.016
3.630E-06,0.104
3.640E-06,0.032
3.650E-06,-0.096
3.660E-06,-0.416
3.670E-06,-0.512
3.680E-06,-0.512
3.690E-06,-0.344
3.700E-06,0.084
3.710E-06,0.280
3.720E-06,0.436
3.730E-06,0.160
3.740E-06,-0.104
3.750E-06,-0.388
3.760E-06,-0.320
3.770E-06,-0.216
3.780E-06,-0.008
3.790E-06,0.272
3.800E-06,0.344
3.810E-06,0.128
3.820E-06,0.004
3.830E-06,-0.260
3.840E-06,-0.356
3.850E-06,-0.176
3.860E-06,0.036
3.870E-06,0.148
3.880E-06,0.160
3.890E-06,0.152
3.900E-06,0.016
3.910E-06,-0.124
3.920E-06,-0.144
3.930E-06,-0.176
3.940E-06,-0.036
3.950E-06,0.140
3.960E-06,0.220
3.970E-06,0.156
3.980E-06,0.052
3.990E-06,-0.076
4.000E-06,-0.204
4.010E-06,-0.172
4.020E-06,-0.148
4.030E-06,-0.044
4.040E-06,0.132
4.050E-06,0.132
4.060E-06,0.128
4.070E-06,-0.008
4.080E-06,-0.100
4.090E-06,-0.080
4.100E-06,-0.036
4.110E-06,0.072
4.120E-06,0.112
4.130E-06,0.140
4.140E-06,0.096
4.150E-06,0.040
4.160E-06,0.008
4.170E-06,-0.020
4.180E-06,-0.008
4.190E-06,0.004
4.200E-06,0.092
4.210E-06,0.120
4.220E-06,0.060
4.230E-06,0.092
4.240E-06,0.072
4.250E-06,0.084
4.260E-06,0.128
4.270E-06,0.088
4.280E-06,0.056
4.290E-06,0.084
4.300E-06,0.104
4.310E-06,0.116
4.320E-06,0.104
4.330E-06,0.096
4.340E-06,0.072
4.350E-06,0.128
4.360E-06,0.108
4.370E-06,0.120
4.380E-06,0.152
4.390E-06,0.132
4.400E-06,0.152
4.410E-06,0.044
4.420E-06,-0.128
4.430E-06,-0.296
4.440E-06,-0.352
4.450E-06,-0.204
4.460E-06,0.084
4.470E-06,0.488
4.480E-06,0.540
4.490E-06,0.488
4.500E-06,0.120
4.510E-06,-0.168
4.520E-06,-0.512
4.530E-06,-0.512
4.540E-06,-0.508
4.550E-06,-0.512
4.560E-06,-0.364
4.570E-06,0.192
4.580E-06,0.272
4.590E-06,0.088
4.600E-06,0.092
4.610E-06,-0.344
4.620E-06,-0.244
4.630E-06,-0.320
4.640E-06,-0.092
4.650E-06,0.276
4.660E-06,0.388
4.670E-06,0.224
4.680E-06,-0.016
4.690E-06,-0.240
4.700E-06,-0.232
4.710E-06,-0.012
4.720E-06,0.208
4.730E-06,0.192
4.740E-06,0.112
4.750E-06,-0.056
4.760E-06,-0.140
4.770E-06,-0.196
4.780E-06,-0.128
4.790E-06,-0.052
4.800E-06,0.116
4.810E-06,0.268
4.820E-06,0.188
4.830E-06,0.108
4.840E-06,-0.060
4.850E-06,-0.216
4.860E-06,-0.140
4.870E-06,0.064
4.880E-06,0.216
4.890E-06,0.264
4.900E-06,0.192
4.910E-06,0.128
4.920E-06,-0.048
4.930E-06,-0.180
4.940E-06,-0.204
4.950E-06,-0.052
4.960E-06,0.088
4.970E-06,0.204
4.980E-06,0.264
4.990E-06,0.092
5.000E-06,-0.048
5.010E-06,-0.160
5.020E-06,-0.144
5.030E-06,-0.080
5.040E-06,0.024
5.050E-06,0.168
5.060E-06,0.236
5.070E-06,0.224
5.080E-06,0.104
5.090E-06,-0.060
5.100E-06,-0.128
5.110E-06,-0.072
5.120E-06,0.068
5.130E-06,0.168
5.140E-06,0.228
5.150E-06,0.256
5.160E-06,0.108
5.170E-06,0.024
5.180E-06,-0.060
5.190E-06,-0.036
5.200E-06,0.072
5.210E-06,0.192
5.220E-06,0.256
5.230E-06,0.180
5.240E-06,0.088
5.250E-06,-0.040
5.260E-06,-0.172
5.270E-06,-0.180
5.280E-06,-0.092
5.290E-06,0.136
5.300E-06,0.200
5.310E-06,0.156
5.320E-06,0.048
5.330E-06,0.008
5.340E-06,-0.136
5.350E-06,-0.176
5.360E-06,-0.200
5.370E-06,-0.080
5.380E-06,0.076
5.390E-06,0.008
5.400E-06,0.028
5.410E-06,0.020
5.420E-06,0.000
5.430E-06,0.068
5.440E-06,0.132
5.450E-06,0.088
5.460E-06,0.112
5.470E-06,0.036
5.480E-06,-0.084
5.490E-06,-0.288
5.500E-06,-0.428
5.510E-06,-0.352
5.520E-06,-0.228
5.530E-06,-0.032
5.540E-06,0.028
5.550E-06,0.240
5.560E-06,0.024
5.570E-06,0.016
5.580E-06,-0.120
5.590E-06,-0.224
5.600E-06,-0.176
5.610E-06,-0.040
5.620E-06,0.264
5.630E-06,0.256
5.640E-06,0.328
5.650E-06,0.236
5.660E-06,0.028
5.670E-06,-0.168
5.680E-06,-0.300
5.690E-06,-0.220
5.700E-06,-0.072
5.710E-06,0.240
5.720E-06,0.276
5.730E-06,0.220
5.740E-06,-0.004
5.750E-06,-0.184
5.760E-06,-0.224
5.770E-06,-0.100
5.780E-06,0.024
5.790E-06,0.208
5.800E-06,0.352
5.810E-06,0.304
5.820E-06,0.196
5.830E-06,-0.032
5.840E-06,-0.192
5.850E-06,-0.172
5.860E-06,-0.088
5.870E-06,0.024
5.880E-06,0.156
5.890E-06,0.156
5.900E-06,0.108
5.910E-06,-0.040
5.920E-06,-0.120
5.930E-06,-0.240
5.940E-06,-0.080
5.950E-06,0.092
5.960E-06,0.220
5.970E-06,0.252
5.980E-06,0.196
5.990E-06,0.112
6.000E-06,0.076
6.010E-06,0.084
6.020E-06,0.128
6.030E-06,0.220
6.040E-06,0.228
6.050E-06,0.224
6.060E-06,0.152
6.070E-06,0.092
6.080E-06,0.064
6.090E-06,0.064
6.100E-06,0.104
6.110E-06,0.136
6.120E-06,0.260
6.130E-06,0.236
6.140E-06,0.204
6.150E-06,0.144
6.160E-06,0.004
6.170E-06,-0.148
6.180E-06,-0.308
6.190E-06,-0.396
6.200E-06,-0.448
6.210E-06,-0.460
6.220E-06,-0.332
6.230E-06,-0.356
6.240E-06,-0.240
6.250E-06,-0.272
6.260E-06,-0.020
6.270E-06,-0.012
6.280E-06,-0.044
6.290E-06,-0.072
6.300E-06,-0.112
6.310E-06,-0.024
6.320E-06,-0.012
6.330E-06,0.124
6.340E-06,0.232
6.350E-06,0.216
6.360E-06,0.252
6.370E-06,0.300
6.380E-06,0.172
6.390E-06,0.084
6.400E-06,0.096
6.410E-06,0.156
6.420E-06,0.180
6.430E-06,0.200
6.440E-06,0.148
6.450E-06,0.112
6.460E-06,0.156
6.470E-06,0.192
6.480E-06,0.180
6.490E-06,0.184
6.500E-06,0.136
6.510E-06,0.104
6.520E-06,0.124
6.530E-06,0.148
6.540E-06,0.152
6.550E-06,0.176
6.560E-06,0.192
6.570E-06,0.148
6.580E-06,0.096
6.590E-06,0.068
6.600E-06,0.020
6.610E-06,0.024
6.620E-06,0.084
6.630E-06,0.136
6.640E-06,0.192
6.650E-06,0.200
6.660E-06,0.188
6.670E-06,0.200
6.680E-06,0.180
6.690E-06,0.172
6.700E-06,0.192
6.710E-06,0.204
6.720E-06,0.224
6.730E-06,0.220
6.740E-06,0.212
6.750E-06,0.200
6.760E-06,0.172
6.770E-06,0.164
6.780E-06,0.136
6.790E-06,0.128
6.800E-06,0.136
6.810E-06,0.136
6.820E-06,0.104
6.830E-06,0.040
6.840E-06,-0.140
6.850E-06,-0.208
6.860E-06,-0.288
6.870E-06,-0.348
6.880E-06,-0.340
6.890E-06,-0.396
6.900E-06,-0.288
6.910E-06,-0.304
6.920E-06,-0.476
6.930E-06,-0.512
6.940E-06,-0.512
6.950E-06,-0.384
6.960E-06,-0.304
6.970E-06,-0.224
6.980E-06,-0.052
6.990E-06,0.052
7.000E-06,0.064
7.010E-06,-0.024
7.020E-06,-0.040
7.030E-06,-0.160
7.040E-06,-0.084
7.050E-06,0.124
7.060E-06,0.272
7.070E-06,0.360
7.080E-06,0.268
7.090E-06,0.224
7.100E-06,0.172
7.110E-06,0.156
7.120E-06,0.136
7.130E-06,0.176
7.140E-06,0.224
7.150E-06,0.268
7.160E-06,0.296
7.170E-06,0.284
7.180E-06,0.224
7.190E-06,0.152
7.200E-06,0.144
7.210E-06,0.164
7.220E-06,0.204
7.230E-06,0.244
7.240E-06,0.264
7.250E-06,0.260
7.260E-06,0.240
7.270E-06,0.204
7.280E-06,0.176
7.290E-06,0.168
7.300E-06,0.180
7.310E-06,0.212
7.320E-06,0.228
7.330E-06,0.252
7.340E-06,0.224
7.350E-06,0.192
7.360E-06,0.168
7.370E-06,0.152
7.380E-06,0.156
7.390E-06,0.176
7.400E-06,0.204
7.410E-06,0.228
7.420E-06,0.232
7.430E-06,0.216
7.440E-06,0.192
7.450E-06,0.180
7.460E-06,0.172
7.470E-06,0.176
7.480E-06,0.176
7.490E-06,0.176
7.500E-06,0.140
7.510E-06,0.112
7.520E-06,0.044
7.530E-06,-0.028
7.540E-06,-0.084
7.550E-06,-0.132
7.560E-06,-0.108
7.570E-06,-0.124
7.580E-06,-0.060
7.590E-06,-0.088
7.600E-06,-0.008
7.610E-06,0.100
7.620E-06,0.212
7.630E-06,0.268
7.640E-06,0.300
7.650E-06,0.264
7.660E-06,0.208
7.670E-06,0.156
7.680E-06,0.124
7.690E-06,0.164
7.700E-06,0.228
7.710E-06,0.300
7.720E-06,0.292
