mediciones/Mediciones filtradas (saque las feas)/6-10/8.6/WaveData5677.csv

#timebase=2000000(ps)
,#voltbase=100000(mv/100)
#size=4000
-4.200E-06,0.032
-4.190E-06,0.088
-4.180E-06,0.072
-4.170E-06,0.024
-4.160E-06,-0.008
-4.150E-06,-0.056
-4.140E-06,-0.052
-4.130E-06,-0.024
-4.120E-06,0.020
-4.110E-06,0.044
-4.100E-06,0.056
-4.090E-06,0.028
-4.080E-06,0.000
-4.070E-06,-0.032
-4.060E-06,-0.020
-4.050E-06,-0.024
-4.040E-06,0.016
-4.030E-06,0.052
-4.020E-06,0.048
-4.010E-06,0.040
-4.000E-06,0.060
-3.990E-06,-0.036
-3.980E-06,-0.020
-3.970E-06,-0.104
-3.960E-06,-0.036
-3.950E-06,0.008
-3.940E-06,0.036
-3.930E-06,0.084
-3.920E-06,0.028
-3.910E-06,0.008
-3.900E-06,-0.028
-3.890E-06,-0.016
-3.880E-06,-0.008
-3.870E-06,0.028
-3.860E-06,-0.004
-3.850E-06,-0.144
-3.840E-06,-0.032
-3.830E-06,-0.068
-3.820E-06,-0.016
-3.810E-06,0.100
-3.800E-06,0.092
-3.790E-06,0.108
-3.780E-06,0.032
-3.770E-06,-0.056
-3.760E-06,-0.104
-3.750E-06,-0.076
-3.740E-06,0.000
-3.730E-06,0.104
-3.720E-06,0.080
-3.710E-06,0.040
-3.700E-06,-0.016
-3.690E-06,-0.048
-3.680E-06,-0.040
-3.670E-06,-0.012
-3.660E-06,0.036
-3.650E-06,0.060
-3.640E-06,0.088
-3.630E-06,-0.028
-3.620E-06,-0.044
-3.610E-06,-0.096
-3.600E-06,-0.056
-3.590E-06,0.008
-3.580E-06,0.052
-3.570E-06,0.076
-3.560E-06,0.060
-3.550E-06,0.004
-3.540E-06,-0.052
-3.530E-06,-0.056
-3.520E-06,-0.036
-3.510E-06,0.036
-3.500E-06,0.032
-3.490E-06,0.028
-3.480E-06,0.008
-3.470E-06,0.000
-3.460E-06,-0.004
-3.450E-06,0.004
-3.440E-06,0.008
-3.430E-06,0.008
-3.420E-06,0.012
-3.410E-06,-0.008
-3.400E-06,-0.004
-3.390E-06,-0.004
-3.380E-06,0.008
-3.370E-06,0.016
-3.360E-06,0.008
-3.350E-06,0.004
-3.340E-06,-0.008
-3.330E-06,0.000
-3.320E-06,0.000
-3.310E-06,0.020
-3.300E-06,0.012
-3.290E-06,0.016
-3.280E-06,0.004
-3.270E-06,0.000
-3.260E-06,0.012
-3.250E-06,0.024
-3.240E-06,0.000
-3.230E-06,0.040
-3.220E-06,-0.004
-3.210E-06,-0.036
-3.200E-06,-0.056
-3.190E-06,-0.008
-3.180E-06,0.056
-3.170E-06,0.036
-3.160E-06,0.044
-3.150E-06,0.008
-3.140E-06,-0.048
-3.130E-06,-0.028
-3.120E-06,-0.012
-3.110E-06,0.044
-3.100E-06,0.064
-3.090E-06,0.056
-3.080E-06,-0.024
-3.070E-06,-0.044
-3.060E-06,-0.044
-3.050E-06,-0.008
-3.040E-06,0.064
-3.030E-06,0.072
-3.020E-06,0.068
-3.010E-06,0.012
-3.000E-06,-0.064
-2.990E-06,-0.052
-2.980E-06,-0.024
-2.970E-06,0.024
-2.960E-06,0.092
-2.950E-06,0.044
-2.940E-06,0.028
-2.930E-06,-0.024
-2.920E-06,-0.084
-2.910E-06,-0.028
-2.900E-06,-0.032
-2.890E-06,-0.016
-2.880E-06,0.012
-2.870E-06,0.008
-2.860E-06,-0.036
-2.850E-06,0.008
-2.840E-06,-0.036
-2.830E-06,-0.012
-2.820E-06,0.056
-2.810E-06,0.032
-2.800E-06,0.080
-2.790E-06,-0.024
-2.780E-06,0.004
-2.770E-06,-0.192
-2.760E-06,-0.092
-2.750E-06,-0.036
-2.740E-06,0.116
-2.730E-06,0.104
-2.720E-06,0.036
-2.710E-06,0.056
-2.700E-06,-0.052
-2.690E-06,-0.024
-2.680E-06,-0.092
-2.670E-06,-0.024
-2.660E-06,0.032
-2.650E-06,0.080
-2.640E-06,0.048
-2.630E-06,0.028
-2.620E-06,-0.016
-2.610E-06,-0.040
-2.600E-06,0.008
-2.590E-06,0.004
-2.580E-06,0.036
-2.570E-06,0.024
-2.560E-06,0.028
-2.550E-06,-0.016
-2.540E-06,-0.008
-2.530E-06,-0.012
-2.520E-06,0.024
-2.510E-06,0.032
-2.500E-06,0.048
-2.490E-06,0.028
-2.480E-06,0.016
-2.470E-06,-0.004
-2.460E-06,0.000
-2.450E-06,0.044
-2.440E-06,0.020
-2.430E-06,0.088
-2.420E-06,0.068
-2.410E-06,0.028
-2.400E-06,-0.056
-2.390E-06,-0.076
-2.380E-06,-0.044
-2.370E-06,-0.008
-2.360E-06,0.056
-2.350E-06,0.072
-2.340E-06,0.044
-2.330E-06,-0.016
-2.320E-06,-0.052
-2.310E-06,-0.056
-2.300E-06,-0.044
-2.290E-06,-0.008
-2.280E-06,0.044
-2.270E-06,0.076
-2.260E-06,0.076
-2.250E-06,0.036
-2.240E-06,-0.008
-2.230E-06,-0.048
-2.220E-06,-0.036
-2.210E-06,-0.048
-2.200E-06,-0.032
-2.190E-06,-0.100
-2.180E-06,-0.076
-2.170E-06,-0.036
-2.160E-06,0.160
-2.150E-06,0.156
-2.140E-06,0.116
-2.130E-06,-0.132
-2.120E-06,-0.208
-2.110E-06,-0.084
-2.100E-06,-0.004
-2.090E-06,0.104
-2.080E-06,0.092
-2.070E-06,0.080
-2.060E-06,-0.012
-2.050E-06,0.008
-2.040E-06,-0.076
-2.030E-06,-0.044
-2.020E-06,-0.024
-2.010E-06,0.036
-2.000E-06,0.076
-1.990E-06,0.052
-1.980E-06,0.028
-1.970E-06,-0.060
-1.960E-06,-0.016
-1.950E-06,-0.020
-1.940E-06,0.032
-1.930E-06,0.028
-1.920E-06,0.060
-1.910E-06,0.012
-1.900E-06,0.008
-1.890E-06,-0.028
-1.880E-06,-0.008
-1.870E-06,0.012
-1.860E-06,0.032
-1.850E-06,0.076
-1.840E-06,0.072
-1.830E-06,0.076
-1.820E-06,0.060
-1.810E-06,0.020
-1.800E-06,-0.004
-1.790E-06,-0.032
-1.780E-06,0.036
-1.770E-06,0.024
-1.760E-06,-0.028
-1.750E-06,-0.044
-1.740E-06,-0.156
-1.730E-06,-0.228
-1.720E-06,-0.168
-1.710E-06,-0.012
-1.700E-06,0.280
-1.690E-06,0.256
-1.680E-06,0.144
-1.670E-06,-0.092
-1.660E-06,-0.252
-1.650E-06,-0.268
-1.640E-06,-0.084
-1.630E-06,0.068
-1.620E-06,0.240
-1.610E-06,0.200
-1.600E-06,0.040
-1.590E-06,-0.060
-1.580E-06,-0.160
-1.570E-06,-0.124
-1.560E-06,-0.040
-1.550E-06,0.084
-1.540E-06,0.128
-1.530E-06,0.140
-1.520E-06,0.036
-1.510E-06,-0.048
-1.500E-06,-0.084
-1.490E-06,-0.072
-1.480E-06,-0.004
-1.470E-06,0.064
-1.460E-06,0.108
-1.450E-06,0.068
-1.440E-06,0.060
-1.430E-06,0.016
-1.420E-06,-0.044
-1.410E-06,-0.044
-1.400E-06,-0.008
-1.390E-06,0.028
-1.380E-06,0.076
-1.370E-06,0.056
-1.360E-06,0.040
-1.350E-06,-0.004
-1.340E-06,-0.032
-1.330E-06,-0.056
-1.320E-06,-0.016
-1.310E-06,0.000
-1.300E-06,0.072
-1.290E-06,0.044
-1.280E-06,0.052
-1.270E-06,-0.016
-1.260E-06,-0.052
-1.250E-06,-0.028
-1.240E-06,0.012
-1.230E-06,-0.160
-1.220E-06,-0.040
-1.210E-06,-0.112
-1.200E-06,0.016
-1.190E-06,0.264
-1.180E-06,0.108
-1.170E-06,0.052
-1.160E-06,-0.056
-1.150E-06,-0.104
-1.140E-06,-0.080
-1.130E-06,-0.028
-1.120E-06,0.056
-1.110E-06,0.104
-1.100E-06,0.060
-1.090E-06,-0.008
-1.080E-06,-0.064
-1.070E-06,-0.084
-1.060E-06,-0.024
-1.050E-06,0.032
-1.040E-06,0.088
-1.030E-06,0.064
-1.020E-06,0.036
-1.010E-06,-0.040
-1.000E-06,-0.056
-9.900E-07,-0.008
-9.800E-07,0.020
-9.700E-07,0.092
-9.600E-07,0.124
-9.500E-07,0.128
-9.400E-07,0.088
-9.300E-07,0.044
-9.200E-07,-0.104
-9.100E-07,0.000
-9.000E-07,-0.104
-8.900E-07,-0.072
-8.800E-07,0.028
-8.700E-07,-0.076
-8.600E-07,0.084
-8.500E-07,-0.044
-8.400E-07,-0.040
-8.300E-07,-0.108
-8.200E-07,-0.008
-8.100E-07,-0.048
-8.000E-07,0.032
-7.900E-07,-0.056
-7.800E-07,-0.172
-7.700E-07,-0.012
-7.600E-07,0.024
-7.500E-07,0.180
-7.400E-07,0.012
-7.300E-07,-0.048
-7.200E-07,-0.088
-7.100E-07,-0.036
-7.000E-07,0.024
-6.900E-07,0.060
-6.800E-07,0.040
-6.700E-07,-0.004
-6.600E-07,0.012
-6.500E-07,-0.040
-6.400E-07,-0.004
-6.300E-07,-0.020
-6.200E-07,0.028
-6.100E-07,0.020
-6.000E-07,0.052
-5.900E-07,0.020
-5.800E-07,0.000
-5.700E-07,-0.008
-5.600E-07,-0.032
-5.500E-07,-0.004
-5.400E-07,0.008
-5.300E-07,0.040
-5.200E-07,0.020
-5.100E-07,0.024
-5.000E-07,-0.008
-4.900E-07,-0.008
-4.800E-07,-0.012
-4.700E-07,0.004
-4.600E-07,0.024
-4.500E-07,0.036
-4.400E-07,0.036
-4.300E-07,0.008
-4.200E-07,-0.016
-4.100E-07,-0.032
-4.000E-07,-0.020
-3.900E-07,-0.016
-3.800E-07,0.008
-3.700E-07,0.024
-3.600E-07,0.032
-3.500E-07,0.028
-3.400E-07,0.000
-3.300E-07,-0.008
-3.200E-07,-0.028
-3.100E-07,-0.008
-3.000E-07,0.000
-2.900E-07,0.028
-2.800E-07,0.032
-2.700E-07,0.036
-2.600E-07,0.028
-2.500E-07,0.004
-2.400E-07,0.000
-2.300E-07,-0.008
-2.200E-07,0.004
-2.100E-07,0.024
-2.000E-07,0.036
-1.900E-07,0.064
-1.800E-07,0.052
-1.700E-07,0.044
-1.600E-07,0.048
-1.500E-07,0.036
-1.400E-07,0.040
-1.300E-07,0.072
-1.200E-07,0.092
-1.100E-07,0.060
-1.000E-07,0.044
-9.000E-08,0.084
-8.000E-08,0.124
-7.000E-08,0.004
-6.000E-08,-0.184
-5.000E-08,-0.332
-4.000E-08,-0.332
-3.000E-08,-0.124
-2.000E-08,0.128
-1.000E-08,0.320
0.000E+00,0.268
1.000E-08,0.092
2.000E-08,-0.048
3.000E-08,-0.196
4.000E-08,-0.212
5.000E-08,-0.040
6.000E-08,0.016
7.000E-08,0.100
8.000E-08,0.048
9.000E-08,-0.004
1.000E-07,-0.044
1.100E-07,-0.088
1.200E-07,-0.004
1.300E-07,-0.028
1.400E-07,0.028
1.500E-07,0.016
1.600E-07,0.008
1.700E-07,0.000
1.800E-07,-0.004
1.900E-07,-0.004
2.000E-07,-0.016
2.100E-07,0.008
2.200E-07,-0.004
2.300E-07,0.020
2.400E-07,0.012
2.500E-07,0.032
2.600E-07,0.024
2.700E-07,0.000
2.800E-07,-0.060
2.900E-07,-0.044
3.000E-07,-0.036
3.100E-07,0.024
3.200E-07,0.044
3.300E-07,0.068
3.400E-07,0.052
3.500E-07,0.016
3.600E-07,-0.008
3.700E-07,-0.032
3.800E-07,-0.012
3.900E-07,0.008
4.000E-07,0.056
4.100E-07,0.072
4.200E-07,0.076
4.300E-07,0.036
4.400E-07,0.008
4.500E-07,-0.008
4.600E-07,-0.004
4.700E-07,0.024
4.800E-07,0.084
4.900E-07,0.128
5.000E-07,0.144
5.100E-07,0.100
5.200E-07,0.012
5.300E-07,-0.072
5.400E-07,-0.124
5.500E-07,-0.136
5.600E-07,-0.108
5.700E-07,-0.020
5.800E-07,0.028
5.900E-07,0.060
6.000E-07,0.080
6.100E-07,0.020
6.200E-07,-0.032
6.300E-07,-0.088
6.400E-07,-0.072
6.500E-07,-0.084
6.600E-07,0.004
6.700E-07,0.044
6.800E-07,0.056
6.900E-07,0.032
7.000E-07,-0.008
7.100E-07,-0.032
7.200E-07,-0.064
7.300E-07,-0.052
7.400E-07,-0.012
7.500E-07,0.040
7.600E-07,0.056
7.700E-07,0.040
7.800E-07,0.008
7.900E-07,-0.028
8.000E-07,-0.040
8.100E-07,-0.032
8.200E-07,0.008
8.300E-07,0.040
8.400E-07,0.048
8.500E-07,0.040
8.600E-07,0.012
8.700E-07,-0.020
8.800E-07,-0.036
8.900E-07,-0.028
9.000E-07,0.000
9.100E-07,0.028
9.200E-07,0.044
9.300E-07,0.040
9.400E-07,0.016
9.500E-07,-0.004
9.600E-07,-0.016
9.700E-07,-0.004
9.800E-07,0.004
9.900E-07,0.032
1.000E-06,0.056
1.010E-06,0.064
1.020E-06,0.052
1.030E-06,0.032
1.040E-06,0.016
1.050E-06,0.012
1.060E-06,0.020
1.070E-06,0.036
1.080E-06,0.052
1.090E-06,0.060
1.100E-06,0.064
1.110E-06,0.060
1.120E-06,0.068
1.130E-06,0.076
1.140E-06,0.096
1.150E-06,0.108
1.160E-06,0.108
1.170E-06,0.132
1.180E-06,0.108
1.190E-06,0.076
1.200E-06,0.008
1.210E-06,-0.068
1.220E-06,-0.140
1.230E-06,-0.140
1.240E-06,-0.100
1.250E-06,-0.016
1.260E-06,0.020
1.270E-06,0.092
1.280E-06,0.040
1.290E-06,-0.004
1.300E-06,-0.080
1.310E-06,-0.112
1.320E-06,-0.068
1.330E-06,-0.028
1.340E-06,0.056
1.350E-06,0.052
1.360E-06,0.048
1.370E-06,0.012
1.380E-06,-0.040
1.390E-06,-0.036
1.400E-06,-0.036
1.410E-06,-0.004
1.420E-06,0.020
1.430E-06,0.068
1.440E-06,0.084
1.450E-06,0.060
1.460E-06,0.056
1.470E-06,0.040
1.480E-06,0.056
1.490E-06,0.064
1.500E-06,0.088
1.510E-06,0.096
1.520E-06,0.060
1.530E-06,0.032
1.540E-06,0.012
1.550E-06,0.036
1.560E-06,0.020
1.570E-06,0.040
1.580E-06,0.024
1.590E-06,0.032
1.600E-06,0.028
1.610E-06,0.028
1.620E-06,0.020
1.630E-06,0.024
1.640E-06,0.052
1.650E-06,0.076
1.660E-06,0.108
1.670E-06,0.132
1.680E-06,0.156
1.690E-06,0.152
1.700E-06,0.152
1.710E-06,0.128
1.720E-06,0.124
1.730E-06,0.060
1.740E-06,0.088
1.750E-06,0.044
1.760E-06,0.072
1.770E-06,0.028
1.780E-06,0.028
1.790E-06,-0.072
1.800E-06,-0.028
1.810E-06,0.028
1.820E-06,0.092
1.830E-06,0.164
1.840E-06,0.140
1.850E-06,0.076
1.860E-06,-0.004
1.870E-06,-0.176
1.880E-06,-0.260
1.890E-06,-0.300
1.900E-06,-0.252
1.910E-06,-0.084
1.920E-06,0.064
1.930E-06,0.152
1.940E-06,0.196
1.950E-06,0.056
1.960E-06,0.068
1.970E-06,0.004
1.980E-06,0.060
1.990E-06,0.136
2.000E-06,0.200
2.010E-06,0.260
2.020E-06,0.216
2.030E-06,0.156
2.040E-06,0.076
2.050E-06,-0.012
2.060E-06,-0.040
2.070E-06,-0.080
2.080E-06,-0.088
2.090E-06,-0.128
2.100E-06,-0.200
2.110E-06,-0.292
2.120E-06,-0.236
2.130E-06,-0.224
2.140E-06,-0.240
2.150E-06,-0.132
2.160E-06,-0.052
2.170E-06,0.012
2.180E-06,0.008
2.190E-06,-0.068
2.200E-06,-0.136
2.210E-06,-0.156
2.220E-06,-0.160
2.230E-06,-0.128
2.240E-06,-0.100
2.250E-06,0.044
2.260E-06,0.056
2.270E-06,0.032
2.280E-06,0.008
2.290E-06,-0.040
2.300E-06,-0.020
2.310E-06,0.008
2.320E-06,0.060
2.330E-06,0.064
2.340E-06,0.108
2.350E-06,0.096
2.360E-06,0.088
2.370E-06,0.088
2.380E-06,0.088
2.390E-06,0.116
2.400E-06,0.152
2.410E-06,0.180
2.420E-06,0.200
2.430E-06,0.200
2.440E-06,0.192
2.450E-06,0.188
2.460E-06,0.180
2.470E-06,0.204
2.480E-06,0.192
2.490E-06,0.208
2.500E-06,0.216
2.510E-06,0.216
2.520E-06,0.204
2.530E-06,0.196
2.540E-06,0.184
2.550E-06,0.180
2.560E-06,0.192
2.570E-06,0.200
2.580E-06,0.212
2.590E-06,0.220
2.600E-06,0.216
2.610E-06,0.212
2.620E-06,0.200
2.630E-06,0.192
2.640E-06,0.176
2.650E-06,0.164
2.660E-06,0.128
2.670E-06,0.096
2.680E-06,0.056
2.690E-06,0.048
2.700E-06,0.080
2.710E-06,0.148
2.720E-06,0.244
2.730E-06,0.288
2.740E-06,0.260
2.750E-06,0.204
2.760E-06,0.128
2.770E-06,0.092
2.780E-06,0.132
2.790E-06,0.204
2.800E-06,0.260
2.810E-06,0.276
2.820E-06,0.224
2.830E-06,0.140
2.840E-06,0.044
2.850E-06,0.016
2.860E-06,0.024
2.870E-06,0.068
2.880E-06,0.120
2.890E-06,0.140
2.900E-06,0.168
2.910E-06,0.156
2.920E-06,0.156
2.930E-06,0.144
2.940E-06,0.120
2.950E-06,0.124
2.960E-06,0.132
2.970E-06,0.180
2.980E-06,0.208
2.990E-06,0.200
3.000E-06,0.156
3.010E-06,0.108
3.020E-06,0.040
3.030E-06,0.016
3.040E-06,0.016
3.050E-06,0.076
3.060E-06,0.164
3.070E-06,0.204
3.080E-06,0.236
3.090E-06,0.208
3.100E-06,0.188
3.110E-06,0.164
3.120E-06,0.156
3.130E-06,0.176
3.140E-06,0.192
3.150E-06,0.220
3.160E-06,0.220
3.170E-06,0.216
3.180E-06,0.196
3.190E-06,0.192
3.200E-06,0.172
3.210E-06,0.176
3.220E-06,0.188
3.230E-06,0.208
3.240E-06,0.224
3.250E-06,0.228
3.260E-06,0.212
3.270E-06,0.196
3.280E-06,0.192
3.290E-06,0.184
3.300E-06,0.192
3.310E-06,0.204
3.320E-06,0.216
3.330E-06,0.220
3.340E-06,0.208
3.350E-06,0.208
3.360E-06,0.192
3.370E-06,0.184
3.380E-06,0.184
3.390E-06,0.196
3.400E-06,0.204
3.410E-06,0.208
3.420E-06,0.208
3.430E-06,0.204
3.440E-06,0.196
3.450E-06,0.188
3.460E-06,0.192
3.470E-06,0.196
3.480E-06,0.200
3.490E-06,0.204
3.500E-06,0.200
3.510E-06,0.196
3.520E-06,0.188
3.530E-06,0.188
3.540E-06,0.188
3.550E-06,0.188
3.560E-06,0.192
3.570E-06,0.196
3.580E-06,0.196
3.590E-06,0.196
3.600E-06,0.196
3.610E-06,0.188
3.620E-06,0.192
3.630E-06,0.192
3.640E-06,0.200
3.650E-06,0.192
3.660E-06,0.192
3.670E-06,0.196
3.680E-06,0.192
3.690E-06,0.192
3.700E-06,0.188
3.710E-06,0.188
3.720E-06,0.192
3.730E-06,0.192
3.740E-06,0.192
3.750E-06,0.192
3.760E-06,0.188
3.770E-06,0.192
3.780E-06,0.192
3.790E-06,0.188
3.800E-06,0.188
3.810E-06,0.188
3.820E-06,0.188
3.830E-06,0.188
3.840E-06,0.188
3.850E-06,0.184
3.860E-06,0.172
3.870E-06,0.176
3.880E-06,0.180
3.890E-06,0.180
3.900E-06,0.176
3.910E-06,0.184
3.920E-06,0.192
3.930E-06,0.176
3.940E-06,0.176
3.950E-06,0.168
3.960E-06,0.172
3.970E-06,0.176
3.980E-06,0.176
3.990E-06,0.180
4.000E-06,0.172
4.010E-06,0.176
4.020E-06,0.180
4.030E-06,0.180
4.040E-06,0.172
4.050E-06,0.180
4.060E-06,0.172
4.070E-06,0.176
4.080E-06,0.172
4.090E-06,0.176
4.100E-06,0.180
4.110E-06,0.172
4.120E-06,0.172
4.130E-06,0.172
4.140E-06,0.164
4.150E-06,0.156
4.160E-06,0.160
4.170E-06,0.168
4.180E-06,0.172
4.190E-06,0.172
4.200E-06,0.172
4.210E-06,0.164
4.220E-06,0.156
4.230E-06,0.160
4.240E-06,0.168
4.250E-06,0.176
4.260E-06,0.164
4.270E-06,0.180
4.280E-06,0.172
4.290E-06,0.168
4.300E-06,0.160
4.310E-06,0.164
4.320E-06,0.164
4.330E-06,0.160
4.340E-06,0.160
4.350E-06,0.164
4.360E-06,0.168
4.370E-06,0.160
4.380E-06,0.160
4.390E-06,0.160
4.400E-06,0.160
4.410E-06,0.164
4.420E-06,0.160
4.430E-06,0.164
4.440E-06,0.160
4.450E-06,0.152
4.460E-06,0.152
4.470E-06,0.156
4.480E-06,0.156
4.490E-06,0.152
4.500E-06,0.152
4.510E-06,0.156
4.520E-06,0.152
4.530E-06,0.152
4.540E-06,0.152
4.550E-06,0.160
4.560E-06,0.168
4.570E-06,0.160
4.580E-06,0.152
4.590E-06,0.152
4.600E-06,0.144
4.610E-06,0.144
4.620E-06,0.140
4.630E-06,0.148
4.640E-06,0.152
4.650E-06,0.160
4.660E-06,0.160
4.670E-06,0.152
4.680E-06,0.148
4.690E-06,0.144
4.700E-06,0.140
4.710E-06,0.148
4.720E-06,0.156
4.730E-06,0.156
4.740E-06,0.156
4.750E-06,0.156
4.760E-06,0.160
4.770E-06,0.148
4.780E-06,0.136
4.790E-06,0.140
4.800E-06,0.148
4.810E-06,0.148
4.820E-06,0.148
4.830E-06,0.144
4.840E-06,0.144
4.850E-06,0.144
4.860E-06,0.140
4.870E-06,0.144
4.880E-06,0.152
4.890E-06,0.156
4.900E-06,0.156
4.910E-06,0.152
4.920E-06,0.148
4.930E-06,0.144
4.940E-06,0.140
4.950E-06,0.136
4.960E-06,0.144
4.970E-06,0.148
4.980E-06,0.140
4.990E-06,0.144
5.000E-06,0.144
5.010E-06,0.132
5.020E-06,0.128
5.030E-06,0.124
5.040E-06,0.128
5.050E-06,0.136
5.060E-06,0.140
5.070E-06,0.144
5.080E-06,0.136
5.090E-06,0.128
5.100E-06,0.124
5.110E-06,0.128
5.120E-06,0.124
5.130E-06,0.132
5.140E-06,0.140
5.150E-06,0.132
5.160E-06,0.136
5.170E-06,0.124
5.180E-06,0.108
5.190E-06,0.112
5.200E-06,0.124
5.210E-06,0.124
5.220E-06,0.136
5.230E-06,0.136
5.240E-06,0.132
5.250E-06,0.124
5.260E-06,0.120
5.270E-06,0.120
5.280E-06,0.124
5.290E-06,0.132
5.300E-06,0.144
5.310E-06,0.144
5.320E-06,0.136
5.330E-06,0.132
5.340E-06,0.124
5.350E-06,0.124
5.360E-06,0.124
5.370E-06,0.124
5.380E-06,0.132
5.390E-06,0.136
5.400E-06,0.136
5.410E-06,0.128
5.420E-06,0.120
5.430E-06,0.116
5.440E-06,0.112
5.450E-06,0.120
5.460E-06,0.124
5.470E-06,0.128
5.480E-06,0.132
5.490E-06,0.132
5.500E-06,0.124
5.510E-06,0.120
5.520E-06,0.112
5.530E-06,0.112
5.540E-06,0.116
5.550E-06,0.128
5.560E-06,0.128
5.570E-06,0.128
5.580E-06,0.124
5.590E-06,0.108
5.600E-06,0.108
5.610E-06,0.104
5.620E-06,0.108
5.630E-06,0.120
5.640E-06,0.124
5.650E-06,0.124
5.660E-06,0.120
5.670E-06,0.108
5.680E-06,0.104
5.690E-06,0.104
5.700E-06,0.104
5.710E-06,0.108
5.720E-06,0.112
5.730E-06,0.112
5.740E-06,0.112
5.750E-06,0.104
5.760E-06,0.108
5.770E-06,0.104
5.780E-06,0.104
5.790E-06,0.104
5.800E-06,0.108
5.810E-06,0.112
5.820E-06,0.108
5.830E-06,0.108
5.840E-06,0.104
5.850E-06,0.100
5.860E-06,0.104
5.870E-06,0.108
5.880E-06,0.108
5.890E-06,0.104
5.900E-06,0.108
5.910E-06,0.108
5.920E-06,0.104
5.930E-06,0.104
5.940E-06,0.104
5.950E-06,0.104
5.960E-06,0.108
5.970E-06,0.108
5.980E-06,0.108
5.990E-06,0.108
6.000E-06,0.104
6.010E-06,0.104
6.020E-06,0.100
6.030E-06,0.096
6.040E-06,0.100
6.050E-06,0.100
6.060E-06,0.104
6.070E-06,0.108
6.080E-06,0.100
6.090E-06,0.100
6.100E-06,0.100
6.110E-06,0.100
6.120E-06,0.096
6.130E-06,0.100
6.140E-06,0.100
6.150E-06,0.096
6.160E-06,0.092
6.170E-06,0.092
6.180E-06,0.092
6.190E-06,0.096
6.200E-06,0.092
6.210E-06,0.092
6.220E-06,0.096
6.230E-06,0.096
6.240E-06,0.092
6.250E-06,0.088
6.260E-06,0.088
6.270E-06,0.092
6.280E-06,0.088
6.290E-06,0.088
6.300E-06,0.092
6.310E-06,0.092
6.320E-06,0.088
6.330E-06,0.088
6.340E-06,0.088
6.350E-06,0.088
6.360E-06,0.088
6.370E-06,0.092
6.380E-06,0.088
6.390E-06,0.092
6.400E-06,0.084
6.410E-06,0.084
6.420E-06,0.076
6.430E-06,0.080
6.440E-06,0.076
6.450E-06,0.080
6.460E-06,0.084
6.470E-06,0.088
6.480E-06,0.084
6.490E-06,0.084
6.500E-06,0.080
6.510E-06,0.072
6.520E-06,0.072
6.530E-06,0.072
6.540E-06,0.080
6.550E-06,0.080
6.560E-06,0.084
6.570E-06,0.076
6.580E-06,0.072
6.590E-06,0.076
6.600E-06,0.076
6.610E-06,0.072
6.620E-06,0.072
6.630E-06,0.084
6.640E-06,0.084
6.650E-06,0.076
6.660E-06,0.072
6.670E-06,0.072
6.680E-06,0.068
6.690E-06,0.068
6.700E-06,0.076
6.710E-06,0.080
6.720E-06,0.076
6.730E-06,0.076
6.740E-06,0.076
6.750E-06,0.068
6.760E-06,0.064
6.770E-06,0.064
6.780E-06,0.068
6.790E-06,0.064
6.800E-06,0.076
6.810E-06,0.072
6.820E-06,0.072
6.830E-06,0.072
6.840E-06,0.068
6.850E-06,0.060
6.860E-06,0.060
6.870E-06,0.068
6.880E-06,0.072
6.890E-06,0.068
6.900E-06,0.068
6.910E-06,0.060
6.920E-06,0.056
6.930E-06,0.056
6.940E-06,0.060
6.950E-06,0.068
6.960E-06,0.064
6.970E-06,0.068
6.980E-06,0.060
6.990E-06,0.060
7.000E-06,0.060
7.010E-06,0.056
7.020E-06,0.056
7.030E-06,0.060
7.040E-06,0.064
7.050E-06,0.060
7.060E-06,0.060
7.070E-06,0.060
7.080E-06,0.060
7.090E-06,0.056
7.100E-06,0.060
7.110E-06,0.056
7.120E-06,0.060
7.130E-06,0.060
7.140E-06,0.060
7.150E-06,0.060
7.160E-06,0.052
7.170E-06,0.052
7.180E-06,0.052
7.190E-06,0.060
7.200E-06,0.056
7.210E-06,0.056
7.220E-06,0.056
7.230E-06,0.060
7.240E-06,0.060
7.250E-06,0.056
7.260E-06,0.060
7.270E-06,0.056
7.280E-06,0.060
7.290E-06,0.056
7.300E-06,0.056
7.310E-06,0.052
7.320E-06,0.052
7.330E-06,0.052
7.340E-06,0.052
7.350E-06,0.052
7.360E-06,0.048
7.370E-06,0.052
7.380E-06,0.056
7.390E-06,0.052
7.400E-06,0.052
7.410E-06,0.052
7.420E-06,0.056
7.430E-06,0.056
7.440E-06,0.048
7.450E-06,0.052
7.460E-06,0.052
7.470E-06,0.052
7.480E-06,0.056
7.490E-06,0.056
7.500E-06,0.052
7.510E-06,0.056
7.520E-06,0.052
7.530E-06,0.048
7.540E-06,0.044
7.550E-06,0.048
7.560E-06,0.048
7.570E-06,0.048
7.580E-06,0.044
7.590E-06,0.044
7.600E-06,0.044
7.610E-06,0.044
7.620E-06,0.044
7.630E-06,0.040
7.640E-06,0.040
7.650E-06,0.040
7.660E-06,0.036
7.670E-06,0.044
7.680E-06,0.040
7.690E-06,0.036
7.700E-06,0.036
7.710E-06,0.036
7.720E-06,0.040
7.730E-06,0.036
7.740E-06,0.040
7.750E-06,0.036
7.760E-06,0.032
7.770E-06,0.036
7.780E-06,0.032
7.790E-06,0.036
7.800E-06,0.036
7.810E-06,0.040
7.820E-06,0.036
