mediciones/Mediciones filtradas (saque las feas)/6-10/8.6/WaveData5684.csv

#timebase=2000000(ps)
,#voltbase=200000(mv/100)
#size=4000
-4.200E-06,0.000
-4.190E-06,0.000
-4.180E-06,0.008
-4.170E-06,-0.008
-4.160E-06,0.000
-4.150E-06,0.000
-4.140E-06,0.000
-4.130E-06,-0.008
-4.120E-06,0.000
-4.110E-06,-0.008
-4.100E-06,0.000
-4.090E-06,0.000
-4.080E-06,-0.008
-4.070E-06,0.000
-4.060E-06,0.008
-4.050E-06,-0.008
-4.040E-06,0.008
-4.030E-06,0.016
-4.020E-06,0.008
-4.010E-06,0.008
-4.000E-06,0.000
-3.990E-06,0.000
-3.980E-06,0.008
-3.970E-06,0.000
-3.960E-06,0.008
-3.950E-06,0.016
-3.940E-06,0.008
-3.930E-06,-0.008
-3.920E-06,0.000
-3.910E-06,0.000
-3.900E-06,0.008
-3.890E-06,0.008
-3.880E-06,0.016
-3.870E-06,0.008
-3.860E-06,0.008
-3.850E-06,0.000
-3.840E-06,-0.008
-3.830E-06,0.008
-3.820E-06,0.016
-3.810E-06,0.024
-3.800E-06,0.024
-3.790E-06,0.016
-3.780E-06,0.016
-3.770E-06,0.016
-3.760E-06,0.016
-3.750E-06,0.024
-3.740E-06,0.040
-3.730E-06,0.024
-3.720E-06,0.008
-3.710E-06,0.008
-3.700E-06,0.008
-3.690E-06,0.024
-3.680E-06,0.016
-3.670E-06,0.008
-3.660E-06,0.024
-3.650E-06,0.008
-3.640E-06,0.016
-3.630E-06,0.008
-3.620E-06,0.016
-3.610E-06,0.008
-3.600E-06,0.016
-3.590E-06,0.016
-3.580E-06,0.000
-3.570E-06,0.016
-3.560E-06,0.000
-3.550E-06,0.000
-3.540E-06,0.000
-3.530E-06,-0.008
-3.520E-06,0.000
-3.510E-06,0.000
-3.500E-06,0.000
-3.490E-06,0.016
-3.480E-06,0.000
-3.470E-06,0.016
-3.460E-06,0.008
-3.450E-06,-0.008
-3.440E-06,0.008
-3.430E-06,0.016
-3.420E-06,-0.008
-3.410E-06,-0.008
-3.400E-06,-0.008
-3.390E-06,0.008
-3.380E-06,0.000
-3.370E-06,0.000
-3.360E-06,0.000
-3.350E-06,-0.008
-3.340E-06,0.000
-3.330E-06,0.008
-3.320E-06,0.024
-3.310E-06,0.048
-3.300E-06,0.040
-3.290E-06,0.032
-3.280E-06,0.048
-3.270E-06,0.024
-3.260E-06,0.032
-3.250E-06,0.040
-3.240E-06,0.024
-3.230E-06,0.040
-3.220E-06,0.040
-3.210E-06,0.032
-3.200E-06,0.024
-3.190E-06,0.016
-3.180E-06,0.008
-3.170E-06,0.016
-3.160E-06,0.008
-3.150E-06,0.016
-3.140E-06,0.008
-3.130E-06,0.000
-3.120E-06,0.000
-3.110E-06,-0.008
-3.100E-06,0.000
-3.090E-06,0.000
-3.080E-06,-0.008
-3.070E-06,0.016
-3.060E-06,-0.016
-3.050E-06,0.008
-3.040E-06,-0.008
-3.030E-06,-0.032
-3.020E-06,-0.008
-3.010E-06,0.000
-3.000E-06,-0.040
-2.990E-06,-0.016
-2.980E-06,-0.016
-2.970E-06,-0.024
-2.960E-06,-0.016
-2.950E-06,0.000
-2.940E-06,0.000
-2.930E-06,-0.008
-2.920E-06,0.016
-2.910E-06,-0.016
-2.900E-06,0.032
-2.890E-06,0.024
-2.880E-06,0.040
-2.870E-06,0.072
-2.860E-06,0.040
-2.850E-06,0.072
-2.840E-06,0.064
-2.830E-06,0.088
-2.820E-06,0.104
-2.810E-06,0.104
-2.800E-06,0.072
-2.790E-06,0.080
-2.780E-06,0.072
-2.770E-06,0.056
-2.760E-06,0.064
-2.750E-06,0.024
-2.740E-06,0.048
-2.730E-06,0.040
-2.720E-06,0.032
-2.710E-06,0.056
-2.700E-06,0.064
-2.690E-06,0.088
-2.680E-06,0.080
-2.670E-06,0.064
-2.660E-06,0.048
-2.650E-06,0.032
-2.640E-06,0.016
-2.630E-06,0.008
-2.620E-06,0.016
-2.610E-06,0.016
-2.600E-06,0.000
-2.590E-06,0.000
-2.580E-06,0.008
-2.570E-06,-0.016
-2.560E-06,-0.024
-2.550E-06,0.008
-2.540E-06,-0.016
-2.530E-06,0.016
-2.520E-06,0.024
-2.510E-06,0.024
-2.500E-06,0.032
-2.490E-06,0.008
-2.480E-06,0.016
-2.470E-06,0.016
-2.460E-06,0.032
-2.450E-06,0.040
-2.440E-06,0.048
-2.430E-06,0.040
-2.420E-06,0.048
-2.410E-06,0.032
-2.400E-06,0.008
-2.390E-06,0.032
-2.380E-06,0.040
-2.370E-06,0.056
-2.360E-06,0.064
-2.350E-06,0.072
-2.340E-06,0.048
-2.330E-06,0.032
-2.320E-06,0.024
-2.310E-06,0.040
-2.300E-06,0.064
-2.290E-06,0.080
-2.280E-06,0.088
-2.270E-06,0.040
-2.260E-06,0.048
-2.250E-06,0.032
-2.240E-06,0.024
-2.230E-06,0.048
-2.220E-06,0.032
-2.210E-06,0.032
-2.200E-06,0.024
-2.190E-06,0.032
-2.180E-06,0.040
-2.170E-06,0.096
-2.160E-06,0.136
-2.150E-06,0.136
-2.140E-06,0.144
-2.130E-06,0.120
-2.120E-06,0.104
-2.110E-06,0.128
-2.100E-06,0.136
-2.090E-06,0.144
-2.080E-06,0.128
-2.070E-06,0.104
-2.060E-06,0.120
-2.050E-06,0.096
-2.040E-06,0.112
-2.030E-06,0.128
-2.020E-06,0.104
-2.010E-06,0.112
-2.000E-06,0.064
-1.990E-06,0.048
-1.980E-06,0.104
-1.970E-06,0.128
-1.960E-06,0.168
-1.950E-06,0.176
-1.940E-06,0.160
-1.930E-06,0.160
-1.920E-06,0.176
-1.910E-06,0.184
-1.900E-06,0.216
-1.890E-06,0.208
-1.880E-06,0.232
-1.870E-06,0.232
-1.860E-06,0.216
-1.850E-06,0.256
-1.840E-06,0.240
-1.830E-06,0.208
-1.820E-06,0.232
-1.810E-06,0.248
-1.800E-06,0.248
-1.790E-06,0.264
-1.780E-06,0.248
-1.770E-06,0.256
-1.760E-06,0.264
-1.750E-06,0.296
-1.740E-06,0.328
-1.730E-06,0.368
-1.720E-06,0.368
-1.710E-06,0.368
-1.700E-06,0.368
-1.690E-06,0.312
-1.680E-06,0.328
-1.670E-06,0.312
-1.660E-06,0.368
-1.650E-06,0.392
-1.640E-06,0.416
-1.630E-06,0.400
-1.620E-06,0.352
-1.610E-06,0.328
-1.600E-06,0.264
-1.590E-06,0.216
-1.580E-06,0.200
-1.570E-06,0.224
-1.560E-06,0.240
-1.550E-06,0.232
-1.540E-06,0.200
-1.530E-06,0.152
-1.520E-06,0.120
-1.510E-06,0.144
-1.500E-06,0.192
-1.490E-06,0.328
-1.480E-06,0.232
-1.470E-06,0.264
-1.460E-06,0.216
-1.450E-06,0.216
-1.440E-06,0.352
-1.430E-06,0.352
-1.420E-06,0.360
-1.410E-06,0.336
-1.400E-06,0.424
-1.390E-06,0.352
-1.380E-06,0.312
-1.370E-06,0.296
-1.360E-06,0.296
-1.350E-06,0.336
-1.340E-06,0.264
-1.330E-06,0.312
-1.320E-06,0.176
-1.310E-06,0.328
-1.300E-06,0.360
-1.290E-06,0.400
-1.280E-06,0.520
-1.270E-06,0.456
-1.260E-06,0.448
-1.250E-06,0.456
-1.240E-06,0.304
-1.230E-06,0.176
-1.220E-06,0.328
-1.210E-06,0.400
-1.200E-06,0.464
-1.190E-06,0.712
-1.180E-06,0.568
-1.170E-06,0.592
-1.160E-06,0.392
-1.150E-06,0.344
-1.140E-06,0.472
-1.130E-06,0.536
-1.120E-06,0.608
-1.110E-06,0.720
-1.100E-06,0.424
-1.090E-06,0.736
-1.080E-06,0.496
-1.070E-06,0.192
-1.060E-06,0.480
-1.050E-06,0.080
-1.040E-06,0.272
-1.030E-06,0.392
-1.020E-06,0.200
-1.010E-06,0.264
-1.000E-06,0.200
-9.900E-07,0.064
-9.800E-07,0.128
-9.700E-07,0.112
-9.600E-07,0.120
-9.500E-07,0.272
-9.400E-07,0.224
-9.300E-07,0.152
-9.200E-07,0.064
-9.100E-07,-0.056
-9.000E-07,-0.088
-8.900E-07,-0.048
-8.800E-07,-0.040
-8.700E-07,0.040
-8.600E-07,0.088
-8.500E-07,0.032
-8.400E-07,-0.024
-8.300E-07,-0.080
-8.200E-07,-0.136
-8.100E-07,-0.096
-8.000E-07,-0.016
-7.900E-07,0.040
-7.800E-07,0.088
-7.700E-07,0.088
-7.600E-07,0.040
-7.500E-07,-0.008
-7.400E-07,-0.104
-7.300E-07,-0.016
-7.200E-07,0.160
-7.100E-07,0.144
-7.000E-07,0.424
-6.900E-07,0.232
-6.800E-07,0.288
-6.700E-07,0.296
-6.600E-07,0.128
-6.500E-07,0.456
-6.400E-07,0.472
-6.300E-07,0.672
-6.200E-07,0.328
-6.100E-07,0.392
-6.000E-07,0.576
-5.900E-07,0.704
-5.800E-07,0.944
-5.700E-07,0.536
-5.600E-07,0.544
-5.500E-07,0.624
-5.400E-07,0.640
-5.300E-07,0.952
-5.200E-07,0.824
-5.100E-07,0.912
-5.000E-07,0.872
-4.900E-07,0.736
-4.800E-07,0.720
-4.700E-07,0.760
-4.600E-07,0.864
-4.500E-07,0.736
-4.400E-07,0.792
-4.300E-07,0.664
-4.200E-07,0.536
-4.100E-07,0.416
-4.000E-07,0.312
-3.900E-07,0.264
-3.800E-07,0.200
-3.700E-07,0.240
-3.600E-07,0.184
-3.500E-07,0.184
-3.400E-07,0.120
-3.300E-07,0.016
-3.200E-07,-0.088
-3.100E-07,-0.096
-3.000E-07,-0.200
-2.900E-07,-0.048
-2.800E-07,-0.168
-2.700E-07,0.000
-2.600E-07,-0.240
-2.500E-07,-0.144
-2.400E-07,-0.152
-2.300E-07,-0.296
-2.200E-07,-0.128
-2.100E-07,-0.320
-2.000E-07,-0.248
-1.900E-07,-0.120
-1.800E-07,0.000
-1.700E-07,0.408
-1.600E-07,0.000
-1.500E-07,0.176
-1.400E-07,0.464
-1.300E-07,0.024
-1.200E-07,0.344
-1.100E-07,0.376
-1.000E-07,0.624
-9.000E-08,0.912
-8.000E-08,0.960
-7.000E-08,1.080
-6.000E-08,0.920
-5.000E-08,0.728
-4.000E-08,0.488
-3.000E-08,-0.256
-2.000E-08,-0.448
-1.000E-08,0.072
0.000E+00,0.400
1.000E-08,0.808
2.000E-08,1.080
3.000E-08,1.080
4.000E-08,0.776
5.000E-08,0.840
6.000E-08,-0.240
7.000E-08,-0.160
8.000E-08,0.096
9.000E-08,0.296
1.000E-07,1.088
1.100E-07,1.088
1.200E-07,1.080
1.300E-07,1.088
1.400E-07,1.088
1.500E-07,0.952
1.600E-07,1.080
1.700E-07,0.896
1.800E-07,1.088
1.900E-07,1.080
2.000E-07,1.040
2.100E-07,0.776
2.200E-07,0.240
2.300E-07,-0.456
2.400E-07,-0.728
2.500E-07,-1.040
2.600E-07,-1.040
2.700E-07,-1.048
2.800E-07,-1.040
2.900E-07,-1.040
3.000E-07,-1.048
3.100E-07,-1.040
3.200E-07,-1.048
3.300E-07,-1.032
3.400E-07,-1.040
3.500E-07,-1.048
3.600E-07,-1.040
3.700E-07,-1.048
3.800E-07,-1.032
3.900E-07,-1.040
4.000E-07,-1.048
4.100E-07,-1.040
4.200E-07,-1.032
4.300E-07,-1.040
4.400E-07,-1.032
4.500E-07,-1.040
4.600E-07,-1.048
4.700E-07,-1.040
4.800E-07,-1.032
4.900E-07,-1.040
5.000E-07,-1.040
5.100E-07,-1.048
5.200E-07,-1.040
5.300E-07,-1.048
5.400E-07,-1.032
5.500E-07,-1.032
5.600E-07,-1.040
5.700E-07,-1.032
5.800E-07,-1.032
5.900E-07,-1.040
6.000E-07,-1.048
6.100E-07,-1.048
6.200E-07,-1.048
6.300E-07,-1.048
6.400E-07,-1.048
6.500E-07,-1.032
6.600E-07,-1.032
6.700E-07,-1.040
6.800E-07,-1.032
6.900E-07,-1.040
7.000E-07,-1.040
7.100E-07,-0.832
7.200E-07,-0.672
7.300E-07,-0.680
7.400E-07,-0.872
7.500E-07,-0.920
7.600E-07,-0.856
7.700E-07,-0.608
7.800E-07,-0.328
7.900E-07,-0.048
8.000E-07,0.120
8.100E-07,0.184
8.200E-07,0.136
8.300E-07,0.104
8.400E-07,0.040
8.500E-07,0.056
8.600E-07,0.152
8.700E-07,0.200
8.800E-07,0.216
8.900E-07,0.264
9.000E-07,0.160
9.100E-07,0.096
9.200E-07,-0.016
9.300E-07,-0.008
9.400E-07,0.064
9.500E-07,0.208
9.600E-07,0.360
9.700E-07,0.424
9.800E-07,0.456
9.900E-07,0.464
1.000E-06,0.448
1.010E-06,0.448
1.020E-06,0.432
1.030E-06,0.472
1.040E-06,0.496
1.050E-06,0.464
1.060E-06,0.392
1.070E-06,0.280
1.080E-06,0.176
1.090E-06,0.120
1.100E-06,0.072
1.110E-06,0.064
1.120E-06,0.056
1.130E-06,0.040
1.140E-06,-0.008
1.150E-06,-0.096
1.160E-06,-0.200
1.170E-06,-0.272
1.180E-06,-0.344
1.190E-06,-0.384
1.200E-06,-0.416
1.210E-06,-0.464
1.220E-06,-0.520
1.230E-06,-0.600
1.240E-06,-0.624
1.250E-06,-0.664
1.260E-06,-0.680
1.270E-06,-0.696
1.280E-06,-0.712
1.290E-06,-0.776
1.300E-06,-0.824
1.310E-06,-0.832
1.320E-06,-0.872
1.330E-06,-0.864
1.340E-06,-0.888
1.350E-06,-0.544
1.360E-06,-1.040
1.370E-06,-0.992
1.380E-06,-0.944
1.390E-06,-1.008
1.400E-06,-0.808
1.410E-06,-0.904
1.420E-06,-0.936
1.430E-06,-0.872
1.440E-06,-0.864
1.450E-06,-0.712
1.460E-06,-0.592
1.470E-06,-0.408
1.480E-06,-0.256
1.490E-06,-0.136
1.500E-06,0.008
1.510E-06,0.040
1.520E-06,0.056
1.530E-06,0.080
1.540E-06,0.040
1.550E-06,0.072
1.560E-06,0.088
1.570E-06,0.064
1.580E-06,0.056
1.590E-06,0.088
1.600E-06,0.096
1.610E-06,0.096
1.620E-06,0.088
1.630E-06,0.064
1.640E-06,0.016
1.650E-06,-0.056
1.660E-06,-0.136
1.670E-06,-0.216
1.680E-06,-0.280
1.690E-06,-0.336
1.700E-06,-0.352
1.710E-06,-0.368
1.720E-06,-0.400
1.730E-06,-0.464
1.740E-06,-0.520
1.750E-06,-0.576
1.760E-06,-0.624
1.770E-06,-0.640
1.780E-06,-0.640
1.790E-06,-0.632
1.800E-06,-0.608
1.810E-06,-0.600
1.820E-06,-0.584
1.830E-06,-0.552
1.840E-06,-0.528
1.850E-06,-0.480
1.860E-06,-0.456
1.870E-06,-0.432
1.880E-06,-0.424
1.890E-06,-0.416
1.900E-06,-0.408
1.910E-06,-0.400
1.920E-06,-0.392
1.930E-06,-0.368
1.940E-06,-0.328
1.950E-06,-0.312
1.960E-06,-0.328
1.970E-06,-0.352
1.980E-06,-0.400
1.990E-06,-0.440
2.000E-06,-0.416
2.010E-06,-0.344
2.020E-06,-0.376
2.030E-06,-0.408
2.040E-06,-0.344
2.050E-06,-0.368
2.060E-06,-0.392
2.070E-06,-0.384
2.080E-06,-0.368
2.090E-06,-0.336
2.100E-06,-0.336
2.110E-06,-0.336
2.120E-06,-0.296
2.130E-06,-0.336
2.140E-06,-0.336
2.150E-06,-0.288
2.160E-06,-0.256
2.170E-06,-0.240
2.180E-06,-0.248
2.190E-06,-0.184
2.200E-06,-0.128
2.210E-06,-0.072
2.220E-06,-0.048
2.230E-06,0.024
2.240E-06,0.056
2.250E-06,0.096
2.260E-06,0.120
2.270E-06,0.120
2.280E-06,0.152
2.290E-06,0.176
2.300E-06,0.248
2.310E-06,0.336
2.320E-06,0.352
2.330E-06,0.328
2.340E-06,0.328
2.350E-06,0.296
2.360E-06,0.264
2.370E-06,0.288
2.380E-06,0.280
2.390E-06,0.232
2.400E-06,0.200
2.410E-06,0.168
2.420E-06,0.112
2.430E-06,0.064
2.440E-06,0.032
2.450E-06,0.000
2.460E-06,-0.016
2.470E-06,-0.056
2.480E-06,-0.096
2.490E-06,-0.136
2.500E-06,-0.192
2.510E-06,-0.232
2.520E-06,-0.296
2.530E-06,-0.360
2.540E-06,-0.424
2.550E-06,-0.488
2.560E-06,-0.520
2.570E-06,-0.544
2.580E-06,-0.544
2.590E-06,-0.528
2.600E-06,-0.536
2.610E-06,-0.512
2.620E-06,-0.504
2.630E-06,-0.504
2.640E-06,-0.504
2.650E-06,-0.504
2.660E-06,-0.520
2.670E-06,-0.504
2.680E-06,-0.488
2.690E-06,-0.472
2.700E-06,-0.432
2.710E-06,-0.424
2.720E-06,-0.424
2.730E-06,-0.432
2.740E-06,-0.424
2.750E-06,-0.480
2.760E-06,-0.488
2.770E-06,-0.536
2.780E-06,-0.576
2.790E-06,-0.616
2.800E-06,-0.640
2.810E-06,-0.664
2.820E-06,-0.664
2.830E-06,-0.640
2.840E-06,-0.664
2.850E-06,-0.648
2.860E-06,-0.640
2.870E-06,-0.632
2.880E-06,-0.584
2.890E-06,-0.544
2.900E-06,-0.496
2.910E-06,-0.400
2.920E-06,-0.336
2.930E-06,-0.272
2.940E-06,-0.200
2.950E-06,-0.160
2.960E-06,-0.128
2.970E-06,-0.104
2.980E-06,-0.104
2.990E-06,-0.096
3.000E-06,-0.064
3.010E-06,-0.032
3.020E-06,0.000
3.030E-06,0.048
3.040E-06,0.104
3.050E-06,0.160
3.060E-06,0.200
3.070E-06,0.240
3.080E-06,0.264
3.090E-06,0.304
3.100E-06,0.352
3.110E-06,0.392
3.120E-06,0.416
3.130E-06,0.464
3.140E-06,0.480
3.150E-06,0.464
3.160E-06,0.440
3.170E-06,0.400
3.180E-06,0.328
3.190E-06,0.256
3.200E-06,0.200
3.210E-06,0.152
3.220E-06,0.120
3.230E-06,0.072
3.240E-06,0.032
3.250E-06,0.008
3.260E-06,-0.016
3.270E-06,0.008
3.280E-06,0.056
3.290E-06,0.160
3.300E-06,0.240
3.310E-06,0.304
3.320E-06,0.344
3.330E-06,0.360
3.340E-06,0.344
3.350E-06,0.312
3.360E-06,0.320
3.370E-06,0.328
3.380E-06,0.328
3.390E-06,0.344
3.400E-06,0.320
3.410E-06,0.304
3.420E-06,0.272
3.430E-06,0.240
3.440E-06,0.200
3.450E-06,0.160
3.460E-06,0.096
3.470E-06,0.016
3.480E-06,-0.064
3.490E-06,-0.160
3.500E-06,-0.240
3.510E-06,-0.288
3.520E-06,-0.312
3.530E-06,-0.312
3.540E-06,-0.296
3.550E-06,-0.264
3.560E-06,-0.248
3.570E-06,-0.256
3.580E-06,-0.296
3.590E-06,-0.352
3.600E-06,-0.392
3.610E-06,-0.424
3.620E-06,-0.408
3.630E-06,-0.368
3.640E-06,-0.336
3.650E-06,-0.312
3.660E-06,-0.304
3.670E-06,-0.336
3.680E-06,-0.328
3.690E-06,-0.344
3.700E-06,-0.288
3.710E-06,-0.216
3.720E-06,-0.112
3.730E-06,0.008
3.740E-06,0.128
3.750E-06,0.216
3.760E-06,0.272
3.770E-06,0.320
3.780E-06,0.368
3.790E-06,0.400
3.800E-06,0.448
3.810E-06,0.448
3.820E-06,0.392
3.830E-06,0.296
3.840E-06,0.152
3.850E-06,0.024
3.860E-06,-0.056
3.870E-06,-0.112
3.880E-06,-0.128
3.890E-06,-0.136
3.900E-06,-0.096
3.910E-06,-0.040
3.920E-06,0.024
3.930E-06,0.096
3.940E-06,0.160
3.950E-06,0.200
3.960E-06,0.240
3.970E-06,0.312
3.980E-06,0.352
3.990E-06,0.408
4.000E-06,0.456
4.010E-06,0.480
4.020E-06,0.504
4.030E-06,0.512
4.040E-06,0.512
4.050E-06,0.512
4.060E-06,0.496
4.070E-06,0.464
4.080E-06,0.392
4.090E-06,0.352
4.100E-06,0.288
4.110E-06,0.256
4.120E-06,0.256
4.130E-06,0.288
4.140E-06,0.328
4.150E-06,0.376
4.160E-06,0.400
4.170E-06,0.416
4.180E-06,0.424
4.190E-06,0.416
4.200E-06,0.392
4.210E-06,0.368
4.220E-06,0.320
4.230E-06,0.264
4.240E-06,0.200
4.250E-06,0.136
4.260E-06,0.080
4.270E-06,0.032
4.280E-06,-0.008
4.290E-06,-0.048
4.300E-06,-0.072
4.310E-06,-0.088
4.320E-06,-0.112
4.330E-06,-0.136
4.340E-06,-0.160
4.350E-06,-0.200
4.360E-06,-0.224
4.370E-06,-0.224
4.380E-06,-0.224
4.390E-06,-0.200
4.400E-06,-0.200
4.410E-06,-0.192
4.420E-06,-0.192
4.430E-06,-0.224
4.440E-06,-0.280
4.450E-06,-0.328
4.460E-06,-0.336
4.470E-06,-0.336
4.480E-06,-0.288
4.490E-06,-0.240
4.500E-06,-0.192
4.510E-06,-0.160
4.520E-06,-0.128
4.530E-06,-0.112
4.540E-06,-0.048
4.550E-06,0.016
4.560E-06,0.080
4.570E-06,0.160
4.580E-06,0.248
4.590E-06,0.336
4.600E-06,0.408
4.610E-06,0.504
4.620E-06,0.568
4.630E-06,0.600
4.640E-06,0.600
4.650E-06,0.608
4.660E-06,0.576
4.670E-06,0.536
4.680E-06,0.480
4.690E-06,0.424
4.700E-06,0.384
4.710E-06,0.368
4.720E-06,0.360
4.730E-06,0.376
4.740E-06,0.416
4.750E-06,0.488
4.760E-06,0.608
4.770E-06,0.712
4.780E-06,0.808
4.790E-06,0.872
4.800E-06,0.912
4.810E-06,0.920
4.820E-06,0.912
4.830E-06,0.888
4.840E-06,0.832
4.850E-06,0.736
4.860E-06,0.648
4.870E-06,0.552
4.880E-06,0.480
4.890E-06,0.424
4.900E-06,0.416
4.910E-06,0.424
4.920E-06,0.424
4.930E-06,0.400
4.940E-06,0.384
4.950E-06,0.360
4.960E-06,0.344
4.970E-06,0.312
4.980E-06,0.296
4.990E-06,0.304
5.000E-06,0.280
5.010E-06,0.272
5.020E-06,0.264
5.030E-06,0.256
5.040E-06,0.248
5.050E-06,0.240
5.060E-06,0.240
5.070E-06,0.240
5.080E-06,0.272
5.090E-06,0.304
5.100E-06,0.336
5.110E-06,0.336
5.120E-06,0.360
5.130E-06,0.336
5.140E-06,0.312
5.150E-06,0.272
5.160E-06,0.200
5.170E-06,0.152
5.180E-06,0.088
5.190E-06,0.016
5.200E-06,-0.032
5.210E-06,-0.080
5.220E-06,-0.112
5.230E-06,-0.120
5.240E-06,-0.104
5.250E-06,-0.040
5.260E-06,0.040
5.270E-06,0.152
5.280E-06,0.248
5.290E-06,0.312
5.300E-06,0.368
5.310E-06,0.416
5.320E-06,0.456
5.330E-06,0.488
5.340E-06,0.520
5.350E-06,0.544
5.360E-06,0.592
5.370E-06,0.632
5.380E-06,0.688
5.390E-06,0.728
5.400E-06,0.752
5.410E-06,0.784
5.420E-06,0.792
5.430E-06,0.808
5.440E-06,0.800
5.450E-06,0.800
5.460E-06,0.792
5.470E-06,0.776
5.480E-06,0.792
5.490E-06,0.816
5.500E-06,0.888
5.510E-06,0.976
5.520E-06,1.088
5.530E-06,1.088
5.540E-06,1.080
5.550E-06,1.080
5.560E-06,1.080
5.570E-06,1.080
5.580E-06,1.072
5.590E-06,1.080
5.600E-06,1.088
5.610E-06,1.080
5.620E-06,1.088
5.630E-06,1.080
5.640E-06,1.080
5.650E-06,1.088
5.660E-06,1.088
5.670E-06,1.080
5.680E-06,1.080
5.690E-06,1.080
5.700E-06,1.080
5.710E-06,1.080
5.720E-06,1.088
5.730E-06,1.088
5.740E-06,1.080
5.750E-06,1.088
5.760E-06,1.080
5.770E-06,1.080
5.780E-06,1.080
5.790E-06,1.080
5.800E-06,1.072
5.810E-06,1.080
5.820E-06,1.088
5.830E-06,1.080
5.840E-06,1.088
5.850E-06,1.080
5.860E-06,1.088
5.870E-06,1.088
5.880E-06,1.080
5.890E-06,1.088
5.900E-06,1.080
5.910E-06,1.080
5.920E-06,1.080
5.930E-06,1.080
5.940E-06,1.088
5.950E-06,1.088
5.960E-06,1.008
5.970E-06,0.928
5.980E-06,0.776
5.990E-06,0.696
6.000E-06,0.640
6.010E-06,0.608
6.020E-06,0.576
6.030E-06,0.592
6.040E-06,0.616
6.050E-06,0.632
6.060E-06,0.640
6.070E-06,0.656
6.080E-06,0.648
6.090E-06,0.632
6.100E-06,0.600
6.110E-06,0.568
6.120E-06,0.528
6.130E-06,0.488
6.140E-06,0.432
6.150E-06,0.408
6.160E-06,0.392
6.170E-06,0.384
6.180E-06,0.368
6.190E-06,0.376
6.200E-06,0.376
6.210E-06,0.376
6.220E-06,0.376
6.230E-06,0.384
6.240E-06,0.400
6.250E-06,0.408
6.260E-06,0.424
6.270E-06,0.440
6.280E-06,0.456
6.290E-06,0.472
6.300E-06,0.480
6.310E-06,0.472
6.320E-06,0.456
6.330E-06,0.472
6.340E-06,0.472
6.350E-06,0.464
6.360E-06,0.456
6.370E-06,0.440
6.380E-06,0.440
6.390E-06,0.416
6.400E-06,0.408
6.410E-06,0.368
6.420E-06,0.368
6.430E-06,0.336
6.440E-06,0.328
6.450E-06,0.304
6.460E-06,0.304
6.470E-06,0.272
6.480E-06,0.240
6.490E-06,0.232
6.500E-06,0.216
6.510E-06,0.200
6.520E-06,0.168
6.530E-06,0.144
6.540E-06,0.128
6.550E-06,0.120
6.560E-06,0.112
6.570E-06,0.088
6.580E-06,0.072
6.590E-06,0.064
6.600E-06,0.040
6.610E-06,0.040
6.620E-06,0.048
6.630E-06,0.048
6.640E-06,0.064
6.650E-06,0.064
6.660E-06,0.080
6.670E-06,0.088
6.680E-06,0.088
6.690E-06,0.104
6.700E-06,0.128
6.710E-06,0.144
6.720E-06,0.152
6.730E-06,0.176
6.740E-06,0.176
6.750E-06,0.192
6.760E-06,0.192
6.770E-06,0.192
6.780E-06,0.192
6.790E-06,0.184
6.800E-06,0.184
6.810E-06,0.176
6.820E-06,0.176
6.830E-06,0.160
6.840E-06,0.176
6.850E-06,0.200
6.860E-06,0.224
6.870E-06,0.248
6.880E-06,0.264
6.890E-06,0.296
6.900E-06,0.320
6.910E-06,0.328
6.920E-06,0.320
6.930E-06,0.312
6.940E-06,0.312
6.950E-06,0.296
6.960E-06,0.304
6.970E-06,0.280
6.980E-06,0.288
6.990E-06,0.272
7.000E-06,0.280
7.010E-06,0.264
7.020E-06,0.280
7.030E-06,0.280
7.040E-06,0.272
7.050E-06,0.280
7.060E-06,0.264
7.070E-06,0.264
7.080E-06,0.248
7.090E-06,0.240
7.100E-06,0.224
7.110E-06,0.216
7.120E-06,0.200
7.130E-06,0.184
7.140E-06,0.176
7.150E-06,0.176
7.160E-06,0.168
7.170E-06,0.152
7.180E-06,0.160
7.190E-06,0.144
7.200E-06,0.136
7.210E-06,0.136
7.220E-06,0.120
7.230E-06,0.104
7.240E-06,0.104
7.250E-06,0.088
7.260E-06,0.080
7.270E-06,0.088
7.280E-06,0.088
7.290E-06,0.080
7.300E-06,0.080
7.310E-06,0.080
7.320E-06,0.088
7.330E-06,0.096
7.340E-06,0.088
7.350E-06,0.104
7.360E-06,0.096
7.370E-06,0.112
7.380E-06,0.112
7.390E-06,0.104
7.400E-06,0.120
7.410E-06,0.120
7.420E-06,0.128
7.430E-06,0.136
7.440E-06,0.128
7.450E-06,0.144
7.460E-06,0.160
7.470E-06,0.168
7.480E-06,0.176
7.490E-06,0.184
7.500E-06,0.200
7.510E-06,0.200
7.520E-06,0.208
7.530E-06,0.208
7.540E-06,0.216
7.550E-06,0.224
7.560E-06,0.232
7.570E-06,0.232
7.580E-06,0.240
7.590E-06,0.240
7.600E-06,0.240
7.610E-06,0.256
7.620E-06,0.248
7.630E-06,0.264
7.640E-06,0.264
7.650E-06,0.280
7.660E-06,0.280
7.670E-06,0.280
7.680E-06,0.296
7.690E-06,0.296
7.700E-06,0.312
7.710E-06,0.312
7.720E-06,0.312
7.730E-06,0.312
7.740E-06,0.320
7.750E-06,0.320
7.760E-06,0.312
7.770E-06,0.304
7.780E-06,0.312
