mediciones/Mediciones filtradas (saque las feas)/6-10/8.6/WaveData5678.csv

#timebase=2000000(ps)
,#voltbase=200000(mv/100)
#size=4000
-4.200E-06,-0.080
-4.190E-06,0.024
-4.180E-06,0.120
-4.170E-06,0.136
-4.160E-06,0.136
-4.150E-06,-0.016
-4.140E-06,-0.160
-4.130E-06,-0.264
-4.120E-06,-0.296
-4.110E-06,-0.264
-4.100E-06,-0.208
-4.090E-06,-0.152
-4.080E-06,-0.152
-4.070E-06,-0.240
-4.060E-06,-0.232
-4.050E-06,-0.304
-4.040E-06,-0.280
-4.030E-06,-0.296
-4.020E-06,-0.240
-4.010E-06,-0.128
-4.000E-06,-0.168
-3.990E-06,-0.112
-3.980E-06,0.080
-3.970E-06,-0.104
-3.960E-06,-0.368
-3.950E-06,0.112
-3.940E-06,-0.208
-3.930E-06,0.352
-3.920E-06,0.632
-3.910E-06,0.416
-3.900E-06,0.608
-3.890E-06,0.000
-3.880E-06,-0.184
-3.870E-06,0.176
-3.860E-06,0.072
-3.850E-06,0.288
-3.840E-06,0.592
-3.830E-06,0.280
-3.820E-06,-0.328
-3.810E-06,-0.112
-3.800E-06,-0.456
-3.790E-06,-0.112
-3.780E-06,0.768
-3.770E-06,0.664
-3.760E-06,0.808
-3.750E-06,0.456
-3.740E-06,-0.344
-3.730E-06,-0.288
-3.720E-06,-0.400
-3.710E-06,-0.064
-3.700E-06,0.360
-3.690E-06,0.296
-3.680E-06,0.096
-3.670E-06,-0.168
-3.660E-06,-0.456
-3.650E-06,-0.528
-3.640E-06,-0.280
-3.630E-06,-0.216
-3.620E-06,0.080
-3.610E-06,0.048
-3.600E-06,-0.440
-3.590E-06,-0.384
-3.580E-06,-0.320
-3.570E-06,-0.280
-3.560E-06,0.432
-3.550E-06,0.376
-3.540E-06,0.352
-3.530E-06,0.112
-3.520E-06,-0.408
-3.510E-06,-0.280
-3.500E-06,-0.144
-3.490E-06,0.136
-3.480E-06,0.400
-3.470E-06,0.296
-3.460E-06,0.016
-3.450E-06,-0.120
-3.440E-06,-0.184
-3.430E-06,-0.016
-3.420E-06,0.264
-3.410E-06,0.336
-3.400E-06,0.232
-3.390E-06,0.072
-3.380E-06,-0.160
-3.370E-06,-0.216
-3.360E-06,-0.128
-3.350E-06,-0.064
-3.340E-06,-0.008
-3.330E-06,-0.032
-3.320E-06,-0.064
-3.310E-06,-0.160
-3.300E-06,-0.192
-3.290E-06,-0.200
-3.280E-06,-0.184
-3.270E-06,-0.136
-3.260E-06,-0.016
-3.250E-06,-0.064
-3.240E-06,-0.032
-3.230E-06,-0.064
-3.220E-06,-0.016
-3.210E-06,-0.032
-3.200E-06,0.392
-3.190E-06,-0.408
-3.180E-06,-0.144
-3.170E-06,0.168
-3.160E-06,-0.240
-3.150E-06,0.976
-3.140E-06,0.600
-3.130E-06,0.448
-3.120E-06,0.288
-3.110E-06,-0.488
-3.100E-06,-0.280
-3.090E-06,0.072
-3.080E-06,0.336
-3.070E-06,0.616
-3.060E-06,0.400
-3.050E-06,-0.096
-3.040E-06,-0.392
-3.030E-06,-0.400
-3.020E-06,-0.152
-3.010E-06,0.296
-3.000E-06,0.640
-2.990E-06,0.464
-2.980E-06,0.280
-2.970E-06,-0.112
-2.960E-06,-0.192
-2.950E-06,-0.008
-2.940E-06,-0.040
-2.930E-06,-0.032
-2.920E-06,-0.136
-2.910E-06,-0.256
-2.900E-06,0.024
-2.890E-06,-0.176
-2.880E-06,0.216
-2.870E-06,0.112
-2.860E-06,-0.152
-2.850E-06,0.208
-2.840E-06,-0.096
-2.830E-06,-0.304
-2.820E-06,0.528
-2.810E-06,0.376
-2.800E-06,0.752
-2.790E-06,1.088
-2.780E-06,0.216
-2.770E-06,0.088
-2.760E-06,0.096
-2.750E-06,-1.048
-2.740E-06,-0.112
-2.730E-06,0.192
-2.720E-06,-0.288
-2.710E-06,1.080
-2.700E-06,0.160
-2.690E-06,0.080
-2.680E-06,0.088
-2.670E-06,-0.640
-2.660E-06,-0.424
-2.650E-06,0.016
-2.640E-06,-0.040
-2.630E-06,0.456
-2.620E-06,0.288
-2.610E-06,-0.296
-2.600E-06,-0.464
-2.590E-06,-0.800
-2.580E-06,-0.728
-2.570E-06,-0.376
-2.560E-06,0.000
-2.550E-06,0.176
-2.540E-06,0.248
-2.530E-06,-0.024
-2.520E-06,-0.352
-2.510E-06,-0.504
-2.500E-06,-0.424
-2.490E-06,-0.232
-2.480E-06,0.000
-2.470E-06,0.312
-2.460E-06,0.184
-2.450E-06,0.192
-2.440E-06,-0.032
-2.430E-06,-0.200
-2.420E-06,-0.144
-2.410E-06,-0.136
-2.400E-06,0.056
-2.390E-06,0.072
-2.380E-06,0.192
-2.370E-06,0.136
-2.360E-06,0.064
-2.350E-06,0.208
-2.340E-06,0.064
-2.330E-06,0.160
-2.320E-06,0.168
-2.310E-06,0.024
-2.300E-06,0.232
-2.290E-06,0.264
-2.280E-06,0.464
-2.270E-06,0.456
-2.260E-06,0.336
-2.250E-06,0.200
-2.240E-06,0.112
-2.230E-06,0.160
-2.220E-06,0.312
-2.210E-06,0.296
-2.200E-06,0.632
-2.190E-06,0.392
-2.180E-06,0.824
-2.170E-06,-0.880
-2.160E-06,0.328
-2.150E-06,0.128
-2.140E-06,-0.080
-2.130E-06,1.088
-2.120E-06,0.536
-2.110E-06,0.704
-2.100E-06,-0.208
-2.090E-06,-1.008
-2.080E-06,-0.360
-2.070E-06,-0.168
-2.060E-06,0.296
-2.050E-06,0.648
-2.040E-06,0.144
-2.030E-06,-0.320
-2.020E-06,-0.536
-2.010E-06,-0.704
-2.000E-06,-0.384
-1.990E-06,-0.072
-1.980E-06,0.080
-1.970E-06,-0.008
-1.960E-06,-0.304
-1.950E-06,-0.600
-1.940E-06,-0.824
-1.930E-06,-0.776
-1.920E-06,-0.600
-1.910E-06,-0.496
-1.900E-06,-0.280
-1.890E-06,-0.216
-1.880E-06,-0.312
-1.870E-06,-0.360
-1.860E-06,-0.528
-1.850E-06,-0.392
-1.840E-06,-0.232
-1.830E-06,-0.088
-1.820E-06,0.224
-1.810E-06,0.000
-1.800E-06,0.424
-1.790E-06,0.096
-1.780E-06,0.136
-1.770E-06,0.408
-1.760E-06,-0.136
-1.750E-06,0.680
-1.740E-06,0.224
-1.730E-06,0.312
-1.720E-06,1.080
-1.710E-06,-0.488
-1.700E-06,-0.144
-1.690E-06,0.392
-1.680E-06,0.208
-1.670E-06,1.080
-1.660E-06,1.080
-1.650E-06,0.984
-1.640E-06,0.744
-1.630E-06,-0.280
-1.620E-06,-1.032
-1.610E-06,0.496
-1.600E-06,0.696
-1.590E-06,1.080
-1.580E-06,1.080
-1.570E-06,0.056
-1.560E-06,-0.416
-1.550E-06,-0.792
-1.540E-06,-0.600
-1.530E-06,0.104
-1.520E-06,0.528
-1.510E-06,0.336
-1.500E-06,0.008
-1.490E-06,-0.592
-1.480E-06,-1.016
-1.470E-06,-1.016
-1.460E-06,-0.816
-1.450E-06,-0.568
-1.440E-06,-0.408
-1.430E-06,-0.256
-1.420E-06,-0.512
-1.410E-06,-0.552
-1.400E-06,-0.808
-1.390E-06,-0.984
-1.380E-06,-0.816
-1.370E-06,-0.488
-1.360E-06,-0.136
-1.350E-06,0.208
-1.340E-06,0.336
-1.330E-06,0.144
-1.320E-06,-0.008
-1.310E-06,-0.232
-1.300E-06,0.032
-1.290E-06,0.080
-1.280E-06,0.184
-1.270E-06,0.728
-1.260E-06,0.488
-1.250E-06,0.624
-1.240E-06,0.512
-1.230E-06,-0.024
-1.220E-06,-0.040
-1.210E-06,0.816
-1.200E-06,-0.904
-1.190E-06,0.488
-1.180E-06,0.912
-1.170E-06,-0.008
-1.160E-06,1.080
-1.150E-06,0.968
-1.140E-06,0.696
-1.130E-06,0.384
-1.120E-06,-1.040
-1.110E-06,-0.128
-1.100E-06,0.296
-1.090E-06,0.728
-1.080E-06,1.088
-1.070E-06,0.392
-1.060E-06,-0.416
-1.050E-06,-0.752
-1.040E-06,-0.888
-1.030E-06,-0.592
-1.020E-06,0.032
-1.010E-06,0.256
-1.000E-06,0.216
-9.900E-07,-0.096
-9.800E-07,-0.616
-9.700E-07,-0.968
-9.600E-07,-0.952
-9.500E-07,-0.872
-9.400E-07,-0.616
-9.300E-07,-0.336
-9.200E-07,-0.088
-9.100E-07,-0.296
-9.000E-07,0.120
-8.900E-07,-0.472
-8.800E-07,-0.376
-8.700E-07,-0.088
-8.600E-07,-0.584
-8.500E-07,0.536
-8.400E-07,-0.152
-8.300E-07,0.864
-8.200E-07,0.136
-8.100E-07,-0.104
-8.000E-07,0.776
-7.900E-07,0.400
-7.800E-07,0.576
-7.700E-07,1.072
-7.600E-07,0.288
-7.500E-07,0.192
-7.400E-07,1.088
-7.300E-07,0.320
-7.200E-07,1.080
-7.100E-07,0.752
-7.000E-07,0.176
-6.900E-07,0.376
-6.800E-07,0.024
-6.700E-07,0.160
-6.600E-07,0.608
-6.500E-07,0.368
-6.400E-07,0.256
-6.300E-07,0.008
-6.200E-07,-0.400
-6.100E-07,-0.552
-6.000E-07,-0.480
-5.900E-07,-0.432
-5.800E-07,-0.400
-5.700E-07,-0.392
-5.600E-07,-0.560
-5.500E-07,-0.728
-5.400E-07,-0.728
-5.300E-07,-0.800
-5.200E-07,-0.808
-5.100E-07,-0.720
-5.000E-07,-0.624
-4.900E-07,-0.504
-4.800E-07,-0.328
-4.700E-07,-0.320
-4.600E-07,-0.248
-4.500E-07,-0.280
-4.400E-07,-0.176
-4.300E-07,-0.080
-4.200E-07,0.024
-4.100E-07,0.168
-4.000E-07,0.248
-3.900E-07,0.360
-3.800E-07,0.416
-3.700E-07,0.368
-3.600E-07,0.312
-3.500E-07,0.280
-3.400E-07,0.272
-3.300E-07,0.352
-3.200E-07,0.432
-3.100E-07,0.432
-3.000E-07,0.408
-2.900E-07,0.328
-2.800E-07,0.232
-2.700E-07,0.184
-2.600E-07,0.152
-2.500E-07,0.144
-2.400E-07,0.176
-2.300E-07,0.192
-2.200E-07,0.184
-2.100E-07,0.104
-2.000E-07,0.040
-1.900E-07,-0.056
-1.800E-07,-0.024
-1.700E-07,0.008
-1.600E-07,0.032
-1.500E-07,0.064
-1.400E-07,-0.008
-1.300E-07,0.000
-1.200E-07,-0.136
-1.100E-07,0.240
-1.000E-07,-0.128
-9.000E-08,0.056
-8.000E-08,0.088
-7.000E-08,-0.264
-6.000E-08,0.152
-5.000E-08,0.104
-4.000E-08,-0.400
-3.000E-08,-0.240
-2.000E-08,-0.496
-1.000E-08,-0.576
0.000E+00,0.080
1.000E-08,0.376
2.000E-08,0.896
3.000E-08,0.720
4.000E-08,0.328
5.000E-08,-0.248
6.000E-08,-0.664
7.000E-08,-0.328
8.000E-08,0.376
9.000E-08,0.360
1.000E-07,0.936
1.100E-07,0.216
1.200E-07,-0.120
1.300E-07,0.112
1.400E-07,0.096
1.500E-07,0.784
1.600E-07,0.792
1.700E-07,0.608
1.800E-07,0.272
1.900E-07,-0.112
2.000E-07,-0.112
2.100E-07,0.088
2.200E-07,0.168
2.300E-07,0.192
2.400E-07,0.008
2.500E-07,-0.256
2.600E-07,-0.384
2.700E-07,-0.248
2.800E-07,-0.272
2.900E-07,0.000
3.000E-07,-0.056
3.100E-07,-0.136
3.200E-07,-0.192
3.300E-07,-0.448
3.400E-07,-0.424
3.500E-07,-0.512
3.600E-07,-0.416
3.700E-07,-0.280
3.800E-07,-0.216
3.900E-07,-0.208
4.000E-07,-0.160
4.100E-07,-0.256
4.200E-07,-0.248
4.300E-07,-0.128
4.400E-07,0.000
4.500E-07,0.136
4.600E-07,0.288
4.700E-07,0.288
4.800E-07,0.288
4.900E-07,0.336
5.000E-07,0.352
5.100E-07,0.432
5.200E-07,0.536
5.300E-07,0.560
5.400E-07,0.384
5.500E-07,0.368
5.600E-07,0.144
5.700E-07,0.056
5.800E-07,0.048
5.900E-07,0.024
6.000E-07,0.288
6.100E-07,0.400
6.200E-07,0.488
6.300E-07,0.552
6.400E-07,0.416
6.500E-07,0.272
6.600E-07,0.016
6.700E-07,-0.040
6.800E-07,-0.272
6.900E-07,-0.096
7.000E-07,0.064
7.100E-07,0.208
7.200E-07,0.368
7.300E-07,0.232
7.400E-07,0.040
7.500E-07,-0.104
7.600E-07,-0.256
7.700E-07,-0.040
7.800E-07,0.104
7.900E-07,0.184
8.000E-07,0.360
8.100E-07,0.136
8.200E-07,-0.072
8.300E-07,-0.144
8.400E-07,-0.296
8.500E-07,-0.232
8.600E-07,-0.112
8.700E-07,-0.144
8.800E-07,-0.112
8.900E-07,-0.192
9.000E-07,-0.296
9.100E-07,-0.336
9.200E-07,-0.344
9.300E-07,-0.296
9.400E-07,-0.216
9.500E-07,-0.136
9.600E-07,-0.104
9.700E-07,-0.088
9.800E-07,-0.112
9.900E-07,-0.096
1.000E-06,-0.072
1.010E-06,-0.056
1.020E-06,0.016
1.030E-06,0.056
1.040E-06,0.080
1.050E-06,0.104
1.060E-06,0.096
1.070E-06,0.104
1.080E-06,0.144
1.090E-06,0.176
1.100E-06,0.224
1.110E-06,0.264
1.120E-06,0.296
1.130E-06,0.344
1.140E-06,0.360
1.150E-06,0.368
1.160E-06,0.360
1.170E-06,0.360
1.180E-06,0.312
1.190E-06,0.376
1.200E-06,0.232
1.210E-06,0.328
1.220E-06,0.176
1.230E-06,0.136
1.240E-06,-0.008
1.250E-06,-0.112
1.260E-06,-0.104
1.270E-06,-0.016
1.280E-06,0.264
1.290E-06,0.296
1.300E-06,0.504
1.310E-06,0.456
1.320E-06,0.360
1.330E-06,0.352
1.340E-06,0.264
1.350E-06,0.392
1.360E-06,0.528
1.370E-06,0.584
1.380E-06,0.624
1.390E-06,0.544
1.400E-06,0.496
1.410E-06,0.392
1.420E-06,0.488
1.430E-06,0.536
1.440E-06,0.528
1.450E-06,0.640
1.460E-06,0.680
1.470E-06,0.664
1.480E-06,0.568
1.490E-06,0.544
1.500E-06,0.328
1.510E-06,0.528
1.520E-06,0.512
1.530E-06,0.592
1.540E-06,0.624
1.550E-06,0.400
1.560E-06,0.400
1.570E-06,0.448
1.580E-06,0.512
1.590E-06,0.384
1.600E-06,0.568
1.610E-06,0.512
1.620E-06,0.408
1.630E-06,0.392
1.640E-06,0.112
1.650E-06,0.264
1.660E-06,0.240
1.670E-06,0.232
1.680E-06,0.312
1.690E-06,0.128
1.700E-06,0.096
1.710E-06,0.032
1.720E-06,0.120
1.730E-06,0.096
1.740E-06,0.016
1.750E-06,-0.072
1.760E-06,-0.056
1.770E-06,-0.112
1.780E-06,-0.136
1.790E-06,-0.040
1.800E-06,-0.064
1.810E-06,0.096
1.820E-06,-0.032
1.830E-06,-0.016
1.840E-06,0.256
1.850E-06,0.240
1.860E-06,0.584
1.870E-06,0.600
1.880E-06,0.568
1.890E-06,0.464
1.900E-06,0.288
1.910E-06,-0.056
1.920E-06,-0.040
1.930E-06,-0.064
1.940E-06,0.368
1.950E-06,0.560
1.960E-06,0.264
1.970E-06,0.200
1.980E-06,-0.216
1.990E-06,-0.376
2.000E-06,-0.464
2.010E-06,-0.240
2.020E-06,0.336
2.030E-06,0.968
2.040E-06,1.088
2.050E-06,1.080
2.060E-06,1.080
2.070E-06,1.080
2.080E-06,1.080
2.090E-06,1.080
2.100E-06,0.808
2.110E-06,0.664
2.120E-06,0.528
2.130E-06,0.312
2.140E-06,-0.200
2.150E-06,-0.520
2.160E-06,-0.200
2.170E-06,-0.600
2.180E-06,-0.016
2.190E-06,-0.240
2.200E-06,-0.032
2.210E-06,0.864
2.220E-06,0.176
2.230E-06,0.784
2.240E-06,0.320
2.250E-06,0.152
2.260E-06,0.456
2.270E-06,0.576
2.280E-06,0.896
2.290E-06,1.024
2.300E-06,0.976
2.310E-06,0.800
2.320E-06,0.808
2.330E-06,0.632
2.340E-06,0.640
2.350E-06,0.744
2.360E-06,0.648
2.370E-06,0.512
2.380E-06,0.360
2.390E-06,0.088
2.400E-06,-0.104
2.410E-06,-0.224
2.420E-06,-0.520
2.430E-06,-0.576
2.440E-06,-0.736
2.450E-06,-0.776
2.460E-06,-0.712
2.470E-06,-0.640
2.480E-06,-0.552
2.490E-06,-0.400
2.500E-06,-0.304
2.510E-06,-0.200
2.520E-06,-0.072
2.530E-06,0.048
2.540E-06,0.168
2.550E-06,0.216
2.560E-06,0.264
2.570E-06,0.248
2.580E-06,0.160
2.590E-06,0.048
2.600E-06,-0.056
2.610E-06,-0.240
2.620E-06,-0.336
2.630E-06,-0.416
2.640E-06,-0.536
2.650E-06,-0.576
2.660E-06,-0.664
2.670E-06,-0.784
2.680E-06,-0.656
2.690E-06,-0.736
2.700E-06,-0.720
2.710E-06,-0.536
2.720E-06,-0.592
2.730E-06,-0.168
2.740E-06,0.224
2.750E-06,0.608
2.760E-06,1.080
2.770E-06,1.080
2.780E-06,1.056
2.790E-06,0.800
2.800E-06,0.432
2.810E-06,0.464
2.820E-06,0.704
2.830E-06,0.888
2.840E-06,0.928
2.850E-06,0.800
2.860E-06,0.360
2.870E-06,-0.008
2.880E-06,-0.128
2.890E-06,-0.296
2.900E-06,-0.144
2.910E-06,0.024
2.920E-06,0.032
2.930E-06,0.240
2.940E-06,0.256
2.950E-06,0.296
2.960E-06,0.480
2.970E-06,0.288
2.980E-06,0.344
2.990E-06,0.256
3.000E-06,0.168
3.010E-06,0.400
3.020E-06,0.400
3.030E-06,0.392
3.040E-06,0.336
3.050E-06,-0.040
3.060E-06,-0.112
3.070E-06,-0.160
3.080E-06,0.008
3.090E-06,0.376
3.100E-06,0.440
3.110E-06,0.688
3.120E-06,0.536
3.130E-06,0.392
3.140E-06,0.224
3.150E-06,-0.088
3.160E-06,-0.200
3.170E-06,-0.368
3.180E-06,-0.504
3.190E-06,-0.496
3.200E-06,-0.512
3.210E-06,-0.456
3.220E-06,-0.376
3.230E-06,-0.336
3.240E-06,-0.272
3.250E-06,-0.224
3.260E-06,-0.224
3.270E-06,-0.160
3.280E-06,-0.136
3.290E-06,-0.152
3.300E-06,-0.136
3.310E-06,-0.200
3.320E-06,-0.240
3.330E-06,-0.360
3.340E-06,-0.472
3.350E-06,-0.568
3.360E-06,-0.640
3.370E-06,-0.696
3.380E-06,-0.760
3.390E-06,-0.808
3.400E-06,-0.848
3.410E-06,-0.864
3.420E-06,-0.872
3.430E-06,-0.872
3.440E-06,-0.872
3.450E-06,-0.896
3.460E-06,-0.960
3.470E-06,-1.040
3.480E-06,-1.040
3.490E-06,-1.040
3.500E-06,-1.040
3.510E-06,-1.040
3.520E-06,-1.048
3.530E-06,-1.040
3.540E-06,-1.032
3.550E-06,-1.040
3.560E-06,-1.048
3.570E-06,-1.032
3.580E-06,-1.040
3.590E-06,-1.040
3.600E-06,-1.048
3.610E-06,-1.040
3.620E-06,-1.032
3.630E-06,-1.040
3.640E-06,-1.032
3.650E-06,-1.040
3.660E-06,-1.040
3.670E-06,-1.040
3.680E-06,-1.048
3.690E-06,-1.040
3.700E-06,-1.040
3.710E-06,-1.040
3.720E-06,-1.048
3.730E-06,-1.040
3.740E-06,-1.040
3.750E-06,-1.048
3.760E-06,-1.040
3.770E-06,-1.048
3.780E-06,-1.048
3.790E-06,-1.032
3.800E-06,-1.040
3.810E-06,-1.048
3.820E-06,-1.040
3.830E-06,-1.048
3.840E-06,-1.048
3.850E-06,-1.048
3.860E-06,-1.032
3.870E-06,-1.032
3.880E-06,-1.040
3.890E-06,-1.048
3.900E-06,-0.968
3.910E-06,-0.872
3.920E-06,-0.776
3.930E-06,-0.648
3.940E-06,-0.568
3.950E-06,-0.512
3.960E-06,-0.488
3.970E-06,-0.464
3.980E-06,-0.456
3.990E-06,-0.488
4.000E-06,-0.512
4.010E-06,-0.536
4.020E-06,-0.568
4.030E-06,-0.600
4.040E-06,-0.632
4.050E-06,-0.664
4.060E-06,-0.696
4.070E-06,-0.728
4.080E-06,-0.768
4.090E-06,-0.784
4.100E-06,-0.752
4.110E-06,-0.752
4.120E-06,-0.720
4.130E-06,-0.648
4.140E-06,-0.608
4.150E-06,-0.536
4.160E-06,-0.488
4.170E-06,-0.456
4.180E-06,-0.384
4.190E-06,-0.320
4.200E-06,-0.232
4.210E-06,-0.128
4.220E-06,-0.096
4.230E-06,-0.064
4.240E-06,-0.088
4.250E-06,-0.096
4.260E-06,-0.096
4.270E-06,-0.096
4.280E-06,-0.104
4.290E-06,-0.120
4.300E-06,-0.168
4.310E-06,-0.216
4.320E-06,-0.272
4.330E-06,-0.160
4.340E-06,-0.128
4.350E-06,-0.104
4.360E-06,-0.056
4.370E-06,-0.080
4.380E-06,-0.032
4.390E-06,0.040
4.400E-06,0.064
4.410E-06,0.072
4.420E-06,0.096
4.430E-06,0.136
4.440E-06,0.192
4.450E-06,0.280
4.460E-06,0.400
4.470E-06,0.448
4.480E-06,0.544
4.490E-06,0.616
4.500E-06,0.624
4.510E-06,0.624
4.520E-06,0.496
4.530E-06,0.400
4.540E-06,0.240
4.550E-06,-0.040
4.560E-06,-0.224
4.570E-06,-0.376
4.580E-06,-0.480
4.590E-06,-0.504
4.600E-06,-0.536
4.610E-06,-0.504
4.620E-06,-0.504
4.630E-06,-0.464
4.640E-06,-0.448
4.650E-06,-0.496
4.660E-06,-0.424
4.670E-06,-0.400
4.680E-06,-0.304
4.690E-06,-0.240
4.700E-06,-0.240
4.710E-06,-0.200
4.720E-06,-0.264
4.730E-06,-0.296
4.740E-06,-0.216
4.750E-06,-0.232
4.760E-06,-0.264
4.770E-06,-0.248
4.780E-06,-0.248
4.790E-06,-0.224
4.800E-06,-0.208
4.810E-06,-0.240
4.820E-06,-0.192
4.830E-06,-0.200
4.840E-06,-0.240
4.850E-06,-0.200
4.860E-06,-0.192
4.870E-06,-0.224
4.880E-06,-0.192
4.890E-06,-0.136
4.900E-06,-0.088
4.910E-06,-0.032
4.920E-06,0.032
4.930E-06,0.088
4.940E-06,0.184
4.950E-06,0.248
4.960E-06,0.264
4.970E-06,0.280
4.980E-06,0.256
4.990E-06,0.208
5.000E-06,0.200
5.010E-06,0.224
5.020E-06,0.280
5.030E-06,0.368
5.040E-06,0.400
5.050E-06,0.448
5.060E-06,0.496
5.070E-06,0.512
5.080E-06,0.544
5.090E-06,0.576
5.100E-06,0.560
5.110E-06,0.488
5.120E-06,0.400
5.130E-06,0.272
5.140E-06,0.168
5.150E-06,0.120
5.160E-06,0.080
5.170E-06,0.088
5.180E-06,0.040
5.190E-06,-0.008
5.200E-06,-0.104
5.210E-06,-0.256
5.220E-06,-0.360
5.230E-06,-0.416
5.240E-06,-0.456
5.250E-06,-0.464
5.260E-06,-0.432
5.270E-06,-0.456
5.280E-06,-0.456
5.290E-06,-0.432
5.300E-06,-0.456
5.310E-06,-0.456
5.320E-06,-0.472
5.330E-06,-0.496
5.340E-06,-0.496
5.350E-06,-0.544
5.360E-06,-0.608
5.370E-06,-0.648
5.380E-06,-0.720
5.390E-06,-0.768
5.400E-06,-0.768
5.410E-06,-0.760
5.420E-06,-0.696
5.430E-06,-0.576
5.440E-06,-0.464
5.450E-06,-0.360
5.460E-06,-0.344
5.470E-06,-0.368
5.480E-06,-0.376
5.490E-06,-0.368
5.500E-06,-0.312
5.510E-06,-0.232
5.520E-06,-0.152
5.530E-06,-0.056
5.540E-06,0.008
5.550E-06,0.008
5.560E-06,-0.008
5.570E-06,0.000
5.580E-06,0.072
5.590E-06,0.136
5.600E-06,0.192
5.610E-06,0.288
5.620E-06,0.352
5.630E-06,0.440
5.640E-06,0.512
5.650E-06,0.584
5.660E-06,0.664
5.670E-06,0.728
5.680E-06,0.784
5.690E-06,0.784
5.700E-06,0.768
5.710E-06,0.760
5.720E-06,0.760
5.730E-06,0.744
5.740E-06,0.704
5.750E-06,0.656
5.760E-06,0.552
5.770E-06,0.456
5.780E-06,0.368
5.790E-06,0.272
5.800E-06,0.200
5.810E-06,0.152
5.820E-06,0.120
5.830E-06,0.112
5.840E-06,0.088
5.850E-06,0.056
5.860E-06,0.024
5.870E-06,0.000
5.880E-06,-0.056
5.890E-06,-0.120
5.900E-06,-0.208
5.910E-06,-0.304
5.920E-06,-0.384
5.930E-06,-0.440
5.940E-06,-0.520
5.950E-06,-0.584
5.960E-06,-0.624
5.970E-06,-0.624
5.980E-06,-0.608
5.990E-06,-0.576
6.000E-06,-0.504
6.010E-06,-0.416
6.020E-06,-0.360
6.030E-06,-0.304
6.040E-06,-0.264
6.050E-06,-0.216
6.060E-06,-0.160
6.070E-06,-0.104
6.080E-06,-0.032
6.090E-06,0.048
6.100E-06,0.144
6.110E-06,0.216
6.120E-06,0.312
6.130E-06,0.392
6.140E-06,0.432
6.150E-06,0.496
6.160E-06,0.536
6.170E-06,0.560
6.180E-06,0.568
6.190E-06,0.552
6.200E-06,0.512
6.210E-06,0.496
6.220E-06,0.472
6.230E-06,0.456
6.240E-06,0.448
6.250E-06,0.448
6.260E-06,0.440
6.270E-06,0.448
6.280E-06,0.472
6.290E-06,0.504
6.300E-06,0.544
6.310E-06,0.568
6.320E-06,0.600
6.330E-06,0.592
6.340E-06,0.544
6.350E-06,0.472
6.360E-06,0.368
6.370E-06,0.288
6.380E-06,0.200
6.390E-06,0.144
6.400E-06,0.104
6.410E-06,0.064
6.420E-06,0.048
6.430E-06,0.000
6.440E-06,-0.056
6.450E-06,-0.136
6.460E-06,-0.248
6.470E-06,-0.328
6.480E-06,-0.392
6.490E-06,-0.408
6.500E-06,-0.384
6.510E-06,-0.312
6.520E-06,-0.224
6.530E-06,-0.120
6.540E-06,-0.032
6.550E-06,0.040
6.560E-06,0.144
6.570E-06,0.248
6.580E-06,0.328
6.590E-06,0.408
6.600E-06,0.440
6.610E-06,0.440
6.620E-06,0.416
6.630E-06,0.400
6.640E-06,0.400
6.650E-06,0.400
6.660E-06,0.400
6.670E-06,0.416
6.680E-06,0.416
6.690E-06,0.392
6.700E-06,0.344
6.710E-06,0.320
6.720E-06,0.280
6.730E-06,0.264
6.740E-06,0.272
6.750E-06,0.304
6.760E-06,0.344
6.770E-06,0.400
6.780E-06,0.400
6.790E-06,0.376
6.800E-06,0.344
6.810E-06,0.288
6.820E-06,0.208
6.830E-06,0.152
6.840E-06,0.088
6.850E-06,0.008
6.860E-06,-0.048
6.870E-06,-0.056
6.880E-06,-0.040
6.890E-06,0.032
6.900E-06,0.088
6.910E-06,0.160
6.920E-06,0.200
6.930E-06,0.200
6.940E-06,0.176
6.950E-06,0.152
6.960E-06,0.152
6.970E-06,0.168
6.980E-06,0.192
6.990E-06,0.216
7.000E-06,0.208
7.010E-06,0.192
7.020E-06,0.152
7.030E-06,0.120
7.040E-06,0.064
7.050E-06,0.016
7.060E-06,-0.008
7.070E-06,-0.008
7.080E-06,0.008
7.090E-06,0.032
7.100E-06,0.056
7.110E-06,0.096
7.120E-06,0.136
7.130E-06,0.168
7.140E-06,0.192
7.150E-06,0.208
7.160E-06,0.208
7.170E-06,0.216
7.180E-06,0.224
7.190E-06,0.240
7.200E-06,0.288
7.210E-06,0.304
7.220E-06,0.336
7.230E-06,0.368
7.240E-06,0.384
7.250E-06,0.400
7.260E-06,0.408
7.270E-06,0.424
7.280E-06,0.440
7.290E-06,0.440
7.300E-06,0.440
7.310E-06,0.456
7.320E-06,0.456
7.330E-06,0.496
7.340E-06,0.552
7.350E-06,0.600
7.360E-06,0.640
7.370E-06,0.688
7.380E-06,0.712
7.390E-06,0.696
7.400E-06,0.712
7.410E-06,0.712
7.420E-06,0.696
7.430E-06,0.712
7.440E-06,0.728
7.450E-06,0.744
7.460E-06,0.768
7.470E-06,0.784
7.480E-06,0.816
7.490E-06,0.880
7.500E-06,0.984
7.510E-06,1.080
7.520E-06,1.072
7.530E-06,1.080
7.540E-06,1.088
7.550E-06,1.080
7.560E-06,1.080
7.570E-06,1.072
7.580E-06,1.080
7.590E-06,1.088
7.600E-06,1.080
7.610E-06,1.080
7.620E-06,1.072
7.630E-06,1.080
7.640E-06,1.080
