mediciones/Mediciones filtradas (saque las feas)/6-10/32.5/WaveData5594.csv

#timebase=2000000(ps)
,#voltbase=100000(mv/100)
#size=4000
-4.250E-06,0.024
-4.240E-06,-0.020
-4.230E-06,-0.024
-4.220E-06,-0.036
-4.210E-06,0.000
-4.200E-06,0.020
-4.190E-06,0.028
-4.180E-06,0.048
-4.170E-06,0.016
-4.160E-06,-0.008
-4.150E-06,-0.004
-4.140E-06,-0.004
-4.130E-06,-0.020
-4.120E-06,0.012
-4.110E-06,0.028
-4.100E-06,0.028
-4.090E-06,0.028
-4.080E-06,0.012
-4.070E-06,0.004
-4.060E-06,0.000
-4.050E-06,0.008
-4.040E-06,0.020
-4.030E-06,0.024
-4.020E-06,0.028
-4.010E-06,0.028
-4.000E-06,0.024
-3.990E-06,0.020
-3.980E-06,0.036
-3.970E-06,0.036
-3.960E-06,0.040
-3.950E-06,0.060
-3.940E-06,-0.044
-3.930E-06,-0.036
-3.920E-06,-0.060
-3.910E-06,-0.092
-3.900E-06,-0.068
-3.890E-06,-0.048
-3.880E-06,0.056
-3.870E-06,0.064
-3.860E-06,0.036
-3.850E-06,0.020
-3.840E-06,0.000
-3.830E-06,-0.020
-3.820E-06,-0.052
-3.810E-06,-0.056
-3.800E-06,0.000
-3.790E-06,0.064
-3.780E-06,0.052
-3.770E-06,0.076
-3.760E-06,0.016
-3.750E-06,-0.020
-3.740E-06,-0.020
-3.730E-06,-0.028
-3.720E-06,0.016
-3.710E-06,0.024
-3.700E-06,0.028
-3.690E-06,-0.020
-3.680E-06,-0.072
-3.670E-06,-0.052
-3.660E-06,-0.028
-3.650E-06,0.024
-3.640E-06,0.028
-3.630E-06,0.040
-3.620E-06,0.004
-3.610E-06,0.008
-3.600E-06,-0.024
-3.590E-06,-0.004
-3.580E-06,-0.008
-3.570E-06,-0.012
-3.560E-06,0.028
-3.550E-06,0.024
-3.540E-06,0.028
-3.530E-06,-0.004
-3.520E-06,0.008
-3.510E-06,-0.020
-3.500E-06,-0.024
-3.490E-06,-0.004
-3.480E-06,0.024
-3.470E-06,0.008
-3.460E-06,0.028
-3.450E-06,0.024
-3.440E-06,-0.008
-3.430E-06,0.048
-3.420E-06,0.012
-3.410E-06,0.028
-3.400E-06,0.024
-3.390E-06,0.064
-3.380E-06,0.084
-3.370E-06,0.048
-3.360E-06,-0.004
-3.350E-06,-0.072
-3.340E-06,-0.144
-3.330E-06,-0.068
-3.320E-06,-0.128
-3.310E-06,0.020
-3.300E-06,0.000
-3.290E-06,0.080
-3.280E-06,0.108
-3.270E-06,0.064
-3.260E-06,0.024
-3.250E-06,-0.088
-3.240E-06,-0.136
-3.230E-06,-0.080
-3.220E-06,0.028
-3.210E-06,0.144
-3.200E-06,0.172
-3.190E-06,0.020
-3.180E-06,-0.044
-3.170E-06,-0.152
-3.160E-06,-0.100
-3.150E-06,-0.060
-3.140E-06,0.020
-3.130E-06,0.064
-3.120E-06,0.092
-3.110E-06,0.068
-3.100E-06,-0.016
-3.090E-06,-0.076
-3.080E-06,-0.112
-3.070E-06,-0.040
-3.060E-06,0.036
-3.050E-06,0.096
-3.040E-06,0.056
-3.030E-06,0.004
-3.020E-06,-0.032
-3.010E-06,-0.036
-3.000E-06,-0.016
-2.990E-06,0.000
-2.980E-06,0.024
-2.970E-06,0.028
-2.960E-06,0.036
-2.950E-06,0.012
-2.940E-06,0.004
-2.930E-06,-0.024
-2.920E-06,-0.012
-2.910E-06,0.008
-2.900E-06,0.028
-2.890E-06,0.040
-2.880E-06,0.040
-2.870E-06,0.028
-2.860E-06,0.004
-2.850E-06,-0.016
-2.840E-06,-0.036
-2.830E-06,-0.028
-2.820E-06,-0.016
-2.810E-06,0.028
-2.800E-06,0.032
-2.790E-06,0.032
-2.780E-06,0.012
-2.770E-06,-0.008
-2.760E-06,-0.020
-2.750E-06,-0.020
-2.740E-06,0.004
-2.730E-06,0.024
-2.720E-06,0.036
-2.710E-06,0.024
-2.700E-06,0.020
-2.690E-06,0.000
-2.680E-06,-0.004
-2.670E-06,0.008
-2.660E-06,0.016
-2.650E-06,0.032
-2.640E-06,0.036
-2.630E-06,0.044
-2.620E-06,0.044
-2.610E-06,0.048
-2.600E-06,0.048
-2.590E-06,0.048
-2.580E-06,0.060
-2.570E-06,0.072
-2.560E-06,0.068
-2.550E-06,0.072
-2.540E-06,0.072
-2.530E-06,0.060
-2.520E-06,0.088
-2.510E-06,0.092
-2.500E-06,0.036
-2.490E-06,-0.004
-2.480E-06,-0.140
-2.470E-06,-0.268
-2.460E-06,-0.296
-2.450E-06,-0.140
-2.440E-06,0.052
-2.430E-06,0.180
-2.420E-06,0.220
-2.410E-06,0.144
-2.400E-06,-0.068
-2.390E-06,-0.184
-2.380E-06,-0.284
-2.370E-06,-0.152
-2.360E-06,-0.072
-2.350E-06,0.184
-2.340E-06,0.208
-2.330E-06,0.156
-2.320E-06,0.036
-2.310E-06,-0.084
-2.300E-06,-0.148
-2.290E-06,-0.148
-2.280E-06,-0.064
-2.270E-06,0.036
-2.260E-06,0.160
-2.250E-06,0.184
-2.240E-06,0.096
-2.230E-06,-0.028
-2.220E-06,-0.088
-2.210E-06,-0.100
-2.200E-06,-0.012
-2.190E-06,0.060
-2.180E-06,0.144
-2.170E-06,0.168
-2.160E-06,0.152
-2.150E-06,0.076
-2.140E-06,-0.004
-2.130E-06,-0.036
-2.120E-06,-0.088
-2.110E-06,-0.060
-2.100E-06,-0.036
-2.090E-06,0.020
-2.080E-06,0.004
-2.070E-06,0.040
-2.060E-06,0.000
-2.050E-06,-0.060
-2.040E-06,-0.040
-2.030E-06,-0.020
-2.020E-06,-0.004
-2.010E-06,0.020
-2.000E-06,0.084
-1.990E-06,0.044
-1.980E-06,0.060
-1.970E-06,0.008
-1.960E-06,0.012
-1.950E-06,-0.028
-1.940E-06,-0.032
-1.930E-06,-0.020
-1.920E-06,-0.036
-1.910E-06,-0.016
-1.900E-06,-0.040
-1.890E-06,0.000
-1.880E-06,-0.008
-1.870E-06,0.032
-1.860E-06,0.068
-1.850E-06,0.060
-1.840E-06,0.068
-1.830E-06,0.084
-1.820E-06,0.052
-1.810E-06,0.088
-1.800E-06,0.104
-1.790E-06,0.084
-1.780E-06,0.016
-1.770E-06,-0.064
-1.760E-06,-0.128
-1.750E-06,-0.140
-1.740E-06,-0.092
-1.730E-06,-0.056
-1.720E-06,0.000
-1.710E-06,0.024
-1.700E-06,0.036
-1.690E-06,0.012
-1.680E-06,-0.040
-1.670E-06,-0.040
-1.660E-06,-0.024
-1.650E-06,0.012
-1.640E-06,0.028
-1.630E-06,0.060
-1.620E-06,0.064
-1.610E-06,0.036
-1.600E-06,0.040
-1.590E-06,0.000
-1.580E-06,0.012
-1.570E-06,-0.040
-1.560E-06,-0.036
-1.550E-06,-0.060
-1.540E-06,-0.072
-1.530E-06,-0.068
-1.520E-06,-0.064
-1.510E-06,0.004
-1.500E-06,-0.008
-1.490E-06,0.020
-1.480E-06,0.052
-1.470E-06,0.020
-1.460E-06,-0.024
-1.450E-06,-0.016
-1.440E-06,-0.008
-1.430E-06,0.000
-1.420E-06,0.024
-1.410E-06,0.024
-1.400E-06,0.008
-1.390E-06,0.004
-1.380E-06,-0.008
-1.370E-06,-0.012
-1.360E-06,0.028
-1.350E-06,0.020
-1.340E-06,0.020
-1.330E-06,0.032
-1.320E-06,0.036
-1.310E-06,0.044
-1.300E-06,0.064
-1.290E-06,0.052
-1.280E-06,0.044
-1.270E-06,0.020
-1.260E-06,0.020
-1.250E-06,0.020
-1.240E-06,0.020
-1.230E-06,0.020
-1.220E-06,0.044
-1.210E-06,0.060
-1.200E-06,0.040
-1.190E-06,0.016
-1.180E-06,0.016
-1.170E-06,0.028
-1.160E-06,0.044
-1.150E-06,0.056
-1.140E-06,0.064
-1.130E-06,0.064
-1.120E-06,0.056
-1.110E-06,0.052
-1.100E-06,0.060
-1.090E-06,0.060
-1.080E-06,0.076
-1.070E-06,0.092
-1.060E-06,0.108
-1.050E-06,0.112
-1.040E-06,0.124
-1.030E-06,0.128
-1.020E-06,0.132
-1.010E-06,0.152
-1.000E-06,0.152
-9.900E-07,0.168
-9.800E-07,0.156
-9.700E-07,0.140
-9.600E-07,0.136
-9.500E-07,0.140
-9.400E-07,0.124
-9.300E-07,0.120
-9.200E-07,0.128
-9.100E-07,0.144
-9.000E-07,0.160
-8.900E-07,0.164
-8.800E-07,0.160
-8.700E-07,0.156
-8.600E-07,0.140
-8.500E-07,0.144
-8.400E-07,0.096
-8.300E-07,0.096
-8.200E-07,0.032
-8.100E-07,-0.040
-8.000E-07,-0.088
-7.900E-07,-0.148
-7.800E-07,-0.196
-7.700E-07,-0.360
-7.600E-07,-0.376
-7.500E-07,-0.352
-7.400E-07,-0.380
-7.300E-07,-0.288
-7.200E-07,-0.140
-7.100E-07,-0.096
-7.000E-07,0.000
-6.900E-07,-0.028
-6.800E-07,-0.016
-6.700E-07,-0.076
-6.600E-07,-0.072
-6.500E-07,-0.056
-6.400E-07,-0.040
-6.300E-07,0.048
-6.200E-07,0.120
-6.100E-07,0.064
-6.000E-07,0.096
-5.900E-07,0.100
-5.800E-07,0.056
-5.700E-07,0.060
-5.600E-07,0.072
-5.500E-07,0.120
-5.400E-07,0.144
-5.300E-07,0.136
-5.200E-07,0.100
-5.100E-07,0.084
-5.000E-07,0.108
-4.900E-07,0.112
-4.800E-07,0.120
-4.700E-07,0.180
-4.600E-07,0.212
-4.500E-07,0.188
-4.400E-07,0.100
-4.300E-07,0.024
-4.200E-07,-0.008
-4.100E-07,-0.004
-4.000E-07,0.068
-3.900E-07,0.096
-3.800E-07,0.144
-3.700E-07,0.164
-3.600E-07,0.168
-3.500E-07,0.156
-3.400E-07,0.164
-3.300E-07,0.192
-3.200E-07,0.204
-3.100E-07,0.212
-3.000E-07,0.212
-2.900E-07,0.196
-2.800E-07,0.176
-2.700E-07,0.164
-2.600E-07,0.168
-2.500E-07,0.192
-2.400E-07,0.212
-2.300E-07,0.212
-2.200E-07,0.196
-2.100E-07,0.192
-2.000E-07,0.172
-1.900E-07,0.164
-1.800E-07,0.148
-1.700E-07,0.108
-1.600E-07,0.068
-1.500E-07,0.028
-1.400E-07,-0.024
-1.300E-07,-0.116
-1.200E-07,-0.168
-1.100E-07,-0.228
-1.000E-07,-0.264
-9.000E-08,-0.288
-8.000E-08,-0.268
-7.000E-08,-0.160
-6.000E-08,-0.144
-5.000E-08,-0.024
-4.000E-08,-0.080
-3.000E-08,0.032
-2.000E-08,0.108
-1.000E-08,0.176
0.000E+00,0.308
1.000E-08,0.348
2.000E-08,0.208
3.000E-08,0.012
4.000E-08,-0.116
5.000E-08,-0.188
6.000E-08,-0.168
7.000E-08,-0.016
8.000E-08,0.120
9.000E-08,0.004
1.000E-07,-0.040
1.100E-07,-0.096
1.200E-07,-0.180
1.300E-07,-0.208
1.400E-07,-0.136
1.500E-07,-0.084
1.600E-07,0.020
1.700E-07,0.032
1.800E-07,-0.004
1.900E-07,-0.072
2.000E-07,-0.100
2.100E-07,-0.084
2.200E-07,-0.008
2.300E-07,0.024
2.400E-07,0.136
2.500E-07,0.188
2.600E-07,0.216
2.700E-07,0.204
2.800E-07,0.220
2.900E-07,0.160
3.000E-07,0.140
3.100E-07,0.192
3.200E-07,0.228
3.300E-07,0.280
3.400E-07,0.272
3.500E-07,0.240
3.600E-07,0.204
3.700E-07,0.184
3.800E-07,0.164
3.900E-07,0.176
4.000E-07,0.200
4.100E-07,0.228
4.200E-07,0.236
4.300E-07,0.232
4.400E-07,0.204
4.500E-07,0.184
4.600E-07,0.164
4.700E-07,0.176
4.800E-07,0.204
4.900E-07,0.224
5.000E-07,0.232
5.100E-07,0.232
5.200E-07,0.216
5.300E-07,0.196
5.400E-07,0.180
5.500E-07,0.184
5.600E-07,0.196
5.700E-07,0.204
5.800E-07,0.220
5.900E-07,0.228
6.000E-07,0.220
6.100E-07,0.200
6.200E-07,0.188
6.300E-07,0.184
6.400E-07,0.184
6.500E-07,0.196
6.600E-07,0.212
6.700E-07,0.220
6.800E-07,0.216
6.900E-07,0.208
7.000E-07,0.196
7.100E-07,0.184
7.200E-07,0.176
7.300E-07,0.180
7.400E-07,0.188
7.500E-07,0.196
7.600E-07,0.196
7.700E-07,0.188
7.800E-07,0.176
7.900E-07,0.172
8.000E-07,0.176
8.100E-07,0.188
8.200E-07,0.196
8.300E-07,0.204
8.400E-07,0.208
8.500E-07,0.204
8.600E-07,0.192
8.700E-07,0.196
8.800E-07,0.184
8.900E-07,0.192
9.000E-07,0.192
9.100E-07,0.200
9.200E-07,0.204
9.300E-07,0.200
9.400E-07,0.200
9.500E-07,0.196
9.600E-07,0.192
9.700E-07,0.196
9.800E-07,0.200
9.900E-07,0.200
1.000E-06,0.200
1.010E-06,0.196
1.020E-06,0.196
1.030E-06,0.192
1.040E-06,0.188
1.050E-06,0.188
1.060E-06,0.192
1.070E-06,0.192
1.080E-06,0.188
1.090E-06,0.188
1.100E-06,0.188
1.110E-06,0.184
1.120E-06,0.184
1.130E-06,0.188
1.140E-06,0.188
1.150E-06,0.192
1.160E-06,0.192
1.170E-06,0.192
1.180E-06,0.188
1.190E-06,0.188
1.200E-06,0.188
1.210E-06,0.192
1.220E-06,0.192
1.230E-06,0.196
1.240E-06,0.192
1.250E-06,0.188
1.260E-06,0.192
1.270E-06,0.188
1.280E-06,0.192
1.290E-06,0.188
1.300E-06,0.192
1.310E-06,0.196
1.320E-06,0.196
1.330E-06,0.188
1.340E-06,0.192
1.350E-06,0.188
1.360E-06,0.188
1.370E-06,0.188
1.380E-06,0.192
1.390E-06,0.188
1.400E-06,0.188
1.410E-06,0.188
1.420E-06,0.180
1.430E-06,0.184
1.440E-06,0.180
1.450E-06,0.180
1.460E-06,0.188
1.470E-06,0.188
1.480E-06,0.180
1.490E-06,0.184
1.500E-06,0.184
1.510E-06,0.176
1.520E-06,0.176
1.530E-06,0.176
1.540E-06,0.176
1.550E-06,0.176
1.560E-06,0.180
1.570E-06,0.176
1.580E-06,0.180
1.590E-06,0.176
1.600E-06,0.180
1.610E-06,0.176
1.620E-06,0.172
1.630E-06,0.176
1.640E-06,0.180
1.650E-06,0.180
1.660E-06,0.176
1.670E-06,0.180
1.680E-06,0.176
1.690E-06,0.172
1.700E-06,0.176
1.710E-06,0.176
1.720E-06,0.176
1.730E-06,0.172
1.740E-06,0.176
1.750E-06,0.172
1.760E-06,0.176
1.770E-06,0.176
1.780E-06,0.172
1.790E-06,0.176
1.800E-06,0.176
1.810E-06,0.172
1.820E-06,0.168
1.830E-06,0.172
1.840E-06,0.172
1.850E-06,0.164
1.860E-06,0.164
1.870E-06,0.164
1.880E-06,0.168
1.890E-06,0.164
1.900E-06,0.160
1.910E-06,0.164
1.920E-06,0.168
1.930E-06,0.160
1.940E-06,0.156
1.950E-06,0.156
1.960E-06,0.160
1.970E-06,0.164
1.980E-06,0.168
1.990E-06,0.160
2.000E-06,0.160
2.010E-06,0.168
2.020E-06,0.160
2.030E-06,0.160
2.040E-06,0.160
2.050E-06,0.160
2.060E-06,0.168
2.070E-06,0.164
2.080E-06,0.156
2.090E-06,0.160
2.100E-06,0.160
2.110E-06,0.160
2.120E-06,0.156
2.130E-06,0.160
2.140E-06,0.152
2.150E-06,0.152
2.160E-06,0.156
2.170E-06,0.156
2.180E-06,0.156
2.190E-06,0.156
2.200E-06,0.160
2.210E-06,0.152
2.220E-06,0.160
2.230E-06,0.164
2.240E-06,0.160
2.250E-06,0.152
2.260E-06,0.152
2.270E-06,0.160
2.280E-06,0.168
2.290E-06,0.172
2.300E-06,0.172
2.310E-06,0.164
2.320E-06,0.164
2.330E-06,0.152
2.340E-06,0.140
2.350E-06,0.144
2.360E-06,0.152
2.370E-06,0.152
2.380E-06,0.156
2.390E-06,0.156
2.400E-06,0.148
2.410E-06,0.140
2.420E-06,0.140
2.430E-06,0.140
2.440E-06,0.140
2.450E-06,0.148
2.460E-06,0.156
2.470E-06,0.156
2.480E-06,0.148
2.490E-06,0.144
2.500E-06,0.136
2.510E-06,0.132
2.520E-06,0.136
2.530E-06,0.144
2.540E-06,0.148
2.550E-06,0.152
2.560E-06,0.140
2.570E-06,0.140
2.580E-06,0.140
2.590E-06,0.136
2.600E-06,0.136
2.610E-06,0.140
2.620E-06,0.144
2.630E-06,0.140
2.640E-06,0.144
2.650E-06,0.144
2.660E-06,0.140
2.670E-06,0.132
2.680E-06,0.128
2.690E-06,0.128
2.700E-06,0.132
2.710E-06,0.136
2.720E-06,0.136
2.730E-06,0.136
2.740E-06,0.136
2.750E-06,0.132
2.760E-06,0.128
2.770E-06,0.124
2.780E-06,0.128
2.790E-06,0.128
2.800E-06,0.128
2.810E-06,0.128
2.820E-06,0.128
2.830E-06,0.128
2.840E-06,0.124
2.850E-06,0.124
2.860E-06,0.124
2.870E-06,0.128
2.880E-06,0.132
2.890E-06,0.124
2.900E-06,0.124
2.910E-06,0.124
2.920E-06,0.124
2.930E-06,0.124
2.940E-06,0.120
2.950E-06,0.120
2.960E-06,0.120
2.970E-06,0.116
2.980E-06,0.112
2.990E-06,0.124
3.000E-06,0.124
3.010E-06,0.124
3.020E-06,0.120
3.030E-06,0.112
3.040E-06,0.108
3.050E-06,0.112
3.060E-06,0.112
3.070E-06,0.112
3.080E-06,0.116
3.090E-06,0.120
3.100E-06,0.120
3.110E-06,0.108
3.120E-06,0.112
3.130E-06,0.108
3.140E-06,0.108
3.150E-06,0.104
3.160E-06,0.108
3.170E-06,0.112
3.180E-06,0.112
3.190E-06,0.112
3.200E-06,0.108
3.210E-06,0.108
3.220E-06,0.104
3.230E-06,0.104
3.240E-06,0.104
3.250E-06,0.112
3.260E-06,0.112
3.270E-06,0.108
3.280E-06,0.108
3.290E-06,0.104
3.300E-06,0.104
3.310E-06,0.104
3.320E-06,0.104
3.330E-06,0.104
3.340E-06,0.104
3.350E-06,0.108
3.360E-06,0.104
3.370E-06,0.104
3.380E-06,0.096
3.390E-06,0.104
3.400E-06,0.100
3.410E-06,0.096
3.420E-06,0.108
3.430E-06,0.104
3.440E-06,0.096
3.450E-06,0.100
3.460E-06,0.100
3.470E-06,0.096
3.480E-06,0.096
3.490E-06,0.096
3.500E-06,0.100
3.510E-06,0.096
3.520E-06,0.092
3.530E-06,0.100
3.540E-06,0.096
3.550E-06,0.096
3.560E-06,0.096
3.570E-06,0.096
3.580E-06,0.092
3.590E-06,0.092
3.600E-06,0.092
3.610E-06,0.096
3.620E-06,0.100
3.630E-06,0.100
3.640E-06,0.096
3.650E-06,0.092
3.660E-06,0.088
3.670E-06,0.096
3.680E-06,0.096
3.690E-06,0.092
3.700E-06,0.096
3.710E-06,0.092
3.720E-06,0.092
3.730E-06,0.092
3.740E-06,0.092
3.750E-06,0.088
3.760E-06,0.088
3.770E-06,0.088
3.780E-06,0.092
3.790E-06,0.092
3.800E-06,0.092
3.810E-06,0.088
3.820E-06,0.088
3.830E-06,0.088
3.840E-06,0.084
3.850E-06,0.084
3.860E-06,0.088
3.870E-06,0.084
3.880E-06,0.088
3.890E-06,0.076
3.900E-06,0.080
3.910E-06,0.080
3.920E-06,0.072
3.930E-06,0.080
3.940E-06,0.084
3.950E-06,0.088
3.960E-06,0.084
3.970E-06,0.088
3.980E-06,0.088
3.990E-06,0.080
4.000E-06,0.076
4.010E-06,0.080
4.020E-06,0.080
4.030E-06,0.076
4.040E-06,0.076
4.050E-06,0.080
4.060E-06,0.080
4.070E-06,0.076
4.080E-06,0.076
4.090E-06,0.072
4.100E-06,0.072
4.110E-06,0.076
4.120E-06,0.072
4.130E-06,0.072
4.140E-06,0.076
4.150E-06,0.076
4.160E-06,0.072
4.170E-06,0.072
4.180E-06,0.072
4.190E-06,0.072
4.200E-06,0.068
4.210E-06,0.068
4.220E-06,0.072
4.230E-06,0.072
4.240E-06,0.068
4.250E-06,0.068
4.260E-06,0.068
4.270E-06,0.064
4.280E-06,0.060
4.290E-06,0.068
4.300E-06,0.068
4.310E-06,0.068
4.320E-06,0.060
4.330E-06,0.072
4.340E-06,0.064
4.350E-06,0.064
4.360E-06,0.064
4.370E-06,0.064
4.380E-06,0.064
4.390E-06,0.060
4.400E-06,0.068
4.410E-06,0.064
4.420E-06,0.064
4.430E-06,0.060
4.440E-06,0.064
4.450E-06,0.064
4.460E-06,0.060
4.470E-06,0.060
4.480E-06,0.060
4.490E-06,0.060
4.500E-06,0.064
4.510E-06,0.064
4.520E-06,0.056
4.530E-06,0.060
4.540E-06,0.056
4.550E-06,0.056
4.560E-06,0.068
4.570E-06,0.064
4.580E-06,0.064
4.590E-06,0.060
4.600E-06,0.056
4.610E-06,0.048
4.620E-06,0.056
4.630E-06,0.052
4.640E-06,0.056
4.650E-06,0.060
4.660E-06,0.064
4.670E-06,0.056
4.680E-06,0.060
4.690E-06,0.052
4.700E-06,0.048
4.710E-06,0.056
4.720E-06,0.052
4.730E-06,0.056
4.740E-06,0.056
4.750E-06,0.060
4.760E-06,0.056
4.770E-06,0.048
4.780E-06,0.052
4.790E-06,0.052
4.800E-06,0.048
4.810E-06,0.056
4.820E-06,0.052
4.830E-06,0.056
4.840E-06,0.052
4.850E-06,0.044
4.860E-06,0.044
4.870E-06,0.044
4.880E-06,0.048
4.890E-06,0.052
4.900E-06,0.052
4.910E-06,0.056
4.920E-06,0.056
4.930E-06,0.044
4.940E-06,0.044
4.950E-06,0.048
4.960E-06,0.048
4.970E-06,0.044
4.980E-06,0.052
4.990E-06,0.056
5.000E-06,0.044
5.010E-06,0.044
5.020E-06,0.048
5.030E-06,0.044
5.040E-06,0.048
5.050E-06,0.044
5.060E-06,0.044
5.070E-06,0.048
5.080E-06,0.048
5.090E-06,0.044
5.100E-06,0.048
5.110E-06,0.048
5.120E-06,0.044
5.130E-06,0.044
5.140E-06,0.044
5.150E-06,0.040
5.160E-06,0.044
5.170E-06,0.048
5.180E-06,0.044
5.190E-06,0.044
5.200E-06,0.040
5.210E-06,0.036
5.220E-06,0.040
5.230E-06,0.044
5.240E-06,0.044
5.250E-06,0.040
5.260E-06,0.044
5.270E-06,0.040
5.280E-06,0.036
5.290E-06,0.040
5.300E-06,0.036
5.310E-06,0.036
5.320E-06,0.036
5.330E-06,0.032
5.340E-06,0.036
5.350E-06,0.040
5.360E-06,0.032
5.370E-06,0.036
5.380E-06,0.036
5.390E-06,0.032
5.400E-06,0.028
5.410E-06,0.032
5.420E-06,0.032
5.430E-06,0.032
5.440E-06,0.036
5.450E-06,0.032
5.460E-06,0.032
5.470E-06,0.032
5.480E-06,0.032
5.490E-06,0.024
5.500E-06,0.028
5.510E-06,0.028
5.520E-06,0.032
5.530E-06,0.032
5.540E-06,0.024
5.550E-06,0.024
5.560E-06,0.024
5.570E-06,0.028
5.580E-06,0.032
5.590E-06,0.028
5.600E-06,0.032
5.610E-06,0.020
5.620E-06,0.020
5.630E-06,0.024
5.640E-06,0.020
5.650E-06,0.024
5.660E-06,0.024
5.670E-06,0.028
5.680E-06,0.024
5.690E-06,0.028
5.700E-06,0.024
5.710E-06,0.028
5.720E-06,0.020
5.730E-06,0.020
5.740E-06,0.024
5.750E-06,0.020
5.760E-06,0.020
5.770E-06,0.024
5.780E-06,0.024
5.790E-06,0.024
5.800E-06,0.024
5.810E-06,0.024
5.820E-06,0.016
5.830E-06,0.020
5.840E-06,0.024
5.850E-06,0.020
5.860E-06,0.016
5.870E-06,0.016
5.880E-06,0.020
5.890E-06,0.024
5.900E-06,0.016
5.910E-06,0.016
5.920E-06,0.020
5.930E-06,0.012
5.940E-06,0.016
5.950E-06,0.020
5.960E-06,0.012
5.970E-06,0.016
5.980E-06,0.016
5.990E-06,0.016
6.000E-06,0.016
6.010E-06,0.012
6.020E-06,0.016
6.030E-06,0.008
6.040E-06,0.012
6.050E-06,0.008
6.060E-06,0.012
6.070E-06,0.012
6.080E-06,0.012
6.090E-06,0.012
6.100E-06,0.012
6.110E-06,0.016
6.120E-06,0.012
6.130E-06,0.008
6.140E-06,0.012
6.150E-06,0.012
6.160E-06,0.012
6.170E-06,0.012
6.180E-06,0.012
6.190E-06,0.012
6.200E-06,0.012
6.210E-06,0.012
6.220E-06,0.004
6.230E-06,0.008
6.240E-06,0.004
6.250E-06,0.004
6.260E-06,0.012
6.270E-06,0.004
6.280E-06,0.008
6.290E-06,0.008
6.300E-06,0.008
6.310E-06,0.004
6.320E-06,0.008
6.330E-06,0.008
6.340E-06,0.008
6.350E-06,0.008
6.360E-06,0.008
6.370E-06,0.004
6.380E-06,0.004
6.390E-06,0.004
6.400E-06,0.004
6.410E-06,0.004
6.420E-06,0.012
6.430E-06,0.008
6.440E-06,0.004
6.450E-06,0.000
6.460E-06,0.000
6.470E-06,0.004
6.480E-06,0.004
6.490E-06,0.008
6.500E-06,0.004
6.510E-06,0.008
6.520E-06,-0.004
6.530E-06,0.000
6.540E-06,0.000
6.550E-06,0.000
6.560E-06,0.000
6.570E-06,0.000
6.580E-06,0.000
6.590E-06,0.000
6.600E-06,-0.004
6.610E-06,-0.004
6.620E-06,-0.004
6.630E-06,0.000
6.640E-06,-0.004
6.650E-06,-0.004
6.660E-06,-0.004
6.670E-06,-0.004
6.680E-06,0.000
6.690E-06,-0.004
6.700E-06,0.000
6.710E-06,-0.008
6.720E-06,-0.008
6.730E-06,0.004
6.740E-06,-0.008
6.750E-06,-0.008
6.760E-06,-0.008
6.770E-06,0.000
6.780E-06,-0.004
6.790E-06,-0.004
6.800E-06,-0.004
6.810E-06,-0.004
6.820E-06,-0.004
6.830E-06,-0.004
6.840E-06,0.000
6.850E-06,-0.004
6.860E-06,-0.004
6.870E-06,-0.008
6.880E-06,-0.004
6.890E-06,-0.008
6.900E-06,0.000
6.910E-06,0.000
6.920E-06,-0.004
6.930E-06,-0.012
6.940E-06,0.000
6.950E-06,-0.008
6.960E-06,-0.008
6.970E-06,-0.004
6.980E-06,0.000
6.990E-06,-0.004
7.000E-06,-0.008
7.010E-06,-0.004
7.020E-06,-0.008
7.030E-06,-0.004
7.040E-06,-0.004
7.050E-06,-0.008
7.060E-06,-0.004
7.070E-06,-0.004
7.080E-06,-0.008
7.090E-06,-0.008
7.100E-06,-0.008
7.110E-06,-0.008
7.120E-06,-0.012
7.130E-06,-0.016
7.140E-06,-0.012
7.150E-06,-0.004
7.160E-06,-0.008
7.170E-06,-0.008
7.180E-06,-0.008
7.190E-06,-0.012
7.200E-06,-0.008
7.210E-06,-0.004
7.220E-06,-0.008
7.230E-06,-0.016
7.240E-06,-0.012
7.250E-06,-0.012
7.260E-06,-0.012
7.270E-06,-0.016
7.280E-06,-0.008
7.290E-06,-0.004
7.300E-06,-0.008
7.310E-06,-0.012
7.320E-06,-0.012
7.330E-06,-0.012
7.340E-06,-0.012
7.350E-06,-0.012
7.360E-06,-0.012
7.370E-06,-0.012
7.380E-06,-0.012
7.390E-06,-0.012
7.400E-06,-0.016
7.410E-06,-0.012
7.420E-06,-0.016
7.430E-06,-0.020
7.440E-06,-0.016
7.450E-06,-0.016
7.460E-06,-0.020
7.470E-06,-0.012
7.480E-06,-0.020
7.490E-06,-0.016
7.500E-06,-0.020
7.510E-06,-0.020
7.520E-06,-0.020
7.530E-06,-0.016
7.540E-06,-0.020
7.550E-06,-0.028
7.560E-06,-0.028
7.570E-06,0.000
7.580E-06,-0.012
7.590E-06,-0.008
7.600E-06,-0.012
7.610E-06,-0.020
7.620E-06,-0.032
7.630E-06,-0.024
7.640E-06,-0.008
7.650E-06,-0.024
7.660E-06,-0.016
7.670E-06,-0.016
7.680E-06,-0.024
7.690E-06,-0.012
7.700E-06,-0.016
7.710E-06,-0.020
7.720E-06,-0.024
7.730E-06,-0.024
7.740E-06,-0.024
7.750E-06,-0.024
7.760E-06,-0.020
7.770E-06,-0.016
