mediciones/Mediciones filtradas (saque las feas)/5-15/32.5/WaveData47094.csv

#timebase=2000000(ps)
,#voltbase=100000(mv/100)
#size=4000
-8.400E-06,0.004
-8.390E-06,0.004
-8.380E-06,0.008
-8.370E-06,0.008
-8.360E-06,0.008
-8.350E-06,0.000
-8.340E-06,0.000
-8.330E-06,-0.004
-8.320E-06,0.000
-8.310E-06,0.008
-8.300E-06,0.012
-8.290E-06,0.008
-8.280E-06,0.004
-8.270E-06,0.000
-8.260E-06,0.000
-8.250E-06,-0.004
-8.240E-06,0.008
-8.230E-06,0.016
-8.220E-06,0.004
-8.210E-06,0.008
-8.200E-06,0.004
-8.190E-06,-0.004
-8.180E-06,-0.004
-8.170E-06,0.000
-8.160E-06,0.004
-8.150E-06,0.008
-8.140E-06,0.008
-8.130E-06,0.004
-8.120E-06,0.004
-8.110E-06,-0.004
-8.100E-06,-0.004
-8.090E-06,-0.004
-8.080E-06,0.004
-8.070E-06,0.012
-8.060E-06,0.008
-8.050E-06,0.008
-8.040E-06,0.004
-8.030E-06,0.000
-8.020E-06,0.000
-8.010E-06,0.004
-8.000E-06,0.012
-7.990E-06,0.012
-7.980E-06,0.016
-7.970E-06,0.008
-7.960E-06,0.008
-7.950E-06,-0.004
-7.940E-06,-0.012
-7.930E-06,-0.044
-7.920E-06,-0.028
-7.910E-06,-0.012
-7.900E-06,0.008
-7.890E-06,0.040
-7.880E-06,0.052
-7.870E-06,0.028
-7.860E-06,-0.008
-7.850E-06,-0.028
-7.840E-06,-0.052
-7.830E-06,-0.028
-7.820E-06,0.024
-7.810E-06,0.048
-7.800E-06,0.048
-7.790E-06,0.028
-7.780E-06,-0.012
-7.770E-06,-0.040
-7.760E-06,-0.036
-7.750E-06,-0.008
-7.740E-06,0.028
-7.730E-06,0.040
-7.720E-06,0.028
-7.710E-06,0.004
-7.700E-06,-0.008
-7.690E-06,-0.020
-7.680E-06,-0.016
-7.670E-06,0.000
-7.660E-06,0.012
-7.650E-06,0.024
-7.640E-06,0.016
-7.630E-06,0.016
-7.620E-06,0.000
-7.610E-06,-0.008
-7.600E-06,-0.008
-7.590E-06,-0.004
-7.580E-06,0.004
-7.570E-06,0.016
-7.560E-06,0.016
-7.550E-06,0.012
-7.540E-06,-0.004
-7.530E-06,-0.008
-7.520E-06,-0.012
-7.510E-06,0.000
-7.500E-06,0.008
-7.490E-06,0.016
-7.480E-06,0.016
-7.470E-06,0.012
-7.460E-06,0.000
-7.450E-06,-0.004
-7.440E-06,-0.008
-7.430E-06,-0.004
-7.420E-06,0.008
-7.410E-06,0.016
-7.400E-06,0.016
-7.390E-06,0.008
-7.380E-06,0.000
-7.370E-06,-0.008
-7.360E-06,-0.008
-7.350E-06,0.000
-7.340E-06,0.008
-7.330E-06,0.008
-7.320E-06,0.016
-7.310E-06,0.012
-7.300E-06,0.000
-7.290E-06,-0.004
-7.280E-06,-0.008
-7.270E-06,-0.004
-7.260E-06,0.004
-7.250E-06,0.012
-7.240E-06,0.012
-7.230E-06,0.012
-7.220E-06,0.004
-7.210E-06,-0.004
-7.200E-06,0.000
-7.190E-06,0.000
-7.180E-06,0.000
-7.170E-06,0.004
-7.160E-06,0.012
-7.150E-06,0.008
-7.140E-06,0.008
-7.130E-06,-0.004
-7.120E-06,-0.004
-7.110E-06,-0.008
-7.100E-06,-0.004
-7.090E-06,0.004
-7.080E-06,0.008
-7.070E-06,0.008
-7.060E-06,0.008
-7.050E-06,0.000
-7.040E-06,0.000
-7.030E-06,-0.004
-7.020E-06,-0.004
-7.010E-06,0.004
-7.000E-06,0.012
-6.990E-06,0.012
-6.980E-06,0.008
-6.970E-06,0.008
-6.960E-06,0.000
-6.950E-06,-0.008
-6.940E-06,-0.012
-6.930E-06,-0.008
-6.920E-06,0.008
-6.910E-06,0.016
-6.900E-06,0.024
-6.890E-06,0.016
-6.880E-06,0.004
-6.870E-06,-0.004
-6.860E-06,-0.008
-6.850E-06,-0.004
-6.840E-06,0.004
-6.830E-06,0.008
-6.820E-06,0.020
-6.810E-06,0.012
-6.800E-06,0.008
-6.790E-06,0.004
-6.780E-06,0.000
-6.770E-06,0.000
-6.760E-06,0.004
-6.750E-06,0.004
-6.740E-06,0.012
-6.730E-06,0.012
-6.720E-06,0.012
-6.710E-06,0.012
-6.700E-06,0.008
-6.690E-06,0.008
-6.680E-06,0.004
-6.670E-06,0.004
-6.660E-06,0.000
-6.650E-06,-0.008
-6.640E-06,0.000
-6.630E-06,-0.004
-6.620E-06,-0.004
-6.610E-06,0.004
-6.600E-06,0.012
-6.590E-06,0.008
-6.580E-06,-0.008
-6.570E-06,-0.008
-6.560E-06,0.004
-6.550E-06,0.000
-6.540E-06,0.008
-6.530E-06,0.008
-6.520E-06,0.004
-6.510E-06,0.008
-6.500E-06,0.012
-6.490E-06,0.016
-6.480E-06,0.012
-6.470E-06,0.000
-6.460E-06,-0.004
-6.450E-06,0.000
-6.440E-06,0.000
-6.430E-06,0.012
-6.420E-06,0.020
-6.410E-06,0.016
-6.400E-06,0.000
-6.390E-06,-0.016
-6.380E-06,-0.028
-6.370E-06,-0.004
-6.360E-06,0.004
-6.350E-06,0.024
-6.340E-06,0.028
-6.330E-06,0.016
-6.320E-06,-0.012
-6.310E-06,-0.028
-6.300E-06,-0.032
-6.290E-06,0.008
-6.280E-06,0.028
-6.270E-06,0.032
-6.260E-06,0.028
-6.250E-06,0.000
-6.240E-06,-0.024
-6.230E-06,-0.028
-6.220E-06,-0.012
-6.210E-06,0.008
-6.200E-06,0.024
-6.190E-06,0.028
-6.180E-06,0.024
-6.170E-06,0.008
-6.160E-06,0.000
-6.150E-06,-0.008
-6.140E-06,-0.008
-6.130E-06,-0.004
-6.120E-06,0.008
-6.110E-06,0.028
-6.100E-06,0.020
-6.090E-06,0.012
-6.080E-06,-0.008
-6.070E-06,-0.020
-6.060E-06,-0.024
-6.050E-06,-0.008
-6.040E-06,0.008
-6.030E-06,0.024
-6.020E-06,0.028
-6.010E-06,0.012
-6.000E-06,-0.004
-5.990E-06,-0.020
-5.980E-06,-0.020
-5.970E-06,-0.004
-5.960E-06,0.012
-5.950E-06,0.028
-5.940E-06,0.032
-5.930E-06,0.012
-5.920E-06,-0.012
-5.910E-06,-0.016
-5.900E-06,-0.012
-5.890E-06,-0.004
-5.880E-06,0.016
-5.870E-06,0.020
-5.860E-06,0.024
-5.850E-06,0.008
-5.840E-06,-0.004
-5.830E-06,-0.008
-5.820E-06,-0.008
-5.810E-06,-0.004
-5.800E-06,0.012
-5.790E-06,0.012
-5.780E-06,0.008
-5.770E-06,0.004
-5.760E-06,0.004
-5.750E-06,0.000
-5.740E-06,0.000
-5.730E-06,-0.004
-5.720E-06,0.004
-5.710E-06,0.008
-5.700E-06,0.012
-5.690E-06,0.008
-5.680E-06,0.004
-5.670E-06,0.004
-5.660E-06,-0.008
-5.650E-06,-0.008
-5.640E-06,0.004
-5.630E-06,0.012
-5.620E-06,0.008
-5.610E-06,0.012
-5.600E-06,0.008
-5.590E-06,0.000
-5.580E-06,0.000
-5.570E-06,-0.004
-5.560E-06,0.000
-5.550E-06,0.008
-5.540E-06,0.008
-5.530E-06,0.008
-5.520E-06,0.004
-5.510E-06,0.000
-5.500E-06,-0.004
-5.490E-06,-0.008
-5.480E-06,0.004
-5.470E-06,0.012
-5.460E-06,0.012
-5.450E-06,0.012
-5.440E-06,0.004
-5.430E-06,-0.004
-5.420E-06,0.000
-5.410E-06,-0.008
-5.400E-06,-0.004
-5.390E-06,-0.004
-5.380E-06,0.008
-5.370E-06,0.012
-5.360E-06,0.012
-5.350E-06,0.000
-5.340E-06,0.000
-5.330E-06,-0.004
-5.320E-06,-0.004
-5.310E-06,-0.004
-5.300E-06,0.008
-5.290E-06,0.016
-5.280E-06,0.012
-5.270E-06,0.012
-5.260E-06,0.004
-5.250E-06,0.000
-5.240E-06,-0.004
-5.230E-06,0.000
-5.220E-06,0.004
-5.210E-06,0.012
-5.200E-06,0.012
-5.190E-06,0.004
-5.180E-06,0.004
-5.170E-06,0.000
-5.160E-06,0.000
-5.150E-06,0.000
-5.140E-06,0.000
-5.130E-06,0.008
-5.120E-06,0.012
-5.110E-06,0.004
-5.100E-06,0.000
-5.090E-06,0.000
-5.080E-06,-0.004
-5.070E-06,-0.004
-5.060E-06,0.000
-5.050E-06,0.004
-5.040E-06,0.004
-5.030E-06,0.008
-5.020E-06,0.008
-5.010E-06,0.004
-5.000E-06,0.000
-4.990E-06,0.000
-4.980E-06,0.004
-4.970E-06,0.000
-4.960E-06,0.004
-4.950E-06,0.008
-4.940E-06,0.004
-4.930E-06,0.000
-4.920E-06,0.000
-4.910E-06,0.000
-4.900E-06,0.000
-4.890E-06,0.000
-4.880E-06,0.000
-4.870E-06,0.008
-4.860E-06,0.008
-4.850E-06,0.008
-4.840E-06,0.000
-4.830E-06,0.000
-4.820E-06,0.004
-4.810E-06,0.004
-4.800E-06,0.008
-4.790E-06,0.008
-4.780E-06,0.012
-4.770E-06,0.000
-4.760E-06,0.004
-4.750E-06,0.004
-4.740E-06,0.004
-4.730E-06,0.000
-4.720E-06,0.000
-4.710E-06,0.004
-4.700E-06,0.000
-4.690E-06,0.004
-4.680E-06,0.000
-4.670E-06,0.004
-4.660E-06,0.004
-4.650E-06,0.004
-4.640E-06,0.008
-4.630E-06,0.000
-4.620E-06,0.004
-4.610E-06,0.004
-4.600E-06,0.004
-4.590E-06,0.008
-4.580E-06,0.008
-4.570E-06,0.008
-4.560E-06,0.008
-4.550E-06,0.000
-4.540E-06,0.004
-4.530E-06,0.008
-4.520E-06,0.008
-4.510E-06,0.004
-4.500E-06,0.004
-4.490E-06,0.004
-4.480E-06,-0.004
-4.470E-06,0.004
-4.460E-06,0.012
-4.450E-06,0.004
-4.440E-06,0.004
-4.430E-06,0.004
-4.420E-06,0.012
-4.410E-06,0.012
-4.400E-06,0.000
-4.390E-06,0.004
-4.380E-06,0.008
-4.370E-06,0.008
-4.360E-06,0.008
-4.350E-06,0.008
-4.340E-06,0.004
-4.330E-06,0.008
-4.320E-06,-0.008
-4.310E-06,-0.016
-4.300E-06,-0.028
-4.290E-06,-0.024
-4.280E-06,0.012
-4.270E-06,0.032
-4.260E-06,0.032
-4.250E-06,-0.008
-4.240E-06,-0.020
-4.230E-06,-0.016
-4.220E-06,0.000
-4.210E-06,0.012
-4.200E-06,0.032
-4.190E-06,0.020
-4.180E-06,0.004
-4.170E-06,-0.008
-4.160E-06,-0.024
-4.150E-06,-0.004
-4.140E-06,0.008
-4.130E-06,0.028
-4.120E-06,0.020
-4.110E-06,0.008
-4.100E-06,-0.004
-4.090E-06,0.000
-4.080E-06,-0.004
-4.070E-06,0.008
-4.060E-06,0.008
-4.050E-06,0.012
-4.040E-06,0.012
-4.030E-06,0.008
-4.020E-06,0.008
-4.010E-06,0.008
-4.000E-06,0.008
-3.990E-06,-0.008
-3.980E-06,-0.004
-3.970E-06,-0.004
-3.960E-06,0.000
-3.950E-06,0.000
-3.940E-06,-0.008
-3.930E-06,0.000
-3.920E-06,0.004
-3.910E-06,0.020
-3.900E-06,0.020
-3.890E-06,0.020
-3.880E-06,-0.008
-3.870E-06,-0.036
-3.860E-06,-0.032
-3.850E-06,-0.004
-3.840E-06,0.032
-3.830E-06,0.052
-3.820E-06,0.040
-3.810E-06,0.000
-3.800E-06,-0.036
-3.790E-06,-0.040
-3.780E-06,-0.016
-3.770E-06,0.012
-3.760E-06,0.040
-3.750E-06,0.036
-3.740E-06,0.016
-3.730E-06,-0.012
-3.720E-06,-0.028
-3.710E-06,-0.012
-3.700E-06,-0.004
-3.690E-06,0.012
-3.680E-06,0.016
-3.670E-06,0.016
-3.660E-06,0.012
-3.650E-06,0.008
-3.640E-06,0.000
-3.630E-06,0.000
-3.620E-06,-0.004
-3.610E-06,0.000
-3.600E-06,0.004
-3.590E-06,0.008
-3.580E-06,0.004
-3.570E-06,0.004
-3.560E-06,0.004
-3.550E-06,0.000
-3.540E-06,-0.004
-3.530E-06,0.000
-3.520E-06,0.004
-3.510E-06,0.012
-3.500E-06,0.012
-3.490E-06,0.012
-3.480E-06,-0.008
-3.470E-06,0.000
-3.460E-06,-0.008
-3.450E-06,-0.004
-3.440E-06,0.000
-3.430E-06,0.008
-3.420E-06,0.008
-3.410E-06,0.008
-3.400E-06,-0.004
-3.390E-06,-0.004
-3.380E-06,0.000
-3.370E-06,0.012
-3.360E-06,0.020
-3.350E-06,0.020
-3.340E-06,0.008
-3.330E-06,0.000
-3.320E-06,0.000
-3.310E-06,0.000
-3.300E-06,0.004
-3.290E-06,0.008
-3.280E-06,0.008
-3.270E-06,0.008
-3.260E-06,0.000
-3.250E-06,0.000
-3.240E-06,0.004
-3.230E-06,0.016
-3.220E-06,0.012
-3.210E-06,-0.004
-3.200E-06,-0.020
-3.190E-06,-0.016
-3.180E-06,0.000
-3.170E-06,0.020
-3.160E-06,0.032
-3.150E-06,0.028
-3.140E-06,-0.004
-3.130E-06,-0.024
-3.120E-06,-0.028
-3.110E-06,-0.004
-3.100E-06,0.028
-3.090E-06,0.036
-3.080E-06,0.024
-3.070E-06,0.008
-3.060E-06,-0.024
-3.050E-06,-0.036
-3.040E-06,-0.008
-3.030E-06,0.020
-3.020E-06,0.032
-3.010E-06,0.028
-3.000E-06,0.008
-2.990E-06,-0.008
-2.980E-06,-0.028
-2.970E-06,-0.024
-2.960E-06,-0.008
-2.950E-06,0.012
-2.940E-06,0.016
-2.930E-06,0.024
-2.920E-06,0.024
-2.910E-06,0.004
-2.900E-06,-0.008
-2.890E-06,-0.024
-2.880E-06,-0.020
-2.870E-06,-0.004
-2.860E-06,0.024
-2.850E-06,0.036
-2.840E-06,0.036
-2.830E-06,0.012
-2.820E-06,-0.020
-2.810E-06,-0.032
-2.800E-06,-0.024
-2.790E-06,-0.004
-2.780E-06,0.024
-2.770E-06,0.036
-2.760E-06,0.028
-2.750E-06,0.004
-2.740E-06,-0.016
-2.730E-06,-0.028
-2.720E-06,-0.024
-2.710E-06,0.000
-2.700E-06,0.020
-2.690E-06,0.028
-2.680E-06,0.028
-2.670E-06,0.016
-2.660E-06,0.000
-2.650E-06,-0.004
-2.640E-06,-0.008
-2.630E-06,0.008
-2.620E-06,0.012
-2.610E-06,0.020
-2.600E-06,0.016
-2.590E-06,0.008
-2.580E-06,0.000
-2.570E-06,-0.004
-2.560E-06,-0.004
-2.550E-06,0.000
-2.540E-06,0.008
-2.530E-06,0.012
-2.520E-06,0.012
-2.510E-06,0.008
-2.500E-06,0.004
-2.490E-06,0.000
-2.480E-06,0.000
-2.470E-06,0.008
-2.460E-06,0.012
-2.450E-06,0.012
-2.440E-06,0.012
-2.430E-06,0.000
-2.420E-06,-0.004
-2.410E-06,-0.008
-2.400E-06,-0.008
-2.390E-06,-0.004
-2.380E-06,0.008
-2.370E-06,0.024
-2.360E-06,0.020
-2.350E-06,0.020
-2.340E-06,0.008
-2.330E-06,0.000
-2.320E-06,-0.004
-2.310E-06,-0.004
-2.300E-06,0.008
-2.290E-06,0.024
-2.280E-06,0.020
-2.270E-06,0.020
-2.260E-06,0.012
-2.250E-06,-0.004
-2.240E-06,-0.008
-2.230E-06,-0.004
-2.220E-06,0.004
-2.210E-06,0.004
-2.200E-06,0.008
-2.190E-06,0.012
-2.180E-06,0.012
-2.170E-06,0.024
-2.160E-06,0.028
-2.150E-06,0.024
-2.140E-06,-0.016
-2.130E-06,-0.072
-2.120E-06,-0.056
-2.110E-06,-0.028
-2.100E-06,0.020
-2.090E-06,0.064
-2.080E-06,0.064
-2.070E-06,0.008
-2.060E-06,-0.056
-2.050E-06,-0.076
-2.040E-06,-0.056
-2.030E-06,0.008
-2.020E-06,0.056
-2.010E-06,0.056
-2.000E-06,0.016
-1.990E-06,-0.020
-1.980E-06,-0.044
-1.970E-06,-0.040
-1.960E-06,-0.004
-1.950E-06,0.024
-1.940E-06,0.040
-1.930E-06,0.028
-1.920E-06,0.008
-1.910E-06,-0.012
-1.900E-06,-0.028
-1.890E-06,-0.020
-1.880E-06,0.004
-1.870E-06,0.016
-1.860E-06,0.012
-1.850E-06,0.020
-1.840E-06,0.016
-1.830E-06,0.008
-1.820E-06,-0.008
-1.810E-06,-0.012
-1.800E-06,-0.008
-1.790E-06,-0.004
-1.780E-06,0.016
-1.770E-06,0.028
-1.760E-06,0.028
-1.750E-06,0.008
-1.740E-06,0.000
-1.730E-06,-0.016
-1.720E-06,-0.008
-1.710E-06,0.004
-1.700E-06,0.032
-1.690E-06,0.024
-1.680E-06,0.028
-1.670E-06,-0.004
-1.660E-06,-0.024
-1.650E-06,-0.028
-1.640E-06,-0.004
-1.630E-06,0.000
-1.620E-06,0.020
-1.610E-06,0.028
-1.600E-06,0.016
-1.590E-06,0.004
-1.580E-06,-0.004
-1.570E-06,0.000
-1.560E-06,0.012
-1.550E-06,0.024
-1.540E-06,0.028
-1.530E-06,0.024
-1.520E-06,0.016
-1.510E-06,0.008
-1.500E-06,0.000
-1.490E-06,-0.004
-1.480E-06,0.012
-1.470E-06,0.008
-1.460E-06,0.016
-1.450E-06,0.024
-1.440E-06,0.028
-1.430E-06,0.028
-1.420E-06,0.040
-1.410E-06,-0.004
-1.400E-06,-0.020
-1.390E-06,0.008
-1.380E-06,0.044
-1.370E-06,0.036
-1.360E-06,0.048
-1.350E-06,0.024
-1.340E-06,-0.024
-1.330E-06,-0.056
-1.320E-06,-0.056
-1.310E-06,-0.020
-1.300E-06,0.024
-1.290E-06,0.072
-1.280E-06,0.068
-1.270E-06,0.032
-1.260E-06,-0.012
-1.250E-06,-0.004
-1.240E-06,-0.004
-1.230E-06,0.024
-1.220E-06,0.040
-1.210E-06,0.048
-1.200E-06,0.032
-1.190E-06,0.024
-1.180E-06,0.028
-1.170E-06,0.020
-1.160E-06,0.024
-1.150E-06,0.012
-1.140E-06,-0.012
-1.130E-06,-0.048
-1.120E-06,-0.100
-1.110E-06,-0.068
-1.100E-06,0.004
-1.090E-06,0.048
-1.080E-06,0.056
-1.070E-06,0.040
-1.060E-06,-0.004
-1.050E-06,-0.068
-1.040E-06,-0.080
-1.030E-06,-0.024
-1.020E-06,0.028
-1.010E-06,0.064
-1.000E-06,0.056
-9.900E-07,0.000
-9.800E-07,-0.052
-9.700E-07,-0.048
-9.600E-07,-0.012
-9.500E-07,0.024
-9.400E-07,0.048
-9.300E-07,0.040
-9.200E-07,0.012
-9.100E-07,-0.004
-9.000E-07,-0.008
-8.900E-07,-0.008
-8.800E-07,-0.004
-8.700E-07,0.012
-8.600E-07,0.032
-8.500E-07,0.044
-8.400E-07,0.044
-8.300E-07,0.040
-8.200E-07,0.020
-8.100E-07,0.000
-8.000E-07,-0.020
-7.900E-07,-0.016
-7.800E-07,0.000
-7.700E-07,0.028
-7.600E-07,0.044
-7.500E-07,0.036
-7.400E-07,0.012
-7.300E-07,0.004
-7.200E-07,0.004
-7.100E-07,0.016
-7.000E-07,0.032
-6.900E-07,0.052
-6.800E-07,0.048
-6.700E-07,0.028
-6.600E-07,-0.004
-6.500E-07,-0.032
-6.400E-07,-0.036
-6.300E-07,-0.024
-6.200E-07,0.016
-6.100E-07,0.040
-6.000E-07,0.052
-5.900E-07,0.044
-5.800E-07,0.016
-5.700E-07,-0.004
-5.600E-07,-0.012
-5.500E-07,0.004
-5.400E-07,0.032
-5.300E-07,0.060
-5.200E-07,0.060
-5.100E-07,0.052
-5.000E-07,0.024
-4.900E-07,0.012
-4.800E-07,0.008
-4.700E-07,0.024
-4.600E-07,0.028
-4.500E-07,0.032
-4.400E-07,0.040
-4.300E-07,0.052
-4.200E-07,0.056
-4.100E-07,0.064
-4.000E-07,0.072
-3.900E-07,0.092
-3.800E-07,0.084
-3.700E-07,0.056
-3.600E-07,0.008
-3.500E-07,-0.068
-3.400E-07,-0.112
-3.300E-07,-0.120
-3.200E-07,-0.060
-3.100E-07,0.016
-3.000E-07,0.080
-2.900E-07,0.112
-2.800E-07,0.104
-2.700E-07,0.060
-2.600E-07,0.004
-2.500E-07,-0.004
-2.400E-07,-0.036
-2.300E-07,-0.036
-2.200E-07,-0.044
-2.100E-07,-0.040
-2.000E-07,-0.032
-1.900E-07,-0.024
-1.800E-07,0.012
-1.700E-07,0.028
-1.600E-07,0.060
-1.500E-07,0.092
-1.400E-07,0.128
-1.300E-07,0.144
-1.200E-07,0.136
-1.100E-07,0.096
-1.000E-07,0.012
-9.000E-08,-0.040
-8.000E-08,-0.116
-7.000E-08,-0.308
-6.000E-08,-0.360
-5.000E-08,-0.464
-4.000E-08,-0.388
-3.000E-08,0.012
-2.000E-08,0.472
-1.000E-08,0.540
0.000E+00,0.416
1.000E-08,0.064
2.000E-08,-0.272
3.000E-08,-0.428
4.000E-08,-0.336
5.000E-08,-0.124
6.000E-08,0.008
7.000E-08,0.112
8.000E-08,0.144
9.000E-08,0.124
1.000E-07,-0.020
1.100E-07,-0.036
1.200E-07,-0.072
1.300E-07,-0.012
1.400E-07,0.108
1.500E-07,0.224
1.600E-07,0.248
1.700E-07,0.124
1.800E-07,-0.032
1.900E-07,-0.252
2.000E-07,-0.260
2.100E-07,-0.160
2.200E-07,0.068
2.300E-07,0.204
2.400E-07,0.196
2.500E-07,-0.064
2.600E-07,-0.340
2.700E-07,-0.316
2.800E-07,-0.152
2.900E-07,0.128
3.000E-07,0.260
3.100E-07,0.344
3.200E-07,0.096
3.300E-07,-0.148
3.400E-07,-0.384
3.500E-07,-0.408
3.600E-07,-0.304
3.700E-07,0.004
3.800E-07,0.300
3.900E-07,0.316
4.000E-07,0.224
4.100E-07,-0.032
4.200E-07,-0.156
4.300E-07,-0.256
4.400E-07,-0.176
4.500E-07,-0.064
4.600E-07,0.140
4.700E-07,0.220
4.800E-07,0.220
4.900E-07,0.132
5.000E-07,-0.036
5.100E-07,-0.132
5.200E-07,-0.188
5.300E-07,-0.092
5.400E-07,0.012
5.500E-07,0.152
5.600E-07,0.164
5.700E-07,0.132
5.800E-07,0.040
5.900E-07,-0.052
6.000E-07,-0.120
6.100E-07,-0.108
6.200E-07,-0.024
6.300E-07,0.072
6.400E-07,0.164
6.500E-07,0.172
6.600E-07,0.116
6.700E-07,-0.012
6.800E-07,-0.092
6.900E-07,-0.124
7.000E-07,-0.060
7.100E-07,0.036
7.200E-07,0.124
7.300E-07,0.156
7.400E-07,0.136
7.500E-07,0.056
7.600E-07,-0.036
7.700E-07,-0.072
7.800E-07,-0.068
7.900E-07,0.004
8.000E-07,0.092
8.100E-07,0.160
8.200E-07,0.168
8.300E-07,0.128
8.400E-07,0.052
8.500E-07,-0.012
8.600E-07,-0.036
8.700E-07,0.008
8.800E-07,0.104
8.900E-07,0.160
9.000E-07,0.156
9.100E-07,0.072
9.200E-07,-0.056
9.300E-07,-0.180
9.400E-07,-0.248
9.500E-07,-0.204
9.600E-07,-0.100
9.700E-07,0.052
9.800E-07,0.168
9.900E-07,0.196
1.000E-06,0.152
1.010E-06,0.060
1.020E-06,-0.044
1.030E-06,-0.084
1.040E-06,-0.020
1.050E-06,0.076
1.060E-06,0.164
1.070E-06,0.204
1.080E-06,0.140
1.090E-06,0.036
1.100E-06,-0.072
1.110E-06,-0.100
1.120E-06,-0.076
1.130E-06,0.012
1.140E-06,0.096
1.150E-06,0.136
1.160E-06,0.108
1.170E-06,0.012
1.180E-06,-0.064
1.190E-06,-0.084
1.200E-06,-0.044
1.210E-06,0.028
1.220E-06,0.120
1.230E-06,0.136
1.240E-06,0.120
1.250E-06,0.056
1.260E-06,0.000
1.270E-06,-0.024
1.280E-06,0.000
1.290E-06,0.068
1.300E-06,0.124
1.310E-06,0.160
1.320E-06,0.152
1.330E-06,0.128
1.340E-06,0.084
1.350E-06,0.052
1.360E-06,0.052
1.370E-06,0.076
1.380E-06,0.112
1.390E-06,0.128
1.400E-06,0.104
1.410E-06,0.040
1.420E-06,-0.060
1.430E-06,-0.164
1.440E-06,-0.268
1.450E-06,-0.240
1.460E-06,-0.104
1.470E-06,0.144
1.480E-06,0.372
1.490E-06,0.408
1.500E-06,0.256
1.510E-06,-0.028
1.520E-06,-0.228
1.530E-06,-0.264
1.540E-06,-0.088
1.550E-06,0.144
1.560E-06,0.256
1.570E-06,0.128
1.580E-06,-0.128
1.590E-06,-0.336
1.600E-06,-0.508
1.610E-06,-0.508
1.620E-06,-0.424
1.630E-06,-0.240
1.640E-06,-0.068
1.650E-06,-0.044
1.660E-06,-0.076
1.670E-06,-0.108
1.680E-06,-0.144
1.690E-06,-0.172
1.700E-06,-0.128
1.710E-06,-0.012
1.720E-06,0.116
1.730E-06,0.172
1.740E-06,0.088
1.750E-06,-0.060
1.760E-06,-0.180
1.770E-06,-0.160
1.780E-06,-0.040
1.790E-06,0.104
1.800E-06,0.188
1.810E-06,0.180
1.820E-06,0.076
1.830E-06,-0.060
1.840E-06,-0.136
1.850E-06,-0.132
1.860E-06,-0.028
1.870E-06,0.100
1.880E-06,0.188
1.890E-06,0.172
1.900E-06,0.076
1.910E-06,-0.052
1.920E-06,-0.124
1.930E-06,-0.116
1.940E-06,-0.032
1.950E-06,0.076
1.960E-06,0.136
1.970E-06,0.128
1.980E-06,0.056
1.990E-06,-0.044
2.000E-06,-0.120
2.010E-06,-0.104
2.020E-06,-0.020
2.030E-06,0.088
2.040E-06,0.144
2.050E-06,0.128
2.060E-06,0.060
2.070E-06,-0.028
2.080E-06,-0.076
2.090E-06,-0.076
2.100E-06,-0.016
2.110E-06,0.072
2.120E-06,0.128
2.130E-06,0.132
2.140E-06,0.076
2.150E-06,-0.004
2.160E-06,-0.056
2.170E-06,-0.040
2.180E-06,0.012
2.190E-06,0.100
2.200E-06,0.164
2.210E-06,0.168
2.220E-06,0.136
2.230E-06,0.096
2.240E-06,0.052
2.250E-06,0.036
2.260E-06,0.080
2.270E-06,0.124
2.280E-06,0.164
2.290E-06,0.172
2.300E-06,0.156
2.310E-06,0.124
2.320E-06,0.088
2.330E-06,0.064
2.340E-06,0.092
2.350E-06,0.132
2.360E-06,0.168
2.370E-06,0.188
2.380E-06,0.180
2.390E-06,0.156
2.400E-06,0.124
2.410E-06,0.104
2.420E-06,0.104
2.430E-06,0.128
2.440E-06,0.156
2.450E-06,0.156
2.460E-06,0.156
2.470E-06,0.124
2.480E-06,0.100
2.490E-06,0.080
2.500E-06,0.052
2.510E-06,0.028
2.520E-06,0.016
2.530E-06,0.028
2.540E-06,0.076
2.550E-06,0.144
2.560E-06,0.196
2.570E-06,0.196
2.580E-06,0.096
2.590E-06,-0.096
2.600E-06,-0.304
2.610E-06,-0.364
2.620E-06,-0.288
2.630E-06,-0.056
2.640E-06,0.240
2.650E-06,0.428
2.660E-06,0.448
2.670E-06,0.228
2.680E-06,-0.152
2.690E-06,-0.460
2.700E-06,-0.512
2.710E-06,-0.340
2.720E-06,0.008
2.730E-06,0.200
2.740E-06,0.064
2.750E-06,-0.308
2.760E-06,-0.512
2.770E-06,-0.512
2.780E-06,-0.504
2.790E-06,-0.132
2.800E-06,0.224
2.810E-06,0.416
2.820E-06,0.308
2.830E-06,0.060
2.840E-06,-0.232
2.850E-06,-0.400
2.860E-06,-0.348
2.870E-06,-0.152
2.880E-06,0.104
2.890E-06,0.284
2.900E-06,0.288
2.910E-06,0.132
2.920E-06,-0.080
2.930E-06,-0.188
2.940E-06,-0.172
2.950E-06,-0.016
2.960E-06,0.156
2.970E-06,0.308
2.980E-06,0.328
2.990E-06,0.232
3.000E-06,0.096
3.010E-06,0.000
3.020E-06,-0.012
3.030E-06,0.056
3.040E-06,0.180
3.050E-06,0.276
3.060E-06,0.304
3.070E-06,0.248
3.080E-06,0.136
3.090E-06,0.020
3.100E-06,-0.024
3.110E-06,-0.008
3.120E-06,0.060
3.130E-06,0.128
3.140E-06,0.172
3.150E-06,0.164
3.160E-06,0.112
3.170E-06,0.056
3.180E-06,0.016
3.190E-06,0.008
3.200E-06,0.052
3.210E-06,0.128
3.220E-06,0.184
3.230E-06,0.192
3.240E-06,0.164
3.250E-06,0.120
3.260E-06,0.084
3.270E-06,0.080
3.280E-06,0.100
3.290E-06,0.140
