mediciones/Mediciones filtradas (saque las feas)/5-15/32.5/WaveData47109.csv

#timebase=2000000(ps)
,#voltbase=2000000(mv/100)
#size=4000
-8.400E-06,0.000
-8.390E-06,0.000
-8.380E-06,-0.080
-8.370E-06,0.080
-8.360E-06,-0.080
-8.350E-06,-0.080
-8.340E-06,0.080
-8.330E-06,0.000
-8.320E-06,0.080
-8.310E-06,0.080
-8.300E-06,0.080
-8.290E-06,0.000
-8.280E-06,0.080
-8.270E-06,0.080
-8.260E-06,0.000
-8.250E-06,0.000
-8.240E-06,0.080
-8.230E-06,0.080
-8.220E-06,0.000
-8.210E-06,0.080
-8.200E-06,0.000
-8.190E-06,0.000
-8.180E-06,0.080
-8.170E-06,0.080
-8.160E-06,0.080
-8.150E-06,0.080
-8.140E-06,0.080
-8.130E-06,0.080
-8.120E-06,0.080
-8.110E-06,0.160
-8.100E-06,0.160
-8.090E-06,0.000
-8.080E-06,0.080
-8.070E-06,0.080
-8.060E-06,0.080
-8.050E-06,0.160
-8.040E-06,-0.080
-8.030E-06,0.000
-8.020E-06,0.000
-8.010E-06,0.080
-8.000E-06,0.080
-7.990E-06,0.160
-7.980E-06,-0.080
-7.970E-06,-0.080
-7.960E-06,0.000
-7.950E-06,-0.080
-7.940E-06,0.000
-7.930E-06,0.080
-7.920E-06,0.080
-7.910E-06,0.080
-7.900E-06,0.080
-7.890E-06,0.000
-7.880E-06,0.080
-7.870E-06,0.080
-7.860E-06,0.000
-7.850E-06,0.080
-7.840E-06,0.000
-7.830E-06,0.000
-7.820E-06,0.000
-7.810E-06,0.080
-7.800E-06,0.080
-7.790E-06,0.000
-7.780E-06,0.000
-7.770E-06,0.080
-7.760E-06,0.000
-7.750E-06,0.000
-7.740E-06,0.000
-7.730E-06,0.080
-7.720E-06,-0.080
-7.710E-06,0.080
-7.700E-06,0.080
-7.690E-06,0.080
-7.680E-06,0.000
-7.670E-06,0.000
-7.660E-06,0.160
-7.650E-06,0.160
-7.640E-06,-0.080
-7.630E-06,0.000
-7.620E-06,0.080
-7.610E-06,0.000
-7.600E-06,0.080
-7.590E-06,0.080
-7.580E-06,0.080
-7.570E-06,0.160
-7.560E-06,-0.080
-7.550E-06,0.080
-7.540E-06,0.080
-7.530E-06,0.000
-7.520E-06,0.080
-7.510E-06,0.080
-7.500E-06,0.000
-7.490E-06,0.000
-7.480E-06,0.080
-7.470E-06,0.080
-7.460E-06,0.080
-7.450E-06,0.000
-7.440E-06,0.000
-7.430E-06,0.000
-7.420E-06,0.080
-7.410E-06,0.000
-7.400E-06,0.160
-7.390E-06,-0.080
-7.380E-06,0.000
-7.370E-06,0.080
-7.360E-06,0.000
-7.350E-06,0.080
-7.340E-06,0.000
-7.330E-06,0.080
-7.320E-06,0.080
-7.310E-06,0.000
-7.300E-06,0.000
-7.290E-06,0.080
-7.280E-06,0.080
-7.270E-06,0.000
-7.260E-06,0.000
-7.250E-06,0.080
-7.240E-06,0.000
-7.230E-06,0.080
-7.220E-06,0.080
-7.210E-06,0.000
-7.200E-06,0.080
-7.190E-06,0.080
-7.180E-06,0.080
-7.170E-06,0.000
-7.160E-06,0.000
-7.150E-06,0.000
-7.140E-06,0.000
-7.130E-06,0.080
-7.120E-06,0.080
-7.110E-06,0.080
-7.100E-06,0.160
-7.090E-06,-0.080
-7.080E-06,0.080
-7.070E-06,0.080
-7.060E-06,0.080
-7.050E-06,0.000
-7.040E-06,0.000
-7.030E-06,0.000
-7.020E-06,0.000
-7.010E-06,0.080
-7.000E-06,0.000
-6.990E-06,0.000
-6.980E-06,0.000
-6.970E-06,0.000
-6.960E-06,0.000
-6.950E-06,0.000
-6.940E-06,0.000
-6.930E-06,0.000
-6.920E-06,0.000
-6.910E-06,0.160
-6.900E-06,0.000
-6.890E-06,-0.080
-6.880E-06,0.000
-6.870E-06,0.080
-6.860E-06,0.080
-6.850E-06,0.080
-6.840E-06,0.000
-6.830E-06,0.000
-6.820E-06,0.080
-6.810E-06,-0.080
-6.800E-06,0.080
-6.790E-06,0.000
-6.780E-06,0.000
-6.770E-06,0.080
-6.760E-06,0.080
-6.750E-06,0.080
-6.740E-06,0.080
-6.730E-06,0.000
-6.720E-06,0.000
-6.710E-06,0.000
-6.700E-06,0.160
-6.690E-06,0.160
-6.680E-06,0.080
-6.670E-06,-0.080
-6.660E-06,-0.080
-6.650E-06,0.000
-6.640E-06,0.000
-6.630E-06,0.080
-6.620E-06,0.000
-6.610E-06,0.000
-6.600E-06,0.000
-6.590E-06,-0.080
-6.580E-06,0.000
-6.570E-06,0.000
-6.560E-06,0.000
-6.550E-06,0.000
-6.540E-06,0.000
-6.530E-06,0.000
-6.520E-06,0.000
-6.510E-06,0.080
-6.500E-06,-0.080
-6.490E-06,-0.080
-6.480E-06,0.080
-6.470E-06,-0.080
-6.460E-06,0.000
-6.450E-06,0.000
-6.440E-06,0.000
-6.430E-06,0.160
-6.420E-06,0.000
-6.410E-06,0.000
-6.400E-06,0.000
-6.390E-06,0.000
-6.380E-06,0.000
-6.370E-06,0.080
-6.360E-06,0.000
-6.350E-06,-0.080
-6.340E-06,0.000
-6.330E-06,0.000
-6.320E-06,0.080
-6.310E-06,0.000
-6.300E-06,0.080
-6.290E-06,0.080
-6.280E-06,0.080
-6.270E-06,0.160
-6.260E-06,-0.080
-6.250E-06,-0.080
-6.240E-06,0.080
-6.230E-06,-0.080
-6.220E-06,0.000
-6.210E-06,-0.080
-6.200E-06,0.080
-6.190E-06,0.000
-6.180E-06,0.000
-6.170E-06,0.080
-6.160E-06,0.000
-6.150E-06,-0.080
-6.140E-06,-0.080
-6.130E-06,0.000
-6.120E-06,-0.080
-6.110E-06,0.080
-6.100E-06,0.000
-6.090E-06,0.000
-6.080E-06,0.000
-6.070E-06,0.000
-6.060E-06,0.000
-6.050E-06,0.080
-6.040E-06,0.000
-6.030E-06,0.000
-6.020E-06,0.080
-6.010E-06,0.160
-6.000E-06,0.000
-5.990E-06,0.000
-5.980E-06,0.000
-5.970E-06,-0.080
-5.960E-06,0.000
-5.950E-06,-0.080
-5.940E-06,0.000
-5.930E-06,0.000
-5.920E-06,-0.080
-5.910E-06,0.000
-5.900E-06,0.000
-5.890E-06,0.000
-5.880E-06,0.000
-5.870E-06,0.000
-5.860E-06,0.000
-5.850E-06,0.000
-5.840E-06,0.080
-5.830E-06,-0.080
-5.820E-06,-0.080
-5.810E-06,0.000
-5.800E-06,0.000
-5.790E-06,-0.080
-5.780E-06,0.000
-5.770E-06,0.000
-5.760E-06,0.000
-5.750E-06,0.000
-5.740E-06,0.080
-5.730E-06,0.000
-5.720E-06,0.080
-5.710E-06,0.080
-5.700E-06,0.000
-5.690E-06,0.000
-5.680E-06,0.000
-5.670E-06,0.000
-5.660E-06,0.080
-5.650E-06,0.000
-5.640E-06,0.000
-5.630E-06,0.160
-5.620E-06,0.000
-5.610E-06,0.080
-5.600E-06,0.000
-5.590E-06,0.000
-5.580E-06,0.000
-5.570E-06,0.000
-5.560E-06,0.000
-5.550E-06,0.080
-5.540E-06,0.080
-5.530E-06,0.000
-5.520E-06,0.080
-5.510E-06,0.000
-5.500E-06,0.080
-5.490E-06,-0.080
-5.480E-06,0.080
-5.470E-06,-0.080
-5.460E-06,-0.080
-5.450E-06,0.080
-5.440E-06,0.080
-5.430E-06,0.000
-5.420E-06,0.000
-5.410E-06,-0.080
-5.400E-06,0.000
-5.390E-06,0.080
-5.380E-06,0.080
-5.370E-06,0.000
-5.360E-06,-0.080
-5.350E-06,0.000
-5.340E-06,0.000
-5.330E-06,0.000
-5.320E-06,-0.080
-5.310E-06,0.000
-5.300E-06,-0.080
-5.290E-06,0.000
-5.280E-06,0.000
-5.270E-06,0.000
-5.260E-06,0.000
-5.250E-06,0.000
-5.240E-06,0.000
-5.230E-06,0.080
-5.220E-06,-0.080
-5.210E-06,0.000
-5.200E-06,0.000
-5.190E-06,0.000
-5.180E-06,0.080
-5.170E-06,0.080
-5.160E-06,0.080
-5.150E-06,0.080
-5.140E-06,0.080
-5.130E-06,0.080
-5.120E-06,-0.080
-5.110E-06,0.000
-5.100E-06,0.000
-5.090E-06,0.000
-5.080E-06,0.000
-5.070E-06,-0.080
-5.060E-06,0.000
-5.050E-06,0.080
-5.040E-06,-0.080
-5.030E-06,0.000
-5.020E-06,0.000
-5.010E-06,0.000
-5.000E-06,0.000
-4.990E-06,-0.080
-4.980E-06,0.000
-4.970E-06,0.000
-4.960E-06,0.000
-4.950E-06,0.000
-4.940E-06,0.000
-4.930E-06,0.000
-4.920E-06,0.000
-4.910E-06,0.000
-4.900E-06,0.000
-4.890E-06,0.000
-4.880E-06,0.000
-4.870E-06,0.000
-4.860E-06,0.000
-4.850E-06,0.000
-4.840E-06,0.000
-4.830E-06,-0.080
-4.820E-06,0.000
-4.810E-06,0.080
-4.800E-06,-0.160
-4.790E-06,-0.160
-4.780E-06,-0.080
-4.770E-06,-0.080
-4.760E-06,0.000
-4.750E-06,0.000
-4.740E-06,0.000
-4.730E-06,0.000
-4.720E-06,0.000
-4.710E-06,0.000
-4.700E-06,0.000
-4.690E-06,0.000
-4.680E-06,0.000
-4.670E-06,0.000
-4.660E-06,0.080
-4.650E-06,-0.080
-4.640E-06,0.000
-4.630E-06,0.000
-4.620E-06,0.000
-4.610E-06,-0.080
-4.600E-06,0.000
-4.590E-06,0.000
-4.580E-06,0.000
-4.570E-06,0.080
-4.560E-06,0.000
-4.550E-06,0.000
-4.540E-06,0.000
-4.530E-06,0.000
-4.520E-06,0.000
-4.510E-06,0.000
-4.500E-06,0.000
-4.490E-06,0.000
-4.480E-06,-0.080
-4.470E-06,0.000
-4.460E-06,-0.080
-4.450E-06,-0.080
-4.440E-06,-0.080
-4.430E-06,-0.080
-4.420E-06,0.000
-4.410E-06,-0.080
-4.400E-06,0.000
-4.390E-06,0.000
-4.380E-06,0.000
-4.370E-06,0.080
-4.360E-06,0.080
-4.350E-06,0.080
-4.340E-06,-0.080
-4.330E-06,-0.080
-4.320E-06,-0.080
-4.310E-06,-0.080
-4.300E-06,0.000
-4.290E-06,-0.080
-4.280E-06,0.000
-4.270E-06,-0.080
-4.260E-06,-0.080
-4.250E-06,-0.080
-4.240E-06,-0.160
-4.230E-06,-0.160
-4.220E-06,-0.160
-4.210E-06,0.080
-4.200E-06,0.080
-4.190E-06,-0.160
-4.180E-06,-0.080
-4.170E-06,-0.080
-4.160E-06,0.000
-4.150E-06,-0.080
-4.140E-06,0.000
-4.130E-06,0.000
-4.120E-06,0.000
-4.110E-06,0.080
-4.100E-06,-0.080
-4.090E-06,0.000
-4.080E-06,0.000
-4.070E-06,0.000
-4.060E-06,0.000
-4.050E-06,-0.080
-4.040E-06,0.000
-4.030E-06,-0.080
-4.020E-06,0.000
-4.010E-06,0.000
-4.000E-06,0.000
-3.990E-06,0.000
-3.980E-06,0.000
-3.970E-06,0.000
-3.960E-06,0.000
-3.950E-06,0.000
-3.940E-06,0.000
-3.930E-06,-0.080
-3.920E-06,0.000
-3.910E-06,0.000
-3.900E-06,0.000
-3.890E-06,0.000
-3.880E-06,-0.080
-3.870E-06,0.000
-3.860E-06,0.000
-3.850E-06,0.000
-3.840E-06,0.000
-3.830E-06,0.000
-3.820E-06,0.000
-3.810E-06,0.000
-3.800E-06,0.000
-3.790E-06,0.080
-3.780E-06,0.080
-3.770E-06,-0.080
-3.760E-06,0.000
-3.750E-06,-0.080
-3.740E-06,0.000
-3.730E-06,-0.080
-3.720E-06,0.000
-3.710E-06,-0.080
-3.700E-06,-0.080
-3.690E-06,-0.240
-3.680E-06,-0.160
-3.670E-06,0.000
-3.660E-06,-0.160
-3.650E-06,-0.080
-3.640E-06,-0.160
-3.630E-06,-0.240
-3.620E-06,-0.320
-3.610E-06,-0.400
-3.600E-06,-0.160
-3.590E-06,-0.240
-3.580E-06,-0.320
-3.570E-06,-0.160
-3.560E-06,-0.160
-3.550E-06,-0.240
-3.540E-06,-0.240
-3.530E-06,-0.320
-3.520E-06,-0.400
-3.510E-06,-0.320
-3.500E-06,-0.240
-3.490E-06,-0.320
-3.480E-06,-0.400
-3.470E-06,-0.240
-3.460E-06,-0.400
-3.450E-06,-0.320
-3.440E-06,-0.320
-3.430E-06,-0.240
-3.420E-06,-0.160
-3.410E-06,-0.400
-3.400E-06,-0.320
-3.390E-06,-0.320
-3.380E-06,-0.400
-3.370E-06,-0.480
-3.360E-06,-0.240
-3.350E-06,-0.320
-3.340E-06,-0.480
-3.330E-06,-0.400
-3.320E-06,-0.400
-3.310E-06,-0.400
-3.300E-06,-0.480
-3.290E-06,-0.480
-3.280E-06,-0.480
-3.270E-06,-0.560
-3.260E-06,-0.480
-3.250E-06,-0.400
-3.240E-06,-0.320
-3.230E-06,-0.240
-3.220E-06,-0.320
-3.210E-06,-0.320
-3.200E-06,-0.320
-3.190E-06,-0.160
-3.180E-06,-0.320
-3.170E-06,-0.240
-3.160E-06,-0.400
-3.150E-06,-0.320
-3.140E-06,-0.240
-3.130E-06,-0.240
-3.120E-06,-0.320
-3.110E-06,-0.240
-3.100E-06,-0.240
-3.090E-06,-0.320
-3.080E-06,-0.240
-3.070E-06,-0.160
-3.060E-06,-0.240
-3.050E-06,-0.240
-3.040E-06,-0.240
-3.030E-06,-0.320
-3.020E-06,-0.240
-3.010E-06,-0.240
-3.000E-06,-0.240
-2.990E-06,-0.160
-2.980E-06,-0.160
-2.970E-06,-0.240
-2.960E-06,-0.160
-2.950E-06,-0.160
-2.940E-06,-0.240
-2.930E-06,-0.160
-2.920E-06,0.000
-2.910E-06,-0.080
-2.900E-06,-0.080
-2.890E-06,-0.080
-2.880E-06,-0.080
-2.870E-06,-0.080
-2.860E-06,-0.080
-2.850E-06,-0.080
-2.840E-06,-0.080
-2.830E-06,-0.160
-2.820E-06,-0.240
-2.810E-06,-0.160
-2.800E-06,-0.160
-2.790E-06,-0.160
-2.780E-06,-0.240
-2.770E-06,-0.160
-2.760E-06,-0.080
-2.750E-06,-0.240
-2.740E-06,-0.160
-2.730E-06,-0.160
-2.720E-06,-0.160
-2.710E-06,-0.240
-2.700E-06,-0.160
-2.690E-06,-0.080
-2.680E-06,-0.160
-2.670E-06,-0.160
-2.660E-06,-0.160
-2.650E-06,0.000
-2.640E-06,-0.080
-2.630E-06,-0.160
-2.620E-06,-0.160
-2.610E-06,-0.240
-2.600E-06,-0.160
-2.590E-06,-0.080
-2.580E-06,-0.080
-2.570E-06,-0.160
-2.560E-06,-0.240
-2.550E-06,-0.320
-2.540E-06,-0.320
-2.530E-06,-0.320
-2.520E-06,-0.320
-2.510E-06,-0.320
-2.500E-06,-0.400
-2.490E-06,-0.480
-2.480E-06,-0.400
-2.470E-06,-0.480
-2.460E-06,-0.560
-2.450E-06,-0.480
-2.440E-06,-0.560
-2.430E-06,-0.560
-2.420E-06,-0.720
-2.410E-06,-0.720
-2.400E-06,-0.720
-2.390E-06,-0.800
-2.380E-06,-0.800
-2.370E-06,-0.800
-2.360E-06,-0.800
-2.350E-06,-0.960
-2.340E-06,-0.960
-2.330E-06,-0.960
-2.320E-06,-1.040
-2.310E-06,-1.040
-2.300E-06,-1.040
-2.290E-06,-1.120
-2.280E-06,-1.120
-2.270E-06,-1.040
-2.260E-06,-1.200
-2.250E-06,-1.200
-2.240E-06,-1.040
-2.230E-06,-1.040
-2.220E-06,-1.120
-2.210E-06,-1.040
-2.200E-06,-1.200
-2.190E-06,-1.200
-2.180E-06,-1.280
-2.170E-06,-1.280
-2.160E-06,-1.360
-2.150E-06,-1.360
-2.140E-06,-1.440
-2.130E-06,-1.440
-2.120E-06,-1.440
-2.110E-06,-1.440
-2.100E-06,-1.360
-2.090E-06,-1.360
-2.080E-06,-1.520
-2.070E-06,-1.440
-2.060E-06,-1.440
-2.050E-06,-1.440
-2.040E-06,-1.520
-2.030E-06,-1.520
-2.020E-06,-1.600
-2.010E-06,-1.680
-2.000E-06,-1.600
-1.990E-06,-1.760
-1.980E-06,-1.680
-1.970E-06,-1.760
-1.960E-06,-1.840
-1.950E-06,-1.840
-1.940E-06,-1.840
-1.930E-06,-1.680
-1.920E-06,-1.840
-1.910E-06,-1.840
-1.900E-06,-1.760
-1.890E-06,-1.760
-1.880E-06,-1.840
-1.870E-06,-1.680
-1.860E-06,-1.680
-1.850E-06,-1.680
-1.840E-06,-1.760
-1.830E-06,-1.680
-1.820E-06,-1.600
-1.810E-06,-1.600
-1.800E-06,-1.600
-1.790E-06,-1.680
-1.780E-06,-1.680
-1.770E-06,-1.680
-1.760E-06,-1.520
-1.750E-06,-1.440
-1.740E-06,-1.280
-1.730E-06,-1.120
-1.720E-06,-1.040
-1.710E-06,-0.800
-1.700E-06,-0.720
-1.690E-06,-0.880
-1.680E-06,-0.800
-1.670E-06,-0.880
-1.660E-06,-0.720
-1.650E-06,-0.800
-1.640E-06,-0.640
-1.630E-06,-0.560
-1.620E-06,-0.560
-1.610E-06,-0.480
-1.600E-06,-0.560
-1.590E-06,-0.560
-1.580E-06,-0.480
-1.570E-06,-0.640
-1.560E-06,-0.720
-1.550E-06,-1.040
-1.540E-06,-1.200
-1.530E-06,-1.440
-1.520E-06,-1.520
-1.510E-06,-1.600
-1.500E-06,-1.360
-1.490E-06,-1.600
-1.480E-06,-1.520
-1.470E-06,-1.600
-1.460E-06,-1.440
-1.450E-06,-1.520
-1.440E-06,-1.520
-1.430E-06,-1.680
-1.420E-06,-1.840
-1.410E-06,-1.760
-1.400E-06,-1.840
-1.390E-06,-1.600
-1.380E-06,-1.520
-1.370E-06,-1.360
-1.360E-06,-1.200
-1.350E-06,-1.040
-1.340E-06,-0.800
-1.330E-06,-0.720
-1.320E-06,-0.720
-1.310E-06,-0.720
-1.300E-06,-0.720
-1.290E-06,-0.640
-1.280E-06,-0.720
-1.270E-06,-0.640
-1.260E-06,-0.640
-1.250E-06,-0.640
-1.240E-06,-0.560
-1.230E-06,-0.720
-1.220E-06,-0.640
-1.210E-06,-0.800
-1.200E-06,-0.960
-1.190E-06,-1.040
-1.180E-06,-1.200
-1.170E-06,-1.120
-1.160E-06,-1.200
-1.150E-06,-1.280
-1.140E-06,-1.200
-1.130E-06,-1.120
-1.120E-06,-1.120
-1.110E-06,-1.040
-1.100E-06,-1.040
-1.090E-06,-1.040
-1.080E-06,-1.040
-1.070E-06,-0.960
-1.060E-06,-0.960
-1.050E-06,-0.960
-1.040E-06,-0.960
-1.030E-06,-0.960
-1.020E-06,-0.960
-1.010E-06,-1.120
-1.000E-06,-1.200
-9.900E-07,-1.440
-9.800E-07,-1.600
-9.700E-07,-1.680
-9.600E-07,-1.840
-9.500E-07,-2.000
-9.400E-07,-1.920
-9.300E-07,-2.080
-9.200E-07,-2.080
-9.100E-07,-2.160
-9.000E-07,-2.240
-8.900E-07,-2.160
-8.800E-07,-2.160
-8.700E-07,-2.160
-8.600E-07,-2.320
-8.500E-07,-2.400
-8.400E-07,-2.400
-8.300E-07,-2.480
-8.200E-07,-2.720
-8.100E-07,-2.880
-8.000E-07,-2.880
-7.900E-07,-3.040
-7.800E-07,-3.040
-7.700E-07,-3.040
-7.600E-07,-2.960
-7.500E-07,-2.960
-7.400E-07,-2.960
-7.300E-07,-3.200
-7.200E-07,-3.360
-7.100E-07,-3.360
-7.000E-07,-3.520
-6.900E-07,-3.440
-6.800E-07,-3.440
-6.700E-07,-3.440
-6.600E-07,-3.360
-6.500E-07,-3.280
-6.400E-07,-3.280
-6.300E-07,-3.200
-6.200E-07,-3.200
-6.100E-07,-3.120
-6.000E-07,-3.120
-5.900E-07,-3.120
-5.800E-07,-3.120
-5.700E-07,-3.040
-5.600E-07,-3.040
-5.500E-07,-3.120
-5.400E-07,-3.200
-5.300E-07,-3.520
-5.200E-07,-3.600
-5.100E-07,-3.680
-5.000E-07,-3.920
-4.900E-07,-4.080
-4.800E-07,-4.080
-4.700E-07,-4.400
-4.600E-07,-4.160
-4.500E-07,-4.560
-4.400E-07,-4.400
-4.300E-07,-4.400
-4.200E-07,-4.560
-4.100E-07,-4.640
-4.000E-07,-4.720
-3.900E-07,-4.880
-3.800E-07,-4.800
-3.700E-07,-4.800
-3.600E-07,-4.800
-3.500E-07,-4.800
-3.400E-07,-4.880
-3.300E-07,-4.960
-3.200E-07,-5.040
-3.100E-07,-5.200
-3.000E-07,-5.280
-2.900E-07,-5.360
-2.800E-07,-5.440
-2.700E-07,-5.520
-2.600E-07,-5.440
-2.500E-07,-5.520
-2.400E-07,-5.680
-2.300E-07,-5.680
-2.200E-07,-5.680
-2.100E-07,-5.600
-2.000E-07,-5.600
-1.900E-07,-5.360
-1.800E-07,-5.760
-1.700E-07,-5.680
-1.600E-07,-5.680
-1.500E-07,-5.440
-1.400E-07,-5.440
-1.300E-07,-5.280
-1.200E-07,-5.200
-1.100E-07,-5.040
-1.000E-07,-5.120
-9.000E-08,-5.040
-8.000E-08,-5.280
-7.000E-08,-5.520
-6.000E-08,-5.840
-5.000E-08,-6.160
-4.000E-08,-6.320
-3.000E-08,-5.920
-2.000E-08,-6.480
-1.000E-08,-6.000
0.000E+00,-6.880
1.000E-08,-7.040
2.000E-08,-7.200
3.000E-08,-6.720
4.000E-08,-5.920
5.000E-08,-4.400
6.000E-08,-4.320
7.000E-08,-3.200
8.000E-08,-3.200
9.000E-08,-3.440
1.000E-07,-3.360
1.100E-07,-3.360
1.200E-07,-4.000
1.300E-07,-4.080
1.400E-07,-5.040
1.500E-07,-4.960
1.600E-07,-4.720
1.700E-07,-4.800
1.800E-07,-3.840
1.900E-07,-3.760
2.000E-07,-3.120
2.100E-07,-2.720
2.200E-07,-3.040
2.300E-07,-3.280
2.400E-07,-3.600
2.500E-07,-4.720
2.600E-07,-5.040
2.700E-07,-6.160
2.800E-07,-6.880
2.900E-07,-7.440
3.000E-07,-8.160
3.100E-07,-8.720
3.200E-07,-8.960
3.300E-07,-9.200
3.400E-07,-8.880
3.500E-07,-8.800
3.600E-07,-8.880
3.700E-07,-8.720
3.800E-07,-8.720
3.900E-07,-8.880
4.000E-07,-8.800
4.100E-07,-8.880
4.200E-07,-8.880
4.300E-07,-8.720
4.400E-07,-8.720
4.500E-07,-8.720
4.600E-07,-8.560
4.700E-07,-8.480
4.800E-07,-8.240
4.900E-07,-8.000
5.000E-07,-7.840
5.100E-07,-7.520
5.200E-07,-7.040
5.300E-07,-6.720
5.400E-07,-6.160
5.500E-07,-5.840
5.600E-07,-5.440
5.700E-07,-4.880
5.800E-07,-4.560
5.900E-07,-4.080
6.000E-07,-3.840
6.100E-07,-3.680
6.200E-07,-3.360
6.300E-07,-3.200
6.400E-07,-2.960
6.500E-07,-2.800
6.600E-07,-2.640
6.700E-07,-2.320
6.800E-07,-2.240
6.900E-07,-2.080
7.000E-07,-1.840
7.100E-07,-1.840
7.200E-07,-1.760
7.300E-07,-1.600
7.400E-07,-1.520
7.500E-07,-1.520
7.600E-07,-1.440
7.700E-07,-1.520
7.800E-07,-1.520
7.900E-07,-1.600
8.000E-07,-1.760
8.100E-07,-1.760
8.200E-07,-1.760
8.300E-07,-1.920
8.400E-07,-2.000
8.500E-07,-2.080
8.600E-07,-2.080
8.700E-07,-2.240
8.800E-07,-2.320
8.900E-07,-2.320
9.000E-07,-2.240
9.100E-07,-2.240
9.200E-07,-2.320
9.300E-07,-2.400
9.400E-07,-2.480
9.500E-07,-2.480
9.600E-07,-2.640
9.700E-07,-2.480
9.800E-07,-2.400
9.900E-07,-2.480
1.000E-06,-2.480
1.010E-06,-2.480
1.020E-06,-2.400
1.030E-06,-2.320
1.040E-06,-2.320
1.050E-06,-2.320
1.060E-06,-2.320
1.070E-06,-2.400
1.080E-06,-2.480
1.090E-06,-2.480
1.100E-06,-2.400
1.110E-06,-2.560
1.120E-06,-2.800
1.130E-06,-2.720
1.140E-06,-2.960
1.150E-06,-3.120
1.160E-06,-3.120
1.170E-06,-3.280
1.180E-06,-3.280
1.190E-06,-3.520
1.200E-06,-3.360
1.210E-06,-3.360
1.220E-06,-3.360
1.230E-06,-3.120
1.240E-06,-3.120
1.250E-06,-2.960
1.260E-06,-2.880
1.270E-06,-2.720
1.280E-06,-2.800
1.290E-06,-2.720
1.300E-06,-2.560
1.310E-06,-2.560
1.320E-06,-2.560
1.330E-06,-2.480
1.340E-06,-2.560
1.350E-06,-2.480
1.360E-06,-2.640
1.370E-06,-2.560
1.380E-06,-2.320
1.390E-06,-2.400
1.400E-06,-2.400
1.410E-06,-2.400
1.420E-06,-2.240
1.430E-06,-2.080
1.440E-06,-2.080
1.450E-06,-1.840
1.460E-06,-1.680
1.470E-06,-1.680
1.480E-06,-1.520
1.490E-06,-1.360
1.500E-06,-1.200
1.510E-06,-1.200
1.520E-06,-1.120
1.530E-06,-1.120
1.540E-06,-0.960
1.550E-06,-0.880
1.560E-06,-0.880
1.570E-06,-0.800
1.580E-06,-0.800
1.590E-06,-0.720
1.600E-06,-0.640
1.610E-06,-0.560
1.620E-06,-0.480
1.630E-06,-0.400
1.640E-06,-0.320
1.650E-06,-0.080
1.660E-06,0.080
1.670E-06,0.240
1.680E-06,0.160
1.690E-06,0.320
1.700E-06,0.480
1.710E-06,0.640
1.720E-06,0.720
1.730E-06,0.640
1.740E-06,0.640
1.750E-06,0.720
1.760E-06,0.800
1.770E-06,0.720
1.780E-06,0.880
1.790E-06,0.880
1.800E-06,0.880
1.810E-06,0.800
1.820E-06,0.720
1.830E-06,0.640
1.840E-06,0.640
1.850E-06,0.560
1.860E-06,0.560
1.870E-06,0.480
1.880E-06,0.400
1.890E-06,0.320
1.900E-06,0.400
1.910E-06,0.320
1.920E-06,0.240
1.930E-06,0.320
1.940E-06,0.400
1.950E-06,0.320
1.960E-06,0.400
1.970E-06,0.320
1.980E-06,0.320
1.990E-06,0.400
2.000E-06,0.480
2.010E-06,0.560
2.020E-06,0.560
2.030E-06,0.640
2.040E-06,0.720
2.050E-06,0.720
2.060E-06,0.720
2.070E-06,0.880
2.080E-06,0.800
2.090E-06,0.720
2.100E-06,0.720
2.110E-06,0.640
2.120E-06,0.640
2.130E-06,0.720
2.140E-06,0.640
2.150E-06,0.720
2.160E-06,0.640
2.170E-06,0.720
2.180E-06,0.640
2.190E-06,0.640
2.200E-06,0.640
2.210E-06,0.720
2.220E-06,0.720
2.230E-06,0.640
2.240E-06,0.640
2.250E-06,0.720
2.260E-06,0.720
2.270E-06,0.720
2.280E-06,0.720
2.290E-06,0.720
2.300E-06,0.640
2.310E-06,0.720
2.320E-06,0.640
2.330E-06,0.720
2.340E-06,0.640
2.350E-06,0.640
2.360E-06,0.640
2.370E-06,0.640
2.380E-06,0.720
2.390E-06,0.800
2.400E-06,0.800
2.410E-06,0.880
2.420E-06,0.880
2.430E-06,0.960
2.440E-06,0.960
2.450E-06,1.040
2.460E-06,0.800
2.470E-06,0.800
2.480E-06,0.800
2.490E-06,0.880
2.500E-06,0.880
2.510E-06,0.880
2.520E-06,0.880
2.530E-06,0.960
2.540E-06,0.960
2.550E-06,0.880
2.560E-06,0.960
2.570E-06,0.880
2.580E-06,0.880
2.590E-06,0.880
2.600E-06,0.800
2.610E-06,0.880
2.620E-06,0.880
2.630E-06,0.880
2.640E-06,0.880
2.650E-06,0.960
2.660E-06,0.960
2.670E-06,0.960
2.680E-06,0.960
2.690E-06,1.040
2.700E-06,0.960
2.710E-06,0.960
2.720E-06,0.960
2.730E-06,0.960
2.740E-06,0.880
2.750E-06,0.880
2.760E-06,0.800
2.770E-06,0.960
2.780E-06,1.040
2.790E-06,1.040
2.800E-06,1.120
2.810E-06,1.200
2.820E-06,1.360
2.830E-06,1.280
2.840E-06,1.280
2.850E-06,1.360
2.860E-06,1.360
2.870E-06,1.280
2.880E-06,1.200
2.890E-06,1.200
2.900E-06,1.200
2.910E-06,1.120
2.920E-06,1.120
2.930E-06,1.040
2.940E-06,1.040
2.950E-06,1.040
2.960E-06,1.040
2.970E-06,1.040
2.980E-06,0.960
2.990E-06,0.880
3.000E-06,0.960
3.010E-06,1.040
3.020E-06,1.120
3.030E-06,1.360
3.040E-06,1.600
3.050E-06,1.840
3.060E-06,1.920
3.070E-06,2.000
3.080E-06,2.000
3.090E-06,2.000
3.100E-06,2.080
3.110E-06,2.160
3.120E-06,2.080
3.130E-06,2.160
3.140E-06,2.160
