mediciones/Mediciones filtradas (saque las feas)/5-15/32.5/WaveData47088.csv

#timebase=2000000(ps)
,#voltbase=100000(mv/100)
#size=4000
-8.400E-06,0.000
-8.390E-06,0.012
-8.380E-06,0.028
-8.370E-06,0.016
-8.360E-06,0.012
-8.350E-06,0.008
-8.340E-06,-0.020
-8.330E-06,-0.040
-8.320E-06,-0.052
-8.310E-06,-0.036
-8.300E-06,0.012
-8.290E-06,0.056
-8.280E-06,0.072
-8.270E-06,0.028
-8.260E-06,-0.012
-8.250E-06,-0.044
-8.240E-06,-0.048
-8.230E-06,-0.012
-8.220E-06,0.032
-8.210E-06,0.044
-8.200E-06,0.036
-8.190E-06,0.008
-8.180E-06,-0.016
-8.170E-06,-0.028
-8.160E-06,-0.016
-8.150E-06,0.008
-8.140E-06,0.020
-8.130E-06,0.028
-8.120E-06,0.008
-8.110E-06,-0.004
-8.100E-06,0.000
-8.090E-06,0.000
-8.080E-06,0.008
-8.070E-06,0.012
-8.060E-06,0.012
-8.050E-06,0.012
-8.040E-06,0.004
-8.030E-06,0.004
-8.020E-06,0.008
-8.010E-06,0.004
-8.000E-06,0.004
-7.990E-06,0.004
-7.980E-06,0.000
-7.970E-06,0.000
-7.960E-06,0.000
-7.950E-06,0.000
-7.940E-06,0.000
-7.930E-06,0.000
-7.920E-06,0.012
-7.910E-06,0.016
-7.900E-06,0.016
-7.890E-06,0.004
-7.880E-06,-0.008
-7.870E-06,-0.008
-7.860E-06,-0.004
-7.850E-06,0.012
-7.840E-06,0.020
-7.830E-06,0.020
-7.820E-06,0.012
-7.810E-06,0.004
-7.800E-06,-0.004
-7.790E-06,-0.008
-7.780E-06,-0.004
-7.770E-06,-0.032
-7.760E-06,-0.028
-7.750E-06,-0.044
-7.740E-06,-0.008
-7.730E-06,0.044
-7.720E-06,0.068
-7.710E-06,0.060
-7.700E-06,0.000
-7.690E-06,-0.032
-7.680E-06,-0.076
-7.670E-06,-0.060
-7.660E-06,0.000
-7.650E-06,0.060
-7.640E-06,0.088
-7.630E-06,0.056
-7.620E-06,0.000
-7.610E-06,-0.064
-7.600E-06,-0.068
-7.590E-06,-0.032
-7.580E-06,0.028
-7.570E-06,0.060
-7.560E-06,0.056
-7.550E-06,0.024
-7.540E-06,-0.004
-7.530E-06,-0.028
-7.520E-06,-0.036
-7.510E-06,-0.020
-7.500E-06,-0.004
-7.490E-06,0.020
-7.480E-06,0.028
-7.470E-06,0.024
-7.460E-06,0.012
-7.450E-06,-0.004
-7.440E-06,-0.020
-7.430E-06,-0.024
-7.420E-06,-0.008
-7.410E-06,0.004
-7.400E-06,0.020
-7.390E-06,0.028
-7.380E-06,0.024
-7.370E-06,0.004
-7.360E-06,-0.016
-7.350E-06,-0.016
-7.340E-06,-0.004
-7.330E-06,0.008
-7.320E-06,0.020
-7.310E-06,0.024
-7.300E-06,0.008
-7.290E-06,0.000
-7.280E-06,-0.008
-7.270E-06,-0.004
-7.260E-06,-0.004
-7.250E-06,0.004
-7.240E-06,0.012
-7.230E-06,0.008
-7.220E-06,0.008
-7.210E-06,0.004
-7.200E-06,-0.004
-7.190E-06,-0.004
-7.180E-06,0.000
-7.170E-06,0.008
-7.160E-06,0.008
-7.150E-06,0.008
-7.140E-06,0.012
-7.130E-06,0.012
-7.120E-06,0.004
-7.110E-06,-0.008
-7.100E-06,0.000
-7.090E-06,-0.004
-7.080E-06,0.008
-7.070E-06,0.004
-7.060E-06,-0.004
-7.050E-06,-0.012
-7.040E-06,-0.004
-7.030E-06,0.000
-7.020E-06,0.016
-7.010E-06,0.028
-7.000E-06,0.004
-6.990E-06,-0.008
-6.980E-06,-0.024
-6.970E-06,-0.020
-6.960E-06,0.004
-6.950E-06,0.032
-6.940E-06,0.032
-6.930E-06,0.012
-6.920E-06,-0.004
-6.910E-06,-0.020
-6.900E-06,-0.020
-6.890E-06,-0.004
-6.880E-06,0.024
-6.870E-06,0.024
-6.860E-06,0.024
-6.850E-06,0.004
-6.840E-06,-0.004
-6.830E-06,-0.004
-6.820E-06,-0.004
-6.810E-06,0.008
-6.800E-06,0.012
-6.790E-06,0.012
-6.780E-06,0.012
-6.770E-06,0.000
-6.760E-06,0.000
-6.750E-06,0.000
-6.740E-06,0.000
-6.730E-06,0.004
-6.720E-06,0.004
-6.710E-06,0.008
-6.700E-06,0.008
-6.690E-06,0.004
-6.680E-06,0.004
-6.670E-06,0.004
-6.660E-06,-0.004
-6.650E-06,0.004
-6.640E-06,0.008
-6.630E-06,0.012
-6.620E-06,0.008
-6.610E-06,0.008
-6.600E-06,-0.008
-6.590E-06,0.000
-6.580E-06,-0.004
-6.570E-06,0.004
-6.560E-06,0.012
-6.550E-06,0.012
-6.540E-06,0.012
-6.530E-06,0.004
-6.520E-06,-0.004
-6.510E-06,-0.004
-6.500E-06,0.000
-6.490E-06,0.000
-6.480E-06,0.008
-6.470E-06,0.012
-6.460E-06,0.012
-6.450E-06,0.008
-6.440E-06,-0.004
-6.430E-06,0.000
-6.420E-06,-0.004
-6.410E-06,0.000
-6.400E-06,0.008
-6.390E-06,0.012
-6.380E-06,0.012
-6.370E-06,0.008
-6.360E-06,0.004
-6.350E-06,-0.004
-6.340E-06,-0.004
-6.330E-06,-0.004
-6.320E-06,0.004
-6.310E-06,0.012
-6.300E-06,0.008
-6.290E-06,0.008
-6.280E-06,0.008
-6.270E-06,0.008
-6.260E-06,0.004
-6.250E-06,0.000
-6.240E-06,-0.008
-6.230E-06,0.008
-6.220E-06,0.016
-6.210E-06,0.016
-6.200E-06,0.008
-6.190E-06,0.004
-6.180E-06,0.012
-6.170E-06,0.008
-6.160E-06,0.004
-6.150E-06,0.000
-6.140E-06,-0.004
-6.130E-06,-0.004
-6.120E-06,0.008
-6.110E-06,0.024
-6.100E-06,0.020
-6.090E-06,0.008
-6.080E-06,-0.004
-6.070E-06,-0.020
-6.060E-06,-0.044
-6.050E-06,-0.036
-6.040E-06,-0.012
-6.030E-06,0.016
-6.020E-06,0.020
-6.010E-06,0.032
-6.000E-06,0.024
-5.990E-06,0.008
-5.980E-06,-0.016
-5.970E-06,-0.052
-5.960E-06,-0.044
-5.950E-06,-0.008
-5.940E-06,0.040
-5.930E-06,0.060
-5.920E-06,0.044
-5.910E-06,0.008
-5.900E-06,-0.040
-5.890E-06,-0.060
-5.880E-06,-0.040
-5.870E-06,0.000
-5.860E-06,0.040
-5.850E-06,0.060
-5.840E-06,0.032
-5.830E-06,-0.004
-5.820E-06,-0.036
-5.810E-06,-0.036
-5.800E-06,-0.020
-5.790E-06,0.012
-5.780E-06,0.040
-5.770E-06,0.040
-5.760E-06,0.016
-5.750E-06,-0.004
-5.740E-06,-0.020
-5.730E-06,-0.020
-5.720E-06,-0.008
-5.710E-06,0.008
-5.700E-06,0.024
-5.690E-06,0.020
-5.680E-06,0.016
-5.670E-06,0.000
-5.660E-06,-0.004
-5.650E-06,-0.012
-5.640E-06,-0.004
-5.630E-06,0.000
-5.620E-06,0.008
-5.610E-06,0.024
-5.600E-06,0.024
-5.590E-06,0.008
-5.580E-06,-0.012
-5.570E-06,-0.016
-5.560E-06,-0.012
-5.550E-06,0.000
-5.540E-06,0.020
-5.530E-06,0.020
-5.520E-06,0.024
-5.510E-06,0.012
-5.500E-06,-0.012
-5.490E-06,-0.016
-5.480E-06,-0.012
-5.470E-06,0.000
-5.460E-06,0.016
-5.450E-06,0.024
-5.440E-06,0.024
-5.430E-06,0.008
-5.420E-06,-0.008
-5.410E-06,-0.008
-5.400E-06,-0.008
-5.390E-06,-0.004
-5.380E-06,0.008
-5.370E-06,0.016
-5.360E-06,0.020
-5.350E-06,0.016
-5.340E-06,0.000
-5.330E-06,-0.004
-5.320E-06,-0.008
-5.310E-06,-0.008
-5.300E-06,-0.004
-5.290E-06,0.012
-5.280E-06,0.020
-5.270E-06,0.024
-5.260E-06,0.012
-5.250E-06,0.000
-5.240E-06,-0.008
-5.230E-06,-0.008
-5.220E-06,-0.004
-5.210E-06,0.008
-5.200E-06,0.016
-5.190E-06,0.016
-5.180E-06,0.012
-5.170E-06,0.000
-5.160E-06,-0.008
-5.150E-06,-0.008
-5.140E-06,-0.008
-5.130E-06,0.000
-5.120E-06,0.012
-5.110E-06,0.012
-5.100E-06,0.012
-5.090E-06,0.008
-5.080E-06,-0.008
-5.070E-06,-0.012
-5.060E-06,-0.012
-5.050E-06,0.004
-5.040E-06,0.008
-5.030E-06,0.016
-5.020E-06,0.012
-5.010E-06,0.004
-5.000E-06,-0.004
-4.990E-06,0.000
-4.980E-06,-0.004
-4.970E-06,0.000
-4.960E-06,0.008
-4.950E-06,0.008
-4.940E-06,0.012
-4.930E-06,0.004
-4.920E-06,0.004
-4.910E-06,0.004
-4.900E-06,0.000
-4.890E-06,0.000
-4.880E-06,0.004
-4.870E-06,0.008
-4.860E-06,0.004
-4.850E-06,0.008
-4.840E-06,0.012
-4.830E-06,0.012
-4.820E-06,0.004
-4.810E-06,0.004
-4.800E-06,0.008
-4.790E-06,0.012
-4.780E-06,0.020
-4.770E-06,0.016
-4.760E-06,0.004
-4.750E-06,-0.008
-4.740E-06,-0.020
-4.730E-06,-0.028
-4.720E-06,-0.012
-4.710E-06,0.016
-4.700E-06,0.028
-4.690E-06,0.028
-4.680E-06,0.012
-4.670E-06,-0.012
-4.660E-06,-0.036
-4.650E-06,-0.032
-4.640E-06,-0.012
-4.630E-06,0.024
-4.620E-06,0.036
-4.610E-06,0.024
-4.600E-06,0.004
-4.590E-06,-0.012
-4.580E-06,-0.020
-4.570E-06,-0.020
-4.560E-06,0.000
-4.550E-06,0.016
-4.540E-06,0.020
-4.530E-06,0.016
-4.520E-06,0.004
-4.510E-06,-0.004
-4.500E-06,-0.004
-4.490E-06,-0.004
-4.480E-06,0.000
-4.470E-06,0.008
-4.460E-06,0.016
-4.450E-06,0.008
-4.440E-06,0.000
-4.430E-06,-0.012
-4.420E-06,-0.016
-4.410E-06,-0.004
-4.400E-06,0.008
-4.390E-06,0.024
-4.380E-06,0.024
-4.370E-06,0.012
-4.360E-06,-0.012
-4.350E-06,-0.016
-4.340E-06,-0.012
-4.330E-06,0.004
-4.320E-06,0.016
-4.310E-06,0.024
-4.300E-06,0.012
-4.290E-06,-0.004
-4.280E-06,-0.012
-4.270E-06,-0.016
-4.260E-06,0.000
-4.250E-06,0.000
-4.240E-06,0.012
-4.230E-06,0.016
-4.220E-06,0.008
-4.210E-06,0.008
-4.200E-06,-0.004
-4.190E-06,-0.008
-4.180E-06,-0.004
-4.170E-06,-0.004
-4.160E-06,0.004
-4.150E-06,0.012
-4.140E-06,0.016
-4.130E-06,0.012
-4.120E-06,0.004
-4.110E-06,-0.008
-4.100E-06,0.000
-4.090E-06,0.000
-4.080E-06,0.004
-4.070E-06,0.008
-4.060E-06,0.008
-4.050E-06,0.008
-4.040E-06,0.000
-4.030E-06,-0.004
-4.020E-06,-0.004
-4.010E-06,-0.004
-4.000E-06,0.004
-3.990E-06,0.000
-3.980E-06,0.008
-3.970E-06,0.004
-3.960E-06,0.000
-3.950E-06,0.000
-3.940E-06,-0.004
-3.930E-06,0.000
-3.920E-06,0.008
-3.910E-06,0.008
-3.900E-06,0.012
-3.890E-06,0.004
-3.880E-06,0.004
-3.870E-06,0.004
-3.860E-06,0.000
-3.850E-06,-0.004
-3.840E-06,0.000
-3.830E-06,0.004
-3.820E-06,0.008
-3.810E-06,0.000
-3.800E-06,0.004
-3.790E-06,0.004
-3.780E-06,0.004
-3.770E-06,0.008
-3.760E-06,0.008
-3.750E-06,-0.004
-3.740E-06,0.004
-3.730E-06,0.004
-3.720E-06,0.004
-3.710E-06,0.004
-3.700E-06,0.004
-3.690E-06,0.000
-3.680E-06,-0.004
-3.670E-06,0.000
-3.660E-06,0.000
-3.650E-06,0.004
-3.640E-06,0.000
-3.630E-06,0.000
-3.620E-06,0.004
-3.610E-06,0.008
-3.600E-06,0.004
-3.590E-06,-0.004
-3.580E-06,0.000
-3.570E-06,0.004
-3.560E-06,0.000
-3.550E-06,0.008
-3.540E-06,0.012
-3.530E-06,0.008
-3.520E-06,-0.004
-3.510E-06,0.000
-3.500E-06,0.000
-3.490E-06,0.008
-3.480E-06,0.008
-3.470E-06,0.004
-3.460E-06,0.008
-3.450E-06,0.004
-3.440E-06,0.004
-3.430E-06,0.000
-3.420E-06,0.004
-3.410E-06,0.004
-3.400E-06,0.004
-3.390E-06,0.004
-3.380E-06,0.008
-3.370E-06,0.000
-3.360E-06,0.000
-3.350E-06,0.004
-3.340E-06,0.004
-3.330E-06,0.004
-3.320E-06,0.004
-3.310E-06,0.004
-3.300E-06,0.004
-3.290E-06,0.004
-3.280E-06,0.004
-3.270E-06,0.004
-3.260E-06,0.004
-3.250E-06,0.004
-3.240E-06,0.004
-3.230E-06,0.004
-3.220E-06,0.008
-3.210E-06,0.008
-3.200E-06,0.000
-3.190E-06,0.000
-3.180E-06,0.004
-3.170E-06,0.000
-3.160E-06,0.008
-3.150E-06,0.008
-3.140E-06,0.008
-3.130E-06,0.008
-3.120E-06,0.008
-3.110E-06,0.004
-3.100E-06,0.004
-3.090E-06,0.008
-3.080E-06,0.004
-3.070E-06,0.008
-3.060E-06,0.008
-3.050E-06,0.004
-3.040E-06,0.008
-3.030E-06,0.012
-3.020E-06,0.012
-3.010E-06,0.012
-3.000E-06,0.004
-2.990E-06,0.008
-2.980E-06,0.012
-2.970E-06,0.012
-2.960E-06,0.012
-2.950E-06,0.012
-2.940E-06,0.012
-2.930E-06,0.016
-2.920E-06,0.020
-2.910E-06,0.024
-2.900E-06,0.024
-2.890E-06,0.028
-2.880E-06,0.024
-2.870E-06,0.020
-2.860E-06,0.020
-2.850E-06,0.020
-2.840E-06,0.028
-2.830E-06,0.044
-2.820E-06,0.048
-2.810E-06,0.052
-2.800E-06,0.036
-2.790E-06,0.016
-2.780E-06,0.004
-2.770E-06,-0.004
-2.760E-06,0.000
-2.750E-06,0.008
-2.740E-06,0.008
-2.730E-06,-0.004
-2.720E-06,0.008
-2.710E-06,0.008
-2.700E-06,0.028
-2.690E-06,0.044
-2.680E-06,0.032
-2.670E-06,0.016
-2.660E-06,0.000
-2.650E-06,-0.004
-2.640E-06,0.000
-2.630E-06,-0.012
-2.620E-06,-0.036
-2.610E-06,-0.104
-2.600E-06,-0.164
-2.590E-06,-0.160
-2.580E-06,-0.084
-2.570E-06,0.056
-2.560E-06,0.148
-2.550E-06,0.152
-2.540E-06,0.056
-2.530E-06,-0.036
-2.520E-06,-0.124
-2.510E-06,-0.136
-2.500E-06,-0.052
-2.490E-06,0.064
-2.480E-06,0.144
-2.470E-06,0.136
-2.460E-06,0.072
-2.450E-06,-0.032
-2.440E-06,-0.092
-2.430E-06,-0.088
-2.420E-06,-0.024
-2.410E-06,0.060
-2.400E-06,0.112
-2.390E-06,0.104
-2.380E-06,0.072
-2.370E-06,0.028
-2.360E-06,-0.012
-2.350E-06,-0.020
-2.340E-06,0.000
-2.330E-06,0.020
-2.320E-06,0.044
-2.310E-06,0.072
-2.300E-06,0.080
-2.290E-06,0.068
-2.280E-06,0.036
-2.270E-06,-0.004
-2.260E-06,-0.036
-2.250E-06,-0.044
-2.240E-06,-0.020
-2.230E-06,0.012
-2.220E-06,0.052
-2.210E-06,0.072
-2.200E-06,0.072
-2.190E-06,0.048
-2.180E-06,0.016
-2.170E-06,-0.004
-2.160E-06,-0.004
-2.150E-06,0.012
-2.140E-06,0.028
-2.130E-06,0.032
-2.120E-06,0.024
-2.110E-06,0.008
-2.100E-06,-0.012
-2.090E-06,-0.012
-2.080E-06,-0.004
-2.070E-06,0.028
-2.060E-06,0.060
-2.050E-06,0.064
-2.040E-06,0.036
-2.030E-06,-0.004
-2.020E-06,-0.032
-2.010E-06,-0.032
-2.000E-06,-0.008
-1.990E-06,0.044
-1.980E-06,0.084
-1.970E-06,0.088
-1.960E-06,0.060
-1.950E-06,0.024
-1.940E-06,-0.028
-1.930E-06,-0.092
-1.920E-06,-0.108
-1.910E-06,-0.088
-1.900E-06,-0.060
-1.890E-06,0.000
-1.880E-06,0.044
-1.870E-06,0.072
-1.860E-06,0.032
-1.850E-06,-0.008
-1.840E-06,-0.052
-1.830E-06,-0.048
-1.820E-06,-0.008
-1.810E-06,0.052
-1.800E-06,0.088
-1.790E-06,0.084
-1.780E-06,0.048
-1.770E-06,-0.004
-1.760E-06,-0.040
-1.750E-06,-0.040
-1.740E-06,0.008
-1.730E-06,0.056
-1.720E-06,0.088
-1.710E-06,0.096
-1.700E-06,0.084
-1.690E-06,0.008
-1.680E-06,-0.044
-1.670E-06,-0.080
-1.660E-06,-0.144
-1.650E-06,-0.176
-1.640E-06,-0.136
-1.630E-06,-0.036
-1.620E-06,0.028
-1.610E-06,0.084
-1.600E-06,0.092
-1.590E-06,0.056
-1.580E-06,0.004
-1.570E-06,-0.008
-1.560E-06,0.000
-1.550E-06,0.004
-1.540E-06,0.048
-1.530E-06,0.076
-1.520E-06,0.092
-1.510E-06,0.092
-1.500E-06,0.072
-1.490E-06,0.060
-1.480E-06,0.060
-1.470E-06,0.084
-1.460E-06,0.108
-1.450E-06,0.128
-1.440E-06,0.128
-1.430E-06,0.080
-1.420E-06,0.032
-1.410E-06,-0.004
-1.400E-06,-0.020
-1.390E-06,-0.008
-1.380E-06,0.056
-1.370E-06,0.076
-1.360E-06,0.076
-1.350E-06,0.052
-1.340E-06,0.012
-1.330E-06,-0.016
-1.320E-06,-0.020
-1.310E-06,-0.040
-1.300E-06,-0.188
-1.290E-06,-0.336
-1.280E-06,-0.408
-1.270E-06,-0.300
-1.260E-06,-0.048
-1.250E-06,0.260
-1.240E-06,0.408
-1.230E-06,0.356
-1.220E-06,0.132
-1.210E-06,-0.112
-1.200E-06,-0.224
-1.190E-06,-0.232
-1.180E-06,-0.208
-1.170E-06,-0.176
-1.160E-06,-0.132
-1.150E-06,-0.008
-1.140E-06,0.052
-1.130E-06,0.100
-1.120E-06,0.140
-1.110E-06,0.088
-1.100E-06,0.004
-1.090E-06,-0.112
-1.080E-06,-0.076
-1.070E-06,0.056
-1.060E-06,0.200
-1.050E-06,0.256
-1.040E-06,0.220
-1.030E-06,0.104
-1.020E-06,-0.016
-1.010E-06,-0.092
-1.000E-06,-0.168
-9.900E-07,-0.188
-9.800E-07,-0.156
-9.700E-07,-0.064
-9.600E-07,0.044
-9.500E-07,0.164
-9.400E-07,0.220
-9.300E-07,0.188
-9.200E-07,0.060
-9.100E-07,-0.096
-9.000E-07,-0.152
-8.900E-07,-0.148
-8.800E-07,-0.124
-8.700E-07,-0.144
-8.600E-07,-0.044
-8.500E-07,-0.044
-8.400E-07,-0.040
-8.300E-07,-0.072
-8.200E-07,-0.044
-8.100E-07,0.044
-8.000E-07,0.056
-7.900E-07,0.076
-7.800E-07,0.036
-7.700E-07,0.036
-7.600E-07,0.012
-7.500E-07,0.056
-7.400E-07,0.052
-7.300E-07,0.060
-7.200E-07,0.068
-7.100E-07,0.096
-7.000E-07,0.104
-6.900E-07,0.100
-6.800E-07,0.120
-6.700E-07,0.108
-6.600E-07,0.124
-6.500E-07,0.108
-6.400E-07,0.104
-6.300E-07,0.040
-6.200E-07,-0.004
-6.100E-07,-0.080
-6.000E-07,-0.104
-5.900E-07,-0.100
-5.800E-07,-0.056
-5.700E-07,0.012
-5.600E-07,0.064
-5.500E-07,0.092
-5.400E-07,0.052
-5.300E-07,0.016
-5.200E-07,-0.016
-5.100E-07,0.000
-5.000E-07,0.012
-4.900E-07,0.044
-4.800E-07,0.044
-4.700E-07,0.020
-4.600E-07,-0.012
-4.500E-07,-0.056
-4.400E-07,-0.064
-4.300E-07,-0.064
-4.200E-07,-0.020
-4.100E-07,0.056
-4.000E-07,0.080
-3.900E-07,0.072
-3.800E-07,0.052
-3.700E-07,0.036
-3.600E-07,-0.004
-3.500E-07,0.008
-3.400E-07,0.068
-3.300E-07,0.140
-3.200E-07,0.180
-3.100E-07,0.184
-3.000E-07,0.140
-2.900E-07,0.112
-2.800E-07,0.084
-2.700E-07,0.072
-2.600E-07,0.092
-2.500E-07,0.092
-2.400E-07,0.100
-2.300E-07,0.072
-2.200E-07,0.056
-2.100E-07,0.028
-2.000E-07,0.028
-1.900E-07,0.072
-1.800E-07,0.128
-1.700E-07,0.184
-1.600E-07,0.160
-1.500E-07,0.056
-1.400E-07,-0.096
-1.300E-07,-0.240
-1.200E-07,-0.288
-1.100E-07,-0.208
-1.000E-07,-0.032
-9.000E-08,0.160
-8.000E-08,0.280
-7.000E-08,0.188
-6.000E-08,-0.136
-5.000E-08,-0.512
-4.000E-08,-0.508
-3.000E-08,-0.512
-2.000E-08,-0.272
-1.000E-08,0.284
0.000E+00,0.540
1.000E-08,0.536
2.000E-08,0.204
3.000E-08,-0.236
4.000E-08,-0.452
5.000E-08,-0.372
6.000E-08,-0.072
7.000E-08,0.160
8.000E-08,0.260
9.000E-08,0.144
1.000E-07,-0.140
1.100E-07,-0.348
1.200E-07,-0.368
1.300E-07,-0.208
1.400E-07,-0.008
1.500E-07,0.204
1.600E-07,0.288
1.700E-07,0.312
1.800E-07,0.156
1.900E-07,0.012
2.000E-07,-0.052
2.100E-07,-0.052
2.200E-07,-0.044
2.300E-07,-0.040
2.400E-07,-0.124
2.500E-07,-0.224
2.600E-07,-0.204
2.700E-07,-0.132
2.800E-07,-0.008
2.900E-07,0.048
3.000E-07,0.060
3.100E-07,-0.012
3.200E-07,-0.052
3.300E-07,-0.092
3.400E-07,-0.056
3.500E-07,0.040
3.600E-07,0.132
3.700E-07,0.184
3.800E-07,0.144
3.900E-07,0.096
4.000E-07,0.024
4.100E-07,0.028
4.200E-07,0.072
4.300E-07,0.160
4.400E-07,0.224
4.500E-07,0.232
4.600E-07,0.196
4.700E-07,0.124
4.800E-07,0.044
4.900E-07,0.012
5.000E-07,0.028
5.100E-07,0.076
5.200E-07,0.096
5.300E-07,0.056
5.400E-07,-0.020
5.500E-07,-0.104
5.600E-07,-0.140
5.700E-07,-0.112
5.800E-07,-0.040
5.900E-07,0.036
6.000E-07,0.056
6.100E-07,0.016
6.200E-07,-0.060
6.300E-07,-0.120
6.400E-07,-0.132
6.500E-07,-0.100
6.600E-07,-0.016
6.700E-07,0.072
6.800E-07,0.112
6.900E-07,0.096
7.000E-07,0.044
7.100E-07,0.016
7.200E-07,0.008
7.300E-07,0.040
7.400E-07,0.080
7.500E-07,0.124
7.600E-07,0.128
7.700E-07,0.096
7.800E-07,0.052
7.900E-07,0.008
8.000E-07,-0.004
8.100E-07,0.020
8.200E-07,0.060
8.300E-07,0.076
8.400E-07,0.100
8.500E-07,0.100
8.600E-07,0.096
8.700E-07,0.092
8.800E-07,0.108
8.900E-07,0.132
9.000E-07,0.172
9.100E-07,0.204
9.200E-07,0.216
9.300E-07,0.196
9.400E-07,0.164
9.500E-07,0.144
9.600E-07,0.132
9.700E-07,0.140
9.800E-07,0.160
9.900E-07,0.188
1.000E-06,0.196
1.010E-06,0.176
1.020E-06,0.152
1.030E-06,0.132
1.040E-06,0.120
1.050E-06,0.124
1.060E-06,0.132
1.070E-06,0.148
1.080E-06,0.156
1.090E-06,0.156
1.100E-06,0.152
1.110E-06,0.140
1.120E-06,0.128
1.130E-06,0.140
1.140E-06,0.152
1.150E-06,0.160
1.160E-06,0.168
1.170E-06,0.160
1.180E-06,0.152
1.190E-06,0.140
1.200E-06,0.128
1.210E-06,0.140
1.220E-06,0.148
1.230E-06,0.136
1.240E-06,0.124
1.250E-06,0.108
1.260E-06,0.100
1.270E-06,0.128
1.280E-06,0.156
1.290E-06,0.152
1.300E-06,0.124
1.310E-06,0.040
1.320E-06,0.012
1.330E-06,0.024
1.340E-06,0.080
1.350E-06,0.160
1.360E-06,0.192
1.370E-06,0.140
1.380E-06,0.068
1.390E-06,0.032
1.400E-06,0.036
1.410E-06,0.044
1.420E-06,-0.008
1.430E-06,-0.168
1.440E-06,-0.412
1.450E-06,-0.508
1.460E-06,-0.508
1.470E-06,-0.512
1.480E-06,-0.320
1.490E-06,-0.104
1.500E-06,0.136
1.510E-06,0.320
1.520E-06,0.340
1.530E-06,0.220
1.540E-06,0.052
1.550E-06,-0.120
1.560E-06,-0.344
1.570E-06,-0.368
1.580E-06,-0.176
1.590E-06,0.136
1.600E-06,0.344
1.610E-06,0.356
1.620E-06,0.072
1.630E-06,-0.284
1.640E-06,-0.512
1.650E-06,-0.508
1.660E-06,-0.508
1.670E-06,-0.240
1.680E-06,0.012
1.690E-06,0.120
1.700E-06,0.056
1.710E-06,-0.112
1.720E-06,-0.232
1.730E-06,-0.268
1.740E-06,-0.136
1.750E-06,0.108
1.760E-06,0.384
1.770E-06,0.540
1.780E-06,0.524
1.790E-06,0.292
1.800E-06,0.024
1.810E-06,-0.120
1.820E-06,-0.088
1.830E-06,0.100
1.840E-06,0.304
1.850E-06,0.420
1.860E-06,0.392
1.870E-06,0.260
1.880E-06,0.084
1.890E-06,-0.028
1.900E-06,-0.036
1.910E-06,0.068
1.920E-06,0.240
1.930E-06,0.360
1.940E-06,0.388
1.950E-06,0.296
1.960E-06,0.160
1.970E-06,0.048
1.980E-06,0.012
1.990E-06,0.076
2.000E-06,0.196
2.010E-06,0.296
2.020E-06,0.340
2.030E-06,0.284
2.040E-06,0.184
2.050E-06,0.076
2.060E-06,0.024
2.070E-06,0.064
2.080E-06,0.136
2.090E-06,0.220
2.100E-06,0.252
2.110E-06,0.208
2.120E-06,0.124
2.130E-06,0.028
2.140E-06,-0.016
2.150E-06,0.004
2.160E-06,0.072
2.170E-06,0.152
2.180E-06,0.200
2.190E-06,0.196
2.200E-06,0.168
2.210E-06,0.124
2.220E-06,0.104
2.230E-06,0.124
2.240E-06,0.160
2.250E-06,0.200
2.260E-06,0.224
2.270E-06,0.212
2.280E-06,0.168
2.290E-06,0.128
2.300E-06,0.100
2.310E-06,0.096
2.320E-06,0.124
2.330E-06,0.144
2.340E-06,0.144
2.350E-06,0.108
2.360E-06,0.052
2.370E-06,-0.008
2.380E-06,-0.024
2.390E-06,-0.004
2.400E-06,0.048
2.410E-06,0.116
2.420E-06,0.152
2.430E-06,0.140
2.440E-06,0.092
2.450E-06,0.064
2.460E-06,0.060
2.470E-06,0.084
2.480E-06,0.132
2.490E-06,0.176
2.500E-06,0.196
2.510E-06,0.196
2.520E-06,0.188
2.530E-06,0.164
2.540E-06,0.136
2.550E-06,0.132
2.560E-06,0.136
2.570E-06,0.168
2.580E-06,0.200
2.590E-06,0.212
2.600E-06,0.204
2.610E-06,0.180
2.620E-06,0.156
2.630E-06,0.140
2.640E-06,0.144
2.650E-06,0.152
2.660E-06,0.176
2.670E-06,0.196
2.680E-06,0.192
2.690E-06,0.180
2.700E-06,0.152
2.710E-06,0.144
2.720E-06,0.136
2.730E-06,0.144
2.740E-06,0.160
2.750E-06,0.180
2.760E-06,0.180
2.770E-06,0.172
2.780E-06,0.160
2.790E-06,0.148
2.800E-06,0.144
2.810E-06,0.152
2.820E-06,0.168
2.830E-06,0.172
2.840E-06,0.184
2.850E-06,0.180
2.860E-06,0.172
2.870E-06,0.160
2.880E-06,0.152
2.890E-06,0.148
2.900E-06,0.156
2.910E-06,0.176
2.920E-06,0.176
2.930E-06,0.176
2.940E-06,0.172
2.950E-06,0.160
2.960E-06,0.156
2.970E-06,0.152
2.980E-06,0.156
2.990E-06,0.164
3.000E-06,0.164
3.010E-06,0.172
3.020E-06,0.172
3.030E-06,0.160
3.040E-06,0.152
3.050E-06,0.148
3.060E-06,0.148
3.070E-06,0.152
3.080E-06,0.152
3.090E-06,0.156
3.100E-06,0.152
3.110E-06,0.152
3.120E-06,0.144
3.130E-06,0.144
3.140E-06,0.140
3.150E-06,0.144
3.160E-06,0.144
3.170E-06,0.148
3.180E-06,0.152
3.190E-06,0.152
3.200E-06,0.148
3.210E-06,0.140
3.220E-06,0.144
3.230E-06,0.144
3.240E-06,0.140
3.250E-06,0.148
3.260E-06,0.152
3.270E-06,0.164
3.280E-06,0.156
3.290E-06,0.156
3.300E-06,0.152
3.310E-06,0.144
3.320E-06,0.148
