mediciones/Mediciones filtradas (saque las feas)/5-15/32.5/WaveData47099.csv

#timebase=2000000(ps)
,#voltbase=2000000(mv/100)
#size=4000
-8.400E-06,0.000
-8.390E-06,0.000
-8.380E-06,0.080
-8.370E-06,0.000
-8.360E-06,0.080
-8.350E-06,0.240
-8.340E-06,0.160
-8.330E-06,0.080
-8.320E-06,0.160
-8.310E-06,0.080
-8.300E-06,0.160
-8.290E-06,0.160
-8.280E-06,0.080
-8.270E-06,0.160
-8.260E-06,0.320
-8.250E-06,0.240
-8.240E-06,0.400
-8.230E-06,0.400
-8.220E-06,0.320
-8.210E-06,0.240
-8.200E-06,0.080
-8.190E-06,0.160
-8.180E-06,0.240
-8.170E-06,0.080
-8.160E-06,0.080
-8.150E-06,-0.160
-8.140E-06,-0.160
-8.130E-06,-0.160
-8.120E-06,0.080
-8.110E-06,-0.080
-8.100E-06,0.000
-8.090E-06,-0.080
-8.080E-06,-0.080
-8.070E-06,-0.080
-8.060E-06,-0.080
-8.050E-06,0.000
-8.040E-06,0.000
-8.030E-06,0.000
-8.020E-06,0.000
-8.010E-06,0.000
-8.000E-06,0.000
-7.990E-06,0.000
-7.980E-06,0.000
-7.970E-06,0.000
-7.960E-06,0.000
-7.950E-06,0.000
-7.940E-06,0.080
-7.930E-06,0.080
-7.920E-06,0.080
-7.910E-06,0.000
-7.900E-06,0.080
-7.890E-06,0.080
-7.880E-06,0.080
-7.870E-06,0.080
-7.860E-06,0.240
-7.850E-06,0.160
-7.840E-06,0.000
-7.830E-06,0.080
-7.820E-06,0.000
-7.810E-06,0.000
-7.800E-06,-0.080
-7.790E-06,0.000
-7.780E-06,-0.080
-7.770E-06,0.000
-7.760E-06,0.000
-7.750E-06,0.000
-7.740E-06,0.000
-7.730E-06,0.000
-7.720E-06,-0.080
-7.710E-06,0.000
-7.700E-06,0.080
-7.690E-06,0.160
-7.680E-06,0.080
-7.670E-06,0.000
-7.660E-06,0.080
-7.650E-06,0.080
-7.640E-06,0.160
-7.630E-06,0.080
-7.620E-06,0.160
-7.610E-06,0.000
-7.600E-06,0.160
-7.590E-06,0.160
-7.580E-06,0.080
-7.570E-06,0.080
-7.560E-06,0.080
-7.550E-06,0.160
-7.540E-06,0.080
-7.530E-06,0.080
-7.520E-06,0.080
-7.510E-06,-0.080
-7.500E-06,-0.080
-7.490E-06,0.000
-7.480E-06,0.080
-7.470E-06,0.080
-7.460E-06,-0.080
-7.450E-06,-0.080
-7.440E-06,0.000
-7.430E-06,-0.080
-7.420E-06,0.000
-7.410E-06,-0.080
-7.400E-06,-0.080
-7.390E-06,0.000
-7.380E-06,-0.080
-7.370E-06,0.000
-7.360E-06,-0.080
-7.350E-06,0.000
-7.340E-06,0.000
-7.330E-06,0.000
-7.320E-06,0.000
-7.310E-06,0.080
-7.300E-06,0.160
-7.290E-06,0.000
-7.280E-06,0.000
-7.270E-06,0.080
-7.260E-06,0.160
-7.250E-06,0.160
-7.240E-06,0.160
-7.230E-06,0.240
-7.220E-06,0.160
-7.210E-06,0.000
-7.200E-06,-0.080
-7.190E-06,0.080
-7.180E-06,0.080
-7.170E-06,0.000
-7.160E-06,0.080
-7.150E-06,0.160
-7.140E-06,0.000
-7.130E-06,0.000
-7.120E-06,0.080
-7.110E-06,0.000
-7.100E-06,0.080
-7.090E-06,0.000
-7.080E-06,0.000
-7.070E-06,0.000
-7.060E-06,-0.080
-7.050E-06,0.080
-7.040E-06,0.080
-7.030E-06,-0.080
-7.020E-06,-0.080
-7.010E-06,-0.240
-7.000E-06,-0.160
-6.990E-06,-0.400
-6.980E-06,-0.240
-6.970E-06,-0.160
-6.960E-06,-0.240
-6.950E-06,-0.160
-6.940E-06,-0.080
-6.930E-06,-0.160
-6.920E-06,-0.240
-6.910E-06,-0.240
-6.900E-06,-0.160
-6.890E-06,-0.080
-6.880E-06,-0.080
-6.870E-06,-0.080
-6.860E-06,-0.080
-6.850E-06,-0.080
-6.840E-06,-0.080
-6.830E-06,0.000
-6.820E-06,0.080
-6.810E-06,0.000
-6.800E-06,0.000
-6.790E-06,-0.080
-6.780E-06,0.080
-6.770E-06,0.080
-6.760E-06,0.160
-6.750E-06,0.160
-6.740E-06,0.080
-6.730E-06,0.160
-6.720E-06,0.320
-6.710E-06,0.320
-6.700E-06,0.080
-6.690E-06,0.240
-6.680E-06,0.320
-6.670E-06,0.160
-6.660E-06,0.080
-6.650E-06,0.160
-6.640E-06,0.240
-6.630E-06,0.160
-6.620E-06,0.160
-6.610E-06,0.160
-6.600E-06,0.240
-6.590E-06,0.080
-6.580E-06,0.000
-6.570E-06,0.160
-6.560E-06,0.240
-6.550E-06,0.160
-6.540E-06,-0.080
-6.530E-06,0.000
-6.520E-06,-0.080
-6.510E-06,-0.080
-6.500E-06,-0.080
-6.490E-06,-0.080
-6.480E-06,0.240
-6.470E-06,0.000
-6.460E-06,0.320
-6.450E-06,0.000
-6.440E-06,0.000
-6.430E-06,0.000
-6.420E-06,-0.080
-6.410E-06,-0.080
-6.400E-06,-0.240
-6.390E-06,-0.160
-6.380E-06,-0.160
-6.370E-06,-0.240
-6.360E-06,-0.240
-6.350E-06,-0.240
-6.340E-06,-0.240
-6.330E-06,-0.080
-6.320E-06,-0.080
-6.310E-06,-0.160
-6.300E-06,-0.160
-6.290E-06,0.000
-6.280E-06,0.000
-6.270E-06,0.000
-6.260E-06,0.000
-6.250E-06,0.080
-6.240E-06,-0.080
-6.230E-06,-0.080
-6.220E-06,0.080
-6.210E-06,0.000
-6.200E-06,0.080
-6.190E-06,0.080
-6.180E-06,0.240
-6.170E-06,0.080
-6.160E-06,0.080
-6.150E-06,0.160
-6.140E-06,0.080
-6.130E-06,0.240
-6.120E-06,0.080
-6.110E-06,0.240
-6.100E-06,0.160
-6.090E-06,0.240
-6.080E-06,0.240
-6.070E-06,0.240
-6.060E-06,0.160
-6.050E-06,0.240
-6.040E-06,0.000
-6.030E-06,-0.080
-6.020E-06,0.000
-6.010E-06,0.000
-6.000E-06,0.000
-5.990E-06,0.000
-5.980E-06,0.080
-5.970E-06,0.080
-5.960E-06,0.000
-5.950E-06,0.000
-5.940E-06,0.080
-5.930E-06,0.080
-5.920E-06,0.000
-5.910E-06,0.000
-5.900E-06,0.000
-5.890E-06,0.000
-5.880E-06,0.000
-5.870E-06,0.080
-5.860E-06,0.160
-5.850E-06,0.160
-5.840E-06,0.080
-5.830E-06,0.240
-5.820E-06,-0.080
-5.810E-06,-0.080
-5.800E-06,-0.080
-5.790E-06,-0.080
-5.780E-06,-0.080
-5.770E-06,0.000
-5.760E-06,-0.160
-5.750E-06,-0.320
-5.740E-06,-0.160
-5.730E-06,-0.160
-5.720E-06,-0.160
-5.710E-06,-0.240
-5.700E-06,-0.160
-5.690E-06,-0.080
-5.680E-06,-0.160
-5.670E-06,0.000
-5.660E-06,0.000
-5.650E-06,-0.080
-5.640E-06,0.000
-5.630E-06,0.000
-5.620E-06,0.000
-5.610E-06,0.000
-5.600E-06,0.000
-5.590E-06,0.080
-5.580E-06,0.080
-5.570E-06,0.080
-5.560E-06,0.080
-5.550E-06,0.080
-5.540E-06,0.000
-5.530E-06,0.160
-5.520E-06,0.000
-5.510E-06,0.160
-5.500E-06,0.080
-5.490E-06,0.240
-5.480E-06,0.160
-5.470E-06,0.240
-5.460E-06,0.160
-5.450E-06,-0.080
-5.440E-06,0.400
-5.430E-06,0.320
-5.420E-06,0.720
-5.410E-06,0.400
-5.400E-06,0.240
-5.390E-06,0.080
-5.380E-06,-0.080
-5.370E-06,0.080
-5.360E-06,0.160
-5.350E-06,0.080
-5.340E-06,-0.080
-5.330E-06,-0.080
-5.320E-06,-0.320
-5.310E-06,-0.080
-5.300E-06,-0.080
-5.290E-06,-0.080
-5.280E-06,-0.080
-5.270E-06,-0.160
-5.260E-06,-0.240
-5.250E-06,-0.160
-5.240E-06,-0.240
-5.230E-06,-0.160
-5.220E-06,-0.080
-5.210E-06,-0.080
-5.200E-06,0.000
-5.190E-06,-0.080
-5.180E-06,0.000
-5.170E-06,0.080
-5.160E-06,0.160
-5.150E-06,0.160
-5.140E-06,0.160
-5.130E-06,0.000
-5.120E-06,0.000
-5.110E-06,0.080
-5.100E-06,0.160
-5.090E-06,0.160
-5.080E-06,0.240
-5.070E-06,0.160
-5.060E-06,0.080
-5.050E-06,0.160
-5.040E-06,0.240
-5.030E-06,0.160
-5.020E-06,0.080
-5.010E-06,0.080
-5.000E-06,0.000
-4.990E-06,0.000
-4.980E-06,-0.080
-4.970E-06,0.000
-4.960E-06,0.000
-4.950E-06,-0.080
-4.940E-06,0.000
-4.930E-06,0.000
-4.920E-06,0.000
-4.910E-06,0.000
-4.900E-06,0.080
-4.890E-06,0.160
-4.880E-06,-0.080
-4.870E-06,0.000
-4.860E-06,0.080
-4.850E-06,0.160
-4.840E-06,0.160
-4.830E-06,0.240
-4.820E-06,0.080
-4.810E-06,0.160
-4.800E-06,0.080
-4.790E-06,0.080
-4.780E-06,0.240
-4.770E-06,0.080
-4.760E-06,0.160
-4.750E-06,0.160
-4.740E-06,-0.080
-4.730E-06,-0.080
-4.720E-06,-0.240
-4.710E-06,-0.240
-4.700E-06,-0.080
-4.690E-06,-0.160
-4.680E-06,-0.320
-4.670E-06,-0.240
-4.660E-06,-0.400
-4.650E-06,-0.400
-4.640E-06,-0.320
-4.630E-06,-0.320
-4.620E-06,-0.240
-4.610E-06,-0.080
-4.600E-06,-0.160
-4.590E-06,-0.160
-4.580E-06,-0.080
-4.570E-06,-0.080
-4.560E-06,-0.080
-4.550E-06,0.000
-4.540E-06,0.000
-4.530E-06,0.080
-4.520E-06,0.080
-4.510E-06,0.160
-4.500E-06,0.080
-4.490E-06,0.160
-4.480E-06,0.240
-4.470E-06,0.160
-4.460E-06,0.160
-4.450E-06,0.240
-4.440E-06,0.320
-4.430E-06,0.240
-4.420E-06,0.240
-4.410E-06,0.320
-4.400E-06,0.240
-4.390E-06,0.160
-4.380E-06,0.240
-4.370E-06,0.160
-4.360E-06,0.160
-4.350E-06,0.160
-4.340E-06,0.080
-4.330E-06,0.000
-4.320E-06,0.000
-4.310E-06,0.000
-4.300E-06,0.000
-4.290E-06,0.000
-4.280E-06,0.000
-4.270E-06,0.000
-4.260E-06,-0.080
-4.250E-06,0.000
-4.240E-06,0.160
-4.230E-06,0.240
-4.220E-06,0.240
-4.210E-06,0.240
-4.200E-06,0.080
-4.190E-06,-0.080
-4.180E-06,0.080
-4.170E-06,0.080
-4.160E-06,-0.160
-4.150E-06,0.000
-4.140E-06,-0.160
-4.130E-06,-0.160
-4.120E-06,-0.160
-4.110E-06,-0.240
-4.100E-06,-0.160
-4.090E-06,-0.080
-4.080E-06,-0.160
-4.070E-06,-0.080
-4.060E-06,-0.080
-4.050E-06,0.000
-4.040E-06,-0.080
-4.030E-06,-0.080
-4.020E-06,0.000
-4.010E-06,-0.080
-4.000E-06,0.000
-3.990E-06,0.000
-3.980E-06,0.000
-3.970E-06,0.000
-3.960E-06,0.000
-3.950E-06,-0.080
-3.940E-06,0.000
-3.930E-06,0.160
-3.920E-06,0.000
-3.910E-06,0.080
-3.900E-06,0.160
-3.890E-06,0.240
-3.880E-06,0.240
-3.870E-06,0.080
-3.860E-06,0.160
-3.850E-06,0.160
-3.840E-06,0.080
-3.830E-06,0.160
-3.820E-06,0.080
-3.810E-06,0.080
-3.800E-06,0.080
-3.790E-06,0.080
-3.780E-06,0.080
-3.770E-06,-0.080
-3.760E-06,0.000
-3.750E-06,0.000
-3.740E-06,0.080
-3.730E-06,0.160
-3.720E-06,0.160
-3.710E-06,0.160
-3.700E-06,0.000
-3.690E-06,0.000
-3.680E-06,-0.160
-3.670E-06,-0.240
-3.660E-06,-0.160
-3.650E-06,-0.080
-3.640E-06,-0.160
-3.630E-06,-0.240
-3.620E-06,-0.400
-3.610E-06,-0.400
-3.600E-06,-0.240
-3.590E-06,-0.320
-3.580E-06,-0.160
-3.570E-06,-0.240
-3.560E-06,-0.080
-3.550E-06,-0.080
-3.540E-06,-0.080
-3.530E-06,0.000
-3.520E-06,-0.080
-3.510E-06,0.080
-3.500E-06,-0.080
-3.490E-06,0.000
-3.480E-06,0.000
-3.470E-06,0.000
-3.460E-06,0.080
-3.450E-06,0.080
-3.440E-06,0.080
-3.430E-06,0.160
-3.420E-06,0.080
-3.410E-06,0.240
-3.400E-06,0.160
-3.390E-06,0.160
-3.380E-06,0.240
-3.370E-06,0.240
-3.360E-06,0.240
-3.350E-06,0.160
-3.340E-06,0.080
-3.330E-06,0.080
-3.320E-06,0.160
-3.310E-06,0.080
-3.300E-06,-0.160
-3.290E-06,-0.160
-3.280E-06,0.000
-3.270E-06,-0.080
-3.260E-06,-0.080
-3.250E-06,0.000
-3.240E-06,0.160
-3.230E-06,0.160
-3.220E-06,0.240
-3.210E-06,0.160
-3.200E-06,-0.080
-3.190E-06,0.000
-3.180E-06,-0.080
-3.170E-06,-0.080
-3.160E-06,0.000
-3.150E-06,-0.080
-3.140E-06,-0.160
-3.130E-06,-0.160
-3.120E-06,-0.240
-3.110E-06,-0.240
-3.100E-06,-0.160
-3.090E-06,-0.160
-3.080E-06,-0.240
-3.070E-06,-0.320
-3.060E-06,-0.240
-3.050E-06,-0.080
-3.040E-06,-0.160
-3.030E-06,-0.160
-3.020E-06,-0.160
-3.010E-06,-0.080
-3.000E-06,-0.080
-2.990E-06,-0.080
-2.980E-06,0.000
-2.970E-06,0.000
-2.960E-06,0.000
-2.950E-06,0.000
-2.940E-06,0.000
-2.930E-06,0.000
-2.920E-06,0.080
-2.910E-06,0.080
-2.900E-06,0.160
-2.890E-06,0.240
-2.880E-06,0.240
-2.870E-06,0.320
-2.860E-06,0.240
-2.850E-06,0.320
-2.840E-06,0.320
-2.830E-06,0.320
-2.820E-06,0.240
-2.810E-06,0.080
-2.800E-06,0.160
-2.790E-06,0.000
-2.780E-06,0.000
-2.770E-06,-0.080
-2.760E-06,0.000
-2.750E-06,0.000
-2.740E-06,0.000
-2.730E-06,0.000
-2.720E-06,0.000
-2.710E-06,-0.080
-2.700E-06,-0.080
-2.690E-06,0.000
-2.680E-06,-0.160
-2.670E-06,0.000
-2.660E-06,0.080
-2.650E-06,0.000
-2.640E-06,0.240
-2.630E-06,0.000
-2.620E-06,0.000
-2.610E-06,-0.080
-2.600E-06,-0.080
-2.590E-06,0.000
-2.580E-06,-0.240
-2.570E-06,-0.240
-2.560E-06,-0.320
-2.550E-06,-0.240
-2.540E-06,-0.240
-2.530E-06,-0.240
-2.520E-06,-0.240
-2.510E-06,-0.240
-2.500E-06,-0.160
-2.490E-06,-0.080
-2.480E-06,-0.160
-2.470E-06,-0.080
-2.460E-06,0.000
-2.450E-06,-0.080
-2.440E-06,-0.080
-2.430E-06,0.000
-2.420E-06,0.000
-2.410E-06,0.000
-2.400E-06,0.000
-2.390E-06,0.000
-2.380E-06,0.080
-2.370E-06,0.080
-2.360E-06,0.160
-2.350E-06,0.160
-2.340E-06,0.320
-2.330E-06,0.240
-2.320E-06,0.240
-2.310E-06,0.240
-2.300E-06,0.320
-2.290E-06,0.400
-2.280E-06,0.160
-2.270E-06,0.320
-2.260E-06,0.320
-2.250E-06,0.080
-2.240E-06,0.000
-2.230E-06,0.080
-2.220E-06,-0.080
-2.210E-06,0.000
-2.200E-06,0.080
-2.190E-06,0.080
-2.180E-06,0.080
-2.170E-06,-0.080
-2.160E-06,-0.080
-2.150E-06,0.000
-2.140E-06,-0.080
-2.130E-06,-0.080
-2.120E-06,0.000
-2.110E-06,-0.080
-2.100E-06,0.000
-2.090E-06,0.000
-2.080E-06,0.080
-2.070E-06,0.000
-2.060E-06,0.000
-2.050E-06,0.080
-2.040E-06,0.000
-2.030E-06,-0.080
-2.020E-06,-0.080
-2.010E-06,0.000
-2.000E-06,-0.080
-1.990E-06,-0.080
-1.980E-06,-0.080
-1.970E-06,-0.080
-1.960E-06,-0.080
-1.950E-06,-0.160
-1.940E-06,-0.320
-1.930E-06,-0.400
-1.920E-06,-0.240
-1.910E-06,-0.320
-1.900E-06,-0.400
-1.890E-06,-0.480
-1.880E-06,-0.560
-1.870E-06,-0.640
-1.860E-06,-0.480
-1.850E-06,-0.560
-1.840E-06,-0.560
-1.830E-06,-0.480
-1.820E-06,-0.400
-1.810E-06,-0.320
-1.800E-06,-0.400
-1.790E-06,-0.160
-1.780E-06,-0.080
-1.770E-06,0.000
-1.760E-06,-0.080
-1.750E-06,-0.080
-1.740E-06,0.000
-1.730E-06,0.080
-1.720E-06,0.080
-1.710E-06,0.000
-1.700E-06,0.000
-1.690E-06,0.000
-1.680E-06,0.000
-1.670E-06,0.080
-1.660E-06,0.080
-1.650E-06,0.000
-1.640E-06,0.080
-1.630E-06,0.000
-1.620E-06,0.000
-1.610E-06,0.000
-1.600E-06,0.080
-1.590E-06,0.080
-1.580E-06,0.160
-1.570E-06,0.080
-1.560E-06,-0.080
-1.550E-06,-0.080
-1.540E-06,0.000
-1.530E-06,0.000
-1.520E-06,-0.080
-1.510E-06,0.000
-1.500E-06,-0.080
-1.490E-06,-0.160
-1.480E-06,-0.160
-1.470E-06,-0.160
-1.460E-06,-0.240
-1.450E-06,0.000
-1.440E-06,-0.080
-1.430E-06,0.000
-1.420E-06,0.000
-1.410E-06,-0.080
-1.400E-06,0.000
-1.390E-06,-0.080
-1.380E-06,0.000
-1.370E-06,-0.080
-1.360E-06,-0.160
-1.350E-06,-0.080
-1.340E-06,-0.080
-1.330E-06,-0.240
-1.320E-06,-0.240
-1.310E-06,-0.320
-1.300E-06,-0.320
-1.290E-06,-0.480
-1.280E-06,-0.480
-1.270E-06,-0.560
-1.260E-06,-0.640
-1.250E-06,-0.640
-1.240E-06,-0.720
-1.230E-06,-0.880
-1.220E-06,-0.880
-1.210E-06,-0.800
-1.200E-06,-0.800
-1.190E-06,-0.960
-1.180E-06,-0.960
-1.170E-06,-0.960
-1.160E-06,-0.800
-1.150E-06,-0.800
-1.140E-06,-0.800
-1.130E-06,-0.880
-1.120E-06,-0.720
-1.110E-06,-0.640
-1.100E-06,-0.320
-1.090E-06,-0.240
-1.080E-06,-0.160
-1.070E-06,0.080
-1.060E-06,0.000
-1.050E-06,0.000
-1.040E-06,0.000
-1.030E-06,0.080
-1.020E-06,0.160
-1.010E-06,0.000
-1.000E-06,0.000
-9.900E-07,0.000
-9.800E-07,0.000
-9.700E-07,0.000
-9.600E-07,0.000
-9.500E-07,0.000
-9.400E-07,-0.080
-9.300E-07,0.000
-9.200E-07,-0.160
-9.100E-07,0.000
-9.000E-07,-0.080
-8.900E-07,-0.080
-8.800E-07,0.000
-8.700E-07,-0.080
-8.600E-07,-0.320
-8.500E-07,0.000
-8.400E-07,-0.160
-8.300E-07,-0.080
-8.200E-07,-0.160
-8.100E-07,-0.320
-8.000E-07,-0.400
-7.900E-07,-0.400
-7.800E-07,-0.240
-7.700E-07,-0.080
-7.600E-07,-0.160
-7.500E-07,-0.080
-7.400E-07,-0.160
-7.300E-07,-0.320
-7.200E-07,-0.240
-7.100E-07,-0.400
-7.000E-07,-0.400
-6.900E-07,-0.480
-6.800E-07,-0.400
-6.700E-07,-0.640
-6.600E-07,-0.640
-6.500E-07,-0.720
-6.400E-07,-0.720
-6.300E-07,-0.880
-6.200E-07,-0.800
-6.100E-07,-0.800
-6.000E-07,-0.800
-5.900E-07,-0.720
-5.800E-07,-0.720
-5.700E-07,-0.560
-5.600E-07,-0.480
-5.500E-07,-0.400
-5.400E-07,-0.160
-5.300E-07,-0.160
-5.200E-07,-0.160
-5.100E-07,0.000
-5.000E-07,0.000
-4.900E-07,-0.080
-4.800E-07,-0.160
-4.700E-07,-0.080
-4.600E-07,-0.160
-4.500E-07,-0.240
-4.400E-07,-0.160
-4.300E-07,-0.320
-4.200E-07,-0.400
-4.100E-07,-0.320
-4.000E-07,-0.480
-3.900E-07,-0.480
-3.800E-07,-0.560
-3.700E-07,-0.720
-3.600E-07,-0.720
-3.500E-07,-0.720
-3.400E-07,-0.640
-3.300E-07,-0.800
-3.200E-07,-0.960
-3.100E-07,-1.040
-3.000E-07,-1.040
-2.900E-07,-1.040
-2.800E-07,-1.200
-2.700E-07,-1.280
-2.600E-07,-1.360
-2.500E-07,-1.440
-2.400E-07,-1.360
-2.300E-07,-1.520
-2.200E-07,-1.680
-2.100E-07,-1.680
-2.000E-07,-1.760
-1.900E-07,-1.760
-1.800E-07,-1.600
-1.700E-07,-1.520
-1.600E-07,-1.360
-1.500E-07,-1.440
-1.400E-07,-1.440
-1.300E-07,-1.680
-1.200E-07,-1.600
-1.100E-07,-1.840
-1.000E-07,-1.680
-9.000E-08,-1.760
-8.000E-08,-1.760
-7.000E-08,-1.520
-6.000E-08,-0.480
-5.000E-08,0.000
-4.000E-08,0.720
-3.000E-08,0.400
-2.000E-08,-0.160
-1.000E-08,-0.640
0.000E+00,-1.280
1.000E-08,-0.960
2.000E-08,-1.120
3.000E-08,-1.200
4.000E-08,-1.600
5.000E-08,-2.080
6.000E-08,-2.080
7.000E-08,-2.080
8.000E-08,-1.520
9.000E-08,-1.440
1.000E-07,-0.880
1.100E-07,-0.720
1.200E-07,-0.560
1.300E-07,-0.720
1.400E-07,-0.800
1.500E-07,-0.880
1.600E-07,-0.960
1.700E-07,-0.800
1.800E-07,-1.120
1.900E-07,-1.040
2.000E-07,-1.200
2.100E-07,-1.200
2.200E-07,-1.040
2.300E-07,-0.960
2.400E-07,-0.800
2.500E-07,-0.720
2.600E-07,-0.560
2.700E-07,-0.480
2.800E-07,-0.400
2.900E-07,-0.240
3.000E-07,-0.160
3.100E-07,-0.240
3.200E-07,0.000
3.300E-07,-0.080
3.400E-07,-0.080
3.500E-07,0.000
3.600E-07,-0.160
3.700E-07,-0.080
3.800E-07,-0.160
3.900E-07,-0.080
4.000E-07,0.000
4.100E-07,0.080
4.200E-07,0.240
4.300E-07,0.320
4.400E-07,0.240
4.500E-07,0.080
4.600E-07,0.080
4.700E-07,-0.080
4.800E-07,0.000
4.900E-07,-0.080
5.000E-07,-0.320
5.100E-07,-0.480
5.200E-07,-0.640
5.300E-07,-0.880
5.400E-07,-1.120
5.500E-07,-1.200
5.600E-07,-1.120
5.700E-07,-1.440
5.800E-07,-1.040
5.900E-07,-1.200
6.000E-07,-0.800
6.100E-07,-0.800
6.200E-07,-0.720
6.300E-07,-0.800
6.400E-07,-0.960
6.500E-07,-1.280
6.600E-07,-1.280
6.700E-07,-1.680
6.800E-07,-2.000
6.900E-07,-2.240
7.000E-07,-2.800
7.100E-07,-3.120
7.200E-07,-3.360
7.300E-07,-3.680
7.400E-07,-3.760
7.500E-07,-4.000
7.600E-07,-4.160
7.700E-07,-4.240
7.800E-07,-4.240
7.900E-07,-4.240
8.000E-07,-4.240
8.100E-07,-3.920
8.200E-07,-3.520
8.300E-07,-2.960
8.400E-07,-2.400
8.500E-07,-2.080
8.600E-07,-1.920
8.700E-07,-1.760
8.800E-07,-2.080
8.900E-07,-2.160
9.000E-07,-2.480
9.100E-07,-2.560
9.200E-07,-2.880
9.300E-07,-2.880
9.400E-07,-3.120
9.500E-07,-2.960
9.600E-07,-2.560
9.700E-07,-2.400
9.800E-07,-1.760
9.900E-07,-1.520
1.000E-06,-1.040
1.010E-06,-0.800
1.020E-06,-1.040
1.030E-06,-0.960
1.040E-06,-1.200
1.050E-06,-1.440
1.060E-06,-1.760
1.070E-06,-2.160
1.080E-06,-2.320
1.090E-06,-2.720
1.100E-06,-3.120
1.110E-06,-3.360
1.120E-06,-3.600
1.130E-06,-3.840
1.140E-06,-3.920
1.150E-06,-3.840
1.160E-06,-3.920
1.170E-06,-3.760
1.180E-06,-3.600
1.190E-06,-3.280
1.200E-06,-2.800
1.210E-06,-2.400
1.220E-06,-2.160
1.230E-06,-1.680
1.240E-06,-1.360
1.250E-06,-0.640
1.260E-06,0.080
1.270E-06,0.800
1.280E-06,1.120
1.290E-06,1.120
1.300E-06,0.880
1.310E-06,0.480
1.320E-06,-0.080
1.330E-06,-0.400
1.340E-06,-0.960
1.350E-06,-1.360
1.360E-06,-1.840
1.370E-06,-2.000
1.380E-06,-2.160
1.390E-06,-2.320
1.400E-06,-2.560
1.410E-06,-2.640
1.420E-06,-2.320
1.430E-06,-1.760
1.440E-06,-1.280
1.450E-06,-0.560
1.460E-06,0.000
1.470E-06,0.400
1.480E-06,0.720
1.490E-06,0.720
1.500E-06,0.720
1.510E-06,0.560
1.520E-06,0.400
1.530E-06,-0.080
1.540E-06,0.160
1.550E-06,0.000
1.560E-06,0.320
1.570E-06,-0.320
1.580E-06,-0.480
1.590E-06,-1.360
1.600E-06,-1.760
1.610E-06,-2.320
1.620E-06,-2.560
1.630E-06,-2.720
1.640E-06,-3.040
1.650E-06,-3.280
1.660E-06,-3.360
1.670E-06,-3.280
1.680E-06,-2.800
1.690E-06,-2.640
1.700E-06,-2.400
1.710E-06,-2.080
1.720E-06,-1.760
1.730E-06,-1.600
1.740E-06,-1.200
1.750E-06,-1.040
1.760E-06,-0.960
1.770E-06,-0.720
1.780E-06,-0.560
1.790E-06,-0.320
1.800E-06,-0.320
1.810E-06,-0.240
1.820E-06,-0.240
1.830E-06,-0.240
1.840E-06,-0.160
1.850E-06,-0.080
1.860E-06,-0.160
1.870E-06,-0.480
1.880E-06,-0.400
1.890E-06,-0.480
1.900E-06,-0.480
1.910E-06,-0.720
1.920E-06,-0.720
1.930E-06,-0.960
1.940E-06,-1.120
1.950E-06,-1.520
1.960E-06,-1.680
1.970E-06,-2.080
1.980E-06,-2.400
1.990E-06,-2.640
2.000E-06,-2.960
2.010E-06,-3.200
2.020E-06,-3.360
2.030E-06,-3.280
2.040E-06,-3.520
2.050E-06,-3.520
2.060E-06,-3.680
2.070E-06,-3.600
2.080E-06,-3.760
2.090E-06,-3.680
2.100E-06,-3.840
2.110E-06,-3.840
2.120E-06,-4.000
2.130E-06,-4.080
2.140E-06,-3.920
2.150E-06,-4.000
2.160E-06,-4.080
2.170E-06,-4.160
2.180E-06,-4.000
2.190E-06,-3.680
2.200E-06,-3.360
2.210E-06,-2.880
2.220E-06,-2.560
2.230E-06,-2.320
2.240E-06,-2.000
2.250E-06,-1.760
2.260E-06,-1.600
2.270E-06,-1.600
2.280E-06,-2.240
2.290E-06,-3.120
2.300E-06,-4.160
2.310E-06,-5.280
2.320E-06,-6.160
2.330E-06,-6.880
2.340E-06,-7.520
2.350E-06,-8.080
2.360E-06,-8.240
2.370E-06,-8.640
2.380E-06,-8.720
2.390E-06,-8.720
2.400E-06,-8.800
2.410E-06,-8.800
2.420E-06,-8.640
2.430E-06,-8.560
2.440E-06,-8.400
2.450E-06,-8.400
2.460E-06,-8.400
2.470E-06,-8.480
2.480E-06,-8.480
2.490E-06,-8.480
2.500E-06,-8.560
2.510E-06,-8.560
2.520E-06,-8.560
2.530E-06,-8.400
2.540E-06,-8.240
2.550E-06,-7.920
2.560E-06,-7.600
2.570E-06,-7.200
2.580E-06,-6.880
2.590E-06,-6.480
2.600E-06,-6.000
2.610E-06,-5.760
2.620E-06,-5.520
2.630E-06,-5.200
2.640E-06,-4.800
2.650E-06,-4.560
2.660E-06,-4.560
2.670E-06,-4.160
2.680E-06,-3.920
2.690E-06,-3.760
2.700E-06,-3.520
2.710E-06,-3.440
2.720E-06,-3.280
2.730E-06,-2.960
2.740E-06,-2.800
2.750E-06,-2.640
2.760E-06,-2.320
2.770E-06,-2.080
2.780E-06,-1.840
2.790E-06,-1.680
2.800E-06,-1.360
2.810E-06,-1.200
2.820E-06,-1.040
2.830E-06,-0.880
2.840E-06,-0.640
2.850E-06,-0.640
2.860E-06,-0.480
2.870E-06,-0.240
2.880E-06,-0.160
2.890E-06,-0.080
2.900E-06,0.000
2.910E-06,0.320
2.920E-06,0.320
2.930E-06,0.400
2.940E-06,0.720
2.950E-06,0.640
2.960E-06,0.880
2.970E-06,0.880
2.980E-06,0.960
2.990E-06,0.960
3.000E-06,0.960
3.010E-06,0.960
3.020E-06,0.880
3.030E-06,0.880
3.040E-06,0.800
3.050E-06,0.960
3.060E-06,1.040
3.070E-06,1.040
3.080E-06,1.040
3.090E-06,1.200
3.100E-06,1.200
3.110E-06,1.120
3.120E-06,1.040
3.130E-06,0.720
3.140E-06,0.720
