mediciones/Mediciones filtradas (saque las feas)/5-15/32.5/WaveData47085.csv

#timebase=2000000(ps)
,#voltbase=2000000(mv/100)
#size=4000
-8.400E-06,0.000
-8.390E-06,0.000
-8.380E-06,0.000
-8.370E-06,0.080
-8.360E-06,0.080
-8.350E-06,0.000
-8.340E-06,0.160
-8.330E-06,0.160
-8.320E-06,0.240
-8.310E-06,0.400
-8.300E-06,0.240
-8.290E-06,0.240
-8.280E-06,0.320
-8.270E-06,0.320
-8.260E-06,0.400
-8.250E-06,0.400
-8.240E-06,0.480
-8.230E-06,0.480
-8.220E-06,0.400
-8.210E-06,0.240
-8.200E-06,0.320
-8.190E-06,0.400
-8.180E-06,0.160
-8.170E-06,0.160
-8.160E-06,0.000
-8.150E-06,0.080
-8.140E-06,0.080
-8.130E-06,0.080
-8.120E-06,0.080
-8.110E-06,0.000
-8.100E-06,0.000
-8.090E-06,-0.080
-8.080E-06,0.000
-8.070E-06,0.000
-8.060E-06,-0.080
-8.050E-06,-0.240
-8.040E-06,-0.320
-8.030E-06,-0.240
-8.020E-06,-0.160
-8.010E-06,-0.320
-8.000E-06,-0.240
-7.990E-06,-0.320
-7.980E-06,-0.320
-7.970E-06,-0.320
-7.960E-06,-0.240
-7.950E-06,-0.240
-7.940E-06,-0.160
-7.930E-06,0.080
-7.920E-06,-0.080
-7.910E-06,0.000
-7.900E-06,0.000
-7.890E-06,0.240
-7.880E-06,0.240
-7.870E-06,0.320
-7.860E-06,0.320
-7.850E-06,0.160
-7.840E-06,0.240
-7.830E-06,0.240
-7.820E-06,0.240
-7.810E-06,0.400
-7.800E-06,0.320
-7.790E-06,0.160
-7.780E-06,0.240
-7.770E-06,0.240
-7.760E-06,0.240
-7.750E-06,0.320
-7.740E-06,0.160
-7.730E-06,0.160
-7.720E-06,0.160
-7.710E-06,0.000
-7.700E-06,0.080
-7.690E-06,-0.080
-7.680E-06,0.000
-7.670E-06,-0.080
-7.660E-06,0.000
-7.650E-06,-0.080
-7.640E-06,0.000
-7.630E-06,-0.080
-7.620E-06,-0.080
-7.610E-06,-0.080
-7.600E-06,-0.080
-7.590E-06,-0.080
-7.580E-06,-0.080
-7.570E-06,-0.080
-7.560E-06,0.000
-7.550E-06,-0.080
-7.540E-06,-0.080
-7.530E-06,-0.080
-7.520E-06,-0.080
-7.510E-06,-0.080
-7.500E-06,-0.080
-7.490E-06,-0.080
-7.480E-06,-0.160
-7.470E-06,-0.320
-7.460E-06,-0.320
-7.450E-06,-0.160
-7.440E-06,-0.160
-7.430E-06,-0.240
-7.420E-06,-0.160
-7.410E-06,-0.240
-7.400E-06,-0.320
-7.390E-06,-0.400
-7.380E-06,-0.480
-7.370E-06,-0.400
-7.360E-06,-0.560
-7.350E-06,-0.720
-7.340E-06,-0.800
-7.330E-06,-0.880
-7.320E-06,-0.960
-7.310E-06,-1.040
-7.300E-06,-0.960
-7.290E-06,-0.560
-7.280E-06,-0.720
-7.270E-06,-0.400
-7.260E-06,-0.960
-7.250E-06,-1.040
-7.240E-06,-1.120
-7.230E-06,-1.120
-7.220E-06,-1.040
-7.210E-06,-0.960
-7.200E-06,-1.200
-7.190E-06,-1.360
-7.180E-06,-1.360
-7.170E-06,-1.200
-7.160E-06,-0.880
-7.150E-06,-0.720
-7.140E-06,-0.560
-7.130E-06,-0.400
-7.120E-06,-0.160
-7.110E-06,0.000
-7.100E-06,0.000
-7.090E-06,0.240
-7.080E-06,0.320
-7.070E-06,0.160
-7.060E-06,0.320
-7.050E-06,0.320
-7.040E-06,0.480
-7.030E-06,0.480
-7.020E-06,0.480
-7.010E-06,0.480
-7.000E-06,0.640
-6.990E-06,0.640
-6.980E-06,0.640
-6.970E-06,0.640
-6.960E-06,0.560
-6.950E-06,0.560
-6.940E-06,0.480
-6.930E-06,0.320
-6.920E-06,0.160
-6.910E-06,0.000
-6.900E-06,-0.080
-6.890E-06,-0.240
-6.880E-06,-0.400
-6.870E-06,-0.640
-6.860E-06,-0.800
-6.850E-06,-0.960
-6.840E-06,-1.040
-6.830E-06,-1.040
-6.820E-06,-1.040
-6.810E-06,-1.040
-6.800E-06,-1.040
-6.790E-06,-1.120
-6.780E-06,-1.120
-6.770E-06,-1.120
-6.760E-06,-1.040
-6.750E-06,-0.800
-6.740E-06,-0.800
-6.730E-06,-0.800
-6.720E-06,-0.880
-6.710E-06,-0.880
-6.700E-06,-0.880
-6.690E-06,-0.960
-6.680E-06,-0.880
-6.670E-06,-0.880
-6.660E-06,-0.880
-6.650E-06,-0.800
-6.640E-06,-0.880
-6.630E-06,-0.720
-6.620E-06,-0.720
-6.610E-06,-0.720
-6.600E-06,-0.720
-6.590E-06,-0.720
-6.580E-06,-0.560
-6.570E-06,-0.480
-6.560E-06,-0.400
-6.550E-06,-0.400
-6.540E-06,-0.320
-6.530E-06,-0.400
-6.520E-06,-0.240
-6.510E-06,-0.160
-6.500E-06,-0.160
-6.490E-06,-0.240
-6.480E-06,0.000
-6.470E-06,0.000
-6.460E-06,0.000
-6.450E-06,0.000
-6.440E-06,0.000
-6.430E-06,-0.080
-6.420E-06,0.000
-6.410E-06,0.000
-6.400E-06,0.080
-6.390E-06,0.000
-6.380E-06,0.000
-6.370E-06,-0.400
-6.360E-06,-0.080
-6.350E-06,0.080
-6.340E-06,0.000
-6.330E-06,0.000
-6.320E-06,-0.720
-6.310E-06,-1.120
-6.300E-06,-0.800
-6.290E-06,-0.960
-6.280E-06,-0.400
-6.270E-06,-0.640
-6.260E-06,-1.200
-6.250E-06,-1.680
-6.240E-06,-1.760
-6.230E-06,-1.200
-6.220E-06,-0.640
-6.210E-06,-0.400
-6.200E-06,-0.560
-6.190E-06,-1.040
-6.180E-06,-1.040
-6.170E-06,-0.960
-6.160E-06,-0.640
-6.150E-06,-0.480
-6.140E-06,-0.400
-6.130E-06,-0.480
-6.120E-06,-0.240
-6.110E-06,-0.160
-6.100E-06,-0.240
-6.090E-06,-0.160
-6.080E-06,0.080
-6.070E-06,-0.080
-6.060E-06,-0.080
-6.050E-06,0.000
-6.040E-06,-0.240
-6.030E-06,-0.160
-6.020E-06,-0.160
-6.010E-06,0.000
-6.000E-06,-0.160
-5.990E-06,-0.160
-5.980E-06,-0.320
-5.970E-06,-0.160
-5.960E-06,-0.160
-5.950E-06,-0.240
-5.940E-06,-0.240
-5.930E-06,0.080
-5.920E-06,0.080
-5.910E-06,0.400
-5.900E-06,0.720
-5.890E-06,0.800
-5.880E-06,0.640
-5.870E-06,0.960
-5.860E-06,0.800
-5.850E-06,0.960
-5.840E-06,0.800
-5.830E-06,0.720
-5.820E-06,0.800
-5.810E-06,0.960
-5.800E-06,0.800
-5.790E-06,0.720
-5.780E-06,0.400
-5.770E-06,0.000
-5.760E-06,0.000
-5.750E-06,-0.160
-5.740E-06,-0.400
-5.730E-06,-0.400
-5.720E-06,-0.720
-5.710E-06,-0.960
-5.700E-06,-1.040
-5.690E-06,-1.040
-5.680E-06,-1.040
-5.670E-06,-1.040
-5.660E-06,-1.120
-5.650E-06,-0.960
-5.640E-06,-0.960
-5.630E-06,-0.880
-5.620E-06,-0.800
-5.610E-06,-0.640
-5.600E-06,-0.560
-5.590E-06,-0.400
-5.580E-06,-0.400
-5.570E-06,-0.160
-5.560E-06,0.000
-5.550E-06,0.080
-5.540E-06,0.480
-5.530E-06,0.400
-5.520E-06,0.560
-5.510E-06,0.640
-5.500E-06,0.800
-5.490E-06,0.960
-5.480E-06,1.120
-5.470E-06,1.120
-5.460E-06,0.800
-5.450E-06,0.800
-5.440E-06,0.720
-5.430E-06,0.720
-5.420E-06,0.720
-5.410E-06,0.640
-5.400E-06,0.560
-5.390E-06,0.400
-5.380E-06,0.480
-5.370E-06,0.320
-5.360E-06,0.320
-5.350E-06,0.240
-5.340E-06,0.080
-5.330E-06,0.080
-5.320E-06,0.080
-5.310E-06,-0.080
-5.300E-06,0.000
-5.290E-06,0.160
-5.280E-06,0.240
-5.270E-06,0.160
-5.260E-06,0.160
-5.250E-06,-0.080
-5.240E-06,-0.240
-5.230E-06,-0.320
-5.220E-06,-0.240
-5.210E-06,-0.400
-5.200E-06,-0.640
-5.190E-06,-0.880
-5.180E-06,-0.960
-5.170E-06,-1.040
-5.160E-06,-1.040
-5.150E-06,-0.960
-5.140E-06,-0.800
-5.130E-06,-0.720
-5.120E-06,-0.720
-5.110E-06,-0.640
-5.100E-06,-0.640
-5.090E-06,-0.400
-5.080E-06,-0.320
-5.070E-06,-0.160
-5.060E-06,0.080
-5.050E-06,0.000
-5.040E-06,0.080
-5.030E-06,0.240
-5.020E-06,0.240
-5.010E-06,0.240
-5.000E-06,0.400
-4.990E-06,0.640
-4.980E-06,0.640
-4.970E-06,0.640
-4.960E-06,0.640
-4.950E-06,0.800
-4.940E-06,0.720
-4.930E-06,0.800
-4.920E-06,0.800
-4.910E-06,0.720
-4.900E-06,0.640
-4.890E-06,0.640
-4.880E-06,0.560
-4.870E-06,0.400
-4.860E-06,0.320
-4.850E-06,0.320
-4.840E-06,0.240
-4.830E-06,0.240
-4.820E-06,0.160
-4.810E-06,-0.080
-4.800E-06,0.000
-4.790E-06,0.000
-4.780E-06,-0.160
-4.770E-06,-0.240
-4.760E-06,-0.400
-4.750E-06,-0.320
-4.740E-06,-0.400
-4.730E-06,-0.560
-4.720E-06,-0.560
-4.710E-06,-0.640
-4.700E-06,-0.800
-4.690E-06,-0.720
-4.680E-06,-0.800
-4.670E-06,-0.880
-4.660E-06,-0.720
-4.650E-06,-0.320
-4.640E-06,-0.480
-4.630E-06,-0.320
-4.620E-06,-0.560
-4.610E-06,-0.720
-4.600E-06,-0.480
-4.590E-06,-0.320
-4.580E-06,0.000
-4.570E-06,-0.080
-4.560E-06,-0.320
-4.550E-06,-0.640
-4.540E-06,-0.960
-4.530E-06,-0.880
-4.520E-06,-0.720
-4.510E-06,-1.040
-4.500E-06,-1.040
-4.490E-06,-1.200
-4.480E-06,-0.640
-4.470E-06,-0.880
-4.460E-06,-0.080
-4.450E-06,-0.400
-4.440E-06,-0.080
-4.430E-06,0.160
-4.420E-06,0.800
-4.410E-06,0.800
-4.400E-06,1.360
-4.390E-06,1.120
-4.380E-06,0.960
-4.370E-06,1.120
-4.360E-06,1.200
-4.350E-06,0.960
-4.340E-06,1.120
-4.330E-06,0.320
-4.320E-06,-0.080
-4.310E-06,-0.400
-4.300E-06,-0.480
-4.290E-06,-0.480
-4.280E-06,-0.480
-4.270E-06,-0.720
-4.260E-06,-0.800
-4.250E-06,-0.880
-4.240E-06,-0.800
-4.230E-06,-0.640
-4.220E-06,-0.640
-4.210E-06,-0.640
-4.200E-06,-0.480
-4.190E-06,-0.320
-4.180E-06,-0.240
-4.170E-06,-0.160
-4.160E-06,-0.080
-4.150E-06,-0.080
-4.140E-06,-0.080
-4.130E-06,-0.160
-4.120E-06,-0.080
-4.110E-06,0.160
-4.100E-06,0.400
-4.090E-06,0.320
-4.080E-06,0.400
-4.070E-06,0.480
-4.060E-06,0.560
-4.050E-06,0.640
-4.040E-06,0.640
-4.030E-06,0.640
-4.020E-06,0.720
-4.010E-06,0.720
-4.000E-06,0.640
-3.990E-06,0.560
-3.980E-06,0.480
-3.970E-06,0.400
-3.960E-06,0.400
-3.950E-06,0.240
-3.940E-06,0.160
-3.930E-06,0.160
-3.920E-06,0.160
-3.910E-06,0.000
-3.900E-06,0.080
-3.890E-06,0.080
-3.880E-06,0.000
-3.870E-06,0.000
-3.860E-06,0.080
-3.850E-06,-0.080
-3.840E-06,0.000
-3.830E-06,0.000
-3.820E-06,0.080
-3.810E-06,0.320
-3.800E-06,0.480
-3.790E-06,0.480
-3.780E-06,0.480
-3.770E-06,0.400
-3.760E-06,0.240
-3.750E-06,0.240
-3.740E-06,0.160
-3.730E-06,0.240
-3.720E-06,0.000
-3.710E-06,-0.160
-3.700E-06,-0.080
-3.690E-06,-0.080
-3.680E-06,0.000
-3.670E-06,-0.080
-3.660E-06,-0.560
-3.650E-06,-0.720
-3.640E-06,-0.880
-3.630E-06,-0.960
-3.620E-06,-1.040
-3.610E-06,-1.120
-3.600E-06,-1.200
-3.590E-06,-1.440
-3.580E-06,-1.200
-3.570E-06,-1.200
-3.560E-06,-1.040
-3.550E-06,-0.960
-3.540E-06,-0.560
-3.530E-06,0.240
-3.520E-06,0.720
-3.510E-06,1.040
-3.500E-06,0.720
-3.490E-06,-0.320
-3.480E-06,-0.800
-3.470E-06,-1.360
-3.460E-06,-1.440
-3.450E-06,-1.520
-3.440E-06,-1.920
-3.430E-06,-2.240
-3.420E-06,-2.480
-3.410E-06,-2.480
-3.400E-06,-2.080
-3.390E-06,-1.920
-3.380E-06,-1.440
-3.370E-06,-1.280
-3.360E-06,-0.240
-3.350E-06,0.320
-3.340E-06,1.040
-3.330E-06,1.520
-3.320E-06,1.680
-3.310E-06,1.600
-3.300E-06,1.520
-3.290E-06,1.360
-3.280E-06,1.360
-3.270E-06,1.120
-3.260E-06,0.960
-3.250E-06,0.720
-3.240E-06,0.480
-3.230E-06,0.240
-3.220E-06,0.400
-3.210E-06,0.480
-3.200E-06,0.320
-3.190E-06,0.320
-3.180E-06,0.320
-3.170E-06,0.400
-3.160E-06,0.400
-3.150E-06,0.480
-3.140E-06,0.480
-3.130E-06,0.400
-3.120E-06,0.320
-3.110E-06,0.080
-3.100E-06,-0.160
-3.090E-06,-0.240
-3.080E-06,-0.400
-3.070E-06,-0.480
-3.060E-06,-0.400
-3.050E-06,-0.160
-3.040E-06,-0.160
-3.030E-06,0.080
-3.020E-06,0.080
-3.010E-06,0.240
-3.000E-06,0.400
-2.990E-06,0.480
-2.980E-06,0.720
-2.970E-06,1.040
-2.960E-06,1.200
-2.950E-06,1.200
-2.940E-06,1.120
-2.930E-06,0.640
-2.920E-06,0.000
-2.910E-06,-0.400
-2.900E-06,-0.800
-2.890E-06,-1.040
-2.880E-06,-1.360
-2.870E-06,-1.280
-2.860E-06,-1.600
-2.850E-06,-1.600
-2.840E-06,-1.520
-2.830E-06,-1.520
-2.820E-06,-1.440
-2.810E-06,-1.040
-2.800E-06,-1.040
-2.790E-06,-0.560
-2.780E-06,-0.480
-2.770E-06,-0.320
-2.760E-06,-0.240
-2.750E-06,-0.160
-2.740E-06,0.640
-2.730E-06,1.040
-2.720E-06,1.360
-2.710E-06,1.120
-2.700E-06,0.400
-2.690E-06,0.000
-2.680E-06,-0.480
-2.670E-06,-0.720
-2.660E-06,-0.720
-2.650E-06,-0.800
-2.640E-06,-0.800
-2.630E-06,-0.960
-2.620E-06,-0.800
-2.610E-06,-0.720
-2.600E-06,-0.400
-2.590E-06,-0.400
-2.580E-06,0.000
-2.570E-06,0.160
-2.560E-06,0.320
-2.550E-06,0.480
-2.540E-06,1.600
-2.530E-06,1.360
-2.520E-06,2.080
-2.510E-06,1.520
-2.500E-06,0.480
-2.490E-06,-0.240
-2.480E-06,-0.960
-2.470E-06,-1.120
-2.460E-06,-1.120
-2.450E-06,-1.520
-2.440E-06,-1.920
-2.430E-06,-2.080
-2.420E-06,-2.080
-2.410E-06,-1.680
-2.400E-06,-1.520
-2.390E-06,-1.520
-2.380E-06,-1.360
-2.370E-06,-1.040
-2.360E-06,-0.080
-2.350E-06,0.080
-2.340E-06,0.320
-2.330E-06,0.320
-2.320E-06,0.080
-2.310E-06,-0.160
-2.300E-06,-0.560
-2.290E-06,-0.960
-2.280E-06,-0.960
-2.270E-06,-1.040
-2.260E-06,-1.040
-2.250E-06,-0.960
-2.240E-06,-0.800
-2.230E-06,-0.560
-2.220E-06,-0.320
-2.210E-06,0.000
-2.200E-06,0.000
-2.190E-06,0.320
-2.180E-06,0.480
-2.170E-06,0.480
-2.160E-06,0.640
-2.150E-06,0.640
-2.140E-06,0.640
-2.130E-06,0.560
-2.120E-06,0.480
-2.110E-06,0.400
-2.100E-06,0.160
-2.090E-06,0.160
-2.080E-06,-0.080
-2.070E-06,0.080
-2.060E-06,0.240
-2.050E-06,0.240
-2.040E-06,0.320
-2.030E-06,0.320
-2.020E-06,0.320
-2.010E-06,0.240
-2.000E-06,0.320
-1.990E-06,0.400
-1.980E-06,0.400
-1.970E-06,0.480
-1.960E-06,0.480
-1.950E-06,0.400
-1.940E-06,0.240
-1.930E-06,0.080
-1.920E-06,0.160
-1.910E-06,0.240
-1.900E-06,0.240
-1.890E-06,0.160
-1.880E-06,0.000
-1.870E-06,0.080
-1.860E-06,0.160
-1.850E-06,0.080
-1.840E-06,0.080
-1.830E-06,0.160
-1.820E-06,0.160
-1.810E-06,0.160
-1.800E-06,0.160
-1.790E-06,0.080
-1.780E-06,0.240
-1.770E-06,0.160
-1.760E-06,0.000
-1.750E-06,-0.080
-1.740E-06,0.000
-1.730E-06,0.080
-1.720E-06,0.000
-1.710E-06,0.080
-1.700E-06,0.000
-1.690E-06,0.000
-1.680E-06,0.080
-1.670E-06,0.000
-1.660E-06,0.160
-1.650E-06,0.080
-1.640E-06,0.080
-1.630E-06,0.080
-1.620E-06,-0.080
-1.610E-06,0.000
-1.600E-06,-0.080
-1.590E-06,-0.080
-1.580E-06,-0.080
-1.570E-06,-0.160
-1.560E-06,-0.080
-1.550E-06,-0.160
-1.540E-06,-0.240
-1.530E-06,-0.160
-1.520E-06,-0.080
-1.510E-06,-0.080
-1.500E-06,-0.080
-1.490E-06,-0.080
-1.480E-06,-0.080
-1.470E-06,0.000
-1.460E-06,0.000
-1.450E-06,-0.080
-1.440E-06,0.000
-1.430E-06,0.080
-1.420E-06,0.080
-1.410E-06,0.080
-1.400E-06,0.000
-1.390E-06,0.000
-1.380E-06,0.000
-1.370E-06,-0.160
-1.360E-06,-0.080
-1.350E-06,0.080
-1.340E-06,0.400
-1.330E-06,0.480
-1.320E-06,0.160
-1.310E-06,-0.240
-1.300E-06,-0.640
-1.290E-06,-0.560
-1.280E-06,-0.640
-1.270E-06,-0.480
-1.260E-06,-1.040
-1.250E-06,-1.440
-1.240E-06,-1.360
-1.230E-06,-0.720
-1.220E-06,-0.640
-1.210E-06,-0.640
-1.200E-06,-2.240
-1.190E-06,-3.200
-1.180E-06,-3.840
-1.170E-06,-4.080
-1.160E-06,-3.840
-1.150E-06,-3.680
-1.140E-06,-4.000
-1.130E-06,-4.000
-1.120E-06,-3.520
-1.110E-06,-2.720
-1.100E-06,-2.080
-1.090E-06,-1.200
-1.080E-06,-1.440
-1.070E-06,-0.880
-1.060E-06,-0.720
-1.050E-06,-0.240
-1.040E-06,-0.080
-1.030E-06,0.160
-1.020E-06,0.880
-1.010E-06,1.680
-1.000E-06,2.080
-9.900E-07,2.080
-9.800E-07,1.600
-9.700E-07,0.960
-9.600E-07,0.000
-9.500E-07,-0.240
-9.400E-07,-0.640
-9.300E-07,-0.880
-9.200E-07,-1.280
-9.100E-07,-1.600
-9.000E-07,-1.760
-8.900E-07,-1.760
-8.800E-07,-1.680
-8.700E-07,-1.520
-8.600E-07,-1.440
-8.500E-07,-1.360
-8.400E-07,-1.200
-8.300E-07,-1.120
-8.200E-07,-1.040
-8.100E-07,-1.040
-8.000E-07,-0.960
-7.900E-07,-0.880
-7.800E-07,-0.480
-7.700E-07,-0.320
-7.600E-07,0.000
-7.500E-07,0.000
-7.400E-07,0.480
-7.300E-07,0.560
-7.200E-07,0.880
-7.100E-07,1.040
-7.000E-07,1.280
-6.900E-07,1.360
-6.800E-07,1.360
-6.700E-07,1.360
-6.600E-07,1.120
-6.500E-07,1.040
-6.400E-07,1.040
-6.300E-07,0.960
-6.200E-07,0.800
-6.100E-07,0.640
-6.000E-07,0.400
-5.900E-07,0.400
-5.800E-07,0.240
-5.700E-07,0.320
-5.600E-07,0.560
-5.500E-07,0.640
-5.400E-07,0.880
-5.300E-07,0.960
-5.200E-07,0.960
-5.100E-07,0.800
-5.000E-07,0.720
-4.900E-07,0.720
-4.800E-07,0.720
-4.700E-07,0.480
-4.600E-07,0.320
-4.500E-07,0.000
-4.400E-07,-0.160
-4.300E-07,-0.720
-4.200E-07,-1.040
-4.100E-07,-1.520
-4.000E-07,-1.840
-3.900E-07,-2.080
-3.800E-07,-2.320
-3.700E-07,-2.400
-3.600E-07,-2.320
-3.500E-07,-1.920
-3.400E-07,-1.680
-3.300E-07,-1.520
-3.200E-07,-1.280
-3.100E-07,-1.040
-3.000E-07,-0.880
-2.900E-07,-0.640
-2.800E-07,-0.640
-2.700E-07,-0.480
-2.600E-07,-0.240
-2.500E-07,0.080
-2.400E-07,0.080
-2.300E-07,0.400
-2.200E-07,0.640
-2.100E-07,0.720
-2.000E-07,1.040
-1.900E-07,1.040
-1.800E-07,1.200
-1.700E-07,1.120
-1.600E-07,1.120
-1.500E-07,1.040
-1.400E-07,0.640
-1.300E-07,0.400
-1.200E-07,0.000
-1.100E-07,0.000
-1.000E-07,0.080
-9.000E-08,-0.320
-8.000E-08,-0.320
-7.000E-08,-0.960
-6.000E-08,-0.160
-5.000E-08,0.880
-4.000E-08,1.840
-3.000E-08,2.640
-2.000E-08,2.240
-1.000E-08,0.160
0.000E+00,-0.800
1.000E-08,-2.080
2.000E-08,-2.480
3.000E-08,-2.960
4.000E-08,-4.080
5.000E-08,-5.120
6.000E-08,-5.760
7.000E-08,-5.200
8.000E-08,-5.360
9.000E-08,-4.560
1.000E-07,-4.640
1.100E-07,-3.840
1.200E-07,-3.040
1.300E-07,-1.600
1.400E-07,-0.880
1.500E-07,-0.320
1.600E-07,0.000
1.700E-07,0.400
1.800E-07,0.800
1.900E-07,0.960
2.000E-07,0.960
2.100E-07,0.800
2.200E-07,0.640
2.300E-07,0.720
2.400E-07,0.560
2.500E-07,0.720
2.600E-07,0.720
2.700E-07,0.880
2.800E-07,0.960
2.900E-07,0.960
3.000E-07,0.960
3.100E-07,0.960
3.200E-07,0.800
3.300E-07,0.480
3.400E-07,0.080
3.500E-07,-0.160
3.600E-07,-0.880
3.700E-07,-1.360
3.800E-07,-2.000
3.900E-07,-2.240
4.000E-07,-2.240
4.100E-07,-1.840
4.200E-07,-1.360
4.300E-07,-0.720
4.400E-07,-0.080
4.500E-07,0.480
4.600E-07,1.120
4.700E-07,1.520
4.800E-07,1.680
4.900E-07,1.760
5.000E-07,1.600
5.100E-07,1.360
5.200E-07,0.800
5.300E-07,0.400
5.400E-07,0.000
5.500E-07,-0.320
5.600E-07,-0.480
5.700E-07,-0.480
5.800E-07,-0.400
5.900E-07,-0.240
6.000E-07,0.000
6.100E-07,-0.160
6.200E-07,-0.320
6.300E-07,-0.640
6.400E-07,-0.880
6.500E-07,-1.040
6.600E-07,-1.120
6.700E-07,-1.520
6.800E-07,-1.840
6.900E-07,-2.160
7.000E-07,-2.560
7.100E-07,-2.880
7.200E-07,-2.800
7.300E-07,-2.880
7.400E-07,-2.640
7.500E-07,-2.480
7.600E-07,-1.920
7.700E-07,-1.600
7.800E-07,-1.280
7.900E-07,-0.720
8.000E-07,-0.320
8.100E-07,0.000
8.200E-07,0.240
8.300E-07,0.400
8.400E-07,0.560
8.500E-07,0.400
8.600E-07,0.400
8.700E-07,0.160
8.800E-07,0.080
8.900E-07,-0.080
9.000E-07,-0.080
9.100E-07,-0.080
9.200E-07,0.080
9.300E-07,-0.080
9.400E-07,0.080
9.500E-07,0.240
9.600E-07,0.400
9.700E-07,0.320
9.800E-07,0.320
9.900E-07,0.320
1.000E-06,0.080
1.010E-06,-0.080
1.020E-06,-0.400
1.030E-06,-0.800
1.040E-06,-1.120
1.050E-06,-1.280
1.060E-06,-1.600
1.070E-06,-1.760
1.080E-06,-1.760
1.090E-06,-1.440
1.100E-06,-1.040
1.110E-06,-0.240
1.120E-06,0.000
1.130E-06,0.560
1.140E-06,0.400
1.150E-06,0.480
1.160E-06,0.240
1.170E-06,0.320
1.180E-06,0.240
1.190E-06,-0.160
1.200E-06,-0.640
1.210E-06,-1.280
1.220E-06,-1.680
1.230E-06,-2.240
1.240E-06,-2.240
1.250E-06,-2.160
1.260E-06,-2.080
1.270E-06,-1.680
1.280E-06,-1.440
1.290E-06,-1.200
1.300E-06,-0.960
1.310E-06,-0.800
1.320E-06,-0.640
1.330E-06,-0.480
1.340E-06,-0.640
1.350E-06,-0.560
1.360E-06,-0.720
1.370E-06,-0.960
1.380E-06,-1.120
1.390E-06,-1.120
1.400E-06,-1.200
1.410E-06,-1.200
1.420E-06,-1.200
1.430E-06,-0.800
1.440E-06,-0.640
1.450E-06,-0.320
1.460E-06,0.080
1.470E-06,0.080
1.480E-06,0.240
1.490E-06,0.400
1.500E-06,0.320
1.510E-06,0.160
1.520E-06,-0.080
1.530E-06,-0.560
1.540E-06,-0.880
1.550E-06,-1.120
1.560E-06,-1.600
1.570E-06,-1.680
1.580E-06,-1.920
1.590E-06,-2.000
1.600E-06,-1.840
1.610E-06,-1.760
1.620E-06,-1.600
1.630E-06,-1.520
1.640E-06,-1.360
1.650E-06,-1.360
1.660E-06,-1.200
1.670E-06,-1.360
1.680E-06,-1.280
1.690E-06,-1.360
1.700E-06,-1.360
1.710E-06,-1.360
1.720E-06,-1.280
1.730E-06,-1.360
1.740E-06,-1.360
1.750E-06,-1.440
1.760E-06,-1.440
1.770E-06,-1.200
1.780E-06,-1.440
1.790E-06,-1.360
1.800E-06,-1.360
1.810E-06,-1.280
1.820E-06,-1.520
1.830E-06,-1.680
1.840E-06,-1.680
1.850E-06,-1.360
1.860E-06,-1.360
1.870E-06,-1.440
1.880E-06,-1.280
1.890E-06,-0.960
1.900E-06,-0.400
1.910E-06,0.080
1.920E-06,1.440
1.930E-06,3.200
1.940E-06,3.840
1.950E-06,5.440
1.960E-06,4.560
1.970E-06,3.760
1.980E-06,2.320
1.990E-06,0.240
2.000E-06,-0.960
2.010E-06,-2.320
2.020E-06,-3.440
2.030E-06,-4.720
2.040E-06,-6.160
2.050E-06,-7.200
2.060E-06,-7.520
2.070E-06,-7.440
2.080E-06,-7.280
2.090E-06,-6.400
2.100E-06,-6.000
2.110E-06,-4.960
2.120E-06,-4.240
2.130E-06,-3.280
2.140E-06,-2.400
2.150E-06,-1.280
2.160E-06,-0.080
2.170E-06,0.400
2.180E-06,1.040
2.190E-06,1.040
2.200E-06,1.120
2.210E-06,1.040
2.220E-06,1.040
2.230E-06,0.720
2.240E-06,0.880
2.250E-06,0.880
2.260E-06,0.800
2.270E-06,0.720
2.280E-06,0.640
2.290E-06,0.240
2.300E-06,-0.080
2.310E-06,-0.240
2.320E-06,-0.800
2.330E-06,-1.440
2.340E-06,-2.400
2.350E-06,-3.200
2.360E-06,-4.160
2.370E-06,-4.800
2.380E-06,-5.120
2.390E-06,-4.960
2.400E-06,-4.560
2.410E-06,-3.840
2.420E-06,-3.040
2.430E-06,-2.000
2.440E-06,-1.040
2.450E-06,-0.080
2.460E-06,0.720
2.470E-06,1.360
2.480E-06,1.920
2.490E-06,2.080
2.500E-06,1.920
2.510E-06,1.760
2.520E-06,1.440
2.530E-06,0.960
2.540E-06,0.480
2.550E-06,0.000
2.560E-06,-0.480
2.570E-06,-0.880
2.580E-06,-1.040
2.590E-06,-1.280
2.600E-06,-1.280
2.610E-06,-1.360
2.620E-06,-1.360
2.630E-06,-1.360
2.640E-06,-1.200
2.650E-06,-1.200
2.660E-06,-1.120
2.670E-06,-1.040
2.680E-06,-1.040
2.690E-06,-0.960
2.700E-06,-1.120
2.710E-06,-1.200
2.720E-06,-1.360
2.730E-06,-1.360
2.740E-06,-1.360
2.750E-06,-0.960
2.760E-06,-0.640
2.770E-06,-0.320
2.780E-06,0.160
2.790E-06,0.480
2.800E-06,0.800
2.810E-06,0.960
2.820E-06,1.040
2.830E-06,1.040
2.840E-06,1.120
2.850E-06,0.960
2.860E-06,0.640
2.870E-06,0.240
2.880E-06,0.000
2.890E-06,-0.560
2.900E-06,-0.880
2.910E-06,-1.040
2.920E-06,-1.200
2.930E-06,-1.280
2.940E-06,-1.280
2.950E-06,-1.200
2.960E-06,-1.040
2.970E-06,-0.880
2.980E-06,-0.800
2.990E-06,-0.640
3.000E-06,-0.720
3.010E-06,-0.560
3.020E-06,-0.640
3.030E-06,-0.480
3.040E-06,-0.400
3.050E-06,-0.320
3.060E-06,-0.320
3.070E-06,-0.160
3.080E-06,0.000
3.090E-06,0.320
3.100E-06,0.480
3.110E-06,0.640
3.120E-06,0.720
3.130E-06,0.720
