mediciones/Mediciones filtradas (saque las feas)/5-15/32.5/WaveData47098.csv

#timebase=2000000(ps)
,#voltbase=100000(mv/100)
#size=4000
-8.400E-06,-0.004
-8.390E-06,-0.024
-8.380E-06,-0.024
-8.370E-06,-0.004
-8.360E-06,0.020
-8.350E-06,0.032
-8.340E-06,0.036
-8.330E-06,0.024
-8.320E-06,0.004
-8.310E-06,-0.004
-8.300E-06,-0.008
-8.290E-06,0.012
-8.280E-06,0.004
-8.270E-06,-0.044
-8.260E-06,-0.012
-8.250E-06,-0.016
-8.240E-06,-0.040
-8.230E-06,-0.024
-8.220E-06,0.040
-8.210E-06,0.072
-8.200E-06,0.044
-8.190E-06,-0.004
-8.180E-06,-0.036
-8.170E-06,-0.040
-8.160E-06,-0.012
-8.150E-06,0.008
-8.140E-06,0.024
-8.130E-06,0.020
-8.120E-06,0.012
-8.110E-06,-0.004
-8.100E-06,-0.012
-8.090E-06,-0.008
-8.080E-06,0.012
-8.070E-06,0.024
-8.060E-06,0.012
-8.050E-06,0.000
-8.040E-06,-0.004
-8.030E-06,-0.004
-8.020E-06,0.004
-8.010E-06,0.008
-8.000E-06,0.012
-7.990E-06,0.000
-7.980E-06,-0.008
-7.970E-06,-0.004
-7.960E-06,0.000
-7.950E-06,0.012
-7.940E-06,0.020
-7.930E-06,0.008
-7.920E-06,-0.004
-7.910E-06,-0.004
-7.900E-06,0.000
-7.890E-06,0.000
-7.880E-06,0.008
-7.870E-06,-0.004
-7.860E-06,0.000
-7.850E-06,0.004
-7.840E-06,0.008
-7.830E-06,0.012
-7.820E-06,0.008
-7.810E-06,0.004
-7.800E-06,-0.004
-7.790E-06,-0.004
-7.780E-06,-0.004
-7.770E-06,0.000
-7.760E-06,0.012
-7.750E-06,0.024
-7.740E-06,0.012
-7.730E-06,0.004
-7.720E-06,-0.008
-7.710E-06,-0.012
-7.700E-06,-0.008
-7.690E-06,0.008
-7.680E-06,0.020
-7.670E-06,0.024
-7.660E-06,0.012
-7.650E-06,0.000
-7.640E-06,-0.004
-7.630E-06,-0.004
-7.620E-06,0.004
-7.610E-06,0.008
-7.600E-06,0.012
-7.590E-06,0.008
-7.580E-06,0.000
-7.570E-06,-0.004
-7.560E-06,-0.008
-7.550E-06,-0.004
-7.540E-06,0.000
-7.530E-06,0.004
-7.520E-06,0.012
-7.510E-06,0.016
-7.500E-06,0.000
-7.490E-06,-0.004
-7.480E-06,-0.004
-7.470E-06,0.000
-7.460E-06,0.000
-7.450E-06,0.008
-7.440E-06,0.008
-7.430E-06,0.004
-7.420E-06,0.004
-7.410E-06,0.000
-7.400E-06,0.004
-7.390E-06,0.004
-7.380E-06,0.008
-7.370E-06,0.004
-7.360E-06,0.004
-7.350E-06,0.008
-7.340E-06,0.012
-7.330E-06,0.012
-7.320E-06,0.008
-7.310E-06,-0.004
-7.300E-06,0.000
-7.290E-06,0.004
-7.280E-06,0.008
-7.270E-06,0.016
-7.260E-06,0.008
-7.250E-06,0.004
-7.240E-06,0.000
-7.230E-06,0.000
-7.220E-06,0.000
-7.210E-06,0.008
-7.200E-06,0.008
-7.190E-06,0.012
-7.180E-06,0.004
-7.170E-06,-0.004
-7.160E-06,-0.004
-7.150E-06,0.008
-7.140E-06,0.012
-7.130E-06,0.012
-7.120E-06,0.008
-7.110E-06,0.004
-7.100E-06,0.000
-7.090E-06,0.012
-7.080E-06,0.016
-7.070E-06,0.024
-7.060E-06,0.040
-7.050E-06,-0.020
-7.040E-06,-0.032
-7.030E-06,-0.008
-7.020E-06,0.012
-7.010E-06,-0.004
-7.000E-06,0.024
-6.990E-06,0.016
-6.980E-06,-0.012
-6.970E-06,-0.036
-6.960E-06,-0.048
-6.950E-06,-0.004
-6.940E-06,0.020
-6.930E-06,0.040
-6.920E-06,0.028
-6.910E-06,0.008
-6.900E-06,-0.028
-6.890E-06,-0.036
-6.880E-06,-0.024
-6.870E-06,0.008
-6.860E-06,0.028
-6.850E-06,0.036
-6.840E-06,0.028
-6.830E-06,0.000
-6.820E-06,-0.016
-6.810E-06,-0.028
-6.800E-06,-0.004
-6.790E-06,0.020
-6.780E-06,0.036
-6.770E-06,0.024
-6.760E-06,0.008
-6.750E-06,-0.012
-6.740E-06,-0.020
-6.730E-06,-0.004
-6.720E-06,0.004
-6.710E-06,0.020
-6.700E-06,0.024
-6.690E-06,0.028
-6.680E-06,0.016
-6.670E-06,0.012
-6.660E-06,0.000
-6.650E-06,0.000
-6.640E-06,-0.004
-6.630E-06,0.000
-6.620E-06,0.012
-6.610E-06,0.016
-6.600E-06,0.012
-6.590E-06,0.000
-6.580E-06,-0.012
-6.570E-06,-0.020
-6.560E-06,-0.012
-6.550E-06,0.008
-6.540E-06,0.028
-6.530E-06,0.036
-6.520E-06,0.020
-6.510E-06,0.004
-6.500E-06,-0.020
-6.490E-06,-0.044
-6.480E-06,-0.012
-6.470E-06,-0.052
-6.460E-06,-0.008
-6.450E-06,0.044
-6.440E-06,0.032
-6.430E-06,0.004
-6.420E-06,-0.040
-6.410E-06,-0.020
-6.400E-06,-0.016
-6.390E-06,0.024
-6.380E-06,0.020
-6.370E-06,0.020
-6.360E-06,0.008
-6.350E-06,0.008
-6.340E-06,-0.012
-6.330E-06,-0.016
-6.320E-06,0.000
-6.310E-06,0.008
-6.300E-06,0.024
-6.290E-06,0.012
-6.280E-06,0.012
-6.270E-06,-0.008
-6.260E-06,0.000
-6.250E-06,-0.004
-6.240E-06,0.000
-6.230E-06,-0.004
-6.220E-06,0.004
-6.210E-06,0.016
-6.200E-06,0.008
-6.190E-06,0.012
-6.180E-06,0.000
-6.170E-06,-0.004
-6.160E-06,-0.008
-6.150E-06,0.004
-6.140E-06,0.008
-6.130E-06,0.016
-6.120E-06,0.004
-6.110E-06,0.004
-6.100E-06,0.000
-6.090E-06,-0.004
-6.080E-06,0.000
-6.070E-06,0.004
-6.060E-06,0.016
-6.050E-06,0.012
-6.040E-06,0.016
-6.030E-06,0.008
-6.020E-06,0.004
-6.010E-06,0.000
-6.000E-06,-0.004
-5.990E-06,-0.004
-5.980E-06,0.004
-5.970E-06,0.012
-5.960E-06,0.016
-5.950E-06,0.016
-5.940E-06,0.008
-5.930E-06,0.008
-5.920E-06,0.004
-5.910E-06,0.004
-5.900E-06,0.008
-5.890E-06,0.004
-5.880E-06,-0.004
-5.870E-06,-0.004
-5.860E-06,-0.036
-5.850E-06,-0.008
-5.840E-06,0.008
-5.830E-06,0.012
-5.820E-06,0.028
-5.810E-06,0.068
-5.800E-06,0.020
-5.790E-06,-0.072
-5.780E-06,-0.076
-5.770E-06,-0.028
-5.760E-06,0.044
-5.750E-06,0.076
-5.740E-06,0.056
-5.730E-06,0.004
-5.720E-06,-0.036
-5.710E-06,-0.044
-5.700E-06,-0.028
-5.690E-06,0.012
-5.680E-06,0.032
-5.670E-06,0.036
-5.660E-06,0.016
-5.650E-06,0.004
-5.640E-06,-0.008
-5.630E-06,-0.004
-5.620E-06,0.004
-5.610E-06,0.016
-5.600E-06,0.016
-5.590E-06,0.016
-5.580E-06,0.012
-5.570E-06,0.016
-5.560E-06,0.008
-5.550E-06,0.004
-5.540E-06,0.016
-5.530E-06,0.028
-5.520E-06,0.028
-5.510E-06,0.036
-5.500E-06,0.028
-5.490E-06,0.000
-5.480E-06,-0.008
-5.470E-06,-0.008
-5.460E-06,0.064
-5.450E-06,-0.036
-5.440E-06,-0.040
-5.430E-06,-0.108
-5.420E-06,-0.088
-5.410E-06,-0.024
-5.400E-06,0.092
-5.390E-06,0.160
-5.380E-06,0.056
-5.370E-06,-0.036
-5.360E-06,-0.156
-5.350E-06,-0.120
-5.340E-06,-0.016
-5.330E-06,0.096
-5.320E-06,0.128
-5.310E-06,0.076
-5.300E-06,-0.008
-5.290E-06,-0.084
-5.280E-06,-0.080
-5.270E-06,-0.036
-5.260E-06,0.044
-5.250E-06,0.068
-5.240E-06,0.076
-5.230E-06,0.012
-5.220E-06,-0.020
-5.210E-06,-0.060
-5.200E-06,-0.040
-5.190E-06,-0.004
-5.180E-06,0.024
-5.170E-06,0.040
-5.160E-06,0.024
-5.150E-06,0.016
-5.140E-06,-0.008
-5.130E-06,-0.016
-5.120E-06,-0.020
-5.110E-06,-0.004
-5.100E-06,0.008
-5.090E-06,0.028
-5.080E-06,0.028
-5.070E-06,0.024
-5.060E-06,0.012
-5.050E-06,-0.012
-5.040E-06,-0.016
-5.030E-06,-0.008
-5.020E-06,0.012
-5.010E-06,0.028
-5.000E-06,0.040
-4.990E-06,0.016
-4.980E-06,0.000
-4.970E-06,-0.024
-4.960E-06,-0.020
-4.950E-06,-0.004
-4.940E-06,0.020
-4.930E-06,0.048
-4.920E-06,0.044
-4.910E-06,0.028
-4.900E-06,0.000
-4.890E-06,-0.028
-4.880E-06,-0.032
-4.870E-06,-0.016
-4.860E-06,0.000
-4.850E-06,0.024
-4.840E-06,0.032
-4.830E-06,0.032
-4.820E-06,0.028
-4.810E-06,0.028
-4.800E-06,-0.020
-4.790E-06,-0.036
-4.780E-06,-0.080
-4.770E-06,-0.052
-4.760E-06,0.012
-4.750E-06,0.032
-4.740E-06,0.040
-4.730E-06,0.064
-4.720E-06,0.016
-4.710E-06,-0.060
-4.700E-06,-0.076
-4.690E-06,-0.052
-4.680E-06,0.028
-4.670E-06,0.072
-4.660E-06,0.072
-4.650E-06,0.024
-4.640E-06,-0.020
-4.630E-06,-0.056
-4.620E-06,-0.044
-4.610E-06,-0.004
-4.600E-06,0.020
-4.590E-06,0.044
-4.580E-06,0.044
-4.570E-06,0.036
-4.560E-06,0.008
-4.550E-06,-0.016
-4.540E-06,-0.032
-4.530E-06,-0.020
-4.520E-06,0.000
-4.510E-06,0.028
-4.500E-06,0.040
-4.490E-06,0.036
-4.480E-06,0.008
-4.470E-06,-0.008
-4.460E-06,-0.024
-4.450E-06,-0.012
-4.440E-06,0.008
-4.430E-06,0.028
-4.420E-06,0.028
-4.410E-06,0.020
-4.400E-06,-0.004
-4.390E-06,-0.020
-4.380E-06,-0.012
-4.370E-06,0.000
-4.360E-06,0.020
-4.350E-06,0.028
-4.340E-06,0.024
-4.330E-06,0.012
-4.320E-06,-0.004
-4.310E-06,-0.008
-4.300E-06,-0.008
-4.290E-06,0.016
-4.280E-06,0.032
-4.270E-06,0.044
-4.260E-06,0.028
-4.250E-06,-0.004
-4.240E-06,-0.056
-4.230E-06,-0.060
-4.220E-06,-0.036
-4.210E-06,0.008
-4.200E-06,0.036
-4.190E-06,0.028
-4.180E-06,0.020
-4.170E-06,-0.004
-4.160E-06,-0.016
-4.150E-06,-0.032
-4.140E-06,-0.024
-4.130E-06,-0.008
-4.120E-06,0.012
-4.110E-06,0.028
-4.100E-06,0.024
-4.090E-06,0.012
-4.080E-06,-0.004
-4.070E-06,-0.024
-4.060E-06,-0.020
-4.050E-06,-0.016
-4.040E-06,0.008
-4.030E-06,0.020
-4.020E-06,0.040
-4.010E-06,0.020
-4.000E-06,0.004
-3.990E-06,-0.012
-3.980E-06,-0.016
-3.970E-06,0.000
-3.960E-06,0.004
-3.950E-06,0.028
-3.940E-06,0.036
-3.930E-06,0.020
-3.920E-06,0.000
-3.910E-06,-0.008
-3.900E-06,-0.016
-3.890E-06,-0.004
-3.880E-06,0.016
-3.870E-06,0.032
-3.860E-06,0.032
-3.850E-06,0.020
-3.840E-06,0.012
-3.830E-06,0.008
-3.820E-06,0.004
-3.810E-06,-0.012
-3.800E-06,-0.016
-3.790E-06,-0.020
-3.780E-06,0.000
-3.770E-06,0.028
-3.760E-06,0.032
-3.750E-06,0.032
-3.740E-06,0.012
-3.730E-06,-0.036
-3.720E-06,-0.088
-3.710E-06,-0.064
-3.700E-06,-0.004
-3.690E-06,0.064
-3.680E-06,0.068
-3.670E-06,0.040
-3.660E-06,-0.008
-3.650E-06,-0.044
-3.640E-06,-0.052
-3.630E-06,-0.028
-3.620E-06,0.028
-3.610E-06,0.036
-3.600E-06,0.028
-3.590E-06,0.008
-3.580E-06,-0.008
-3.570E-06,-0.028
-3.560E-06,-0.024
-3.550E-06,0.004
-3.540E-06,0.008
-3.530E-06,0.020
-3.520E-06,0.024
-3.510E-06,0.012
-3.500E-06,0.012
-3.490E-06,0.008
-3.480E-06,0.008
-3.470E-06,0.012
-3.460E-06,0.016
-3.450E-06,0.004
-3.440E-06,-0.004
-3.430E-06,-0.008
-3.420E-06,-0.008
-3.410E-06,0.000
-3.400E-06,0.016
-3.390E-06,0.016
-3.380E-06,0.012
-3.370E-06,0.012
-3.360E-06,0.004
-3.350E-06,0.008
-3.340E-06,0.012
-3.330E-06,0.016
-3.320E-06,0.012
-3.310E-06,0.016
-3.300E-06,0.008
-3.290E-06,0.000
-3.280E-06,0.004
-3.270E-06,0.012
-3.260E-06,0.000
-3.250E-06,0.000
-3.240E-06,-0.020
-3.230E-06,-0.024
-3.220E-06,0.016
-3.210E-06,0.024
-3.200E-06,-0.008
-3.190E-06,0.004
-3.180E-06,-0.016
-3.170E-06,-0.028
-3.160E-06,-0.024
-3.150E-06,-0.004
-3.140E-06,0.028
-3.130E-06,0.048
-3.120E-06,0.028
-3.110E-06,-0.008
-3.100E-06,-0.040
-3.090E-06,-0.048
-3.080E-06,-0.016
-3.070E-06,0.020
-3.060E-06,0.040
-3.050E-06,0.032
-3.040E-06,0.008
-3.030E-06,-0.012
-3.020E-06,-0.028
-3.010E-06,-0.012
-3.000E-06,-0.004
-2.990E-06,0.020
-2.980E-06,0.028
-2.970E-06,0.028
-2.960E-06,0.012
-2.950E-06,0.000
-2.940E-06,-0.008
-2.930E-06,-0.012
-2.920E-06,0.000
-2.910E-06,0.008
-2.900E-06,0.012
-2.890E-06,0.024
-2.880E-06,0.016
-2.870E-06,0.008
-2.860E-06,-0.004
-2.850E-06,-0.008
-2.840E-06,-0.004
-2.830E-06,0.008
-2.820E-06,0.020
-2.810E-06,0.032
-2.800E-06,0.020
-2.790E-06,0.012
-2.780E-06,0.000
-2.770E-06,0.000
-2.760E-06,0.004
-2.750E-06,0.012
-2.740E-06,0.008
-2.730E-06,0.008
-2.720E-06,0.024
-2.710E-06,0.036
-2.700E-06,0.024
-2.690E-06,0.016
-2.680E-06,-0.020
-2.670E-06,-0.084
-2.660E-06,-0.060
-2.650E-06,-0.024
-2.640E-06,0.016
-2.630E-06,0.032
-2.620E-06,0.092
-2.610E-06,0.048
-2.600E-06,-0.036
-2.590E-06,-0.068
-2.580E-06,-0.072
-2.570E-06,-0.004
-2.560E-06,0.044
-2.550E-06,0.080
-2.540E-06,0.036
-2.530E-06,0.012
-2.520E-06,-0.028
-2.510E-06,-0.032
-2.500E-06,-0.020
-2.490E-06,0.000
-2.480E-06,0.008
-2.470E-06,0.028
-2.460E-06,0.028
-2.450E-06,0.008
-2.440E-06,0.000
-2.430E-06,-0.028
-2.420E-06,-0.020
-2.410E-06,-0.008
-2.400E-06,0.016
-2.390E-06,0.024
-2.380E-06,0.032
-2.370E-06,0.012
-2.360E-06,-0.008
-2.350E-06,-0.012
-2.340E-06,-0.012
-2.330E-06,0.004
-2.320E-06,0.012
-2.310E-06,0.024
-2.300E-06,0.008
-2.290E-06,0.004
-2.280E-06,-0.004
-2.270E-06,-0.004
-2.260E-06,0.000
-2.250E-06,0.008
-2.240E-06,0.016
-2.230E-06,0.012
-2.220E-06,0.004
-2.210E-06,0.004
-2.200E-06,0.008
-2.190E-06,0.012
-2.180E-06,0.020
-2.170E-06,0.020
-2.160E-06,0.032
-2.150E-06,0.032
-2.140E-06,0.028
-2.130E-06,0.028
-2.120E-06,0.028
-2.110E-06,-0.024
-2.100E-06,-0.040
-2.090E-06,-0.044
-2.080E-06,-0.016
-2.070E-06,0.012
-2.060E-06,0.060
-2.050E-06,0.076
-2.040E-06,0.044
-2.030E-06,0.000
-2.020E-06,-0.072
-2.010E-06,-0.088
-2.000E-06,-0.068
-1.990E-06,-0.004
-1.980E-06,0.044
-1.970E-06,0.076
-1.960E-06,0.088
-1.950E-06,0.032
-1.940E-06,-0.032
-1.930E-06,-0.088
-1.920E-06,-0.076
-1.910E-06,-0.044
-1.900E-06,0.028
-1.890E-06,0.080
-1.880E-06,0.096
-1.870E-06,0.064
-1.860E-06,0.000
-1.850E-06,-0.044
-1.840E-06,-0.036
-1.830E-06,0.004
-1.820E-06,0.020
-1.810E-06,0.076
-1.800E-06,0.064
-1.790E-06,0.024
-1.780E-06,-0.044
-1.770E-06,-0.084
-1.760E-06,-0.088
-1.750E-06,-0.032
-1.740E-06,0.028
-1.730E-06,0.060
-1.720E-06,0.068
-1.710E-06,0.032
-1.700E-06,0.008
-1.690E-06,-0.040
-1.680E-06,-0.052
-1.670E-06,-0.036
-1.660E-06,0.004
-1.650E-06,0.040
-1.640E-06,0.072
-1.630E-06,0.064
-1.620E-06,0.028
-1.610E-06,0.008
-1.600E-06,0.008
-1.590E-06,0.004
-1.580E-06,0.004
-1.570E-06,0.016
-1.560E-06,0.012
-1.550E-06,0.020
-1.540E-06,0.012
-1.530E-06,0.016
-1.520E-06,0.008
-1.510E-06,0.036
-1.500E-06,0.056
-1.490E-06,0.056
-1.480E-06,0.044
-1.470E-06,0.016
-1.460E-06,-0.008
-1.450E-06,-0.024
-1.440E-06,0.000
-1.430E-06,0.048
-1.420E-06,0.064
-1.410E-06,0.032
-1.400E-06,-0.004
-1.390E-06,-0.056
-1.380E-06,-0.068
-1.370E-06,-0.068
-1.360E-06,-0.052
-1.350E-06,-0.016
-1.340E-06,0.012
-1.330E-06,0.028
-1.320E-06,0.028
-1.310E-06,0.020
-1.300E-06,0.008
-1.290E-06,-0.024
-1.280E-06,-0.032
-1.270E-06,-0.036
-1.260E-06,-0.012
-1.250E-06,0.028
-1.240E-06,0.056
-1.230E-06,0.060
-1.220E-06,0.048
-1.210E-06,0.024
-1.200E-06,0.008
-1.190E-06,0.008
-1.180E-06,0.024
-1.170E-06,0.044
-1.160E-06,0.068
-1.150E-06,0.068
-1.140E-06,0.100
-1.130E-06,0.100
-1.120E-06,0.036
-1.110E-06,-0.064
-1.100E-06,-0.160
-1.090E-06,-0.220
-1.080E-06,-0.148
-1.070E-06,-0.004
-1.060E-06,0.108
-1.050E-06,0.176
-1.040E-06,0.112
-1.030E-06,-0.020
-1.020E-06,-0.120
-1.010E-06,-0.152
-1.000E-06,-0.092
-9.900E-07,0.000
-9.800E-07,0.080
-9.700E-07,0.112
-9.600E-07,0.096
-9.500E-07,0.052
-9.400E-07,-0.004
-9.300E-07,-0.016
-9.200E-07,-0.040
-9.100E-07,0.004
-9.000E-07,0.032
-8.900E-07,0.028
-8.800E-07,0.000
-8.700E-07,-0.004
-8.600E-07,-0.004
-8.500E-07,-0.024
-8.400E-07,-0.024
-8.300E-07,-0.012
-8.200E-07,0.016
-8.100E-07,0.044
-8.000E-07,0.088
-7.900E-07,0.028
-7.800E-07,-0.012
-7.700E-07,-0.080
-7.600E-07,-0.072
-7.500E-07,-0.008
-7.400E-07,0.088
-7.300E-07,0.144
-7.200E-07,0.136
-7.100E-07,0.076
-7.000E-07,-0.032
-6.900E-07,-0.068
-6.800E-07,-0.056
-6.700E-07,0.020
-6.600E-07,0.060
-6.500E-07,0.120
-6.400E-07,0.080
-6.300E-07,0.020
-6.200E-07,-0.060
-6.100E-07,-0.096
-6.000E-07,-0.068
-5.900E-07,-0.008
-5.800E-07,0.060
-5.700E-07,0.080
-5.600E-07,0.072
-5.500E-07,0.008
-5.400E-07,-0.040
-5.300E-07,-0.072
-5.200E-07,-0.056
-5.100E-07,-0.012
-5.000E-07,0.048
-4.900E-07,0.080
-4.800E-07,0.064
-4.700E-07,0.032
-4.600E-07,-0.016
-4.500E-07,-0.024
-4.400E-07,0.000
-4.300E-07,0.072
-4.200E-07,0.112
-4.100E-07,0.132
-4.000E-07,0.096
-3.900E-07,0.056
-3.800E-07,-0.012
-3.700E-07,-0.052
-3.600E-07,-0.040
-3.500E-07,0.000
-3.400E-07,0.064
-3.300E-07,0.096
-3.200E-07,0.096
-3.100E-07,0.060
-3.000E-07,0.020
-2.900E-07,-0.004
-2.800E-07,0.024
-2.700E-07,0.092
-2.600E-07,0.152
-2.500E-07,0.164
-2.400E-07,0.152
-2.300E-07,0.096
-2.200E-07,0.044
-2.100E-07,0.008
-2.000E-07,0.000
-1.900E-07,-0.008
-1.800E-07,-0.032
-1.700E-07,-0.056
-1.600E-07,-0.076
-1.500E-07,-0.032
-1.400E-07,0.072
-1.300E-07,0.092
-1.200E-07,0.116
-1.100E-07,0.092
-1.000E-07,0.036
-9.000E-08,-0.008
-8.000E-08,-0.112
-7.000E-08,-0.260
-6.000E-08,-0.436
-5.000E-08,-0.512
-4.000E-08,-0.448
-3.000E-08,-0.024
-2.000E-08,0.420
-1.000E-08,0.540
0.000E+00,0.296
1.000E-08,-0.080
2.000E-08,-0.356
3.000E-08,-0.380
4.000E-08,-0.124
5.000E-08,0.184
6.000E-08,0.416
7.000E-08,0.360
8.000E-08,0.100
9.000E-08,-0.260
1.000E-07,-0.468
1.100E-07,-0.472
1.200E-07,-0.276
1.300E-07,0.124
1.400E-07,0.356
1.500E-07,0.316
1.600E-07,0.080
1.700E-07,-0.128
1.800E-07,-0.264
1.900E-07,-0.216
2.000E-07,-0.044
2.100E-07,0.124
2.200E-07,0.220
2.300E-07,0.176
2.400E-07,0.092
2.500E-07,-0.048
2.600E-07,-0.144
2.700E-07,-0.152
2.800E-07,-0.056
2.900E-07,0.028
3.000E-07,0.092
3.100E-07,0.144
3.200E-07,0.136
3.300E-07,0.084
3.400E-07,0.040
3.500E-07,0.012
3.600E-07,0.016
3.700E-07,0.072
3.800E-07,0.096
3.900E-07,0.120
4.000E-07,0.128
4.100E-07,0.152
4.200E-07,0.188
4.300E-07,0.188
4.400E-07,0.196
4.500E-07,0.184
4.600E-07,0.148
4.700E-07,0.096
4.800E-07,0.052
4.900E-07,0.040
5.000E-07,0.068
5.100E-07,0.108
5.200E-07,0.092
5.300E-07,0.012
5.400E-07,-0.080
5.500E-07,-0.204
5.600E-07,-0.248
5.700E-07,-0.240
5.800E-07,-0.180
5.900E-07,-0.136
6.000E-07,-0.064
6.100E-07,-0.036
6.200E-07,-0.024
6.300E-07,0.008
6.400E-07,0.012
6.500E-07,0.004
6.600E-07,-0.004
6.700E-07,0.000
6.800E-07,0.040
6.900E-07,0.108
7.000E-07,0.156
7.100E-07,0.188
7.200E-07,0.188
7.300E-07,0.164
7.400E-07,0.160
7.500E-07,0.172
7.600E-07,0.232
7.700E-07,0.260
7.800E-07,0.200
7.900E-07,0.140
8.000E-07,0.012
8.100E-07,-0.132
8.200E-07,-0.264
8.300E-07,-0.268
8.400E-07,-0.184
8.500E-07,-0.024
8.600E-07,0.132
8.700E-07,0.244
8.800E-07,0.212
8.900E-07,0.080
9.000E-07,-0.064
9.100E-07,-0.124
9.200E-07,-0.084
9.300E-07,0.028
9.400E-07,0.132
9.500E-07,0.008
9.600E-07,-0.168
9.700E-07,-0.376
9.800E-07,-0.452
9.900E-07,-0.328
1.000E-06,-0.072
1.010E-06,0.192
1.020E-06,0.356
1.030E-06,0.320
1.040E-06,0.100
1.050E-06,-0.092
1.060E-06,-0.212
1.070E-06,-0.180
1.080E-06,0.008
1.090E-06,0.244
1.100E-06,0.420
1.110E-06,0.444
1.120E-06,0.340
1.130E-06,0.148
1.140E-06,0.016
1.150E-06,-0.024
1.160E-06,0.076
1.170E-06,0.188
1.180E-06,0.236
1.190E-06,0.192
1.200E-06,0.088
1.210E-06,0.028
1.220E-06,-0.044
1.230E-06,-0.104
1.240E-06,-0.200
1.250E-06,-0.344
1.260E-06,-0.424
1.270E-06,-0.384
1.280E-06,-0.304
1.290E-06,-0.136
1.300E-06,0.100
1.310E-06,0.180
1.320E-06,0.132
1.330E-06,0.080
1.340E-06,0.032
1.350E-06,0.044
1.360E-06,0.180
1.370E-06,0.300
1.380E-06,0.364
1.390E-06,0.304
1.400E-06,0.196
1.410E-06,0.004
1.420E-06,-0.196
1.430E-06,-0.364
1.440E-06,-0.380
1.450E-06,-0.276
1.460E-06,-0.088
1.470E-06,0.096
1.480E-06,0.096
1.490E-06,0.076
1.500E-06,-0.004
1.510E-06,-0.208
1.520E-06,-0.292
1.530E-06,-0.268
1.540E-06,-0.180
1.550E-06,-0.144
1.560E-06,-0.064
1.570E-06,0.028
1.580E-06,0.096
1.590E-06,0.096
1.600E-06,-0.008
1.610E-06,-0.136
1.620E-06,-0.204
1.630E-06,-0.120
1.640E-06,0.084
1.650E-06,0.268
1.660E-06,0.296
1.670E-06,0.152
1.680E-06,0.024
1.690E-06,-0.088
1.700E-06,-0.100
1.710E-06,0.020
1.720E-06,0.212
1.730E-06,0.380
1.740E-06,0.412
1.750E-06,0.324
1.760E-06,0.148
1.770E-06,0.028
1.780E-06,-0.020
1.790E-06,0.056
1.800E-06,0.204
1.810E-06,0.340
1.820E-06,0.396
1.830E-06,0.320
1.840E-06,0.164
1.850E-06,0.016
1.860E-06,-0.044
1.870E-06,-0.004
1.880E-06,0.108
1.890E-06,0.216
1.900E-06,0.280
1.910E-06,0.248
1.920E-06,0.172
1.930E-06,0.080
1.940E-06,0.044
1.950E-06,0.076
1.960E-06,0.176
1.970E-06,0.288
1.980E-06,0.348
1.990E-06,0.328
2.000E-06,0.236
2.010E-06,0.140
2.020E-06,0.068
2.030E-06,0.088
2.040E-06,0.156
2.050E-06,0.228
2.060E-06,0.272
2.070E-06,0.280
2.080E-06,0.232
2.090E-06,0.188
2.100E-06,0.180
2.110E-06,0.212
2.120E-06,0.236
2.130E-06,0.260
2.140E-06,0.276
2.150E-06,0.228
2.160E-06,0.148
2.170E-06,0.052
2.180E-06,-0.060
2.190E-06,-0.164
2.200E-06,-0.160
2.210E-06,-0.168
2.220E-06,-0.100
2.230E-06,-0.100
2.240E-06,-0.188
2.250E-06,-0.352
2.260E-06,-0.368
2.270E-06,-0.276
2.280E-06,0.020
2.290E-06,0.340
2.300E-06,0.532
2.310E-06,0.504
2.320E-06,0.236
2.330E-06,-0.112
2.340E-06,-0.300
2.350E-06,-0.244
2.360E-06,0.000
2.370E-06,0.296
2.380E-06,0.492
2.390E-06,0.484
2.400E-06,0.228
2.410E-06,-0.044
2.420E-06,-0.292
2.430E-06,-0.308
2.440E-06,-0.100
2.450E-06,0.228
2.460E-06,0.520
2.470E-06,0.536
2.480E-06,0.460
2.490E-06,0.184
2.500E-06,-0.032
2.510E-06,-0.136
2.520E-06,-0.020
2.530E-06,0.180
2.540E-06,0.384
2.550E-06,0.444
2.560E-06,0.372
2.570E-06,0.208
2.580E-06,0.040
2.590E-06,-0.024
2.600E-06,0.008
2.610E-06,0.164
2.620E-06,0.328
2.630E-06,0.444
2.640E-06,0.436
2.650E-06,0.344
2.660E-06,0.188
2.670E-06,0.084
2.680E-06,0.060
2.690E-06,0.132
2.700E-06,0.248
2.710E-06,0.340
2.720E-06,0.376
2.730E-06,0.324
2.740E-06,0.228
2.750E-06,0.128
2.760E-06,0.088
2.770E-06,0.124
2.780E-06,0.200
2.790E-06,0.284
2.800E-06,0.340
2.810E-06,0.324
2.820E-06,0.272
2.830E-06,0.204
2.840E-06,0.164
2.850E-06,0.160
2.860E-06,0.200
2.870E-06,0.268
2.880E-06,0.320
2.890E-06,0.324
2.900E-06,0.280
2.910E-06,0.224
2.920E-06,0.176
2.930E-06,0.160
2.940E-06,0.180
2.950E-06,0.224
2.960E-06,0.272
2.970E-06,0.284
2.980E-06,0.272
2.990E-06,0.236
3.000E-06,0.196
3.010E-06,0.176
3.020E-06,0.188
3.030E-06,0.220
3.040E-06,0.256
3.050E-06,0.272
3.060E-06,0.272
3.070E-06,0.256
3.080E-06,0.228
3.090E-06,0.224
3.100E-06,0.220
3.110E-06,0.228
3.120E-06,0.240
3.130E-06,0.244
3.140E-06,0.236
3.150E-06,0.236
3.160E-06,0.228
3.170E-06,0.224
3.180E-06,0.220
3.190E-06,0.224
3.200E-06,0.240
3.210E-06,0.244
3.220E-06,0.236
3.230E-06,0.224
3.240E-06,0.220
3.250E-06,0.208
3.260E-06,0.208
3.270E-06,0.220
3.280E-06,0.224
