mediciones/Mediciones filtradas (saque las feas)/5-15/32.5/WaveData47066.csv

#timebase=2000000(ps)
,#voltbase=100000(mv/100)
#size=4000
-8.400E-06,-0.012
-8.390E-06,0.072
-8.380E-06,0.112
-8.370E-06,0.116
-8.360E-06,0.040
-8.350E-06,-0.024
-8.340E-06,-0.076
-8.330E-06,-0.084
-8.320E-06,-0.040
-8.310E-06,0.020
-8.300E-06,0.076
-8.290E-06,0.088
-8.280E-06,0.044
-8.270E-06,-0.024
-8.260E-06,-0.072
-8.250E-06,-0.096
-8.240E-06,-0.060
-8.230E-06,-0.004
-8.220E-06,0.056
-8.210E-06,0.080
-8.200E-06,0.064
-8.190E-06,0.028
-8.180E-06,-0.008
-8.170E-06,-0.036
-8.160E-06,-0.036
-8.150E-06,-0.016
-8.140E-06,0.016
-8.130E-06,0.040
-8.120E-06,0.040
-8.110E-06,0.024
-8.100E-06,-0.004
-8.090E-06,-0.028
-8.080E-06,-0.044
-8.070E-06,-0.032
-8.060E-06,-0.008
-8.050E-06,0.032
-8.040E-06,0.044
-8.030E-06,0.044
-8.020E-06,0.032
-8.010E-06,0.000
-8.000E-06,-0.012
-7.990E-06,-0.020
-7.980E-06,-0.008
-7.970E-06,0.000
-7.960E-06,0.016
-7.950E-06,0.024
-7.940E-06,0.012
-7.930E-06,-0.004
-7.920E-06,-0.008
-7.910E-06,-0.024
-7.900E-06,-0.016
-7.890E-06,0.000
-7.880E-06,0.008
-7.870E-06,0.024
-7.860E-06,0.020
-7.850E-06,0.012
-7.840E-06,-0.008
-7.830E-06,-0.004
-7.820E-06,0.000
-7.810E-06,0.008
-7.800E-06,0.008
-7.790E-06,0.012
-7.780E-06,0.008
-7.770E-06,-0.008
-7.760E-06,-0.016
-7.750E-06,-0.008
-7.740E-06,0.000
-7.730E-06,0.012
-7.720E-06,0.020
-7.710E-06,0.016
-7.700E-06,0.008
-7.690E-06,-0.004
-7.680E-06,-0.004
-7.670E-06,0.000
-7.660E-06,0.004
-7.650E-06,0.008
-7.640E-06,0.008
-7.630E-06,0.004
-7.620E-06,0.000
-7.610E-06,-0.004
-7.600E-06,-0.004
-7.590E-06,0.000
-7.580E-06,0.000
-7.570E-06,0.008
-7.560E-06,0.004
-7.550E-06,0.008
-7.540E-06,0.008
-7.530E-06,0.000
-7.520E-06,0.004
-7.510E-06,0.000
-7.500E-06,0.000
-7.490E-06,0.000
-7.480E-06,0.008
-7.470E-06,0.008
-7.460E-06,0.008
-7.450E-06,0.004
-7.440E-06,-0.004
-7.430E-06,-0.004
-7.420E-06,-0.004
-7.410E-06,0.004
-7.400E-06,0.004
-7.390E-06,0.004
-7.380E-06,0.008
-7.370E-06,0.004
-7.360E-06,0.004
-7.350E-06,-0.004
-7.340E-06,0.004
-7.330E-06,0.000
-7.320E-06,0.004
-7.310E-06,0.008
-7.300E-06,0.008
-7.290E-06,0.004
-7.280E-06,0.000
-7.270E-06,0.000
-7.260E-06,0.000
-7.250E-06,0.000
-7.240E-06,0.008
-7.230E-06,0.008
-7.220E-06,0.004
-7.210E-06,0.008
-7.200E-06,0.004
-7.190E-06,0.000
-7.180E-06,-0.004
-7.170E-06,0.008
-7.160E-06,0.008
-7.150E-06,0.012
-7.140E-06,0.012
-7.130E-06,0.008
-7.120E-06,0.000
-7.110E-06,0.000
-7.100E-06,-0.004
-7.090E-06,0.004
-7.080E-06,0.012
-7.070E-06,0.004
-7.060E-06,-0.004
-7.050E-06,-0.004
-7.040E-06,-0.008
-7.030E-06,0.000
-7.020E-06,0.008
-7.010E-06,0.016
-7.000E-06,0.012
-6.990E-06,0.008
-6.980E-06,-0.004
-6.970E-06,-0.008
-6.960E-06,-0.004
-6.950E-06,0.000
-6.940E-06,0.004
-6.930E-06,0.012
-6.920E-06,0.008
-6.910E-06,0.000
-6.900E-06,0.000
-6.890E-06,0.004
-6.880E-06,0.008
-6.870E-06,-0.004
-6.860E-06,0.000
-6.850E-06,0.004
-6.840E-06,0.008
-6.830E-06,0.012
-6.820E-06,0.008
-6.810E-06,0.000
-6.800E-06,0.000
-6.790E-06,0.004
-6.780E-06,0.008
-6.770E-06,0.004
-6.760E-06,0.000
-6.750E-06,0.008
-6.740E-06,0.008
-6.730E-06,0.008
-6.720E-06,0.004
-6.710E-06,0.004
-6.700E-06,0.004
-6.690E-06,-0.004
-6.680E-06,-0.004
-6.670E-06,-0.004
-6.660E-06,0.000
-6.650E-06,0.004
-6.640E-06,0.012
-6.630E-06,0.012
-6.620E-06,0.008
-6.610E-06,-0.004
-6.600E-06,-0.012
-6.590E-06,-0.004
-6.580E-06,-0.004
-6.570E-06,0.008
-6.560E-06,0.020
-6.550E-06,0.016
-6.540E-06,0.000
-6.530E-06,-0.004
-6.520E-06,-0.008
-6.510E-06,-0.008
-6.500E-06,0.000
-6.490E-06,0.012
-6.480E-06,0.012
-6.470E-06,0.012
-6.460E-06,0.004
-6.450E-06,-0.004
-6.440E-06,-0.004
-6.430E-06,-0.008
-6.420E-06,-0.004
-6.410E-06,0.004
-6.400E-06,0.016
-6.390E-06,0.008
-6.380E-06,0.004
-6.370E-06,-0.004
-6.360E-06,0.000
-6.350E-06,0.000
-6.340E-06,0.004
-6.330E-06,0.008
-6.320E-06,0.004
-6.310E-06,0.008
-6.300E-06,0.000
-6.290E-06,0.004
-6.280E-06,0.004
-6.270E-06,0.008
-6.260E-06,0.008
-6.250E-06,0.012
-6.240E-06,0.016
-6.230E-06,0.012
-6.220E-06,0.000
-6.210E-06,0.000
-6.200E-06,0.000
-6.190E-06,-0.004
-6.180E-06,0.008
-6.170E-06,0.012
-6.160E-06,0.008
-6.150E-06,0.004
-6.140E-06,-0.004
-6.130E-06,0.000
-6.120E-06,0.004
-6.110E-06,0.008
-6.100E-06,0.008
-6.090E-06,0.008
-6.080E-06,0.008
-6.070E-06,0.004
-6.060E-06,-0.004
-6.050E-06,-0.004
-6.040E-06,0.000
-6.030E-06,-0.004
-6.020E-06,0.000
-6.010E-06,0.012
-6.000E-06,0.012
-5.990E-06,0.004
-5.980E-06,-0.004
-5.970E-06,-0.012
-5.960E-06,-0.016
-5.950E-06,-0.004
-5.940E-06,0.012
-5.930E-06,0.024
-5.920E-06,0.012
-5.910E-06,0.004
-5.900E-06,-0.008
-5.890E-06,-0.012
-5.880E-06,-0.008
-5.870E-06,0.000
-5.860E-06,0.008
-5.850E-06,0.016
-5.840E-06,0.012
-5.830E-06,0.008
-5.820E-06,0.000
-5.810E-06,-0.004
-5.800E-06,-0.008
-5.790E-06,-0.004
-5.780E-06,0.008
-5.770E-06,0.016
-5.760E-06,0.016
-5.750E-06,0.008
-5.740E-06,0.004
-5.730E-06,-0.004
-5.720E-06,0.000
-5.710E-06,0.004
-5.700E-06,0.012
-5.690E-06,0.024
-5.680E-06,0.024
-5.670E-06,0.016
-5.660E-06,0.004
-5.650E-06,-0.004
-5.640E-06,-0.008
-5.630E-06,0.000
-5.620E-06,0.008
-5.610E-06,0.024
-5.600E-06,0.032
-5.590E-06,0.044
-5.580E-06,0.020
-5.570E-06,-0.032
-5.560E-06,-0.072
-5.550E-06,-0.080
-5.540E-06,-0.036
-5.530E-06,0.036
-5.520E-06,0.072
-5.510E-06,0.036
-5.500E-06,0.000
-5.490E-06,-0.032
-5.480E-06,-0.044
-5.470E-06,-0.032
-5.460E-06,0.000
-5.450E-06,0.024
-5.440E-06,0.024
-5.430E-06,0.024
-5.420E-06,0.012
-5.410E-06,-0.004
-5.400E-06,-0.012
-5.390E-06,-0.012
-5.380E-06,-0.008
-5.370E-06,-0.004
-5.360E-06,0.008
-5.350E-06,0.012
-5.340E-06,0.024
-5.330E-06,0.016
-5.320E-06,0.004
-5.310E-06,-0.012
-5.300E-06,-0.020
-5.290E-06,-0.012
-5.280E-06,0.008
-5.270E-06,0.024
-5.260E-06,0.028
-5.250E-06,0.016
-5.240E-06,0.004
-5.230E-06,-0.008
-5.220E-06,-0.012
-5.210E-06,-0.008
-5.200E-06,0.004
-5.190E-06,0.016
-5.180E-06,0.024
-5.170E-06,0.020
-5.160E-06,0.004
-5.150E-06,-0.004
-5.140E-06,-0.008
-5.130E-06,0.000
-5.120E-06,-0.004
-5.110E-06,0.008
-5.100E-06,0.016
-5.090E-06,0.016
-5.080E-06,0.008
-5.070E-06,0.008
-5.060E-06,0.000
-5.050E-06,0.000
-5.040E-06,0.000
-5.030E-06,0.000
-5.020E-06,0.008
-5.010E-06,0.012
-5.000E-06,0.012
-4.990E-06,0.012
-4.980E-06,0.008
-4.970E-06,0.008
-4.960E-06,0.012
-4.950E-06,0.004
-4.940E-06,0.012
-4.930E-06,0.024
-4.920E-06,0.016
-4.910E-06,0.004
-4.900E-06,0.004
-4.890E-06,0.008
-4.880E-06,0.000
-4.870E-06,0.012
-4.860E-06,0.020
-4.850E-06,0.028
-4.840E-06,0.024
-4.830E-06,0.016
-4.820E-06,0.012
-4.810E-06,0.000
-4.800E-06,0.000
-4.790E-06,-0.004
-4.780E-06,0.008
-4.770E-06,0.020
-4.760E-06,0.024
-4.750E-06,0.040
-4.740E-06,0.032
-4.730E-06,0.024
-4.720E-06,0.056
-4.710E-06,0.016
-4.700E-06,-0.052
-4.690E-06,-0.124
-4.680E-06,-0.132
-4.670E-06,-0.104
-4.660E-06,0.004
-4.650E-06,0.100
-4.640E-06,0.120
-4.630E-06,0.068
-4.620E-06,-0.012
-4.610E-06,-0.096
-4.600E-06,-0.132
-4.590E-06,-0.064
-4.580E-06,0.032
-4.570E-06,0.108
-4.560E-06,0.124
-4.550E-06,0.072
-4.540E-06,-0.004
-4.530E-06,-0.076
-4.520E-06,-0.104
-4.510E-06,-0.108
-4.500E-06,-0.004
-4.490E-06,0.072
-4.480E-06,0.100
-4.470E-06,0.080
-4.460E-06,0.056
-4.450E-06,-0.076
-4.440E-06,-0.156
-4.430E-06,-0.104
-4.420E-06,0.004
-4.410E-06,0.144
-4.400E-06,0.140
-4.390E-06,0.052
-4.380E-06,-0.056
-4.370E-06,-0.100
-4.360E-06,-0.120
-4.350E-06,0.016
-4.340E-06,0.060
-4.330E-06,0.064
-4.320E-06,0.044
-4.310E-06,0.052
-4.300E-06,-0.020
-4.290E-06,-0.064
-4.280E-06,-0.024
-4.270E-06,0.012
-4.260E-06,0.048
-4.250E-06,0.044
-4.240E-06,0.056
-4.230E-06,0.004
-4.220E-06,-0.008
-4.210E-06,-0.044
-4.200E-06,-0.028
-4.190E-06,-0.008
-4.180E-06,0.024
-4.170E-06,0.052
-4.160E-06,0.036
-4.150E-06,0.020
-4.140E-06,-0.020
-4.130E-06,-0.036
-4.120E-06,-0.032
-4.110E-06,-0.004
-4.100E-06,0.032
-4.090E-06,0.044
-4.080E-06,0.044
-4.070E-06,0.024
-4.060E-06,-0.012
-4.050E-06,-0.032
-4.040E-06,-0.024
-4.030E-06,0.004
-4.020E-06,0.044
-4.010E-06,0.064
-4.000E-06,0.064
-3.990E-06,0.032
-3.980E-06,0.000
-3.970E-06,-0.012
-3.960E-06,-0.016
-3.950E-06,0.008
-3.940E-06,0.036
-3.930E-06,0.072
-3.920E-06,0.084
-3.910E-06,0.060
-3.900E-06,0.056
-3.890E-06,0.020
-3.880E-06,0.008
-3.870E-06,-0.012
-3.860E-06,-0.004
-3.850E-06,-0.004
-3.840E-06,0.024
-3.830E-06,0.028
-3.820E-06,0.056
-3.810E-06,0.052
-3.800E-06,0.072
-3.790E-06,0.044
-3.780E-06,-0.116
-3.770E-06,-0.280
-3.760E-06,-0.312
-3.750E-06,-0.216
-3.740E-06,0.044
-3.730E-06,0.236
-3.720E-06,0.296
-3.710E-06,0.156
-3.700E-06,-0.132
-3.690E-06,-0.284
-3.680E-06,-0.300
-3.670E-06,-0.132
-3.660E-06,0.068
-3.650E-06,0.204
-3.640E-06,0.196
-3.630E-06,0.104
-3.620E-06,-0.044
-3.610E-06,-0.132
-3.600E-06,-0.144
-3.590E-06,-0.084
-3.580E-06,0.012
-3.570E-06,0.084
-3.560E-06,0.120
-3.550E-06,0.092
-3.540E-06,0.044
-3.530E-06,-0.044
-3.520E-06,-0.088
-3.510E-06,-0.096
-3.500E-06,-0.036
-3.490E-06,0.036
-3.480E-06,0.096
-3.470E-06,0.096
-3.460E-06,0.040
-3.450E-06,-0.012
-3.440E-06,-0.064
-3.430E-06,-0.072
-3.420E-06,-0.036
-3.410E-06,0.024
-3.400E-06,0.052
-3.390E-06,0.068
-3.380E-06,0.036
-3.370E-06,-0.004
-3.360E-06,-0.028
-3.350E-06,-0.032
-3.340E-06,-0.016
-3.330E-06,0.012
-3.320E-06,0.036
-3.310E-06,0.032
-3.300E-06,0.024
-3.290E-06,0.012
-3.280E-06,-0.004
-3.270E-06,-0.004
-3.260E-06,-0.004
-3.250E-06,0.012
-3.240E-06,0.016
-3.230E-06,0.016
-3.220E-06,0.012
-3.210E-06,0.000
-3.200E-06,0.000
-3.190E-06,0.008
-3.180E-06,0.012
-3.170E-06,0.024
-3.160E-06,0.024
-3.150E-06,0.024
-3.140E-06,0.012
-3.130E-06,0.016
-3.120E-06,0.008
-3.110E-06,0.004
-3.100E-06,0.012
-3.090E-06,0.028
-3.080E-06,0.032
-3.070E-06,0.036
-3.060E-06,0.044
-3.050E-06,0.036
-3.040E-06,0.032
-3.030E-06,0.016
-3.020E-06,0.016
-3.010E-06,0.028
-3.000E-06,0.056
-2.990E-06,0.084
-2.980E-06,0.080
-2.970E-06,0.060
-2.960E-06,0.036
-2.950E-06,0.008
-2.940E-06,-0.004
-2.930E-06,0.020
-2.920E-06,0.044
-2.910E-06,0.084
-2.900E-06,0.108
-2.890E-06,0.108
-2.880E-06,0.092
-2.870E-06,0.092
-2.860E-06,0.020
-2.850E-06,-0.180
-2.840E-06,-0.408
-2.830E-06,-0.484
-2.820E-06,-0.336
-2.810E-06,0.224
-2.800E-06,0.232
-2.790E-06,0.092
-2.780E-06,-0.068
-2.770E-06,-0.236
-2.760E-06,-0.172
-2.750E-06,-0.040
-2.740E-06,0.288
-2.730E-06,0.128
-2.720E-06,-0.004
-2.710E-06,-0.240
-2.700E-06,-0.200
-2.690E-06,-0.076
-2.680E-06,0.092
-2.670E-06,0.252
-2.660E-06,0.168
-2.650E-06,0.036
-2.640E-06,-0.176
-2.630E-06,-0.124
-2.620E-06,-0.084
-2.610E-06,0.096
-2.600E-06,0.076
-2.590E-06,0.096
-2.580E-06,0.020
-2.570E-06,-0.004
-2.560E-06,-0.048
-2.550E-06,-0.052
-2.540E-06,-0.004
-2.530E-06,-0.004
-2.520E-06,0.076
-2.510E-06,0.052
-2.500E-06,0.060
-2.490E-06,-0.020
-2.480E-06,-0.024
-2.470E-06,-0.040
-2.460E-06,0.008
-2.450E-06,0.024
-2.440E-06,0.060
-2.430E-06,0.088
-2.420E-06,0.060
-2.410E-06,0.056
-2.400E-06,0.000
-2.390E-06,0.000
-2.380E-06,-0.028
-2.370E-06,0.008
-2.360E-06,0.028
-2.350E-06,0.068
-2.340E-06,0.072
-2.330E-06,0.056
-2.320E-06,0.056
-2.310E-06,0.032
-2.300E-06,0.008
-2.290E-06,0.000
-2.280E-06,0.024
-2.270E-06,-0.032
-2.260E-06,-0.068
-2.250E-06,-0.084
-2.240E-06,-0.056
-2.230E-06,-0.100
-2.220E-06,-0.028
-2.210E-06,0.080
-2.200E-06,0.128
-2.190E-06,0.088
-2.180E-06,0.012
-2.170E-06,-0.064
-2.160E-06,-0.072
-2.150E-06,-0.020
-2.140E-06,0.048
-2.130E-06,0.120
-2.120E-06,0.104
-2.110E-06,0.024
-2.100E-06,-0.064
-2.090E-06,-0.196
-2.080E-06,-0.316
-2.070E-06,-0.244
-2.060E-06,0.060
-2.050E-06,0.208
-2.040E-06,0.348
-2.030E-06,0.228
-2.020E-06,-0.044
-2.010E-06,-0.280
-2.000E-06,-0.296
-1.990E-06,-0.092
-1.980E-06,0.136
-1.970E-06,0.260
-1.960E-06,0.196
-1.950E-06,0.076
-1.940E-06,-0.072
-1.930E-06,-0.112
-1.920E-06,-0.052
-1.910E-06,0.088
-1.900E-06,0.176
-1.890E-06,0.152
-1.880E-06,0.072
-1.870E-06,-0.064
-1.860E-06,-0.188
-1.850E-06,-0.196
-1.840E-06,-0.080
-1.830E-06,0.044
-1.820E-06,0.124
-1.810E-06,0.144
-1.800E-06,0.096
-1.790E-06,-0.028
-1.780E-06,-0.104
-1.770E-06,-0.132
-1.760E-06,-0.044
-1.750E-06,0.080
-1.740E-06,0.188
-1.730E-06,0.204
-1.720E-06,0.168
-1.710E-06,0.092
-1.700E-06,-0.020
-1.690E-06,-0.240
-1.680E-06,-0.284
-1.670E-06,-0.224
-1.660E-06,-0.036
-1.650E-06,0.188
-1.640E-06,0.368
-1.630E-06,0.236
-1.620E-06,-0.096
-1.610E-06,-0.316
-1.600E-06,-0.316
-1.590E-06,-0.088
-1.580E-06,0.188
-1.570E-06,0.328
-1.560E-06,0.124
-1.550E-06,-0.076
-1.540E-06,-0.248
-1.530E-06,-0.208
-1.520E-06,-0.012
-1.510E-06,0.136
-1.500E-06,0.140
-1.490E-06,0.024
-1.480E-06,-0.072
-1.470E-06,-0.184
-1.460E-06,-0.076
-1.450E-06,0.056
-1.440E-06,0.164
-1.430E-06,0.160
-1.420E-06,0.072
-1.410E-06,-0.032
-1.400E-06,-0.084
-1.390E-06,-0.060
-1.380E-06,-0.100
-1.370E-06,-0.076
-1.360E-06,-0.036
-1.350E-06,0.020
-1.340E-06,0.080
-1.330E-06,0.052
-1.320E-06,0.000
-1.310E-06,-0.004
-1.300E-06,0.020
-1.290E-06,0.076
-1.280E-06,0.076
-1.270E-06,0.028
-1.260E-06,-0.060
-1.250E-06,-0.136
-1.240E-06,-0.172
-1.230E-06,-0.068
-1.220E-06,0.084
-1.210E-06,0.204
-1.200E-06,0.132
-1.190E-06,-0.024
-1.180E-06,-0.156
-1.170E-06,-0.188
-1.160E-06,-0.104
-1.150E-06,0.032
-1.140E-06,0.148
-1.130E-06,0.124
-1.120E-06,0.032
-1.110E-06,-0.088
-1.100E-06,-0.124
-1.090E-06,-0.088
-1.080E-06,0.004
-1.070E-06,0.072
-1.060E-06,0.092
-1.050E-06,0.060
-1.040E-06,-0.004
-1.030E-06,-0.048
-1.020E-06,-0.076
-1.010E-06,-0.044
-1.000E-06,0.004
-9.900E-07,0.068
-9.800E-07,0.100
-9.700E-07,0.096
-9.600E-07,0.052
-9.500E-07,-0.012
-9.400E-07,-0.040
-9.300E-07,-0.056
-9.200E-07,-0.028
-9.100E-07,0.020
-9.000E-07,0.068
-8.900E-07,0.072
-8.800E-07,0.040
-8.700E-07,0.004
-8.600E-07,-0.008
-8.500E-07,0.008
-8.400E-07,0.048
-8.300E-07,0.088
-8.200E-07,0.104
-8.100E-07,0.096
-8.000E-07,0.064
-7.900E-07,0.044
-7.800E-07,0.056
-7.700E-07,0.084
-7.600E-07,0.076
-7.500E-07,0.032
-7.400E-07,-0.088
-7.300E-07,-0.220
-7.200E-07,-0.236
-7.100E-07,-0.192
-7.000E-07,-0.068
-6.900E-07,0.100
-6.800E-07,0.216
-6.700E-07,0.168
-6.600E-07,-0.020
-6.500E-07,-0.172
-6.400E-07,-0.208
-6.300E-07,-0.100
-6.200E-07,0.040
-6.100E-07,0.120
-6.000E-07,0.148
-5.900E-07,0.088
-5.800E-07,-0.028
-5.700E-07,-0.108
-5.600E-07,-0.116
-5.500E-07,-0.056
-5.400E-07,0.036
-5.300E-07,0.104
-5.200E-07,0.128
-5.100E-07,0.076
-5.000E-07,0.004
-4.900E-07,-0.048
-4.800E-07,-0.052
-4.700E-07,-0.012
-4.600E-07,0.064
-4.500E-07,0.128
-4.400E-07,0.144
-4.300E-07,0.124
-4.200E-07,0.076
-4.100E-07,0.044
-4.000E-07,0.040
-3.900E-07,0.100
-3.800E-07,0.132
-3.700E-07,0.184
-3.600E-07,0.200
-3.500E-07,0.180
-3.400E-07,0.144
-3.300E-07,0.060
-3.200E-07,0.012
-3.100E-07,-0.088
-3.000E-07,-0.160
-2.900E-07,-0.204
-2.800E-07,-0.156
-2.700E-07,-0.060
-2.600E-07,0.060
-2.500E-07,0.088
-2.400E-07,0.052
-2.300E-07,-0.020
-2.200E-07,-0.104
-2.100E-07,-0.140
-2.000E-07,-0.116
-1.900E-07,-0.004
-1.800E-07,0.100
-1.700E-07,0.204
-1.600E-07,0.200
-1.500E-07,0.136
-1.400E-07,0.052
-1.300E-07,0.016
-1.200E-07,-0.020
-1.100E-07,0.056
-1.000E-07,0.128
-9.000E-08,0.168
-8.000E-08,0.148
-7.000E-08,0.116
-6.000E-08,0.156
-5.000E-08,-0.408
-4.000E-08,-0.508
-3.000E-08,-0.512
-2.000E-08,-0.504
-1.000E-08,0.028
0.000E+00,0.540
1.000E-08,0.540
2.000E-08,0.440
3.000E-08,-0.500
4.000E-08,-0.512
5.000E-08,-0.508
6.000E-08,-0.464
7.000E-08,0.536
8.000E-08,0.540
9.000E-08,0.540
1.000E-07,-0.112
1.100E-07,-0.512
1.200E-07,-0.512
1.300E-07,-0.512
1.400E-07,0.200
1.500E-07,0.540
1.600E-07,0.540
1.700E-07,0.424
1.800E-07,0.000
1.900E-07,-0.392
2.000E-07,-0.512
2.100E-07,-0.412
2.200E-07,-0.080
2.300E-07,0.312
2.400E-07,0.476
2.500E-07,0.432
2.600E-07,0.144
2.700E-07,-0.156
2.800E-07,-0.388
2.900E-07,-0.316
3.000E-07,-0.108
3.100E-07,0.156
3.200E-07,0.296
3.300E-07,0.300
3.400E-07,0.144
3.500E-07,-0.056
3.600E-07,-0.176
3.700E-07,-0.208
3.800E-07,-0.104
3.900E-07,0.028
4.000E-07,0.200
4.100E-07,0.252
4.200E-07,0.204
4.300E-07,0.056
4.400E-07,-0.072
4.500E-07,-0.104
4.600E-07,-0.044
4.700E-07,0.068
4.800E-07,0.172
4.900E-07,0.260
5.000E-07,0.216
5.100E-07,0.100
5.200E-07,-0.120
5.300E-07,-0.292
5.400E-07,-0.344
5.500E-07,-0.260
5.600E-07,-0.064
5.700E-07,0.164
5.800E-07,0.304
5.900E-07,0.268
6.000E-07,0.032
6.100E-07,-0.180
6.200E-07,-0.288
6.300E-07,-0.164
6.400E-07,0.076
6.500E-07,0.272
6.600E-07,0.360
6.700E-07,0.272
6.800E-07,0.084
6.900E-07,-0.056
7.000E-07,-0.052
7.100E-07,0.008
7.200E-07,0.140
7.300E-07,0.220
7.400E-07,0.196
7.500E-07,0.116
7.600E-07,-0.028
7.700E-07,-0.160
7.800E-07,-0.232
7.900E-07,-0.200
8.000E-07,-0.064
8.100E-07,0.096
8.200E-07,0.172
8.300E-07,0.144
8.400E-07,0.128
8.500E-07,0.072
8.600E-07,-0.004
8.700E-07,-0.008
8.800E-07,0.016
8.900E-07,0.100
9.000E-07,0.144
9.100E-07,-0.112
9.200E-07,-0.456
9.300E-07,-0.508
9.400E-07,-0.508
9.500E-07,-0.512
9.600E-07,0.180
9.700E-07,0.540
9.800E-07,0.540
9.900E-07,0.148
1.000E-06,-0.344
1.010E-06,-0.512
1.020E-06,-0.192
1.030E-06,0.264
1.040E-06,0.512
1.050E-06,0.160
1.060E-06,-0.260
1.070E-06,-0.496
1.080E-06,-0.512
1.090E-06,-0.300
1.100E-06,0.140
1.110E-06,0.352
1.120E-06,0.248
1.130E-06,0.020
1.140E-06,-0.232
1.150E-06,-0.176
1.160E-06,-0.068
1.170E-06,0.088
1.180E-06,0.176
1.190E-06,0.200
1.200E-06,0.068
1.210E-06,-0.092
1.220E-06,-0.172
1.230E-06,-0.172
1.240E-06,-0.012
1.250E-06,0.140
1.260E-06,0.244
1.270E-06,0.164
1.280E-06,0.012
1.290E-06,-0.148
1.300E-06,-0.168
1.310E-06,-0.096
1.320E-06,0.076
1.330E-06,0.244
1.340E-06,0.296
1.350E-06,0.228
1.360E-06,0.060
1.370E-06,-0.072
1.380E-06,-0.148
1.390E-06,-0.044
1.400E-06,0.132
1.410E-06,0.276
1.420E-06,0.340
1.430E-06,0.276
1.440E-06,0.120
1.450E-06,-0.084
1.460E-06,-0.212
1.470E-06,-0.252
1.480E-06,-0.192
1.490E-06,-0.068
1.500E-06,0.008
1.510E-06,0.020
1.520E-06,-0.004
1.530E-06,-0.040
1.540E-06,-0.132
1.550E-06,-0.152
1.560E-06,-0.104
1.570E-06,-0.008
1.580E-06,0.112
1.590E-06,0.188
1.600E-06,0.152
1.610E-06,0.028
1.620E-06,-0.064
1.630E-06,-0.120
1.640E-06,-0.056
1.650E-06,0.076
1.660E-06,0.196
1.670E-06,0.260
1.680E-06,0.220
1.690E-06,0.096
1.700E-06,-0.004
1.710E-06,-0.060
1.720E-06,-0.004
1.730E-06,0.124
1.740E-06,0.256
1.750E-06,0.296
1.760E-06,0.232
1.770E-06,0.124
1.780E-06,0.000
1.790E-06,-0.040
1.800E-06,0.000
1.810E-06,0.104
1.820E-06,0.188
1.830E-06,0.216
1.840E-06,0.172
1.850E-06,0.088
1.860E-06,-0.076
1.870E-06,-0.272
1.880E-06,-0.236
1.890E-06,-0.276
1.900E-06,-0.236
1.910E-06,0.260
1.920E-06,0.344
1.930E-06,0.148
1.940E-06,0.028
1.950E-06,-0.508
1.960E-06,-0.508
1.970E-06,-0.512
1.980E-06,-0.252
1.990E-06,-0.212
2.000E-06,0.276
2.010E-06,0.224
2.020E-06,-0.392
2.030E-06,-0.220
2.040E-06,-0.192
2.050E-06,0.056
2.060E-06,0.124
2.070E-06,0.168
2.080E-06,0.052
2.090E-06,0.128
2.100E-06,0.032
2.110E-06,-0.016
2.120E-06,-0.016
2.130E-06,-0.064
2.140E-06,0.056
2.150E-06,0.128
2.160E-06,0.156
2.170E-06,0.072
2.180E-06,0.012
2.190E-06,-0.176
2.200E-06,-0.108
2.210E-06,-0.028
2.220E-06,0.056
2.230E-06,0.088
2.240E-06,0.064
2.250E-06,0.028
2.260E-06,0.012
2.270E-06,0.012
2.280E-06,-0.060
2.290E-06,-0.052
2.300E-06,-0.048
2.310E-06,0.020
2.320E-06,0.072
2.330E-06,0.092
2.340E-06,0.044
2.350E-06,0.008
2.360E-06,0.004
2.370E-06,0.020
2.380E-06,0.068
2.390E-06,0.100
2.400E-06,0.124
2.410E-06,0.124
2.420E-06,0.144
2.430E-06,0.124
2.440E-06,0.100
2.450E-06,0.084
2.460E-06,0.088
2.470E-06,0.104
2.480E-06,0.128
2.490E-06,0.140
2.500E-06,0.144
2.510E-06,0.148
2.520E-06,0.128
2.530E-06,0.120
2.540E-06,0.072
2.550E-06,-0.004
2.560E-06,-0.100
2.570E-06,-0.164
2.580E-06,-0.208
2.590E-06,-0.176
2.600E-06,-0.120
2.610E-06,-0.036
2.620E-06,0.024
2.630E-06,0.044
2.640E-06,0.000
2.650E-06,-0.084
2.660E-06,-0.176
2.670E-06,-0.172
2.680E-06,-0.184
2.690E-06,-0.064
2.700E-06,0.100
2.710E-06,0.144
2.720E-06,0.088
2.730E-06,-0.064
2.740E-06,-0.140
2.750E-06,-0.224
2.760E-06,-0.124
2.770E-06,0.000
2.780E-06,0.124
2.790E-06,0.160
2.800E-06,0.132
2.810E-06,0.048
2.820E-06,-0.104
2.830E-06,-0.148
2.840E-06,-0.136
2.850E-06,0.012
2.860E-06,0.152
2.870E-06,0.240
2.880E-06,0.208
2.890E-06,0.132
2.900E-06,0.016
2.910E-06,-0.068
2.920E-06,-0.056
2.930E-06,0.044
2.940E-06,0.172
2.950E-06,0.264
2.960E-06,0.268
2.970E-06,0.208
2.980E-06,0.136
2.990E-06,0.068
3.000E-06,0.092
3.010E-06,0.152
3.020E-06,0.232
3.030E-06,0.256
3.040E-06,0.208
3.050E-06,0.124
3.060E-06,-0.012
3.070E-06,-0.080
3.080E-06,-0.072
3.090E-06,-0.004
3.100E-06,0.076
3.110E-06,0.140
3.120E-06,0.144
3.130E-06,0.068
3.140E-06,-0.008
3.150E-06,-0.040
3.160E-06,-0.044
3.170E-06,0.032
3.180E-06,0.136
3.190E-06,0.192
3.200E-06,0.188
3.210E-06,0.140
3.220E-06,0.032
3.230E-06,-0.060
3.240E-06,-0.072
3.250E-06,-0.084
