mediciones/Mediciones filtradas (saque las feas)/5-15/32.5/WaveData47095.csv

#timebase=2000000(ps)
,#voltbase=2000000(mv/100)
#size=4000
-8.400E-06,0.080
-8.390E-06,0.160
-8.380E-06,0.160
-8.370E-06,0.000
-8.360E-06,0.080
-8.350E-06,0.080
-8.340E-06,0.080
-8.330E-06,0.080
-8.320E-06,0.080
-8.310E-06,0.080
-8.300E-06,0.080
-8.290E-06,0.080
-8.280E-06,0.080
-8.270E-06,0.080
-8.260E-06,0.080
-8.250E-06,0.000
-8.240E-06,0.000
-8.230E-06,-0.080
-8.220E-06,0.080
-8.210E-06,-0.080
-8.200E-06,-0.080
-8.190E-06,0.000
-8.180E-06,0.000
-8.170E-06,0.000
-8.160E-06,0.000
-8.150E-06,0.000
-8.140E-06,0.000
-8.130E-06,-0.080
-8.120E-06,0.080
-8.110E-06,0.080
-8.100E-06,0.080
-8.090E-06,0.080
-8.080E-06,0.000
-8.070E-06,0.000
-8.060E-06,0.160
-8.050E-06,0.160
-8.040E-06,0.000
-8.030E-06,0.080
-8.020E-06,0.080
-8.010E-06,0.080
-8.000E-06,0.080
-7.990E-06,0.000
-7.980E-06,0.000
-7.970E-06,0.080
-7.960E-06,0.080
-7.950E-06,0.080
-7.940E-06,0.080
-7.930E-06,0.160
-7.920E-06,0.240
-7.910E-06,0.160
-7.900E-06,0.240
-7.890E-06,0.160
-7.880E-06,0.080
-7.870E-06,0.080
-7.860E-06,0.080
-7.850E-06,-0.080
-7.840E-06,0.000
-7.830E-06,0.000
-7.820E-06,0.000
-7.810E-06,0.000
-7.800E-06,-0.080
-7.790E-06,-0.080
-7.780E-06,0.080
-7.770E-06,0.160
-7.760E-06,0.000
-7.750E-06,0.000
-7.740E-06,0.000
-7.730E-06,0.000
-7.720E-06,0.080
-7.710E-06,0.080
-7.700E-06,0.080
-7.690E-06,0.080
-7.680E-06,0.080
-7.670E-06,0.000
-7.660E-06,0.000
-7.650E-06,0.080
-7.640E-06,0.000
-7.630E-06,0.080
-7.620E-06,0.080
-7.610E-06,0.080
-7.600E-06,0.000
-7.590E-06,0.160
-7.580E-06,0.240
-7.570E-06,0.160
-7.560E-06,0.160
-7.550E-06,0.160
-7.540E-06,0.000
-7.530E-06,0.160
-7.520E-06,0.080
-7.510E-06,0.080
-7.500E-06,0.160
-7.490E-06,0.160
-7.480E-06,0.080
-7.470E-06,0.080
-7.460E-06,0.080
-7.450E-06,0.080
-7.440E-06,0.080
-7.430E-06,0.000
-7.420E-06,0.000
-7.410E-06,0.080
-7.400E-06,0.160
-7.390E-06,0.000
-7.380E-06,0.000
-7.370E-06,0.080
-7.360E-06,-0.080
-7.350E-06,0.000
-7.340E-06,-0.080
-7.330E-06,0.080
-7.320E-06,0.160
-7.310E-06,0.080
-7.300E-06,-0.080
-7.290E-06,-0.080
-7.280E-06,0.000
-7.270E-06,0.080
-7.260E-06,0.000
-7.250E-06,-0.080
-7.240E-06,0.080
-7.230E-06,0.080
-7.220E-06,0.080
-7.210E-06,0.000
-7.200E-06,0.000
-7.190E-06,0.000
-7.180E-06,0.080
-7.170E-06,0.080
-7.160E-06,0.000
-7.150E-06,0.160
-7.140E-06,0.160
-7.130E-06,0.000
-7.120E-06,0.080
-7.110E-06,0.080
-7.100E-06,0.080
-7.090E-06,0.080
-7.080E-06,0.080
-7.070E-06,0.080
-7.060E-06,0.080
-7.050E-06,0.080
-7.040E-06,0.080
-7.030E-06,0.000
-7.020E-06,0.080
-7.010E-06,0.000
-7.000E-06,0.080
-6.990E-06,0.080
-6.980E-06,0.000
-6.970E-06,0.080
-6.960E-06,0.080
-6.950E-06,0.080
-6.940E-06,0.080
-6.930E-06,0.080
-6.920E-06,0.240
-6.910E-06,0.080
-6.900E-06,0.000
-6.890E-06,0.000
-6.880E-06,0.000
-6.870E-06,0.000
-6.860E-06,0.000
-6.850E-06,0.080
-6.840E-06,0.000
-6.830E-06,0.000
-6.820E-06,-0.080
-6.810E-06,0.000
-6.800E-06,0.000
-6.790E-06,0.160
-6.780E-06,0.160
-6.770E-06,0.080
-6.760E-06,0.160
-6.750E-06,0.000
-6.740E-06,0.000
-6.730E-06,0.080
-6.720E-06,0.160
-6.710E-06,0.000
-6.700E-06,0.000
-6.690E-06,0.080
-6.680E-06,0.000
-6.670E-06,0.080
-6.660E-06,0.080
-6.650E-06,0.080
-6.640E-06,0.080
-6.630E-06,0.080
-6.620E-06,0.080
-6.610E-06,0.160
-6.600E-06,0.160
-6.590E-06,0.160
-6.580E-06,0.080
-6.570E-06,0.000
-6.560E-06,0.080
-6.550E-06,0.080
-6.540E-06,0.080
-6.530E-06,0.160
-6.520E-06,0.080
-6.510E-06,0.080
-6.500E-06,0.080
-6.490E-06,0.000
-6.480E-06,0.000
-6.470E-06,0.000
-6.460E-06,0.000
-6.450E-06,0.000
-6.440E-06,0.000
-6.430E-06,0.000
-6.420E-06,0.000
-6.410E-06,0.000
-6.400E-06,0.000
-6.390E-06,-0.080
-6.380E-06,0.000
-6.370E-06,0.000
-6.360E-06,0.160
-6.350E-06,0.000
-6.340E-06,-0.080
-6.330E-06,0.080
-6.320E-06,0.080
-6.310E-06,0.080
-6.300E-06,0.080
-6.290E-06,0.080
-6.280E-06,0.080
-6.270E-06,0.000
-6.260E-06,0.080
-6.250E-06,0.000
-6.240E-06,0.080
-6.230E-06,0.000
-6.220E-06,0.080
-6.210E-06,0.080
-6.200E-06,0.160
-6.190E-06,0.240
-6.180E-06,0.160
-6.170E-06,0.240
-6.160E-06,0.080
-6.150E-06,0.080
-6.140E-06,0.080
-6.130E-06,0.080
-6.120E-06,0.000
-6.110E-06,0.080
-6.100E-06,0.000
-6.090E-06,0.080
-6.080E-06,0.000
-6.070E-06,0.160
-6.060E-06,0.240
-6.050E-06,0.080
-6.040E-06,0.160
-6.030E-06,0.240
-6.020E-06,0.080
-6.010E-06,0.160
-6.000E-06,0.160
-5.990E-06,-0.080
-5.980E-06,0.000
-5.970E-06,0.000
-5.960E-06,0.000
-5.950E-06,0.000
-5.940E-06,-0.080
-5.930E-06,0.000
-5.920E-06,-0.080
-5.910E-06,0.000
-5.900E-06,-0.080
-5.890E-06,0.000
-5.880E-06,-0.080
-5.870E-06,0.000
-5.860E-06,0.080
-5.850E-06,0.080
-5.840E-06,0.080
-5.830E-06,0.080
-5.820E-06,0.000
-5.810E-06,0.080
-5.800E-06,0.080
-5.790E-06,0.160
-5.780E-06,0.080
-5.770E-06,0.080
-5.760E-06,0.000
-5.750E-06,0.000
-5.740E-06,0.080
-5.730E-06,0.000
-5.720E-06,0.160
-5.710E-06,0.080
-5.700E-06,0.160
-5.690E-06,0.240
-5.680E-06,0.000
-5.670E-06,0.080
-5.660E-06,0.080
-5.650E-06,0.000
-5.640E-06,0.080
-5.630E-06,0.080
-5.620E-06,0.080
-5.610E-06,-0.080
-5.600E-06,0.000
-5.590E-06,0.000
-5.580E-06,0.000
-5.570E-06,-0.080
-5.560E-06,0.000
-5.550E-06,-0.080
-5.540E-06,-0.080
-5.530E-06,0.000
-5.520E-06,0.000
-5.510E-06,0.000
-5.500E-06,0.000
-5.490E-06,0.000
-5.480E-06,0.000
-5.470E-06,0.160
-5.460E-06,0.160
-5.450E-06,0.000
-5.440E-06,0.000
-5.430E-06,0.080
-5.420E-06,0.080
-5.410E-06,0.080
-5.400E-06,0.080
-5.390E-06,0.080
-5.380E-06,0.000
-5.370E-06,0.080
-5.360E-06,0.080
-5.350E-06,0.080
-5.340E-06,0.160
-5.330E-06,0.160
-5.320E-06,0.080
-5.310E-06,0.080
-5.300E-06,0.080
-5.290E-06,0.080
-5.280E-06,0.080
-5.270E-06,0.000
-5.260E-06,0.080
-5.250E-06,-0.080
-5.240E-06,0.080
-5.230E-06,-0.080
-5.220E-06,0.080
-5.210E-06,0.160
-5.200E-06,0.000
-5.190E-06,0.000
-5.180E-06,0.080
-5.170E-06,0.000
-5.160E-06,0.080
-5.150E-06,0.080
-5.140E-06,0.080
-5.130E-06,0.080
-5.120E-06,0.080
-5.110E-06,0.000
-5.100E-06,0.080
-5.090E-06,-0.080
-5.080E-06,0.000
-5.070E-06,0.080
-5.060E-06,-0.080
-5.050E-06,0.000
-5.040E-06,0.000
-5.030E-06,0.000
-5.020E-06,0.000
-5.010E-06,-0.080
-5.000E-06,0.000
-4.990E-06,0.160
-4.980E-06,-0.080
-4.970E-06,0.080
-4.960E-06,0.080
-4.950E-06,0.080
-4.940E-06,0.080
-4.930E-06,0.000
-4.920E-06,0.000
-4.910E-06,0.160
-4.900E-06,0.080
-4.890E-06,0.240
-4.880E-06,0.080
-4.870E-06,0.000
-4.860E-06,0.080
-4.850E-06,0.080
-4.840E-06,0.080
-4.830E-06,0.080
-4.820E-06,0.080
-4.810E-06,0.000
-4.800E-06,0.160
-4.790E-06,-0.080
-4.780E-06,-0.080
-4.770E-06,0.000
-4.760E-06,-0.080
-4.750E-06,0.000
-4.740E-06,0.080
-4.730E-06,-0.080
-4.720E-06,0.000
-4.710E-06,0.000
-4.700E-06,0.000
-4.690E-06,0.000
-4.680E-06,0.000
-4.670E-06,0.000
-4.660E-06,0.000
-4.650E-06,0.000
-4.640E-06,0.080
-4.630E-06,-0.080
-4.620E-06,0.000
-4.610E-06,0.080
-4.600E-06,0.080
-4.590E-06,0.080
-4.580E-06,0.080
-4.570E-06,0.080
-4.560E-06,0.000
-4.550E-06,0.080
-4.540E-06,0.080
-4.530E-06,0.080
-4.520E-06,0.000
-4.510E-06,0.080
-4.500E-06,0.000
-4.490E-06,0.080
-4.480E-06,0.080
-4.470E-06,0.080
-4.460E-06,0.080
-4.450E-06,0.000
-4.440E-06,0.080
-4.430E-06,0.080
-4.420E-06,0.080
-4.410E-06,0.080
-4.400E-06,0.160
-4.390E-06,0.000
-4.380E-06,0.000
-4.370E-06,0.000
-4.360E-06,0.000
-4.350E-06,0.000
-4.340E-06,-0.080
-4.330E-06,0.000
-4.320E-06,0.080
-4.310E-06,0.240
-4.300E-06,0.160
-4.290E-06,0.240
-4.280E-06,0.080
-4.270E-06,0.080
-4.260E-06,0.080
-4.250E-06,0.080
-4.240E-06,0.000
-4.230E-06,0.080
-4.220E-06,0.000
-4.210E-06,-0.080
-4.200E-06,0.000
-4.190E-06,-0.080
-4.180E-06,0.000
-4.170E-06,-0.080
-4.160E-06,0.000
-4.150E-06,0.080
-4.140E-06,0.080
-4.130E-06,-0.080
-4.120E-06,0.000
-4.110E-06,0.080
-4.100E-06,0.000
-4.090E-06,0.080
-4.080E-06,-0.080
-4.070E-06,0.000
-4.060E-06,0.080
-4.050E-06,0.080
-4.040E-06,0.080
-4.030E-06,0.080
-4.020E-06,0.080
-4.010E-06,0.080
-4.000E-06,0.080
-3.990E-06,0.080
-3.980E-06,0.160
-3.970E-06,0.240
-3.960E-06,0.080
-3.950E-06,0.080
-3.940E-06,0.240
-3.930E-06,0.160
-3.920E-06,0.240
-3.910E-06,0.240
-3.900E-06,0.160
-3.890E-06,0.080
-3.880E-06,0.080
-3.870E-06,0.080
-3.860E-06,0.080
-3.850E-06,0.080
-3.840E-06,-0.080
-3.830E-06,-0.080
-3.820E-06,0.000
-3.810E-06,-0.080
-3.800E-06,0.000
-3.790E-06,0.000
-3.780E-06,0.000
-3.770E-06,0.000
-3.760E-06,0.000
-3.750E-06,0.000
-3.740E-06,0.080
-3.730E-06,0.080
-3.720E-06,0.080
-3.710E-06,0.080
-3.700E-06,0.080
-3.690E-06,0.080
-3.680E-06,0.000
-3.670E-06,0.160
-3.660E-06,0.080
-3.650E-06,0.160
-3.640E-06,0.240
-3.630E-06,0.080
-3.620E-06,0.160
-3.610E-06,0.160
-3.600E-06,0.080
-3.590E-06,0.160
-3.580E-06,0.160
-3.570E-06,0.240
-3.560E-06,0.160
-3.550E-06,0.080
-3.540E-06,0.160
-3.530E-06,0.080
-3.520E-06,0.000
-3.510E-06,0.160
-3.500E-06,0.000
-3.490E-06,0.080
-3.480E-06,0.160
-3.470E-06,0.160
-3.460E-06,-0.080
-3.450E-06,0.000
-3.440E-06,0.000
-3.430E-06,0.000
-3.420E-06,0.000
-3.410E-06,-0.080
-3.400E-06,0.000
-3.390E-06,-0.080
-3.380E-06,-0.160
-3.370E-06,0.000
-3.360E-06,0.000
-3.350E-06,0.000
-3.340E-06,-0.080
-3.330E-06,0.000
-3.320E-06,0.080
-3.310E-06,0.080
-3.300E-06,0.080
-3.290E-06,-0.080
-3.280E-06,0.000
-3.270E-06,0.160
-3.260E-06,0.160
-3.250E-06,0.240
-3.240E-06,0.240
-3.230E-06,0.160
-3.220E-06,0.080
-3.210E-06,0.080
-3.200E-06,0.240
-3.190E-06,0.160
-3.180E-06,0.240
-3.170E-06,0.080
-3.160E-06,0.080
-3.150E-06,0.080
-3.140E-06,0.080
-3.130E-06,0.080
-3.120E-06,0.160
-3.110E-06,0.080
-3.100E-06,0.080
-3.090E-06,0.080
-3.080E-06,0.160
-3.070E-06,0.000
-3.060E-06,0.080
-3.050E-06,0.080
-3.040E-06,0.080
-3.030E-06,0.080
-3.020E-06,0.160
-3.010E-06,0.240
-3.000E-06,0.240
-2.990E-06,0.240
-2.980E-06,0.240
-2.970E-06,0.240
-2.960E-06,0.080
-2.950E-06,0.080
-2.940E-06,0.080
-2.930E-06,0.080
-2.920E-06,0.000
-2.910E-06,0.000
-2.900E-06,0.000
-2.890E-06,0.000
-2.880E-06,-0.080
-2.870E-06,0.080
-2.860E-06,0.000
-2.850E-06,0.000
-2.840E-06,0.000
-2.830E-06,-0.080
-2.820E-06,-0.080
-2.810E-06,0.000
-2.800E-06,-0.080
-2.790E-06,-0.080
-2.780E-06,0.000
-2.770E-06,0.080
-2.760E-06,-0.080
-2.750E-06,-0.080
-2.740E-06,0.000
-2.730E-06,0.080
-2.720E-06,0.080
-2.710E-06,0.000
-2.700E-06,0.000
-2.690E-06,0.160
-2.680E-06,0.080
-2.670E-06,0.160
-2.660E-06,0.080
-2.650E-06,0.080
-2.640E-06,0.160
-2.630E-06,0.000
-2.620E-06,0.080
-2.610E-06,0.240
-2.600E-06,0.080
-2.590E-06,0.000
-2.580E-06,0.080
-2.570E-06,0.000
-2.560E-06,0.080
-2.550E-06,0.000
-2.540E-06,0.000
-2.530E-06,0.080
-2.520E-06,0.080
-2.510E-06,0.080
-2.500E-06,0.080
-2.490E-06,0.080
-2.480E-06,0.160
-2.470E-06,0.080
-2.460E-06,0.080
-2.450E-06,0.080
-2.440E-06,0.000
-2.430E-06,0.000
-2.420E-06,0.000
-2.410E-06,0.000
-2.400E-06,0.000
-2.390E-06,0.080
-2.380E-06,0.080
-2.370E-06,0.160
-2.360E-06,0.160
-2.350E-06,0.000
-2.340E-06,0.000
-2.330E-06,0.080
-2.320E-06,-0.080
-2.310E-06,0.000
-2.300E-06,0.080
-2.290E-06,-0.080
-2.280E-06,0.000
-2.270E-06,-0.080
-2.260E-06,-0.080
-2.250E-06,-0.080
-2.240E-06,-0.080
-2.230E-06,-0.160
-2.220E-06,-0.160
-2.210E-06,-0.240
-2.200E-06,-0.160
-2.190E-06,-0.080
-2.180E-06,-0.080
-2.170E-06,-0.160
-2.160E-06,-0.240
-2.150E-06,-0.240
-2.140E-06,-0.240
-2.130E-06,-0.080
-2.120E-06,0.000
-2.110E-06,-0.080
-2.100E-06,0.000
-2.090E-06,-0.080
-2.080E-06,-0.080
-2.070E-06,-0.080
-2.060E-06,-0.160
-2.050E-06,-0.080
-2.040E-06,0.000
-2.030E-06,-0.080
-2.020E-06,0.000
-2.010E-06,0.000
-2.000E-06,0.000
-1.990E-06,0.080
-1.980E-06,0.080
-1.970E-06,0.160
-1.960E-06,0.160
-1.950E-06,0.240
-1.940E-06,0.080
-1.930E-06,0.240
-1.920E-06,0.160
-1.910E-06,0.240
-1.900E-06,0.160
-1.890E-06,0.000
-1.880E-06,0.080
-1.870E-06,0.160
-1.860E-06,0.080
-1.850E-06,0.080
-1.840E-06,0.160
-1.830E-06,0.240
-1.820E-06,0.240
-1.810E-06,0.080
-1.800E-06,0.160
-1.790E-06,0.160
-1.780E-06,0.240
-1.770E-06,0.080
-1.760E-06,0.000
-1.750E-06,0.080
-1.740E-06,0.080
-1.730E-06,0.000
-1.720E-06,0.000
-1.710E-06,0.000
-1.700E-06,-0.080
-1.690E-06,-0.080
-1.680E-06,-0.080
-1.670E-06,-0.080
-1.660E-06,-0.080
-1.650E-06,-0.080
-1.640E-06,0.000
-1.630E-06,0.000
-1.620E-06,0.000
-1.610E-06,-0.080
-1.600E-06,0.000
-1.590E-06,0.000
-1.580E-06,0.000
-1.570E-06,0.000
-1.560E-06,0.080
-1.550E-06,0.080
-1.540E-06,0.000
-1.530E-06,0.160
-1.520E-06,0.000
-1.510E-06,0.080
-1.500E-06,0.240
-1.490E-06,0.080
-1.480E-06,0.080
-1.470E-06,0.080
-1.460E-06,0.160
-1.450E-06,0.080
-1.440E-06,0.080
-1.430E-06,0.000
-1.420E-06,0.000
-1.410E-06,0.000
-1.400E-06,0.000
-1.390E-06,0.000
-1.380E-06,0.000
-1.370E-06,-0.080
-1.360E-06,-0.080
-1.350E-06,-0.160
-1.340E-06,-0.160
-1.330E-06,-0.240
-1.320E-06,-0.240
-1.310E-06,-0.240
-1.300E-06,-0.240
-1.290E-06,-0.320
-1.280E-06,-0.160
-1.270E-06,-0.320
-1.260E-06,-0.400
-1.250E-06,-0.400
-1.240E-06,-0.400
-1.230E-06,-0.560
-1.220E-06,-0.640
-1.210E-06,-0.640
-1.200E-06,-0.640
-1.190E-06,-0.720
-1.180E-06,-0.720
-1.170E-06,-0.880
-1.160E-06,-0.960
-1.150E-06,-0.800
-1.140E-06,-1.040
-1.130E-06,-0.640
-1.120E-06,-0.560
-1.110E-06,-0.400
-1.100E-06,-0.320
-1.090E-06,-0.320
-1.080E-06,-0.400
-1.070E-06,-0.560
-1.060E-06,-0.400
-1.050E-06,-0.320
-1.040E-06,-0.240
-1.030E-06,-0.400
-1.020E-06,-0.320
-1.010E-06,-0.320
-1.000E-06,-0.320
-9.900E-07,-0.080
-9.800E-07,0.000
-9.700E-07,-0.080
-9.600E-07,-0.080
-9.500E-07,-0.080
-9.400E-07,-0.080
-9.300E-07,-0.080
-9.200E-07,0.000
-9.100E-07,0.000
-9.000E-07,0.000
-8.900E-07,0.000
-8.800E-07,-0.080
-8.700E-07,0.000
-8.600E-07,0.000
-8.500E-07,0.000
-8.400E-07,0.000
-8.300E-07,0.000
-8.200E-07,-0.080
-8.100E-07,0.000
-8.000E-07,0.000
-7.900E-07,-0.080
-7.800E-07,-0.080
-7.700E-07,-0.240
-7.600E-07,-0.240
-7.500E-07,-0.160
-7.400E-07,-0.320
-7.300E-07,-0.320
-7.200E-07,-0.560
-7.100E-07,-0.560
-7.000E-07,-0.640
-6.900E-07,-0.640
-6.800E-07,-0.800
-6.700E-07,-0.800
-6.600E-07,-0.720
-6.500E-07,-0.800
-6.400E-07,-0.640
-6.300E-07,-0.480
-6.200E-07,-0.480
-6.100E-07,-0.400
-6.000E-07,-0.400
-5.900E-07,-0.560
-5.800E-07,-0.480
-5.700E-07,-0.400
-5.600E-07,-0.240
-5.500E-07,-0.400
-5.400E-07,-0.480
-5.300E-07,-0.480
-5.200E-07,-0.400
-5.100E-07,-0.400
-5.000E-07,-0.560
-4.900E-07,-0.480
-4.800E-07,-0.560
-4.700E-07,-0.720
-4.600E-07,-0.720
-4.500E-07,-0.640
-4.400E-07,-0.720
-4.300E-07,-0.880
-4.200E-07,-0.800
-4.100E-07,-0.960
-4.000E-07,-0.960
-3.900E-07,-0.960
-3.800E-07,-0.960
-3.700E-07,-0.880
-3.600E-07,-1.040
-3.500E-07,-0.960
-3.400E-07,-0.880
-3.300E-07,-0.720
-3.200E-07,-0.640
-3.100E-07,-0.640
-3.000E-07,-0.880
-2.900E-07,-0.960
-2.800E-07,-1.040
-2.700E-07,-1.120
-2.600E-07,-1.200
-2.500E-07,-1.280
-2.400E-07,-1.440
-2.300E-07,-1.440
-2.200E-07,-1.520
-2.100E-07,-1.520
-2.000E-07,-1.520
-1.900E-07,-1.680
-1.800E-07,-1.600
-1.700E-07,-1.760
-1.600E-07,-1.760
-1.500E-07,-1.840
-1.400E-07,-1.760
-1.300E-07,-2.000
-1.200E-07,-2.000
-1.100E-07,-2.080
-1.000E-07,-2.160
-9.000E-08,-1.920
-8.000E-08,-1.920
-7.000E-08,-1.760
-6.000E-08,-1.200
-5.000E-08,-0.960
-4.000E-08,-0.480
-3.000E-08,-0.560
-2.000E-08,-0.640
-1.000E-08,-1.040
0.000E+00,-1.440
1.000E-08,-1.520
2.000E-08,-1.520
3.000E-08,-1.680
4.000E-08,-1.680
5.000E-08,-1.680
6.000E-08,-1.120
7.000E-08,-0.880
8.000E-08,-0.560
9.000E-08,-0.560
1.000E-07,-0.720
1.100E-07,-0.800
1.200E-07,-1.040
1.300E-07,-1.040
1.400E-07,-1.200
1.500E-07,-1.440
1.600E-07,-1.680
1.700E-07,-1.760
1.800E-07,-1.600
1.900E-07,-1.600
2.000E-07,-1.120
2.100E-07,-1.200
2.200E-07,-0.800
2.300E-07,-0.880
2.400E-07,-0.320
2.500E-07,-0.480
2.600E-07,0.000
2.700E-07,0.000
2.800E-07,-0.240
2.900E-07,-0.400
3.000E-07,-0.720
3.100E-07,-0.880
3.200E-07,-0.640
3.300E-07,-0.320
3.400E-07,-0.320
3.500E-07,0.160
3.600E-07,-0.320
3.700E-07,-0.080
3.800E-07,-0.400
3.900E-07,-0.720
4.000E-07,-0.800
4.100E-07,-0.720
4.200E-07,-0.960
4.300E-07,-0.960
4.400E-07,-1.040
4.500E-07,-1.120
4.600E-07,-1.040
4.700E-07,-0.960
4.800E-07,-0.960
4.900E-07,-0.960
5.000E-07,-0.800
5.100E-07,-0.640
5.200E-07,-0.640
5.300E-07,-0.480
5.400E-07,-0.240
5.500E-07,-0.080
5.600E-07,0.080
5.700E-07,0.000
5.800E-07,0.160
5.900E-07,0.000
6.000E-07,0.080
6.100E-07,0.080
6.200E-07,0.160
6.300E-07,0.160
6.400E-07,0.000
6.500E-07,0.000
6.600E-07,-0.080
6.700E-07,0.000
6.800E-07,0.000
6.900E-07,0.080
7.000E-07,0.080
7.100E-07,0.240
7.200E-07,0.400
7.300E-07,0.560
7.400E-07,0.560
7.500E-07,0.400
7.600E-07,0.400
7.700E-07,0.240
7.800E-07,0.320
7.900E-07,0.160
8.000E-07,0.160
8.100E-07,0.160
8.200E-07,-0.080
8.300E-07,0.000
8.400E-07,-0.160
8.500E-07,-0.080
8.600E-07,-0.080
8.700E-07,-0.160
8.800E-07,-0.160
8.900E-07,-0.160
9.000E-07,-0.240
9.100E-07,-0.240
9.200E-07,-0.240
9.300E-07,-0.080
9.400E-07,-0.080
9.500E-07,-0.160
9.600E-07,-0.240
9.700E-07,-0.240
9.800E-07,-0.480
9.900E-07,-0.720
1.000E-06,-0.880
1.010E-06,-1.040
1.020E-06,-1.360
1.030E-06,-1.600
1.040E-06,-1.760
1.050E-06,-1.760
1.060E-06,-1.680
1.070E-06,-1.840
1.080E-06,-1.760
1.090E-06,-1.680
1.100E-06,-1.680
1.110E-06,-1.760
1.120E-06,-1.680
1.130E-06,-1.600
1.140E-06,-1.680
1.150E-06,-1.760
1.160E-06,-1.680
1.170E-06,-1.680
1.180E-06,-1.600
1.190E-06,-1.520
1.200E-06,-1.600
1.210E-06,-1.680
1.220E-06,-1.600
1.230E-06,-1.760
1.240E-06,-1.680
1.250E-06,-1.840
1.260E-06,-1.840
1.270E-06,-1.840
1.280E-06,-1.920
1.290E-06,-1.840
1.300E-06,-2.000
1.310E-06,-1.920
1.320E-06,-1.840
1.330E-06,-2.000
1.340E-06,-1.920
1.350E-06,-1.920
1.360E-06,-1.920
1.370E-06,-1.840
1.380E-06,-1.760
1.390E-06,-1.840
1.400E-06,-1.760
1.410E-06,-1.760
1.420E-06,-1.680
1.430E-06,-1.760
1.440E-06,-1.680
1.450E-06,-1.440
1.460E-06,-1.360
1.470E-06,-1.440
1.480E-06,-1.440
1.490E-06,-1.440
1.500E-06,-1.680
1.510E-06,-1.520
1.520E-06,-1.600
1.530E-06,-1.520
1.540E-06,-1.440
1.550E-06,-1.440
1.560E-06,-1.520
1.570E-06,-1.440
1.580E-06,-1.360
1.590E-06,-0.880
1.600E-06,-0.800
1.610E-06,0.000
1.620E-06,0.320
1.630E-06,0.640
1.640E-06,0.880
1.650E-06,0.480
1.660E-06,-0.160
1.670E-06,-0.800
1.680E-06,-1.360
1.690E-06,-1.920
1.700E-06,-2.080
1.710E-06,-2.720
1.720E-06,-2.640
1.730E-06,-2.880
1.740E-06,-2.800
1.750E-06,-2.640
1.760E-06,-2.480
1.770E-06,-2.240
1.780E-06,-2.000
1.790E-06,-1.680
1.800E-06,-1.520
1.810E-06,-1.280
1.820E-06,-1.120
1.830E-06,-0.720
1.840E-06,-0.400
1.850E-06,-0.160
1.860E-06,0.000
1.870E-06,0.160
1.880E-06,0.320
1.890E-06,0.240
1.900E-06,0.240
1.910E-06,0.320
1.920E-06,0.400
1.930E-06,0.480
1.940E-06,0.480
1.950E-06,0.640
1.960E-06,0.560
1.970E-06,0.560
1.980E-06,0.480
1.990E-06,0.720
2.000E-06,0.720
2.010E-06,0.560
2.020E-06,0.400
2.030E-06,0.320
2.040E-06,0.000
2.050E-06,-0.240
2.060E-06,-0.400
2.070E-06,-0.560
2.080E-06,-0.640
2.090E-06,-0.640
2.100E-06,-0.640
2.110E-06,-0.560
2.120E-06,-0.480
2.130E-06,-0.400
2.140E-06,-0.320
2.150E-06,-0.320
2.160E-06,-0.160
2.170E-06,-0.080
2.180E-06,-0.160
2.190E-06,0.000
2.200E-06,-0.160
2.210E-06,-0.240
2.220E-06,-0.320
2.230E-06,-0.320
2.240E-06,-0.400
2.250E-06,-0.480
2.260E-06,-0.720
2.270E-06,-0.720
2.280E-06,-0.640
2.290E-06,-0.640
2.300E-06,-0.800
2.310E-06,-0.720
2.320E-06,-0.640
2.330E-06,-0.640
2.340E-06,-0.560
2.350E-06,-0.560
2.360E-06,-0.480
2.370E-06,-0.320
2.380E-06,-0.240
2.390E-06,-0.240
2.400E-06,-0.160
2.410E-06,-0.160
2.420E-06,-0.080
2.430E-06,0.000
2.440E-06,0.000
2.450E-06,0.080
2.460E-06,0.240
2.470E-06,0.240
2.480E-06,0.320
2.490E-06,0.400
2.500E-06,0.320
2.510E-06,0.320
2.520E-06,0.400
2.530E-06,0.480
2.540E-06,0.480
2.550E-06,0.640
2.560E-06,0.560
2.570E-06,0.480
2.580E-06,0.400
2.590E-06,0.480
2.600E-06,0.480
2.610E-06,0.720
2.620E-06,0.560
2.630E-06,0.640
2.640E-06,0.560
2.650E-06,0.320
2.660E-06,0.160
2.670E-06,-0.080
2.680E-06,-0.240
2.690E-06,-0.320
2.700E-06,-0.240
2.710E-06,-0.320
2.720E-06,-0.080
2.730E-06,0.000
2.740E-06,0.400
2.750E-06,0.640
2.760E-06,1.360
2.770E-06,1.280
2.780E-06,1.440
2.790E-06,0.720
2.800E-06,0.640
2.810E-06,-0.240
2.820E-06,-0.240
2.830E-06,-0.880
2.840E-06,-0.960
2.850E-06,-1.040
2.860E-06,-0.960
2.870E-06,-1.040
2.880E-06,-1.040
2.890E-06,-1.200
2.900E-06,-1.200
2.910E-06,-1.280
2.920E-06,-1.040
2.930E-06,-1.120
2.940E-06,-1.120
2.950E-06,-1.040
2.960E-06,-1.040
2.970E-06,-0.960
2.980E-06,-0.640
2.990E-06,-0.560
3.000E-06,-0.480
3.010E-06,-0.160
3.020E-06,0.000
3.030E-06,0.080
3.040E-06,0.080
3.050E-06,0.000
3.060E-06,-0.160
3.070E-06,-0.080
3.080E-06,0.000
3.090E-06,-0.160
3.100E-06,-0.160
3.110E-06,-0.160
3.120E-06,-0.160
3.130E-06,0.000
3.140E-06,0.000
3.150E-06,0.080
3.160E-06,-0.080
3.170E-06,0.160
3.180E-06,0.160
3.190E-06,0.240
3.200E-06,0.160
3.210E-06,0.160
3.220E-06,0.080
3.230E-06,0.000
3.240E-06,-0.080
3.250E-06,-0.080
