mediciones/5-15/17.4/WaveData47355.csv

#timebase=2000000(ps)
,#voltbase=100000(mv/100)
#size=4000
-8.400E-06,0.004
-8.390E-06,-0.004
-8.380E-06,0.000
-8.370E-06,0.000
-8.360E-06,0.004
-8.350E-06,0.004
-8.340E-06,0.000
-8.330E-06,0.000
-8.320E-06,0.000
-8.310E-06,0.012
-8.300E-06,0.008
-8.290E-06,-0.004
-8.280E-06,0.004
-8.270E-06,0.008
-8.260E-06,0.004
-8.250E-06,0.000
-8.240E-06,0.008
-8.230E-06,0.004
-8.220E-06,0.000
-8.210E-06,-0.004
-8.200E-06,0.004
-8.190E-06,-0.004
-8.180E-06,0.004
-8.170E-06,0.000
-8.160E-06,0.004
-8.150E-06,0.004
-8.140E-06,0.004
-8.130E-06,0.004
-8.120E-06,0.000
-8.110E-06,0.000
-8.100E-06,0.004
-8.090E-06,0.008
-8.080E-06,0.004
-8.070E-06,0.004
-8.060E-06,0.004
-8.050E-06,0.004
-8.040E-06,0.000
-8.030E-06,0.000
-8.020E-06,0.000
-8.010E-06,0.004
-8.000E-06,0.008
-7.990E-06,0.008
-7.980E-06,0.000
-7.970E-06,0.004
-7.960E-06,0.004
-7.950E-06,0.004
-7.940E-06,0.004
-7.930E-06,0.012
-7.920E-06,0.012
-7.910E-06,0.008
-7.900E-06,0.008
-7.890E-06,-0.004
-7.880E-06,0.000
-7.870E-06,-0.004
-7.860E-06,0.004
-7.850E-06,0.004
-7.840E-06,0.008
-7.830E-06,-0.004
-7.820E-06,0.000
-7.810E-06,0.000
-7.800E-06,0.000
-7.790E-06,0.004
-7.780E-06,0.004
-7.770E-06,0.004
-7.760E-06,0.008
-7.750E-06,0.008
-7.740E-06,0.004
-7.730E-06,0.000
-7.720E-06,0.000
-7.710E-06,0.004
-7.700E-06,0.004
-7.690E-06,0.004
-7.680E-06,0.008
-7.670E-06,0.004
-7.660E-06,0.012
-7.650E-06,0.000
-7.640E-06,0.000
-7.630E-06,0.000
-7.620E-06,-0.008
-7.610E-06,0.000
-7.600E-06,0.004
-7.590E-06,0.004
-7.580E-06,-0.004
-7.570E-06,0.000
-7.560E-06,0.000
-7.550E-06,0.004
-7.540E-06,0.008
-7.530E-06,0.004
-7.520E-06,-0.004
-7.510E-06,0.000
-7.500E-06,0.004
-7.490E-06,0.008
-7.480E-06,0.012
-7.470E-06,0.004
-7.460E-06,0.008
-7.450E-06,0.004
-7.440E-06,0.000
-7.430E-06,0.000
-7.420E-06,0.004
-7.410E-06,0.004
-7.400E-06,0.008
-7.390E-06,0.004
-7.380E-06,0.004
-7.370E-06,0.000
-7.360E-06,0.000
-7.350E-06,0.008
-7.340E-06,0.008
-7.330E-06,0.008
-7.320E-06,0.004
-7.310E-06,0.008
-7.300E-06,-0.004
-7.290E-06,0.004
-7.280E-06,0.004
-7.270E-06,0.004
-7.260E-06,0.000
-7.250E-06,0.004
-7.240E-06,0.000
-7.230E-06,0.000
-7.220E-06,0.004
-7.210E-06,0.000
-7.200E-06,0.004
-7.190E-06,0.004
-7.180E-06,0.004
-7.170E-06,0.004
-7.160E-06,0.004
-7.150E-06,0.008
-7.140E-06,0.004
-7.130E-06,0.008
-7.120E-06,0.008
-7.110E-06,0.012
-7.100E-06,0.000
-7.090E-06,0.004
-7.080E-06,0.000
-7.070E-06,0.000
-7.060E-06,-0.004
-7.050E-06,0.004
-7.040E-06,0.008
-7.030E-06,0.004
-7.020E-06,0.008
-7.010E-06,0.004
-7.000E-06,0.004
-6.990E-06,0.000
-6.980E-06,-0.004
-6.970E-06,-0.004
-6.960E-06,0.000
-6.950E-06,0.004
-6.940E-06,0.004
-6.930E-06,0.004
-6.920E-06,0.004
-6.910E-06,0.000
-6.900E-06,0.000
-6.890E-06,-0.004
-6.880E-06,0.000
-6.870E-06,0.000
-6.860E-06,0.004
-6.850E-06,0.012
-6.840E-06,0.008
-6.830E-06,0.008
-6.820E-06,-0.004
-6.810E-06,-0.004
-6.800E-06,0.004
-6.790E-06,0.004
-6.780E-06,0.008
-6.770E-06,0.008
-6.760E-06,0.000
-6.750E-06,0.000
-6.740E-06,0.000
-6.730E-06,0.000
-6.720E-06,0.004
-6.710E-06,0.004
-6.700E-06,0.000
-6.690E-06,0.004
-6.680E-06,0.004
-6.670E-06,0.000
-6.660E-06,0.004
-6.650E-06,0.004
-6.640E-06,0.004
-6.630E-06,0.000
-6.620E-06,0.004
-6.610E-06,0.000
-6.600E-06,0.004
-6.590E-06,0.008
-6.580E-06,0.004
-6.570E-06,0.000
-6.560E-06,0.004
-6.550E-06,0.004
-6.540E-06,0.004
-6.530E-06,0.000
-6.520E-06,0.000
-6.510E-06,0.008
-6.500E-06,0.008
-6.490E-06,0.004
-6.480E-06,0.004
-6.470E-06,0.000
-6.460E-06,-0.004
-6.450E-06,-0.004
-6.440E-06,0.004
-6.430E-06,0.000
-6.420E-06,0.008
-6.410E-06,0.004
-6.400E-06,0.004
-6.390E-06,0.000
-6.380E-06,-0.008
-6.370E-06,-0.004
-6.360E-06,0.000
-6.350E-06,0.004
-6.340E-06,0.004
-6.330E-06,0.008
-6.320E-06,0.008
-6.310E-06,0.004
-6.300E-06,0.000
-6.290E-06,-0.004
-6.280E-06,-0.004
-6.270E-06,0.004
-6.260E-06,0.008
-6.250E-06,0.008
-6.240E-06,0.008
-6.230E-06,0.004
-6.220E-06,0.000
-6.210E-06,-0.004
-6.200E-06,0.000
-6.190E-06,0.004
-6.180E-06,0.008
-6.170E-06,0.008
-6.160E-06,0.004
-6.150E-06,0.000
-6.140E-06,0.004
-6.130E-06,0.000
-6.120E-06,0.000
-6.110E-06,0.004
-6.100E-06,0.008
-6.090E-06,0.004
-6.080E-06,0.000
-6.070E-06,0.004
-6.060E-06,0.004
-6.050E-06,-0.004
-6.040E-06,0.004
-6.030E-06,0.004
-6.020E-06,0.000
-6.010E-06,0.004
-6.000E-06,0.004
-5.990E-06,0.000
-5.980E-06,0.004
-5.970E-06,0.000
-5.960E-06,0.004
-5.950E-06,0.008
-5.940E-06,0.008
-5.930E-06,0.000
-5.920E-06,0.004
-5.910E-06,0.004
-5.900E-06,0.004
-5.890E-06,-0.004
-5.880E-06,0.000
-5.870E-06,-0.004
-5.860E-06,0.004
-5.850E-06,0.008
-5.840E-06,0.008
-5.830E-06,0.008
-5.820E-06,-0.004
-5.810E-06,-0.004
-5.800E-06,-0.004
-5.790E-06,0.004
-5.780E-06,0.008
-5.770E-06,0.004
-5.760E-06,0.004
-5.750E-06,0.008
-5.740E-06,0.008
-5.730E-06,-0.004
-5.720E-06,-0.004
-5.710E-06,-0.004
-5.700E-06,0.004
-5.690E-06,0.004
-5.680E-06,0.000
-5.670E-06,0.004
-5.660E-06,0.004
-5.650E-06,0.000
-5.640E-06,0.000
-5.630E-06,0.000
-5.620E-06,0.004
-5.610E-06,0.004
-5.600E-06,0.000
-5.590E-06,0.008
-5.580E-06,0.008
-5.570E-06,0.004
-5.560E-06,0.000
-5.550E-06,0.000
-5.540E-06,0.000
-5.530E-06,0.004
-5.520E-06,0.008
-5.510E-06,0.008
-5.500E-06,0.008
-5.490E-06,0.000
-5.480E-06,0.000
-5.470E-06,0.000
-5.460E-06,0.004
-5.450E-06,0.004
-5.440E-06,0.004
-5.430E-06,0.008
-5.420E-06,0.004
-5.410E-06,0.004
-5.400E-06,0.000
-5.390E-06,-0.004
-5.380E-06,0.000
-5.370E-06,0.008
-5.360E-06,0.008
-5.350E-06,0.004
-5.340E-06,0.000
-5.330E-06,0.004
-5.320E-06,0.000
-5.310E-06,0.000
-5.300E-06,0.004
-5.290E-06,0.000
-5.280E-06,0.004
-5.270E-06,0.004
-5.260E-06,0.004
-5.250E-06,0.004
-5.240E-06,0.004
-5.230E-06,0.000
-5.220E-06,0.004
-5.210E-06,0.004
-5.200E-06,0.004
-5.190E-06,0.000
-5.180E-06,0.000
-5.170E-06,0.004
-5.160E-06,0.008
-5.150E-06,0.004
-5.140E-06,0.004
-5.130E-06,0.000
-5.120E-06,0.000
-5.110E-06,0.004
-5.100E-06,0.004
-5.090E-06,0.008
-5.080E-06,0.004
-5.070E-06,0.000
-5.060E-06,0.004
-5.050E-06,0.000
-5.040E-06,0.004
-5.030E-06,0.008
-5.020E-06,0.004
-5.010E-06,0.008
-5.000E-06,0.000
-4.990E-06,-0.004
-4.980E-06,0.000
-4.970E-06,0.008
-4.960E-06,0.012
-4.950E-06,0.012
-4.940E-06,0.004
-4.930E-06,0.004
-4.920E-06,0.000
-4.910E-06,0.000
-4.900E-06,0.000
-4.890E-06,0.008
-4.880E-06,0.008
-4.870E-06,0.004
-4.860E-06,0.004
-4.850E-06,0.004
-4.840E-06,0.004
-4.830E-06,0.008
-4.820E-06,0.008
-4.810E-06,0.000
-4.800E-06,-0.004
-4.790E-06,0.000
-4.780E-06,0.008
-4.770E-06,0.004
-4.760E-06,0.004
-4.750E-06,0.008
-4.740E-06,0.004
-4.730E-06,0.004
-4.720E-06,0.004
-4.710E-06,0.004
-4.700E-06,0.004
-4.690E-06,0.008
-4.680E-06,0.012
-4.670E-06,0.012
-4.660E-06,0.012
-4.650E-06,0.012
-4.640E-06,0.000
-4.630E-06,0.004
-4.620E-06,0.004
-4.610E-06,0.000
-4.600E-06,0.004
-4.590E-06,0.004
-4.580E-06,0.004
-4.570E-06,0.004
-4.560E-06,0.008
-4.550E-06,0.012
-4.540E-06,0.004
-4.530E-06,0.000
-4.520E-06,0.000
-4.510E-06,0.004
-4.500E-06,0.004
-4.490E-06,0.000
-4.480E-06,-0.004
-4.470E-06,0.004
-4.460E-06,0.008
-4.450E-06,0.012
-4.440E-06,0.008
-4.430E-06,0.000
-4.420E-06,-0.004
-4.410E-06,-0.004
-4.400E-06,0.004
-4.390E-06,0.004
-4.380E-06,0.012
-4.370E-06,0.012
-4.360E-06,0.008
-4.350E-06,0.004
-4.340E-06,0.000
-4.330E-06,0.000
-4.320E-06,-0.004
-4.310E-06,0.008
-4.300E-06,0.012
-4.290E-06,0.012
-4.280E-06,0.008
-4.270E-06,-0.004
-4.260E-06,-0.004
-4.250E-06,-0.004
-4.240E-06,0.004
-4.230E-06,0.012
-4.220E-06,0.012
-4.210E-06,0.012
-4.200E-06,0.004
-4.190E-06,-0.004
-4.180E-06,-0.004
-4.170E-06,-0.004
-4.160E-06,0.008
-4.150E-06,0.016
-4.140E-06,0.020
-4.130E-06,0.012
-4.120E-06,0.004
-4.110E-06,-0.004
-4.100E-06,-0.004
-4.090E-06,0.000
-4.080E-06,0.008
-4.070E-06,0.012
-4.060E-06,0.008
-4.050E-06,0.012
-4.040E-06,0.016
-4.030E-06,0.012
-4.020E-06,0.004
-4.010E-06,-0.004
-4.000E-06,-0.008
-3.990E-06,-0.004
-3.980E-06,0.008
-3.970E-06,0.020
-3.960E-06,0.028
-3.950E-06,0.012
-3.940E-06,0.012
-3.930E-06,0.004
-3.920E-06,0.004
-3.910E-06,0.008
-3.900E-06,0.012
-3.890E-06,0.020
-3.880E-06,0.016
-3.870E-06,0.008
-3.860E-06,0.000
-3.850E-06,-0.004
-3.840E-06,-0.004
-3.830E-06,0.004
-3.820E-06,0.024
-3.810E-06,0.032
-3.800E-06,0.004
-3.790E-06,-0.012
-3.780E-06,-0.036
-3.770E-06,-0.028
-3.760E-06,-0.012
-3.750E-06,0.000
-3.740E-06,0.020
-3.730E-06,0.020
-3.720E-06,0.020
-3.710E-06,0.000
-3.700E-06,-0.012
-3.690E-06,-0.020
-3.680E-06,-0.012
-3.670E-06,0.004
-3.660E-06,0.012
-3.650E-06,0.016
-3.640E-06,0.016
-3.630E-06,0.008
-3.620E-06,0.000
-3.610E-06,-0.004
-3.600E-06,0.000
-3.590E-06,0.016
-3.580E-06,0.028
-3.570E-06,0.036
-3.560E-06,0.032
-3.550E-06,0.012
-3.540E-06,0.000
-3.530E-06,-0.008
-3.520E-06,-0.020
-3.510E-06,-0.020
-3.500E-06,-0.028
-3.490E-06,-0.008
-3.480E-06,0.008
-3.470E-06,0.020
-3.460E-06,0.012
-3.450E-06,0.000
-3.440E-06,-0.008
-3.430E-06,-0.008
-3.420E-06,0.000
-3.410E-06,0.016
-3.400E-06,0.016
-3.390E-06,0.008
-3.380E-06,0.000
-3.370E-06,-0.008
-3.360E-06,-0.008
-3.350E-06,-0.004
-3.340E-06,0.004
-3.330E-06,0.020
-3.320E-06,0.024
-3.310E-06,0.016
-3.300E-06,0.004
-3.290E-06,0.000
-3.280E-06,-0.004
-3.270E-06,0.004
-3.260E-06,0.008
-3.250E-06,0.012
-3.240E-06,0.012
-3.230E-06,0.008
-3.220E-06,-0.008
-3.210E-06,-0.008
-3.200E-06,0.000
-3.190E-06,0.012
-3.180E-06,0.012
-3.170E-06,0.008
-3.160E-06,0.000
-3.150E-06,0.000
-3.140E-06,0.004
-3.130E-06,0.012
-3.120E-06,0.012
-3.110E-06,0.008
-3.100E-06,-0.004
-3.090E-06,0.004
-3.080E-06,0.012
-3.070E-06,0.008
-3.060E-06,0.000
-3.050E-06,0.008
-3.040E-06,0.012
-3.030E-06,0.024
-3.020E-06,0.012
-3.010E-06,-0.004
-3.000E-06,-0.012
-2.990E-06,-0.012
-2.980E-06,0.008
-2.970E-06,0.012
-2.960E-06,0.016
-2.950E-06,0.008
-2.940E-06,0.008
-2.930E-06,0.000
-2.920E-06,-0.008
-2.910E-06,0.000
-2.900E-06,0.012
-2.890E-06,0.028
-2.880E-06,0.024
-2.870E-06,0.024
-2.860E-06,0.016
-2.850E-06,0.004
-2.840E-06,-0.004
-2.830E-06,-0.004
-2.820E-06,0.008
-2.810E-06,0.020
-2.800E-06,0.028
-2.790E-06,0.028
-2.780E-06,0.016
-2.770E-06,-0.004
-2.760E-06,0.000
-2.750E-06,0.004
-2.740E-06,0.028
-2.730E-06,0.020
-2.720E-06,0.016
-2.710E-06,0.012
-2.700E-06,0.016
-2.690E-06,0.020
-2.680E-06,0.032
-2.670E-06,0.040
-2.660E-06,0.036
-2.650E-06,0.040
-2.640E-06,0.032
-2.630E-06,0.032
-2.620E-06,0.028
-2.610E-06,0.040
-2.600E-06,0.040
-2.590E-06,0.040
-2.580E-06,0.044
-2.570E-06,0.048
-2.560E-06,0.040
-2.550E-06,0.036
-2.540E-06,0.016
-2.530E-06,0.016
-2.520E-06,0.012
-2.510E-06,0.024
-2.500E-06,0.040
-2.490E-06,0.028
-2.480E-06,0.008
-2.470E-06,-0.028
-2.460E-06,-0.052
-2.450E-06,-0.052
-2.440E-06,-0.040
-2.430E-06,0.012
-2.420E-06,0.012
-2.410E-06,-0.020
-2.400E-06,-0.072
-2.390E-06,-0.040
-2.380E-06,-0.064
-2.370E-06,0.004
-2.360E-06,0.068
-2.350E-06,0.056
-2.340E-06,0.032
-2.330E-06,-0.048
-2.320E-06,-0.124
-2.310E-06,-0.200
-2.300E-06,-0.124
-2.290E-06,0.012
-2.280E-06,0.128
-2.270E-06,0.140
-2.260E-06,0.076
-2.250E-06,-0.036
-2.240E-06,-0.136
-2.230E-06,-0.144
-2.220E-06,-0.108
-2.210E-06,0.004
-2.200E-06,0.096
-2.190E-06,0.148
-2.180E-06,0.104
-2.170E-06,-0.040
-2.160E-06,-0.152
-2.150E-06,-0.172
-2.140E-06,-0.060
-2.130E-06,0.056
-2.120E-06,0.148
-2.110E-06,0.140
-2.100E-06,0.076
-2.090E-06,-0.056
-2.080E-06,-0.116
-2.070E-06,-0.104
-2.060E-06,-0.032
-2.050E-06,0.060
-2.040E-06,0.096
-2.030E-06,0.104
-2.020E-06,0.064
-2.010E-06,0.028
-2.000E-06,-0.004
-1.990E-06,-0.008
-1.980E-06,-0.008
-1.970E-06,0.008
-1.960E-06,0.020
-1.950E-06,0.036
-1.940E-06,0.044
-1.930E-06,0.040
-1.920E-06,0.028
-1.910E-06,0.008
-1.900E-06,0.008
-1.890E-06,-0.004
-1.880E-06,0.004
-1.870E-06,0.012
-1.860E-06,0.028
-1.850E-06,0.044
-1.840E-06,0.060
-1.830E-06,0.068
-1.820E-06,0.056
-1.810E-06,0.052
-1.800E-06,0.040
-1.790E-06,0.032
-1.780E-06,0.024
-1.770E-06,0.040
-1.760E-06,0.056
-1.750E-06,0.080
-1.740E-06,0.084
-1.730E-06,0.064
-1.720E-06,0.036
-1.710E-06,0.008
-1.700E-06,-0.020
-1.690E-06,-0.024
-1.680E-06,-0.020
-1.670E-06,0.004
-1.660E-06,0.032
-1.650E-06,0.052
-1.640E-06,0.044
-1.630E-06,0.020
-1.620E-06,-0.008
-1.610E-06,-0.028
-1.600E-06,-0.012
-1.590E-06,0.024
-1.580E-06,0.040
-1.570E-06,0.052
-1.560E-06,0.040
-1.550E-06,-0.004
-1.540E-06,-0.028
-1.530E-06,-0.032
-1.520E-06,-0.004
-1.510E-06,0.016
-1.500E-06,0.028
-1.490E-06,0.032
-1.480E-06,0.016
-1.470E-06,-0.020
-1.460E-06,-0.040
-1.450E-06,-0.044
-1.440E-06,-0.004
-1.430E-06,0.028
-1.420E-06,0.036
-1.410E-06,0.056
-1.400E-06,0.048
-1.390E-06,0.056
-1.380E-06,0.052
-1.370E-06,0.032
-1.360E-06,0.020
-1.350E-06,0.060
-1.340E-06,0.108
-1.330E-06,0.136
-1.320E-06,0.136
-1.310E-06,0.072
-1.300E-06,0.040
-1.290E-06,0.044
-1.280E-06,0.076
-1.270E-06,0.088
-1.260E-06,0.088
-1.250E-06,0.064
-1.240E-06,0.044
-1.230E-06,0.064
-1.220E-06,0.064
-1.210E-06,0.080
-1.200E-06,0.088
-1.190E-06,0.096
-1.180E-06,0.088
-1.170E-06,0.092
-1.160E-06,0.092
-1.150E-06,0.112
-1.140E-06,0.128
-1.130E-06,0.120
-1.120E-06,0.112
-1.110E-06,0.108
-1.100E-06,0.076
-1.090E-06,0.060
-1.080E-06,0.076
-1.070E-06,0.084
-1.060E-06,0.044
-1.050E-06,0.068
-1.040E-06,0.092
-1.030E-06,0.048
-1.020E-06,-0.036
-1.010E-06,-0.076
-1.000E-06,-0.072
-9.900E-07,-0.024
-9.800E-07,-0.024
-9.700E-07,0.000
-9.600E-07,-0.020
-9.500E-07,-0.060
-9.400E-07,-0.076
-9.300E-07,-0.088
-9.200E-07,-0.056
-9.100E-07,-0.068
-9.000E-07,-0.032
-8.900E-07,0.016
-8.800E-07,0.052
-8.700E-07,0.052
-8.600E-07,0.064
-8.500E-07,0.092
-8.400E-07,0.108
-8.300E-07,0.160
-8.200E-07,0.196
-8.100E-07,0.212
-8.000E-07,0.208
-7.900E-07,0.192
-7.800E-07,0.160
-7.700E-07,0.156
-7.600E-07,0.144
-7.500E-07,0.160
-7.400E-07,0.176
-7.300E-07,0.192
-7.200E-07,0.188
-7.100E-07,0.176
-7.000E-07,0.168
-6.900E-07,0.148
-6.800E-07,0.152
-6.700E-07,0.164
-6.600E-07,0.180
-6.500E-07,0.188
-6.400E-07,0.180
-6.300E-07,0.176
-6.200E-07,0.168
-6.100E-07,0.176
-6.000E-07,0.184
-5.900E-07,0.196
-5.800E-07,0.192
-5.700E-07,0.172
-5.600E-07,0.140
-5.500E-07,0.128
-5.400E-07,0.100
-5.300E-07,0.092
-5.200E-07,0.076
-5.100E-07,0.056
-5.000E-07,0.028
-4.900E-07,0.016
-4.800E-07,0.016
-4.700E-07,0.016
-4.600E-07,0.032
-4.500E-07,0.096
-4.400E-07,0.148
-4.300E-07,0.192
-4.200E-07,0.232
-4.100E-07,0.240
-4.000E-07,0.208
-3.900E-07,0.176
-3.800E-07,0.164
-3.700E-07,0.176
-3.600E-07,0.204
-3.500E-07,0.224
-3.400E-07,0.232
-3.300E-07,0.240
-3.200E-07,0.224
-3.100E-07,0.204
-3.000E-07,0.184
-2.900E-07,0.176
-2.800E-07,0.176
-2.700E-07,0.188
-2.600E-07,0.192
-2.500E-07,0.184
-2.400E-07,0.188
-2.300E-07,0.148
-2.200E-07,0.124
-2.100E-07,0.120
-2.000E-07,0.192
-1.900E-07,0.228
-1.800E-07,0.256
-1.700E-07,0.128
-1.600E-07,-0.040
-1.500E-07,-0.160
-1.400E-07,-0.200
-1.300E-07,-0.136
-1.200E-07,0.056
-1.100E-07,0.236
-1.000E-07,0.372
-9.000E-08,0.200
-8.000E-08,-0.036
-7.000E-08,-0.348
-6.000E-08,-0.512
-5.000E-08,-0.512
-4.000E-08,-0.508
-3.000E-08,-0.508
-2.000E-08,-0.212
-1.000E-08,0.304
0.000E+00,0.540
1.000E-08,0.540
2.000E-08,0.356
3.000E-08,-0.108
4.000E-08,-0.512
5.000E-08,-0.508
6.000E-08,-0.508
7.000E-08,-0.064
8.000E-08,0.204
9.000E-08,0.200
1.000E-07,0.000
1.100E-07,-0.196
1.200E-07,-0.472
1.300E-07,-0.320
1.400E-07,0.008
1.500E-07,0.312
1.600E-07,0.508
1.700E-07,0.520
1.800E-07,0.388
1.900E-07,0.072
2.000E-07,-0.212
2.100E-07,-0.404
2.200E-07,-0.304
2.300E-07,-0.108
2.400E-07,0.140
2.500E-07,0.224
2.600E-07,0.192
2.700E-07,0.012
2.800E-07,-0.172
2.900E-07,-0.168
3.000E-07,-0.072
3.100E-07,0.136
3.200E-07,0.300
3.300E-07,0.392
3.400E-07,0.292
3.500E-07,0.144
3.600E-07,-0.008
3.700E-07,-0.052
3.800E-07,0.028
3.900E-07,0.188
4.000E-07,0.368
4.100E-07,0.432
4.200E-07,0.396
4.300E-07,0.248
4.400E-07,0.144
4.500E-07,0.076
4.600E-07,0.124
4.700E-07,0.208
4.800E-07,0.324
4.900E-07,0.376
5.000E-07,0.352
5.100E-07,0.280
5.200E-07,0.184
5.300E-07,0.128
5.400E-07,0.136
5.500E-07,0.212
5.600E-07,0.284
5.700E-07,0.340
5.800E-07,0.336
5.900E-07,0.276
6.000E-07,0.200
6.100E-07,0.148
6.200E-07,0.144
6.300E-07,0.184
6.400E-07,0.236
6.500E-07,0.268
6.600E-07,0.264
6.700E-07,0.220
6.800E-07,0.180
6.900E-07,0.156
7.000E-07,0.160
7.100E-07,0.188
7.200E-07,0.208
7.300E-07,0.224
7.400E-07,0.216
7.500E-07,0.212
7.600E-07,0.204
7.700E-07,0.204
7.800E-07,0.204
7.900E-07,0.200
8.000E-07,0.180
8.100E-07,0.160
8.200E-07,0.176
8.300E-07,0.200
8.400E-07,0.228
8.500E-07,0.240
8.600E-07,0.240
8.700E-07,0.216
8.800E-07,0.192
8.900E-07,0.184
9.000E-07,0.188
9.100E-07,0.224
9.200E-07,0.252
9.300E-07,0.256
9.400E-07,0.244
9.500E-07,0.220
9.600E-07,0.200
9.700E-07,0.184
9.800E-07,0.188
9.900E-07,0.208
1.000E-06,0.240
1.010E-06,0.264
1.020E-06,0.248
1.030E-06,0.220
1.040E-06,0.192
1.050E-06,0.176
1.060E-06,0.180
1.070E-06,0.200
1.080E-06,0.228
1.090E-06,0.248
1.100E-06,0.244
1.110E-06,0.228
1.120E-06,0.196
1.130E-06,0.184
1.140E-06,0.180
1.150E-06,0.204
1.160E-06,0.224
1.170E-06,0.240
1.180E-06,0.236
1.190E-06,0.220
1.200E-06,0.208
1.210E-06,0.188
1.220E-06,0.184
1.230E-06,0.196
1.240E-06,0.220
1.250E-06,0.232
1.260E-06,0.236
1.270E-06,0.228
1.280E-06,0.200
1.290E-06,0.188
1.300E-06,0.192
1.310E-06,0.200
1.320E-06,0.212
1.330E-06,0.228
1.340E-06,0.224
1.350E-06,0.220
1.360E-06,0.204
1.370E-06,0.192
1.380E-06,0.192
1.390E-06,0.196
1.400E-06,0.208
1.410E-06,0.220
1.420E-06,0.224
1.430E-06,0.216
1.440E-06,0.204
1.450E-06,0.192
1.460E-06,0.192
1.470E-06,0.196
1.480E-06,0.200
1.490E-06,0.208
1.500E-06,0.208
1.510E-06,0.208
1.520E-06,0.200
1.530E-06,0.188
1.540E-06,0.184
1.550E-06,0.188
1.560E-06,0.192
1.570E-06,0.196
1.580E-06,0.200
1.590E-06,0.196
1.600E-06,0.196
1.610E-06,0.188
1.620E-06,0.176
1.630E-06,0.184
1.640E-06,0.184
1.650E-06,0.188
1.660E-06,0.196
1.670E-06,0.196
1.680E-06,0.188
1.690E-06,0.188
1.700E-06,0.188
1.710E-06,0.184
1.720E-06,0.180
1.730E-06,0.188
1.740E-06,0.196
1.750E-06,0.196
1.760E-06,0.192
1.770E-06,0.192
1.780E-06,0.192
1.790E-06,0.188
1.800E-06,0.192
1.810E-06,0.188
1.820E-06,0.192
1.830E-06,0.192
1.840E-06,0.192
1.850E-06,0.192
1.860E-06,0.192
1.870E-06,0.188
1.880E-06,0.188
1.890E-06,0.188
1.900E-06,0.192
1.910E-06,0.192
1.920E-06,0.188
1.930E-06,0.188
1.940E-06,0.184
1.950E-06,0.184
1.960E-06,0.184
1.970E-06,0.184
1.980E-06,0.188
1.990E-06,0.188
2.000E-06,0.184
2.010E-06,0.180
2.020E-06,0.172
2.030E-06,0.176
2.040E-06,0.176
2.050E-06,0.176
2.060E-06,0.180
2.070E-06,0.180
2.080E-06,0.180
2.090E-06,0.180
2.100E-06,0.176
2.110E-06,0.176
2.120E-06,0.176
2.130E-06,0.176
2.140E-06,0.176
2.150E-06,0.176
2.160E-06,0.180
2.170E-06,0.180
2.180E-06,0.176
2.190E-06,0.180
2.200E-06,0.172
2.210E-06,0.176
2.220E-06,0.168
2.230E-06,0.172
2.240E-06,0.176
2.250E-06,0.180
2.260E-06,0.176
2.270E-06,0.172
2.280E-06,0.168
2.290E-06,0.164
2.300E-06,0.168
2.310E-06,0.160
2.320E-06,0.168
2.330E-06,0.172
2.340E-06,0.168
2.350E-06,0.160
2.360E-06,0.164
2.370E-06,0.160
2.380E-06,0.164
2.390E-06,0.168
2.400E-06,0.160
2.410E-06,0.160
2.420E-06,0.160
2.430E-06,0.164
2.440E-06,0.160
2.450E-06,0.152
2.460E-06,0.156
2.470E-06,0.152
2.480E-06,0.152
2.490E-06,0.156
2.500E-06,0.152
2.510E-06,0.152
2.520E-06,0.156
2.530E-06,0.152
2.540E-06,0.156
2.550E-06,0.160
2.560E-06,0.152
2.570E-06,0.160
2.580E-06,0.164
2.590E-06,0.160
2.600E-06,0.160
2.610E-06,0.156
2.620E-06,0.156
2.630E-06,0.152
2.640E-06,0.156
2.650E-06,0.160
2.660E-06,0.156
2.670E-06,0.152
2.680E-06,0.156
2.690E-06,0.144
2.700E-06,0.144
2.710E-06,0.140
2.720E-06,0.140
2.730E-06,0.152
2.740E-06,0.152
2.750E-06,0.160
2.760E-06,0.152
2.770E-06,0.148
2.780E-06,0.144
2.790E-06,0.140
2.800E-06,0.136
2.810E-06,0.144
2.820E-06,0.152
2.830E-06,0.144
2.840E-06,0.144
2.850E-06,0.148
2.860E-06,0.140
2.870E-06,0.140
2.880E-06,0.132
2.890E-06,0.128
2.900E-06,0.128
2.910E-06,0.136
2.920E-06,0.136
2.930E-06,0.140
2.940E-06,0.140
2.950E-06,0.140
2.960E-06,0.136
2.970E-06,0.132
2.980E-06,0.128
2.990E-06,0.132
3.000E-06,0.140
3.010E-06,0.144
3.020E-06,0.148
3.030E-06,0.140
3.040E-06,0.136
3.050E-06,0.132
3.060E-06,0.128
3.070E-06,0.128
3.080E-06,0.136
3.090E-06,0.144
3.100E-06,0.148
3.110E-06,0.140
3.120E-06,0.136
3.130E-06,0.124
3.140E-06,0.124
3.150E-06,0.120
3.160E-06,0.124
3.170E-06,0.140
3.180E-06,0.140
3.190E-06,0.140
3.200E-06,0.132
3.210E-06,0.120
3.220E-06,0.112
3.230E-06,0.112
3.240E-06,0.120
3.250E-06,0.128
3.260E-06,0.132
3.270E-06,0.128
3.280E-06,0.128
3.290E-06,0.124
3.300E-06,0.108
3.310E-06,0.112
3.320E-06,0.120
3.330E-06,0.124
3.340E-06,0.128
3.350E-06,0.128
3.360E-06,0.136
3.370E-06,0.128
3.380E-06,0.124
3.390E-06,0.108
3.400E-06,0.112
3.410E-06,0.120
3.420E-06,0.124
