mediciones/5-15/17.4/WaveData47347.csv

#timebase=2000000(ps)
,#voltbase=100000(mv/100)
#size=4000
-8.400E-06,0.004
-8.390E-06,0.000
-8.380E-06,0.000
-8.370E-06,0.000
-8.360E-06,0.000
-8.350E-06,0.004
-8.340E-06,0.004
-8.330E-06,0.004
-8.320E-06,0.000
-8.310E-06,-0.004
-8.300E-06,0.000
-8.290E-06,0.000
-8.280E-06,0.000
-8.270E-06,0.004
-8.260E-06,0.000
-8.250E-06,0.004
-8.240E-06,0.000
-8.230E-06,0.004
-8.220E-06,0.000
-8.210E-06,0.004
-8.200E-06,-0.004
-8.190E-06,0.000
-8.180E-06,0.000
-8.170E-06,0.004
-8.160E-06,0.000
-8.150E-06,0.004
-8.140E-06,0.000
-8.130E-06,0.004
-8.120E-06,0.004
-8.110E-06,0.000
-8.100E-06,0.000
-8.090E-06,0.004
-8.080E-06,0.008
-8.070E-06,0.004
-8.060E-06,0.004
-8.050E-06,0.004
-8.040E-06,0.004
-8.030E-06,0.004
-8.020E-06,0.008
-8.010E-06,0.004
-8.000E-06,0.008
-7.990E-06,0.012
-7.980E-06,0.000
-7.970E-06,0.004
-7.960E-06,0.004
-7.950E-06,0.004
-7.940E-06,0.000
-7.930E-06,0.004
-7.920E-06,0.004
-7.910E-06,0.004
-7.900E-06,0.004
-7.890E-06,0.004
-7.880E-06,0.000
-7.870E-06,-0.004
-7.860E-06,0.000
-7.850E-06,0.000
-7.840E-06,0.000
-7.830E-06,0.004
-7.820E-06,0.008
-7.810E-06,0.008
-7.800E-06,0.008
-7.790E-06,0.004
-7.780E-06,0.000
-7.770E-06,0.004
-7.760E-06,0.004
-7.750E-06,0.004
-7.740E-06,0.004
-7.730E-06,0.004
-7.720E-06,0.004
-7.710E-06,0.004
-7.700E-06,0.004
-7.690E-06,0.000
-7.680E-06,0.004
-7.670E-06,-0.004
-7.660E-06,0.000
-7.650E-06,0.000
-7.640E-06,0.000
-7.630E-06,0.004
-7.620E-06,0.000
-7.610E-06,0.004
-7.600E-06,0.004
-7.590E-06,0.004
-7.580E-06,0.004
-7.570E-06,0.004
-7.560E-06,0.004
-7.550E-06,0.000
-7.540E-06,0.004
-7.530E-06,0.000
-7.520E-06,0.004
-7.510E-06,0.004
-7.500E-06,0.004
-7.490E-06,0.004
-7.480E-06,-0.004
-7.470E-06,0.000
-7.460E-06,0.000
-7.450E-06,0.004
-7.440E-06,0.004
-7.430E-06,0.004
-7.420E-06,0.000
-7.410E-06,0.000
-7.400E-06,0.004
-7.390E-06,-0.004
-7.380E-06,0.000
-7.370E-06,0.004
-7.360E-06,0.004
-7.350E-06,0.004
-7.340E-06,0.000
-7.330E-06,-0.004
-7.320E-06,0.004
-7.310E-06,-0.004
-7.300E-06,0.004
-7.290E-06,0.004
-7.280E-06,0.004
-7.270E-06,0.004
-7.260E-06,-0.004
-7.250E-06,0.000
-7.240E-06,0.004
-7.230E-06,0.012
-7.220E-06,0.000
-7.210E-06,0.000
-7.200E-06,0.004
-7.190E-06,0.004
-7.180E-06,0.004
-7.170E-06,0.000
-7.160E-06,0.004
-7.150E-06,0.004
-7.140E-06,0.004
-7.130E-06,-0.004
-7.120E-06,0.000
-7.110E-06,0.004
-7.100E-06,0.000
-7.090E-06,0.004
-7.080E-06,0.000
-7.070E-06,0.004
-7.060E-06,0.000
-7.050E-06,0.000
-7.040E-06,0.004
-7.030E-06,0.008
-7.020E-06,0.008
-7.010E-06,0.004
-7.000E-06,0.004
-6.990E-06,0.004
-6.980E-06,0.000
-6.970E-06,0.004
-6.960E-06,0.008
-6.950E-06,0.000
-6.940E-06,0.004
-6.930E-06,0.004
-6.920E-06,0.004
-6.910E-06,-0.004
-6.900E-06,0.004
-6.890E-06,0.000
-6.880E-06,0.004
-6.870E-06,0.008
-6.860E-06,0.000
-6.850E-06,0.004
-6.840E-06,0.000
-6.830E-06,0.004
-6.820E-06,0.000
-6.810E-06,0.004
-6.800E-06,0.004
-6.790E-06,0.004
-6.780E-06,0.004
-6.770E-06,0.004
-6.760E-06,0.000
-6.750E-06,0.004
-6.740E-06,0.004
-6.730E-06,0.000
-6.720E-06,0.000
-6.710E-06,0.000
-6.700E-06,-0.004
-6.690E-06,0.004
-6.680E-06,0.004
-6.670E-06,0.008
-6.660E-06,0.004
-6.650E-06,-0.004
-6.640E-06,-0.004
-6.630E-06,0.000
-6.620E-06,0.008
-6.610E-06,0.012
-6.600E-06,0.004
-6.590E-06,0.000
-6.580E-06,0.000
-6.570E-06,0.004
-6.560E-06,0.004
-6.550E-06,0.000
-6.540E-06,0.000
-6.530E-06,0.004
-6.520E-06,0.008
-6.510E-06,0.008
-6.500E-06,0.000
-6.490E-06,0.004
-6.480E-06,0.000
-6.470E-06,0.004
-6.460E-06,0.000
-6.450E-06,0.000
-6.440E-06,0.004
-6.430E-06,0.004
-6.420E-06,0.004
-6.410E-06,0.004
-6.400E-06,0.000
-6.390E-06,0.000
-6.380E-06,0.000
-6.370E-06,0.000
-6.360E-06,0.004
-6.350E-06,0.004
-6.340E-06,0.004
-6.330E-06,0.004
-6.320E-06,0.000
-6.310E-06,0.000
-6.300E-06,0.000
-6.290E-06,0.000
-6.280E-06,0.004
-6.270E-06,0.004
-6.260E-06,0.008
-6.250E-06,0.004
-6.240E-06,0.000
-6.230E-06,0.004
-6.220E-06,0.008
-6.210E-06,0.000
-6.200E-06,0.000
-6.190E-06,0.004
-6.180E-06,0.008
-6.170E-06,0.000
-6.160E-06,0.004
-6.150E-06,0.004
-6.140E-06,0.004
-6.130E-06,0.004
-6.120E-06,0.000
-6.110E-06,0.000
-6.100E-06,0.004
-6.090E-06,0.004
-6.080E-06,0.004
-6.070E-06,0.008
-6.060E-06,0.008
-6.050E-06,-0.004
-6.040E-06,0.008
-6.030E-06,0.004
-6.020E-06,0.004
-6.010E-06,0.004
-6.000E-06,0.000
-5.990E-06,0.004
-5.980E-06,0.000
-5.970E-06,0.004
-5.960E-06,0.008
-5.950E-06,0.008
-5.940E-06,0.008
-5.930E-06,0.004
-5.920E-06,0.004
-5.910E-06,0.008
-5.900E-06,0.000
-5.890E-06,0.004
-5.880E-06,0.004
-5.870E-06,0.004
-5.860E-06,0.004
-5.850E-06,0.000
-5.840E-06,0.004
-5.830E-06,0.004
-5.820E-06,0.004
-5.810E-06,0.004
-5.800E-06,0.004
-5.790E-06,0.004
-5.780E-06,0.004
-5.770E-06,0.000
-5.760E-06,0.000
-5.750E-06,0.000
-5.740E-06,0.004
-5.730E-06,0.008
-5.720E-06,0.008
-5.710E-06,0.012
-5.700E-06,0.008
-5.690E-06,0.004
-5.680E-06,0.008
-5.670E-06,0.000
-5.660E-06,0.000
-5.650E-06,0.004
-5.640E-06,0.004
-5.630E-06,0.004
-5.620E-06,0.000
-5.610E-06,0.004
-5.600E-06,0.008
-5.590E-06,0.000
-5.580E-06,0.004
-5.570E-06,0.000
-5.560E-06,0.004
-5.550E-06,0.004
-5.540E-06,0.004
-5.530E-06,0.004
-5.520E-06,0.004
-5.510E-06,0.004
-5.500E-06,0.004
-5.490E-06,0.004
-5.480E-06,0.004
-5.470E-06,0.000
-5.460E-06,0.004
-5.450E-06,0.004
-5.440E-06,0.004
-5.430E-06,0.004
-5.420E-06,0.004
-5.410E-06,0.000
-5.400E-06,0.004
-5.390E-06,0.004
-5.380E-06,0.004
-5.370E-06,0.004
-5.360E-06,0.000
-5.350E-06,0.000
-5.340E-06,0.000
-5.330E-06,0.000
-5.320E-06,0.004
-5.310E-06,0.000
-5.300E-06,0.004
-5.290E-06,0.008
-5.280E-06,0.004
-5.270E-06,0.004
-5.260E-06,0.004
-5.250E-06,0.000
-5.240E-06,0.004
-5.230E-06,0.008
-5.220E-06,0.008
-5.210E-06,0.004
-5.200E-06,0.008
-5.190E-06,0.008
-5.180E-06,0.008
-5.170E-06,0.008
-5.160E-06,0.008
-5.150E-06,-0.004
-5.140E-06,-0.004
-5.130E-06,0.004
-5.120E-06,0.000
-5.110E-06,0.004
-5.100E-06,0.008
-5.090E-06,0.000
-5.080E-06,0.000
-5.070E-06,0.000
-5.060E-06,0.000
-5.050E-06,0.004
-5.040E-06,0.008
-5.030E-06,0.004
-5.020E-06,0.000
-5.010E-06,0.004
-5.000E-06,0.000
-4.990E-06,0.000
-4.980E-06,0.000
-4.970E-06,0.004
-4.960E-06,0.004
-4.950E-06,0.008
-4.940E-06,0.008
-4.930E-06,0.008
-4.920E-06,0.000
-4.910E-06,0.004
-4.900E-06,0.004
-4.890E-06,0.004
-4.880E-06,-0.004
-4.870E-06,0.004
-4.860E-06,0.004
-4.850E-06,0.008
-4.840E-06,0.008
-4.830E-06,0.000
-4.820E-06,0.004
-4.810E-06,0.004
-4.800E-06,0.008
-4.790E-06,0.008
-4.780E-06,0.000
-4.770E-06,0.008
-4.760E-06,0.004
-4.750E-06,0.004
-4.740E-06,0.000
-4.730E-06,0.000
-4.720E-06,0.004
-4.710E-06,0.004
-4.700E-06,0.004
-4.690E-06,0.004
-4.680E-06,0.004
-4.670E-06,0.004
-4.660E-06,0.008
-4.650E-06,-0.004
-4.640E-06,0.004
-4.630E-06,0.004
-4.620E-06,0.004
-4.610E-06,0.000
-4.600E-06,0.004
-4.590E-06,0.000
-4.580E-06,0.004
-4.570E-06,0.004
-4.560E-06,0.004
-4.550E-06,0.000
-4.540E-06,0.004
-4.530E-06,0.004
-4.520E-06,0.004
-4.510E-06,0.004
-4.500E-06,0.008
-4.490E-06,0.000
-4.480E-06,0.000
-4.470E-06,0.008
-4.460E-06,0.008
-4.450E-06,0.000
-4.440E-06,0.000
-4.430E-06,0.004
-4.420E-06,0.008
-4.410E-06,0.012
-4.400E-06,0.000
-4.390E-06,0.004
-4.380E-06,0.004
-4.370E-06,0.004
-4.360E-06,0.000
-4.350E-06,0.008
-4.340E-06,0.008
-4.330E-06,0.008
-4.320E-06,0.008
-4.310E-06,0.008
-4.300E-06,0.000
-4.290E-06,0.004
-4.280E-06,0.004
-4.270E-06,0.004
-4.260E-06,0.004
-4.250E-06,0.004
-4.240E-06,0.000
-4.230E-06,0.004
-4.220E-06,0.004
-4.210E-06,0.000
-4.200E-06,0.004
-4.190E-06,0.004
-4.180E-06,0.004
-4.170E-06,0.008
-4.160E-06,0.008
-4.150E-06,0.000
-4.140E-06,0.000
-4.130E-06,0.004
-4.120E-06,0.004
-4.110E-06,0.004
-4.100E-06,0.004
-4.090E-06,0.000
-4.080E-06,0.004
-4.070E-06,0.004
-4.060E-06,0.004
-4.050E-06,0.000
-4.040E-06,0.000
-4.030E-06,0.004
-4.020E-06,0.004
-4.010E-06,0.008
-4.000E-06,0.004
-3.990E-06,0.004
-3.980E-06,-0.004
-3.970E-06,0.004
-3.960E-06,0.004
-3.950E-06,0.004
-3.940E-06,0.004
-3.930E-06,0.004
-3.920E-06,0.000
-3.910E-06,0.000
-3.900E-06,0.004
-3.890E-06,-0.004
-3.880E-06,0.000
-3.870E-06,0.004
-3.860E-06,0.000
-3.850E-06,0.004
-3.840E-06,0.004
-3.830E-06,0.004
-3.820E-06,0.000
-3.810E-06,0.004
-3.800E-06,0.004
-3.790E-06,0.004
-3.780E-06,0.000
-3.770E-06,0.004
-3.760E-06,0.004
-3.750E-06,0.004
-3.740E-06,0.004
-3.730E-06,0.004
-3.720E-06,0.000
-3.710E-06,0.004
-3.700E-06,0.000
-3.690E-06,0.004
-3.680E-06,0.008
-3.670E-06,0.000
-3.660E-06,0.000
-3.650E-06,0.004
-3.640E-06,0.000
-3.630E-06,0.000
-3.620E-06,0.004
-3.610E-06,0.000
-3.600E-06,0.000
-3.590E-06,0.000
-3.580E-06,0.000
-3.570E-06,0.004
-3.560E-06,0.000
-3.550E-06,0.004
-3.540E-06,0.008
-3.530E-06,0.000
-3.520E-06,0.004
-3.510E-06,0.008
-3.500E-06,0.008
-3.490E-06,0.004
-3.480E-06,0.000
-3.470E-06,0.004
-3.460E-06,0.000
-3.450E-06,0.004
-3.440E-06,0.008
-3.430E-06,0.004
-3.420E-06,0.004
-3.410E-06,0.004
-3.400E-06,0.004
-3.390E-06,0.004
-3.380E-06,0.000
-3.370E-06,0.008
-3.360E-06,0.008
-3.350E-06,0.012
-3.340E-06,0.004
-3.330E-06,0.004
-3.320E-06,0.004
-3.310E-06,0.004
-3.300E-06,0.008
-3.290E-06,0.008
-3.280E-06,0.012
-3.270E-06,0.008
-3.260E-06,0.012
-3.250E-06,0.008
-3.240E-06,0.008
-3.230E-06,0.008
-3.220E-06,0.008
-3.210E-06,0.008
-3.200E-06,0.000
-3.190E-06,0.000
-3.180E-06,0.008
-3.170E-06,0.008
-3.160E-06,0.000
-3.150E-06,0.004
-3.140E-06,0.008
-3.130E-06,0.004
-3.120E-06,0.008
-3.110E-06,0.008
-3.100E-06,0.004
-3.090E-06,0.004
-3.080E-06,0.004
-3.070E-06,0.000
-3.060E-06,0.004
-3.050E-06,0.012
-3.040E-06,0.008
-3.030E-06,0.008
-3.020E-06,0.008
-3.010E-06,0.004
-3.000E-06,0.000
-2.990E-06,0.004
-2.980E-06,0.008
-2.970E-06,0.008
-2.960E-06,0.008
-2.950E-06,0.008
-2.940E-06,0.004
-2.930E-06,0.004
-2.920E-06,0.004
-2.910E-06,0.000
-2.900E-06,0.008
-2.890E-06,0.008
-2.880E-06,0.008
-2.870E-06,0.008
-2.860E-06,0.008
-2.850E-06,0.004
-2.840E-06,0.000
-2.830E-06,0.004
-2.820E-06,0.008
-2.810E-06,0.008
-2.800E-06,0.008
-2.790E-06,0.008
-2.780E-06,0.004
-2.770E-06,0.004
-2.760E-06,0.008
-2.750E-06,0.008
-2.740E-06,0.008
-2.730E-06,0.008
-2.720E-06,0.008
-2.710E-06,0.004
-2.700E-06,0.004
-2.690E-06,0.008
-2.680E-06,0.004
-2.670E-06,0.004
-2.660E-06,0.008
-2.650E-06,0.004
-2.640E-06,0.012
-2.630E-06,0.024
-2.620E-06,0.020
-2.610E-06,0.016
-2.600E-06,0.004
-2.590E-06,-0.008
-2.580E-06,0.000
-2.570E-06,0.004
-2.560E-06,0.020
-2.550E-06,0.024
-2.540E-06,0.028
-2.530E-06,0.012
-2.520E-06,0.004
-2.510E-06,0.000
-2.500E-06,0.004
-2.490E-06,0.004
-2.480E-06,0.012
-2.470E-06,0.004
-2.460E-06,0.008
-2.450E-06,0.008
-2.440E-06,0.012
-2.430E-06,0.016
-2.420E-06,0.012
-2.410E-06,0.004
-2.400E-06,0.000
-2.390E-06,0.004
-2.380E-06,0.016
-2.370E-06,0.016
-2.360E-06,0.024
-2.350E-06,0.024
-2.340E-06,0.012
-2.330E-06,0.012
-2.320E-06,0.004
-2.310E-06,0.008
-2.300E-06,0.004
-2.290E-06,0.012
-2.280E-06,0.012
-2.270E-06,0.020
-2.260E-06,0.024
-2.250E-06,0.020
-2.240E-06,0.028
-2.230E-06,0.044
-2.220E-06,0.044
-2.210E-06,0.032
-2.200E-06,0.008
-2.190E-06,-0.008
-2.180E-06,-0.008
-2.170E-06,-0.020
-2.160E-06,-0.016
-2.150E-06,-0.008
-2.140E-06,0.044
-2.130E-06,0.064
-2.120E-06,0.044
-2.110E-06,0.020
-2.100E-06,-0.052
-2.090E-06,-0.056
-2.080E-06,-0.004
-2.070E-06,0.044
-2.060E-06,0.056
-2.050E-06,0.096
-2.040E-06,0.104
-2.030E-06,0.056
-2.020E-06,-0.004
-2.010E-06,-0.044
-2.000E-06,-0.036
-1.990E-06,0.012
-1.980E-06,0.060
-1.970E-06,0.068
-1.960E-06,0.036
-1.950E-06,-0.008
-1.940E-06,-0.032
-1.930E-06,-0.048
-1.920E-06,-0.044
-1.910E-06,-0.056
-1.900E-06,-0.044
-1.890E-06,-0.008
-1.880E-06,0.044
-1.870E-06,0.064
-1.860E-06,0.040
-1.850E-06,-0.004
-1.840E-06,-0.052
-1.830E-06,-0.048
-1.820E-06,-0.032
-1.810E-06,-0.008
-1.800E-06,0.020
-1.790E-06,0.060
-1.780E-06,0.020
-1.770E-06,-0.016
-1.760E-06,-0.032
-1.750E-06,-0.016
-1.740E-06,-0.012
-1.730E-06,0.020
-1.720E-06,0.036
-1.710E-06,0.052
-1.700E-06,-0.016
-1.690E-06,-0.056
-1.680E-06,-0.096
-1.670E-06,-0.108
-1.660E-06,-0.060
-1.650E-06,0.024
-1.640E-06,0.072
-1.630E-06,0.064
-1.620E-06,0.024
-1.610E-06,-0.028
-1.600E-06,-0.040
-1.590E-06,-0.064
-1.580E-06,-0.032
-1.570E-06,0.008
-1.560E-06,0.064
-1.550E-06,0.052
-1.540E-06,0.020
-1.530E-06,-0.028
-1.520E-06,-0.064
-1.510E-06,-0.040
-1.500E-06,0.024
-1.490E-06,0.072
-1.480E-06,0.064
-1.470E-06,0.020
-1.460E-06,-0.020
-1.450E-06,-0.024
-1.440E-06,-0.012
-1.430E-06,0.020
-1.420E-06,0.032
-1.410E-06,0.036
-1.400E-06,0.020
-1.390E-06,0.004
-1.380E-06,-0.004
-1.370E-06,-0.004
-1.360E-06,0.004
-1.350E-06,0.008
-1.340E-06,0.024
-1.330E-06,0.028
-1.320E-06,0.024
-1.310E-06,0.028
-1.300E-06,0.028
-1.290E-06,0.024
-1.280E-06,-0.004
-1.270E-06,-0.012
-1.260E-06,-0.008
-1.250E-06,0.028
-1.240E-06,0.056
-1.230E-06,0.072
-1.220E-06,0.028
-1.210E-06,-0.024
-1.200E-06,-0.068
-1.190E-06,-0.072
-1.180E-06,-0.032
-1.170E-06,0.016
-1.160E-06,0.056
-1.150E-06,0.048
-1.140E-06,0.008
-1.130E-06,-0.032
-1.120E-06,-0.032
-1.110E-06,-0.008
-1.100E-06,0.040
-1.090E-06,0.072
-1.080E-06,0.068
-1.070E-06,0.028
-1.060E-06,0.000
-1.050E-06,-0.012
-1.040E-06,0.012
-1.030E-06,0.056
-1.020E-06,0.104
-1.010E-06,0.104
-1.000E-06,0.064
-9.900E-07,0.016
-9.800E-07,-0.024
-9.700E-07,-0.020
-9.600E-07,0.004
-9.500E-07,0.056
-9.400E-07,0.080
-9.300E-07,0.088
-9.200E-07,0.056
-9.100E-07,0.008
-9.000E-07,-0.028
-8.900E-07,-0.032
-8.800E-07,-0.008
-8.700E-07,0.032
-8.600E-07,0.068
-8.500E-07,0.072
-8.400E-07,0.064
-8.300E-07,0.028
-8.200E-07,0.008
-8.100E-07,-0.004
-8.000E-07,0.000
-7.900E-07,0.020
-7.800E-07,0.036
-7.700E-07,0.040
-7.600E-07,0.044
-7.500E-07,0.028
-7.400E-07,0.012
-7.300E-07,-0.012
-7.200E-07,-0.016
-7.100E-07,-0.008
-7.000E-07,0.016
-6.900E-07,0.044
-6.800E-07,0.064
-6.700E-07,0.044
-6.600E-07,0.012
-6.500E-07,-0.008
-6.400E-07,-0.028
-6.300E-07,-0.016
-6.200E-07,0.008
-6.100E-07,0.036
-6.000E-07,0.040
-5.900E-07,0.036
-5.800E-07,0.004
-5.700E-07,-0.020
-5.600E-07,-0.036
-5.500E-07,-0.012
-5.400E-07,0.008
-5.300E-07,0.044
-5.200E-07,0.068
-5.100E-07,0.080
-5.000E-07,0.080
-4.900E-07,0.056
-4.800E-07,0.040
-4.700E-07,0.024
-4.600E-07,0.028
-4.500E-07,0.040
-4.400E-07,0.064
-4.300E-07,0.080
-4.200E-07,0.076
-4.100E-07,0.076
-4.000E-07,0.056
-3.900E-07,0.052
-3.800E-07,0.040
-3.700E-07,0.032
-3.600E-07,0.052
-3.500E-07,0.072
-3.400E-07,0.096
-3.300E-07,0.104
-3.200E-07,0.108
-3.100E-07,0.108
-3.000E-07,0.108
-2.900E-07,0.092
-2.800E-07,0.072
-2.700E-07,0.072
-2.600E-07,0.088
-2.500E-07,0.092
-2.400E-07,0.076
-2.300E-07,0.064
-2.200E-07,0.060
-2.100E-07,0.052
-2.000E-07,0.056
-1.900E-07,0.096
-1.800E-07,0.140
-1.700E-07,0.124
-1.600E-07,0.128
-1.500E-07,0.140
-1.400E-07,0.192
-1.300E-07,0.256
-1.200E-07,0.320
-1.100E-07,0.288
-1.000E-07,0.216
-9.000E-08,0.104
-8.000E-08,-0.124
-7.000E-08,-0.508
-6.000E-08,-0.512
-5.000E-08,-0.512
-4.000E-08,-0.508
-3.000E-08,-0.508
-2.000E-08,-0.508
-1.000E-08,0.320
0.000E+00,0.536
1.000E-08,0.536
2.000E-08,0.524
3.000E-08,-0.344
4.000E-08,-0.512
5.000E-08,-0.512
6.000E-08,-0.276
7.000E-08,0.280
8.000E-08,0.540
9.000E-08,0.540
1.000E-07,0.508
1.100E-07,-0.152
1.200E-07,-0.504
1.300E-07,-0.512
1.400E-07,-0.152
1.500E-07,0.344
1.600E-07,0.540
1.700E-07,0.540
1.800E-07,0.312
1.900E-07,-0.076
2.000E-07,-0.460
2.100E-07,-0.468
2.200E-07,-0.292
2.300E-07,0.144
2.400E-07,0.484
2.500E-07,0.544
2.600E-07,0.336
2.700E-07,-0.004
2.800E-07,-0.320
2.900E-07,-0.400
3.000E-07,-0.204
3.100E-07,0.060
3.200E-07,0.312
3.300E-07,0.372
3.400E-07,0.276
3.500E-07,-0.028
3.600E-07,-0.236
3.700E-07,-0.384
3.800E-07,-0.324
3.900E-07,-0.092
4.000E-07,0.156
4.100E-07,0.256
4.200E-07,0.172
4.300E-07,0.020
4.400E-07,-0.204
4.500E-07,-0.264
4.600E-07,-0.208
4.700E-07,0.064
4.800E-07,0.236
4.900E-07,0.336
5.000E-07,0.276
5.100E-07,0.120
5.200E-07,-0.028
5.300E-07,-0.060
5.400E-07,0.032
5.500E-07,0.136
5.600E-07,0.288
5.700E-07,0.292
5.800E-07,0.228
5.900E-07,0.076
6.000E-07,-0.016
6.100E-07,-0.036
6.200E-07,0.068
6.300E-07,0.224
6.400E-07,0.360
6.500E-07,0.400
6.600E-07,0.332
6.700E-07,0.212
6.800E-07,0.080
6.900E-07,0.040
7.000E-07,0.072
7.100E-07,0.192
7.200E-07,0.292
7.300E-07,0.340
7.400E-07,0.300
7.500E-07,0.204
7.600E-07,0.100
7.700E-07,0.052
7.800E-07,0.080
7.900E-07,0.160
8.000E-07,0.260
8.100E-07,0.308
8.200E-07,0.292
8.300E-07,0.220
8.400E-07,0.140
8.500E-07,0.088
8.600E-07,0.092
8.700E-07,0.140
8.800E-07,0.188
8.900E-07,0.224
9.000E-07,0.216
9.100E-07,0.188
9.200E-07,0.128
9.300E-07,0.092
9.400E-07,0.072
9.500E-07,0.156
9.600E-07,0.160
9.700E-07,0.092
9.800E-07,-0.056
9.900E-07,-0.180
1.000E-06,-0.204
1.010E-06,-0.256
1.020E-06,-0.132
1.030E-06,0.068
1.040E-06,0.148
1.050E-06,0.008
1.060E-06,-0.328
1.070E-06,-0.512
1.080E-06,-0.508
1.090E-06,-0.512
1.100E-06,-0.340
1.110E-06,0.120
1.120E-06,0.332
1.130E-06,0.368
1.140E-06,-0.004
1.150E-06,-0.464
1.160E-06,-0.512
1.170E-06,-0.512
1.180E-06,-0.512
1.190E-06,-0.232
1.200E-06,0.372
1.210E-06,0.396
1.220E-06,0.180
1.230E-06,-0.268
1.240E-06,-0.508
1.250E-06,-0.512
1.260E-06,-0.472
1.270E-06,-0.136
1.280E-06,0.408
1.290E-06,0.544
1.300E-06,0.544
1.310E-06,0.084
1.320E-06,-0.332
1.330E-06,-0.484
1.340E-06,-0.332
1.350E-06,0.052
1.360E-06,0.352
1.370E-06,0.536
1.380E-06,0.416
1.390E-06,0.164
1.400E-06,-0.180
1.410E-06,-0.320
1.420E-06,-0.284
1.430E-06,-0.036
1.440E-06,0.232
1.450E-06,0.408
1.460E-06,0.400
1.470E-06,0.188
1.480E-06,0.008
1.490E-06,-0.148
1.500E-06,-0.100
1.510E-06,0.024
1.520E-06,0.256
1.530E-06,0.392
1.540E-06,0.428
1.550E-06,0.352
1.560E-06,0.200
1.570E-06,0.092
1.580E-06,0.056
1.590E-06,0.136
1.600E-06,0.248
1.610E-06,0.364
1.620E-06,0.388
1.630E-06,0.352
1.640E-06,0.244
1.650E-06,0.160
1.660E-06,0.116
1.670E-06,0.144
1.680E-06,0.216
1.690E-06,0.284
1.700E-06,0.344
1.710E-06,0.316
1.720E-06,0.272
1.730E-06,0.196
1.740E-06,0.148
1.750E-06,0.144
1.760E-06,0.184
1.770E-06,0.240
1.780E-06,0.284
1.790E-06,0.292
1.800E-06,0.268
1.810E-06,0.228
1.820E-06,0.172
1.830E-06,0.168
1.840E-06,0.172
1.850E-06,0.208
1.860E-06,0.244
1.870E-06,0.260
1.880E-06,0.256
1.890E-06,0.228
1.900E-06,0.200
1.910E-06,0.180
1.920E-06,0.180
1.930E-06,0.196
1.940E-06,0.216
1.950E-06,0.204
1.960E-06,0.188
1.970E-06,0.164
1.980E-06,0.160
1.990E-06,0.176
2.000E-06,0.200
2.010E-06,0.224
2.020E-06,0.224
2.030E-06,0.224
2.040E-06,0.216
2.050E-06,0.208
2.060E-06,0.204
2.070E-06,0.204
2.080E-06,0.208
2.090E-06,0.204
2.100E-06,0.208
2.110E-06,0.192
2.120E-06,0.184
2.130E-06,0.164
2.140E-06,0.152
2.150E-06,0.152
2.160E-06,0.152
2.170E-06,0.164
2.180E-06,0.180
2.190E-06,0.160
2.200E-06,0.152
2.210E-06,0.124
2.220E-06,0.100
2.230E-06,0.088
2.240E-06,0.100
2.250E-06,0.124
2.260E-06,0.112
2.270E-06,0.120
2.280E-06,0.112
2.290E-06,0.096
2.300E-06,0.048
2.310E-06,0.024
2.320E-06,0.012
2.330E-06,0.044
2.340E-06,0.132
2.350E-06,0.204
2.360E-06,0.240
2.370E-06,0.252
2.380E-06,0.236
2.390E-06,0.200
2.400E-06,0.192
2.410E-06,0.184
2.420E-06,0.208
2.430E-06,0.240
2.440E-06,0.264
2.450E-06,0.264
2.460E-06,0.232
2.470E-06,0.204
2.480E-06,0.188
2.490E-06,0.184
2.500E-06,0.192
2.510E-06,0.220
2.520E-06,0.228
2.530E-06,0.244
2.540E-06,0.232
2.550E-06,0.216
2.560E-06,0.192
2.570E-06,0.184
2.580E-06,0.192
2.590E-06,0.204
2.600E-06,0.232
2.610E-06,0.236
2.620E-06,0.240
2.630E-06,0.228
2.640E-06,0.208
2.650E-06,0.196
2.660E-06,0.192
2.670E-06,0.204
2.680E-06,0.212
2.690E-06,0.224
2.700E-06,0.228
2.710E-06,0.220
2.720E-06,0.208
2.730E-06,0.200
2.740E-06,0.192
2.750E-06,0.196
2.760E-06,0.204
2.770E-06,0.220
2.780E-06,0.224
2.790E-06,0.216
2.800E-06,0.204
2.810E-06,0.204
2.820E-06,0.196
2.830E-06,0.200
2.840E-06,0.208
2.850E-06,0.208
2.860E-06,0.204
2.870E-06,0.196
2.880E-06,0.196
2.890E-06,0.196
2.900E-06,0.204
2.910E-06,0.204
2.920E-06,0.204
2.930E-06,0.196
2.940E-06,0.196
2.950E-06,0.200
2.960E-06,0.204
2.970E-06,0.196
2.980E-06,0.196
2.990E-06,0.188
3.000E-06,0.192
3.010E-06,0.196
3.020E-06,0.196
3.030E-06,0.204
3.040E-06,0.196
3.050E-06,0.192
3.060E-06,0.184
3.070E-06,0.180
3.080E-06,0.180
3.090E-06,0.192
3.100E-06,0.208
3.110E-06,0.208
3.120E-06,0.208
3.130E-06,0.208
3.140E-06,0.212
3.150E-06,0.208
3.160E-06,0.200
3.170E-06,0.188
3.180E-06,0.192
3.190E-06,0.192
3.200E-06,0.192
3.210E-06,0.196
3.220E-06,0.196
3.230E-06,0.196
3.240E-06,0.192
3.250E-06,0.192
3.260E-06,0.184
3.270E-06,0.180
3.280E-06,0.184
3.290E-06,0.192
3.300E-06,0.188
3.310E-06,0.200
3.320E-06,0.192
3.330E-06,0.188
3.340E-06,0.188
3.350E-06,0.180
3.360E-06,0.180
3.370E-06,0.176
3.380E-06,0.180
3.390E-06,0.184
3.400E-06,0.184
3.410E-06,0.180
3.420E-06,0.176
3.430E-06,0.172
