mediciones/5-15/17.4/WaveData47359.csv

#timebase=2000000(ps)
,#voltbase=100000(mv/100)
#size=4000
-8.400E-06,-0.024
-8.390E-06,-0.008
-8.380E-06,-0.004
-8.370E-06,0.012
-8.360E-06,0.012
-8.350E-06,0.016
-8.340E-06,0.012
-8.330E-06,0.004
-8.320E-06,-0.008
-8.310E-06,-0.012
-8.300E-06,0.000
-8.290E-06,-0.004
-8.280E-06,0.012
-8.270E-06,0.016
-8.260E-06,0.012
-8.250E-06,0.004
-8.240E-06,-0.004
-8.230E-06,-0.008
-8.220E-06,-0.008
-8.210E-06,0.004
-8.200E-06,0.008
-8.190E-06,0.016
-8.180E-06,0.012
-8.170E-06,0.004
-8.160E-06,-0.004
-8.150E-06,-0.008
-8.140E-06,-0.004
-8.130E-06,0.004
-8.120E-06,0.012
-8.110E-06,0.016
-8.100E-06,0.004
-8.090E-06,0.004
-8.080E-06,-0.004
-8.070E-06,-0.004
-8.060E-06,-0.004
-8.050E-06,0.004
-8.040E-06,0.008
-8.030E-06,0.012
-8.020E-06,0.012
-8.010E-06,0.012
-8.000E-06,-0.004
-7.990E-06,-0.004
-7.980E-06,-0.004
-7.970E-06,0.000
-7.960E-06,0.004
-7.950E-06,0.004
-7.940E-06,0.004
-7.930E-06,0.008
-7.920E-06,0.000
-7.910E-06,-0.004
-7.900E-06,-0.004
-7.890E-06,0.000
-7.880E-06,0.000
-7.870E-06,0.008
-7.860E-06,0.008
-7.850E-06,0.008
-7.840E-06,0.008
-7.830E-06,0.000
-7.820E-06,-0.008
-7.810E-06,0.000
-7.800E-06,-0.004
-7.790E-06,0.004
-7.780E-06,0.008
-7.770E-06,0.012
-7.760E-06,0.008
-7.750E-06,0.000
-7.740E-06,-0.004
-7.730E-06,0.000
-7.720E-06,-0.004
-7.710E-06,0.000
-7.700E-06,0.008
-7.690E-06,0.008
-7.680E-06,0.008
-7.670E-06,0.004
-7.660E-06,-0.004
-7.650E-06,-0.004
-7.640E-06,0.000
-7.630E-06,0.000
-7.620E-06,0.004
-7.610E-06,0.004
-7.600E-06,0.008
-7.590E-06,0.008
-7.580E-06,-0.004
-7.570E-06,-0.004
-7.560E-06,0.000
-7.550E-06,0.000
-7.540E-06,0.004
-7.530E-06,0.008
-7.520E-06,0.008
-7.510E-06,0.004
-7.500E-06,0.004
-7.490E-06,0.000
-7.480E-06,0.000
-7.470E-06,0.000
-7.460E-06,0.008
-7.450E-06,0.000
-7.440E-06,0.008
-7.430E-06,0.008
-7.420E-06,0.004
-7.410E-06,0.004
-7.400E-06,-0.004
-7.390E-06,-0.004
-7.380E-06,0.000
-7.370E-06,0.008
-7.360E-06,0.012
-7.350E-06,0.012
-7.340E-06,0.004
-7.330E-06,0.000
-7.320E-06,0.000
-7.310E-06,-0.004
-7.300E-06,0.000
-7.290E-06,0.008
-7.280E-06,0.012
-7.270E-06,0.004
-7.260E-06,0.004
-7.250E-06,0.000
-7.240E-06,-0.004
-7.230E-06,0.000
-7.220E-06,0.008
-7.210E-06,0.004
-7.200E-06,0.008
-7.190E-06,0.012
-7.180E-06,0.012
-7.170E-06,0.012
-7.160E-06,0.004
-7.150E-06,0.004
-7.140E-06,-0.008
-7.130E-06,0.008
-7.120E-06,0.012
-7.110E-06,0.008
-7.100E-06,0.008
-7.090E-06,0.004
-7.080E-06,0.004
-7.070E-06,-0.008
-7.060E-06,0.004
-7.050E-06,-0.012
-7.040E-06,0.000
-7.030E-06,-0.004
-7.020E-06,0.000
-7.010E-06,0.008
-7.000E-06,0.028
-6.990E-06,0.012
-6.980E-06,-0.020
-6.970E-06,-0.024
-6.960E-06,-0.008
-6.950E-06,0.020
-6.940E-06,0.036
-6.930E-06,0.036
-6.920E-06,0.008
-6.910E-06,-0.012
-6.900E-06,-0.028
-6.890E-06,-0.020
-6.880E-06,0.004
-6.870E-06,0.028
-6.860E-06,0.036
-6.850E-06,0.032
-6.840E-06,0.000
-6.830E-06,-0.036
-6.820E-06,-0.040
-6.810E-06,-0.024
-6.800E-06,0.004
-6.790E-06,0.036
-6.780E-06,0.052
-6.770E-06,0.024
-6.760E-06,-0.008
-6.750E-06,-0.036
-6.740E-06,-0.040
-6.730E-06,-0.012
-6.720E-06,0.016
-6.710E-06,0.036
-6.700E-06,0.028
-6.690E-06,0.012
-6.680E-06,-0.016
-6.670E-06,-0.020
-6.660E-06,-0.016
-6.650E-06,0.000
-6.640E-06,0.012
-6.630E-06,0.020
-6.620E-06,0.020
-6.610E-06,0.016
-6.600E-06,-0.008
-6.590E-06,-0.004
-6.580E-06,-0.008
-6.570E-06,-0.004
-6.560E-06,0.008
-6.550E-06,0.020
-6.540E-06,0.028
-6.530E-06,0.008
-6.520E-06,-0.004
-6.510E-06,-0.016
-6.500E-06,-0.024
-6.490E-06,-0.008
-6.480E-06,0.016
-6.470E-06,0.032
-6.460E-06,0.024
-6.450E-06,0.008
-6.440E-06,-0.012
-6.430E-06,-0.036
-6.420E-06,-0.028
-6.410E-06,0.004
-6.400E-06,0.028
-6.390E-06,0.036
-6.380E-06,0.032
-6.370E-06,0.008
-6.360E-06,-0.024
-6.350E-06,-0.024
-6.340E-06,-0.016
-6.330E-06,0.000
-6.320E-06,0.020
-6.310E-06,0.024
-6.300E-06,0.020
-6.290E-06,0.004
-6.280E-06,-0.008
-6.270E-06,-0.012
-6.260E-06,-0.008
-6.250E-06,-0.004
-6.240E-06,0.008
-6.230E-06,0.020
-6.220E-06,0.020
-6.210E-06,0.012
-6.200E-06,0.004
-6.190E-06,-0.008
-6.180E-06,-0.004
-6.170E-06,-0.008
-6.160E-06,-0.004
-6.150E-06,0.012
-6.140E-06,0.020
-6.130E-06,0.012
-6.120E-06,0.004
-6.110E-06,-0.004
-6.100E-06,-0.004
-6.090E-06,-0.004
-6.080E-06,-0.004
-6.070E-06,0.004
-6.060E-06,0.016
-6.050E-06,0.012
-6.040E-06,0.008
-6.030E-06,-0.004
-6.020E-06,-0.004
-6.010E-06,-0.004
-6.000E-06,-0.004
-5.990E-06,0.008
-5.980E-06,0.008
-5.970E-06,0.008
-5.960E-06,0.008
-5.950E-06,0.004
-5.940E-06,0.000
-5.930E-06,0.004
-5.920E-06,0.004
-5.910E-06,0.012
-5.900E-06,0.012
-5.890E-06,0.012
-5.880E-06,0.004
-5.870E-06,0.000
-5.860E-06,0.000
-5.850E-06,0.004
-5.840E-06,0.004
-5.830E-06,0.008
-5.820E-06,0.000
-5.810E-06,0.004
-5.800E-06,0.008
-5.790E-06,0.000
-5.780E-06,0.000
-5.770E-06,-0.004
-5.760E-06,0.000
-5.750E-06,0.004
-5.740E-06,0.008
-5.730E-06,0.004
-5.720E-06,0.004
-5.710E-06,0.008
-5.700E-06,-0.004
-5.690E-06,-0.004
-5.680E-06,0.000
-5.670E-06,0.000
-5.660E-06,0.008
-5.650E-06,0.004
-5.640E-06,0.008
-5.630E-06,0.000
-5.620E-06,-0.004
-5.610E-06,0.000
-5.600E-06,0.000
-5.590E-06,0.004
-5.580E-06,0.008
-5.570E-06,0.008
-5.560E-06,0.012
-5.550E-06,0.004
-5.540E-06,0.004
-5.530E-06,0.000
-5.520E-06,0.000
-5.510E-06,-0.004
-5.500E-06,0.004
-5.490E-06,0.012
-5.480E-06,0.012
-5.470E-06,0.008
-5.460E-06,0.004
-5.450E-06,0.000
-5.440E-06,0.000
-5.430E-06,-0.004
-5.420E-06,0.008
-5.410E-06,0.012
-5.400E-06,0.012
-5.390E-06,0.016
-5.380E-06,0.016
-5.370E-06,0.008
-5.360E-06,0.012
-5.350E-06,0.012
-5.340E-06,0.024
-5.330E-06,0.028
-5.320E-06,0.024
-5.310E-06,0.012
-5.300E-06,-0.004
-5.290E-06,-0.008
-5.280E-06,-0.004
-5.270E-06,0.000
-5.260E-06,0.004
-5.250E-06,0.008
-5.240E-06,0.016
-5.230E-06,0.012
-5.220E-06,-0.004
-5.210E-06,-0.004
-5.200E-06,-0.004
-5.190E-06,0.024
-5.180E-06,0.008
-5.170E-06,-0.004
-5.160E-06,-0.020
-5.150E-06,-0.028
-5.140E-06,-0.020
-5.130E-06,0.000
-5.120E-06,0.012
-5.110E-06,0.024
-5.100E-06,0.012
-5.090E-06,0.008
-5.080E-06,-0.004
-5.070E-06,-0.020
-5.060E-06,-0.024
-5.050E-06,-0.028
-5.040E-06,-0.008
-5.030E-06,0.016
-5.020E-06,0.036
-5.010E-06,0.032
-5.000E-06,0.000
-4.990E-06,-0.012
-4.980E-06,-0.020
-4.970E-06,-0.012
-4.960E-06,-0.004
-4.950E-06,0.020
-4.940E-06,0.024
-4.930E-06,0.028
-4.920E-06,0.024
-4.910E-06,0.004
-4.900E-06,-0.012
-4.890E-06,-0.028
-4.880E-06,-0.020
-4.870E-06,-0.016
-4.860E-06,0.016
-4.850E-06,0.028
-4.840E-06,0.020
-4.830E-06,0.016
-4.820E-06,-0.004
-4.810E-06,-0.024
-4.800E-06,-0.028
-4.790E-06,-0.004
-4.780E-06,0.016
-4.770E-06,0.032
-4.760E-06,0.020
-4.750E-06,0.008
-4.740E-06,-0.020
-4.730E-06,-0.028
-4.720E-06,-0.016
-4.710E-06,0.000
-4.700E-06,0.016
-4.690E-06,0.020
-4.680E-06,0.008
-4.670E-06,0.000
-4.660E-06,-0.004
-4.650E-06,-0.008
-4.640E-06,-0.004
-4.630E-06,0.008
-4.620E-06,0.012
-4.610E-06,0.008
-4.600E-06,0.008
-4.590E-06,0.008
-4.580E-06,0.000
-4.570E-06,-0.004
-4.560E-06,-0.004
-4.550E-06,-0.004
-4.540E-06,0.000
-4.530E-06,0.008
-4.520E-06,0.012
-4.510E-06,0.016
-4.500E-06,0.000
-4.490E-06,-0.004
-4.480E-06,-0.004
-4.470E-06,-0.004
-4.460E-06,0.000
-4.450E-06,0.012
-4.440E-06,0.012
-4.430E-06,0.012
-4.420E-06,0.008
-4.410E-06,-0.004
-4.400E-06,-0.004
-4.390E-06,-0.004
-4.380E-06,0.000
-4.370E-06,0.004
-4.360E-06,0.008
-4.350E-06,0.012
-4.340E-06,0.012
-4.330E-06,0.008
-4.320E-06,0.000
-4.310E-06,-0.004
-4.300E-06,-0.004
-4.290E-06,-0.004
-4.280E-06,0.008
-4.270E-06,0.016
-4.260E-06,0.012
-4.250E-06,0.008
-4.240E-06,-0.004
-4.230E-06,-0.004
-4.220E-06,0.000
-4.210E-06,0.008
-4.200E-06,0.020
-4.190E-06,0.008
-4.180E-06,-0.004
-4.170E-06,-0.004
-4.160E-06,-0.008
-4.150E-06,0.012
-4.140E-06,0.024
-4.130E-06,0.020
-4.120E-06,0.024
-4.110E-06,0.020
-4.100E-06,0.004
-4.090E-06,-0.004
-4.080E-06,-0.008
-4.070E-06,-0.008
-4.060E-06,0.000
-4.050E-06,0.004
-4.040E-06,0.012
-4.030E-06,0.004
-4.020E-06,0.004
-4.010E-06,0.000
-4.000E-06,0.008
-3.990E-06,0.004
-3.980E-06,0.008
-3.970E-06,0.004
-3.960E-06,0.008
-3.950E-06,0.012
-3.940E-06,0.012
-3.930E-06,0.008
-3.920E-06,0.012
-3.910E-06,0.016
-3.900E-06,0.012
-3.890E-06,0.008
-3.880E-06,0.000
-3.870E-06,0.000
-3.860E-06,-0.004
-3.850E-06,0.012
-3.840E-06,0.024
-3.830E-06,0.020
-3.820E-06,0.024
-3.810E-06,0.004
-3.800E-06,-0.008
-3.790E-06,-0.016
-3.780E-06,-0.012
-3.770E-06,0.008
-3.760E-06,0.028
-3.750E-06,0.024
-3.740E-06,0.012
-3.730E-06,-0.004
-3.720E-06,-0.024
-3.710E-06,-0.028
-3.700E-06,-0.020
-3.690E-06,0.008
-3.680E-06,0.028
-3.670E-06,0.024
-3.660E-06,0.020
-3.650E-06,0.004
-3.640E-06,-0.016
-3.630E-06,-0.024
-3.620E-06,-0.012
-3.610E-06,0.008
-3.600E-06,0.036
-3.590E-06,0.032
-3.580E-06,0.028
-3.570E-06,0.012
-3.560E-06,-0.004
-3.550E-06,-0.012
-3.540E-06,-0.008
-3.530E-06,0.008
-3.520E-06,0.024
-3.510E-06,0.016
-3.500E-06,0.008
-3.490E-06,-0.004
-3.480E-06,-0.012
-3.470E-06,0.000
-3.460E-06,0.004
-3.450E-06,0.020
-3.440E-06,0.028
-3.430E-06,0.024
-3.420E-06,0.012
-3.410E-06,-0.004
-3.400E-06,-0.012
-3.390E-06,-0.016
-3.380E-06,0.000
-3.370E-06,0.016
-3.360E-06,0.024
-3.350E-06,0.028
-3.340E-06,0.020
-3.330E-06,0.004
-3.320E-06,0.000
-3.310E-06,0.004
-3.300E-06,0.012
-3.290E-06,0.032
-3.280E-06,0.040
-3.270E-06,0.032
-3.260E-06,0.020
-3.250E-06,0.024
-3.240E-06,0.020
-3.230E-06,0.012
-3.220E-06,0.024
-3.210E-06,0.028
-3.200E-06,0.044
-3.190E-06,0.028
-3.180E-06,-0.044
-3.170E-06,-0.176
-3.160E-06,-0.268
-3.150E-06,-0.208
-3.140E-06,-0.016
-3.130E-06,0.196
-3.120E-06,0.332
-3.110E-06,0.272
-3.100E-06,0.068
-3.090E-06,-0.196
-3.080E-06,-0.296
-3.070E-06,-0.252
-3.060E-06,-0.160
-3.050E-06,0.056
-3.040E-06,0.124
-3.030E-06,0.136
-3.020E-06,0.060
-3.010E-06,0.024
-3.000E-06,-0.004
-2.990E-06,-0.060
-2.980E-06,-0.100
-2.970E-06,-0.068
-2.960E-06,0.000
-2.950E-06,0.068
-2.940E-06,0.128
-2.930E-06,0.088
-2.920E-06,0.032
-2.910E-06,-0.044
-2.900E-06,-0.080
-2.890E-06,-0.108
-2.880E-06,-0.008
-2.870E-06,0.076
-2.860E-06,0.128
-2.850E-06,0.116
-2.840E-06,0.028
-2.830E-06,-0.056
-2.820E-06,-0.108
-2.810E-06,-0.076
-2.800E-06,-0.016
-2.790E-06,0.064
-2.780E-06,0.096
-2.770E-06,0.096
-2.760E-06,0.040
-2.750E-06,0.000
-2.740E-06,-0.040
-2.730E-06,-0.036
-2.720E-06,-0.004
-2.710E-06,0.024
-2.700E-06,0.048
-2.690E-06,0.016
-2.680E-06,-0.052
-2.670E-06,-0.096
-2.660E-06,-0.044
-2.650E-06,0.036
-2.640E-06,0.120
-2.630E-06,0.160
-2.620E-06,0.108
-2.610E-06,-0.004
-2.600E-06,-0.120
-2.590E-06,-0.128
-2.580E-06,-0.028
-2.570E-06,0.104
-2.560E-06,0.160
-2.550E-06,0.112
-2.540E-06,0.004
-2.530E-06,-0.080
-2.520E-06,-0.180
-2.510E-06,-0.164
-2.500E-06,-0.196
-2.490E-06,-0.128
-2.480E-06,0.052
-2.470E-06,0.180
-2.460E-06,0.208
-2.450E-06,0.096
-2.440E-06,-0.020
-2.430E-06,-0.172
-2.420E-06,-0.204
-2.410E-06,-0.108
-2.400E-06,0.064
-2.390E-06,0.196
-2.380E-06,0.224
-2.370E-06,0.104
-2.360E-06,-0.088
-2.350E-06,-0.188
-2.340E-06,-0.160
-2.330E-06,-0.024
-2.320E-06,0.092
-2.310E-06,0.156
-2.300E-06,0.112
-2.290E-06,0.032
-2.280E-06,-0.052
-2.270E-06,-0.100
-2.260E-06,-0.076
-2.250E-06,-0.012
-2.240E-06,0.056
-2.230E-06,0.100
-2.220E-06,0.112
-2.210E-06,0.056
-2.200E-06,-0.008
-2.190E-06,-0.060
-2.180E-06,-0.056
-2.170E-06,-0.020
-2.160E-06,0.028
-2.150E-06,0.068
-2.140E-06,0.084
-2.130E-06,0.052
-2.120E-06,0.000
-2.110E-06,-0.036
-2.100E-06,-0.044
-2.090E-06,0.000
-2.080E-06,0.052
-2.070E-06,0.092
-2.060E-06,0.076
-2.050E-06,0.020
-2.040E-06,-0.020
-2.030E-06,-0.040
-2.020E-06,-0.024
-2.010E-06,0.024
-2.000E-06,0.068
-1.990E-06,0.080
-1.980E-06,0.048
-1.970E-06,0.008
-1.960E-06,-0.028
-1.950E-06,-0.028
-1.940E-06,-0.008
-1.930E-06,0.032
-1.920E-06,0.072
-1.910E-06,0.072
-1.900E-06,0.028
-1.890E-06,-0.032
-1.880E-06,-0.096
-1.870E-06,-0.116
-1.860E-06,-0.080
-1.850E-06,-0.012
-1.840E-06,0.028
-1.830E-06,0.024
-1.820E-06,0.020
-1.810E-06,0.016
-1.800E-06,0.016
-1.790E-06,0.012
-1.780E-06,-0.012
-1.770E-06,-0.036
-1.760E-06,-0.024
-1.750E-06,0.024
-1.740E-06,0.060
-1.730E-06,0.076
-1.720E-06,0.024
-1.710E-06,-0.020
-1.700E-06,-0.068
-1.690E-06,-0.064
-1.680E-06,-0.008
-1.670E-06,0.072
-1.660E-06,0.112
-1.650E-06,0.096
-1.640E-06,0.036
-1.630E-06,-0.036
-1.620E-06,-0.056
-1.610E-06,-0.036
-1.600E-06,0.028
-1.590E-06,0.068
-1.580E-06,0.060
-1.570E-06,-0.068
-1.560E-06,-0.116
-1.550E-06,-0.076
-1.540E-06,-0.020
-1.530E-06,0.012
-1.520E-06,0.152
-1.510E-06,0.152
-1.500E-06,0.052
-1.490E-06,-0.060
-1.480E-06,-0.136
-1.470E-06,-0.056
-1.460E-06,0.044
-1.450E-06,0.136
-1.440E-06,0.132
-1.430E-06,0.076
-1.420E-06,-0.032
-1.410E-06,-0.156
-1.400E-06,-0.196
-1.390E-06,-0.132
-1.380E-06,-0.036
-1.370E-06,0.020
-1.360E-06,0.044
-1.350E-06,0.088
-1.340E-06,0.012
-1.330E-06,-0.044
-1.320E-06,-0.096
-1.310E-06,-0.084
-1.300E-06,0.016
-1.290E-06,0.088
-1.280E-06,0.124
-1.270E-06,0.056
-1.260E-06,-0.008
-1.250E-06,-0.056
-1.240E-06,-0.044
-1.230E-06,-0.036
-1.220E-06,0.008
-1.210E-06,0.052
-1.200E-06,0.080
-1.190E-06,0.076
-1.180E-06,0.028
-1.170E-06,-0.012
-1.160E-06,-0.016
-1.150E-06,0.012
-1.140E-06,0.044
-1.130E-06,0.068
-1.120E-06,0.084
-1.110E-06,0.076
-1.100E-06,0.056
-1.090E-06,0.028
-1.080E-06,0.028
-1.070E-06,0.024
-1.060E-06,0.024
-1.050E-06,0.028
-1.040E-06,0.032
-1.030E-06,0.024
-1.020E-06,0.008
-1.010E-06,0.032
-1.000E-06,0.052
-9.900E-07,0.092
-9.800E-07,0.088
-9.700E-07,0.064
-9.600E-07,0.036
-9.500E-07,0.020
-9.400E-07,-0.016
-9.300E-07,-0.232
-9.200E-07,-0.264
-9.100E-07,-0.248
-9.000E-07,-0.084
-8.900E-07,0.028
-8.800E-07,0.164
-8.700E-07,0.088
-8.600E-07,-0.016
-8.500E-07,-0.112
-8.400E-07,-0.152
-8.300E-07,-0.044
-8.200E-07,0.040
-8.100E-07,0.144
-8.000E-07,0.112
-7.900E-07,0.092
-7.800E-07,0.004
-7.700E-07,-0.016
-7.600E-07,-0.028
-7.500E-07,0.008
-7.400E-07,0.036
-7.300E-07,0.088
-7.200E-07,0.100
-7.100E-07,0.044
-7.000E-07,-0.012
-6.900E-07,-0.064
-6.800E-07,-0.036
-6.700E-07,-0.036
-6.600E-07,0.000
-6.500E-07,0.012
-6.400E-07,0.044
-6.300E-07,0.032
-6.200E-07,0.028
-6.100E-07,0.004
-6.000E-07,-0.008
-5.900E-07,0.004
-5.800E-07,0.008
-5.700E-07,0.020
-5.600E-07,0.024
-5.500E-07,0.036
-5.400E-07,0.060
-5.300E-07,0.076
-5.200E-07,0.044
-5.100E-07,0.032
-5.000E-07,0.008
-4.900E-07,0.012
-4.800E-07,0.012
-4.700E-07,0.020
-4.600E-07,0.028
-4.500E-07,0.028
-4.400E-07,0.048
-4.300E-07,0.052
-4.200E-07,0.052
-4.100E-07,0.060
-4.000E-07,0.060
-3.900E-07,0.064
-3.800E-07,0.092
-3.700E-07,0.100
-3.600E-07,0.104
-3.500E-07,0.096
-3.400E-07,0.084
-3.300E-07,0.072
-3.200E-07,0.060
-3.100E-07,0.072
-3.000E-07,0.088
-2.900E-07,0.092
-2.800E-07,0.076
-2.700E-07,0.064
-2.600E-07,0.040
-2.500E-07,0.044
-2.400E-07,0.040
-2.300E-07,0.048
-2.200E-07,0.056
-2.100E-07,0.072
-2.000E-07,0.084
-1.900E-07,0.092
-1.800E-07,0.076
-1.700E-07,0.040
-1.600E-07,0.012
-1.500E-07,0.016
-1.400E-07,0.000
-1.300E-07,-0.168
-1.200E-07,-0.328
-1.100E-07,-0.408
-1.000E-07,-0.256
-9.000E-08,0.028
-8.000E-08,0.312
-7.000E-08,0.468
-6.000E-08,0.212
-5.000E-08,-0.268
-4.000E-08,-0.508
-3.000E-08,-0.512
-2.000E-08,-0.496
-1.000E-08,0.164
0.000E+00,0.540
1.000E-08,0.540
2.000E-08,0.020
3.000E-08,-0.512
4.000E-08,-0.508
5.000E-08,-0.512
6.000E-08,-0.012
7.000E-08,0.452
8.000E-08,0.540
9.000E-08,0.468
1.000E-07,0.144
1.100E-07,-0.204
1.200E-07,-0.428
1.300E-07,-0.436
1.400E-07,-0.216
1.500E-07,0.092
1.600E-07,0.308
1.700E-07,0.380
1.800E-07,0.244
1.900E-07,-0.008
2.000E-07,-0.248
2.100E-07,-0.304
2.200E-07,-0.204
2.300E-07,0.032
2.400E-07,0.216
2.500E-07,0.272
2.600E-07,0.156
2.700E-07,0.012
2.800E-07,-0.068
2.900E-07,-0.088
3.000E-07,-0.032
3.100E-07,0.016
3.200E-07,0.092
3.300E-07,0.124
3.400E-07,0.124
3.500E-07,0.060
3.600E-07,-0.008
3.700E-07,-0.088
3.800E-07,-0.108
3.900E-07,-0.076
4.000E-07,0.012
4.100E-07,0.124
4.200E-07,0.168
4.300E-07,0.148
4.400E-07,0.088
4.500E-07,0.004
4.600E-07,-0.068
4.700E-07,-0.060
4.800E-07,0.004
4.900E-07,0.108
5.000E-07,0.204
5.100E-07,0.240
5.200E-07,0.208
5.300E-07,0.108
5.400E-07,0.024
5.500E-07,-0.028
5.600E-07,0.008
5.700E-07,0.096
5.800E-07,0.180
5.900E-07,0.228
6.000E-07,0.212
6.100E-07,0.132
6.200E-07,0.040
6.300E-07,-0.024
6.400E-07,-0.028
6.500E-07,0.044
6.600E-07,0.136
6.700E-07,0.204
6.800E-07,0.208
6.900E-07,0.156
7.000E-07,0.060
7.100E-07,-0.012
7.200E-07,-0.048
7.300E-07,-0.016
7.400E-07,0.064
7.500E-07,0.144
7.600E-07,0.192
7.700E-07,0.192
7.800E-07,0.128
7.900E-07,0.016
8.000E-07,-0.160
8.100E-07,-0.284
8.200E-07,-0.268
8.300E-07,-0.144
8.400E-07,-0.084
8.500E-07,-0.072
8.600E-07,-0.120
8.700E-07,-0.108
8.800E-07,-0.012
8.900E-07,0.100
9.000E-07,0.216
9.100E-07,0.208
9.200E-07,0.084
9.300E-07,-0.152
9.400E-07,-0.272
9.500E-07,-0.272
9.600E-07,-0.196
9.700E-07,-0.112
9.800E-07,0.028
9.900E-07,-0.020
1.000E-06,-0.076
1.010E-06,-0.092
1.020E-06,-0.040
1.030E-06,0.028
1.040E-06,0.100
1.050E-06,0.176
1.060E-06,0.184
1.070E-06,0.168
1.080E-06,0.044
1.090E-06,-0.020
1.100E-06,-0.148
1.110E-06,-0.172
1.120E-06,-0.160
1.130E-06,-0.140
1.140E-06,-0.104
1.150E-06,-0.068
1.160E-06,-0.040
1.170E-06,-0.028
1.180E-06,-0.024
1.190E-06,-0.036
1.200E-06,-0.004
1.210E-06,-0.024
1.220E-06,-0.036
1.230E-06,-0.016
1.240E-06,0.036
1.250E-06,0.064
1.260E-06,0.120
1.270E-06,0.132
1.280E-06,0.136
1.290E-06,0.144
1.300E-06,0.120
1.310E-06,0.092
1.320E-06,0.040
1.330E-06,0.016
1.340E-06,0.032
1.350E-06,0.092
1.360E-06,0.104
1.370E-06,0.076
1.380E-06,-0.024
1.390E-06,-0.152
1.400E-06,-0.264
1.410E-06,-0.228
1.420E-06,-0.092
1.430E-06,0.020
1.440E-06,0.140
1.450E-06,0.196
1.460E-06,0.088
1.470E-06,-0.108
1.480E-06,-0.208
1.490E-06,-0.228
1.500E-06,-0.128
1.510E-06,0.048
1.520E-06,0.172
1.530E-06,0.172
1.540E-06,0.072
1.550E-06,-0.036
1.560E-06,-0.132
1.570E-06,-0.144
1.580E-06,-0.088
1.590E-06,0.044
1.600E-06,0.164
1.610E-06,0.224
1.620E-06,0.188
1.630E-06,0.092
1.640E-06,-0.004
1.650E-06,-0.024
1.660E-06,0.024
1.670E-06,0.136
1.680E-06,0.252
1.690E-06,0.276
1.700E-06,0.236
1.710E-06,0.148
1.720E-06,0.056
1.730E-06,0.012
1.740E-06,0.036
1.750E-06,0.112
1.760E-06,0.188
1.770E-06,0.232
1.780E-06,0.220
1.790E-06,0.152
1.800E-06,0.084
1.810E-06,0.032
1.820E-06,0.028
1.830E-06,0.088
1.840E-06,0.148
1.850E-06,0.196
1.860E-06,0.200
1.870E-06,0.164
1.880E-06,0.120
1.890E-06,0.068
1.900E-06,0.064
1.910E-06,0.084
1.920E-06,0.124
1.930E-06,0.148
1.940E-06,0.160
1.950E-06,0.144
1.960E-06,0.124
1.970E-06,0.108
1.980E-06,0.100
1.990E-06,0.092
2.000E-06,0.104
2.010E-06,0.092
2.020E-06,0.072
2.030E-06,0.028
2.040E-06,0.012
2.050E-06,0.032
2.060E-06,0.056
2.070E-06,0.088
2.080E-06,0.112
2.090E-06,0.092
2.100E-06,0.044
2.110E-06,-0.056
2.120E-06,-0.152
2.130E-06,-0.204
2.140E-06,-0.216
2.150E-06,-0.168
2.160E-06,-0.184
2.170E-06,-0.188
2.180E-06,-0.092
2.190E-06,0.008
2.200E-06,0.028
2.210E-06,0.104
2.220E-06,0.156
2.230E-06,0.168
2.240E-06,0.028
2.250E-06,-0.172
2.260E-06,-0.392
2.270E-06,-0.512
2.280E-06,-0.512
2.290E-06,-0.512
2.300E-06,-0.332
2.310E-06,-0.144
2.320E-06,-0.036
2.330E-06,-0.084
2.340E-06,-0.180
2.350E-06,-0.268
2.360E-06,-0.284
2.370E-06,-0.084
2.380E-06,0.080
2.390E-06,0.224
2.400E-06,0.168
2.410E-06,0.000
2.420E-06,-0.164
2.430E-06,-0.204
2.440E-06,-0.172
2.450E-06,-0.052
2.460E-06,0.092
2.470E-06,0.212
2.480E-06,0.220
2.490E-06,0.108
2.500E-06,-0.056
2.510E-06,-0.192
2.520E-06,-0.196
2.530E-06,-0.084
2.540E-06,0.092
2.550E-06,0.236
2.560E-06,0.284
2.570E-06,0.208
2.580E-06,0.068
2.590E-06,-0.052
2.600E-06,-0.076
2.610E-06,-0.004
2.620E-06,0.140
2.630E-06,0.276
2.640E-06,0.320
2.650E-06,0.276
2.660E-06,0.164
2.670E-06,0.056
2.680E-06,0.000
2.690E-06,0.044
2.700E-06,0.148
2.710E-06,0.264
2.720E-06,0.308
2.730E-06,0.272
2.740E-06,0.204
2.750E-06,0.120
2.760E-06,0.076
2.770E-06,0.060
2.780E-06,0.092
2.790E-06,0.128
2.800E-06,0.156
2.810E-06,0.176
2.820E-06,0.196
2.830E-06,0.180
2.840E-06,0.148
2.850E-06,0.124
2.860E-06,0.124
2.870E-06,0.156
2.880E-06,0.176
2.890E-06,0.192
2.900E-06,0.176
2.910E-06,0.152
2.920E-06,0.128
2.930E-06,0.124
2.940E-06,0.132
2.950E-06,0.136
2.960E-06,0.152
2.970E-06,0.160
2.980E-06,0.164
2.990E-06,0.160
3.000E-06,0.156
3.010E-06,0.144
3.020E-06,0.132
3.030E-06,0.124
3.040E-06,0.120
3.050E-06,0.116
3.060E-06,0.112
3.070E-06,0.100
3.080E-06,0.088
3.090E-06,0.068
3.100E-06,0.040
3.110E-06,0.020
3.120E-06,0.044
3.130E-06,0.088
3.140E-06,0.108
3.150E-06,0.136
3.160E-06,0.108
3.170E-06,0.100
3.180E-06,0.064
3.190E-06,0.048
3.200E-06,0.036
3.210E-06,0.052
3.220E-06,0.068
3.230E-06,0.088
3.240E-06,0.088
3.250E-06,0.056
3.260E-06,0.024
3.270E-06,-0.004
3.280E-06,0.008
