mediciones/5-15/3/WaveData47198.csv

#timebase=2000000(ps)
,#voltbase=1000000(mv/100)
#size=4000
-8.400E-06,0.000
-8.390E-06,0.040
-8.380E-06,0.080
-8.370E-06,0.080
-8.360E-06,0.040
-8.350E-06,0.040
-8.340E-06,0.040
-8.330E-06,0.040
-8.320E-06,0.040
-8.310E-06,0.080
-8.300E-06,0.040
-8.290E-06,0.080
-8.280E-06,-0.040
-8.270E-06,0.000
-8.260E-06,0.000
-8.250E-06,0.000
-8.240E-06,0.040
-8.230E-06,0.080
-8.220E-06,-0.040
-8.210E-06,-0.040
-8.200E-06,0.000
-8.190E-06,0.000
-8.180E-06,0.080
-8.170E-06,0.080
-8.160E-06,0.080
-8.150E-06,0.080
-8.140E-06,0.120
-8.130E-06,0.160
-8.120E-06,0.200
-8.110E-06,0.120
-8.100E-06,0.120
-8.090E-06,0.120
-8.080E-06,0.000
-8.070E-06,0.040
-8.060E-06,-0.040
-8.050E-06,0.040
-8.040E-06,0.080
-8.030E-06,0.080
-8.020E-06,0.040
-8.010E-06,0.040
-8.000E-06,0.080
-7.990E-06,0.040
-7.980E-06,0.080
-7.970E-06,0.040
-7.960E-06,0.040
-7.950E-06,0.000
-7.940E-06,0.040
-7.930E-06,0.040
-7.920E-06,0.040
-7.910E-06,0.040
-7.900E-06,0.040
-7.890E-06,0.000
-7.880E-06,0.040
-7.870E-06,0.040
-7.860E-06,0.080
-7.850E-06,0.120
-7.840E-06,0.040
-7.830E-06,0.080
-7.820E-06,0.080
-7.810E-06,0.160
-7.800E-06,0.080
-7.790E-06,0.120
-7.780E-06,0.040
-7.770E-06,0.000
-7.760E-06,0.000
-7.750E-06,0.000
-7.740E-06,0.080
-7.730E-06,0.000
-7.720E-06,-0.040
-7.710E-06,0.000
-7.700E-06,-0.040
-7.690E-06,0.000
-7.680E-06,0.000
-7.670E-06,0.040
-7.660E-06,0.040
-7.650E-06,0.040
-7.640E-06,0.080
-7.630E-06,0.040
-7.620E-06,0.080
-7.610E-06,0.080
-7.600E-06,0.080
-7.590E-06,0.040
-7.580E-06,0.040
-7.570E-06,0.080
-7.560E-06,0.080
-7.550E-06,0.120
-7.540E-06,0.040
-7.530E-06,0.080
-7.520E-06,0.080
-7.510E-06,0.080
-7.500E-06,0.040
-7.490E-06,0.080
-7.480E-06,0.080
-7.470E-06,0.040
-7.460E-06,0.080
-7.450E-06,0.080
-7.440E-06,0.080
-7.430E-06,0.080
-7.420E-06,0.160
-7.410E-06,0.120
-7.400E-06,0.120
-7.390E-06,0.040
-7.380E-06,0.000
-7.370E-06,0.040
-7.360E-06,0.000
-7.350E-06,0.000
-7.340E-06,0.000
-7.330E-06,0.000
-7.320E-06,0.000
-7.310E-06,0.040
-7.300E-06,0.040
-7.290E-06,0.040
-7.280E-06,0.120
-7.270E-06,0.120
-7.260E-06,0.120
-7.250E-06,0.120
-7.240E-06,0.080
-7.230E-06,0.080
-7.220E-06,0.080
-7.210E-06,0.120
-7.200E-06,0.080
-7.190E-06,0.080
-7.180E-06,0.080
-7.170E-06,0.080
-7.160E-06,0.080
-7.150E-06,0.080
-7.140E-06,0.040
-7.130E-06,0.040
-7.120E-06,0.040
-7.110E-06,0.000
-7.100E-06,0.040
-7.090E-06,0.080
-7.080E-06,0.040
-7.070E-06,0.080
-7.060E-06,-0.040
-7.050E-06,0.040
-7.040E-06,0.000
-7.030E-06,0.000
-7.020E-06,0.040
-7.010E-06,0.000
-7.000E-06,0.000
-6.990E-06,0.000
-6.980E-06,0.000
-6.970E-06,0.040
-6.960E-06,0.080
-6.950E-06,0.080
-6.940E-06,0.080
-6.930E-06,0.120
-6.920E-06,0.120
-6.910E-06,0.040
-6.900E-06,0.120
-6.890E-06,0.160
-6.880E-06,0.120
-6.870E-06,0.160
-6.860E-06,0.080
-6.850E-06,0.120
-6.840E-06,0.160
-6.830E-06,0.080
-6.820E-06,0.120
-6.810E-06,0.080
-6.800E-06,0.160
-6.790E-06,0.080
-6.780E-06,0.160
-6.770E-06,-0.040
-6.760E-06,0.000
-6.750E-06,0.000
-6.740E-06,0.040
-6.730E-06,0.040
-6.720E-06,0.080
-6.710E-06,0.000
-6.700E-06,0.000
-6.690E-06,-0.040
-6.680E-06,-0.040
-6.670E-06,-0.040
-6.660E-06,0.000
-6.650E-06,-0.040
-6.640E-06,-0.040
-6.630E-06,-0.040
-6.620E-06,-0.040
-6.610E-06,0.000
-6.600E-06,0.000
-6.590E-06,0.000
-6.580E-06,0.000
-6.570E-06,0.000
-6.560E-06,0.040
-6.550E-06,0.000
-6.540E-06,0.040
-6.530E-06,0.080
-6.520E-06,0.080
-6.510E-06,0.120
-6.500E-06,0.040
-6.490E-06,0.080
-6.480E-06,0.080
-6.470E-06,0.120
-6.460E-06,0.160
-6.450E-06,0.120
-6.440E-06,0.040
-6.430E-06,0.120
-6.420E-06,0.080
-6.410E-06,0.000
-6.400E-06,0.200
-6.390E-06,0.040
-6.380E-06,0.080
-6.370E-06,0.080
-6.360E-06,0.160
-6.350E-06,0.080
-6.340E-06,0.080
-6.330E-06,0.080
-6.320E-06,0.080
-6.310E-06,0.080
-6.300E-06,0.080
-6.290E-06,-0.040
-6.280E-06,-0.040
-6.270E-06,0.000
-6.260E-06,-0.040
-6.250E-06,0.040
-6.240E-06,0.080
-6.230E-06,0.040
-6.220E-06,0.080
-6.210E-06,-0.040
-6.200E-06,0.000
-6.190E-06,-0.080
-6.180E-06,-0.040
-6.170E-06,-0.080
-6.160E-06,-0.080
-6.150E-06,-0.080
-6.140E-06,-0.080
-6.130E-06,-0.040
-6.120E-06,0.040
-6.110E-06,0.080
-6.100E-06,0.080
-6.090E-06,0.120
-6.080E-06,0.120
-6.070E-06,0.040
-6.060E-06,0.000
-6.050E-06,0.040
-6.040E-06,0.040
-6.030E-06,-0.040
-6.020E-06,-0.040
-6.010E-06,-0.080
-6.000E-06,-0.120
-5.990E-06,-0.080
-5.980E-06,-0.080
-5.970E-06,-0.160
-5.960E-06,-0.120
-5.950E-06,-0.240
-5.940E-06,-0.280
-5.930E-06,-0.240
-5.920E-06,-0.240
-5.910E-06,-0.240
-5.900E-06,-0.240
-5.890E-06,-0.280
-5.880E-06,-0.280
-5.870E-06,-0.280
-5.860E-06,-0.280
-5.850E-06,-0.240
-5.840E-06,-0.320
-5.830E-06,-0.320
-5.820E-06,-0.320
-5.810E-06,-0.360
-5.800E-06,-0.360
-5.790E-06,-0.280
-5.780E-06,-0.200
-5.770E-06,-0.200
-5.760E-06,-0.160
-5.750E-06,-0.120
-5.740E-06,-0.160
-5.730E-06,-0.120
-5.720E-06,-0.080
-5.710E-06,-0.040
-5.700E-06,0.000
-5.690E-06,0.000
-5.680E-06,0.040
-5.670E-06,0.000
-5.660E-06,-0.080
-5.650E-06,-0.080
-5.640E-06,-0.080
-5.630E-06,-0.040
-5.620E-06,-0.040
-5.610E-06,-0.080
-5.600E-06,-0.080
-5.590E-06,-0.120
-5.580E-06,-0.080
-5.570E-06,-0.120
-5.560E-06,-0.160
-5.550E-06,-0.200
-5.540E-06,-0.200
-5.530E-06,-0.200
-5.520E-06,-0.280
-5.510E-06,-0.200
-5.500E-06,-0.200
-5.490E-06,-0.240
-5.480E-06,-0.360
-5.470E-06,-0.320
-5.460E-06,-0.320
-5.450E-06,-0.320
-5.440E-06,-0.360
-5.430E-06,-0.360
-5.420E-06,-0.320
-5.410E-06,-0.320
-5.400E-06,-0.360
-5.390E-06,-0.280
-5.380E-06,-0.320
-5.370E-06,-0.240
-5.360E-06,-0.280
-5.350E-06,-0.320
-5.340E-06,-0.360
-5.330E-06,-0.240
-5.320E-06,-0.280
-5.310E-06,-0.280
-5.300E-06,-0.240
-5.290E-06,-0.160
-5.280E-06,-0.240
-5.270E-06,-0.280
-5.260E-06,-0.240
-5.250E-06,-0.280
-5.240E-06,-0.200
-5.230E-06,-0.160
-5.220E-06,-0.200
-5.210E-06,-0.240
-5.200E-06,-0.280
-5.190E-06,-0.280
-5.180E-06,-0.320
-5.170E-06,-0.360
-5.160E-06,-0.360
-5.150E-06,-0.400
-5.140E-06,-0.400
-5.130E-06,-0.480
-5.120E-06,-0.480
-5.110E-06,-0.480
-5.100E-06,-0.560
-5.090E-06,-0.600
-5.080E-06,-0.640
-5.070E-06,-0.680
-5.060E-06,-0.720
-5.050E-06,-0.760
-5.040E-06,-0.720
-5.030E-06,-0.720
-5.020E-06,-0.720
-5.010E-06,-0.760
-5.000E-06,-0.720
-4.990E-06,-0.680
-4.980E-06,-0.600
-4.970E-06,-0.560
-4.960E-06,-0.520
-4.950E-06,-0.600
-4.940E-06,-0.680
-4.930E-06,-0.680
-4.920E-06,-0.640
-4.910E-06,-0.680
-4.900E-06,-0.600
-4.890E-06,-0.680
-4.880E-06,-0.640
-4.870E-06,-0.640
-4.860E-06,-0.600
-4.850E-06,-0.480
-4.840E-06,-0.480
-4.830E-06,-0.400
-4.820E-06,-0.320
-4.810E-06,-0.360
-4.800E-06,-0.200
-4.790E-06,-0.120
-4.780E-06,-0.080
-4.770E-06,0.000
-4.760E-06,0.000
-4.750E-06,0.000
-4.740E-06,0.000
-4.730E-06,0.120
-4.720E-06,0.240
-4.710E-06,0.240
-4.700E-06,0.200
-4.690E-06,0.200
-4.680E-06,0.240
-4.670E-06,0.200
-4.660E-06,0.320
-4.650E-06,0.360
-4.640E-06,0.440
-4.630E-06,0.400
-4.620E-06,0.240
-4.610E-06,0.160
-4.600E-06,0.080
-4.590E-06,0.000
-4.580E-06,0.000
-4.570E-06,-0.160
-4.560E-06,-0.320
-4.550E-06,-0.440
-4.540E-06,-0.480
-4.530E-06,-0.560
-4.520E-06,-0.560
-4.510E-06,-0.600
-4.500E-06,-0.600
-4.490E-06,-0.640
-4.480E-06,-0.600
-4.470E-06,-0.440
-4.460E-06,-0.480
-4.450E-06,-0.280
-4.440E-06,-0.360
-4.430E-06,-0.280
-4.420E-06,-0.160
-4.410E-06,-0.160
-4.400E-06,-0.160
-4.390E-06,-0.200
-4.380E-06,-0.200
-4.370E-06,-0.320
-4.360E-06,-0.280
-4.350E-06,-0.240
-4.340E-06,-0.240
-4.330E-06,-0.240
-4.320E-06,-0.160
-4.310E-06,-0.120
-4.300E-06,-0.160
-4.290E-06,-0.080
-4.280E-06,-0.120
-4.270E-06,-0.080
-4.260E-06,-0.080
-4.250E-06,-0.080
-4.240E-06,-0.040
-4.230E-06,-0.040
-4.220E-06,-0.080
-4.210E-06,-0.040
-4.200E-06,-0.040
-4.190E-06,0.040
-4.180E-06,-0.040
-4.170E-06,-0.040
-4.160E-06,0.000
-4.150E-06,0.080
-4.140E-06,0.160
-4.130E-06,0.240
-4.120E-06,0.200
-4.110E-06,0.240
-4.100E-06,0.280
-4.090E-06,0.160
-4.080E-06,0.280
-4.070E-06,0.320
-4.060E-06,0.400
-4.050E-06,0.360
-4.040E-06,0.160
-4.030E-06,0.080
-4.020E-06,0.040
-4.010E-06,0.000
-4.000E-06,-0.040
-3.990E-06,-0.120
-3.980E-06,-0.240
-3.970E-06,-0.320
-3.960E-06,-0.360
-3.950E-06,-0.360
-3.940E-06,-0.440
-3.930E-06,-0.480
-3.920E-06,-0.480
-3.910E-06,-0.520
-3.900E-06,-0.560
-3.890E-06,-0.480
-3.880E-06,-0.480
-3.870E-06,-0.440
-3.860E-06,-0.400
-3.850E-06,-0.400
-3.840E-06,-0.360
-3.830E-06,-0.240
-3.820E-06,-0.240
-3.810E-06,-0.200
-3.800E-06,-0.200
-3.790E-06,-0.120
-3.780E-06,0.000
-3.770E-06,-0.040
-3.760E-06,0.000
-3.750E-06,0.000
-3.740E-06,0.080
-3.730E-06,0.160
-3.720E-06,0.160
-3.710E-06,0.240
-3.700E-06,0.160
-3.690E-06,0.200
-3.680E-06,0.280
-3.670E-06,0.240
-3.660E-06,0.240
-3.650E-06,0.160
-3.640E-06,0.160
-3.630E-06,0.160
-3.620E-06,0.120
-3.610E-06,0.080
-3.600E-06,0.080
-3.590E-06,0.080
-3.580E-06,0.080
-3.570E-06,0.080
-3.560E-06,0.080
-3.550E-06,0.000
-3.540E-06,0.080
-3.530E-06,0.040
-3.520E-06,0.040
-3.510E-06,0.000
-3.500E-06,0.000
-3.490E-06,0.040
-3.480E-06,0.040
-3.470E-06,0.040
-3.460E-06,0.000
-3.450E-06,0.000
-3.440E-06,0.000
-3.430E-06,-0.040
-3.420E-06,-0.080
-3.410E-06,-0.080
-3.400E-06,-0.080
-3.390E-06,0.000
-3.380E-06,-0.080
-3.370E-06,-0.080
-3.360E-06,-0.120
-3.350E-06,-0.120
-3.340E-06,-0.040
-3.330E-06,0.000
-3.320E-06,-0.040
-3.310E-06,0.000
-3.300E-06,-0.040
-3.290E-06,0.000
-3.280E-06,0.040
-3.270E-06,0.080
-3.260E-06,0.080
-3.250E-06,-0.040
-3.240E-06,0.000
-3.230E-06,-0.160
-3.220E-06,-0.160
-3.210E-06,-0.200
-3.200E-06,-0.200
-3.190E-06,-0.360
-3.180E-06,-0.440
-3.170E-06,-0.640
-3.160E-06,-0.720
-3.150E-06,-0.720
-3.140E-06,-0.800
-3.130E-06,-0.720
-3.120E-06,-0.840
-3.110E-06,-0.880
-3.100E-06,-0.920
-3.090E-06,-0.880
-3.080E-06,-0.840
-3.070E-06,-0.720
-3.060E-06,-0.720
-3.050E-06,-0.680
-3.040E-06,-0.600
-3.030E-06,-0.480
-3.020E-06,-0.440
-3.010E-06,-0.360
-3.000E-06,-0.240
-2.990E-06,-0.200
-2.980E-06,-0.200
-2.970E-06,-0.120
-2.960E-06,-0.120
-2.950E-06,0.040
-2.940E-06,0.000
-2.930E-06,0.080
-2.920E-06,0.120
-2.910E-06,0.200
-2.900E-06,0.200
-2.890E-06,0.200
-2.880E-06,0.280
-2.870E-06,0.240
-2.860E-06,0.280
-2.850E-06,0.280
-2.840E-06,0.240
-2.830E-06,0.160
-2.820E-06,0.120
-2.810E-06,0.080
-2.800E-06,0.040
-2.790E-06,-0.040
-2.780E-06,-0.160
-2.770E-06,-0.200
-2.760E-06,-0.240
-2.750E-06,-0.280
-2.740E-06,-0.320
-2.730E-06,-0.240
-2.720E-06,-0.240
-2.710E-06,-0.120
-2.700E-06,0.040
-2.690E-06,0.120
-2.680E-06,0.200
-2.670E-06,0.280
-2.660E-06,0.240
-2.650E-06,0.320
-2.640E-06,0.320
-2.630E-06,0.360
-2.620E-06,0.200
-2.610E-06,0.080
-2.600E-06,-0.080
-2.590E-06,-0.120
-2.580E-06,-0.240
-2.570E-06,-0.360
-2.560E-06,-0.480
-2.550E-06,-0.520
-2.540E-06,-0.640
-2.530E-06,-0.640
-2.520E-06,-0.680
-2.510E-06,-0.760
-2.500E-06,-0.800
-2.490E-06,-0.800
-2.480E-06,-0.760
-2.470E-06,-0.720
-2.460E-06,-0.760
-2.450E-06,-0.760
-2.440E-06,-0.720
-2.430E-06,-0.680
-2.420E-06,-0.640
-2.410E-06,-0.600
-2.400E-06,-0.480
-2.390E-06,-0.440
-2.380E-06,-0.400
-2.370E-06,-0.360
-2.360E-06,-0.200
-2.350E-06,-0.120
-2.340E-06,-0.040
-2.330E-06,0.000
-2.320E-06,0.040
-2.310E-06,0.160
-2.300E-06,0.120
-2.290E-06,0.160
-2.280E-06,0.160
-2.270E-06,0.200
-2.260E-06,0.200
-2.250E-06,0.160
-2.240E-06,0.160
-2.230E-06,0.080
-2.220E-06,0.040
-2.210E-06,0.000
-2.200E-06,-0.040
-2.190E-06,-0.080
-2.180E-06,-0.040
-2.170E-06,-0.080
-2.160E-06,-0.160
-2.150E-06,-0.200
-2.140E-06,-0.240
-2.130E-06,-0.200
-2.120E-06,-0.200
-2.110E-06,-0.160
-2.100E-06,-0.240
-2.090E-06,-0.240
-2.080E-06,-0.160
-2.070E-06,-0.280
-2.060E-06,-0.360
-2.050E-06,-0.360
-2.040E-06,-0.400
-2.030E-06,-0.480
-2.020E-06,-0.600
-2.010E-06,-0.640
-2.000E-06,-0.800
-1.990E-06,-0.840
-1.980E-06,-0.880
-1.970E-06,-1.000
-1.960E-06,-1.040
-1.950E-06,-1.120
-1.940E-06,-1.000
-1.930E-06,-0.640
-1.920E-06,-0.320
-1.910E-06,-0.240
-1.900E-06,-0.200
-1.890E-06,-0.800
-1.880E-06,-1.320
-1.870E-06,-1.440
-1.860E-06,-1.800
-1.850E-06,-1.520
-1.840E-06,-1.760
-1.830E-06,-1.720
-1.820E-06,-1.760
-1.810E-06,-1.680
-1.800E-06,-1.520
-1.790E-06,-1.600
-1.780E-06,-1.680
-1.770E-06,-1.720
-1.760E-06,-1.560
-1.750E-06,-1.400
-1.740E-06,-1.360
-1.730E-06,-1.240
-1.720E-06,-1.320
-1.710E-06,-1.120
-1.700E-06,-0.960
-1.690E-06,-0.840
-1.680E-06,-0.760
-1.670E-06,-0.560
-1.660E-06,-0.480
-1.650E-06,-0.280
-1.640E-06,-0.080
-1.630E-06,0.080
-1.620E-06,0.240
-1.610E-06,0.440
-1.600E-06,0.520
-1.590E-06,0.520
-1.580E-06,0.600
-1.570E-06,0.640
-1.560E-06,0.680
-1.550E-06,0.680
-1.540E-06,0.720
-1.530E-06,0.680
-1.520E-06,0.680
-1.510E-06,0.640
-1.500E-06,0.520
-1.490E-06,0.480
-1.480E-06,0.440
-1.470E-06,0.440
-1.460E-06,0.560
-1.450E-06,0.640
-1.440E-06,0.760
-1.430E-06,0.840
-1.420E-06,0.840
-1.410E-06,0.800
-1.400E-06,0.720
-1.390E-06,0.680
-1.380E-06,0.520
-1.370E-06,0.520
-1.360E-06,0.360
-1.350E-06,0.240
-1.340E-06,0.120
-1.330E-06,-0.040
-1.320E-06,-0.240
-1.310E-06,-0.480
-1.300E-06,-0.680
-1.290E-06,-1.040
-1.280E-06,-1.240
-1.270E-06,-1.360
-1.260E-06,-1.680
-1.250E-06,-1.800
-1.240E-06,-2.000
-1.230E-06,-2.040
-1.220E-06,-2.120
-1.210E-06,-2.160
-1.200E-06,-2.440
-1.190E-06,-2.640
-1.180E-06,-2.680
-1.170E-06,-2.720
-1.160E-06,-2.680
-1.150E-06,-2.800
-1.140E-06,-3.040
-1.130E-06,-3.280
-1.120E-06,-3.480
-1.110E-06,-3.520
-1.100E-06,-3.720
-1.090E-06,-3.960
-1.080E-06,-4.000
-1.070E-06,-4.200
-1.060E-06,-4.160
-1.050E-06,-3.960
-1.040E-06,-3.360
-1.030E-06,-2.720
-1.020E-06,-2.360
-1.010E-06,-2.160
-1.000E-06,-1.880
-9.900E-07,-2.200
-9.800E-07,-2.160
-9.700E-07,-2.280
-9.600E-07,-2.600
-9.500E-07,-2.960
-9.400E-07,-3.240
-9.300E-07,-3.440
-9.200E-07,-3.360
-9.100E-07,-3.200
-9.000E-07,-3.080
-8.900E-07,-2.160
-8.800E-07,-1.680
-8.700E-07,-0.320
-8.600E-07,0.080
-8.500E-07,0.280
-8.400E-07,-0.040
-8.300E-07,-0.760
-8.200E-07,-1.160
-8.100E-07,-1.680
-8.000E-07,-2.040
-7.900E-07,-2.640
-7.800E-07,-3.080
-7.700E-07,-3.240
-7.600E-07,-2.880
-7.500E-07,-2.800
-7.400E-07,-2.520
-7.300E-07,-2.600
-7.200E-07,-2.520
-7.100E-07,-2.400
-7.000E-07,-2.120
-6.900E-07,-2.040
-6.800E-07,-1.680
-6.700E-07,-1.560
-6.600E-07,-1.360
-6.500E-07,-1.160
-6.400E-07,-1.000
-6.300E-07,-0.640
-6.200E-07,-0.560
-6.100E-07,-0.320
-6.000E-07,-0.360
-5.900E-07,-0.080
-5.800E-07,0.080
-5.700E-07,0.320
-5.600E-07,0.480
-5.500E-07,0.600
-5.400E-07,0.600
-5.300E-07,0.800
-5.200E-07,0.720
-5.100E-07,0.880
-5.000E-07,0.880
-4.900E-07,0.880
-4.800E-07,0.840
-4.700E-07,0.840
-4.600E-07,0.640
-4.500E-07,0.600
-4.400E-07,0.360
-4.300E-07,0.320
-4.200E-07,0.040
-4.100E-07,0.040
-4.000E-07,-0.160
-3.900E-07,-0.040
-3.800E-07,0.000
-3.700E-07,0.040
-3.600E-07,-0.040
-3.500E-07,0.120
-3.400E-07,0.040
-3.300E-07,0.240
-3.200E-07,0.200
-3.100E-07,0.200
-3.000E-07,0.080
-2.900E-07,0.000
-2.800E-07,-0.160
-2.700E-07,-0.320
-2.600E-07,-0.480
-2.500E-07,-0.680
-2.400E-07,-1.000
-2.300E-07,-1.240
-2.200E-07,-1.600
-2.100E-07,-1.800
-2.000E-07,-2.080
-1.900E-07,-2.320
-1.800E-07,-2.680
-1.700E-07,-3.040
-1.600E-07,-3.240
-1.500E-07,-3.480
-1.400E-07,-3.640
-1.300E-07,-3.840
-1.200E-07,-3.920
-1.100E-07,-3.920
-1.000E-07,-3.800
-9.000E-08,-3.680
-8.000E-08,-3.680
-7.000E-08,-3.600
-6.000E-08,-3.440
-5.000E-08,-2.280
-4.000E-08,0.120
-3.000E-08,1.720
-2.000E-08,3.000
-1.000E-08,2.440
0.000E+00,0.880
1.000E-08,-0.120
2.000E-08,-0.920
3.000E-08,-0.680
4.000E-08,-0.920
5.000E-08,-1.480
6.000E-08,-2.240
7.000E-08,-2.240
8.000E-08,-1.920
9.000E-08,-1.160
1.000E-07,-1.120
1.100E-07,-1.240
1.200E-07,-1.400
1.300E-07,-1.040
1.400E-07,-0.640
1.500E-07,-0.520
1.600E-07,-0.520
1.700E-07,-0.640
1.800E-07,-0.440
1.900E-07,-0.320
2.000E-07,0.000
2.100E-07,-0.120
2.200E-07,0.000
2.300E-07,0.040
2.400E-07,0.360
2.500E-07,0.400
2.600E-07,0.640
2.700E-07,0.600
2.800E-07,0.760
2.900E-07,0.720
3.000E-07,0.600
3.100E-07,0.480
3.200E-07,0.360
3.300E-07,0.280
3.400E-07,0.160
3.500E-07,0.120
3.600E-07,0.040
3.700E-07,0.040
3.800E-07,-0.280
3.900E-07,-0.440
4.000E-07,-0.720
4.100E-07,-0.960
4.200E-07,-1.080
4.300E-07,-1.240
4.400E-07,-1.400
4.500E-07,-1.560
4.600E-07,-1.800
4.700E-07,-1.960
4.800E-07,-2.080
4.900E-07,-2.080
5.000E-07,-1.920
5.100E-07,-1.760
5.200E-07,-1.480
5.300E-07,-1.120
5.400E-07,-0.760
5.500E-07,-0.520
5.600E-07,-0.440
5.700E-07,-0.520
5.800E-07,-0.920
5.900E-07,-1.360
6.000E-07,-1.880
6.100E-07,-2.360
6.200E-07,-2.760
6.300E-07,-3.160
6.400E-07,-3.520
6.500E-07,-3.840
6.600E-07,-4.000
6.700E-07,-4.320
6.800E-07,-4.520
6.900E-07,-4.800
7.000E-07,-4.680
7.100E-07,-4.240
7.200E-07,-3.680
7.300E-07,-2.920
7.400E-07,-2.280
7.500E-07,-1.640
7.600E-07,-1.080
7.700E-07,-0.640
7.800E-07,-0.480
7.900E-07,-0.320
8.000E-07,-0.520
8.100E-07,-0.720
8.200E-07,-1.200
8.300E-07,-1.600
8.400E-07,-2.080
8.500E-07,-2.360
8.600E-07,-2.760
8.700E-07,-2.960
8.800E-07,-3.160
8.900E-07,-3.040
9.000E-07,-3.000
9.100E-07,-2.600
9.200E-07,-2.280
9.300E-07,-1.800
9.400E-07,-1.440
9.500E-07,-1.040
9.600E-07,-0.840
9.700E-07,-0.640
9.800E-07,-0.520
9.900E-07,-0.680
1.000E-06,-0.640
1.010E-06,-0.760
1.020E-06,-0.760
1.030E-06,-0.680
1.040E-06,-0.600
1.050E-06,-0.520
1.060E-06,-0.120
1.070E-06,0.080
1.080E-06,0.480
1.090E-06,1.080
1.100E-06,1.600
1.110E-06,2.200
1.120E-06,2.560
1.130E-06,2.520
1.140E-06,2.360
1.150E-06,1.840
1.160E-06,1.120
1.170E-06,0.560
1.180E-06,-0.120
1.190E-06,-0.440
1.200E-06,-0.760
1.210E-06,-1.120
1.220E-06,-1.360
1.230E-06,-1.760
1.240E-06,-2.200
1.250E-06,-2.720
1.260E-06,-3.160
1.270E-06,-3.680
1.280E-06,-4.200
1.290E-06,-4.520
1.300E-06,-4.680
1.310E-06,-4.640
1.320E-06,-4.440
1.330E-06,-4.080
1.340E-06,-3.600
1.350E-06,-3.280
1.360E-06,-2.840
1.370E-06,-2.360
1.380E-06,-1.880
1.390E-06,-1.400
1.400E-06,-1.040
1.410E-06,-0.600
1.420E-06,-0.280
1.430E-06,0.040
1.440E-06,0.360
1.450E-06,0.760
1.460E-06,1.160
1.470E-06,1.560
1.480E-06,1.920
1.490E-06,2.320
1.500E-06,2.560
1.510E-06,2.720
1.520E-06,2.800
1.530E-06,2.640
1.540E-06,2.520
1.550E-06,2.320
1.560E-06,1.920
1.570E-06,1.480
1.580E-06,0.800
1.590E-06,0.160
1.600E-06,-0.680
1.610E-06,-1.400
1.620E-06,-2.160
1.630E-06,-2.840
1.640E-06,-3.400
1.650E-06,-3.760
1.660E-06,-4.040
1.670E-06,-4.120
1.680E-06,-4.160
1.690E-06,-4.080
1.700E-06,-3.840
1.710E-06,-3.520
1.720E-06,-3.240
1.730E-06,-2.920
1.740E-06,-2.600
1.750E-06,-2.400
1.760E-06,-2.160
1.770E-06,-1.960
1.780E-06,-1.760
1.790E-06,-1.560
1.800E-06,-1.360
1.810E-06,-1.200
1.820E-06,-0.880
1.830E-06,-0.520
1.840E-06,-0.080
1.850E-06,0.360
1.860E-06,0.800
1.870E-06,1.200
1.880E-06,1.520
1.890E-06,1.680
1.900E-06,1.720
1.910E-06,1.680
1.920E-06,1.240
1.930E-06,0.840
1.940E-06,0.120
1.950E-06,-0.560
1.960E-06,-1.320
1.970E-06,-1.880
1.980E-06,-2.400
1.990E-06,-2.680
2.000E-06,-2.720
2.010E-06,-2.640
2.020E-06,-2.560
2.030E-06,-2.360
2.040E-06,-2.200
2.050E-06,-2.000
2.060E-06,-1.920
2.070E-06,-1.840
2.080E-06,-1.760
2.090E-06,-1.760
2.100E-06,-1.760
2.110E-06,-1.800
2.120E-06,-1.760
2.130E-06,-1.720
2.140E-06,-1.680
2.150E-06,-1.600
2.160E-06,-1.480
2.170E-06,-1.320
2.180E-06,-1.200
2.190E-06,-1.000
2.200E-06,-0.920
2.210E-06,-0.720
2.220E-06,-0.680
2.230E-06,-0.600
2.240E-06,-0.560
2.250E-06,-0.560
2.260E-06,-0.560
2.270E-06,-0.480
2.280E-06,-0.440
2.290E-06,-0.360
2.300E-06,-0.240
2.310E-06,-0.160
2.320E-06,-0.040
2.330E-06,0.040
2.340E-06,0.160
2.350E-06,0.280
2.360E-06,0.360
2.370E-06,0.320
2.380E-06,0.360
2.390E-06,0.240
2.400E-06,0.120
2.410E-06,0.040
2.420E-06,-0.200
2.430E-06,-0.320
2.440E-06,-0.400
2.450E-06,-0.520
2.460E-06,-0.520
2.470E-06,-0.560
2.480E-06,-0.520
2.490E-06,-0.520
2.500E-06,-0.440
2.510E-06,-0.320
2.520E-06,-0.200
2.530E-06,-0.120
2.540E-06,-0.040
2.550E-06,0.000
2.560E-06,0.000
2.570E-06,0.040
2.580E-06,0.040
2.590E-06,0.040
2.600E-06,0.080
2.610E-06,0.120
2.620E-06,0.200
2.630E-06,0.240
2.640E-06,0.240
2.650E-06,0.200
2.660E-06,0.280
2.670E-06,0.320
2.680E-06,0.480
2.690E-06,0.520
2.700E-06,0.480
2.710E-06,0.520
2.720E-06,0.400
2.730E-06,0.240
2.740E-06,0.040
2.750E-06,-0.040
2.760E-06,-0.240
2.770E-06,-0.320
2.780E-06,-0.400
2.790E-06,-0.440
2.800E-06,-0.480
2.810E-06,-0.480
2.820E-06,-0.440
2.830E-06,-0.400
2.840E-06,-0.360
2.850E-06,-0.240
2.860E-06,-0.160
2.870E-06,-0.080
2.880E-06,0.040
2.890E-06,0.160
2.900E-06,0.120
2.910E-06,0.240
2.920E-06,0.360
2.930E-06,0.360
2.940E-06,0.440
2.950E-06,0.440
2.960E-06,0.440
2.970E-06,0.400
2.980E-06,0.400
2.990E-06,0.440
3.000E-06,0.440
3.010E-06,0.360
3.020E-06,0.360
3.030E-06,0.360
3.040E-06,0.320
3.050E-06,0.320
3.060E-06,0.280
3.070E-06,0.200
3.080E-06,0.200
3.090E-06,0.120
3.100E-06,0.080
3.110E-06,0.040
3.120E-06,0.040
