mediciones/5-15/3/WaveData47192.csv

#timebase=2000000(ps)
,#voltbase=500000(mv/100)
#size=4000
-8.400E-06,-0.180
-8.390E-06,-0.200
-8.380E-06,-0.160
-8.370E-06,-0.220
-8.360E-06,-0.200
-8.350E-06,-0.220
-8.340E-06,-0.220
-8.330E-06,-0.180
-8.320E-06,-0.180
-8.310E-06,-0.160
-8.300E-06,-0.160
-8.290E-06,-0.140
-8.280E-06,-0.140
-8.270E-06,-0.100
-8.260E-06,-0.040
-8.250E-06,-0.080
-8.240E-06,-0.040
-8.230E-06,-0.160
-8.220E-06,-0.180
-8.210E-06,-0.160
-8.200E-06,-0.140
-8.190E-06,-0.080
-8.180E-06,-0.100
-8.170E-06,-0.140
-8.160E-06,-0.160
-8.150E-06,-0.140
-8.140E-06,-0.100
-8.130E-06,-0.060
-8.120E-06,-0.020
-8.110E-06,-0.060
-8.100E-06,-0.060
-8.090E-06,-0.080
-8.080E-06,-0.040
-8.070E-06,-0.020
-8.060E-06,0.000
-8.050E-06,0.020
-8.040E-06,-0.020
-8.030E-06,-0.020
-8.020E-06,0.000
-8.010E-06,0.000
-8.000E-06,0.000
-7.990E-06,0.000
-7.980E-06,0.020
-7.970E-06,0.000
-7.960E-06,-0.020
-7.950E-06,-0.020
-7.940E-06,-0.020
-7.930E-06,-0.020
-7.920E-06,-0.020
-7.910E-06,-0.020
-7.900E-06,-0.020
-7.890E-06,-0.020
-7.880E-06,-0.040
-7.870E-06,0.040
-7.860E-06,-0.020
-7.850E-06,0.000
-7.840E-06,-0.020
-7.830E-06,-0.100
-7.820E-06,-0.140
-7.810E-06,-0.180
-7.800E-06,-0.160
-7.790E-06,-0.160
-7.780E-06,-0.220
-7.770E-06,-0.220
-7.760E-06,-0.260
-7.750E-06,-0.100
-7.740E-06,-0.140
-7.730E-06,-0.040
-7.720E-06,-0.160
-7.710E-06,-0.180
-7.700E-06,-0.220
-7.690E-06,-0.220
-7.680E-06,-0.180
-7.670E-06,-0.120
-7.660E-06,-0.140
-7.650E-06,-0.160
-7.640E-06,-0.200
-7.630E-06,-0.160
-7.620E-06,-0.100
-7.610E-06,-0.060
-7.600E-06,-0.080
-7.590E-06,-0.060
-7.580E-06,-0.060
-7.570E-06,-0.040
-7.560E-06,-0.040
-7.550E-06,0.000
-7.540E-06,0.020
-7.530E-06,0.020
-7.520E-06,0.000
-7.510E-06,0.020
-7.500E-06,0.000
-7.490E-06,0.060
-7.480E-06,0.060
-7.470E-06,0.060
-7.460E-06,0.080
-7.450E-06,0.000
-7.440E-06,0.020
-7.430E-06,0.020
-7.420E-06,0.000
-7.410E-06,0.000
-7.400E-06,0.020
-7.390E-06,-0.020
-7.380E-06,0.000
-7.370E-06,0.000
-7.360E-06,-0.020
-7.350E-06,-0.020
-7.340E-06,-0.020
-7.330E-06,-0.040
-7.320E-06,-0.040
-7.310E-06,-0.140
-7.300E-06,-0.020
-7.290E-06,0.000
-7.280E-06,0.020
-7.270E-06,0.040
-7.260E-06,-0.080
-7.250E-06,-0.180
-7.240E-06,-0.160
-7.230E-06,-0.240
-7.220E-06,-0.120
-7.210E-06,-0.120
-7.200E-06,-0.180
-7.190E-06,-0.180
-7.180E-06,-0.200
-7.170E-06,-0.160
-7.160E-06,-0.120
-7.150E-06,-0.120
-7.140E-06,-0.100
-7.130E-06,-0.120
-7.120E-06,-0.120
-7.110E-06,-0.100
-7.100E-06,-0.080
-7.090E-06,-0.060
-7.080E-06,-0.060
-7.070E-06,-0.020
-7.060E-06,-0.040
-7.050E-06,-0.020
-7.040E-06,-0.040
-7.030E-06,-0.020
-7.020E-06,0.000
-7.010E-06,0.000
-7.000E-06,-0.020
-6.990E-06,0.000
-6.980E-06,-0.020
-6.970E-06,0.000
-6.960E-06,0.000
-6.950E-06,0.000
-6.940E-06,0.000
-6.930E-06,0.000
-6.920E-06,0.000
-6.910E-06,0.000
-6.900E-06,0.000
-6.890E-06,-0.020
-6.880E-06,-0.020
-6.870E-06,-0.020
-6.860E-06,-0.040
-6.850E-06,0.000
-6.840E-06,-0.040
-6.830E-06,-0.060
-6.820E-06,-0.080
-6.810E-06,-0.080
-6.800E-06,-0.120
-6.790E-06,-0.180
-6.780E-06,-0.140
-6.770E-06,-0.140
-6.760E-06,-0.160
-6.750E-06,-0.160
-6.740E-06,-0.180
-6.730E-06,-0.180
-6.720E-06,-0.160
-6.710E-06,-0.140
-6.700E-06,-0.020
-6.690E-06,-0.040
-6.680E-06,0.020
-6.670E-06,-0.100
-6.660E-06,-0.080
-6.650E-06,-0.140
-6.640E-06,-0.060
-6.630E-06,-0.040
-6.620E-06,-0.040
-6.610E-06,-0.040
-6.600E-06,-0.080
-6.590E-06,-0.100
-6.580E-06,-0.100
-6.570E-06,-0.040
-6.560E-06,0.020
-6.550E-06,0.000
-6.540E-06,-0.020
-6.530E-06,-0.060
-6.520E-06,-0.020
-6.510E-06,-0.040
-6.500E-06,-0.040
-6.490E-06,-0.060
-6.480E-06,0.000
-6.470E-06,0.000
-6.460E-06,0.020
-6.450E-06,0.000
-6.440E-06,0.000
-6.430E-06,-0.040
-6.420E-06,-0.080
-6.410E-06,-0.080
-6.400E-06,-0.040
-6.390E-06,-0.100
-6.380E-06,-0.100
-6.370E-06,-0.120
-6.360E-06,-0.120
-6.350E-06,-0.100
-6.340E-06,-0.040
-6.330E-06,-0.020
-6.320E-06,0.020
-6.310E-06,0.020
-6.300E-06,0.020
-6.290E-06,-0.060
-6.280E-06,-0.040
-6.270E-06,0.000
-6.260E-06,-0.040
-6.250E-06,-0.040
-6.240E-06,-0.100
-6.230E-06,-0.100
-6.220E-06,-0.080
-6.210E-06,-0.140
-6.200E-06,-0.060
-6.190E-06,-0.060
-6.180E-06,-0.040
-6.170E-06,-0.040
-6.160E-06,-0.180
-6.150E-06,-0.280
-6.140E-06,-0.300
-6.130E-06,-0.320
-6.120E-06,-0.240
-6.110E-06,-0.220
-6.100E-06,-0.240
-6.090E-06,-0.240
-6.080E-06,-0.280
-6.070E-06,-0.240
-6.060E-06,-0.160
-6.050E-06,-0.160
-6.040E-06,-0.160
-6.030E-06,-0.180
-6.020E-06,-0.140
-6.010E-06,-0.140
-6.000E-06,-0.080
-5.990E-06,-0.060
-5.980E-06,0.000
-5.970E-06,0.000
-5.960E-06,0.000
-5.950E-06,-0.040
-5.940E-06,-0.020
-5.930E-06,0.060
-5.920E-06,0.060
-5.910E-06,0.120
-5.900E-06,0.040
-5.890E-06,0.000
-5.880E-06,0.020
-5.870E-06,0.000
-5.860E-06,0.020
-5.850E-06,0.060
-5.840E-06,0.060
-5.830E-06,0.040
-5.820E-06,-0.020
-5.810E-06,-0.020
-5.800E-06,0.020
-5.790E-06,0.000
-5.780E-06,0.000
-5.770E-06,-0.060
-5.760E-06,-0.100
-5.750E-06,-0.100
-5.740E-06,-0.060
-5.730E-06,0.000
-5.720E-06,-0.020
-5.710E-06,0.000
-5.700E-06,-0.120
-5.690E-06,-0.220
-5.680E-06,-0.240
-5.670E-06,-0.220
-5.660E-06,-0.180
-5.650E-06,-0.160
-5.640E-06,-0.240
-5.630E-06,-0.220
-5.620E-06,-0.220
-5.610E-06,-0.160
-5.600E-06,-0.140
-5.590E-06,-0.120
-5.580E-06,-0.120
-5.570E-06,-0.160
-5.560E-06,-0.140
-5.550E-06,-0.080
-5.540E-06,-0.060
-5.530E-06,-0.020
-5.520E-06,-0.020
-5.510E-06,0.000
-5.500E-06,-0.020
-5.490E-06,0.000
-5.480E-06,0.000
-5.470E-06,0.020
-5.460E-06,-0.020
-5.450E-06,-0.020
-5.440E-06,0.000
-5.430E-06,-0.020
-5.420E-06,0.000
-5.410E-06,-0.020
-5.400E-06,0.020
-5.390E-06,0.020
-5.380E-06,0.000
-5.370E-06,0.000
-5.360E-06,0.000
-5.350E-06,0.000
-5.340E-06,0.000
-5.330E-06,-0.020
-5.320E-06,-0.020
-5.310E-06,-0.040
-5.300E-06,-0.080
-5.290E-06,-0.080
-5.280E-06,-0.080
-5.270E-06,-0.080
-5.260E-06,-0.040
-5.250E-06,-0.060
-5.240E-06,-0.080
-5.230E-06,-0.100
-5.220E-06,-0.120
-5.210E-06,-0.120
-5.200E-06,-0.020
-5.190E-06,-0.020
-5.180E-06,0.040
-5.170E-06,0.000
-5.160E-06,-0.060
-5.150E-06,-0.120
-5.140E-06,-0.140
-5.130E-06,-0.080
-5.120E-06,-0.080
-5.110E-06,-0.100
-5.100E-06,-0.100
-5.090E-06,-0.160
-5.080E-06,-0.120
-5.070E-06,-0.060
-5.060E-06,-0.060
-5.050E-06,-0.040
-5.040E-06,-0.020
-5.030E-06,-0.020
-5.020E-06,-0.040
-5.010E-06,-0.020
-5.000E-06,0.000
-4.990E-06,0.000
-4.980E-06,-0.020
-4.970E-06,0.000
-4.960E-06,0.000
-4.950E-06,0.000
-4.940E-06,0.000
-4.930E-06,0.000
-4.920E-06,-0.020
-4.910E-06,0.000
-4.900E-06,0.000
-4.890E-06,-0.020
-4.880E-06,-0.020
-4.870E-06,-0.020
-4.860E-06,0.000
-4.850E-06,0.000
-4.840E-06,-0.020
-4.830E-06,0.000
-4.820E-06,-0.020
-4.810E-06,-0.020
-4.800E-06,0.000
-4.790E-06,-0.040
-4.780E-06,-0.020
-4.770E-06,-0.040
-4.760E-06,-0.060
-4.750E-06,-0.080
-4.740E-06,-0.080
-4.730E-06,-0.080
-4.720E-06,-0.080
-4.710E-06,-0.080
-4.700E-06,-0.080
-4.690E-06,-0.060
-4.680E-06,-0.080
-4.670E-06,-0.080
-4.660E-06,-0.020
-4.650E-06,-0.020
-4.640E-06,-0.020
-4.630E-06,-0.040
-4.620E-06,-0.120
-4.610E-06,-0.120
-4.600E-06,-0.180
-4.590E-06,-0.140
-4.580E-06,-0.120
-4.570E-06,-0.140
-4.560E-06,-0.140
-4.550E-06,-0.180
-4.540E-06,-0.200
-4.530E-06,-0.040
-4.520E-06,-0.040
-4.510E-06,0.040
-4.500E-06,0.020
-4.490E-06,-0.020
-4.480E-06,-0.060
-4.470E-06,-0.080
-4.460E-06,-0.060
-4.450E-06,0.000
-4.440E-06,-0.040
-4.430E-06,-0.020
-4.420E-06,-0.060
-4.410E-06,-0.080
-4.400E-06,-0.040
-4.390E-06,-0.020
-4.380E-06,-0.020
-4.370E-06,0.000
-4.360E-06,-0.020
-4.350E-06,-0.040
-4.340E-06,-0.020
-4.330E-06,-0.020
-4.320E-06,-0.020
-4.310E-06,0.000
-4.300E-06,0.020
-4.290E-06,-0.020
-4.280E-06,-0.020
-4.270E-06,0.000
-4.260E-06,-0.020
-4.250E-06,0.000
-4.240E-06,0.000
-4.230E-06,-0.020
-4.220E-06,0.000
-4.210E-06,-0.020
-4.200E-06,-0.040
-4.190E-06,-0.020
-4.180E-06,-0.020
-4.170E-06,-0.020
-4.160E-06,-0.060
-4.150E-06,-0.020
-4.140E-06,-0.060
-4.130E-06,-0.080
-4.120E-06,-0.040
-4.110E-06,-0.060
-4.100E-06,-0.080
-4.090E-06,-0.080
-4.080E-06,-0.080
-4.070E-06,-0.040
-4.060E-06,-0.060
-4.050E-06,-0.040
-4.040E-06,0.000
-4.030E-06,0.000
-4.020E-06,0.000
-4.010E-06,-0.020
-4.000E-06,-0.040
-3.990E-06,-0.080
-3.980E-06,-0.100
-3.970E-06,-0.080
-3.960E-06,-0.120
-3.950E-06,-0.100
-3.940E-06,-0.120
-3.930E-06,-0.120
-3.920E-06,-0.100
-3.910E-06,-0.100
-3.900E-06,-0.060
-3.890E-06,-0.120
-3.880E-06,-0.100
-3.870E-06,-0.020
-3.860E-06,0.000
-3.850E-06,0.100
-3.840E-06,0.040
-3.830E-06,0.020
-3.820E-06,-0.060
-3.810E-06,-0.080
-3.800E-06,-0.100
-3.790E-06,-0.040
-3.780E-06,-0.020
-3.770E-06,-0.060
-3.760E-06,-0.120
-3.750E-06,-0.100
-3.740E-06,-0.040
-3.730E-06,-0.020
-3.720E-06,-0.020
-3.710E-06,-0.020
-3.700E-06,-0.020
-3.690E-06,-0.040
-3.680E-06,0.000
-3.670E-06,0.000
-3.660E-06,0.020
-3.650E-06,0.040
-3.640E-06,0.020
-3.630E-06,0.020
-3.620E-06,0.020
-3.610E-06,0.020
-3.600E-06,0.000
-3.590E-06,0.020
-3.580E-06,0.020
-3.570E-06,0.000
-3.560E-06,0.000
-3.550E-06,0.000
-3.540E-06,-0.020
-3.530E-06,0.000
-3.520E-06,-0.020
-3.510E-06,-0.020
-3.500E-06,-0.040
-3.490E-06,0.000
-3.480E-06,0.000
-3.470E-06,0.000
-3.460E-06,0.020
-3.450E-06,0.020
-3.440E-06,-0.040
-3.430E-06,-0.020
-3.420E-06,-0.060
-3.410E-06,-0.060
-3.400E-06,-0.100
-3.390E-06,-0.100
-3.380E-06,-0.020
-3.370E-06,0.000
-3.360E-06,0.080
-3.350E-06,0.040
-3.340E-06,-0.020
-3.330E-06,-0.040
-3.320E-06,-0.180
-3.310E-06,-0.100
-3.300E-06,-0.080
-3.290E-06,-0.080
-3.280E-06,-0.120
-3.270E-06,-0.180
-3.260E-06,-0.160
-3.250E-06,-0.140
-3.240E-06,-0.100
-3.230E-06,-0.060
-3.220E-06,-0.080
-3.210E-06,-0.100
-3.200E-06,-0.080
-3.190E-06,-0.080
-3.180E-06,0.000
-3.170E-06,0.000
-3.160E-06,0.000
-3.150E-06,-0.020
-3.140E-06,-0.020
-3.130E-06,0.020
-3.120E-06,0.020
-3.110E-06,0.040
-3.100E-06,0.040
-3.090E-06,0.040
-3.080E-06,0.020
-3.070E-06,0.040
-3.060E-06,0.060
-3.050E-06,0.040
-3.040E-06,0.020
-3.030E-06,0.060
-3.020E-06,0.080
-3.010E-06,0.040
-3.000E-06,0.020
-2.990E-06,0.040
-2.980E-06,0.080
-2.970E-06,-0.140
-2.960E-06,0.120
-2.950E-06,-0.020
-2.940E-06,0.000
-2.930E-06,0.060
-2.920E-06,0.000
-2.910E-06,0.000
-2.900E-06,-0.040
-2.890E-06,-0.060
-2.880E-06,0.020
-2.870E-06,-0.040
-2.860E-06,-0.020
-2.850E-06,-0.120
-2.840E-06,-0.100
-2.830E-06,-0.080
-2.820E-06,-0.060
-2.810E-06,-0.100
-2.800E-06,-0.060
-2.790E-06,-0.080
-2.780E-06,-0.060
-2.770E-06,-0.080
-2.760E-06,-0.040
-2.750E-06,-0.020
-2.740E-06,0.000
-2.730E-06,-0.020
-2.720E-06,0.000
-2.710E-06,-0.080
-2.700E-06,-0.080
-2.690E-06,-0.080
-2.680E-06,-0.040
-2.670E-06,-0.100
-2.660E-06,-0.080
-2.650E-06,-0.080
-2.640E-06,-0.100
-2.630E-06,-0.080
-2.620E-06,-0.020
-2.610E-06,-0.040
-2.600E-06,0.000
-2.590E-06,-0.020
-2.580E-06,0.000
-2.570E-06,-0.040
-2.560E-06,0.000
-2.550E-06,-0.120
-2.540E-06,-0.140
-2.530E-06,-0.160
-2.520E-06,-0.100
-2.510E-06,-0.080
-2.500E-06,-0.080
-2.490E-06,-0.100
-2.480E-06,-0.040
-2.470E-06,-0.060
-2.460E-06,0.000
-2.450E-06,-0.020
-2.440E-06,-0.060
-2.430E-06,-0.080
-2.420E-06,-0.180
-2.410E-06,-0.200
-2.400E-06,-0.240
-2.390E-06,-0.180
-2.380E-06,-0.160
-2.370E-06,-0.180
-2.360E-06,-0.140
-2.350E-06,-0.180
-2.340E-06,-0.160
-2.330E-06,-0.160
-2.320E-06,-0.140
-2.310E-06,-0.140
-2.300E-06,-0.100
-2.290E-06,-0.140
-2.280E-06,-0.100
-2.270E-06,-0.120
-2.260E-06,-0.080
-2.250E-06,-0.080
-2.240E-06,-0.020
-2.230E-06,-0.040
-2.220E-06,0.000
-2.210E-06,0.020
-2.200E-06,0.040
-2.190E-06,0.040
-2.180E-06,0.020
-2.170E-06,0.000
-2.160E-06,-0.020
-2.150E-06,-0.060
-2.140E-06,-0.080
-2.130E-06,-0.040
-2.120E-06,-0.060
-2.110E-06,-0.060
-2.100E-06,-0.080
-2.090E-06,-0.080
-2.080E-06,-0.080
-2.070E-06,-0.100
-2.060E-06,-0.140
-2.050E-06,-0.140
-2.040E-06,-0.140
-2.030E-06,-0.140
-2.020E-06,-0.160
-2.010E-06,-0.160
-2.000E-06,-0.220
-1.990E-06,-0.240
-1.980E-06,-0.240
-1.970E-06,-0.200
-1.960E-06,-0.260
-1.950E-06,-0.220
-1.940E-06,-0.260
-1.930E-06,-0.380
-1.920E-06,-0.400
-1.910E-06,-0.420
-1.900E-06,-0.420
-1.890E-06,-0.380
-1.880E-06,-0.420
-1.870E-06,-0.480
-1.860E-06,-0.420
-1.850E-06,-0.340
-1.840E-06,-0.240
-1.830E-06,-0.140
-1.820E-06,-0.220
-1.810E-06,-0.180
-1.800E-06,-0.300
-1.790E-06,-0.300
-1.780E-06,-0.300
-1.770E-06,-0.260
-1.760E-06,-0.240
-1.750E-06,-0.220
-1.740E-06,-0.240
-1.730E-06,-0.160
-1.720E-06,-0.140
-1.710E-06,-0.080
-1.700E-06,-0.060
-1.690E-06,-0.020
-1.680E-06,0.020
-1.670E-06,-0.020
-1.660E-06,0.000
-1.650E-06,0.040
-1.640E-06,0.060
-1.630E-06,0.100
-1.620E-06,0.080
-1.610E-06,0.080
-1.600E-06,0.080
-1.590E-06,0.060
-1.580E-06,0.100
-1.570E-06,0.100
-1.560E-06,0.100
-1.550E-06,0.080
-1.540E-06,0.060
-1.530E-06,0.040
-1.520E-06,0.000
-1.510E-06,0.000
-1.500E-06,-0.020
-1.490E-06,-0.020
-1.480E-06,-0.020
-1.470E-06,-0.040
-1.460E-06,-0.060
-1.450E-06,-0.080
-1.440E-06,-0.080
-1.430E-06,-0.060
-1.420E-06,-0.100
-1.410E-06,-0.140
-1.400E-06,-0.140
-1.390E-06,-0.120
-1.380E-06,-0.140
-1.370E-06,-0.120
-1.360E-06,-0.080
-1.350E-06,-0.080
-1.340E-06,-0.040
-1.330E-06,-0.080
-1.320E-06,-0.120
-1.310E-06,-0.100
-1.300E-06,-0.060
-1.290E-06,-0.100
-1.280E-06,-0.060
-1.270E-06,-0.060
-1.260E-06,-0.080
-1.250E-06,-0.100
-1.240E-06,-0.100
-1.230E-06,-0.100
-1.220E-06,-0.060
-1.210E-06,-0.080
-1.200E-06,-0.100
-1.190E-06,-0.080
-1.180E-06,-0.080
-1.170E-06,-0.100
-1.160E-06,-0.080
-1.150E-06,-0.100
-1.140E-06,-0.080
-1.130E-06,-0.100
-1.120E-06,-0.080
-1.110E-06,-0.080
-1.100E-06,-0.060
-1.090E-06,0.000
-1.080E-06,0.020
-1.070E-06,0.000
-1.060E-06,0.000
-1.050E-06,-0.080
-1.040E-06,-0.120
-1.030E-06,-0.060
-1.020E-06,-0.060
-1.010E-06,0.000
-1.000E-06,-0.020
-9.900E-07,-0.040
-9.800E-07,-0.140
-9.700E-07,-0.180
-9.600E-07,-0.180
-9.500E-07,-0.160
-9.400E-07,-0.160
-9.300E-07,-0.160
-9.200E-07,-0.180
-9.100E-07,-0.240
-9.000E-07,-0.180
-8.900E-07,-0.160
-8.800E-07,-0.140
-8.700E-07,-0.100
-8.600E-07,-0.100
-8.500E-07,-0.100
-8.400E-07,-0.120
-8.300E-07,-0.120
-8.200E-07,-0.120
-8.100E-07,-0.140
-8.000E-07,-0.120
-7.900E-07,-0.140
-7.800E-07,-0.140
-7.700E-07,-0.180
-7.600E-07,-0.180
-7.500E-07,-0.180
-7.400E-07,-0.220
-7.300E-07,-0.260
-7.200E-07,-0.240
-7.100E-07,-0.240
-7.000E-07,-0.260
-6.900E-07,-0.260
-6.800E-07,-0.260
-6.700E-07,-0.320
-6.600E-07,-0.320
-6.500E-07,-0.340
-6.400E-07,-0.320
-6.300E-07,-0.340
-6.200E-07,-0.360
-6.100E-07,-0.400
-6.000E-07,-0.440
-5.900E-07,-0.440
-5.800E-07,-0.420
-5.700E-07,-0.480
-5.600E-07,-0.500
-5.500E-07,-0.520
-5.400E-07,-0.500
-5.300E-07,-0.460
-5.200E-07,-0.460
-5.100E-07,-0.440
-5.000E-07,-0.500
-4.900E-07,-0.500
-4.800E-07,-0.580
-4.700E-07,-0.580
-4.600E-07,-0.600
-4.500E-07,-0.620
-4.400E-07,-0.600
-4.300E-07,-0.640
-4.200E-07,-0.660
-4.100E-07,-0.660
-4.000E-07,-0.660
-3.900E-07,-0.700
-3.800E-07,-0.740
-3.700E-07,-0.800
-3.600E-07,-0.820
-3.500E-07,-0.820
-3.400E-07,-0.840
-3.300E-07,-0.880
-3.200E-07,-0.920
-3.100E-07,-1.000
-3.000E-07,-1.040
-2.900E-07,-1.080
-2.800E-07,-1.100
-2.700E-07,-1.160
-2.600E-07,-1.080
-2.500E-07,-1.120
-2.400E-07,-1.140
-2.300E-07,-1.180
-2.200E-07,-1.180
-2.100E-07,-1.240
-2.000E-07,-1.280
-1.900E-07,-1.280
-1.800E-07,-1.260
-1.700E-07,-1.280
-1.600E-07,-1.260
-1.500E-07,-1.220
-1.400E-07,-1.220
-1.300E-07,-1.220
-1.200E-07,-1.240
-1.100E-07,-1.320
-1.000E-07,-1.340
-9.000E-08,-1.480
-8.000E-08,-1.560
-7.000E-08,-1.600
-6.000E-08,-1.480
-5.000E-08,-1.020
-4.000E-08,-0.320
-3.000E-08,-0.060
-2.000E-08,0.340
-1.000E-08,-0.160
0.000E+00,-0.400
1.000E-08,-0.960
2.000E-08,-1.020
3.000E-08,-1.040
4.000E-08,-1.100
5.000E-08,-1.240
6.000E-08,-1.480
7.000E-08,-1.520
8.000E-08,-1.380
9.000E-08,-1.180
1.000E-07,-1.060
1.100E-07,-1.100
1.200E-07,-1.180
1.300E-07,-1.220
1.400E-07,-1.180
1.500E-07,-1.160
1.600E-07,-1.100
1.700E-07,-1.080
1.800E-07,-1.000
1.900E-07,-0.900
2.000E-07,-0.840
2.100E-07,-0.700
2.200E-07,-0.620
2.300E-07,-0.500
2.400E-07,-0.440
2.500E-07,-0.420
2.600E-07,-0.440
2.700E-07,-0.460
2.800E-07,-0.480
2.900E-07,-0.480
3.000E-07,-0.500
3.100E-07,-0.460
3.200E-07,-0.400
3.300E-07,-0.360
3.400E-07,-0.340
3.500E-07,-0.300
3.600E-07,-0.300
3.700E-07,-0.420
3.800E-07,-0.440
3.900E-07,-0.540
4.000E-07,-0.620
4.100E-07,-0.680
4.200E-07,-0.700
4.300E-07,-0.740
4.400E-07,-0.720
4.500E-07,-0.780
4.600E-07,-0.840
4.700E-07,-0.920
4.800E-07,-0.960
4.900E-07,-1.040
5.000E-07,-1.060
5.100E-07,-1.100
5.200E-07,-1.160
5.300E-07,-1.180
5.400E-07,-1.240
5.500E-07,-1.340
5.600E-07,-1.420
5.700E-07,-1.540
5.800E-07,-1.860
5.900E-07,-2.000
6.000E-07,-2.100
6.100E-07,-2.280
6.200E-07,-2.400
6.300E-07,-2.500
6.400E-07,-2.560
6.500E-07,-2.620
6.600E-07,-2.660
6.700E-07,-2.660
6.800E-07,-2.660
6.900E-07,-2.660
7.000E-07,-2.660
7.100E-07,-2.660
7.200E-07,-2.640
7.300E-07,-2.640
7.400E-07,-2.640
7.500E-07,-2.640
7.600E-07,-2.660
7.700E-07,-2.660
7.800E-07,-2.660
7.900E-07,-2.660
8.000E-07,-2.680
8.100E-07,-2.660
8.200E-07,-2.660
8.300E-07,-2.660
8.400E-07,-2.660
8.500E-07,-2.660
8.600E-07,-2.660
8.700E-07,-2.660
8.800E-07,-2.660
8.900E-07,-2.660
9.000E-07,-2.640
9.100E-07,-2.640
9.200E-07,-2.660
9.300E-07,-2.660
9.400E-07,-2.340
9.500E-07,-2.660
9.600E-07,-2.480
9.700E-07,-2.680
9.800E-07,-2.660
9.900E-07,-2.660
1.000E-06,-2.660
1.010E-06,-2.660
1.020E-06,-2.660
1.030E-06,-2.640
1.040E-06,-2.640
1.050E-06,-2.640
1.060E-06,-2.640
1.070E-06,-2.640
1.080E-06,-2.640
1.090E-06,-2.640
1.100E-06,-2.660
1.110E-06,-2.660
1.120E-06,-2.680
1.130E-06,-2.660
1.140E-06,-2.660
1.150E-06,-2.580
1.160E-06,-2.340
1.170E-06,-2.060
1.180E-06,-1.840
1.190E-06,-1.740
1.200E-06,-1.520
1.210E-06,-1.360
1.220E-06,-1.200
1.230E-06,-1.040
1.240E-06,-0.940
1.250E-06,-0.820
1.260E-06,-0.680
1.270E-06,-0.560
1.280E-06,-0.440
1.290E-06,-0.320
1.300E-06,-0.220
1.310E-06,-0.120
1.320E-06,-0.080
1.330E-06,-0.140
1.340E-06,-0.180
1.350E-06,-0.300
1.360E-06,-0.400
1.370E-06,-0.520
1.380E-06,-0.600
1.390E-06,-0.660
1.400E-06,-0.640
1.410E-06,-0.660
1.420E-06,-0.700
1.430E-06,-0.780
1.440E-06,-0.840
1.450E-06,-0.920
1.460E-06,-1.000
1.470E-06,-1.020
1.480E-06,-1.040
1.490E-06,-1.080
1.500E-06,-1.120
1.510E-06,-1.180
1.520E-06,-1.160
1.530E-06,-1.280
1.540E-06,-1.360
1.550E-06,-1.460
1.560E-06,-1.580
1.570E-06,-1.720
1.580E-06,-1.920
1.590E-06,-2.200
1.600E-06,-2.360
1.610E-06,-2.540
1.620E-06,-2.660
1.630E-06,-2.680
1.640E-06,-2.660
1.650E-06,-2.660
1.660E-06,-2.620
1.670E-06,-2.680
1.680E-06,-1.280
1.690E-06,-0.700
1.700E-06,0.820
1.710E-06,0.740
1.720E-06,0.800
1.730E-06,-0.660
1.740E-06,-1.240
1.750E-06,-2.280
1.760E-06,-2.540
1.770E-06,-2.680
1.780E-06,-2.680
1.790E-06,-2.680
1.800E-06,-2.680
1.810E-06,-2.600
1.820E-06,-1.440
1.830E-06,-0.360
1.840E-06,-0.380
1.850E-06,-0.960
1.860E-06,-1.620
1.870E-06,-2.240
1.880E-06,-2.360
1.890E-06,-2.660
1.900E-06,-2.680
1.910E-06,-2.660
1.920E-06,-2.660
1.930E-06,-2.640
1.940E-06,-2.660
1.950E-06,-2.660
1.960E-06,-2.340
1.970E-06,-2.020
1.980E-06,-1.720
1.990E-06,-1.480
2.000E-06,-1.220
2.010E-06,-1.180
2.020E-06,-1.200
2.030E-06,-1.140
2.040E-06,-1.040
2.050E-06,-0.860
2.060E-06,-0.740
2.070E-06,-0.680
2.080E-06,-0.580
2.090E-06,-0.500
2.100E-06,-0.480
2.110E-06,-0.440
2.120E-06,-0.420
2.130E-06,-0.380
2.140E-06,-0.340
2.150E-06,-0.260
2.160E-06,-0.160
2.170E-06,-0.040
2.180E-06,0.080
2.190E-06,0.160
2.200E-06,0.240
2.210E-06,0.240
2.220E-06,0.180
2.230E-06,-0.020
2.240E-06,-0.180
2.250E-06,-0.420
2.260E-06,-0.580
2.270E-06,-0.680
2.280E-06,-0.660
2.290E-06,-0.660
2.300E-06,-0.600
2.310E-06,-0.440
2.320E-06,-0.340
2.330E-06,-0.060
2.340E-06,0.020
2.350E-06,0.200
2.360E-06,0.200
2.370E-06,0.360
2.380E-06,0.260
2.390E-06,0.360
2.400E-06,0.080
2.410E-06,-0.080
2.420E-06,-0.360
2.430E-06,-0.480
2.440E-06,-0.680
2.450E-06,-0.800
2.460E-06,-0.940
2.470E-06,-1.000
2.480E-06,-1.220
2.490E-06,-1.380
2.500E-06,-1.720
2.510E-06,-2.240
2.520E-06,-2.640
2.530E-06,-2.640
2.540E-06,-2.660
2.550E-06,-2.660
2.560E-06,-2.660
2.570E-06,-2.660
2.580E-06,-2.680
2.590E-06,-2.660
2.600E-06,-2.660
2.610E-06,-2.660
2.620E-06,-2.260
2.630E-06,-1.140
2.640E-06,-0.760
2.650E-06,-0.520
2.660E-06,-0.740
2.670E-06,-1.380
2.680E-06,-1.440
2.690E-06,-2.040
2.700E-06,-2.240
2.710E-06,-2.660
2.720E-06,-2.660
2.730E-06,-2.660
2.740E-06,-2.660
2.750E-06,-2.660
2.760E-06,-2.460
2.770E-06,-2.380
2.780E-06,-2.160
2.790E-06,-2.400
2.800E-06,-2.440
2.810E-06,-2.660
2.820E-06,-2.660
2.830E-06,-2.660
2.840E-06,-2.640
2.850E-06,-2.620
2.860E-06,-2.200
2.870E-06,-1.760
2.880E-06,-1.600
2.890E-06,-1.220
2.900E-06,-1.260
2.910E-06,-1.180
2.920E-06,-1.360
2.930E-06,-1.640
2.940E-06,-2.280
2.950E-06,-2.680
