mediciones/5-15/3/WaveData47197.csv

#timebase=2000000(ps)
,#voltbase=100000(mv/100)
#size=4000
-8.400E-06,0.020
-8.390E-06,0.000
-8.380E-06,-0.016
-8.370E-06,-0.016
-8.360E-06,-0.008
-8.350E-06,0.008
-8.340E-06,0.016
-8.330E-06,0.028
-8.320E-06,0.000
-8.310E-06,-0.024
-8.300E-06,-0.016
-8.290E-06,-0.004
-8.280E-06,0.004
-8.270E-06,0.020
-8.260E-06,0.028
-8.250E-06,0.004
-8.240E-06,0.000
-8.230E-06,-0.008
-8.220E-06,-0.004
-8.210E-06,0.004
-8.200E-06,0.016
-8.190E-06,0.012
-8.180E-06,0.008
-8.170E-06,0.000
-8.160E-06,-0.004
-8.150E-06,0.004
-8.140E-06,-0.012
-8.130E-06,-0.004
-8.120E-06,-0.020
-8.110E-06,-0.024
-8.100E-06,0.012
-8.090E-06,0.028
-8.080E-06,0.032
-8.070E-06,0.020
-8.060E-06,-0.008
-8.050E-06,-0.028
-8.040E-06,-0.012
-8.030E-06,0.012
-8.020E-06,0.028
-8.010E-06,0.028
-8.000E-06,0.016
-7.990E-06,-0.004
-7.980E-06,-0.024
-7.970E-06,-0.020
-7.960E-06,-0.008
-7.950E-06,0.016
-7.940E-06,0.024
-7.930E-06,0.020
-7.920E-06,0.000
-7.910E-06,-0.004
-7.900E-06,-0.004
-7.890E-06,-0.004
-7.880E-06,0.004
-7.870E-06,0.004
-7.860E-06,0.004
-7.850E-06,0.008
-7.840E-06,0.012
-7.830E-06,0.012
-7.820E-06,0.004
-7.810E-06,-0.012
-7.800E-06,-0.016
-7.790E-06,-0.004
-7.780E-06,0.012
-7.770E-06,0.028
-7.760E-06,0.024
-7.750E-06,0.008
-7.740E-06,-0.012
-7.730E-06,-0.016
-7.720E-06,0.000
-7.710E-06,0.004
-7.700E-06,0.016
-7.690E-06,0.012
-7.680E-06,0.004
-7.670E-06,-0.004
-7.660E-06,-0.004
-7.650E-06,0.004
-7.640E-06,0.016
-7.630E-06,0.016
-7.620E-06,0.012
-7.610E-06,0.004
-7.600E-06,0.000
-7.590E-06,-0.004
-7.580E-06,0.004
-7.570E-06,0.008
-7.560E-06,0.012
-7.550E-06,0.008
-7.540E-06,0.000
-7.530E-06,0.000
-7.520E-06,-0.004
-7.510E-06,0.000
-7.500E-06,0.000
-7.490E-06,0.000
-7.480E-06,0.004
-7.470E-06,0.004
-7.460E-06,0.004
-7.450E-06,0.008
-7.440E-06,-0.004
-7.430E-06,-0.008
-7.420E-06,-0.012
-7.410E-06,0.000
-7.400E-06,0.008
-7.390E-06,0.012
-7.380E-06,0.012
-7.370E-06,0.012
-7.360E-06,0.008
-7.350E-06,-0.008
-7.340E-06,-0.004
-7.330E-06,0.000
-7.320E-06,0.008
-7.310E-06,0.012
-7.300E-06,0.016
-7.290E-06,0.008
-7.280E-06,-0.004
-7.270E-06,-0.004
-7.260E-06,-0.008
-7.250E-06,0.004
-7.240E-06,0.004
-7.230E-06,0.004
-7.220E-06,0.008
-7.210E-06,0.008
-7.200E-06,0.004
-7.190E-06,-0.004
-7.180E-06,0.000
-7.170E-06,0.004
-7.160E-06,0.000
-7.150E-06,0.008
-7.140E-06,0.016
-7.130E-06,0.004
-7.120E-06,0.008
-7.110E-06,0.008
-7.100E-06,-0.004
-7.090E-06,-0.012
-7.080E-06,-0.008
-7.070E-06,-0.004
-7.060E-06,0.008
-7.050E-06,0.016
-7.040E-06,0.008
-7.030E-06,0.004
-7.020E-06,0.000
-7.010E-06,-0.004
-7.000E-06,0.004
-6.990E-06,0.012
-6.980E-06,0.012
-6.970E-06,0.008
-6.960E-06,0.004
-6.950E-06,-0.004
-6.940E-06,0.000
-6.930E-06,0.004
-6.920E-06,0.004
-6.910E-06,0.000
-6.900E-06,-0.004
-6.890E-06,-0.004
-6.880E-06,0.004
-6.870E-06,0.004
-6.860E-06,0.008
-6.850E-06,0.004
-6.840E-06,-0.004
-6.830E-06,-0.008
-6.820E-06,0.004
-6.810E-06,0.004
-6.800E-06,0.012
-6.790E-06,0.008
-6.780E-06,0.012
-6.770E-06,-0.004
-6.760E-06,0.016
-6.750E-06,0.004
-6.740E-06,-0.020
-6.730E-06,-0.008
-6.720E-06,0.004
-6.710E-06,0.000
-6.700E-06,0.004
-6.690E-06,0.036
-6.680E-06,0.028
-6.670E-06,-0.016
-6.660E-06,-0.036
-6.650E-06,-0.004
-6.640E-06,0.016
-6.630E-06,0.024
-6.620E-06,0.020
-6.610E-06,0.020
-6.600E-06,-0.008
-6.590E-06,-0.012
-6.580E-06,-0.008
-6.570E-06,-0.008
-6.560E-06,0.012
-6.550E-06,0.024
-6.540E-06,0.012
-6.530E-06,0.004
-6.520E-06,0.000
-6.510E-06,-0.012
-6.500E-06,-0.012
-6.490E-06,0.012
-6.480E-06,0.012
-6.470E-06,0.008
-6.460E-06,0.008
-6.450E-06,0.008
-6.440E-06,-0.004
-6.430E-06,-0.004
-6.420E-06,0.004
-6.410E-06,-0.024
-6.400E-06,0.016
-6.390E-06,-0.004
-6.380E-06,0.024
-6.370E-06,0.000
-6.360E-06,0.004
-6.350E-06,-0.004
-6.340E-06,0.020
-6.330E-06,0.028
-6.320E-06,-0.012
-6.310E-06,-0.008
-6.300E-06,0.024
-6.290E-06,0.028
-6.280E-06,0.004
-6.270E-06,0.024
-6.260E-06,0.008
-6.250E-06,-0.008
-6.240E-06,-0.036
-6.230E-06,-0.028
-6.220E-06,-0.008
-6.210E-06,0.008
-6.200E-06,0.044
-6.190E-06,0.036
-6.180E-06,0.020
-6.170E-06,-0.004
-6.160E-06,-0.008
-6.150E-06,-0.008
-6.140E-06,-0.004
-6.130E-06,-0.008
-6.120E-06,0.004
-6.110E-06,0.004
-6.100E-06,0.008
-6.090E-06,0.012
-6.080E-06,0.008
-6.070E-06,0.004
-6.060E-06,0.000
-6.050E-06,-0.004
-6.040E-06,-0.008
-6.030E-06,0.008
-6.020E-06,0.012
-6.010E-06,0.024
-6.000E-06,0.012
-5.990E-06,0.004
-5.980E-06,-0.004
-5.970E-06,0.000
-5.960E-06,0.008
-5.950E-06,0.012
-5.940E-06,0.024
-5.930E-06,0.016
-5.920E-06,0.008
-5.910E-06,0.004
-5.900E-06,-0.004
-5.890E-06,-0.004
-5.880E-06,0.000
-5.870E-06,0.012
-5.860E-06,0.024
-5.850E-06,0.016
-5.840E-06,0.012
-5.830E-06,0.020
-5.820E-06,0.024
-5.810E-06,0.008
-5.800E-06,-0.004
-5.790E-06,-0.020
-5.780E-06,-0.020
-5.770E-06,-0.004
-5.760E-06,0.028
-5.750E-06,0.044
-5.740E-06,0.040
-5.730E-06,0.024
-5.720E-06,-0.004
-5.710E-06,-0.036
-5.700E-06,-0.040
-5.690E-06,-0.012
-5.680E-06,0.032
-5.670E-06,0.064
-5.660E-06,0.072
-5.650E-06,0.048
-5.640E-06,0.000
-5.630E-06,-0.036
-5.620E-06,-0.040
-5.610E-06,-0.008
-5.600E-06,0.032
-5.590E-06,0.068
-5.580E-06,0.076
-5.570E-06,0.040
-5.560E-06,0.000
-5.550E-06,-0.024
-5.540E-06,-0.032
-5.530E-06,-0.032
-5.520E-06,-0.016
-5.510E-06,-0.016
-5.500E-06,0.000
-5.490E-06,0.008
-5.480E-06,0.008
-5.470E-06,-0.004
-5.460E-06,-0.024
-5.450E-06,-0.032
-5.440E-06,-0.024
-5.430E-06,0.008
-5.420E-06,0.032
-5.410E-06,0.040
-5.400E-06,0.012
-5.390E-06,-0.012
-5.380E-06,-0.036
-5.370E-06,-0.024
-5.360E-06,0.000
-5.350E-06,0.020
-5.340E-06,0.028
-5.330E-06,0.024
-5.320E-06,-0.004
-5.310E-06,-0.024
-5.300E-06,-0.024
-5.290E-06,-0.008
-5.280E-06,0.012
-5.270E-06,0.028
-5.260E-06,0.040
-5.250E-06,0.028
-5.240E-06,0.000
-5.230E-06,-0.008
-5.220E-06,-0.008
-5.210E-06,0.016
-5.200E-06,0.036
-5.190E-06,0.056
-5.180E-06,0.032
-5.170E-06,-0.004
-5.160E-06,-0.016
-5.150E-06,-0.024
-5.140E-06,-0.008
-5.130E-06,0.024
-5.120E-06,0.044
-5.110E-06,0.044
-5.100E-06,0.036
-5.090E-06,0.024
-5.080E-06,0.012
-5.070E-06,0.012
-5.060E-06,0.000
-5.050E-06,-0.004
-5.040E-06,0.000
-5.030E-06,-0.004
-5.020E-06,0.020
-5.010E-06,-0.024
-5.000E-06,-0.052
-4.990E-06,-0.096
-4.980E-06,-0.072
-4.970E-06,-0.016
-4.960E-06,0.056
-4.950E-06,0.088
-4.940E-06,0.064
-4.930E-06,0.020
-4.920E-06,-0.064
-4.910E-06,-0.100
-4.900E-06,-0.076
-4.890E-06,0.004
-4.880E-06,0.064
-4.870E-06,0.096
-4.860E-06,0.056
-4.850E-06,-0.004
-4.840E-06,-0.060
-4.830E-06,-0.076
-4.820E-06,-0.036
-4.810E-06,0.016
-4.800E-06,0.072
-4.790E-06,0.072
-4.780E-06,0.044
-4.770E-06,0.000
-4.760E-06,-0.024
-4.750E-06,-0.032
-4.740E-06,-0.016
-4.730E-06,0.012
-4.720E-06,0.048
-4.710E-06,0.064
-4.700E-06,0.044
-4.690E-06,0.020
-4.680E-06,-0.024
-4.670E-06,-0.060
-4.660E-06,-0.068
-4.650E-06,-0.044
-4.640E-06,0.008
-4.630E-06,0.052
-4.620E-06,0.080
-4.610E-06,0.060
-4.600E-06,0.000
-4.590E-06,-0.056
-4.580E-06,-0.076
-4.570E-06,-0.044
-4.560E-06,0.032
-4.550E-06,0.104
-4.540E-06,0.116
-4.530E-06,0.056
-4.520E-06,-0.012
-4.510E-06,-0.060
-4.500E-06,-0.060
-4.490E-06,-0.020
-4.480E-06,0.068
-4.470E-06,0.080
-4.460E-06,0.024
-4.450E-06,-0.048
-4.440E-06,-0.084
-4.430E-06,-0.080
-4.420E-06,-0.048
-4.410E-06,-0.008
-4.400E-06,0.024
-4.390E-06,0.064
-4.380E-06,0.060
-4.370E-06,0.020
-4.360E-06,-0.036
-4.350E-06,-0.072
-4.340E-06,-0.072
-4.330E-06,-0.028
-4.320E-06,0.036
-4.310E-06,0.068
-4.300E-06,0.064
-4.290E-06,0.024
-4.280E-06,-0.024
-4.270E-06,-0.064
-4.260E-06,-0.060
-4.250E-06,-0.016
-4.240E-06,0.044
-4.230E-06,0.072
-4.220E-06,0.080
-4.210E-06,0.036
-4.200E-06,-0.008
-4.190E-06,-0.036
-4.180E-06,-0.032
-4.170E-06,0.000
-4.160E-06,0.036
-4.150E-06,0.072
-4.140E-06,0.064
-4.130E-06,0.024
-4.120E-06,-0.008
-4.110E-06,-0.028
-4.100E-06,-0.012
-4.090E-06,-0.008
-4.080E-06,-0.008
-4.070E-06,-0.088
-4.060E-06,-0.064
-4.050E-06,-0.008
-4.040E-06,0.036
-4.030E-06,0.056
-4.020E-06,0.044
-4.010E-06,0.004
-4.000E-06,-0.040
-3.990E-06,-0.036
-3.980E-06,-0.020
-3.970E-06,0.040
-3.960E-06,0.056
-3.950E-06,0.040
-3.940E-06,-0.004
-3.930E-06,-0.020
-3.920E-06,-0.028
-3.910E-06,0.000
-3.900E-06,0.036
-3.890E-06,0.056
-3.880E-06,0.060
-3.870E-06,0.048
-3.860E-06,0.016
-3.850E-06,-0.020
-3.840E-06,-0.044
-3.830E-06,-0.068
-3.820E-06,-0.036
-3.810E-06,0.008
-3.800E-06,0.048
-3.790E-06,0.044
-3.780E-06,0.020
-3.770E-06,-0.008
-3.760E-06,-0.040
-3.750E-06,-0.044
-3.740E-06,-0.028
-3.730E-06,-0.004
-3.720E-06,0.012
-3.710E-06,0.020
-3.700E-06,0.008
-3.690E-06,0.000
-3.680E-06,-0.016
-3.670E-06,-0.032
-3.660E-06,-0.028
-3.650E-06,-0.008
-3.640E-06,0.020
-3.630E-06,0.032
-3.620E-06,0.028
-3.610E-06,0.008
-3.600E-06,-0.012
-3.590E-06,-0.020
-3.580E-06,-0.020
-3.570E-06,0.008
-3.560E-06,0.032
-3.550E-06,0.032
-3.540E-06,0.024
-3.530E-06,0.012
-3.520E-06,-0.004
-3.510E-06,-0.008
-3.500E-06,-0.004
-3.490E-06,0.012
-3.480E-06,0.024
-3.470E-06,0.032
-3.460E-06,0.028
-3.450E-06,0.024
-3.440E-06,0.016
-3.430E-06,0.008
-3.420E-06,0.016
-3.410E-06,0.028
-3.400E-06,0.052
-3.390E-06,0.060
-3.380E-06,0.056
-3.370E-06,0.044
-3.360E-06,0.020
-3.350E-06,-0.004
-3.340E-06,-0.024
-3.330E-06,-0.024
-3.320E-06,-0.024
-3.310E-06,0.000
-3.300E-06,0.000
-3.290E-06,0.000
-3.280E-06,-0.008
-3.270E-06,-0.020
-3.260E-06,-0.008
-3.250E-06,0.008
-3.240E-06,0.024
-3.230E-06,0.008
-3.220E-06,0.008
-3.210E-06,-0.012
-3.200E-06,-0.036
-3.190E-06,-0.028
-3.180E-06,-0.004
-3.170E-06,0.008
-3.160E-06,0.000
-3.150E-06,-0.016
-3.140E-06,-0.036
-3.130E-06,-0.020
-3.120E-06,0.000
-3.110E-06,0.024
-3.100E-06,0.032
-3.090E-06,0.020
-3.080E-06,-0.004
-3.070E-06,-0.016
-3.060E-06,-0.028
-3.050E-06,-0.016
-3.040E-06,0.008
-3.030E-06,0.024
-3.020E-06,0.028
-3.010E-06,0.024
-3.000E-06,0.012
-2.990E-06,0.000
-2.980E-06,-0.004
-2.970E-06,-0.004
-2.960E-06,0.004
-2.950E-06,0.016
-2.940E-06,0.036
-2.930E-06,0.032
-2.920E-06,0.020
-2.910E-06,0.012
-2.900E-06,-0.004
-2.890E-06,-0.008
-2.880E-06,-0.004
-2.870E-06,0.008
-2.860E-06,0.020
-2.850E-06,0.032
-2.840E-06,0.024
-2.830E-06,0.012
-2.820E-06,0.008
-2.810E-06,0.012
-2.800E-06,0.028
-2.790E-06,0.060
-2.780E-06,0.088
-2.770E-06,0.104
-2.760E-06,0.104
-2.750E-06,0.068
-2.740E-06,-0.008
-2.730E-06,-0.080
-2.720E-06,-0.152
-2.710E-06,-0.156
-2.700E-06,-0.108
-2.690E-06,-0.004
-2.680E-06,0.088
-2.670E-06,0.100
-2.660E-06,0.048
-2.650E-06,-0.048
-2.640E-06,-0.116
-2.630E-06,-0.128
-2.620E-06,-0.060
-2.610E-06,0.024
-2.600E-06,0.092
-2.590E-06,0.104
-2.580E-06,0.040
-2.570E-06,-0.024
-2.560E-06,-0.088
-2.550E-06,-0.084
-2.540E-06,-0.044
-2.530E-06,0.020
-2.520E-06,0.068
-2.510E-06,0.072
-2.500E-06,0.044
-2.490E-06,-0.004
-2.480E-06,-0.044
-2.470E-06,-0.044
-2.460E-06,-0.024
-2.450E-06,0.020
-2.440E-06,0.056
-2.430E-06,0.072
-2.420E-06,0.052
-2.410E-06,0.012
-2.400E-06,-0.028
-2.390E-06,-0.040
-2.380E-06,-0.016
-2.370E-06,0.020
-2.360E-06,0.052
-2.350E-06,0.060
-2.340E-06,0.040
-2.330E-06,0.012
-2.320E-06,-0.020
-2.310E-06,-0.024
-2.300E-06,0.000
-2.290E-06,0.020
-2.280E-06,0.044
-2.270E-06,0.052
-2.260E-06,0.044
-2.250E-06,0.032
-2.240E-06,0.032
-2.230E-06,0.028
-2.220E-06,0.040
-2.210E-06,0.056
-2.200E-06,0.064
-2.190E-06,0.076
-2.180E-06,0.068
-2.170E-06,0.060
-2.160E-06,0.036
-2.150E-06,0.020
-2.140E-06,0.020
-2.130E-06,0.016
-2.120E-06,0.020
-2.110E-06,0.024
-2.100E-06,0.016
-2.090E-06,0.020
-2.080E-06,0.016
-2.070E-06,0.016
-2.060E-06,0.012
-2.050E-06,0.008
-2.040E-06,0.000
-2.030E-06,0.004
-2.020E-06,0.008
-2.010E-06,0.016
-2.000E-06,0.028
-1.990E-06,0.032
-1.980E-06,0.036
-1.970E-06,0.024
-1.960E-06,0.012
-1.950E-06,-0.036
-1.940E-06,-0.140
-1.930E-06,-0.256
-1.920E-06,-0.328
-1.910E-06,-0.188
-1.900E-06,0.004
-1.890E-06,0.204
-1.880E-06,0.320
-1.870E-06,0.176
-1.860E-06,-0.052
-1.850E-06,-0.164
-1.840E-06,-0.212
-1.830E-06,-0.076
-1.820E-06,0.156
-1.810E-06,0.204
-1.800E-06,0.068
-1.790E-06,-0.060
-1.780E-06,-0.152
-1.770E-06,-0.172
-1.760E-06,-0.100
-1.750E-06,0.008
-1.740E-06,0.128
-1.730E-06,0.172
-1.720E-06,0.108
-1.710E-06,-0.036
-1.700E-06,-0.164
-1.690E-06,-0.212
-1.680E-06,-0.132
-1.670E-06,0.024
-1.660E-06,0.172
-1.650E-06,0.204
-1.640E-06,0.124
-1.630E-06,-0.040
-1.620E-06,-0.168
-1.610E-06,-0.196
-1.600E-06,-0.112
-1.590E-06,0.036
-1.580E-06,0.156
-1.570E-06,0.192
-1.560E-06,0.128
-1.550E-06,0.004
-1.540E-06,-0.108
-1.530E-06,-0.156
-1.520E-06,-0.088
-1.510E-06,0.032
-1.500E-06,0.144
-1.490E-06,0.184
-1.480E-06,0.124
-1.470E-06,0.016
-1.460E-06,-0.080
-1.450E-06,-0.120
-1.440E-06,-0.064
-1.430E-06,0.028
-1.420E-06,0.132
-1.410E-06,0.164
-1.400E-06,0.128
-1.390E-06,0.032
-1.380E-06,-0.048
-1.370E-06,-0.064
-1.360E-06,-0.020
-1.350E-06,0.056
-1.340E-06,0.132
-1.330E-06,0.164
-1.320E-06,0.152
-1.310E-06,0.088
-1.300E-06,-0.020
-1.290E-06,-0.060
-1.280E-06,-0.016
-1.270E-06,0.060
-1.260E-06,0.132
-1.250E-06,0.156
-1.240E-06,0.112
-1.230E-06,0.016
-1.220E-06,-0.048
-1.210E-06,-0.060
-1.200E-06,-0.004
-1.190E-06,0.068
-1.180E-06,0.132
-1.170E-06,0.124
-1.160E-06,0.108
-1.150E-06,0.080
-1.140E-06,0.064
-1.130E-06,0.048
-1.120E-06,0.044
-1.110E-06,0.040
-1.100E-06,0.104
-1.090E-06,0.124
-1.080E-06,0.140
-1.070E-06,0.112
-1.060E-06,0.000
-1.050E-06,-0.216
-1.040E-06,-0.404
-1.030E-06,-0.404
-1.020E-06,-0.296
-1.010E-06,-0.052
-1.000E-06,0.204
-9.900E-07,0.312
-9.800E-07,0.236
-9.700E-07,0.104
-9.600E-07,-0.040
-9.500E-07,-0.084
-9.400E-07,0.008
-9.300E-07,0.148
-9.200E-07,0.208
-9.100E-07,0.144
-9.000E-07,-0.124
-8.900E-07,-0.336
-8.800E-07,-0.512
-8.700E-07,-0.512
-8.600E-07,-0.332
-8.500E-07,0.016
-8.400E-07,0.284
-8.300E-07,0.300
-8.200E-07,0.164
-8.100E-07,-0.136
-8.000E-07,-0.316
-7.900E-07,-0.292
-7.800E-07,-0.064
-7.700E-07,0.224
-7.600E-07,0.316
-7.500E-07,0.212
-7.400E-07,-0.028
-7.300E-07,-0.184
-7.200E-07,-0.268
-7.100E-07,-0.156
-7.000E-07,-0.032
-6.900E-07,0.124
-6.800E-07,0.164
-6.700E-07,0.160
-6.600E-07,0.072
-6.500E-07,-0.052
-6.400E-07,-0.140
-6.300E-07,-0.160
-6.200E-07,-0.068
-6.100E-07,0.064
-6.000E-07,0.192
-5.900E-07,0.216
-5.800E-07,0.108
-5.700E-07,-0.068
-5.600E-07,-0.136
-5.500E-07,-0.160
-5.400E-07,-0.068
-5.300E-07,0.072
-5.200E-07,0.128
-5.100E-07,0.136
-5.000E-07,0.092
-4.900E-07,0.056
-4.800E-07,-0.008
-4.700E-07,-0.032
-4.600E-07,0.004
-4.500E-07,0.068
-4.400E-07,0.136
-4.300E-07,0.184
-4.200E-07,0.164
-4.100E-07,0.080
-4.000E-07,-0.024
-3.900E-07,-0.100
-3.800E-07,-0.112
-3.700E-07,-0.128
-3.600E-07,-0.064
-3.500E-07,0.016
-3.400E-07,0.120
-3.300E-07,0.132
-3.200E-07,0.100
-3.100E-07,0.008
-3.000E-07,-0.060
-2.900E-07,-0.024
-2.800E-07,0.056
-2.700E-07,0.156
-2.600E-07,0.200
-2.500E-07,0.224
-2.400E-07,0.192
-2.300E-07,0.156
-2.200E-07,0.108
-2.100E-07,0.120
-2.000E-07,0.144
-1.900E-07,0.216
-1.800E-07,0.288
-1.700E-07,0.300
-1.600E-07,0.260
-1.500E-07,0.168
-1.400E-07,0.100
-1.300E-07,0.060
-1.200E-07,0.076
-1.100E-07,0.112
-1.000E-07,0.200
-9.000E-08,0.268
-8.000E-08,0.296
-7.000E-08,0.176
-6.000E-08,-0.204
-5.000E-08,-0.512
-4.000E-08,-0.512
-3.000E-08,-0.512
-2.000E-08,-0.512
-1.000E-08,-0.036
0.000E+00,0.540
1.000E-08,0.540
2.000E-08,0.540
3.000E-08,-0.352
4.000E-08,-0.512
5.000E-08,-0.512
6.000E-08,-0.304
7.000E-08,0.544
8.000E-08,0.544
9.000E-08,0.544
1.000E-07,0.272
1.100E-07,-0.420
1.200E-07,-0.508
1.300E-07,-0.512
1.400E-07,-0.140
1.500E-07,0.352
1.600E-07,0.540
1.700E-07,0.540
1.800E-07,0.228
1.900E-07,-0.252
2.000E-07,-0.512
2.100E-07,-0.512
2.200E-07,-0.208
2.300E-07,0.304
2.400E-07,0.540
2.500E-07,0.484
2.600E-07,0.112
2.700E-07,-0.264
2.800E-07,-0.476
2.900E-07,-0.372
3.000E-07,-0.108
3.100E-07,0.216
3.200E-07,0.416
3.300E-07,0.388
3.400E-07,0.180
3.500E-07,-0.092
3.600E-07,-0.244
3.700E-07,-0.236
3.800E-07,-0.004
3.900E-07,0.232
4.000E-07,0.388
4.100E-07,0.356
4.200E-07,0.220
4.300E-07,0.080
4.400E-07,0.004
4.500E-07,0.056
4.600E-07,0.152
4.700E-07,0.244
4.800E-07,0.212
4.900E-07,0.084
5.000E-07,-0.120
5.100E-07,-0.228
5.200E-07,-0.268
5.300E-07,-0.224
5.400E-07,-0.100
5.500E-07,0.020
5.600E-07,0.056
5.700E-07,0.060
5.800E-07,0.072
5.900E-07,0.044
6.000E-07,0.032
6.100E-07,0.020
6.200E-07,0.076
6.300E-07,0.100
6.400E-07,0.160
6.500E-07,0.180
6.600E-07,0.208
6.700E-07,0.204
6.800E-07,0.184
6.900E-07,0.108
7.000E-07,-0.036
7.100E-07,-0.152
7.200E-07,-0.248
7.300E-07,-0.232
7.400E-07,-0.168
7.500E-07,-0.124
7.600E-07,-0.124
7.700E-07,-0.128
7.800E-07,-0.144
7.900E-07,-0.252
8.000E-07,-0.240
8.100E-07,-0.104
8.200E-07,-0.008
8.300E-07,0.064
8.400E-07,0.128
8.500E-07,0.120
8.600E-07,0.104
8.700E-07,0.128
8.800E-07,0.116
8.900E-07,0.104
9.000E-07,0.112
9.100E-07,0.112
9.200E-07,0.108
9.300E-07,0.112
9.400E-07,0.108
9.500E-07,0.132
9.600E-07,0.160
9.700E-07,0.204
9.800E-07,0.224
9.900E-07,0.232
1.000E-06,0.212
1.010E-06,0.148
1.020E-06,0.080
1.030E-06,0.008
1.040E-06,-0.056
1.050E-06,-0.128
1.060E-06,-0.168
1.070E-06,-0.216
1.080E-06,-0.252
1.090E-06,-0.256
1.100E-06,-0.264
1.110E-06,-0.208
1.120E-06,-0.164
1.130E-06,-0.124
1.140E-06,-0.032
1.150E-06,-0.012
1.160E-06,-0.016
1.170E-06,-0.020
1.180E-06,-0.052
1.190E-06,-0.072
1.200E-06,-0.008
1.210E-06,0.076
1.220E-06,0.128
1.230E-06,0.132
1.240E-06,0.108
1.250E-06,0.072
1.260E-06,0.060
1.270E-06,0.072
1.280E-06,0.140
1.290E-06,0.208
1.300E-06,0.252
1.310E-06,0.252
1.320E-06,0.216
1.330E-06,0.192
1.340E-06,0.180
1.350E-06,0.208
1.360E-06,0.228
1.370E-06,0.264
1.380E-06,0.268
1.390E-06,0.264
1.400E-06,0.240
1.410E-06,0.216
1.420E-06,0.188
1.430E-06,0.172
1.440E-06,0.156
1.450E-06,0.132
1.460E-06,0.108
1.470E-06,0.076
1.480E-06,0.044
1.490E-06,0.016
1.500E-06,0.004
1.510E-06,-0.024
1.520E-06,-0.036
1.530E-06,-0.044
1.540E-06,-0.056
1.550E-06,-0.088
1.560E-06,-0.092
1.570E-06,-0.036
1.580E-06,-0.004
1.590E-06,0.052
1.600E-06,0.092
1.610E-06,0.136
1.620E-06,0.144
1.630E-06,0.128
1.640E-06,0.140
1.650E-06,0.160
1.660E-06,0.204
1.670E-06,0.248
1.680E-06,0.288
1.690E-06,0.284
1.700E-06,0.252
1.710E-06,0.204
1.720E-06,0.160
1.730E-06,0.152
1.740E-06,0.168
1.750E-06,0.192
1.760E-06,0.192
1.770E-06,0.172
1.780E-06,0.124
1.790E-06,0.064
1.800E-06,0.000
1.810E-06,-0.040
1.820E-06,-0.088
1.830E-06,-0.124
1.840E-06,-0.152
1.850E-06,-0.172
1.860E-06,-0.196
1.870E-06,-0.184
1.880E-06,-0.176
1.890E-06,-0.196
1.900E-06,-0.172
1.910E-06,-0.100
1.920E-06,-0.008
1.930E-06,0.040
1.940E-06,0.092
1.950E-06,0.116
1.960E-06,0.128
1.970E-06,0.076
1.980E-06,0.092
1.990E-06,0.128
2.000E-06,0.192
2.010E-06,0.272
2.020E-06,0.352
2.030E-06,0.388
2.040E-06,0.324
2.050E-06,0.256
2.060E-06,0.168
2.070E-06,0.152
2.080E-06,0.184
2.090E-06,0.260
2.100E-06,0.324
2.110E-06,0.352
2.120E-06,0.332
2.130E-06,0.260
2.140E-06,0.196
2.150E-06,0.148
2.160E-06,0.164
2.170E-06,0.208
2.180E-06,0.280
2.190E-06,0.316
2.200E-06,0.316
2.210E-06,0.276
2.220E-06,0.228
2.230E-06,0.184
2.240E-06,0.172
2.250E-06,0.208
2.260E-06,0.260
2.270E-06,0.296
2.280E-06,0.300
2.290E-06,0.284
2.300E-06,0.236
2.310E-06,0.204
2.320E-06,0.188
2.330E-06,0.200
2.340E-06,0.232
2.350E-06,0.268
2.360E-06,0.276
2.370E-06,0.276
2.380E-06,0.256
2.390E-06,0.228
2.400E-06,0.208
2.410E-06,0.208
2.420E-06,0.228
2.430E-06,0.252
2.440E-06,0.260
2.450E-06,0.260
2.460E-06,0.252
2.470E-06,0.232
2.480E-06,0.208
2.490E-06,0.208
2.500E-06,0.208
2.510E-06,0.224
2.520E-06,0.232
2.530E-06,0.240
2.540E-06,0.248
2.550E-06,0.236
2.560E-06,0.220
2.570E-06,0.208
2.580E-06,0.196
2.590E-06,0.204
2.600E-06,0.220
2.610E-06,0.224
2.620E-06,0.240
2.630E-06,0.236
2.640E-06,0.224
2.650E-06,0.200
2.660E-06,0.192
2.670E-06,0.180
2.680E-06,0.176
2.690E-06,0.192
2.700E-06,0.212
2.710E-06,0.224
2.720E-06,0.232
2.730E-06,0.224
2.740E-06,0.212
2.750E-06,0.204
2.760E-06,0.196
2.770E-06,0.196
2.780E-06,0.220
2.790E-06,0.236
2.800E-06,0.256
2.810E-06,0.252
2.820E-06,0.232
2.830E-06,0.216
2.840E-06,0.204
2.850E-06,0.204
2.860E-06,0.216
2.870E-06,0.232
2.880E-06,0.252
2.890E-06,0.252
2.900E-06,0.240
2.910E-06,0.228
2.920E-06,0.212
2.930E-06,0.208
2.940E-06,0.204
2.950E-06,0.220
2.960E-06,0.228
2.970E-06,0.232
2.980E-06,0.228
2.990E-06,0.224
3.000E-06,0.204
3.010E-06,0.200
3.020E-06,0.200
3.030E-06,0.208
3.040E-06,0.224
3.050E-06,0.232
3.060E-06,0.224
3.070E-06,0.228
3.080E-06,0.212
3.090E-06,0.204
3.100E-06,0.208
3.110E-06,0.212
3.120E-06,0.216
3.130E-06,0.228
3.140E-06,0.228
3.150E-06,0.220
3.160E-06,0.212
3.170E-06,0.212
3.180E-06,0.204
3.190E-06,0.208
3.200E-06,0.212
3.210E-06,0.220
3.220E-06,0.224
3.230E-06,0.224
3.240E-06,0.220
3.250E-06,0.208
3.260E-06,0.208
3.270E-06,0.204
3.280E-06,0.208
