mediciones/5-15/3/WaveData47205.csv

#timebase=2000000(ps)
,#voltbase=100000(mv/100)
#size=4000
-8.400E-06,0.000
-8.390E-06,0.000
-8.380E-06,-0.004
-8.370E-06,-0.004
-8.360E-06,0.016
-8.350E-06,0.016
-8.340E-06,-0.004
-8.330E-06,-0.008
-8.320E-06,-0.004
-8.310E-06,-0.016
-8.300E-06,0.024
-8.290E-06,0.024
-8.280E-06,-0.012
-8.270E-06,-0.016
-8.260E-06,0.028
-8.250E-06,0.000
-8.240E-06,-0.020
-8.230E-06,0.012
-8.220E-06,0.016
-8.210E-06,0.008
-8.200E-06,0.008
-8.190E-06,0.016
-8.180E-06,-0.012
-8.170E-06,0.000
-8.160E-06,-0.004
-8.150E-06,0.008
-8.140E-06,0.012
-8.130E-06,0.012
-8.120E-06,0.004
-8.110E-06,0.000
-8.100E-06,0.004
-8.090E-06,-0.004
-8.080E-06,0.000
-8.070E-06,-0.008
-8.060E-06,0.012
-8.050E-06,0.008
-8.040E-06,0.016
-8.030E-06,0.000
-8.020E-06,-0.020
-8.010E-06,-0.004
-8.000E-06,0.028
-7.990E-06,0.024
-7.980E-06,-0.012
-7.970E-06,-0.004
-7.960E-06,-0.004
-7.950E-06,0.000
-7.940E-06,0.004
-7.930E-06,0.008
-7.920E-06,0.004
-7.910E-06,0.004
-7.900E-06,0.004
-7.890E-06,0.000
-7.880E-06,0.000
-7.870E-06,0.000
-7.860E-06,0.008
-7.850E-06,0.012
-7.840E-06,0.004
-7.830E-06,0.000
-7.820E-06,0.004
-7.810E-06,-0.004
-7.800E-06,0.004
-7.790E-06,0.004
-7.780E-06,0.000
-7.770E-06,0.000
-7.760E-06,0.004
-7.750E-06,0.000
-7.740E-06,0.000
-7.730E-06,0.000
-7.720E-06,0.000
-7.710E-06,0.004
-7.700E-06,0.000
-7.690E-06,0.000
-7.680E-06,0.000
-7.670E-06,0.004
-7.660E-06,0.000
-7.650E-06,-0.004
-7.640E-06,0.000
-7.630E-06,0.000
-7.620E-06,0.012
-7.610E-06,-0.004
-7.600E-06,0.008
-7.590E-06,0.000
-7.580E-06,0.008
-7.570E-06,0.008
-7.560E-06,0.008
-7.550E-06,0.004
-7.540E-06,-0.008
-7.530E-06,0.004
-7.520E-06,0.008
-7.510E-06,0.008
-7.500E-06,-0.004
-7.490E-06,0.000
-7.480E-06,0.000
-7.470E-06,0.008
-7.460E-06,0.008
-7.450E-06,0.004
-7.440E-06,-0.008
-7.430E-06,0.000
-7.420E-06,0.008
-7.410E-06,0.008
-7.400E-06,-0.008
-7.390E-06,0.000
-7.380E-06,0.000
-7.370E-06,0.004
-7.360E-06,0.000
-7.350E-06,0.004
-7.340E-06,0.004
-7.330E-06,0.000
-7.320E-06,0.000
-7.310E-06,0.008
-7.300E-06,0.008
-7.290E-06,-0.008
-7.280E-06,-0.008
-7.270E-06,0.004
-7.260E-06,0.004
-7.250E-06,0.004
-7.240E-06,0.004
-7.230E-06,-0.004
-7.220E-06,-0.004
-7.210E-06,0.000
-7.200E-06,0.000
-7.190E-06,0.008
-7.180E-06,0.004
-7.170E-06,0.000
-7.160E-06,-0.004
-7.150E-06,0.004
-7.140E-06,0.004
-7.130E-06,0.000
-7.120E-06,0.000
-7.110E-06,0.004
-7.100E-06,0.004
-7.090E-06,0.008
-7.080E-06,0.000
-7.070E-06,0.008
-7.060E-06,0.004
-7.050E-06,0.000
-7.040E-06,0.012
-7.030E-06,-0.036
-7.020E-06,-0.012
-7.010E-06,0.032
-7.000E-06,0.048
-6.990E-06,-0.016
-6.980E-06,-0.012
-6.970E-06,0.004
-6.960E-06,-0.004
-6.950E-06,0.000
-6.940E-06,0.024
-6.930E-06,0.012
-6.920E-06,-0.004
-6.910E-06,0.008
-6.900E-06,0.004
-6.890E-06,-0.004
-6.880E-06,0.000
-6.870E-06,0.004
-6.860E-06,0.000
-6.850E-06,0.016
-6.840E-06,0.008
-6.830E-06,-0.008
-6.820E-06,-0.004
-6.810E-06,0.004
-6.800E-06,0.008
-6.790E-06,0.000
-6.780E-06,-0.004
-6.770E-06,-0.004
-6.760E-06,0.016
-6.750E-06,0.024
-6.740E-06,0.004
-6.730E-06,-0.012
-6.720E-06,-0.008
-6.710E-06,0.012
-6.700E-06,0.008
-6.690E-06,-0.004
-6.680E-06,0.004
-6.670E-06,0.016
-6.660E-06,0.004
-6.650E-06,0.012
-6.640E-06,-0.008
-6.630E-06,-0.024
-6.620E-06,0.020
-6.610E-06,-0.004
-6.600E-06,0.008
-6.590E-06,0.004
-6.580E-06,0.032
-6.570E-06,-0.012
-6.560E-06,-0.032
-6.550E-06,0.028
-6.540E-06,0.020
-6.530E-06,-0.012
-6.520E-06,-0.024
-6.510E-06,0.028
-6.500E-06,0.004
-6.490E-06,-0.004
-6.480E-06,-0.004
-6.470E-06,-0.004
-6.460E-06,0.000
-6.450E-06,0.028
-6.440E-06,0.000
-6.430E-06,-0.004
-6.420E-06,-0.004
-6.410E-06,0.012
-6.400E-06,0.004
-6.390E-06,0.008
-6.380E-06,0.012
-6.370E-06,-0.004
-6.360E-06,-0.004
-6.350E-06,0.004
-6.340E-06,0.004
-6.330E-06,-0.008
-6.320E-06,0.000
-6.310E-06,0.008
-6.300E-06,0.012
-6.290E-06,0.012
-6.280E-06,-0.004
-6.270E-06,-0.008
-6.260E-06,-0.004
-6.250E-06,0.012
-6.240E-06,0.004
-6.230E-06,0.012
-6.220E-06,0.004
-6.210E-06,0.000
-6.200E-06,0.000
-6.190E-06,0.000
-6.180E-06,-0.004
-6.170E-06,0.004
-6.160E-06,0.008
-6.150E-06,0.004
-6.140E-06,0.004
-6.130E-06,0.004
-6.120E-06,-0.004
-6.110E-06,0.004
-6.100E-06,0.016
-6.090E-06,0.008
-6.080E-06,-0.004
-6.070E-06,-0.008
-6.060E-06,0.008
-6.050E-06,-0.004
-6.040E-06,0.012
-6.030E-06,0.016
-6.020E-06,-0.004
-6.010E-06,-0.004
-6.000E-06,0.004
-5.990E-06,-0.004
-5.980E-06,0.000
-5.970E-06,0.012
-5.960E-06,0.004
-5.950E-06,0.000
-5.940E-06,0.008
-5.930E-06,-0.004
-5.920E-06,-0.008
-5.910E-06,0.004
-5.900E-06,0.004
-5.890E-06,0.004
-5.880E-06,0.004
-5.870E-06,0.008
-5.860E-06,0.004
-5.850E-06,-0.004
-5.840E-06,0.004
-5.830E-06,0.000
-5.820E-06,0.000
-5.810E-06,0.008
-5.800E-06,0.008
-5.790E-06,0.000
-5.780E-06,-0.008
-5.770E-06,0.028
-5.760E-06,0.008
-5.750E-06,0.012
-5.740E-06,-0.008
-5.730E-06,-0.052
-5.720E-06,0.008
-5.710E-06,0.060
-5.700E-06,0.044
-5.690E-06,-0.020
-5.680E-06,-0.004
-5.670E-06,-0.016
-5.660E-06,-0.012
-5.650E-06,0.012
-5.640E-06,0.032
-5.630E-06,0.012
-5.620E-06,0.000
-5.610E-06,0.004
-5.600E-06,-0.008
-5.590E-06,-0.008
-5.580E-06,-0.008
-5.570E-06,0.008
-5.560E-06,0.012
-5.550E-06,0.024
-5.540E-06,0.016
-5.530E-06,0.000
-5.520E-06,0.000
-5.510E-06,-0.008
-5.500E-06,-0.004
-5.490E-06,-0.008
-5.480E-06,0.012
-5.470E-06,0.012
-5.460E-06,0.004
-5.450E-06,0.004
-5.440E-06,0.012
-5.430E-06,-0.004
-5.420E-06,-0.008
-5.410E-06,0.000
-5.400E-06,0.000
-5.390E-06,0.004
-5.380E-06,0.008
-5.370E-06,0.024
-5.360E-06,0.004
-5.350E-06,0.004
-5.340E-06,-0.024
-5.330E-06,0.000
-5.320E-06,0.008
-5.310E-06,0.012
-5.300E-06,0.008
-5.290E-06,0.000
-5.280E-06,0.016
-5.270E-06,0.000
-5.260E-06,0.000
-5.250E-06,0.000
-5.240E-06,-0.004
-5.230E-06,0.000
-5.220E-06,0.004
-5.210E-06,0.024
-5.200E-06,0.000
-5.190E-06,0.004
-5.180E-06,-0.020
-5.170E-06,0.008
-5.160E-06,0.004
-5.150E-06,0.020
-5.140E-06,-0.004
-5.130E-06,-0.020
-5.120E-06,0.008
-5.110E-06,0.024
-5.100E-06,0.004
-5.090E-06,-0.004
-5.080E-06,0.004
-5.070E-06,0.000
-5.060E-06,0.008
-5.050E-06,0.004
-5.040E-06,0.012
-5.030E-06,-0.008
-5.020E-06,0.000
-5.010E-06,0.004
-5.000E-06,0.008
-4.990E-06,0.000
-4.980E-06,0.004
-4.970E-06,0.008
-4.960E-06,-0.004
-4.950E-06,0.012
-4.940E-06,0.008
-4.930E-06,0.004
-4.920E-06,-0.004
-4.910E-06,0.004
-4.900E-06,0.008
-4.890E-06,0.008
-4.880E-06,0.004
-4.870E-06,-0.004
-4.860E-06,0.004
-4.850E-06,0.004
-4.840E-06,0.004
-4.830E-06,0.008
-4.820E-06,0.004
-4.810E-06,0.004
-4.800E-06,0.008
-4.790E-06,0.004
-4.780E-06,0.000
-4.770E-06,0.000
-4.760E-06,0.004
-4.750E-06,0.004
-4.740E-06,0.012
-4.730E-06,0.008
-4.720E-06,0.000
-4.710E-06,0.000
-4.700E-06,-0.008
-4.690E-06,0.004
-4.680E-06,0.008
-4.670E-06,0.008
-4.660E-06,0.008
-4.650E-06,0.008
-4.640E-06,0.004
-4.630E-06,-0.004
-4.620E-06,0.004
-4.610E-06,0.004
-4.600E-06,0.004
-4.590E-06,0.008
-4.580E-06,0.008
-4.570E-06,0.008
-4.560E-06,0.004
-4.550E-06,0.000
-4.540E-06,0.004
-4.530E-06,0.008
-4.520E-06,0.008
-4.510E-06,0.004
-4.500E-06,0.000
-4.490E-06,0.008
-4.480E-06,0.012
-4.470E-06,0.004
-4.460E-06,0.008
-4.450E-06,0.000
-4.440E-06,-0.004
-4.430E-06,0.000
-4.420E-06,0.004
-4.410E-06,0.016
-4.400E-06,0.012
-4.390E-06,0.012
-4.380E-06,0.008
-4.370E-06,0.000
-4.360E-06,-0.004
-4.350E-06,-0.004
-4.340E-06,0.012
-4.330E-06,0.016
-4.320E-06,0.016
-4.310E-06,0.008
-4.300E-06,0.008
-4.290E-06,0.004
-4.280E-06,0.000
-4.270E-06,0.000
-4.260E-06,-0.008
-4.250E-06,0.000
-4.240E-06,0.004
-4.230E-06,0.008
-4.220E-06,0.012
-4.210E-06,0.000
-4.200E-06,-0.004
-4.190E-06,-0.004
-4.180E-06,0.000
-4.170E-06,0.004
-4.160E-06,0.008
-4.150E-06,0.008
-4.140E-06,0.008
-4.130E-06,0.004
-4.120E-06,0.000
-4.110E-06,0.000
-4.100E-06,0.004
-4.090E-06,0.012
-4.080E-06,0.016
-4.070E-06,0.020
-4.060E-06,0.004
-4.050E-06,0.000
-4.040E-06,-0.004
-4.030E-06,-0.008
-4.020E-06,0.000
-4.010E-06,0.004
-4.000E-06,0.016
-3.990E-06,0.012
-3.980E-06,0.008
-3.970E-06,0.000
-3.960E-06,-0.004
-3.950E-06,0.000
-3.940E-06,0.000
-3.930E-06,0.012
-3.920E-06,0.016
-3.910E-06,0.020
-3.900E-06,0.008
-3.890E-06,0.008
-3.880E-06,0.004
-3.870E-06,0.004
-3.860E-06,0.012
-3.850E-06,0.008
-3.840E-06,0.012
-3.830E-06,0.016
-3.820E-06,0.024
-3.810E-06,0.016
-3.800E-06,0.004
-3.790E-06,-0.004
-3.780E-06,-0.008
-3.770E-06,0.004
-3.760E-06,0.004
-3.750E-06,0.012
-3.740E-06,0.016
-3.730E-06,0.012
-3.720E-06,0.008
-3.710E-06,0.008
-3.700E-06,0.008
-3.690E-06,0.016
-3.680E-06,0.012
-3.670E-06,0.008
-3.660E-06,-0.004
-3.650E-06,-0.008
-3.640E-06,-0.004
-3.630E-06,0.008
-3.620E-06,0.016
-3.610E-06,0.016
-3.600E-06,0.008
-3.590E-06,0.004
-3.580E-06,0.000
-3.570E-06,0.008
-3.560E-06,0.012
-3.550E-06,0.012
-3.540E-06,0.020
-3.530E-06,0.024
-3.520E-06,0.024
-3.510E-06,0.024
-3.500E-06,0.024
-3.490E-06,0.024
-3.480E-06,0.024
-3.470E-06,0.024
-3.460E-06,0.028
-3.450E-06,0.024
-3.440E-06,0.016
-3.430E-06,0.004
-3.420E-06,-0.024
-3.410E-06,-0.032
-3.400E-06,-0.040
-3.390E-06,-0.036
-3.380E-06,-0.004
-3.370E-06,0.012
-3.360E-06,0.008
-3.350E-06,-0.004
-3.340E-06,-0.024
-3.330E-06,-0.024
-3.320E-06,-0.028
-3.310E-06,-0.012
-3.300E-06,0.012
-3.290E-06,0.028
-3.280E-06,0.020
-3.270E-06,0.020
-3.260E-06,-0.004
-3.250E-06,-0.020
-3.240E-06,-0.008
-3.230E-06,0.000
-3.220E-06,0.008
-3.210E-06,0.008
-3.200E-06,0.020
-3.190E-06,0.008
-3.180E-06,0.012
-3.170E-06,0.004
-3.160E-06,0.004
-3.150E-06,0.016
-3.140E-06,0.020
-3.130E-06,0.024
-3.120E-06,0.012
-3.110E-06,-0.004
-3.100E-06,-0.016
-3.090E-06,-0.008
-3.080E-06,0.000
-3.070E-06,0.020
-3.060E-06,0.040
-3.050E-06,0.056
-3.040E-06,0.036
-3.030E-06,0.004
-3.020E-06,-0.012
-3.010E-06,-0.020
-3.000E-06,-0.008
-2.990E-06,0.012
-2.980E-06,0.032
-2.970E-06,0.040
-2.960E-06,0.040
-2.950E-06,0.032
-2.940E-06,0.012
-2.930E-06,0.008
-2.920E-06,0.008
-2.910E-06,0.008
-2.900E-06,0.024
-2.890E-06,0.040
-2.880E-06,0.032
-2.870E-06,0.016
-2.860E-06,0.004
-2.850E-06,0.000
-2.840E-06,0.004
-2.830E-06,0.012
-2.820E-06,0.008
-2.810E-06,0.000
-2.800E-06,0.000
-2.790E-06,0.008
-2.780E-06,0.028
-2.770E-06,0.040
-2.760E-06,0.024
-2.750E-06,0.024
-2.740E-06,0.012
-2.730E-06,0.012
-2.720E-06,0.020
-2.710E-06,0.024
-2.700E-06,0.020
-2.690E-06,0.020
-2.680E-06,0.028
-2.670E-06,0.024
-2.660E-06,0.016
-2.650E-06,0.024
-2.640E-06,0.040
-2.630E-06,0.044
-2.620E-06,0.036
-2.610E-06,0.012
-2.600E-06,0.008
-2.590E-06,0.032
-2.580E-06,0.060
-2.570E-06,0.080
-2.560E-06,0.060
-2.550E-06,0.020
-2.540E-06,-0.016
-2.530E-06,-0.020
-2.520E-06,0.012
-2.510E-06,0.056
-2.500E-06,0.096
-2.490E-06,0.100
-2.480E-06,0.060
-2.470E-06,0.016
-2.460E-06,-0.008
-2.450E-06,0.000
-2.440E-06,0.020
-2.430E-06,0.064
-2.420E-06,0.104
-2.410E-06,0.112
-2.400E-06,0.084
-2.390E-06,0.060
-2.380E-06,0.040
-2.370E-06,0.044
-2.360E-06,-0.012
-2.350E-06,-0.088
-2.340E-06,-0.176
-2.330E-06,-0.200
-2.320E-06,-0.144
-2.310E-06,-0.072
-2.300E-06,0.004
-2.290E-06,0.024
-2.280E-06,0.024
-2.270E-06,-0.016
-2.260E-06,-0.104
-2.250E-06,-0.140
-2.240E-06,-0.112
-2.230E-06,-0.040
-2.220E-06,0.020
-2.210E-06,0.080
-2.200E-06,0.084
-2.190E-06,0.040
-2.180E-06,-0.020
-2.170E-06,-0.084
-2.160E-06,-0.072
-2.150E-06,-0.008
-2.140E-06,0.032
-2.130E-06,0.076
-2.120E-06,0.060
-2.110E-06,0.008
-2.100E-06,-0.036
-2.090E-06,-0.040
-2.080E-06,-0.024
-2.070E-06,0.036
-2.060E-06,0.088
-2.050E-06,0.124
-2.040E-06,0.124
-2.030E-06,0.088
-2.020E-06,0.048
-2.010E-06,0.028
-2.000E-06,0.012
-1.990E-06,0.008
-1.980E-06,0.024
-1.970E-06,0.040
-1.960E-06,0.048
-1.950E-06,0.048
-1.940E-06,0.012
-1.930E-06,0.000
-1.920E-06,-0.004
-1.910E-06,0.024
-1.900E-06,0.040
-1.890E-06,0.040
-1.880E-06,0.048
-1.870E-06,0.040
-1.860E-06,0.024
-1.850E-06,0.000
-1.840E-06,0.024
-1.830E-06,-0.088
-1.820E-06,-0.224
-1.810E-06,-0.316
-1.800E-06,-0.416
-1.790E-06,-0.224
-1.780E-06,0.012
-1.770E-06,0.192
-1.760E-06,0.276
-1.750E-06,0.204
-1.740E-06,-0.004
-1.730E-06,-0.240
-1.720E-06,-0.240
-1.710E-06,-0.056
-1.700E-06,0.124
-1.690E-06,0.260
-1.680E-06,0.256
-1.670E-06,0.092
-1.660E-06,-0.084
-1.650E-06,-0.140
-1.640E-06,-0.100
-1.630E-06,-0.020
-1.620E-06,0.108
-1.610E-06,0.164
-1.600E-06,0.116
-1.590E-06,-0.004
-1.580E-06,-0.136
-1.570E-06,-0.180
-1.560E-06,-0.132
-1.550E-06,-0.004
-1.540E-06,0.092
-1.530E-06,0.156
-1.520E-06,0.108
-1.510E-06,0.032
-1.500E-06,-0.036
-1.490E-06,-0.076
-1.480E-06,-0.056
-1.470E-06,-0.016
-1.460E-06,0.068
-1.450E-06,0.096
-1.440E-06,0.088
-1.430E-06,0.040
-1.420E-06,0.004
-1.410E-06,-0.032
-1.400E-06,-0.008
-1.390E-06,0.040
-1.380E-06,0.124
-1.370E-06,0.176
-1.360E-06,0.172
-1.350E-06,0.124
-1.340E-06,0.056
-1.330E-06,0.004
-1.320E-06,-0.056
-1.310E-06,-0.072
-1.300E-06,-0.108
-1.290E-06,-0.104
-1.280E-06,-0.060
-1.270E-06,0.056
-1.260E-06,0.020
-1.250E-06,-0.012
-1.240E-06,-0.244
-1.230E-06,-0.420
-1.220E-06,-0.224
-1.210E-06,0.096
-1.200E-06,0.320
-1.190E-06,0.152
-1.180E-06,-0.052
-1.170E-06,-0.272
-1.160E-06,-0.304
-1.150E-06,-0.136
-1.140E-06,0.044
-1.130E-06,0.116
-1.120E-06,0.076
-1.110E-06,0.024
-1.100E-06,-0.012
-1.090E-06,0.052
-1.080E-06,0.060
-1.070E-06,0.068
-1.060E-06,-0.040
-1.050E-06,-0.128
-1.040E-06,-0.144
-1.030E-06,-0.036
-1.020E-06,0.064
-1.010E-06,0.136
-1.000E-06,0.168
-9.900E-07,0.072
-9.800E-07,0.008
-9.700E-07,-0.020
-9.600E-07,0.012
-9.500E-07,0.040
-9.400E-07,0.104
-9.300E-07,0.072
-9.200E-07,0.004
-9.100E-07,-0.092
-9.000E-07,-0.156
-8.900E-07,-0.160
-8.800E-07,-0.124
-8.700E-07,-0.008
-8.600E-07,0.076
-8.500E-07,0.156
-8.400E-07,0.112
-8.300E-07,0.024
-8.200E-07,-0.092
-8.100E-07,-0.148
-8.000E-07,-0.120
-7.900E-07,-0.016
-7.800E-07,0.092
-7.700E-07,0.148
-7.600E-07,0.148
-7.500E-07,0.068
-7.400E-07,-0.016
-7.300E-07,-0.076
-7.200E-07,-0.064
-7.100E-07,-0.008
-7.000E-07,0.084
-6.900E-07,0.148
-6.800E-07,0.160
-6.700E-07,0.136
-6.600E-07,0.060
-6.500E-07,-0.004
-6.400E-07,-0.024
-6.300E-07,-0.008
-6.200E-07,0.044
-6.100E-07,0.120
-6.000E-07,0.140
-5.900E-07,0.124
-5.800E-07,0.060
-5.700E-07,-0.004
-5.600E-07,-0.056
-5.500E-07,-0.040
-5.400E-07,0.024
-5.300E-07,0.088
-5.200E-07,0.144
-5.100E-07,0.156
-5.000E-07,0.124
-4.900E-07,0.088
-4.800E-07,0.072
-4.700E-07,0.080
-4.600E-07,0.120
-4.500E-07,0.164
-4.400E-07,0.124
-4.300E-07,0.040
-4.200E-07,-0.128
-4.100E-07,-0.272
-4.000E-07,-0.284
-3.900E-07,-0.136
-3.800E-07,0.088
-3.700E-07,0.276
-3.600E-07,0.312
-3.500E-07,0.192
-3.400E-07,0.004
-3.300E-07,-0.156
-3.200E-07,-0.184
-3.100E-07,-0.012
-3.000E-07,0.220
-2.900E-07,0.368
-2.800E-07,0.344
-2.700E-07,0.188
-2.600E-07,0.032
-2.500E-07,-0.124
-2.400E-07,-0.152
-2.300E-07,-0.092
-2.200E-07,0.076
-2.100E-07,0.224
-2.000E-07,0.300
-1.900E-07,0.284
-1.800E-07,0.184
-1.700E-07,0.072
-1.600E-07,0.000
-1.500E-07,0.004
-1.400E-07,0.080
-1.300E-07,0.172
-1.200E-07,0.052
-1.100E-07,-0.040
-1.000E-07,-0.096
-9.000E-08,0.028
-8.000E-08,0.240
-7.000E-08,0.280
-6.000E-08,0.080
-5.000E-08,-0.396
-4.000E-08,-0.512
-3.000E-08,-0.508
-2.000E-08,-0.416
-1.000E-08,0.376
0.000E+00,0.540
1.000E-08,0.540
2.000E-08,0.420
3.000E-08,-0.512
4.000E-08,-0.508
5.000E-08,-0.508
6.000E-08,-0.512
7.000E-08,-0.332
8.000E-08,0.540
9.000E-08,0.540
1.000E-07,0.540
1.100E-07,0.224
1.200E-07,-0.508
1.300E-07,-0.512
1.400E-07,-0.508
1.500E-07,0.060
1.600E-07,0.540
1.700E-07,0.540
1.800E-07,0.540
1.900E-07,-0.112
2.000E-07,-0.508
2.100E-07,-0.508
2.200E-07,-0.512
2.300E-07,0.068
2.400E-07,0.540
2.500E-07,0.540
2.600E-07,0.536
2.700E-07,-0.004
2.800E-07,-0.512
2.900E-07,-0.512
3.000E-07,-0.508
3.100E-07,-0.012
3.200E-07,0.540
3.300E-07,0.540
3.400E-07,0.540
3.500E-07,0.064
3.600E-07,-0.468
3.700E-07,-0.512
3.800E-07,-0.512
3.900E-07,-0.052
4.000E-07,0.444
4.100E-07,0.540
4.200E-07,0.480
4.300E-07,0.072
4.400E-07,-0.336
4.500E-07,-0.488
4.600E-07,-0.348
4.700E-07,0.000
4.800E-07,0.348
4.900E-07,0.496
5.000E-07,0.392
5.100E-07,0.104
5.200E-07,-0.192
5.300E-07,-0.324
5.400E-07,-0.228
5.500E-07,0.020
5.600E-07,0.312
5.700E-07,0.444
5.800E-07,0.368
5.900E-07,0.144
6.000E-07,-0.076
6.100E-07,-0.188
6.200E-07,-0.124
6.300E-07,0.072
6.400E-07,0.276
6.500E-07,0.396
6.600E-07,0.352
6.700E-07,0.204
6.800E-07,0.040
6.900E-07,-0.048
7.000E-07,-0.028
7.100E-07,0.120
7.200E-07,0.276
7.300E-07,0.372
7.400E-07,0.388
7.500E-07,0.296
7.600E-07,0.164
7.700E-07,0.056
7.800E-07,0.048
7.900E-07,0.104
8.000E-07,0.192
8.100E-07,0.228
8.200E-07,0.228
8.300E-07,0.208
8.400E-07,0.164
8.500E-07,0.152
8.600E-07,0.044
8.700E-07,-0.108
8.800E-07,-0.292
8.900E-07,-0.464
9.000E-07,-0.508
9.100E-07,-0.500
9.200E-07,-0.280
9.300E-07,0.056
9.400E-07,0.356
9.500E-07,0.476
9.600E-07,0.404
9.700E-07,0.232
9.800E-07,0.056
9.900E-07,-0.080
1.000E-06,-0.088
1.010E-06,-0.004
1.020E-06,0.080
1.030E-06,0.096
1.040E-06,0.104
1.050E-06,0.024
1.060E-06,-0.104
1.070E-06,-0.180
1.080E-06,-0.408
1.090E-06,-0.504
1.100E-06,-0.456
1.110E-06,-0.428
1.120E-06,-0.260
1.130E-06,-0.088
1.140E-06,-0.028
1.150E-06,-0.056
1.160E-06,-0.036
1.170E-06,-0.092
1.180E-06,-0.056
1.190E-06,0.084
1.200E-06,0.280
1.210E-06,0.444
1.220E-06,0.388
1.230E-06,0.208
1.240E-06,-0.072
1.250E-06,-0.208
1.260E-06,-0.288
1.270E-06,-0.212
1.280E-06,-0.124
1.290E-06,-0.032
1.300E-06,-0.048
1.310E-06,-0.092
1.320E-06,-0.184
1.330E-06,-0.300
1.340E-06,-0.312
1.350E-06,-0.204
1.360E-06,0.012
1.370E-06,0.160
1.380E-06,0.288
1.390E-06,0.224
1.400E-06,0.100
1.410E-06,-0.076
1.420E-06,-0.132
1.430E-06,-0.040
1.440E-06,0.168
1.450E-06,0.372
1.460E-06,0.452
1.470E-06,0.412
1.480E-06,0.224
1.490E-06,0.044
1.500E-06,-0.100
1.510E-06,-0.084
1.520E-06,0.028
1.530E-06,0.200
1.540E-06,0.292
1.550E-06,0.240
1.560E-06,0.076
1.570E-06,-0.140
1.580E-06,-0.240
1.590E-06,-0.208
1.600E-06,-0.024
1.610E-06,0.184
1.620E-06,0.340
1.630E-06,0.372
1.640E-06,0.260
1.650E-06,0.100
1.660E-06,-0.004
1.670E-06,0.024
1.680E-06,0.144
1.690E-06,0.268
1.700E-06,0.320
1.710E-06,0.284
1.720E-06,0.176
1.730E-06,0.048
1.740E-06,-0.084
1.750E-06,-0.188
1.760E-06,-0.228
1.770E-06,-0.188
1.780E-06,-0.144
1.790E-06,-0.120
1.800E-06,-0.136
1.810E-06,-0.140
1.820E-06,-0.136
1.830E-06,-0.064
1.840E-06,0.008
1.850E-06,0.064
1.860E-06,0.124
1.870E-06,0.164
1.880E-06,0.172
1.890E-06,0.188
1.900E-06,0.212
1.910E-06,0.196
1.920E-06,0.204
1.930E-06,0.196
1.940E-06,0.212
1.950E-06,0.232
1.960E-06,0.272
1.970E-06,0.276
1.980E-06,0.244
1.990E-06,0.204
2.000E-06,0.168
2.010E-06,0.168
2.020E-06,0.192
2.030E-06,0.224
2.040E-06,0.256
2.050E-06,0.260
2.060E-06,0.240
2.070E-06,0.208
2.080E-06,0.180
2.090E-06,0.176
2.100E-06,0.196
2.110E-06,0.220
2.120E-06,0.256
2.130E-06,0.268
2.140E-06,0.256
2.150E-06,0.228
2.160E-06,0.204
2.170E-06,0.188
2.180E-06,0.196
2.190E-06,0.208
2.200E-06,0.228
2.210E-06,0.252
2.220E-06,0.256
2.230E-06,0.236
2.240E-06,0.208
2.250E-06,0.164
2.260E-06,0.140
2.270E-06,0.140
2.280E-06,0.148
2.290E-06,0.164
2.300E-06,0.176
2.310E-06,0.160
2.320E-06,0.096
2.330E-06,0.044
2.340E-06,-0.016
2.350E-06,-0.056
2.360E-06,-0.044
2.370E-06,-0.004
2.380E-06,0.064
2.390E-06,0.112
2.400E-06,0.148
2.410E-06,0.144
2.420E-06,0.124
2.430E-06,0.096
2.440E-06,0.076
2.450E-06,0.084
2.460E-06,0.112
2.470E-06,0.196
2.480E-06,0.280
2.490E-06,0.324
2.500E-06,0.304
2.510E-06,0.232
2.520E-06,0.148
2.530E-06,0.112
2.540E-06,0.140
2.550E-06,0.212
2.560E-06,0.288
2.570E-06,0.340
2.580E-06,0.320
2.590E-06,0.260
2.600E-06,0.172
2.610E-06,0.132
2.620E-06,0.132
2.630E-06,0.184
2.640E-06,0.252
2.650E-06,0.304
2.660E-06,0.312
2.670E-06,0.276
2.680E-06,0.224
2.690E-06,0.180
2.700E-06,0.156
2.710E-06,0.184
2.720E-06,0.228
2.730E-06,0.276
2.740E-06,0.300
2.750E-06,0.284
2.760E-06,0.236
2.770E-06,0.196
2.780E-06,0.172
2.790E-06,0.188
2.800E-06,0.212
2.810E-06,0.252
2.820E-06,0.276
2.830E-06,0.276
2.840E-06,0.252
2.850E-06,0.216
2.860E-06,0.192
2.870E-06,0.188
2.880E-06,0.200
2.890E-06,0.232
2.900E-06,0.260
2.910E-06,0.264
2.920E-06,0.256
2.930E-06,0.224
2.940E-06,0.204
2.950E-06,0.192
2.960E-06,0.200
2.970E-06,0.224
2.980E-06,0.240
2.990E-06,0.252
3.000E-06,0.240
3.010E-06,0.224
3.020E-06,0.196
3.030E-06,0.184
3.040E-06,0.184
3.050E-06,0.192
3.060E-06,0.212
3.070E-06,0.220
3.080E-06,0.220
3.090E-06,0.208
3.100E-06,0.192
3.110E-06,0.176
3.120E-06,0.176
3.130E-06,0.188
3.140E-06,0.204
3.150E-06,0.220
3.160E-06,0.224
3.170E-06,0.224
3.180E-06,0.216
3.190E-06,0.208
3.200E-06,0.212
3.210E-06,0.220
3.220E-06,0.220
3.230E-06,0.220
3.240E-06,0.228
3.250E-06,0.228
3.260E-06,0.228
3.270E-06,0.224
3.280E-06,0.208
3.290E-06,0.196
3.300E-06,0.192
3.310E-06,0.200
3.320E-06,0.204
