mediciones/Mediciones filtradas (saque las feas)/6-10/9.4/WaveData5691.csv

#timebase=2000000(ps)
,#voltbase=100000(mv/100)
#size=4000
-4.200E-06,0.004
-4.190E-06,0.004
-4.180E-06,0.008
-4.170E-06,0.004
-4.160E-06,0.004
-4.150E-06,0.004
-4.140E-06,0.008
-4.130E-06,0.004
-4.120E-06,0.008
-4.110E-06,0.004
-4.100E-06,0.008
-4.090E-06,0.000
-4.080E-06,0.004
-4.070E-06,0.004
-4.060E-06,-0.004
-4.050E-06,0.000
-4.040E-06,0.000
-4.030E-06,0.004
-4.020E-06,0.004
-4.010E-06,0.016
-4.000E-06,0.000
-3.990E-06,-0.004
-3.980E-06,-0.004
-3.970E-06,0.008
-3.960E-06,-0.004
-3.950E-06,0.004
-3.940E-06,0.012
-3.930E-06,-0.004
-3.920E-06,-0.004
-3.910E-06,-0.004
-3.900E-06,0.008
-3.890E-06,0.004
-3.880E-06,-0.004
-3.870E-06,0.012
-3.860E-06,-0.004
-3.850E-06,-0.004
-3.840E-06,0.004
-3.830E-06,0.008
-3.820E-06,-0.008
-3.810E-06,0.004
-3.800E-06,0.008
-3.790E-06,-0.004
-3.780E-06,0.008
-3.770E-06,0.004
-3.760E-06,0.000
-3.750E-06,0.000
-3.740E-06,0.012
-3.730E-06,0.000
-3.720E-06,0.000
-3.710E-06,0.008
-3.700E-06,0.012
-3.690E-06,0.004
-3.680E-06,0.008
-3.670E-06,0.008
-3.660E-06,0.004
-3.650E-06,0.024
-3.640E-06,0.032
-3.630E-06,0.020
-3.620E-06,0.004
-3.610E-06,-0.008
-3.600E-06,-0.024
-3.590E-06,-0.032
-3.580E-06,-0.004
-3.570E-06,0.024
-3.560E-06,0.012
-3.550E-06,0.012
-3.540E-06,0.008
-3.530E-06,-0.012
-3.520E-06,-0.016
-3.510E-06,0.000
-3.500E-06,-0.004
-3.490E-06,0.012
-3.480E-06,0.020
-3.470E-06,0.016
-3.460E-06,0.016
-3.450E-06,0.012
-3.440E-06,-0.004
-3.430E-06,-0.004
-3.420E-06,0.024
-3.410E-06,0.000
-3.400E-06,0.020
-3.390E-06,0.028
-3.380E-06,0.028
-3.370E-06,-0.004
-3.360E-06,-0.008
-3.350E-06,-0.032
-3.340E-06,-0.036
-3.330E-06,-0.016
-3.320E-06,0.024
-3.310E-06,0.016
-3.300E-06,-0.040
-3.290E-06,-0.052
-3.280E-06,-0.040
-3.270E-06,-0.004
-3.260E-06,0.024
-3.250E-06,0.060
-3.240E-06,0.016
-3.230E-06,0.004
-3.220E-06,-0.020
-3.210E-06,-0.016
-3.200E-06,0.000
-3.190E-06,-0.004
-3.180E-06,0.024
-3.170E-06,0.012
-3.160E-06,0.028
-3.150E-06,-0.016
-3.140E-06,-0.004
-3.130E-06,-0.012
-3.120E-06,-0.008
-3.110E-06,0.008
-3.100E-06,0.024
-3.090E-06,0.020
-3.080E-06,0.004
-3.070E-06,0.004
-3.060E-06,-0.004
-3.050E-06,-0.004
-3.040E-06,-0.004
-3.030E-06,0.008
-3.020E-06,0.008
-3.010E-06,0.008
-3.000E-06,0.012
-2.990E-06,0.012
-2.980E-06,0.008
-2.970E-06,0.012
-2.960E-06,0.012
-2.950E-06,0.020
-2.940E-06,0.024
-2.930E-06,-0.032
-2.920E-06,-0.032
-2.910E-06,-0.016
-2.900E-06,0.000
-2.890E-06,0.016
-2.880E-06,0.024
-2.870E-06,0.024
-2.860E-06,0.000
-2.850E-06,-0.012
-2.840E-06,-0.036
-2.830E-06,-0.040
-2.820E-06,-0.004
-2.810E-06,0.040
-2.800E-06,0.032
-2.790E-06,0.020
-2.780E-06,0.000
-2.770E-06,-0.020
-2.760E-06,-0.012
-2.750E-06,0.008
-2.740E-06,0.016
-2.730E-06,0.008
-2.720E-06,0.012
-2.710E-06,0.004
-2.700E-06,-0.008
-2.690E-06,-0.008
-2.680E-06,0.000
-2.670E-06,-0.004
-2.660E-06,0.012
-2.650E-06,0.012
-2.640E-06,0.004
-2.630E-06,0.008
-2.620E-06,0.004
-2.610E-06,0.000
-2.600E-06,-0.004
-2.590E-06,0.004
-2.580E-06,0.004
-2.570E-06,0.008
-2.560E-06,0.004
-2.550E-06,0.004
-2.540E-06,-0.004
-2.530E-06,0.000
-2.520E-06,0.008
-2.510E-06,0.012
-2.500E-06,0.004
-2.490E-06,0.012
-2.480E-06,0.016
-2.470E-06,0.012
-2.460E-06,0.024
-2.450E-06,0.020
-2.440E-06,0.032
-2.430E-06,0.024
-2.420E-06,0.024
-2.410E-06,0.000
-2.400E-06,-0.028
-2.390E-06,-0.036
-2.380E-06,-0.024
-2.370E-06,0.000
-2.360E-06,0.016
-2.350E-06,0.028
-2.340E-06,0.024
-2.330E-06,0.012
-2.320E-06,0.000
-2.310E-06,0.000
-2.300E-06,-0.004
-2.290E-06,-0.012
-2.280E-06,-0.040
-2.270E-06,-0.032
-2.260E-06,-0.032
-2.250E-06,0.016
-2.240E-06,0.040
-2.230E-06,0.044
-2.220E-06,0.032
-2.210E-06,0.000
-2.200E-06,-0.040
-2.190E-06,-0.056
-2.180E-06,-0.008
-2.170E-06,0.016
-2.160E-06,0.056
-2.150E-06,0.040
-2.140E-06,0.004
-2.130E-06,-0.008
-2.120E-06,-0.028
-2.110E-06,-0.032
-2.100E-06,-0.012
-2.090E-06,0.016
-2.080E-06,0.028
-2.070E-06,0.024
-2.060E-06,0.020
-2.050E-06,-0.004
-2.040E-06,-0.020
-2.030E-06,-0.008
-2.020E-06,0.000
-2.010E-06,0.008
-2.000E-06,0.024
-1.990E-06,0.016
-1.980E-06,0.012
-1.970E-06,0.008
-1.960E-06,-0.008
-1.950E-06,-0.020
-1.940E-06,0.004
-1.930E-06,0.004
-1.920E-06,0.008
-1.910E-06,0.020
-1.900E-06,0.012
-1.890E-06,0.016
-1.880E-06,-0.004
-1.870E-06,-0.004
-1.860E-06,0.008
-1.850E-06,-0.004
-1.840E-06,0.104
-1.830E-06,-0.080
-1.820E-06,-0.040
-1.810E-06,0.072
-1.800E-06,0.016
-1.790E-06,-0.068
-1.780E-06,0.044
-1.770E-06,0.052
-1.760E-06,-0.036
-1.750E-06,0.008
-1.740E-06,0.048
-1.730E-06,-0.004
-1.720E-06,-0.004
-1.710E-06,0.032
-1.700E-06,0.000
-1.690E-06,-0.004
-1.680E-06,0.024
-1.670E-06,0.016
-1.660E-06,0.024
-1.650E-06,0.040
-1.640E-06,0.020
-1.630E-06,0.008
-1.620E-06,0.036
-1.610E-06,0.028
-1.600E-06,0.016
-1.590E-06,0.024
-1.580E-06,0.032
-1.570E-06,0.020
-1.560E-06,0.040
-1.550E-06,0.056
-1.540E-06,0.044
-1.530E-06,0.052
-1.520E-06,0.044
-1.510E-06,0.020
-1.500E-06,0.024
-1.490E-06,0.028
-1.480E-06,0.024
-1.470E-06,0.008
-1.460E-06,-0.008
-1.450E-06,-0.036
-1.440E-06,-0.020
-1.430E-06,0.032
-1.420E-06,0.052
-1.410E-06,0.068
-1.400E-06,0.060
-1.390E-06,0.032
-1.380E-06,0.008
-1.370E-06,-0.044
-1.360E-06,-0.052
-1.350E-06,-0.088
-1.340E-06,-0.032
-1.330E-06,-0.072
-1.320E-06,-0.060
-1.310E-06,-0.028
-1.300E-06,-0.016
-1.290E-06,-0.044
-1.280E-06,-0.056
-1.270E-06,-0.036
-1.260E-06,0.020
-1.250E-06,0.088
-1.240E-06,0.032
-1.230E-06,0.012
-1.220E-06,-0.052
-1.210E-06,-0.040
-1.200E-06,-0.028
-1.190E-06,0.020
-1.180E-06,0.004
-1.170E-06,0.020
-1.160E-06,0.032
-1.150E-06,0.012
-1.140E-06,0.008
-1.130E-06,-0.024
-1.120E-06,-0.028
-1.110E-06,-0.012
-1.100E-06,0.024
-1.090E-06,0.040
-1.080E-06,0.048
-1.070E-06,0.032
-1.060E-06,0.012
-1.050E-06,0.004
-1.040E-06,0.008
-1.030E-06,0.024
-1.020E-06,0.024
-1.010E-06,0.032
-1.000E-06,0.032
-9.900E-07,0.024
-9.800E-07,0.008
-9.700E-07,0.012
-9.600E-07,0.024
-9.500E-07,0.040
-9.400E-07,0.084
-9.300E-07,0.052
-9.200E-07,-0.060
-9.100E-07,-0.136
-9.000E-07,-0.176
-8.900E-07,-0.100
-8.800E-07,0.008
-8.700E-07,0.100
-8.600E-07,0.136
-8.500E-07,0.108
-8.400E-07,0.008
-8.300E-07,-0.068
-8.200E-07,-0.080
-8.100E-07,-0.044
-8.000E-07,0.020
-7.900E-07,0.068
-7.800E-07,0.064
-7.700E-07,0.048
-7.600E-07,0.016
-7.500E-07,-0.016
-7.400E-07,-0.032
-7.300E-07,-0.020
-7.200E-07,0.012
-7.100E-07,0.028
-7.000E-07,0.048
-6.900E-07,-0.004
-6.800E-07,0.036
-6.700E-07,-0.032
-6.600E-07,-0.068
-6.500E-07,0.000
-6.400E-07,-0.004
-6.300E-07,0.060
-6.200E-07,0.012
-6.100E-07,0.008
-6.000E-07,-0.024
-5.900E-07,-0.004
-5.800E-07,-0.004
-5.700E-07,0.012
-5.600E-07,0.008
-5.500E-07,-0.004
-5.400E-07,0.024
-5.300E-07,0.028
-5.200E-07,0.032
-5.100E-07,0.008
-5.000E-07,0.020
-4.900E-07,0.044
-4.800E-07,0.056
-4.700E-07,0.064
-4.600E-07,0.044
-4.500E-07,0.020
-4.400E-07,-0.008
-4.300E-07,-0.028
-4.200E-07,-0.056
-4.100E-07,-0.048
-4.000E-07,-0.032
-3.900E-07,0.004
-3.800E-07,0.024
-3.700E-07,0.012
-3.600E-07,0.012
-3.500E-07,-0.004
-3.400E-07,-0.004
-3.300E-07,-0.004
-3.200E-07,0.012
-3.100E-07,0.020
-3.000E-07,0.032
-2.900E-07,0.032
-2.800E-07,0.036
-2.700E-07,0.032
-2.600E-07,0.036
-2.500E-07,0.036
-2.400E-07,0.052
-2.300E-07,0.060
-2.200E-07,0.072
-2.100E-07,0.076
-2.000E-07,0.072
-1.900E-07,0.072
-1.800E-07,0.072
-1.700E-07,0.068
-1.600E-07,0.072
-1.500E-07,0.084
-1.400E-07,0.092
-1.300E-07,0.080
-1.200E-07,0.080
-1.100E-07,0.040
-1.000E-07,0.044
-9.000E-08,0.028
-8.000E-08,0.068
-7.000E-08,-0.088
-6.000E-08,-0.300
-5.000E-08,-0.500
-4.000E-08,-0.512
-3.000E-08,-0.244
-2.000E-08,0.024
-1.000E-08,0.360
0.000E+00,0.388
1.000E-08,0.156
2.000E-08,-0.056
3.000E-08,-0.260
4.000E-08,-0.312
5.000E-08,-0.164
6.000E-08,0.060
7.000E-08,0.256
8.000E-08,0.292
9.000E-08,0.156
1.000E-07,-0.028
1.100E-07,-0.200
1.200E-07,-0.228
1.300E-07,-0.124
1.400E-07,0.044
1.500E-07,0.180
1.600E-07,0.220
1.700E-07,0.136
1.800E-07,-0.016
1.900E-07,-0.112
2.000E-07,-0.144
2.100E-07,-0.084
2.200E-07,0.020
2.300E-07,0.104
2.400E-07,0.140
2.500E-07,0.124
2.600E-07,0.036
2.700E-07,-0.044
2.800E-07,-0.084
2.900E-07,-0.064
3.000E-07,0.016
3.100E-07,0.088
3.200E-07,0.132
3.300E-07,0.124
3.400E-07,0.084
3.500E-07,0.000
3.600E-07,-0.024
3.700E-07,-0.012
3.800E-07,0.040
3.900E-07,0.124
4.000E-07,0.164
4.100E-07,0.176
4.200E-07,0.132
4.300E-07,0.064
4.400E-07,0.024
4.500E-07,-0.004
4.600E-07,-0.040
4.700E-07,-0.072
4.800E-07,-0.132
4.900E-07,-0.132
5.000E-07,-0.116
5.100E-07,-0.088
5.200E-07,-0.020
5.300E-07,-0.004
5.400E-07,0.044
5.500E-07,0.052
5.600E-07,0.016
5.700E-07,0.008
5.800E-07,0.000
5.900E-07,0.020
6.000E-07,0.024
6.100E-07,0.024
6.200E-07,0.060
6.300E-07,0.080
6.400E-07,0.080
6.500E-07,0.072
6.600E-07,0.076
6.700E-07,0.064
6.800E-07,0.064
6.900E-07,0.080
7.000E-07,0.020
7.100E-07,-0.036
7.200E-07,-0.084
7.300E-07,-0.156
7.400E-07,-0.196
7.500E-07,-0.196
7.600E-07,-0.056
7.700E-07,-0.056
7.800E-07,-0.032
7.900E-07,0.016
8.000E-07,0.064
8.100E-07,0.068
8.200E-07,0.008
8.300E-07,-0.016
8.400E-07,0.000
8.500E-07,0.036
8.600E-07,0.020
8.700E-07,0.036
8.800E-07,-0.028
8.900E-07,-0.024
9.000E-07,0.000
9.100E-07,0.092
9.200E-07,-0.052
9.300E-07,0.024
9.400E-07,0.056
9.500E-07,0.000
9.600E-07,-0.056
9.700E-07,-0.108
9.800E-07,0.000
9.900E-07,0.020
1.000E-06,0.112
1.010E-06,0.044
1.020E-06,0.056
1.030E-06,-0.008
1.040E-06,-0.044
1.050E-06,-0.024
1.060E-06,0.020
1.070E-06,0.092
1.080E-06,0.096
1.090E-06,0.068
1.100E-06,-0.020
1.110E-06,-0.052
1.120E-06,-0.072
1.130E-06,-0.048
1.140E-06,-0.004
1.150E-06,0.040
1.160E-06,0.076
1.170E-06,0.100
1.180E-06,0.004
1.190E-06,-0.056
1.200E-06,-0.144
1.210E-06,-0.140
1.220E-06,-0.052
1.230E-06,0.040
1.240E-06,0.124
1.250E-06,0.132
1.260E-06,0.112
1.270E-06,0.044
1.280E-06,0.004
1.290E-06,-0.024
1.300E-06,-0.004
1.310E-06,0.024
1.320E-06,0.072
1.330E-06,0.088
1.340E-06,0.080
1.350E-06,0.028
1.360E-06,-0.024
1.370E-06,-0.068
1.380E-06,-0.040
1.390E-06,0.012
1.400E-06,0.060
1.410E-06,0.120
1.420E-06,0.140
1.430E-06,0.128
1.440E-06,0.084
1.450E-06,0.056
1.460E-06,0.044
1.470E-06,0.060
1.480E-06,0.100
1.490E-06,0.084
1.500E-06,0.068
1.510E-06,-0.120
1.520E-06,-0.248
1.530E-06,-0.360
1.540E-06,-0.388
1.550E-06,-0.112
1.560E-06,0.048
1.570E-06,0.224
1.580E-06,0.224
1.590E-06,0.024
1.600E-06,-0.072
1.610E-06,-0.396
1.620E-06,-0.340
1.630E-06,-0.188
1.640E-06,0.084
1.650E-06,0.296
1.660E-06,0.268
1.670E-06,0.060
1.680E-06,-0.072
1.690E-06,-0.276
1.700E-06,-0.248
1.710E-06,-0.064
1.720E-06,0.052
1.730E-06,0.092
1.740E-06,0.160
1.750E-06,0.128
1.760E-06,-0.028
1.770E-06,-0.108
1.780E-06,-0.140
1.790E-06,-0.040
1.800E-06,0.032
1.810E-06,0.096
1.820E-06,0.008
1.830E-06,-0.004
1.840E-06,-0.028
1.850E-06,-0.024
1.860E-06,-0.004
1.870E-06,0.016
1.880E-06,0.012
1.890E-06,0.024
1.900E-06,0.056
1.910E-06,0.056
1.920E-06,0.044
1.930E-06,0.028
1.940E-06,0.024
1.950E-06,0.024
1.960E-06,0.008
1.970E-06,-0.004
1.980E-06,-0.040
1.990E-06,-0.036
2.000E-06,-0.008
2.010E-06,0.040
2.020E-06,0.056
2.030E-06,0.068
2.040E-06,0.020
2.050E-06,0.024
2.060E-06,-0.052
2.070E-06,-0.104
2.080E-06,-0.088
2.090E-06,-0.072
2.100E-06,0.028
2.110E-06,0.068
2.120E-06,0.100
2.130E-06,0.076
2.140E-06,0.036
2.150E-06,-0.032
2.160E-06,-0.028
2.170E-06,-0.012
2.180E-06,0.024
2.190E-06,0.108
2.200E-06,0.144
2.210E-06,0.124
2.220E-06,0.056
2.230E-06,0.036
2.240E-06,0.040
2.250E-06,0.080
2.260E-06,0.108
2.270E-06,0.132
2.280E-06,0.116
2.290E-06,0.096
2.300E-06,0.060
2.310E-06,0.008
2.320E-06,-0.004
2.330E-06,0.012
2.340E-06,0.036
2.350E-06,0.072
2.360E-06,0.112
2.370E-06,0.100
2.380E-06,0.072
2.390E-06,0.044
2.400E-06,0.028
2.410E-06,0.040
2.420E-06,0.052
2.430E-06,0.072
2.440E-06,0.108
2.450E-06,0.096
2.460E-06,0.072
2.470E-06,0.048
2.480E-06,0.048
2.490E-06,0.028
2.500E-06,0.048
2.510E-06,0.068
2.520E-06,0.104
2.530E-06,0.156
2.540E-06,0.136
2.550E-06,0.040
2.560E-06,-0.072
2.570E-06,-0.124
2.580E-06,-0.156
2.590E-06,-0.176
2.600E-06,-0.172
2.610E-06,-0.184
2.620E-06,-0.056
2.630E-06,-0.052
2.640E-06,0.048
2.650E-06,-0.004
2.660E-06,-0.072
2.670E-06,-0.156
2.680E-06,-0.168
2.690E-06,0.000
2.700E-06,0.048
2.710E-06,0.136
2.720E-06,0.032
2.730E-06,0.140
2.740E-06,0.108
2.750E-06,0.020
2.760E-06,-0.104
2.770E-06,-0.180
2.780E-06,0.000
2.790E-06,0.100
2.800E-06,0.192
2.810E-06,0.060
2.820E-06,0.008
2.830E-06,-0.088
2.840E-06,-0.156
2.850E-06,-0.108
2.860E-06,-0.044
2.870E-06,0.036
2.880E-06,0.112
2.890E-06,0.088
2.900E-06,0.112
2.910E-06,-0.052
2.920E-06,0.024
2.930E-06,0.060
2.940E-06,0.140
2.950E-06,0.212
2.960E-06,0.200
2.970E-06,0.140
2.980E-06,0.040
2.990E-06,-0.012
3.000E-06,-0.076
3.010E-06,-0.020
3.020E-06,-0.008
3.030E-06,0.064
3.040E-06,0.056
3.050E-06,0.060
3.060E-06,0.048
3.070E-06,0.056
3.080E-06,0.060
3.090E-06,0.112
3.100E-06,0.212
3.110E-06,0.240
3.120E-06,0.260
3.130E-06,0.196
3.140E-06,0.132
3.150E-06,0.044
3.160E-06,0.168
3.170E-06,0.168
3.180E-06,0.220
3.190E-06,0.080
3.200E-06,0.000
3.210E-06,0.008
3.220E-06,0.064
3.230E-06,-0.036
3.240E-06,-0.004
3.250E-06,-0.512
3.260E-06,-0.512
3.270E-06,-0.512
3.280E-06,-0.512
3.290E-06,-0.168
3.300E-06,0.540
3.310E-06,0.536
3.320E-06,0.536
3.330E-06,-0.340
3.340E-06,-0.512
3.350E-06,-0.512
3.360E-06,-0.512
3.370E-06,0.276
3.380E-06,0.540
3.390E-06,0.540
3.400E-06,0.492
3.410E-06,-0.088
3.420E-06,-0.508
3.430E-06,-0.508
3.440E-06,-0.356
3.450E-06,0.116
3.460E-06,0.536
3.470E-06,0.536
3.480E-06,0.424
3.490E-06,0.012
3.500E-06,-0.364
3.510E-06,-0.408
3.520E-06,-0.256
3.530E-06,0.152
3.540E-06,0.416
3.550E-06,0.472
3.560E-06,0.308
3.570E-06,0.016
3.580E-06,-0.216
3.590E-06,-0.300
3.600E-06,-0.252
3.610E-06,-0.024
3.620E-06,0.284
3.630E-06,0.456
3.640E-06,0.312
3.650E-06,0.140
3.660E-06,-0.096
3.670E-06,-0.180
3.680E-06,-0.064
3.690E-06,0.032
3.700E-06,0.240
3.710E-06,0.368
3.720E-06,0.392
3.730E-06,0.304
3.740E-06,0.144
3.750E-06,0.024
3.760E-06,0.000
3.770E-06,0.076
3.780E-06,0.208
3.790E-06,0.212
3.800E-06,0.100
3.810E-06,-0.024
3.820E-06,-0.104
3.830E-06,0.004
3.840E-06,0.120
3.850E-06,0.228
3.860E-06,0.272
3.870E-06,0.004
3.880E-06,-0.380
3.890E-06,-0.508
3.900E-06,-0.512
3.910E-06,-0.400
3.920E-06,0.112
3.930E-06,0.540
3.940E-06,0.468
3.950E-06,-0.384
3.960E-06,-0.512
3.970E-06,-0.512
3.980E-06,-0.512
3.990E-06,-0.292
4.000E-06,0.276
4.010E-06,0.544
4.020E-06,0.476
4.030E-06,0.028
4.040E-06,-0.496
4.050E-06,-0.512
4.060E-06,-0.388
4.070E-06,0.028
4.080E-06,0.340
4.090E-06,0.536
4.100E-06,0.540
4.110E-06,0.276
4.120E-06,-0.016
4.130E-06,-0.224
4.140E-06,-0.192
4.150E-06,-0.044
4.160E-06,0.324
4.170E-06,0.520
4.180E-06,0.540
4.190E-06,0.356
4.200E-06,0.140
4.210E-06,-0.036
4.220E-06,-0.088
4.230E-06,0.012
4.240E-06,0.184
4.250E-06,0.376
4.260E-06,0.424
4.270E-06,0.376
4.280E-06,0.208
4.290E-06,0.076
4.300E-06,-0.008
4.310E-06,0.056
4.320E-06,0.176
4.330E-06,0.324
4.340E-06,0.388
4.350E-06,0.356
4.360E-06,0.272
4.370E-06,0.136
4.380E-06,0.068
4.390E-06,0.040
4.400E-06,0.076
4.410E-06,0.104
4.420E-06,0.000
4.430E-06,-0.120
4.440E-06,-0.136
4.450E-06,-0.164
4.460E-06,-0.072
4.470E-06,0.140
4.480E-06,0.324
4.490E-06,0.304
4.500E-06,0.292
4.510E-06,0.288
4.520E-06,0.052
4.530E-06,-0.332
4.540E-06,-0.336
4.550E-06,-0.512
4.560E-06,-0.512
4.570E-06,-0.508
4.580E-06,-0.508
4.590E-06,-0.416
4.600E-06,-0.484
4.610E-06,-0.348
4.620E-06,-0.148
4.630E-06,0.100
4.640E-06,-0.116
4.650E-06,0.288
4.660E-06,0.252
4.670E-06,0.180
4.680E-06,0.096
4.690E-06,0.072
4.700E-06,0.212
4.710E-06,0.184
4.720E-06,0.348
4.730E-06,0.300
4.740E-06,0.336
4.750E-06,0.204
4.760E-06,0.136
4.770E-06,0.032
4.780E-06,0.120
4.790E-06,0.188
4.800E-06,0.296
4.810E-06,0.348
4.820E-06,0.324
4.830E-06,0.260
4.840E-06,0.176
4.850E-06,0.136
4.860E-06,0.120
4.870E-06,0.188
4.880E-06,0.228
4.890E-06,0.300
4.900E-06,0.292
4.910E-06,0.260
4.920E-06,0.176
4.930E-06,0.104
4.940E-06,0.076
4.950E-06,0.076
4.960E-06,0.124
4.970E-06,0.192
4.980E-06,0.244
4.990E-06,0.260
5.000E-06,0.232
5.010E-06,0.164
5.020E-06,0.120
5.030E-06,0.080
5.040E-06,0.104
5.050E-06,0.204
5.060E-06,0.280
5.070E-06,0.324
5.080E-06,0.292
5.090E-06,0.220
5.100E-06,0.120
5.110E-06,0.056
5.120E-06,0.044
5.130E-06,0.112
5.140E-06,0.192
5.150E-06,0.236
5.160E-06,0.244
5.170E-06,0.176
5.180E-06,0.136
5.190E-06,0.124
5.200E-06,0.152
5.210E-06,0.208
5.220E-06,0.236
5.230E-06,0.232
5.240E-06,0.208
5.250E-06,0.180
5.260E-06,0.148
5.270E-06,0.148
5.280E-06,0.160
5.290E-06,0.208
5.300E-06,0.232
5.310E-06,0.248
5.320E-06,0.240
5.330E-06,0.220
5.340E-06,0.196
5.350E-06,0.192
5.360E-06,0.192
5.370E-06,0.204
5.380E-06,0.224
5.390E-06,0.232
5.400E-06,0.232
5.410E-06,0.224
5.420E-06,0.196
5.430E-06,0.188
5.440E-06,0.188
5.450E-06,0.196
5.460E-06,0.208
5.470E-06,0.216
5.480E-06,0.224
5.490E-06,0.220
5.500E-06,0.204
5.510E-06,0.192
5.520E-06,0.188
5.530E-06,0.192
5.540E-06,0.204
5.550E-06,0.208
5.560E-06,0.224
5.570E-06,0.216
5.580E-06,0.204
5.590E-06,0.200
5.600E-06,0.196
5.610E-06,0.196
5.620E-06,0.200
5.630E-06,0.212
5.640E-06,0.208
5.650E-06,0.208
5.660E-06,0.208
5.670E-06,0.196
5.680E-06,0.192
5.690E-06,0.192
5.700E-06,0.196
5.710E-06,0.200
5.720E-06,0.204
5.730E-06,0.204
5.740E-06,0.196
5.750E-06,0.192
5.760E-06,0.188
5.770E-06,0.192
5.780E-06,0.196
5.790E-06,0.192
5.800E-06,0.196
5.810E-06,0.200
5.820E-06,0.196
5.830E-06,0.192
5.840E-06,0.188
5.850E-06,0.192
5.860E-06,0.196
5.870E-06,0.196
5.880E-06,0.196
5.890E-06,0.196
5.900E-06,0.196
5.910E-06,0.192
5.920E-06,0.180
5.930E-06,0.188
5.940E-06,0.196
5.950E-06,0.192
5.960E-06,0.196
5.970E-06,0.196
5.980E-06,0.188
5.990E-06,0.184
6.000E-06,0.192
6.010E-06,0.184
6.020E-06,0.184
6.030E-06,0.184
6.040E-06,0.188
6.050E-06,0.188
6.060E-06,0.188
6.070E-06,0.192
6.080E-06,0.180
6.090E-06,0.172
6.100E-06,0.176
6.110E-06,0.176
6.120E-06,0.180
6.130E-06,0.180
6.140E-06,0.180
6.150E-06,0.184
6.160E-06,0.184
6.170E-06,0.184
6.180E-06,0.180
6.190E-06,0.172
6.200E-06,0.176
6.210E-06,0.176
6.220E-06,0.180
6.230E-06,0.172
6.240E-06,0.172
6.250E-06,0.180
6.260E-06,0.188
6.270E-06,0.176
6.280E-06,0.176
6.290E-06,0.168
6.300E-06,0.164
6.310E-06,0.164
6.320E-06,0.160
6.330E-06,0.172
6.340E-06,0.172
6.350E-06,0.176
6.360E-06,0.172
6.370E-06,0.172
6.380E-06,0.172
6.390E-06,0.168
6.400E-06,0.172
6.410E-06,0.172
6.420E-06,0.172
6.430E-06,0.164
6.440E-06,0.164
6.450E-06,0.156
6.460E-06,0.156
6.470E-06,0.168
6.480E-06,0.172
6.490E-06,0.180
6.500E-06,0.172
6.510E-06,0.156
6.520E-06,0.152
6.530E-06,0.152
6.540E-06,0.148
6.550E-06,0.160
6.560E-06,0.164
6.570E-06,0.176
6.580E-06,0.164
6.590E-06,0.152
6.600E-06,0.156
6.610E-06,0.156
6.620E-06,0.160
6.630E-06,0.156
6.640E-06,0.160
6.650E-06,0.168
6.660E-06,0.168
6.670E-06,0.160
6.680E-06,0.152
6.690E-06,0.144
6.700E-06,0.152
6.710E-06,0.152
6.720E-06,0.156
6.730E-06,0.164
6.740E-06,0.164
6.750E-06,0.152
6.760E-06,0.156
6.770E-06,0.156
6.780E-06,0.156
6.790E-06,0.152
6.800E-06,0.152
6.810E-06,0.152
6.820E-06,0.156
6.830E-06,0.152
6.840E-06,0.148
6.850E-06,0.156
6.860E-06,0.160
6.870E-06,0.160
6.880E-06,0.156
6.890E-06,0.148
6.900E-06,0.148
6.910E-06,0.152
6.920E-06,0.156
6.930E-06,0.152
6.940E-06,0.152
6.950E-06,0.156
6.960E-06,0.144
6.970E-06,0.144
6.980E-06,0.136
6.990E-06,0.132
7.000E-06,0.140
7.010E-06,0.144
7.020E-06,0.156
7.030E-06,0.160
7.040E-06,0.148
7.050E-06,0.144
7.060E-06,0.144
7.070E-06,0.140
7.080E-06,0.144
7.090E-06,0.140
7.100E-06,0.156
7.110E-06,0.152
7.120E-06,0.148
7.130E-06,0.140
7.140E-06,0.132
7.150E-06,0.128
7.160E-06,0.128
7.170E-06,0.128
7.180E-06,0.136
7.190E-06,0.140
7.200E-06,0.144
7.210E-06,0.140
7.220E-06,0.136
7.230E-06,0.124
7.240E-06,0.124
7.250E-06,0.124
7.260E-06,0.132
7.270E-06,0.144
7.280E-06,0.144
7.290E-06,0.140
7.300E-06,0.136
7.310E-06,0.128
7.320E-06,0.120
7.330E-06,0.120
7.340E-06,0.124
7.350E-06,0.128
7.360E-06,0.132
7.370E-06,0.136
7.380E-06,0.128
7.390E-06,0.128
7.400E-06,0.124
7.410E-06,0.120
7.420E-06,0.128
7.430E-06,0.128
7.440E-06,0.128
7.450E-06,0.132
7.460E-06,0.132
7.470E-06,0.128
7.480E-06,0.124
7.490E-06,0.120
7.500E-06,0.124
7.510E-06,0.124
7.520E-06,0.128
7.530E-06,0.128
7.540E-06,0.132
7.550E-06,0.124
7.560E-06,0.124
7.570E-06,0.120
7.580E-06,0.112
7.590E-06,0.112
7.600E-06,0.120
7.610E-06,0.124
7.620E-06,0.124
7.630E-06,0.112
7.640E-06,0.112
7.650E-06,0.108
7.660E-06,0.108
7.670E-06,0.108
7.680E-06,0.116
7.690E-06,0.116
7.700E-06,0.120
7.710E-06,0.120
7.720E-06,0.116
7.730E-06,0.108
7.740E-06,0.112
7.750E-06,0.112
7.760E-06,0.108
7.770E-06,0.108
7.780E-06,0.108
7.790E-06,0.108
