mediciones/Mediciones filtradas (saque las feas)/6-10/9.4/WaveData5694.csv

#timebase=2000000(ps)
,#voltbase=200000(mv/100)
#size=4000
-4.200E-06,0.064
-4.190E-06,-0.056
-4.180E-06,-0.248
-4.170E-06,-0.064
-4.160E-06,0.184
-4.150E-06,0.160
-4.140E-06,0.256
-4.130E-06,0.144
-4.120E-06,-0.128
-4.110E-06,-0.136
-4.100E-06,-0.120
-4.090E-06,-0.064
-4.080E-06,0.112
-4.070E-06,0.064
-4.060E-06,-0.008
-4.050E-06,-0.056
-4.040E-06,-0.128
-4.030E-06,-0.152
-4.020E-06,-0.064
-4.010E-06,-0.072
-4.000E-06,0.024
-3.990E-06,0.016
-3.980E-06,0.032
-3.970E-06,-0.008
-3.960E-06,-0.112
-3.950E-06,-0.112
-3.940E-06,-0.136
-3.930E-06,-0.048
-3.920E-06,-0.032
-3.910E-06,-0.040
-3.900E-06,-0.024
-3.890E-06,-0.040
-3.880E-06,-0.064
-3.870E-06,-0.120
-3.860E-06,-0.160
-3.850E-06,-0.200
-3.840E-06,-0.168
-3.830E-06,-0.128
-3.820E-06,-0.064
-3.810E-06,-0.184
-3.800E-06,-0.112
-3.790E-06,-0.224
-3.780E-06,-0.072
-3.770E-06,0.048
-3.760E-06,0.040
-3.750E-06,0.144
-3.740E-06,0.056
-3.730E-06,-0.016
-3.720E-06,0.024
-3.710E-06,0.088
-3.700E-06,0.144
-3.690E-06,0.272
-3.680E-06,0.224
-3.670E-06,0.224
-3.660E-06,0.192
-3.650E-06,0.128
-3.640E-06,0.160
-3.630E-06,0.168
-3.620E-06,0.136
-3.610E-06,0.128
-3.600E-06,0.040
-3.590E-06,-0.008
-3.580E-06,-0.088
-3.570E-06,-0.128
-3.560E-06,-0.096
-3.550E-06,-0.088
-3.540E-06,-0.064
-3.530E-06,-0.032
-3.520E-06,-0.160
-3.510E-06,-0.344
-3.500E-06,-0.472
-3.490E-06,-0.584
-3.480E-06,-0.416
-3.470E-06,-0.272
-3.460E-06,0.104
-3.450E-06,0.368
-3.440E-06,0.552
-3.430E-06,0.496
-3.420E-06,0.400
-3.410E-06,0.360
-3.400E-06,0.320
-3.390E-06,0.480
-3.380E-06,0.592
-3.370E-06,0.736
-3.360E-06,0.776
-3.350E-06,0.680
-3.340E-06,0.576
-3.330E-06,0.520
-3.320E-06,0.432
-3.310E-06,0.488
-3.300E-06,0.488
-3.290E-06,0.512
-3.280E-06,0.544
-3.270E-06,0.288
-3.260E-06,-0.056
-3.250E-06,-0.352
-3.240E-06,-0.512
-3.230E-06,-0.400
-3.220E-06,-0.192
-3.210E-06,0.064
-3.200E-06,0.200
-3.190E-06,0.112
-3.180E-06,-0.192
-3.170E-06,-0.384
-3.160E-06,-0.432
-3.150E-06,-0.288
-3.140E-06,0.016
-3.130E-06,0.216
-3.120E-06,0.352
-3.110E-06,0.280
-3.100E-06,0.136
-3.090E-06,-0.056
-3.080E-06,-0.088
-3.070E-06,-0.048
-3.060E-06,0.056
-3.050E-06,0.168
-3.040E-06,0.144
-3.030E-06,0.072
-3.020E-06,-0.072
-3.010E-06,-0.256
-3.000E-06,-0.336
-2.990E-06,-0.408
-2.980E-06,-0.216
-2.970E-06,-0.136
-2.960E-06,-0.016
-2.950E-06,0.112
-2.940E-06,0.088
-2.930E-06,0.136
-2.920E-06,0.192
-2.910E-06,0.168
-2.900E-06,0.048
-2.890E-06,0.080
-2.880E-06,0.056
-2.870E-06,0.176
-2.860E-06,0.384
-2.850E-06,0.400
-2.840E-06,0.344
-2.830E-06,0.208
-2.820E-06,0.064
-2.810E-06,-0.112
-2.800E-06,-0.056
-2.790E-06,-0.064
-2.780E-06,-0.032
-2.770E-06,0.040
-2.760E-06,-0.120
-2.750E-06,-0.096
-2.740E-06,-0.176
-2.730E-06,-0.232
-2.720E-06,-0.152
-2.710E-06,-0.104
-2.700E-06,0.000
-2.690E-06,0.104
-2.680E-06,0.072
-2.670E-06,0.056
-2.660E-06,-0.056
-2.650E-06,-0.136
-2.640E-06,-0.312
-2.630E-06,-0.408
-2.620E-06,-0.344
-2.610E-06,-0.480
-2.600E-06,-0.112
-2.590E-06,0.056
-2.580E-06,0.368
-2.570E-06,0.440
-2.560E-06,0.688
-2.550E-06,0.752
-2.540E-06,0.576
-2.530E-06,0.744
-2.520E-06,-0.160
-2.510E-06,-0.304
-2.500E-06,-0.312
-2.490E-06,-0.736
-2.480E-06,-0.080
-2.470E-06,0.336
-2.460E-06,0.480
-2.450E-06,0.888
-2.440E-06,0.376
-2.430E-06,0.048
-2.420E-06,0.336
-2.410E-06,0.424
-2.400E-06,0.648
-2.390E-06,1.080
-2.380E-06,0.968
-2.370E-06,0.776
-2.360E-06,0.680
-2.350E-06,-0.064
-2.340E-06,0.376
-2.330E-06,0.400
-2.320E-06,0.480
-2.310E-06,0.536
-2.300E-06,0.136
-2.290E-06,-0.232
-2.280E-06,-0.632
-2.270E-06,-0.536
-2.260E-06,-0.656
-2.250E-06,-0.168
-2.240E-06,-0.200
-2.230E-06,-0.208
-2.220E-06,-0.320
-2.210E-06,-0.648
-2.200E-06,-0.736
-2.190E-06,-0.688
-2.180E-06,-0.400
-2.170E-06,-0.144
-2.160E-06,0.088
-2.150E-06,0.136
-2.140E-06,0.256
-2.130E-06,0.200
-2.120E-06,0.016
-2.110E-06,0.168
-2.100E-06,0.232
-2.090E-06,0.264
-2.080E-06,0.312
-2.070E-06,0.336
-2.060E-06,0.088
-2.050E-06,-0.080
-2.040E-06,-0.376
-2.030E-06,-0.408
-2.020E-06,-0.152
-2.010E-06,-0.032
-2.000E-06,0.176
-1.990E-06,0.264
-1.980E-06,0.344
-1.970E-06,0.328
-1.960E-06,0.376
-1.950E-06,0.192
-1.940E-06,0.232
-1.930E-06,0.216
-1.920E-06,0.248
-1.910E-06,0.368
-1.900E-06,0.392
-1.890E-06,0.296
-1.880E-06,0.336
-1.870E-06,0.256
-1.860E-06,0.352
-1.850E-06,0.456
-1.840E-06,0.440
-1.830E-06,0.440
-1.820E-06,0.336
-1.810E-06,0.256
-1.800E-06,0.128
-1.790E-06,0.128
-1.780E-06,0.192
-1.770E-06,0.168
-1.760E-06,0.168
-1.750E-06,0.088
-1.740E-06,-0.120
-1.730E-06,-0.248
-1.720E-06,-0.536
-1.710E-06,-0.728
-1.700E-06,-0.776
-1.690E-06,-0.872
-1.680E-06,-0.728
-1.670E-06,-0.408
-1.660E-06,-0.432
-1.650E-06,-0.264
-1.640E-06,-0.448
-1.630E-06,-0.616
-1.620E-06,-0.264
-1.610E-06,-0.464
-1.600E-06,-0.200
-1.590E-06,0.048
-1.580E-06,0.136
-1.570E-06,0.336
-1.560E-06,0.232
-1.550E-06,0.088
-1.540E-06,-0.064
-1.530E-06,-0.368
-1.520E-06,-0.296
-1.510E-06,-0.272
-1.500E-06,-0.344
-1.490E-06,-0.008
-1.480E-06,-0.072
-1.470E-06,-0.008
-1.460E-06,0.112
-1.450E-06,-0.064
-1.440E-06,0.064
-1.430E-06,0.152
-1.420E-06,-0.096
-1.410E-06,-0.048
-1.400E-06,0.112
-1.390E-06,-0.016
-1.380E-06,0.336
-1.370E-06,0.240
-1.360E-06,0.848
-1.350E-06,0.720
-1.340E-06,0.632
-1.330E-06,0.784
-1.320E-06,0.712
-1.310E-06,0.536
-1.300E-06,0.496
-1.290E-06,0.216
-1.280E-06,-0.200
-1.270E-06,-0.392
-1.260E-06,-0.336
-1.250E-06,-0.040
-1.240E-06,0.368
-1.230E-06,-0.112
-1.220E-06,0.368
-1.210E-06,-0.088
-1.200E-06,-0.600
-1.190E-06,-0.832
-1.180E-06,-1.032
-1.170E-06,-1.040
-1.160E-06,-1.032
-1.150E-06,-1.040
-1.140E-06,-1.032
-1.130E-06,-1.040
-1.120E-06,-1.048
-1.110E-06,-1.048
-1.100E-06,-1.032
-1.090E-06,-1.032
-1.080E-06,-1.040
-1.070E-06,-1.032
-1.060E-06,-1.040
-1.050E-06,-1.032
-1.040E-06,-1.040
-1.030E-06,-1.040
-1.020E-06,-1.048
-1.010E-06,-1.040
-1.000E-06,-1.040
-9.900E-07,-1.040
-9.800E-07,-0.648
-9.700E-07,-0.448
-9.600E-07,-0.112
-9.500E-07,-0.232
-9.400E-07,-0.664
-9.300E-07,-0.752
-9.200E-07,-0.744
-9.100E-07,-0.584
-9.000E-07,-0.304
-8.900E-07,-0.264
-8.800E-07,-0.424
-8.700E-07,-0.728
-8.600E-07,-1.032
-8.500E-07,-1.040
-8.400E-07,-1.032
-8.300E-07,-0.744
-8.200E-07,-0.520
-8.100E-07,-0.296
-8.000E-07,-0.296
-7.900E-07,-0.488
-7.800E-07,-0.696
-7.700E-07,-0.880
-7.600E-07,-0.952
-7.500E-07,-0.944
-7.400E-07,-0.904
-7.300E-07,-0.904
-7.200E-07,-0.920
-7.100E-07,-0.992
-7.000E-07,-1.048
-6.900E-07,-1.040
-6.800E-07,-1.048
-6.700E-07,-1.024
-6.600E-07,-0.864
-6.500E-07,-0.696
-6.400E-07,-0.512
-6.300E-07,-0.480
-6.200E-07,-0.424
-6.100E-07,-0.440
-6.000E-07,-0.408
-5.900E-07,-0.288
-5.800E-07,-0.176
-5.700E-07,-0.048
-5.600E-07,0.128
-5.500E-07,0.080
-5.400E-07,0.104
-5.300E-07,0.240
-5.200E-07,0.032
-5.100E-07,0.128
-5.000E-07,0.080
-4.900E-07,-0.120
-4.800E-07,0.144
-4.700E-07,0.656
-4.600E-07,0.016
-4.500E-07,-0.432
-4.400E-07,-0.352
-4.300E-07,-0.360
-4.200E-07,0.344
-4.100E-07,0.640
-4.000E-07,1.080
-3.900E-07,1.080
-3.800E-07,-1.040
-3.700E-07,0.848
-3.600E-07,-0.432
-3.500E-07,0.168
-3.400E-07,1.088
-3.300E-07,-0.416
-3.200E-07,1.080
-3.100E-07,0.712
-3.000E-07,-0.424
-2.900E-07,1.000
-2.800E-07,-0.376
-2.700E-07,-0.096
-2.600E-07,-0.336
-2.500E-07,-1.040
-2.400E-07,0.088
-2.300E-07,0.192
-2.200E-07,0.888
-2.100E-07,1.080
-2.000E-07,0.456
-1.900E-07,0.224
-1.800E-07,-0.400
-1.700E-07,-0.120
-1.600E-07,0.160
-1.500E-07,0.224
-1.400E-07,0.640
-1.300E-07,0.608
-1.200E-07,0.320
-1.100E-07,0.328
-1.000E-07,-0.056
-9.000E-08,-0.096
-8.000E-08,-0.088
-7.000E-08,-0.040
-6.000E-08,0.064
-5.000E-08,0.320
-4.000E-08,0.224
-3.000E-08,0.128
-2.000E-08,0.080
-1.000E-08,0.024
0.000E+00,0.056
1.000E-08,0.000
2.000E-08,-0.160
3.000E-08,-0.264
4.000E-08,-0.384
5.000E-08,-0.432
6.000E-08,-0.448
7.000E-08,-0.464
8.000E-08,-0.448
9.000E-08,-0.464
1.000E-07,-0.400
1.100E-07,-0.352
1.200E-07,-0.328
1.300E-07,-0.216
1.400E-07,-0.264
1.500E-07,-0.248
1.600E-07,-0.280
1.700E-07,-0.336
1.800E-07,-0.312
1.900E-07,-0.400
2.000E-07,-0.272
2.100E-07,-0.408
2.200E-07,-0.384
2.300E-07,-0.208
2.400E-07,-0.528
2.500E-07,-0.336
2.600E-07,-0.496
2.700E-07,-0.624
2.800E-07,-0.376
2.900E-07,-0.616
3.000E-07,-0.480
3.100E-07,-0.496
3.200E-07,-0.800
3.300E-07,-0.712
3.400E-07,-0.672
3.500E-07,-0.600
3.600E-07,0.104
3.700E-07,-0.232
3.800E-07,0.384
3.900E-07,0.976
4.000E-07,0.792
4.100E-07,1.080
4.200E-07,1.080
4.300E-07,1.080
4.400E-07,1.088
4.500E-07,0.064
4.600E-07,0.352
4.700E-07,0.712
4.800E-07,0.464
4.900E-07,1.080
5.000E-07,1.072
5.100E-07,0.624
5.200E-07,-0.024
5.300E-07,-0.992
5.400E-07,-0.672
5.500E-07,-0.344
5.600E-07,-0.064
5.700E-07,0.464
5.800E-07,0.408
5.900E-07,0.216
6.000E-07,0.144
6.100E-07,0.016
6.200E-07,0.032
6.300E-07,0.264
6.400E-07,0.328
6.500E-07,0.432
6.600E-07,0.392
6.700E-07,0.296
6.800E-07,0.192
6.900E-07,-0.008
7.000E-07,-0.144
7.100E-07,-0.320
7.200E-07,-0.448
7.300E-07,-0.568
7.400E-07,-0.696
7.500E-07,-0.824
7.600E-07,-0.912
7.700E-07,-1.000
7.800E-07,-1.040
7.900E-07,-1.032
8.000E-07,-1.032
8.100E-07,-1.040
8.200E-07,-0.944
8.300E-07,-0.832
8.400E-07,-0.752
8.500E-07,-0.688
8.600E-07,-0.656
8.700E-07,-0.600
8.800E-07,-0.456
8.900E-07,-0.280
9.000E-07,-0.136
9.100E-07,-0.040
9.200E-07,0.000
9.300E-07,0.040
9.400E-07,0.048
9.500E-07,0.088
9.600E-07,0.112
9.700E-07,0.128
9.800E-07,0.192
9.900E-07,0.240
1.000E-06,0.256
1.010E-06,0.272
1.020E-06,0.224
1.030E-06,0.152
1.040E-06,0.072
1.050E-06,0.000
1.060E-06,-0.048
1.070E-06,-0.088
1.080E-06,-0.112
1.090E-06,-0.144
1.100E-06,-0.216
1.110E-06,-0.272
1.120E-06,-0.304
1.130E-06,-0.312
1.140E-06,-0.224
1.150E-06,-0.144
1.160E-06,-0.096
1.170E-06,-0.072
1.180E-06,-0.072
1.190E-06,-0.048
1.200E-06,-0.016
1.210E-06,0.048
1.220E-06,0.096
1.230E-06,0.120
1.240E-06,0.120
1.250E-06,0.120
1.260E-06,0.048
1.270E-06,-0.040
1.280E-06,-0.152
1.290E-06,-0.232
1.300E-06,-0.272
1.310E-06,-0.272
1.320E-06,-0.272
1.330E-06,-0.296
1.340E-06,-0.352
1.350E-06,-0.440
1.360E-06,-0.544
1.370E-06,-0.632
1.380E-06,-0.680
1.390E-06,-0.680
1.400E-06,-0.656
1.410E-06,-0.672
1.420E-06,-0.672
1.430E-06,-0.696
1.440E-06,-0.704
1.450E-06,-0.680
1.460E-06,-0.616
1.470E-06,-0.568
1.480E-06,-0.512
1.490E-06,-0.456
1.500E-06,-0.400
1.510E-06,-0.360
1.520E-06,-0.296
1.530E-06,-0.256
1.540E-06,-0.232
1.550E-06,-0.216
1.560E-06,-0.208
1.570E-06,-0.200
1.580E-06,-0.224
1.590E-06,-0.224
1.600E-06,-0.232
1.610E-06,-0.216
1.620E-06,-0.208
1.630E-06,-0.176
1.640E-06,-0.144
1.650E-06,-0.112
1.660E-06,-0.104
1.670E-06,-0.128
1.680E-06,-0.136
1.690E-06,-0.160
1.700E-06,-0.136
1.710E-06,-0.064
1.720E-06,0.008
1.730E-06,0.032
1.740E-06,0.008
1.750E-06,-0.056
1.760E-06,-0.112
1.770E-06,-0.128
1.780E-06,-0.160
1.790E-06,-0.168
1.800E-06,-0.192
1.810E-06,-0.264
1.820E-06,-0.336
1.830E-06,-0.384
1.840E-06,-0.432
1.850E-06,-0.448
1.860E-06,-0.456
1.870E-06,-0.480
1.880E-06,-0.504
1.890E-06,-0.544
1.900E-06,-0.544
1.910E-06,-0.552
1.920E-06,-0.544
1.930E-06,-0.472
1.940E-06,-0.440
1.950E-06,-0.368
1.960E-06,-0.296
1.970E-06,-0.248
1.980E-06,-0.152
1.990E-06,-0.096
2.000E-06,-0.040
2.010E-06,0.008
2.020E-06,0.080
2.030E-06,0.088
2.040E-06,0.080
2.050E-06,0.072
2.060E-06,0.000
2.070E-06,-0.064
2.080E-06,-0.112
2.090E-06,-0.168
2.100E-06,-0.216
2.110E-06,-0.264
2.120E-06,-0.352
2.130E-06,-0.416
2.140E-06,-0.488
2.150E-06,-0.528
2.160E-06,-0.528
2.170E-06,-0.544
2.180E-06,-0.528
2.190E-06,-0.488
2.200E-06,-0.432
2.210E-06,-0.376
2.220E-06,-0.304
2.230E-06,-0.272
2.240E-06,-0.248
2.250E-06,-0.200
2.260E-06,-0.136
2.270E-06,-0.056
2.280E-06,0.016
2.290E-06,0.096
2.300E-06,0.112
2.310E-06,0.120
2.320E-06,0.112
2.330E-06,0.136
2.340E-06,0.176
2.350E-06,0.176
2.360E-06,0.176
2.370E-06,0.120
2.380E-06,0.048
2.390E-06,-0.032
2.400E-06,-0.080
2.410E-06,-0.104
2.420E-06,-0.120
2.430E-06,-0.128
2.440E-06,-0.152
2.450E-06,-0.200
2.460E-06,-0.208
2.470E-06,-0.240
2.480E-06,-0.264
2.490E-06,-0.296
2.500E-06,-0.328
2.510E-06,-0.336
2.520E-06,-0.368
2.530E-06,-0.376
2.540E-06,-0.368
2.550E-06,-0.360
2.560E-06,-0.336
2.570E-06,-0.336
2.580E-06,-0.288
2.590E-06,-0.264
2.600E-06,-0.272
2.610E-06,-0.248
2.620E-06,-0.264
2.630E-06,-0.232
2.640E-06,-0.168
2.650E-06,-0.120
2.660E-06,-0.040
2.670E-06,-0.016
2.680E-06,0.008
2.690E-06,-0.016
2.700E-06,-0.056
2.710E-06,-0.088
2.720E-06,-0.096
2.730E-06,-0.112
2.740E-06,-0.112
2.750E-06,-0.096
2.760E-06,-0.112
2.770E-06,-0.112
2.780E-06,-0.104
2.790E-06,-0.136
2.800E-06,-0.176
2.810E-06,-0.184
2.820E-06,-0.192
2.830E-06,-0.168
2.840E-06,-0.160
2.850E-06,-0.184
2.860E-06,-0.200
2.870E-06,-0.232
2.880E-06,-0.224
2.890E-06,-0.208
2.900E-06,-0.232
2.910E-06,-0.272
2.920E-06,-0.272
2.930E-06,-0.280
2.940E-06,-0.248
2.950E-06,-0.184
2.960E-06,-0.152
2.970E-06,-0.096
2.980E-06,-0.016
2.990E-06,0.040
3.000E-06,0.160
3.010E-06,0.192
3.020E-06,0.192
3.030E-06,0.176
3.040E-06,0.120
3.050E-06,0.072
3.060E-06,-0.016
3.070E-06,-0.104
3.080E-06,-0.160
3.090E-06,-0.200
3.100E-06,-0.184
3.110E-06,-0.184
3.120E-06,-0.168
3.130E-06,-0.168
3.140E-06,-0.176
3.150E-06,-0.168
3.160E-06,-0.200
3.170E-06,-0.184
3.180E-06,-0.192
3.190E-06,-0.168
3.200E-06,-0.152
3.210E-06,-0.168
3.220E-06,-0.192
3.230E-06,-0.224
3.240E-06,-0.272
3.250E-06,-0.336
3.260E-06,-0.360
3.270E-06,-0.384
3.280E-06,-0.392
3.290E-06,-0.392
3.300E-06,-0.408
3.310E-06,-0.384
3.320E-06,-0.344
3.330E-06,-0.312
3.340E-06,-0.224
3.350E-06,-0.176
3.360E-06,-0.112
3.370E-06,-0.080
3.380E-06,-0.096
3.390E-06,-0.088
3.400E-06,-0.064
3.410E-06,-0.016
3.420E-06,0.064
3.430E-06,0.176
3.440E-06,0.312
3.450E-06,0.448
3.460E-06,0.536
3.470E-06,0.600
3.480E-06,0.640
3.490E-06,0.640
3.500E-06,0.632
3.510E-06,0.632
3.520E-06,0.656
3.530E-06,0.664
3.540E-06,0.672
3.550E-06,0.680
3.560E-06,0.648
3.570E-06,0.600
3.580E-06,0.536
3.590E-06,0.408
3.600E-06,0.272
3.610E-06,0.112
3.620E-06,-0.024
3.630E-06,-0.144
3.640E-06,-0.192
3.650E-06,-0.192
3.660E-06,-0.144
3.670E-06,-0.064
3.680E-06,0.000
3.690E-06,0.064
3.700E-06,0.096
3.710E-06,0.104
3.720E-06,0.136
3.730E-06,0.168
3.740E-06,0.208
3.750E-06,0.224
3.760E-06,0.208
3.770E-06,0.168
3.780E-06,0.096
3.790E-06,0.040
3.800E-06,-0.008
3.810E-06,-0.064
3.820E-06,-0.064
3.830E-06,-0.072
3.840E-06,-0.040
3.850E-06,0.000
3.860E-06,0.040
3.870E-06,0.088
3.880E-06,0.128
3.890E-06,0.152
3.900E-06,0.168
3.910E-06,0.144
3.920E-06,0.088
3.930E-06,0.032
3.940E-06,-0.056
3.950E-06,-0.120
3.960E-06,-0.160
3.970E-06,-0.192
3.980E-06,-0.176
3.990E-06,-0.144
4.000E-06,-0.088
4.010E-06,-0.032
4.020E-06,0.008
4.030E-06,0.056
4.040E-06,0.080
4.050E-06,0.096
4.060E-06,0.128
4.070E-06,0.160
4.080E-06,0.184
4.090E-06,0.200
4.100E-06,0.200
4.110E-06,0.184
4.120E-06,0.160
4.130E-06,0.152
4.140E-06,0.144
4.150E-06,0.160
4.160E-06,0.152
4.170E-06,0.160
4.180E-06,0.168
4.190E-06,0.152
4.200E-06,0.160
4.210E-06,0.168
4.220E-06,0.192
4.230E-06,0.248
4.240E-06,0.248
4.250E-06,0.216
4.260E-06,0.184
4.270E-06,0.128
4.280E-06,0.096
4.290E-06,0.088
4.300E-06,0.096
4.310E-06,0.120
4.320E-06,0.144
4.330E-06,0.152
4.340E-06,0.128
4.350E-06,0.088
4.360E-06,0.008
4.370E-06,-0.064
4.380E-06,-0.096
4.390E-06,-0.080
4.400E-06,-0.024
4.410E-06,0.064
4.420E-06,0.160
4.430E-06,0.240
4.440E-06,0.336
4.450E-06,0.392
4.460E-06,0.432
4.470E-06,0.448
4.480E-06,0.480
4.490E-06,0.504
4.500E-06,0.536
4.510E-06,0.552
4.520E-06,0.544
4.530E-06,0.536
4.540E-06,0.504
4.550E-06,0.480
4.560E-06,0.448
4.570E-06,0.432
4.580E-06,0.416
4.590E-06,0.408
4.600E-06,0.416
4.610E-06,0.424
4.620E-06,0.424
4.630E-06,0.464
4.640E-06,0.472
4.650E-06,0.496
4.660E-06,0.528
4.670E-06,0.536
4.680E-06,0.552
4.690E-06,0.552
4.700E-06,0.544
4.710E-06,0.520
4.720E-06,0.488
4.730E-06,0.440
4.740E-06,0.400
4.750E-06,0.352
4.760E-06,0.304
4.770E-06,0.264
4.780E-06,0.224
4.790E-06,0.200
4.800E-06,0.136
4.810E-06,0.096
4.820E-06,0.024
4.830E-06,-0.032
4.840E-06,-0.112
4.850E-06,-0.168
4.860E-06,-0.216
4.870E-06,-0.216
4.880E-06,-0.200
4.890E-06,-0.168
4.900E-06,-0.136
4.910E-06,-0.136
4.920E-06,-0.112
4.930E-06,-0.088
4.940E-06,-0.032
4.950E-06,0.032
4.960E-06,0.120
4.970E-06,0.184
4.980E-06,0.224
4.990E-06,0.272
5.000E-06,0.304
5.010E-06,0.368
5.020E-06,0.432
5.030E-06,0.512
5.040E-06,0.616
5.050E-06,0.728
5.060E-06,0.832
5.070E-06,0.920
5.080E-06,1.000
5.090E-06,1.056
5.100E-06,1.080
5.110E-06,1.088
5.120E-06,1.080
5.130E-06,1.080
5.140E-06,1.080
5.150E-06,1.080
5.160E-06,1.072
5.170E-06,1.080
5.180E-06,1.088
5.190E-06,1.080
5.200E-06,1.088
5.210E-06,1.080
5.220E-06,1.088
5.230E-06,1.088
5.240E-06,1.080
5.250E-06,1.088
5.260E-06,1.080
5.270E-06,1.080
5.280E-06,1.080
5.290E-06,1.080
5.300E-06,1.088
5.310E-06,1.088
5.320E-06,1.080
5.330E-06,1.080
5.340E-06,1.072
5.350E-06,1.080
5.360E-06,1.080
5.370E-06,1.080
5.380E-06,1.072
5.390E-06,1.080
5.400E-06,1.088
5.410E-06,1.080
5.420E-06,1.072
5.430E-06,1.080
5.440E-06,1.080
5.450E-06,1.088
5.460E-06,1.088
5.470E-06,1.080
5.480E-06,1.088
5.490E-06,1.080
5.500E-06,1.072
5.510E-06,1.024
5.520E-06,0.976
5.530E-06,0.928
5.540E-06,0.896
5.550E-06,0.872
5.560E-06,0.768
5.570E-06,0.720
5.580E-06,0.664
5.590E-06,0.624
5.600E-06,0.600
5.610E-06,0.568
5.620E-06,0.568
5.630E-06,0.560
5.640E-06,0.544
5.650E-06,0.552
5.660E-06,0.560
5.670E-06,0.568
5.680E-06,0.576
5.690E-06,0.592
5.700E-06,0.592
5.710E-06,0.584
5.720E-06,0.544
5.730E-06,0.512
5.740E-06,0.464
5.750E-06,0.432
5.760E-06,0.400
5.770E-06,0.392
5.780E-06,0.400
5.790E-06,0.424
5.800E-06,0.456
5.810E-06,0.480
5.820E-06,0.496
5.830E-06,0.488
5.840E-06,0.448
5.850E-06,0.432
5.860E-06,0.416
5.870E-06,0.400
5.880E-06,0.384
5.890E-06,0.360
5.900E-06,0.344
5.910E-06,0.320
5.920E-06,0.296
5.930E-06,0.256
5.940E-06,0.232
5.950E-06,0.200
5.960E-06,0.160
5.970E-06,0.136
5.980E-06,0.128
5.990E-06,0.112
6.000E-06,0.104
6.010E-06,0.120
6.020E-06,0.136
6.030E-06,0.160
6.040E-06,0.192
6.050E-06,0.200
6.060E-06,0.224
6.070E-06,0.256
6.080E-06,0.264
6.090E-06,0.288
6.100E-06,0.296
6.110E-06,0.296
6.120E-06,0.296
6.130E-06,0.280
6.140E-06,0.288
6.150E-06,0.280
6.160E-06,0.264
6.170E-06,0.272
6.180E-06,0.256
6.190E-06,0.248
6.200E-06,0.256
6.210E-06,0.264
6.220E-06,0.280
6.230E-06,0.304
6.240E-06,0.320
6.250E-06,0.344
6.260E-06,0.368
6.270E-06,0.376
6.280E-06,0.392
6.290E-06,0.400
6.300E-06,0.400
6.310E-06,0.400
6.320E-06,0.400
6.330E-06,0.400
6.340E-06,0.392
6.350E-06,0.384
6.360E-06,0.384
6.370E-06,0.384
6.380E-06,0.400
6.390E-06,0.400
6.400E-06,0.400
6.410E-06,0.392
6.420E-06,0.384
6.430E-06,0.368
6.440E-06,0.376
6.450E-06,0.360
6.460E-06,0.360
6.470E-06,0.352
6.480E-06,0.336
6.490E-06,0.336
6.500E-06,0.344
6.510E-06,0.368
6.520E-06,0.376
6.530E-06,0.360
6.540E-06,0.360
6.550E-06,0.344
6.560E-06,0.336
6.570E-06,0.344
6.580E-06,0.344
6.590E-06,0.344
6.600E-06,0.360
6.610E-06,0.336
6.620E-06,0.352
6.630E-06,0.360
6.640E-06,0.368
6.650E-06,0.360
6.660E-06,0.368
6.670E-06,0.360
6.680E-06,0.344
6.690E-06,0.336
6.700E-06,0.320
6.710E-06,0.320
6.720E-06,0.304
6.730E-06,0.304
6.740E-06,0.280
6.750E-06,0.256
6.760E-06,0.248
6.770E-06,0.232
6.780E-06,0.216
6.790E-06,0.232
6.800E-06,0.224
6.810E-06,0.224
6.820E-06,0.224
6.830E-06,0.216
6.840E-06,0.216
6.850E-06,0.208
6.860E-06,0.216
6.870E-06,0.200
6.880E-06,0.200
6.890E-06,0.192
6.900E-06,0.184
6.910E-06,0.192
6.920E-06,0.200
6.930E-06,0.200
6.940E-06,0.208
6.950E-06,0.200
6.960E-06,0.208
6.970E-06,0.232
6.980E-06,0.240
6.990E-06,0.256
7.000E-06,0.264
7.010E-06,0.296
7.020E-06,0.304
7.030E-06,0.296
7.040E-06,0.304
7.050E-06,0.312
7.060E-06,0.320
7.070E-06,0.320
7.080E-06,0.312
7.090E-06,0.312
7.100E-06,0.320
7.110E-06,0.320
7.120E-06,0.304
7.130E-06,0.304
7.140E-06,0.304
7.150E-06,0.296
7.160E-06,0.288
7.170E-06,0.272
7.180E-06,0.264
7.190E-06,0.264
7.200E-06,0.248
7.210E-06,0.248
7.220E-06,0.232
7.230E-06,0.240
7.240E-06,0.240
7.250E-06,0.240
7.260E-06,0.240
7.270E-06,0.248
7.280E-06,0.240
7.290E-06,0.248
7.300E-06,0.240
7.310E-06,0.240
7.320E-06,0.232
7.330E-06,0.224
7.340E-06,0.240
7.350E-06,0.232
7.360E-06,0.224
7.370E-06,0.240
7.380E-06,0.240
7.390E-06,0.256
7.400E-06,0.264
7.410E-06,0.264
7.420E-06,0.272
7.430E-06,0.272
7.440E-06,0.264
7.450E-06,0.264
7.460E-06,0.264
7.470E-06,0.264
7.480E-06,0.264
7.490E-06,0.272
7.500E-06,0.296
7.510E-06,0.288
7.520E-06,0.288
7.530E-06,0.304
7.540E-06,0.288
7.550E-06,0.296
7.560E-06,0.280
7.570E-06,0.288
7.580E-06,0.264
7.590E-06,0.256
7.600E-06,0.256
7.610E-06,0.256
7.620E-06,0.232
7.630E-06,0.240
7.640E-06,0.240
7.650E-06,0.232
7.660E-06,0.224
