mediciones/Mediciones filtradas (saque las feas)/6-10/9.4/WaveData5692.csv

#timebase=2000000(ps)
,#voltbase=200000(mv/100)
#size=4000
-4.200E-06,0.120
-4.190E-06,0.112
-4.180E-06,0.104
-4.170E-06,0.088
-4.160E-06,0.056
-4.150E-06,0.040
-4.140E-06,0.024
-4.130E-06,0.024
-4.120E-06,0.000
-4.110E-06,-0.024
-4.100E-06,0.016
-4.090E-06,-0.016
-4.080E-06,-0.016
-4.070E-06,-0.056
-4.060E-06,-0.048
-4.050E-06,-0.048
-4.040E-06,-0.072
-4.030E-06,-0.040
-4.020E-06,-0.040
-4.010E-06,-0.008
-4.000E-06,0.008
-3.990E-06,0.040
-3.980E-06,0.032
-3.970E-06,0.040
-3.960E-06,0.056
-3.950E-06,0.104
-3.940E-06,0.080
-3.930E-06,0.120
-3.920E-06,0.088
-3.910E-06,0.072
-3.900E-06,0.040
-3.890E-06,0.000
-3.880E-06,0.048
-3.870E-06,-0.032
-3.860E-06,0.024
-3.850E-06,-0.008
-3.840E-06,-0.048
-3.830E-06,-0.024
-3.820E-06,-0.040
-3.810E-06,-0.008
-3.800E-06,0.000
-3.790E-06,0.016
-3.780E-06,0.016
-3.770E-06,0.064
-3.760E-06,0.032
-3.750E-06,0.096
-3.740E-06,0.104
-3.730E-06,0.112
-3.720E-06,0.160
-3.710E-06,0.128
-3.700E-06,0.136
-3.690E-06,0.120
-3.680E-06,0.144
-3.670E-06,0.088
-3.660E-06,0.080
-3.650E-06,0.088
-3.640E-06,0.032
-3.630E-06,0.008
-3.620E-06,0.008
-3.610E-06,-0.040
-3.600E-06,0.112
-3.590E-06,-0.136
-3.580E-06,-0.072
-3.570E-06,-0.096
-3.560E-06,-0.120
-3.550E-06,0.008
-3.540E-06,0.032
-3.530E-06,0.064
-3.520E-06,0.000
-3.510E-06,-0.048
-3.500E-06,-0.096
-3.490E-06,-0.032
-3.480E-06,0.016
-3.470E-06,0.112
-3.460E-06,0.128
-3.450E-06,0.104
-3.440E-06,0.080
-3.430E-06,0.032
-3.420E-06,0.064
-3.410E-06,0.024
-3.400E-06,0.104
-3.390E-06,0.040
-3.380E-06,0.032
-3.370E-06,0.080
-3.360E-06,0.080
-3.350E-06,-0.072
-3.340E-06,0.024
-3.330E-06,0.000
-3.320E-06,-0.088
-3.310E-06,0.128
-3.300E-06,-0.048
-3.290E-06,0.288
-3.280E-06,-0.368
-3.270E-06,-0.232
-3.260E-06,-0.280
-3.250E-06,-0.728
-3.240E-06,-0.008
-3.230E-06,-0.176
-3.220E-06,0.040
-3.210E-06,0.128
-3.200E-06,-0.016
-3.190E-06,0.104
-3.180E-06,0.136
-3.170E-06,0.264
-3.160E-06,0.416
-3.150E-06,0.496
-3.140E-06,0.400
-3.130E-06,0.408
-3.120E-06,0.336
-3.110E-06,0.320
-3.100E-06,0.360
-3.090E-06,0.344
-3.080E-06,0.296
-3.070E-06,0.272
-3.060E-06,0.104
-3.050E-06,0.000
-3.040E-06,-0.064
-3.030E-06,-0.152
-3.020E-06,-0.192
-3.010E-06,-0.192
-3.000E-06,-0.224
-2.990E-06,-0.216
-2.980E-06,-0.256
-2.970E-06,-0.304
-2.960E-06,-0.304
-2.950E-06,-0.312
-2.940E-06,-0.240
-2.930E-06,-0.136
-2.920E-06,0.128
-2.910E-06,0.040
-2.900E-06,0.064
-2.890E-06,0.280
-2.880E-06,0.176
-2.870E-06,0.344
-2.860E-06,0.600
-2.850E-06,0.480
-2.840E-06,0.376
-2.830E-06,0.232
-2.820E-06,-0.032
-2.810E-06,0.032
-2.800E-06,0.072
-2.790E-06,0.176
-2.780E-06,0.280
-2.770E-06,0.136
-2.760E-06,-0.064
-2.750E-06,-0.200
-2.740E-06,-0.336
-2.730E-06,-0.272
-2.720E-06,-0.160
-2.710E-06,-0.064
-2.700E-06,-0.040
-2.690E-06,-0.016
-2.680E-06,-0.072
-2.670E-06,-0.104
-2.660E-06,-0.016
-2.650E-06,0.016
-2.640E-06,0.120
-2.630E-06,0.192
-2.620E-06,0.208
-2.610E-06,0.184
-2.600E-06,0.168
-2.590E-06,0.104
-2.580E-06,0.064
-2.570E-06,0.104
-2.560E-06,0.088
-2.550E-06,0.096
-2.540E-06,0.064
-2.530E-06,0.008
-2.520E-06,-0.048
-2.510E-06,-0.104
-2.500E-06,-0.128
-2.490E-06,-0.144
-2.480E-06,-0.120
-2.470E-06,-0.104
-2.460E-06,-0.056
-2.450E-06,0.008
-2.440E-06,0.008
-2.430E-06,0.072
-2.420E-06,0.088
-2.410E-06,0.168
-2.400E-06,0.200
-2.390E-06,0.168
-2.380E-06,0.168
-2.370E-06,0.176
-2.360E-06,0.224
-2.350E-06,0.328
-2.340E-06,0.384
-2.330E-06,0.400
-2.320E-06,0.368
-2.310E-06,0.168
-2.300E-06,0.136
-2.290E-06,0.128
-2.280E-06,0.208
-2.270E-06,0.280
-2.260E-06,0.200
-2.250E-06,0.096
-2.240E-06,0.000
-2.230E-06,-0.032
-2.220E-06,0.144
-2.210E-06,0.256
-2.200E-06,0.312
-2.190E-06,0.168
-2.180E-06,-0.048
-2.170E-06,-0.208
-2.160E-06,-0.272
-2.150E-06,-0.136
-2.140E-06,0.000
-2.130E-06,0.088
-2.120E-06,0.088
-2.110E-06,0.008
-2.100E-06,-0.056
-2.090E-06,-0.096
-2.080E-06,-0.072
-2.070E-06,-0.024
-2.060E-06,-0.008
-2.050E-06,0.000
-2.040E-06,-0.008
-2.030E-06,-0.056
-2.020E-06,-0.048
-2.010E-06,-0.080
-2.000E-06,-0.064
-1.990E-06,-0.040
-1.980E-06,-0.032
-1.970E-06,-0.032
-1.960E-06,-0.024
-1.950E-06,-0.056
-1.940E-06,-0.056
-1.930E-06,-0.032
-1.920E-06,-0.032
-1.910E-06,0.024
-1.900E-06,0.008
-1.890E-06,0.032
-1.880E-06,0.040
-1.870E-06,0.032
-1.860E-06,0.048
-1.850E-06,0.112
-1.840E-06,0.088
-1.830E-06,0.168
-1.820E-06,0.128
-1.810E-06,0.080
-1.800E-06,0.104
-1.790E-06,0.112
-1.780E-06,0.112
-1.770E-06,0.128
-1.760E-06,0.112
-1.750E-06,0.136
-1.740E-06,0.144
-1.730E-06,0.120
-1.720E-06,0.136
-1.710E-06,0.112
-1.700E-06,0.064
-1.690E-06,0.040
-1.680E-06,0.000
-1.670E-06,0.008
-1.660E-06,0.008
-1.650E-06,0.024
-1.640E-06,0.008
-1.630E-06,-0.016
-1.620E-06,-0.024
-1.610E-06,-0.056
-1.600E-06,-0.024
-1.590E-06,-0.008
-1.580E-06,0.016
-1.570E-06,0.032
-1.560E-06,0.024
-1.550E-06,0.016
-1.540E-06,0.040
-1.530E-06,0.088
-1.520E-06,0.104
-1.510E-06,0.120
-1.500E-06,0.136
-1.490E-06,0.072
-1.480E-06,0.080
-1.470E-06,0.136
-1.460E-06,0.040
-1.450E-06,0.160
-1.440E-06,0.064
-1.430E-06,0.032
-1.420E-06,0.024
-1.410E-06,-0.032
-1.400E-06,0.064
-1.390E-06,0.120
-1.380E-06,0.184
-1.370E-06,0.208
-1.360E-06,0.336
-1.350E-06,0.112
-1.340E-06,-0.096
-1.330E-06,0.224
-1.320E-06,-0.256
-1.310E-06,0.128
-1.300E-06,0.240
-1.290E-06,0.000
-1.280E-06,0.328
-1.270E-06,0.232
-1.260E-06,0.136
-1.250E-06,0.168
-1.240E-06,0.088
-1.230E-06,0.088
-1.220E-06,0.128
-1.210E-06,0.136
-1.200E-06,0.136
-1.190E-06,0.224
-1.180E-06,0.144
-1.170E-06,0.160
-1.160E-06,0.232
-1.150E-06,0.176
-1.140E-06,0.208
-1.130E-06,0.240
-1.120E-06,0.184
-1.110E-06,0.176
-1.100E-06,0.176
-1.090E-06,0.136
-1.080E-06,0.152
-1.070E-06,0.160
-1.060E-06,0.136
-1.050E-06,0.120
-1.040E-06,0.104
-1.030E-06,0.048
-1.020E-06,0.024
-1.010E-06,0.056
-1.000E-06,0.032
-9.900E-07,0.056
-9.800E-07,0.032
-9.700E-07,0.024
-9.600E-07,0.008
-9.500E-07,0.024
-9.400E-07,0.064
-9.300E-07,0.176
-9.200E-07,0.216
-9.100E-07,0.328
-9.000E-07,0.200
-8.900E-07,-0.088
-8.800E-07,-0.136
-8.700E-07,-0.320
-8.600E-07,-0.032
-8.500E-07,0.208
-8.400E-07,0.416
-8.300E-07,0.600
-8.200E-07,0.320
-8.100E-07,-0.008
-8.000E-07,-0.288
-7.900E-07,-0.216
-7.800E-07,0.000
-7.700E-07,0.144
-7.600E-07,0.312
-7.500E-07,0.112
-7.400E-07,0.016
-7.300E-07,0.000
-7.200E-07,-0.032
-7.100E-07,0.128
-7.000E-07,0.120
-6.900E-07,0.016
-6.800E-07,-0.120
-6.700E-07,0.288
-6.600E-07,-0.264
-6.500E-07,0.208
-6.400E-07,0.184
-6.300E-07,-0.168
-6.200E-07,0.528
-6.100E-07,0.192
-6.000E-07,0.328
-5.900E-07,0.384
-5.800E-07,-0.120
-5.700E-07,0.000
-5.600E-07,-0.016
-5.500E-07,0.016
-5.400E-07,0.272
-5.300E-07,0.280
-5.200E-07,0.200
-5.100E-07,0.288
-5.000E-07,0.184
-4.900E-07,0.304
-4.800E-07,0.440
-4.700E-07,0.512
-4.600E-07,0.600
-4.500E-07,0.624
-4.400E-07,0.616
-4.300E-07,0.480
-4.200E-07,0.368
-4.100E-07,0.240
-4.000E-07,0.088
-3.900E-07,0.064
-3.800E-07,0.192
-3.700E-07,0.264
-3.600E-07,0.344
-3.500E-07,0.312
-3.400E-07,0.192
-3.300E-07,0.184
-3.200E-07,0.256
-3.100E-07,0.312
-3.000E-07,0.440
-2.900E-07,0.488
-2.800E-07,0.496
-2.700E-07,0.536
-2.600E-07,0.480
-2.500E-07,0.416
-2.400E-07,0.392
-2.300E-07,0.424
-2.200E-07,0.440
-2.100E-07,0.488
-2.000E-07,0.496
-1.900E-07,0.480
-1.800E-07,0.472
-1.700E-07,0.408
-1.600E-07,0.376
-1.500E-07,0.360
-1.400E-07,0.360
-1.300E-07,0.376
-1.200E-07,0.424
-1.100E-07,0.400
-1.000E-07,0.384
-9.000E-08,0.312
-8.000E-08,0.264
-7.000E-08,0.208
-6.000E-08,0.024
-5.000E-08,0.320
-4.000E-08,-0.064
-3.000E-08,-0.488
-2.000E-08,-0.296
-1.000E-08,-1.032
0.000E+00,-0.120
1.000E-08,0.400
2.000E-08,0.648
3.000E-08,1.080
4.000E-08,0.344
5.000E-08,-0.072
6.000E-08,-0.712
7.000E-08,-1.040
8.000E-08,-0.200
9.000E-08,0.384
1.000E-07,0.848
1.100E-07,0.968
1.200E-07,0.464
1.300E-07,-0.120
1.400E-07,-0.368
1.500E-07,-0.288
1.600E-07,-0.096
1.700E-07,0.432
1.800E-07,0.400
1.900E-07,0.424
2.000E-07,0.272
2.100E-07,-0.248
2.200E-07,-0.240
2.300E-07,-0.320
2.400E-07,-0.320
2.500E-07,0.032
2.600E-07,0.168
2.700E-07,0.200
2.800E-07,0.280
2.900E-07,0.104
3.000E-07,0.088
3.100E-07,0.184
3.200E-07,0.232
3.300E-07,0.312
3.400E-07,0.512
3.500E-07,0.464
3.600E-07,0.528
3.700E-07,0.544
3.800E-07,0.280
3.900E-07,0.200
4.000E-07,0.008
4.100E-07,-0.096
4.200E-07,0.144
4.300E-07,0.248
4.400E-07,0.336
4.500E-07,0.320
4.600E-07,0.088
4.700E-07,0.056
4.800E-07,-0.048
4.900E-07,-0.072
5.000E-07,0.088
5.100E-07,-0.136
5.200E-07,0.000
5.300E-07,0.040
5.400E-07,-0.016
5.500E-07,0.272
5.600E-07,0.240
5.700E-07,0.360
5.800E-07,0.456
5.900E-07,0.488
6.000E-07,0.552
6.100E-07,0.664
6.200E-07,0.632
6.300E-07,0.776
6.400E-07,0.608
6.500E-07,0.456
6.600E-07,0.408
6.700E-07,0.408
6.800E-07,0.504
6.900E-07,0.696
7.000E-07,0.768
7.100E-07,0.840
7.200E-07,0.624
7.300E-07,0.080
7.400E-07,0.400
7.500E-07,-0.016
7.600E-07,-0.432
7.700E-07,-0.024
7.800E-07,-0.696
7.900E-07,-0.312
8.000E-07,-0.184
8.100E-07,-0.136
8.200E-07,0.032
8.300E-07,-0.160
8.400E-07,-0.352
8.500E-07,-0.264
8.600E-07,-0.312
8.700E-07,0.160
8.800E-07,0.352
8.900E-07,0.312
9.000E-07,0.464
9.100E-07,0.336
9.200E-07,0.456
9.300E-07,0.200
9.400E-07,0.400
9.500E-07,0.744
9.600E-07,0.760
9.700E-07,0.816
9.800E-07,0.664
9.900E-07,0.040
1.000E-06,-0.024
1.010E-06,-0.272
1.020E-06,-0.104
1.030E-06,0.296
1.040E-06,0.320
1.050E-06,0.224
1.060E-06,-0.064
1.070E-06,-0.360
1.080E-06,-0.368
1.090E-06,-0.200
1.100E-06,-0.120
1.110E-06,0.136
1.120E-06,0.192
1.130E-06,0.104
1.140E-06,0.328
1.150E-06,0.208
1.160E-06,0.208
1.170E-06,0.296
1.180E-06,-0.240
1.190E-06,-0.256
1.200E-06,-0.328
1.210E-06,-0.672
1.220E-06,-0.400
1.230E-06,-0.720
1.240E-06,-0.720
1.250E-06,-0.504
1.260E-06,-0.520
1.270E-06,-0.192
1.280E-06,-0.008
1.290E-06,-0.096
1.300E-06,-0.096
1.310E-06,-0.296
1.320E-06,-0.376
1.330E-06,-0.344
1.340E-06,-0.288
1.350E-06,-0.192
1.360E-06,-0.104
1.370E-06,0.016
1.380E-06,-0.120
1.390E-06,-0.136
1.400E-06,-0.288
1.410E-06,-0.384
1.420E-06,-0.400
1.430E-06,-0.328
1.440E-06,-0.224
1.450E-06,-0.304
1.460E-06,-0.368
1.470E-06,-0.616
1.480E-06,-0.944
1.490E-06,-1.032
1.500E-06,-1.032
1.510E-06,-1.040
1.520E-06,-1.032
1.530E-06,-1.032
1.540E-06,-1.040
1.550E-06,-1.032
1.560E-06,-1.040
1.570E-06,-1.048
1.580E-06,-1.032
1.590E-06,-1.032
1.600E-06,-1.040
1.610E-06,-1.040
1.620E-06,-1.040
1.630E-06,-1.040
1.640E-06,-1.040
1.650E-06,-1.048
1.660E-06,-1.040
1.670E-06,-1.048
1.680E-06,-1.008
1.690E-06,-0.848
1.700E-06,-1.040
1.710E-06,-1.032
1.720E-06,-1.040
1.730E-06,-1.040
1.740E-06,-1.040
1.750E-06,-0.824
1.760E-06,-0.576
1.770E-06,-0.480
1.780E-06,-1.032
1.790E-06,-1.040
1.800E-06,-1.048
1.810E-06,-0.864
1.820E-06,0.000
1.830E-06,0.160
1.840E-06,0.200
1.850E-06,-0.128
1.860E-06,-0.480
1.870E-06,-0.752
1.880E-06,-0.784
1.890E-06,-0.712
1.900E-06,-0.544
1.910E-06,-0.496
1.920E-06,-0.496
1.930E-06,-0.648
1.940E-06,-0.896
1.950E-06,-1.040
1.960E-06,-1.032
1.970E-06,-1.040
1.980E-06,-0.952
1.990E-06,-0.920
2.000E-06,-0.968
2.010E-06,-0.976
2.020E-06,-1.048
2.030E-06,-1.040
2.040E-06,-0.928
2.050E-06,-0.856
2.060E-06,-0.056
2.070E-06,-0.120
2.080E-06,0.144
2.090E-06,0.120
2.100E-06,-0.248
2.110E-06,-0.312
2.120E-06,-0.648
2.130E-06,-0.664
2.140E-06,-0.080
2.150E-06,0.232
2.160E-06,0.712
2.170E-06,0.720
2.180E-06,0.608
2.190E-06,0.616
2.200E-06,0.816
2.210E-06,0.944
2.220E-06,1.080
2.230E-06,1.080
2.240E-06,1.000
2.250E-06,1.088
2.260E-06,1.016
2.270E-06,0.992
2.280E-06,1.080
2.290E-06,0.848
2.300E-06,0.712
2.310E-06,0.480
2.320E-06,0.024
2.330E-06,-0.136
2.340E-06,-0.400
2.350E-06,-0.592
2.360E-06,-0.432
2.370E-06,-0.488
2.380E-06,-0.520
2.390E-06,-0.472
2.400E-06,-0.632
2.410E-06,-0.728
2.420E-06,-0.664
2.430E-06,-0.800
2.440E-06,-0.696
2.450E-06,-0.488
2.460E-06,-0.512
2.470E-06,-0.368
2.480E-06,-0.264
2.490E-06,-0.224
2.500E-06,-0.088
2.510E-06,0.112
2.520E-06,0.208
2.530E-06,0.384
2.540E-06,0.464
2.550E-06,0.640
2.560E-06,0.824
2.570E-06,0.832
2.580E-06,0.768
2.590E-06,0.640
2.600E-06,0.840
2.610E-06,0.600
2.620E-06,0.536
2.630E-06,0.712
2.640E-06,0.832
2.650E-06,0.904
2.660E-06,1.080
2.670E-06,0.704
2.680E-06,1.088
2.690E-06,1.000
2.700E-06,0.440
2.710E-06,1.024
2.720E-06,1.040
2.730E-06,0.848
2.740E-06,1.080
2.750E-06,1.072
2.760E-06,1.080
2.770E-06,1.080
2.780E-06,1.072
2.790E-06,1.080
2.800E-06,0.616
2.810E-06,0.744
2.820E-06,0.752
2.830E-06,0.696
2.840E-06,0.904
2.850E-06,0.344
2.860E-06,0.048
2.870E-06,-0.752
2.880E-06,-0.600
2.890E-06,-0.592
2.900E-06,-0.288
2.910E-06,-0.136
2.920E-06,-0.448
2.930E-06,-0.568
2.940E-06,-0.720
2.950E-06,-0.512
2.960E-06,-0.024
2.970E-06,0.400
2.980E-06,0.624
2.990E-06,0.896
3.000E-06,0.424
3.010E-06,0.224
3.020E-06,0.064
3.030E-06,-0.032
3.040E-06,0.064
3.050E-06,0.144
3.060E-06,0.256
3.070E-06,0.264
3.080E-06,0.256
3.090E-06,0.224
3.100E-06,0.392
3.110E-06,0.240
3.120E-06,0.304
3.130E-06,0.488
3.140E-06,0.496
3.150E-06,0.512
3.160E-06,0.376
3.170E-06,0.064
3.180E-06,-0.112
3.190E-06,0.248
3.200E-06,0.264
3.210E-06,0.816
3.220E-06,0.768
3.230E-06,-0.128
3.240E-06,-0.216
3.250E-06,-0.120
3.260E-06,-0.424
3.270E-06,1.080
3.280E-06,-1.040
3.290E-06,-1.032
3.300E-06,-1.040
3.310E-06,-1.040
3.320E-06,-0.776
3.330E-06,1.080
3.340E-06,1.088
3.350E-06,1.080
3.360E-06,1.072
3.370E-06,0.512
3.380E-06,-0.680
3.390E-06,-1.032
3.400E-06,0.576
3.410E-06,1.088
3.420E-06,1.080
3.430E-06,1.088
3.440E-06,0.432
3.450E-06,-0.576
3.460E-06,-0.448
3.470E-06,0.560
3.480E-06,1.080
3.490E-06,1.072
3.500E-06,1.080
3.510E-06,0.072
3.520E-06,-0.568
3.530E-06,-1.040
3.540E-06,-1.032
3.550E-06,-1.032
3.560E-06,-0.888
3.570E-06,-0.128
3.580E-06,-0.464
3.590E-06,-1.040
3.600E-06,-1.040
3.610E-06,-1.040
3.620E-06,-1.040
3.630E-06,-0.880
3.640E-06,-0.272
3.650E-06,0.304
3.660E-06,0.736
3.670E-06,0.864
3.680E-06,1.000
3.690E-06,0.600
3.700E-06,0.200
3.710E-06,0.312
3.720E-06,0.232
3.730E-06,0.688
3.740E-06,1.024
3.750E-06,0.928
3.760E-06,0.696
3.770E-06,0.440
3.780E-06,0.208
3.790E-06,0.200
3.800E-06,0.136
3.810E-06,0.248
3.820E-06,0.176
3.830E-06,-0.248
3.840E-06,-0.152
3.850E-06,-0.544
3.860E-06,-0.160
3.870E-06,0.848
3.880E-06,0.944
3.890E-06,1.088
3.900E-06,0.912
3.910E-06,-1.040
3.920E-06,-1.032
3.930E-06,-1.040
3.940E-06,-1.040
3.950E-06,1.080
3.960E-06,1.080
3.970E-06,0.872
3.980E-06,-1.040
3.990E-06,-1.048
4.000E-06,-1.048
4.010E-06,-1.032
4.020E-06,-0.096
4.030E-06,1.088
4.040E-06,1.080
4.050E-06,1.080
4.060E-06,1.080
4.070E-06,1.080
4.080E-06,0.648
4.090E-06,1.080
4.100E-06,1.072
4.110E-06,1.080
4.120E-06,1.088
4.130E-06,1.080
4.140E-06,1.080
4.150E-06,1.072
4.160E-06,1.080
4.170E-06,0.600
4.180E-06,0.360
4.190E-06,0.048
4.200E-06,-0.312
4.210E-06,-0.696
4.220E-06,-1.040
4.230E-06,-1.040
4.240E-06,-1.048
4.250E-06,-1.040
4.260E-06,-1.048
4.270E-06,-1.032
4.280E-06,-1.040
4.290E-06,-1.048
4.300E-06,-1.040
4.310E-06,-1.032
4.320E-06,-1.032
4.330E-06,-1.016
4.340E-06,-0.872
4.350E-06,-0.512
4.360E-06,-0.240
4.370E-06,-0.112
4.380E-06,-0.104
4.390E-06,-0.256
4.400E-06,-0.440
4.410E-06,-0.232
4.420E-06,-0.408
4.430E-06,-0.528
4.440E-06,-0.264
4.450E-06,-1.040
4.460E-06,-1.048
4.470E-06,-1.040
4.480E-06,-1.040
4.490E-06,-0.168
4.500E-06,0.192
4.510E-06,0.568
4.520E-06,1.088
4.530E-06,0.872
4.540E-06,-0.112
4.550E-06,-0.464
4.560E-06,-1.040
4.570E-06,-1.040
4.580E-06,-1.040
4.590E-06,-1.040
4.600E-06,-1.048
4.610E-06,-1.040
4.620E-06,-1.032
4.630E-06,-1.040
4.640E-06,-1.032
4.650E-06,0.744
4.660E-06,0.968
4.670E-06,1.072
4.680E-06,1.080
4.690E-06,1.088
4.700E-06,1.080
4.710E-06,1.088
4.720E-06,0.136
4.730E-06,-0.120
4.740E-06,-0.864
4.750E-06,-1.048
4.760E-06,-1.040
4.770E-06,-1.040
4.780E-06,-1.040
4.790E-06,-1.040
4.800E-06,-1.048
4.810E-06,-1.040
4.820E-06,-1.032
4.830E-06,-1.040
4.840E-06,-1.040
4.850E-06,-1.048
4.860E-06,-1.040
4.870E-06,-1.048
4.880E-06,-1.048
4.890E-06,-1.048
4.900E-06,-1.032
4.910E-06,-1.040
4.920E-06,-1.040
4.930E-06,-1.040
4.940E-06,-1.048
4.950E-06,-1.040
4.960E-06,-1.048
4.970E-06,-1.048
4.980E-06,-1.048
4.990E-06,-1.048
5.000E-06,-1.048
5.010E-06,-1.048
5.020E-06,-1.048
5.030E-06,-1.032
5.040E-06,-1.032
5.050E-06,-1.040
5.060E-06,-1.032
5.070E-06,-1.040
5.080E-06,-1.032
5.090E-06,-0.824
5.100E-06,-0.488
5.110E-06,-0.304
5.120E-06,-0.424
5.130E-06,-0.488
5.140E-06,-0.624
5.150E-06,-0.672
5.160E-06,-0.608
5.170E-06,-0.520
5.180E-06,-0.240
5.190E-06,-0.048
5.200E-06,-0.104
5.210E-06,0.032
5.220E-06,0.128
5.230E-06,0.152
5.240E-06,0.296
5.250E-06,0.288
5.260E-06,0.032
5.270E-06,-0.112
5.280E-06,-0.392
5.290E-06,-0.440
5.300E-06,-0.296
5.310E-06,-0.280
5.320E-06,-0.128
5.330E-06,-0.136
5.340E-06,-0.200
5.350E-06,-0.160
5.360E-06,-0.232
5.370E-06,-0.240
5.380E-06,-0.200
5.390E-06,-0.200
5.400E-06,-0.128
5.410E-06,-0.088
5.420E-06,-0.104
5.430E-06,-0.096
5.440E-06,-0.120
5.450E-06,-0.112
5.460E-06,-0.128
5.470E-06,-0.176
5.480E-06,-0.232
5.490E-06,-0.312
5.500E-06,-0.360
5.510E-06,-0.440
5.520E-06,-0.520
5.530E-06,-0.624
5.540E-06,-0.696
5.550E-06,-0.768
5.560E-06,-0.816
5.570E-06,-0.832
5.580E-06,-0.880
5.590E-06,-0.880
5.600E-06,-0.872
5.610E-06,-0.864
5.620E-06,-0.808
5.630E-06,-0.752
5.640E-06,-0.672
5.650E-06,-0.576
5.660E-06,-0.464
5.670E-06,-0.368
5.680E-06,-0.264
5.690E-06,-0.168
5.700E-06,-0.072
5.710E-06,0.040
5.720E-06,0.160
5.730E-06,0.216
5.740E-06,0.256
5.750E-06,0.280
5.760E-06,0.288
5.770E-06,0.304
5.780E-06,0.328
5.790E-06,0.336
5.800E-06,0.312
5.810E-06,0.296
5.820E-06,0.248
5.830E-06,0.200
5.840E-06,0.136
5.850E-06,0.088
5.860E-06,0.048
5.870E-06,0.024
5.880E-06,0.024
5.890E-06,0.024
5.900E-06,0.048
5.910E-06,0.072
5.920E-06,0.056
5.930E-06,0.048
5.940E-06,0.056
5.950E-06,0.072
5.960E-06,0.104
5.970E-06,0.128
5.980E-06,0.152
5.990E-06,0.176
6.000E-06,0.176
6.010E-06,0.184
6.020E-06,0.176
6.030E-06,0.160
6.040E-06,0.120
6.050E-06,0.048
6.060E-06,-0.024
6.070E-06,-0.088
6.080E-06,-0.136
6.090E-06,-0.152
6.100E-06,-0.168
6.110E-06,-0.184
6.120E-06,-0.200
6.130E-06,-0.216
6.140E-06,-0.224
6.150E-06,-0.264
6.160E-06,-0.272
6.170E-06,-0.320
6.180E-06,-0.352
6.190E-06,-0.384
6.200E-06,-0.392
6.210E-06,-0.376
6.220E-06,-0.384
6.230E-06,-0.376
6.240E-06,-0.392
6.250E-06,-0.408
6.260E-06,-0.400
6.270E-06,-0.424
6.280E-06,-0.432
6.290E-06,-0.416
6.300E-06,-0.400
6.310E-06,-0.352
6.320E-06,-0.312
6.330E-06,-0.272
6.340E-06,-0.232
6.350E-06,-0.184
6.360E-06,-0.168
6.370E-06,-0.128
6.380E-06,-0.104
6.390E-06,-0.112
6.400E-06,-0.120
6.410E-06,-0.096
6.420E-06,-0.008
6.430E-06,0.040
6.440E-06,0.152
6.450E-06,0.232
6.460E-06,0.176
6.470E-06,0.104
6.480E-06,-0.016
6.490E-06,-0.104
6.500E-06,-0.064
6.510E-06,-0.016
6.520E-06,0.064
6.530E-06,0.152
6.540E-06,0.160
6.550E-06,0.208
6.560E-06,0.192
6.570E-06,0.168
6.580E-06,0.168
6.590E-06,0.136
6.600E-06,0.112
6.610E-06,0.088
6.620E-06,0.008
6.630E-06,-0.024
6.640E-06,-0.056
6.650E-06,-0.072
6.660E-06,-0.112
6.670E-06,-0.176
6.680E-06,-0.216
6.690E-06,-0.304
6.700E-06,-0.288
6.710E-06,-0.240
6.720E-06,-0.240
6.730E-06,-0.200
6.740E-06,-0.168
6.750E-06,-0.208
6.760E-06,-0.192
6.770E-06,-0.168
6.780E-06,-0.168
6.790E-06,-0.112
6.800E-06,-0.056
6.810E-06,-0.088
6.820E-06,-0.048
6.830E-06,-0.072
6.840E-06,-0.104
6.850E-06,-0.088
6.860E-06,-0.072
6.870E-06,0.000
6.880E-06,0.088
6.890E-06,0.160
6.900E-06,0.184
6.910E-06,0.160
6.920E-06,0.160
6.930E-06,0.152
6.940E-06,0.168
6.950E-06,0.216
6.960E-06,0.320
6.970E-06,0.416
6.980E-06,0.544
6.990E-06,0.640
7.000E-06,0.568
7.010E-06,0.632
7.020E-06,0.552
7.030E-06,0.464
7.040E-06,0.440
7.050E-06,0.288
7.060E-06,0.272
7.070E-06,0.176
7.080E-06,0.064
7.090E-06,0.008
7.100E-06,-0.104
7.110E-06,-0.112
7.120E-06,-0.040
7.130E-06,0.024
7.140E-06,0.112
7.150E-06,0.200
7.160E-06,0.288
7.170E-06,0.312
7.180E-06,0.344
7.190E-06,0.264
7.200E-06,0.192
7.210E-06,0.136
7.220E-06,0.088
7.230E-06,0.088
7.240E-06,0.096
7.250E-06,0.048
7.260E-06,-0.016
7.270E-06,-0.104
7.280E-06,-0.240
7.290E-06,-0.328
7.300E-06,-0.400
7.310E-06,-0.416
7.320E-06,-0.376
7.330E-06,-0.296
7.340E-06,-0.264
7.350E-06,-0.208
7.360E-06,-0.184
7.370E-06,-0.152
7.380E-06,-0.136
7.390E-06,-0.136
7.400E-06,-0.120
7.410E-06,-0.096
7.420E-06,-0.096
7.430E-06,-0.096
7.440E-06,-0.152
7.450E-06,-0.224
7.460E-06,-0.288
7.470E-06,-0.400
7.480E-06,-0.432
7.490E-06,-0.488
7.500E-06,-0.544
7.510E-06,-0.560
7.520E-06,-0.592
7.530E-06,-0.600
7.540E-06,-0.608
7.550E-06,-0.608
7.560E-06,-0.560
7.570E-06,-0.520
7.580E-06,-0.480
7.590E-06,-0.440
7.600E-06,-0.400
7.610E-06,-0.328
7.620E-06,-0.248
7.630E-06,-0.160
7.640E-06,-0.088
