mediciones/Mediciones filtradas (saque las feas)/6-10/9.4/WaveData5698.csv

#timebase=2000000(ps)
,#voltbase=200000(mv/100)
#size=4000
-4.200E-06,-0.656
-4.190E-06,-0.736
-4.180E-06,-0.656
-4.170E-06,-0.408
-4.160E-06,-0.120
-4.150E-06,0.136
-4.140E-06,0.272
-4.130E-06,0.304
-4.120E-06,0.304
-4.110E-06,0.344
-4.100E-06,0.424
-4.090E-06,0.552
-4.080E-06,0.616
-4.070E-06,0.648
-4.060E-06,0.608
-4.050E-06,0.528
-4.040E-06,0.448
-4.030E-06,0.360
-4.020E-06,0.296
-4.010E-06,0.216
-4.000E-06,0.136
-3.990E-06,0.032
-3.980E-06,-0.048
-3.970E-06,-0.112
-3.960E-06,-0.168
-3.950E-06,-0.216
-3.940E-06,-0.240
-3.930E-06,-0.256
-3.920E-06,-0.272
-3.910E-06,-0.240
-3.900E-06,-0.192
-3.890E-06,-0.136
-3.880E-06,-0.056
-3.870E-06,0.008
-3.860E-06,0.072
-3.850E-06,0.144
-3.840E-06,0.184
-3.830E-06,0.224
-3.820E-06,0.264
-3.810E-06,0.288
-3.800E-06,0.264
-3.790E-06,0.248
-3.780E-06,0.200
-3.770E-06,0.128
-3.760E-06,0.032
-3.750E-06,-0.048
-3.740E-06,-0.128
-3.730E-06,-0.224
-3.720E-06,-0.208
-3.710E-06,-0.216
-3.700E-06,-0.168
-3.690E-06,-0.080
-3.680E-06,-0.040
-3.670E-06,0.008
-3.660E-06,0.048
-3.650E-06,0.072
-3.640E-06,0.152
-3.630E-06,0.216
-3.620E-06,0.424
-3.610E-06,0.416
-3.600E-06,0.408
-3.590E-06,0.408
-3.580E-06,0.160
-3.570E-06,0.184
-3.560E-06,0.128
-3.550E-06,0.200
-3.540E-06,0.408
-3.530E-06,0.456
-3.520E-06,0.504
-3.510E-06,0.472
-3.500E-06,0.352
-3.490E-06,0.264
-3.480E-06,0.208
-3.470E-06,0.192
-3.460E-06,0.160
-3.450E-06,0.192
-3.440E-06,0.144
-3.430E-06,0.096
-3.420E-06,0.152
-3.410E-06,0.064
-3.400E-06,0.288
-3.390E-06,0.376
-3.380E-06,0.560
-3.370E-06,0.736
-3.360E-06,0.704
-3.350E-06,0.560
-3.340E-06,0.432
-3.330E-06,0.504
-3.320E-06,0.392
-3.310E-06,0.920
-3.300E-06,1.080
-3.290E-06,1.080
-3.280E-06,1.088
-3.270E-06,0.944
-3.260E-06,0.528
-3.250E-06,0.664
-3.240E-06,0.360
-3.230E-06,0.728
-3.220E-06,1.088
-3.210E-06,0.808
-3.200E-06,1.000
-3.190E-06,0.384
-3.180E-06,0.160
-3.170E-06,0.328
-3.160E-06,0.208
-3.150E-06,0.440
-3.140E-06,0.528
-3.130E-06,0.304
-3.120E-06,0.232
-3.110E-06,-0.040
-3.100E-06,-0.184
-3.090E-06,-0.064
-3.080E-06,0.008
-3.070E-06,0.176
-3.060E-06,0.248
-3.050E-06,0.208
-3.040E-06,0.128
-3.030E-06,0.008
-3.020E-06,-0.056
-3.010E-06,-0.040
-3.000E-06,-0.024
-2.990E-06,0.000
-2.980E-06,0.024
-2.970E-06,0.008
-2.960E-06,-0.016
-2.950E-06,-0.048
-2.940E-06,-0.072
-2.930E-06,-0.104
-2.920E-06,-0.088
-2.910E-06,-0.080
-2.900E-06,-0.048
-2.890E-06,-0.048
-2.880E-06,-0.032
-2.870E-06,-0.008
-2.860E-06,0.000
-2.850E-06,0.024
-2.840E-06,0.024
-2.830E-06,0.016
-2.820E-06,0.056
-2.810E-06,0.072
-2.800E-06,0.096
-2.790E-06,0.112
-2.780E-06,0.136
-2.770E-06,0.136
-2.760E-06,0.160
-2.750E-06,0.192
-2.740E-06,0.224
-2.730E-06,0.256
-2.720E-06,0.248
-2.710E-06,0.224
-2.700E-06,0.304
-2.690E-06,0.128
-2.680E-06,0.096
-2.670E-06,-0.048
-2.660E-06,-0.256
-2.650E-06,-0.016
-2.640E-06,-0.032
-2.630E-06,0.264
-2.620E-06,0.464
-2.610E-06,0.488
-2.600E-06,0.696
-2.590E-06,0.424
-2.580E-06,0.312
-2.570E-06,-0.016
-2.560E-06,-0.400
-2.550E-06,-0.304
-2.540E-06,-0.192
-2.530E-06,0.328
-2.520E-06,0.744
-2.510E-06,0.880
-2.500E-06,0.992
-2.490E-06,0.680
-2.480E-06,0.664
-2.470E-06,0.616
-2.460E-06,0.608
-2.450E-06,0.512
-2.440E-06,0.176
-2.430E-06,-0.048
-2.420E-06,-0.272
-2.410E-06,0.128
-2.400E-06,0.744
-2.390E-06,1.080
-2.380E-06,1.080
-2.370E-06,1.080
-2.360E-06,0.864
-2.350E-06,0.832
-2.340E-06,0.968
-2.330E-06,1.072
-2.320E-06,1.080
-2.310E-06,1.088
-2.300E-06,1.080
-2.290E-06,1.072
-2.280E-06,1.080
-2.270E-06,1.088
-2.260E-06,1.040
-2.250E-06,1.080
-2.240E-06,1.080
-2.230E-06,1.080
-2.220E-06,1.080
-2.210E-06,1.072
-2.200E-06,0.752
-2.190E-06,0.736
-2.180E-06,0.536
-2.170E-06,0.592
-2.160E-06,0.664
-2.150E-06,0.624
-2.140E-06,0.504
-2.130E-06,0.384
-2.120E-06,0.208
-2.110E-06,0.080
-2.100E-06,-0.008
-2.090E-06,0.136
-2.080E-06,0.192
-2.070E-06,0.224
-2.060E-06,0.176
-2.050E-06,0.232
-2.040E-06,0.280
-2.030E-06,0.072
-2.020E-06,0.024
-2.010E-06,0.000
-2.000E-06,0.032
-1.990E-06,0.168
-1.980E-06,0.008
-1.970E-06,-0.032
-1.960E-06,-0.152
-1.950E-06,-0.272
-1.940E-06,-0.248
-1.930E-06,-0.280
-1.920E-06,-0.232
-1.910E-06,-0.224
-1.900E-06,-0.184
-1.890E-06,-0.112
-1.880E-06,-0.096
-1.870E-06,-0.016
-1.860E-06,0.032
-1.850E-06,0.104
-1.840E-06,0.176
-1.830E-06,0.248
-1.820E-06,0.408
-1.810E-06,0.480
-1.800E-06,0.544
-1.790E-06,0.568
-1.780E-06,0.528
-1.770E-06,0.464
-1.760E-06,0.424
-1.750E-06,0.360
-1.740E-06,0.328
-1.730E-06,0.336
-1.720E-06,0.296
-1.710E-06,0.272
-1.700E-06,0.152
-1.690E-06,0.096
-1.680E-06,-0.016
-1.670E-06,-0.016
-1.660E-06,-0.296
-1.650E-06,-0.400
-1.640E-06,-0.160
-1.630E-06,-0.368
-1.620E-06,0.184
-1.610E-06,0.400
-1.600E-06,-0.096
-1.590E-06,-0.424
-1.580E-06,-0.840
-1.570E-06,-1.016
-1.560E-06,-0.600
-1.550E-06,0.488
-1.540E-06,0.800
-1.530E-06,1.080
-1.520E-06,1.072
-1.510E-06,1.080
-1.500E-06,1.088
-1.490E-06,1.088
-1.480E-06,0.712
-1.470E-06,0.464
-1.460E-06,0.440
-1.450E-06,1.080
-1.440E-06,1.072
-1.430E-06,1.080
-1.420E-06,1.080
-1.410E-06,1.088
-1.400E-06,1.080
-1.390E-06,0.568
-1.380E-06,0.840
-1.370E-06,0.288
-1.360E-06,0.960
-1.350E-06,1.072
-1.340E-06,0.704
-1.330E-06,1.064
-1.320E-06,0.704
-1.310E-06,0.272
-1.300E-06,0.480
-1.290E-06,0.376
-1.280E-06,0.368
-1.270E-06,0.816
-1.260E-06,0.888
-1.250E-06,0.976
-1.240E-06,0.944
-1.230E-06,0.448
-1.220E-06,0.240
-1.210E-06,0.288
-1.200E-06,0.128
-1.190E-06,0.464
-1.180E-06,0.480
-1.170E-06,0.272
-1.160E-06,0.152
-1.150E-06,-0.224
-1.140E-06,-0.464
-1.130E-06,-0.520
-1.120E-06,-0.616
-1.110E-06,-0.440
-1.100E-06,-0.240
-1.090E-06,-0.136
-1.080E-06,-0.064
-1.070E-06,-0.104
-1.060E-06,-0.280
-1.050E-06,-0.240
-1.040E-06,-0.120
-1.030E-06,0.032
-1.020E-06,0.384
-1.010E-06,0.560
-1.000E-06,0.656
-9.900E-07,0.648
-9.800E-07,0.480
-9.700E-07,0.400
-9.600E-07,0.368
-9.500E-07,0.432
-9.400E-07,0.552
-9.300E-07,0.432
-9.200E-07,0.472
-9.100E-07,0.112
-9.000E-07,0.176
-8.900E-07,0.112
-8.800E-07,-0.304
-8.700E-07,0.544
-8.600E-07,-0.272
-8.500E-07,0.304
-8.400E-07,-0.344
-8.300E-07,-1.048
-8.200E-07,-0.216
-8.100E-07,-1.032
-8.000E-07,1.000
-7.900E-07,0.720
-7.800E-07,1.080
-7.700E-07,0.848
-7.600E-07,0.448
-7.500E-07,1.016
-7.400E-07,0.472
-7.300E-07,1.088
-7.200E-07,1.064
-7.100E-07,1.024
-7.000E-07,0.608
-6.900E-07,-0.464
-6.800E-07,-0.320
-6.700E-07,-0.504
-6.600E-07,-0.608
-6.500E-07,-0.384
-6.400E-07,-0.656
-6.300E-07,-0.728
-6.200E-07,-0.928
-6.100E-07,-0.984
-6.000E-07,-0.896
-5.900E-07,-1.048
-5.800E-07,-1.040
-5.700E-07,-1.032
-5.600E-07,-1.040
-5.500E-07,-1.048
-5.400E-07,-1.048
-5.300E-07,-1.032
-5.200E-07,-1.032
-5.100E-07,-1.040
-5.000E-07,-1.048
-4.900E-07,-1.048
-4.800E-07,-1.048
-4.700E-07,-1.032
-4.600E-07,-1.040
-4.500E-07,-1.040
-4.400E-07,-1.040
-4.300E-07,-1.040
-4.200E-07,-1.040
-4.100E-07,-1.040
-4.000E-07,-1.048
-3.900E-07,-1.040
-3.800E-07,-1.032
-3.700E-07,-1.032
-3.600E-07,-1.040
-3.500E-07,-1.048
-3.400E-07,-1.032
-3.300E-07,-1.032
-3.200E-07,-1.040
-3.100E-07,-1.032
-3.000E-07,-1.040
-2.900E-07,-1.048
-2.800E-07,-1.040
-2.700E-07,-1.048
-2.600E-07,-1.048
-2.500E-07,-0.824
-2.400E-07,-0.568
-2.300E-07,-0.400
-2.200E-07,-0.344
-2.100E-07,-0.440
-2.000E-07,-0.544
-1.900E-07,-0.744
-1.800E-07,-0.936
-1.700E-07,-0.912
-1.600E-07,-1.048
-1.500E-07,-1.040
-1.400E-07,-1.032
-1.300E-07,-1.024
-1.200E-07,-0.920
-1.100E-07,-1.040
-1.000E-07,-1.032
-9.000E-08,-1.040
-8.000E-08,-1.040
-7.000E-08,-1.040
-6.000E-08,-0.496
-5.000E-08,0.304
-4.000E-08,0.400
-3.000E-08,0.912
-2.000E-08,0.440
-1.000E-08,0.288
0.000E+00,0.160
1.000E-08,-0.152
2.000E-08,0.592
3.000E-08,0.136
4.000E-08,0.656
5.000E-08,0.744
6.000E-08,0.776
7.000E-08,0.952
8.000E-08,0.728
9.000E-08,0.728
1.000E-07,0.640
1.100E-07,0.608
1.200E-07,0.496
1.300E-07,0.256
1.400E-07,0.072
1.500E-07,-0.224
1.600E-07,-0.400
1.700E-07,-0.544
1.800E-07,-0.696
1.900E-07,-0.808
2.000E-07,-1.008
2.100E-07,-1.040
2.200E-07,-1.032
2.300E-07,-1.040
2.400E-07,-1.048
2.500E-07,-1.048
2.600E-07,-0.928
2.700E-07,-0.728
2.800E-07,-0.600
2.900E-07,-0.464
3.000E-07,-0.376
3.100E-07,-0.320
3.200E-07,-0.256
3.300E-07,-0.184
3.400E-07,-0.080
3.500E-07,-0.008
3.600E-07,0.040
3.700E-07,0.040
3.800E-07,-0.024
3.900E-07,-0.088
4.000E-07,-0.144
4.100E-07,-0.160
4.200E-07,-0.144
4.300E-07,-0.128
4.400E-07,-0.128
4.500E-07,-0.128
4.600E-07,-0.144
4.700E-07,-0.144
4.800E-07,-0.144
4.900E-07,-0.096
5.000E-07,-0.040
5.100E-07,0.000
5.200E-07,-0.008
5.300E-07,-0.024
5.400E-07,-0.088
5.500E-07,-0.160
5.600E-07,-0.240
5.700E-07,-0.280
5.800E-07,-0.288
5.900E-07,-0.296
6.000E-07,-0.296
6.100E-07,-0.304
6.200E-07,-0.288
6.300E-07,-0.296
6.400E-07,-0.272
6.500E-07,-0.264
6.600E-07,-0.216
6.700E-07,-0.144
6.800E-07,-0.064
6.900E-07,0.000
7.000E-07,0.080
7.100E-07,0.144
7.200E-07,0.176
7.300E-07,0.200
7.400E-07,0.184
7.500E-07,0.152
7.600E-07,0.112
7.700E-07,0.064
7.800E-07,0.000
7.900E-07,-0.064
8.000E-07,-0.136
8.100E-07,-0.216
8.200E-07,-0.288
8.300E-07,-0.352
8.400E-07,-0.424
8.500E-07,-0.496
8.600E-07,-0.536
8.700E-07,-0.560
8.800E-07,-0.568
8.900E-07,-0.560
9.000E-07,-0.528
9.100E-07,-0.504
9.200E-07,-0.456
9.300E-07,-0.400
9.400E-07,-0.312
9.500E-07,-0.232
9.600E-07,-0.128
9.700E-07,-0.024
9.800E-07,0.048
9.900E-07,0.088
1.000E-06,0.112
1.010E-06,0.136
1.020E-06,0.176
1.030E-06,0.208
1.040E-06,0.224
1.050E-06,0.200
1.060E-06,0.152
1.070E-06,0.080
1.080E-06,-0.008
1.090E-06,-0.088
1.100E-06,-0.152
1.110E-06,-0.192
1.120E-06,-0.272
1.130E-06,-0.296
1.140E-06,-0.304
1.150E-06,-0.312
1.160E-06,-0.336
1.170E-06,-0.360
1.180E-06,-0.384
1.190E-06,-0.360
1.200E-06,-0.296
1.210E-06,-0.208
1.220E-06,-0.080
1.230E-06,0.016
1.240E-06,0.080
1.250E-06,0.096
1.260E-06,0.096
1.270E-06,0.072
1.280E-06,0.064
1.290E-06,0.056
1.300E-06,0.032
1.310E-06,-0.008
1.320E-06,-0.064
1.330E-06,-0.136
1.340E-06,-0.200
1.350E-06,-0.280
1.360E-06,-0.328
1.370E-06,-0.416
1.380E-06,-0.464
1.390E-06,-0.520
1.400E-06,-0.560
1.410E-06,-0.552
1.420E-06,-0.560
1.430E-06,-0.544
1.440E-06,-0.488
1.450E-06,-0.448
1.460E-06,-0.400
1.470E-06,-0.344
1.480E-06,-0.280
1.490E-06,-0.240
1.500E-06,-0.144
1.510E-06,-0.104
1.520E-06,-0.056
1.530E-06,0.000
1.540E-06,0.016
1.550E-06,0.072
1.560E-06,0.096
1.570E-06,0.080
1.580E-06,0.128
1.590E-06,0.096
1.600E-06,0.096
1.610E-06,0.096
1.620E-06,0.048
1.630E-06,0.096
1.640E-06,0.040
1.650E-06,0.032
1.660E-06,-0.008
1.670E-06,-0.056
1.680E-06,-0.024
1.690E-06,-0.032
1.700E-06,-0.096
1.710E-06,-0.096
1.720E-06,-0.144
1.730E-06,-0.160
1.740E-06,-0.160
1.750E-06,-0.184
1.760E-06,-0.200
1.770E-06,-0.232
1.780E-06,-0.248
1.790E-06,-0.256
1.800E-06,-0.256
1.810E-06,-0.264
1.820E-06,-0.288
1.830E-06,-0.312
1.840E-06,-0.344
1.850E-06,-0.376
1.860E-06,-0.424
1.870E-06,-0.432
1.880E-06,-0.432
1.890E-06,-0.432
1.900E-06,-0.432
1.910E-06,-0.416
1.920E-06,-0.392
1.930E-06,-0.376
1.940E-06,-0.344
1.950E-06,-0.312
1.960E-06,-0.264
1.970E-06,-0.200
1.980E-06,-0.112
1.990E-06,-0.064
2.000E-06,0.024
2.010E-06,0.064
2.020E-06,0.104
2.030E-06,0.160
2.040E-06,0.176
2.050E-06,0.192
2.060E-06,0.240
2.070E-06,0.224
2.080E-06,0.208
2.090E-06,0.216
2.100E-06,0.160
2.110E-06,0.104
2.120E-06,0.024
2.130E-06,-0.096
2.140E-06,-0.200
2.150E-06,-0.344
2.160E-06,-0.464
2.170E-06,-0.528
2.180E-06,-0.592
2.190E-06,-0.592
2.200E-06,-0.568
2.210E-06,-0.544
2.220E-06,-0.504
2.230E-06,-0.496
2.240E-06,-0.504
2.250E-06,-0.560
2.260E-06,-0.632
2.270E-06,-0.696
2.280E-06,-0.752
2.290E-06,-0.768
2.300E-06,-0.712
2.310E-06,-0.608
2.320E-06,-0.456
2.330E-06,-0.288
2.340E-06,-0.128
2.350E-06,0.000
2.360E-06,0.064
2.370E-06,0.128
2.380E-06,0.184
2.390E-06,0.256
2.400E-06,0.360
2.410E-06,0.480
2.420E-06,0.632
2.430E-06,0.752
2.440E-06,0.880
2.450E-06,0.968
2.460E-06,0.992
2.470E-06,0.976
2.480E-06,0.904
2.490E-06,0.784
2.500E-06,0.656
2.510E-06,0.528
2.520E-06,0.456
2.530E-06,0.416
2.540E-06,0.424
2.550E-06,0.472
2.560E-06,0.536
2.570E-06,0.616
2.580E-06,0.688
2.590E-06,0.760
2.600E-06,0.816
2.610E-06,0.872
2.620E-06,0.896
2.630E-06,0.896
2.640E-06,0.872
2.650E-06,0.824
2.660E-06,0.760
2.670E-06,0.672
2.680E-06,0.552
2.690E-06,0.440
2.700E-06,0.336
2.710E-06,0.224
2.720E-06,0.152
2.730E-06,0.104
2.740E-06,0.032
2.750E-06,-0.056
2.760E-06,-0.160
2.770E-06,-0.264
2.780E-06,-0.376
2.790E-06,-0.464
2.800E-06,-0.528
2.810E-06,-0.552
2.820E-06,-0.560
2.830E-06,-0.512
2.840E-06,-0.472
2.850E-06,-0.432
2.860E-06,-0.392
2.870E-06,-0.376
2.880E-06,-0.384
2.890E-06,-0.392
2.900E-06,-0.448
2.910E-06,-0.488
2.920E-06,-0.504
2.930E-06,-0.520
2.940E-06,-0.496
2.950E-06,-0.448
2.960E-06,-0.368
2.970E-06,-0.272
2.980E-06,-0.184
2.990E-06,-0.104
3.000E-06,-0.064
3.010E-06,-0.008
3.020E-06,0.016
3.030E-06,0.040
3.040E-06,0.096
3.050E-06,0.112
3.060E-06,0.152
3.070E-06,0.184
3.080E-06,0.208
3.090E-06,0.240
3.100E-06,0.272
3.110E-06,0.304
3.120E-06,0.320
3.130E-06,0.336
3.140E-06,0.352
3.150E-06,0.368
3.160E-06,0.392
3.170E-06,0.384
3.180E-06,0.376
3.190E-06,0.352
3.200E-06,0.288
3.210E-06,0.208
3.220E-06,0.128
3.230E-06,0.024
3.240E-06,-0.040
3.250E-06,-0.120
3.260E-06,-0.176
3.270E-06,-0.224
3.280E-06,-0.256
3.290E-06,-0.296
3.300E-06,-0.320
3.310E-06,-0.304
3.320E-06,-0.272
3.330E-06,-0.224
3.340E-06,-0.160
3.350E-06,-0.112
3.360E-06,-0.096
3.370E-06,-0.080
3.380E-06,-0.096
3.390E-06,-0.120
3.400E-06,-0.160
3.410E-06,-0.184
3.420E-06,-0.192
3.430E-06,-0.144
3.440E-06,-0.104
3.450E-06,0.000
3.460E-06,0.096
3.470E-06,0.192
3.480E-06,0.272
3.490E-06,0.336
3.500E-06,0.360
3.510E-06,0.376
3.520E-06,0.360
3.530E-06,0.352
3.540E-06,0.352
3.550E-06,0.360
3.560E-06,0.408
3.570E-06,0.448
3.580E-06,0.528
3.590E-06,0.616
3.600E-06,0.664
3.610E-06,0.712
3.620E-06,0.744
3.630E-06,0.768
3.640E-06,0.744
3.650E-06,0.728
3.660E-06,0.696
3.670E-06,0.656
3.680E-06,0.608
3.690E-06,0.552
3.700E-06,0.520
3.710E-06,0.488
3.720E-06,0.472
3.730E-06,0.480
3.740E-06,0.496
3.750E-06,0.536
3.760E-06,0.568
3.770E-06,0.592
3.780E-06,0.616
3.790E-06,0.632
3.800E-06,0.656
3.810E-06,0.624
3.820E-06,0.608
3.830E-06,0.568
3.840E-06,0.504
3.850E-06,0.432
3.860E-06,0.328
3.870E-06,0.216
3.880E-06,0.096
3.890E-06,0.000
3.900E-06,-0.096
3.910E-06,-0.152
3.920E-06,-0.192
3.930E-06,-0.184
3.940E-06,-0.160
3.950E-06,-0.128
3.960E-06,-0.136
3.970E-06,-0.160
3.980E-06,-0.176
3.990E-06,-0.200
4.000E-06,-0.216
4.010E-06,-0.224
4.020E-06,-0.232
4.030E-06,-0.224
4.040E-06,-0.232
4.050E-06,-0.240
4.060E-06,-0.208
4.070E-06,-0.128
4.080E-06,-0.032
4.090E-06,0.096
4.100E-06,0.224
4.110E-06,0.392
4.120E-06,0.544
4.130E-06,0.704
4.140E-06,0.872
4.150E-06,1.000
4.160E-06,1.088
4.170E-06,1.080
4.180E-06,1.080
4.190E-06,1.080
4.200E-06,1.080
4.210E-06,1.088
4.220E-06,1.080
4.230E-06,1.080
4.240E-06,1.072
4.250E-06,1.080
4.260E-06,1.080
4.270E-06,1.072
4.280E-06,1.080
4.290E-06,1.088
4.300E-06,1.080
4.310E-06,1.088
4.320E-06,1.080
4.330E-06,1.080
4.340E-06,1.072
4.350E-06,1.080
4.360E-06,1.088
4.370E-06,1.080
4.380E-06,1.072
4.390E-06,1.080
4.400E-06,1.088
4.410E-06,1.088
4.420E-06,1.080
4.430E-06,1.080
4.440E-06,1.080
4.450E-06,1.072
4.460E-06,1.080
4.470E-06,1.088
4.480E-06,1.088
4.490E-06,1.080
4.500E-06,1.080
4.510E-06,1.080
4.520E-06,1.088
4.530E-06,1.000
4.540E-06,0.928
4.550E-06,0.864
4.560E-06,0.824
4.570E-06,0.736
4.580E-06,0.720
4.590E-06,0.712
4.600E-06,0.696
4.610E-06,0.688
4.620E-06,0.696
4.630E-06,0.696
4.640E-06,0.712
4.650E-06,0.728
4.660E-06,0.712
4.670E-06,0.696
4.680E-06,0.672
4.690E-06,0.600
4.700E-06,0.528
4.710E-06,0.480
4.720E-06,0.464
4.730E-06,0.464
4.740E-06,0.488
4.750E-06,0.520
4.760E-06,0.560
4.770E-06,0.592
4.780E-06,0.616
4.790E-06,0.624
4.800E-06,0.592
4.810E-06,0.544
4.820E-06,0.488
4.830E-06,0.392
4.840E-06,0.296
4.850E-06,0.224
4.860E-06,0.184
4.870E-06,0.160
4.880E-06,0.152
4.890E-06,0.144
4.900E-06,0.136
4.910E-06,0.144
4.920E-06,0.144
4.930E-06,0.128
4.940E-06,0.128
4.950E-06,0.128
4.960E-06,0.136
4.970E-06,0.128
4.980E-06,0.144
4.990E-06,0.136
5.000E-06,0.112
5.010E-06,0.104
5.020E-06,0.064
5.030E-06,0.040
5.040E-06,0.032
5.050E-06,0.032
5.060E-06,0.056
5.070E-06,0.072
5.080E-06,0.088
5.090E-06,0.096
5.100E-06,0.096
5.110E-06,0.088
5.120E-06,0.064
5.130E-06,0.056
5.140E-06,0.064
5.150E-06,0.048
5.160E-06,0.048
5.170E-06,0.040
5.180E-06,0.032
5.190E-06,0.016
5.200E-06,0.000
5.210E-06,-0.008
5.220E-06,-0.008
5.230E-06,0.000
5.240E-06,0.016
5.250E-06,0.032
5.260E-06,0.056
5.270E-06,0.048
5.280E-06,0.040
5.290E-06,0.024
5.300E-06,0.032
5.310E-06,0.048
5.320E-06,0.080
5.330E-06,0.088
5.340E-06,0.096
5.350E-06,0.104
5.360E-06,0.120
5.370E-06,0.120
5.380E-06,0.144
5.390E-06,0.184
5.400E-06,0.216
5.410E-06,0.248
5.420E-06,0.248
5.430E-06,0.264
5.440E-06,0.272
5.450E-06,0.256
5.460E-06,0.232
5.470E-06,0.248
5.480E-06,0.248
5.490E-06,0.272
5.500E-06,0.288
5.510E-06,0.296
5.520E-06,0.304
5.530E-06,0.304
5.540E-06,0.312
5.550E-06,0.328
5.560E-06,0.336
5.570E-06,0.352
5.580E-06,0.344
5.590E-06,0.352
5.600E-06,0.344
5.610E-06,0.336
5.620E-06,0.320
5.630E-06,0.312
5.640E-06,0.288
5.650E-06,0.264
5.660E-06,0.232
5.670E-06,0.216
5.680E-06,0.336
5.690E-06,0.120
5.700E-06,0.112
5.710E-06,0.208
5.720E-06,0.112
5.730E-06,0.096
5.740E-06,0.296
5.750E-06,0.296
5.760E-06,0.328
5.770E-06,0.384
5.780E-06,0.232
5.790E-06,0.168
5.800E-06,0.120
5.810E-06,0.136
5.820E-06,0.104
5.830E-06,0.072
5.840E-06,0.056
5.850E-06,0.056
5.860E-06,0.056
5.870E-06,0.088
5.880E-06,0.104
5.890E-06,0.128
5.900E-06,0.144
5.910E-06,0.168
5.920E-06,0.160
5.930E-06,0.160
5.940E-06,0.160
5.950E-06,0.144
5.960E-06,0.128
5.970E-06,0.112
5.980E-06,0.112
5.990E-06,0.120
6.000E-06,0.136
6.010E-06,0.136
6.020E-06,0.128
6.030E-06,0.152
6.040E-06,0.168
6.050E-06,0.184
6.060E-06,0.192
6.070E-06,0.200
6.080E-06,0.200
6.090E-06,0.200
6.100E-06,0.192
6.110E-06,0.192
6.120E-06,0.200
6.130E-06,0.192
6.140E-06,0.176
6.150E-06,0.176
6.160E-06,0.176
6.170E-06,0.168
6.180E-06,0.176
6.190E-06,0.192
6.200E-06,0.200
6.210E-06,0.200
6.220E-06,0.192
6.230E-06,0.176
6.240E-06,0.160
6.250E-06,0.152
6.260E-06,0.152
6.270E-06,0.152
6.280E-06,0.136
6.290E-06,0.136
6.300E-06,0.144
6.310E-06,0.152
6.320E-06,0.152
6.330E-06,0.168
6.340E-06,0.168
6.350E-06,0.168
6.360E-06,0.176
6.370E-06,0.176
6.380E-06,0.184
6.390E-06,0.192
6.400E-06,0.200
6.410E-06,0.200
6.420E-06,0.200
6.430E-06,0.200
6.440E-06,0.200
6.450E-06,0.200
6.460E-06,0.208
6.470E-06,0.208
6.480E-06,0.224
6.490E-06,0.232
6.500E-06,0.216
6.510E-06,0.216
6.520E-06,0.216
6.530E-06,0.216
6.540E-06,0.224
6.550E-06,0.240
6.560E-06,0.232
6.570E-06,0.232
6.580E-06,0.240
6.590E-06,0.248
6.600E-06,0.256
6.610E-06,0.272
6.620E-06,0.264
6.630E-06,0.264
6.640E-06,0.256
6.650E-06,0.264
6.660E-06,0.264
6.670E-06,0.256
6.680E-06,0.256
6.690E-06,0.272
6.700E-06,0.256
6.710E-06,0.256
6.720E-06,0.256
6.730E-06,0.248
6.740E-06,0.256
6.750E-06,0.232
6.760E-06,0.240
6.770E-06,0.248
6.780E-06,0.256
6.790E-06,0.264
6.800E-06,0.272
6.810E-06,0.288
6.820E-06,0.280
6.830E-06,0.288
6.840E-06,0.280
6.850E-06,0.280
6.860E-06,0.288
6.870E-06,0.280
6.880E-06,0.280
6.890E-06,0.288
6.900E-06,0.280
6.910E-06,0.288
6.920E-06,0.296
6.930E-06,0.296
6.940E-06,0.296
6.950E-06,0.312
6.960E-06,0.304
6.970E-06,0.296
6.980E-06,0.312
6.990E-06,0.312
7.000E-06,0.304
7.010E-06,0.304
7.020E-06,0.304
7.030E-06,0.304
7.040E-06,0.312
7.050E-06,0.312
7.060E-06,0.304
7.070E-06,0.312
7.080E-06,0.312
7.090E-06,0.304
7.100E-06,0.312
7.110E-06,0.312
7.120E-06,0.296
7.130E-06,0.304
7.140E-06,0.304
7.150E-06,0.296
7.160E-06,0.288
7.170E-06,0.296
7.180E-06,0.296
7.190E-06,0.288
7.200E-06,0.280
7.210E-06,0.272
7.220E-06,0.272
7.230E-06,0.264
7.240E-06,0.272
7.250E-06,0.272
7.260E-06,0.280
7.270E-06,0.264
7.280E-06,0.264
7.290E-06,0.272
7.300E-06,0.272
7.310E-06,0.272
7.320E-06,0.272
7.330E-06,0.264
7.340E-06,0.280
7.350E-06,0.264
7.360E-06,0.280
7.370E-06,0.288
7.380E-06,0.272
7.390E-06,0.288
7.400E-06,0.272
7.410E-06,0.280
7.420E-06,0.280
7.430E-06,0.288
7.440E-06,0.296
7.450E-06,0.288
7.460E-06,0.304
7.470E-06,0.296
7.480E-06,0.288
7.490E-06,0.288
7.500E-06,0.296
7.510E-06,0.288
7.520E-06,0.280
7.530E-06,0.280
7.540E-06,0.280
7.550E-06,0.280
7.560E-06,0.280
7.570E-06,0.280
7.580E-06,0.272
7.590E-06,0.256
7.600E-06,0.264
7.610E-06,0.256
7.620E-06,0.240
7.630E-06,0.256
7.640E-06,0.248
7.650E-06,0.264
7.660E-06,0.264
7.670E-06,0.264
7.680E-06,0.280
7.690E-06,0.272
7.700E-06,0.264
7.710E-06,0.272
7.720E-06,0.264
7.730E-06,0.280
7.740E-06,0.288
