mediciones/Mediciones filtradas (saque las feas)/6-10/9.4/WaveData5690.csv

#timebase=2000000(ps)
,#voltbase=200000(mv/100)
#size=4000
-4.200E-06,0.008
-4.190E-06,0.016
-4.180E-06,0.008
-4.170E-06,0.024
-4.160E-06,0.008
-4.150E-06,-0.032
-4.140E-06,-0.040
-4.130E-06,-0.016
-4.120E-06,0.024
-4.110E-06,0.104
-4.100E-06,0.160
-4.090E-06,0.200
-4.080E-06,0.160
-4.070E-06,0.112
-4.060E-06,0.080
-4.050E-06,0.072
-4.040E-06,0.104
-4.030E-06,0.112
-4.020E-06,0.120
-4.010E-06,0.120
-4.000E-06,0.048
-3.990E-06,0.000
-3.980E-06,0.032
-3.970E-06,0.000
-3.960E-06,0.024
-3.950E-06,0.008
-3.940E-06,-0.008
-3.930E-06,-0.008
-3.920E-06,0.024
-3.910E-06,0.040
-3.900E-06,0.056
-3.890E-06,0.024
-3.880E-06,-0.024
-3.870E-06,-0.048
-3.860E-06,-0.072
-3.850E-06,-0.040
-3.840E-06,0.000
-3.830E-06,-0.016
-3.820E-06,-0.016
-3.810E-06,-0.056
-3.800E-06,-0.072
-3.790E-06,-0.080
-3.780E-06,-0.024
-3.770E-06,0.040
-3.760E-06,0.064
-3.750E-06,0.016
-3.740E-06,-0.008
-3.730E-06,-0.016
-3.720E-06,-0.216
-3.710E-06,-0.144
-3.700E-06,-0.128
-3.690E-06,-0.104
-3.680E-06,0.144
-3.670E-06,0.192
-3.660E-06,0.224
-3.650E-06,0.176
-3.640E-06,0.024
-3.630E-06,0.024
-3.620E-06,0.016
-3.610E-06,0.088
-3.600E-06,0.248
-3.590E-06,0.248
-3.580E-06,0.208
-3.570E-06,0.160
-3.560E-06,0.080
-3.550E-06,0.048
-3.540E-06,0.072
-3.530E-06,0.104
-3.520E-06,0.120
-3.510E-06,0.128
-3.500E-06,0.104
-3.490E-06,0.048
-3.480E-06,0.024
-3.470E-06,-0.040
-3.460E-06,-0.064
-3.450E-06,-0.072
-3.440E-06,-0.040
-3.430E-06,-0.016
-3.420E-06,0.008
-3.410E-06,0.000
-3.400E-06,-0.032
-3.390E-06,-0.088
-3.380E-06,-0.128
-3.370E-06,-0.144
-3.360E-06,-0.104
-3.350E-06,-0.088
-3.340E-06,-0.064
-3.330E-06,-0.016
-3.320E-06,-0.048
-3.310E-06,-0.056
-3.300E-06,-0.080
-3.290E-06,-0.024
-3.280E-06,-0.008
-3.270E-06,0.032
-3.260E-06,0.032
-3.250E-06,0.016
-3.240E-06,0.000
-3.230E-06,-0.008
-3.220E-06,0.008
-3.210E-06,0.032
-3.200E-06,0.080
-3.190E-06,0.088
-3.180E-06,0.112
-3.170E-06,0.096
-3.160E-06,0.088
-3.150E-06,0.080
-3.140E-06,0.080
-3.130E-06,0.072
-3.120E-06,0.056
-3.110E-06,0.064
-3.100E-06,0.048
-3.090E-06,0.056
-3.080E-06,0.048
-3.070E-06,0.016
-3.060E-06,0.008
-3.050E-06,0.000
-3.040E-06,-0.016
-3.030E-06,-0.008
-3.020E-06,0.000
-3.010E-06,0.032
-3.000E-06,0.024
-2.990E-06,-0.024
-2.980E-06,0.000
-2.970E-06,0.000
-2.960E-06,-0.008
-2.950E-06,0.064
-2.940E-06,0.024
-2.930E-06,0.080
-2.920E-06,-0.024
-2.910E-06,0.120
-2.900E-06,0.072
-2.890E-06,0.048
-2.880E-06,0.336
-2.870E-06,0.064
-2.860E-06,0.088
-2.850E-06,0.024
-2.840E-06,-0.136
-2.830E-06,0.048
-2.820E-06,0.080
-2.810E-06,0.168
-2.800E-06,0.328
-2.790E-06,0.232
-2.780E-06,0.200
-2.770E-06,0.136
-2.760E-06,0.016
-2.750E-06,0.064
-2.740E-06,0.064
-2.730E-06,0.064
-2.720E-06,0.128
-2.710E-06,0.080
-2.700E-06,0.056
-2.690E-06,0.040
-2.680E-06,0.000
-2.670E-06,-0.016
-2.660E-06,-0.008
-2.650E-06,0.024
-2.640E-06,0.080
-2.630E-06,0.040
-2.620E-06,0.008
-2.610E-06,-0.008
-2.600E-06,-0.072
-2.590E-06,-0.088
-2.580E-06,-0.040
-2.570E-06,-0.008
-2.560E-06,0.000
-2.550E-06,0.008
-2.540E-06,-0.104
-2.530E-06,-0.128
-2.520E-06,-0.168
-2.510E-06,-0.120
-2.500E-06,-0.024
-2.490E-06,0.008
-2.480E-06,0.056
-2.470E-06,-0.008
-2.460E-06,-0.016
-2.450E-06,-0.016
-2.440E-06,0.072
-2.430E-06,0.080
-2.420E-06,0.152
-2.410E-06,0.176
-2.400E-06,0.264
-2.390E-06,0.032
-2.380E-06,0.296
-2.370E-06,0.032
-2.360E-06,0.088
-2.350E-06,0.136
-2.340E-06,0.016
-2.330E-06,0.272
-2.320E-06,0.208
-2.310E-06,0.336
-2.300E-06,0.264
-2.290E-06,0.200
-2.280E-06,0.136
-2.270E-06,0.088
-2.260E-06,0.120
-2.250E-06,0.056
-2.240E-06,0.104
-2.230E-06,0.080
-2.220E-06,0.072
-2.210E-06,0.064
-2.200E-06,0.080
-2.190E-06,0.080
-2.180E-06,0.096
-2.170E-06,0.072
-2.160E-06,0.024
-2.150E-06,0.032
-2.140E-06,0.008
-2.130E-06,0.032
-2.120E-06,0.072
-2.110E-06,0.032
-2.100E-06,0.064
-2.090E-06,0.088
-2.080E-06,0.112
-2.070E-06,0.104
-2.060E-06,0.152
-2.050E-06,0.152
-2.040E-06,0.160
-2.030E-06,0.064
-2.020E-06,0.000
-2.010E-06,-0.072
-2.000E-06,-0.056
-1.990E-06,-0.024
-1.980E-06,0.120
-1.970E-06,0.240
-1.960E-06,0.216
-1.950E-06,0.304
-1.940E-06,0.288
-1.930E-06,0.264
-1.920E-06,0.200
-1.910E-06,0.248
-1.900E-06,0.344
-1.890E-06,0.464
-1.880E-06,0.576
-1.870E-06,0.464
-1.860E-06,0.424
-1.850E-06,0.320
-1.840E-06,0.280
-1.830E-06,0.328
-1.820E-06,0.360
-1.810E-06,0.328
-1.800E-06,0.248
-1.790E-06,0.208
-1.780E-06,0.176
-1.770E-06,0.104
-1.760E-06,0.160
-1.750E-06,0.000
-1.740E-06,-0.088
-1.730E-06,0.080
-1.720E-06,-0.184
-1.710E-06,0.048
-1.700E-06,0.144
-1.690E-06,0.224
-1.680E-06,0.368
-1.670E-06,0.208
-1.660E-06,0.240
-1.650E-06,0.216
-1.640E-06,0.272
-1.630E-06,0.392
-1.620E-06,0.416
-1.610E-06,0.456
-1.600E-06,0.440
-1.590E-06,0.392
-1.580E-06,0.408
-1.570E-06,0.344
-1.560E-06,0.416
-1.550E-06,0.392
-1.540E-06,0.440
-1.530E-06,0.456
-1.520E-06,0.424
-1.510E-06,0.456
-1.500E-06,0.368
-1.490E-06,0.360
-1.480E-06,0.208
-1.470E-06,0.192
-1.460E-06,0.120
-1.450E-06,0.136
-1.440E-06,0.024
-1.430E-06,-0.040
-1.420E-06,-0.128
-1.410E-06,-0.336
-1.400E-06,-0.232
-1.390E-06,-0.512
-1.380E-06,-0.360
-1.370E-06,-0.192
-1.360E-06,-0.032
-1.350E-06,0.128
-1.340E-06,0.072
-1.330E-06,0.064
-1.320E-06,0.072
-1.310E-06,-0.016
-1.300E-06,0.136
-1.290E-06,0.312
-1.280E-06,0.152
-1.270E-06,0.488
-1.260E-06,0.216
-1.250E-06,0.336
-1.240E-06,0.248
-1.230E-06,0.336
-1.220E-06,0.528
-1.210E-06,0.664
-1.200E-06,0.736
-1.190E-06,0.680
-1.180E-06,0.736
-1.170E-06,0.520
-1.160E-06,0.488
-1.150E-06,0.416
-1.140E-06,0.296
-1.130E-06,0.400
-1.120E-06,0.384
-1.110E-06,0.376
-1.100E-06,0.312
-1.090E-06,0.104
-1.080E-06,-0.016
-1.070E-06,-0.216
-1.060E-06,-0.208
-1.050E-06,0.040
-1.040E-06,-0.304
-1.030E-06,-0.048
-1.020E-06,0.064
-1.010E-06,-0.024
-1.000E-06,0.264
-9.900E-07,0.064
-9.800E-07,0.040
-9.700E-07,-0.080
-9.600E-07,0.128
-9.500E-07,0.160
-9.400E-07,0.432
-9.300E-07,0.288
-9.200E-07,-0.040
-9.100E-07,-0.160
-9.000E-07,-0.192
-8.900E-07,0.280
-8.800E-07,0.520
-8.700E-07,0.936
-8.600E-07,0.872
-8.500E-07,0.624
-8.400E-07,0.088
-8.300E-07,-0.168
-8.200E-07,-0.064
-8.100E-07,0.328
-8.000E-07,1.048
-7.900E-07,1.016
-7.800E-07,1.072
-7.700E-07,1.064
-7.600E-07,0.456
-7.500E-07,0.208
-7.400E-07,0.360
-7.300E-07,0.448
-7.200E-07,0.704
-7.100E-07,1.080
-7.000E-07,0.776
-6.900E-07,1.080
-6.800E-07,0.624
-6.700E-07,0.752
-6.600E-07,0.792
-6.500E-07,0.816
-6.400E-07,0.664
-6.300E-07,0.808
-6.200E-07,0.600
-6.100E-07,0.304
-6.000E-07,0.304
-5.900E-07,-0.024
-5.800E-07,0.072
-5.700E-07,0.152
-5.600E-07,0.104
-5.500E-07,0.160
-5.400E-07,0.088
-5.300E-07,-0.008
-5.200E-07,-0.048
-5.100E-07,0.056
-5.000E-07,0.176
-4.900E-07,0.144
-4.800E-07,0.272
-4.700E-07,0.048
-4.600E-07,-0.016
-4.500E-07,-0.112
-4.400E-07,-0.040
-4.300E-07,0.128
-4.200E-07,-0.120
-4.100E-07,-0.008
-4.000E-07,-0.232
-3.900E-07,0.008
-3.800E-07,0.160
-3.700E-07,0.176
-3.600E-07,0.576
-3.500E-07,0.288
-3.400E-07,0.680
-3.300E-07,0.520
-3.200E-07,0.400
-3.100E-07,0.752
-3.000E-07,0.344
-2.900E-07,0.432
-2.800E-07,0.576
-2.700E-07,0.360
-2.600E-07,0.472
-2.500E-07,0.400
-2.400E-07,0.168
-2.300E-07,0.456
-2.200E-07,0.440
-2.100E-07,0.592
-2.000E-07,0.760
-1.900E-07,0.696
-1.800E-07,0.632
-1.700E-07,0.624
-1.600E-07,0.456
-1.500E-07,0.264
-1.400E-07,0.368
-1.300E-07,0.304
-1.200E-07,0.280
-1.100E-07,0.240
-1.000E-07,0.000
-9.000E-08,-0.408
-8.000E-08,-0.456
-7.000E-08,-0.472
-6.000E-08,-0.440
-5.000E-08,0.128
-4.000E-08,0.104
-3.000E-08,0.296
-2.000E-08,0.344
-1.000E-08,0.120
0.000E+00,0.320
1.000E-08,0.240
2.000E-08,0.472
3.000E-08,0.576
4.000E-08,0.480
5.000E-08,0.416
6.000E-08,0.016
7.000E-08,-0.040
8.000E-08,-0.208
9.000E-08,-0.048
1.000E-07,0.168
1.100E-07,0.272
1.200E-07,0.360
1.300E-07,0.200
1.400E-07,0.096
1.500E-07,-0.056
1.600E-07,-0.032
1.700E-07,0.024
1.800E-07,-0.056
1.900E-07,-0.216
2.000E-07,0.024
2.100E-07,-0.056
2.200E-07,-0.312
2.300E-07,-0.272
2.400E-07,-0.600
2.500E-07,-0.688
2.600E-07,-0.752
2.700E-07,-0.848
2.800E-07,-0.624
2.900E-07,-0.536
3.000E-07,-0.488
3.100E-07,-0.328
3.200E-07,-0.240
3.300E-07,-0.136
3.400E-07,0.032
3.500E-07,0.048
3.600E-07,0.024
3.700E-07,-0.024
3.800E-07,-0.120
3.900E-07,-0.176
4.000E-07,-0.216
4.100E-07,-0.208
4.200E-07,-0.168
4.300E-07,-0.160
4.400E-07,-0.216
4.500E-07,-0.304
4.600E-07,-0.408
4.700E-07,-0.536
4.800E-07,-0.640
4.900E-07,-0.656
5.000E-07,-0.624
5.100E-07,-0.576
5.200E-07,-0.568
5.300E-07,-0.568
5.400E-07,-0.608
5.500E-07,-0.632
5.600E-07,-0.672
5.700E-07,-0.712
5.800E-07,-0.712
5.900E-07,-0.720
6.000E-07,-0.656
6.100E-07,-0.632
6.200E-07,-0.552
6.300E-07,-0.496
6.400E-07,-0.400
6.500E-07,-0.344
6.600E-07,-0.296
6.700E-07,-0.280
6.800E-07,-0.288
6.900E-07,-0.312
7.000E-07,-0.336
7.100E-07,-0.312
7.200E-07,-0.304
7.300E-07,-0.280
7.400E-07,-0.264
7.500E-07,-0.296
7.600E-07,-0.336
7.700E-07,-0.408
7.800E-07,-0.520
7.900E-07,-0.632
8.000E-07,-0.752
8.100E-07,-0.864
8.200E-07,-0.968
8.300E-07,-1.040
8.400E-07,-1.048
8.500E-07,-1.040
8.600E-07,-1.032
8.700E-07,-1.040
8.800E-07,-1.040
8.900E-07,-1.040
9.000E-07,-1.040
9.100E-07,-1.048
9.200E-07,-1.040
9.300E-07,-1.040
9.400E-07,-1.040
9.500E-07,-1.048
9.600E-07,-1.040
9.700E-07,-1.048
9.800E-07,-1.048
9.900E-07,-1.048
1.000E-06,-1.032
1.010E-06,-1.040
1.020E-06,-1.040
1.030E-06,-1.040
1.040E-06,-1.048
1.050E-06,-1.040
1.060E-06,-1.048
1.070E-06,-1.032
1.080E-06,-1.040
1.090E-06,-1.048
1.100E-06,-1.040
1.110E-06,-1.048
1.120E-06,-1.048
1.130E-06,-1.032
1.140E-06,-1.032
1.150E-06,-1.000
1.160E-06,-0.864
1.170E-06,-0.736
1.180E-06,-0.632
1.190E-06,-0.560
1.200E-06,-0.512
1.210E-06,-0.472
1.220E-06,-0.464
1.230E-06,-0.456
1.240E-06,-0.424
1.250E-06,-0.424
1.260E-06,-0.432
1.270E-06,-0.464
1.280E-06,-0.496
1.290E-06,-0.544
1.300E-06,-0.624
1.310E-06,-0.704
1.320E-06,-0.800
1.330E-06,-0.840
1.340E-06,-0.864
1.350E-06,-0.904
1.360E-06,-0.872
1.370E-06,-0.864
1.380E-06,-0.824
1.390E-06,-0.768
1.400E-06,-0.736
1.410E-06,-0.712
1.420E-06,-0.672
1.430E-06,-0.592
1.440E-06,-0.536
1.450E-06,-0.456
1.460E-06,-0.384
1.470E-06,-0.360
1.480E-06,-0.304
1.490E-06,-0.200
1.500E-06,-0.120
1.510E-06,-0.032
1.520E-06,0.024
1.530E-06,0.080
1.540E-06,0.144
1.550E-06,0.184
1.560E-06,0.216
1.570E-06,0.240
1.580E-06,0.280
1.590E-06,0.272
1.600E-06,0.304
1.610E-06,0.344
1.620E-06,0.352
1.630E-06,0.352
1.640E-06,0.352
1.650E-06,0.336
1.660E-06,0.312
1.670E-06,0.216
1.680E-06,0.160
1.690E-06,0.152
1.700E-06,0.120
1.710E-06,0.072
1.720E-06,0.032
1.730E-06,0.000
1.740E-06,-0.032
1.750E-06,-0.024
1.760E-06,0.016
1.770E-06,0.056
1.780E-06,0.080
1.790E-06,0.088
1.800E-06,0.096
1.810E-06,0.088
1.820E-06,0.096
1.830E-06,0.128
1.840E-06,0.120
1.850E-06,0.120
1.860E-06,0.104
1.870E-06,0.064
1.880E-06,0.064
1.890E-06,-0.008
1.900E-06,-0.024
1.910E-06,-0.072
1.920E-06,-0.096
1.930E-06,-0.088
1.940E-06,-0.160
1.950E-06,-0.160
1.960E-06,-0.232
1.970E-06,-0.256
1.980E-06,-0.264
1.990E-06,-0.312
2.000E-06,-0.336
2.010E-06,-0.336
2.020E-06,-0.328
2.030E-06,-0.304
2.040E-06,-0.264
2.050E-06,-0.232
2.060E-06,-0.208
2.070E-06,-0.208
2.080E-06,-0.216
2.090E-06,-0.200
2.100E-06,-0.224
2.110E-06,-0.208
2.120E-06,-0.200
2.130E-06,-0.200
2.140E-06,-0.200
2.150E-06,-0.200
2.160E-06,-0.216
2.170E-06,-0.216
2.180E-06,-0.192
2.190E-06,-0.192
2.200E-06,-0.176
2.210E-06,-0.184
2.220E-06,-0.208
2.230E-06,-0.232
2.240E-06,-0.240
2.250E-06,-0.264
2.260E-06,-0.272
2.270E-06,-0.256
2.280E-06,-0.256
2.290E-06,-0.272
2.300E-06,-0.296
2.310E-06,-0.312
2.320E-06,-0.320
2.330E-06,-0.288
2.340E-06,-0.224
2.350E-06,-0.184
2.360E-06,-0.152
2.370E-06,-0.160
2.380E-06,-0.176
2.390E-06,-0.192
2.400E-06,-0.184
2.410E-06,-0.128
2.420E-06,-0.024
2.430E-06,0.112
2.440E-06,0.280
2.450E-06,0.448
2.460E-06,0.592
2.470E-06,0.712
2.480E-06,0.776
2.490E-06,0.800
2.500E-06,0.792
2.510E-06,0.768
2.520E-06,0.720
2.530E-06,0.672
2.540E-06,0.600
2.550E-06,0.520
2.560E-06,0.440
2.570E-06,0.344
2.580E-06,0.232
2.590E-06,0.112
2.600E-06,0.000
2.610E-06,-0.096
2.620E-06,-0.224
2.630E-06,-0.312
2.640E-06,-0.392
2.650E-06,-0.440
2.660E-06,-0.456
2.670E-06,-0.448
2.680E-06,-0.424
2.690E-06,-0.392
2.700E-06,-0.368
2.710E-06,-0.336
2.720E-06,-0.336
2.730E-06,-0.360
2.740E-06,-0.408
2.750E-06,-0.488
2.760E-06,-0.568
2.770E-06,-0.616
2.780E-06,-0.672
2.790E-06,-0.680
2.800E-06,-0.672
2.810E-06,-0.632
2.820E-06,-0.592
2.830E-06,-0.536
2.840E-06,-0.464
2.850E-06,-0.384
2.860E-06,-0.304
2.870E-06,-0.232
2.880E-06,-0.136
2.890E-06,-0.064
2.900E-06,0.024
2.910E-06,0.112
2.920E-06,0.168
2.930E-06,0.224
2.940E-06,0.304
2.950E-06,0.352
2.960E-06,0.400
2.970E-06,0.408
2.980E-06,0.360
2.990E-06,0.296
3.000E-06,0.184
3.010E-06,0.072
3.020E-06,-0.008
3.030E-06,-0.040
3.040E-06,-0.040
3.050E-06,0.016
3.060E-06,0.072
3.070E-06,0.168
3.080E-06,0.256
3.090E-06,0.328
3.100E-06,0.360
3.110E-06,0.368
3.120E-06,0.368
3.130E-06,0.360
3.140E-06,0.368
3.150E-06,0.368
3.160E-06,0.392
3.170E-06,0.424
3.180E-06,0.464
3.190E-06,0.512
3.200E-06,0.560
3.210E-06,0.616
3.220E-06,0.648
3.230E-06,0.688
3.240E-06,0.712
3.250E-06,0.720
3.260E-06,0.728
3.270E-06,0.688
3.280E-06,0.640
3.290E-06,0.568
3.300E-06,0.448
3.310E-06,0.312
3.320E-06,0.168
3.330E-06,0.024
3.340E-06,-0.096
3.350E-06,-0.152
3.360E-06,-0.168
3.370E-06,-0.152
3.380E-06,-0.096
3.390E-06,-0.032
3.400E-06,0.024
3.410E-06,0.080
3.420E-06,0.120
3.430E-06,0.168
3.440E-06,0.168
3.450E-06,0.144
3.460E-06,0.120
3.470E-06,0.072
3.480E-06,0.016
3.490E-06,-0.048
3.500E-06,-0.096
3.510E-06,-0.112
3.520E-06,-0.136
3.530E-06,-0.152
3.540E-06,-0.152
3.550E-06,-0.160
3.560E-06,-0.152
3.570E-06,-0.136
3.580E-06,-0.112
3.590E-06,-0.088
3.600E-06,-0.072
3.610E-06,-0.080
3.620E-06,-0.064
3.630E-06,-0.040
3.640E-06,0.000
3.650E-06,0.048
3.660E-06,0.096
3.670E-06,0.112
3.680E-06,0.096
3.690E-06,0.048
3.700E-06,-0.032
3.710E-06,-0.080
3.720E-06,-0.128
3.730E-06,-0.144
3.740E-06,-0.128
3.750E-06,-0.096
3.760E-06,-0.064
3.770E-06,0.000
3.780E-06,0.040
3.790E-06,0.088
3.800E-06,0.112
3.810E-06,0.120
3.820E-06,0.136
3.830E-06,0.168
3.840E-06,0.200
3.850E-06,0.232
3.860E-06,0.288
3.870E-06,0.336
3.880E-06,0.368
3.890E-06,0.416
3.900E-06,0.456
3.910E-06,0.480
3.920E-06,0.488
3.930E-06,0.504
3.940E-06,0.528
3.950E-06,0.544
3.960E-06,0.544
3.970E-06,0.552
3.980E-06,0.528
3.990E-06,0.552
4.000E-06,0.560
4.010E-06,0.576
4.020E-06,0.624
4.030E-06,0.656
4.040E-06,0.664
4.050E-06,0.664
4.060E-06,0.632
4.070E-06,0.568
4.080E-06,0.512
4.090E-06,0.432
4.100E-06,0.360
4.110E-06,0.288
4.120E-06,0.192
4.130E-06,0.120
4.140E-06,0.048
4.150E-06,0.000
4.160E-06,-0.048
4.170E-06,-0.080
4.180E-06,-0.104
4.190E-06,-0.112
4.200E-06,-0.112
4.210E-06,-0.112
4.220E-06,-0.128
4.230E-06,-0.120
4.240E-06,-0.136
4.250E-06,-0.144
4.260E-06,-0.160
4.270E-06,-0.192
4.280E-06,-0.200
4.290E-06,-0.192
4.300E-06,-0.184
4.310E-06,-0.144
4.320E-06,-0.096
4.330E-06,-0.032
4.340E-06,0.048
4.350E-06,0.144
4.360E-06,0.232
4.370E-06,0.296
4.380E-06,0.352
4.390E-06,0.368
4.400E-06,0.400
4.410E-06,0.424
4.420E-06,0.456
4.430E-06,0.520
4.440E-06,0.576
4.450E-06,0.640
4.460E-06,0.656
4.470E-06,0.680
4.480E-06,0.680
4.490E-06,0.656
4.500E-06,0.632
4.510E-06,0.632
4.520E-06,0.640
4.530E-06,0.704
4.540E-06,0.776
4.550E-06,0.864
4.560E-06,0.944
4.570E-06,1.016
4.580E-06,1.072
4.590E-06,1.080
4.600E-06,1.088
4.610E-06,1.088
4.620E-06,1.080
4.630E-06,1.088
4.640E-06,1.080
4.650E-06,1.072
4.660E-06,1.080
4.670E-06,1.080
4.680E-06,1.080
4.690E-06,1.080
4.700E-06,1.072
4.710E-06,1.080
4.720E-06,1.088
4.730E-06,1.088
4.740E-06,1.080
4.750E-06,1.088
4.760E-06,1.088
4.770E-06,1.080
4.780E-06,1.088
4.790E-06,1.080
4.800E-06,1.088
4.810E-06,0.904
4.820E-06,0.688
4.830E-06,0.536
4.840E-06,0.456
4.850E-06,0.392
4.860E-06,0.344
4.870E-06,0.152
4.880E-06,0.112
4.890E-06,0.048
4.900E-06,-0.008
4.910E-06,-0.024
4.920E-06,-0.048
4.930E-06,-0.040
4.940E-06,-0.024
4.950E-06,0.024
4.960E-06,0.064
4.970E-06,0.168
4.980E-06,0.264
4.990E-06,0.368
5.000E-06,0.464
5.010E-06,0.552
5.020E-06,0.608
5.030E-06,0.640
5.040E-06,0.648
5.050E-06,0.648
5.060E-06,0.616
5.070E-06,0.592
5.080E-06,0.552
5.090E-06,0.536
5.100E-06,0.496
5.110E-06,0.464
5.120E-06,0.448
5.130E-06,0.408
5.140E-06,0.384
5.150E-06,0.368
5.160E-06,0.352
5.170E-06,0.336
5.180E-06,0.336
5.190E-06,0.352
5.200E-06,0.352
5.210E-06,0.352
5.220E-06,0.328
5.230E-06,0.288
5.240E-06,0.208
5.250E-06,0.144
5.260E-06,0.072
5.270E-06,0.056
5.280E-06,0.048
5.290E-06,0.064
5.300E-06,0.096
5.310E-06,0.128
5.320E-06,0.160
5.330E-06,0.200
5.340E-06,0.240
5.350E-06,0.264
5.360E-06,0.288
5.370E-06,0.288
5.380E-06,0.288
5.390E-06,0.264
5.400E-06,0.264
5.410E-06,0.256
5.420E-06,0.240
5.430E-06,0.248
5.440E-06,0.232
5.450E-06,0.208
5.460E-06,0.208
5.470E-06,0.192
5.480E-06,0.168
5.490E-06,0.168
5.500E-06,0.176
5.510E-06,0.192
5.520E-06,0.192
5.530E-06,0.176
5.540E-06,0.144
5.550E-06,0.112
5.560E-06,0.096
5.570E-06,0.080
5.580E-06,0.064
5.590E-06,0.040
5.600E-06,0.032
5.610E-06,0.008
5.620E-06,-0.016
5.630E-06,-0.032
5.640E-06,-0.064
5.650E-06,-0.096
5.660E-06,-0.096
5.670E-06,-0.112
5.680E-06,-0.096
5.690E-06,-0.080
5.700E-06,-0.040
5.710E-06,-0.008
5.720E-06,0.032
5.730E-06,0.064
5.740E-06,0.080
5.750E-06,0.096
5.760E-06,0.104
5.770E-06,0.120
5.780E-06,0.128
5.790E-06,0.144
5.800E-06,0.152
5.810E-06,0.160
5.820E-06,0.160
5.830E-06,0.152
5.840E-06,0.144
5.850E-06,0.136
5.860E-06,0.136
5.870E-06,0.128
5.880E-06,0.136
5.890E-06,0.112
5.900E-06,0.112
5.910E-06,0.096
5.920E-06,0.104
5.930E-06,0.112
5.940E-06,0.136
5.950E-06,0.152
5.960E-06,0.168
5.970E-06,0.160
5.980E-06,0.176
5.990E-06,0.176
6.000E-06,0.192
6.010E-06,0.192
6.020E-06,0.200
6.030E-06,0.184
6.040E-06,0.176
6.050E-06,0.168
6.060E-06,0.160
6.070E-06,0.160
6.080E-06,0.152
6.090E-06,0.136
6.100E-06,0.128
6.110E-06,0.128
6.120E-06,0.104
6.130E-06,0.096
6.140E-06,0.088
6.150E-06,0.080
6.160E-06,0.080
6.170E-06,0.072
6.180E-06,0.064
6.190E-06,0.080
6.200E-06,0.080
6.210E-06,0.096
6.220E-06,0.096
6.230E-06,0.128
6.240E-06,0.136
6.250E-06,0.144
6.260E-06,0.152
6.270E-06,0.136
6.280E-06,0.128
6.290E-06,0.104
6.300E-06,0.088
6.310E-06,0.088
6.320E-06,0.088
6.330E-06,0.080
6.340E-06,0.096
6.350E-06,0.104
6.360E-06,0.104
6.370E-06,0.112
6.380E-06,0.120
6.390E-06,0.112
6.400E-06,0.096
6.410E-06,0.096
6.420E-06,0.096
6.430E-06,0.104
6.440E-06,0.112
6.450E-06,0.128
6.460E-06,0.128
6.470E-06,0.136
6.480E-06,0.136
6.490E-06,0.136
6.500E-06,0.152
6.510E-06,0.168
6.520E-06,0.168
6.530E-06,0.184
6.540E-06,0.192
6.550E-06,0.200
6.560E-06,0.208
6.570E-06,0.216
6.580E-06,0.240
6.590E-06,0.264
6.600E-06,0.272
6.610E-06,0.272
6.620E-06,0.272
6.630E-06,0.264
6.640E-06,0.256
6.650E-06,0.256
6.660E-06,0.248
6.670E-06,0.240
6.680E-06,0.240
6.690E-06,0.224
6.700E-06,0.200
6.710E-06,0.200
6.720E-06,0.208
6.730E-06,0.192
6.740E-06,0.168
6.750E-06,0.168
6.760E-06,0.160
6.770E-06,0.152
6.780E-06,0.144
6.790E-06,0.160
6.800E-06,0.160
6.810E-06,0.160
6.820E-06,0.160
6.830E-06,0.160
6.840E-06,0.152
6.850E-06,0.152
6.860E-06,0.152
6.870E-06,0.160
6.880E-06,0.168
6.890E-06,0.168
6.900E-06,0.176
6.910E-06,0.184
6.920E-06,0.200
6.930E-06,0.208
6.940E-06,0.224
6.950E-06,0.240
6.960E-06,0.248
6.970E-06,0.264
6.980E-06,0.264
6.990E-06,0.264
7.000E-06,0.272
7.010E-06,0.272
7.020E-06,0.264
7.030E-06,0.256
7.040E-06,0.240
7.050E-06,0.248
7.060E-06,0.232
7.070E-06,0.208
7.080E-06,0.208
7.090E-06,0.216
7.100E-06,0.208
7.110E-06,0.216
7.120E-06,0.216
7.130E-06,0.224
7.140E-06,0.224
7.150E-06,0.232
7.160E-06,0.248
7.170E-06,0.240
7.180E-06,0.232
7.190E-06,0.240
7.200E-06,0.240
7.210E-06,0.248
7.220E-06,0.240
7.230E-06,0.248
7.240E-06,0.256
7.250E-06,0.256
7.260E-06,0.264
7.270E-06,0.272
7.280E-06,0.264
7.290E-06,0.272
7.300E-06,0.288
7.310E-06,0.296
7.320E-06,0.296
7.330E-06,0.304
7.340E-06,0.312
7.350E-06,0.312
7.360E-06,0.312
7.370E-06,0.320
7.380E-06,0.328
7.390E-06,0.344
7.400E-06,0.344
7.410E-06,0.344
7.420E-06,0.336
7.430E-06,0.336
7.440E-06,0.328
7.450E-06,0.312
7.460E-06,0.320
7.470E-06,0.304
7.480E-06,0.296
7.490E-06,0.288
7.500E-06,0.288
7.510E-06,0.288
7.520E-06,0.288
7.530E-06,0.288
7.540E-06,0.272
7.550E-06,0.264
7.560E-06,0.256
7.570E-06,0.264
7.580E-06,0.272
7.590E-06,0.264
7.600E-06,0.256
7.610E-06,0.256
7.620E-06,0.248
7.630E-06,0.232
7.640E-06,0.224
7.650E-06,0.232
7.660E-06,0.224
7.670E-06,0.240
7.680E-06,0.256
7.690E-06,0.264
7.700E-06,0.264
7.710E-06,0.288
7.720E-06,0.288
7.730E-06,0.296
7.740E-06,0.296
7.750E-06,0.288
