mediciones/Mediciones filtradas (saque las feas)/6-10/9.4/WaveData5688.csv

#timebase=2000000(ps)
,#voltbase=200000(mv/100)
#size=4000
-4.200E-06,0.000
-4.190E-06,0.000
-4.180E-06,0.008
-4.170E-06,0.016
-4.160E-06,0.016
-4.150E-06,0.008
-4.140E-06,0.016
-4.130E-06,0.008
-4.120E-06,0.008
-4.110E-06,0.024
-4.100E-06,0.024
-4.090E-06,-0.008
-4.080E-06,0.000
-4.070E-06,0.000
-4.060E-06,0.008
-4.050E-06,0.008
-4.040E-06,0.016
-4.030E-06,0.008
-4.020E-06,-0.008
-4.010E-06,0.024
-4.000E-06,-0.016
-3.990E-06,0.016
-3.980E-06,0.040
-3.970E-06,-0.008
-3.960E-06,0.008
-3.950E-06,0.016
-3.940E-06,0.000
-3.930E-06,-0.008
-3.920E-06,0.024
-3.910E-06,0.008
-3.900E-06,0.000
-3.890E-06,0.008
-3.880E-06,0.008
-3.870E-06,0.000
-3.860E-06,0.008
-3.850E-06,0.000
-3.840E-06,0.016
-3.830E-06,0.016
-3.820E-06,-0.008
-3.810E-06,0.032
-3.800E-06,0.000
-3.790E-06,-0.008
-3.780E-06,0.000
-3.770E-06,0.016
-3.760E-06,0.008
-3.750E-06,0.024
-3.740E-06,0.032
-3.730E-06,0.008
-3.720E-06,0.056
-3.710E-06,0.024
-3.700E-06,0.008
-3.690E-06,0.048
-3.680E-06,0.024
-3.670E-06,0.032
-3.660E-06,0.088
-3.650E-06,0.008
-3.640E-06,0.080
-3.630E-06,0.040
-3.620E-06,0.024
-3.610E-06,0.096
-3.600E-06,0.064
-3.590E-06,0.128
-3.580E-06,0.056
-3.570E-06,0.056
-3.560E-06,0.176
-3.550E-06,0.064
-3.540E-06,0.016
-3.530E-06,0.168
-3.520E-06,0.128
-3.510E-06,0.064
-3.500E-06,0.272
-3.490E-06,0.160
-3.480E-06,0.200
-3.470E-06,0.144
-3.460E-06,0.032
-3.450E-06,0.160
-3.440E-06,0.056
-3.430E-06,0.080
-3.420E-06,0.120
-3.410E-06,0.064
-3.400E-06,0.024
-3.390E-06,0.032
-3.380E-06,-0.008
-3.370E-06,-0.008
-3.360E-06,0.000
-3.350E-06,0.000
-3.340E-06,0.016
-3.330E-06,0.024
-3.320E-06,0.040
-3.310E-06,0.024
-3.300E-06,0.048
-3.290E-06,0.016
-3.280E-06,-0.008
-3.270E-06,0.008
-3.260E-06,0.000
-3.250E-06,0.016
-3.240E-06,0.040
-3.230E-06,0.008
-3.220E-06,0.016
-3.210E-06,0.016
-3.200E-06,0.000
-3.190E-06,0.064
-3.180E-06,0.024
-3.170E-06,0.072
-3.160E-06,0.104
-3.150E-06,0.112
-3.140E-06,0.120
-3.130E-06,0.136
-3.120E-06,0.104
-3.110E-06,0.072
-3.100E-06,0.080
-3.090E-06,0.064
-3.080E-06,0.104
-3.070E-06,0.136
-3.060E-06,0.200
-3.050E-06,0.152
-3.040E-06,0.200
-3.030E-06,0.176
-3.020E-06,0.152
-3.010E-06,0.160
-3.000E-06,0.168
-2.990E-06,0.256
-2.980E-06,0.312
-2.970E-06,0.328
-2.960E-06,0.360
-2.950E-06,0.384
-2.940E-06,0.216
-2.930E-06,0.384
-2.920E-06,-0.272
-2.910E-06,0.192
-2.900E-06,0.072
-2.890E-06,0.136
-2.880E-06,0.592
-2.870E-06,0.120
-2.860E-06,0.200
-2.850E-06,-0.128
-2.840E-06,-0.152
-2.830E-06,0.000
-2.820E-06,0.144
-2.810E-06,0.248
-2.800E-06,0.216
-2.790E-06,0.104
-2.780E-06,-0.064
-2.770E-06,-0.088
-2.760E-06,-0.088
-2.750E-06,0.024
-2.740E-06,0.112
-2.730E-06,0.168
-2.720E-06,0.112
-2.710E-06,0.056
-2.700E-06,0.000
-2.690E-06,-0.016
-2.680E-06,0.000
-2.670E-06,0.024
-2.660E-06,0.064
-2.650E-06,0.088
-2.640E-06,0.080
-2.630E-06,0.072
-2.620E-06,0.016
-2.610E-06,-0.008
-2.600E-06,-0.008
-2.590E-06,0.016
-2.580E-06,0.040
-2.570E-06,0.072
-2.560E-06,0.096
-2.550E-06,0.096
-2.540E-06,0.088
-2.530E-06,0.080
-2.520E-06,0.064
-2.510E-06,0.040
-2.500E-06,0.040
-2.490E-06,0.040
-2.480E-06,0.072
-2.470E-06,0.096
-2.460E-06,0.056
-2.450E-06,0.072
-2.440E-06,0.080
-2.430E-06,0.008
-2.420E-06,0.080
-2.410E-06,0.032
-2.400E-06,0.080
-2.390E-06,0.096
-2.380E-06,0.112
-2.370E-06,0.112
-2.360E-06,0.096
-2.350E-06,0.064
-2.340E-06,0.056
-2.330E-06,0.120
-2.320E-06,0.104
-2.310E-06,0.160
-2.300E-06,0.160
-2.290E-06,0.168
-2.280E-06,0.040
-2.270E-06,0.072
-2.260E-06,0.016
-2.250E-06,-0.016
-2.240E-06,0.096
-2.230E-06,0.080
-2.220E-06,0.184
-2.210E-06,0.136
-2.200E-06,0.104
-2.190E-06,0.048
-2.180E-06,0.232
-2.170E-06,0.048
-2.160E-06,0.360
-2.150E-06,0.496
-2.140E-06,0.136
-2.130E-06,-0.032
-2.120E-06,-0.424
-2.110E-06,0.192
-2.100E-06,-0.032
-2.090E-06,0.800
-2.080E-06,0.704
-2.070E-06,0.912
-2.060E-06,0.440
-2.050E-06,0.736
-2.040E-06,-0.432
-2.030E-06,0.112
-2.020E-06,0.536
-2.010E-06,-0.640
-2.000E-06,1.080
-1.990E-06,-0.128
-1.980E-06,0.032
-1.970E-06,0.664
-1.960E-06,0.104
-1.950E-06,0.832
-1.940E-06,0.344
-1.930E-06,-0.304
-1.920E-06,0.128
-1.910E-06,-0.440
-1.900E-06,-0.064
-1.890E-06,0.296
-1.880E-06,0.072
-1.870E-06,0.128
-1.860E-06,-0.120
-1.850E-06,-0.192
-1.840E-06,-0.096
-1.830E-06,0.008
-1.820E-06,0.136
-1.810E-06,0.056
-1.800E-06,-0.024
-1.790E-06,-0.160
-1.780E-06,-0.216
-1.770E-06,-0.224
-1.760E-06,-0.096
-1.750E-06,-0.144
-1.740E-06,-0.056
-1.730E-06,-0.104
-1.720E-06,-0.160
-1.710E-06,-0.240
-1.700E-06,-0.232
-1.690E-06,-0.280
-1.680E-06,-0.232
-1.670E-06,-0.160
-1.660E-06,-0.080
-1.650E-06,-0.056
-1.640E-06,-0.072
-1.630E-06,-0.088
-1.620E-06,-0.104
-1.610E-06,-0.064
-1.600E-06,-0.016
-1.590E-06,0.056
-1.580E-06,0.080
-1.570E-06,0.096
-1.560E-06,0.128
-1.550E-06,0.168
-1.540E-06,0.152
-1.530E-06,0.152
-1.520E-06,0.144
-1.510E-06,0.152
-1.500E-06,0.160
-1.490E-06,0.168
-1.480E-06,0.208
-1.470E-06,0.128
-1.460E-06,0.144
-1.450E-06,0.080
-1.440E-06,0.064
-1.430E-06,0.080
-1.420E-06,0.104
-1.410E-06,0.096
-1.400E-06,0.128
-1.390E-06,0.096
-1.380E-06,0.072
-1.370E-06,0.032
-1.360E-06,0.000
-1.350E-06,0.000
-1.340E-06,-0.008
-1.330E-06,0.000
-1.320E-06,0.000
-1.310E-06,0.016
-1.300E-06,0.000
-1.290E-06,0.072
-1.280E-06,0.072
-1.270E-06,0.096
-1.260E-06,0.112
-1.250E-06,0.104
-1.240E-06,0.104
-1.230E-06,0.064
-1.220E-06,0.056
-1.210E-06,0.016
-1.200E-06,0.104
-1.190E-06,0.128
-1.180E-06,0.184
-1.170E-06,0.304
-1.160E-06,0.288
-1.150E-06,0.216
-1.140E-06,0.320
-1.130E-06,0.072
-1.120E-06,0.208
-1.110E-06,0.392
-1.100E-06,0.064
-1.090E-06,0.584
-1.080E-06,0.536
-1.070E-06,0.856
-1.060E-06,0.976
-1.050E-06,0.840
-1.040E-06,0.728
-1.030E-06,0.848
-1.020E-06,0.640
-1.010E-06,0.944
-1.000E-06,0.440
-9.900E-07,-0.320
-9.800E-07,0.304
-9.700E-07,-0.304
-9.600E-07,-0.400
-9.500E-07,0.344
-9.400E-07,0.000
-9.300E-07,0.376
-9.200E-07,0.312
-9.100E-07,-0.296
-9.000E-07,-0.136
-8.900E-07,-0.272
-8.800E-07,-0.136
-8.700E-07,0.168
-8.600E-07,0.192
-8.500E-07,0.008
-8.400E-07,-0.040
-8.300E-07,-0.312
-8.200E-07,-0.408
-8.100E-07,-0.328
-8.000E-07,-0.208
-7.900E-07,-0.056
-7.800E-07,0.120
-7.700E-07,0.136
-7.600E-07,0.112
-7.500E-07,0.048
-7.400E-07,-0.040
-7.300E-07,-0.056
-7.200E-07,0.016
-7.100E-07,0.024
-7.000E-07,-0.008
-6.900E-07,-0.072
-6.800E-07,-0.184
-6.700E-07,-0.232
-6.600E-07,-0.256
-6.500E-07,-0.192
-6.400E-07,-0.152
-6.300E-07,-0.040
-6.200E-07,0.032
-6.100E-07,0.096
-6.000E-07,0.112
-5.900E-07,0.088
-5.800E-07,0.048
-5.700E-07,0.016
-5.600E-07,0.008
-5.500E-07,-0.016
-5.400E-07,-0.032
-5.300E-07,-0.064
-5.200E-07,-0.096
-5.100E-07,-0.080
-5.000E-07,-0.104
-4.900E-07,-0.120
-4.800E-07,-0.088
-4.700E-07,-0.104
-4.600E-07,-0.040
-4.500E-07,-0.024
-4.400E-07,-0.064
-4.300E-07,-0.024
-4.200E-07,0.016
-4.100E-07,0.000
-4.000E-07,0.064
-3.900E-07,0.024
-3.800E-07,-0.072
-3.700E-07,-0.064
-3.600E-07,-0.168
-3.500E-07,-0.416
-3.400E-07,-0.240
-3.300E-07,-0.384
-3.200E-07,-0.240
-3.100E-07,-0.008
-3.000E-07,-0.200
-2.900E-07,0.016
-2.800E-07,0.096
-2.700E-07,0.296
-2.600E-07,0.528
-2.500E-07,0.352
-2.400E-07,0.504
-2.300E-07,0.536
-2.200E-07,0.328
-2.100E-07,0.416
-2.000E-07,0.432
-1.900E-07,0.368
-1.800E-07,0.520
-1.700E-07,0.552
-1.600E-07,0.480
-1.500E-07,0.256
-1.400E-07,0.288
-1.300E-07,0.320
-1.200E-07,0.456
-1.100E-07,0.544
-1.000E-07,0.584
-9.000E-08,0.600
-8.000E-08,0.664
-7.000E-08,0.496
-6.000E-08,0.584
-5.000E-08,0.584
-4.000E-08,0.816
-3.000E-08,1.088
-2.000E-08,0.984
-1.000E-08,-1.032
0.000E+00,-0.416
1.000E-08,-0.928
2.000E-08,0.504
3.000E-08,1.080
4.000E-08,1.080
5.000E-08,1.080
6.000E-08,-0.048
7.000E-08,-1.040
8.000E-08,-0.648
9.000E-08,-0.432
1.000E-07,0.640
1.100E-07,1.080
1.200E-07,0.224
1.300E-07,0.232
1.400E-07,-0.536
1.500E-07,-1.000
1.600E-07,-0.576
1.700E-07,-0.512
1.800E-07,0.000
1.900E-07,0.336
2.000E-07,0.328
2.100E-07,0.224
2.200E-07,-0.208
2.300E-07,-0.808
2.400E-07,-1.032
2.500E-07,-1.032
2.600E-07,-1.040
2.700E-07,-0.656
2.800E-07,-0.440
2.900E-07,-0.392
3.000E-07,-0.624
3.100E-07,-0.976
3.200E-07,-1.008
3.300E-07,-0.936
3.400E-07,-0.664
3.500E-07,-0.328
3.600E-07,0.016
3.700E-07,0.232
3.800E-07,0.336
3.900E-07,0.152
4.000E-07,-0.056
4.100E-07,-0.128
4.200E-07,-0.048
4.300E-07,0.168
4.400E-07,0.392
4.500E-07,0.408
4.600E-07,0.240
4.700E-07,0.088
4.800E-07,-0.192
4.900E-07,-0.136
5.000E-07,-0.184
5.100E-07,-0.056
5.200E-07,0.072
5.300E-07,0.096
5.400E-07,0.040
5.500E-07,-0.208
5.600E-07,-0.400
5.700E-07,-0.544
5.800E-07,-0.512
5.900E-07,-0.440
6.000E-07,-0.416
6.100E-07,-0.424
6.200E-07,-0.488
6.300E-07,-0.536
6.400E-07,-0.560
6.500E-07,-0.624
6.600E-07,-0.664
6.700E-07,-0.688
6.800E-07,-0.648
6.900E-07,-0.480
7.000E-07,-0.384
7.100E-07,-0.272
7.200E-07,-0.328
7.300E-07,-0.456
7.400E-07,-0.776
7.500E-07,-0.712
7.600E-07,-0.824
7.700E-07,-1.008
7.800E-07,-1.024
7.900E-07,-0.960
8.000E-07,-1.048
8.100E-07,-1.040
8.200E-07,-1.032
8.300E-07,-1.040
8.400E-07,-1.032
8.500E-07,-1.032
8.600E-07,-1.040
8.700E-07,-1.032
8.800E-07,-1.040
8.900E-07,-1.048
9.000E-07,-1.048
9.100E-07,-1.048
9.200E-07,-1.032
9.300E-07,-1.032
9.400E-07,-1.040
9.500E-07,-1.032
9.600E-07,-1.040
9.700E-07,-1.032
9.800E-07,-1.040
9.900E-07,-1.048
1.000E-06,-1.032
1.010E-06,-0.864
1.020E-06,-1.048
1.030E-06,-1.040
1.040E-06,-1.032
1.050E-06,-1.040
1.060E-06,0.816
1.070E-06,-0.544
1.080E-06,0.040
1.090E-06,-0.400
1.100E-06,-0.640
1.110E-06,-0.432
1.120E-06,0.232
1.130E-06,0.080
1.140E-06,0.088
1.150E-06,0.352
1.160E-06,-0.304
1.170E-06,-0.104
1.180E-06,-0.368
1.190E-06,-0.736
1.200E-06,-0.240
1.210E-06,-0.328
1.220E-06,-0.240
1.230E-06,0.064
1.240E-06,-0.032
1.250E-06,-0.304
1.260E-06,-0.088
1.270E-06,-0.376
1.280E-06,-0.496
1.290E-06,0.152
1.300E-06,0.064
1.310E-06,0.488
1.320E-06,0.256
1.330E-06,0.240
1.340E-06,0.408
1.350E-06,0.096
1.360E-06,0.232
1.370E-06,0.032
1.380E-06,0.320
1.390E-06,0.000
1.400E-06,0.568
1.410E-06,1.088
1.420E-06,0.824
1.430E-06,1.088
1.440E-06,1.040
1.450E-06,-0.008
1.460E-06,1.072
1.470E-06,0.544
1.480E-06,0.624
1.490E-06,1.088
1.500E-06,0.336
1.510E-06,0.272
1.520E-06,0.472
1.530E-06,-0.344
1.540E-06,0.360
1.550E-06,0.632
1.560E-06,0.136
1.570E-06,0.928
1.580E-06,0.512
1.590E-06,0.600
1.600E-06,0.720
1.610E-06,0.424
1.620E-06,0.648
1.630E-06,0.104
1.640E-06,0.304
1.650E-06,0.080
1.660E-06,-0.248
1.670E-06,-0.104
1.680E-06,-0.448
1.690E-06,-0.608
1.700E-06,-0.472
1.710E-06,-0.400
1.720E-06,-0.056
1.730E-06,0.352
1.740E-06,0.176
1.750E-06,0.200
1.760E-06,-0.008
1.770E-06,-0.144
1.780E-06,-0.008
1.790E-06,0.096
1.800E-06,0.264
1.810E-06,0.352
1.820E-06,0.576
1.830E-06,0.192
1.840E-06,0.032
1.850E-06,0.088
1.860E-06,-0.264
1.870E-06,-0.152
1.880E-06,-0.024
1.890E-06,0.064
1.900E-06,0.048
1.910E-06,-0.040
1.920E-06,-0.320
1.930E-06,-0.400
1.940E-06,-0.328
1.950E-06,-0.304
1.960E-06,-0.024
1.970E-06,0.336
1.980E-06,0.208
1.990E-06,0.464
2.000E-06,0.216
2.010E-06,-0.096
2.020E-06,0.120
2.030E-06,-0.264
2.040E-06,0.008
2.050E-06,0.080
2.060E-06,-0.144
2.070E-06,0.032
2.080E-06,-0.080
2.090E-06,-0.144
2.100E-06,0.088
2.110E-06,-0.120
2.120E-06,-0.128
2.130E-06,-0.096
2.140E-06,-0.464
2.150E-06,-0.528
2.160E-06,-0.920
2.170E-06,-1.032
2.180E-06,-1.040
2.190E-06,-1.040
2.200E-06,-1.048
2.210E-06,-0.984
2.220E-06,-0.616
2.230E-06,-0.080
2.240E-06,0.336
2.250E-06,0.640
2.260E-06,0.896
2.270E-06,0.872
2.280E-06,0.752
2.290E-06,0.656
2.300E-06,0.416
2.310E-06,0.320
2.320E-06,0.192
2.330E-06,0.136
2.340E-06,0.104
2.350E-06,-0.024
2.360E-06,-0.104
2.370E-06,-0.400
2.380E-06,-0.408
2.390E-06,-0.640
2.400E-06,-0.664
2.410E-06,-0.728
2.420E-06,-0.960
2.430E-06,-0.816
2.440E-06,-0.944
2.450E-06,-0.912
2.460E-06,-0.848
2.470E-06,-0.944
2.480E-06,-0.832
2.490E-06,-0.864
2.500E-06,-0.264
2.510E-06,-0.136
2.520E-06,0.024
2.530E-06,0.112
2.540E-06,-0.264
2.550E-06,-1.048
2.560E-06,-0.440
2.570E-06,-0.912
2.580E-06,0.256
2.590E-06,-0.016
2.600E-06,-1.048
2.610E-06,-1.048
2.620E-06,-1.032
2.630E-06,-1.032
2.640E-06,-1.040
2.650E-06,0.024
2.660E-06,1.080
2.670E-06,1.072
2.680E-06,1.080
2.690E-06,1.088
2.700E-06,0.416
2.710E-06,0.960
2.720E-06,1.072
2.730E-06,1.080
2.740E-06,1.080
2.750E-06,1.080
2.760E-06,1.088
2.770E-06,1.040
2.780E-06,0.952
2.790E-06,0.552
2.800E-06,1.080
2.810E-06,0.920
2.820E-06,0.920
2.830E-06,0.408
2.840E-06,-0.464
2.850E-06,-0.848
2.860E-06,-1.048
2.870E-06,-1.032
2.880E-06,-1.032
2.890E-06,-1.040
2.900E-06,-1.040
2.910E-06,-1.048
2.920E-06,-1.040
2.930E-06,-1.048
2.940E-06,-1.032
2.950E-06,-1.032
2.960E-06,-1.040
2.970E-06,-1.032
2.980E-06,-0.952
2.990E-06,-0.920
3.000E-06,-1.008
3.010E-06,-1.040
3.020E-06,-1.048
3.030E-06,-1.040
3.040E-06,-1.048
3.050E-06,-1.032
3.060E-06,-1.032
3.070E-06,-1.040
3.080E-06,-1.040
3.090E-06,-1.048
3.100E-06,-1.040
3.110E-06,-1.040
3.120E-06,-1.048
3.130E-06,-1.040
3.140E-06,-0.832
3.150E-06,-0.688
3.160E-06,-0.536
3.170E-06,-0.504
3.180E-06,-0.280
3.190E-06,0.024
3.200E-06,0.200
3.210E-06,0.400
3.220E-06,0.280
3.230E-06,0.128
3.240E-06,0.072
3.250E-06,0.000
3.260E-06,0.040
3.270E-06,0.112
3.280E-06,0.352
3.290E-06,0.496
3.300E-06,0.344
3.310E-06,0.104
3.320E-06,-0.552
3.330E-06,-1.040
3.340E-06,-1.048
3.350E-06,-1.040
3.360E-06,-1.048
3.370E-06,-0.696
3.380E-06,-0.488
3.390E-06,-0.184
3.400E-06,-0.184
3.410E-06,0.000
3.420E-06,0.104
3.430E-06,0.232
3.440E-06,0.408
3.450E-06,0.496
3.460E-06,0.616
3.470E-06,0.536
3.480E-06,0.320
3.490E-06,0.024
3.500E-06,-0.360
3.510E-06,-0.704
3.520E-06,-0.928
3.530E-06,-1.040
3.540E-06,-1.032
3.550E-06,-1.040
3.560E-06,-1.048
3.570E-06,-1.040
3.580E-06,-1.040
3.590E-06,-1.040
3.600E-06,-1.048
3.610E-06,-1.040
3.620E-06,-1.040
3.630E-06,-1.040
3.640E-06,-1.040
3.650E-06,-1.040
3.660E-06,-1.048
3.670E-06,-1.040
3.680E-06,-1.048
3.690E-06,-1.032
3.700E-06,-0.832
3.710E-06,-0.648
3.720E-06,-0.496
3.730E-06,-0.416
3.740E-06,-0.360
3.750E-06,-0.320
3.760E-06,-0.240
3.770E-06,-0.184
3.780E-06,-0.152
3.790E-06,-0.200
3.800E-06,-0.272
3.810E-06,-0.360
3.820E-06,-0.424
3.830E-06,-0.504
3.840E-06,-0.568
3.850E-06,-0.616
3.860E-06,-0.640
3.870E-06,-0.640
3.880E-06,-0.640
3.890E-06,-0.648
3.900E-06,-0.656
3.910E-06,-0.616
3.920E-06,-0.584
3.930E-06,-0.544
3.940E-06,-0.512
3.950E-06,-0.488
3.960E-06,-0.440
3.970E-06,-0.408
3.980E-06,-0.384
3.990E-06,-0.376
4.000E-06,-0.384
4.010E-06,-0.400
4.020E-06,-0.384
4.030E-06,-0.368
4.040E-06,-0.368
4.050E-06,-0.376
4.060E-06,-0.376
4.070E-06,-0.368
4.080E-06,-0.352
4.090E-06,-0.352
4.100E-06,-0.336
4.110E-06,-0.336
4.120E-06,-0.320
4.130E-06,-0.280
4.140E-06,-0.256
4.150E-06,-0.240
4.160E-06,-0.240
4.170E-06,-0.216
4.180E-06,-0.192
4.190E-06,-0.168
4.200E-06,-0.160
4.210E-06,-0.144
4.220E-06,-0.136
4.230E-06,-0.120
4.240E-06,-0.120
4.250E-06,-0.136
4.260E-06,-0.136
4.270E-06,-0.152
4.280E-06,-0.152
4.290E-06,-0.160
4.300E-06,-0.160
4.310E-06,-0.176
4.320E-06,-0.192
4.330E-06,-0.200
4.340E-06,-0.200
4.350E-06,-0.200
4.360E-06,-0.208
4.370E-06,-0.224
4.380E-06,-0.224
4.390E-06,-0.216
4.400E-06,-0.240
4.410E-06,-0.256
4.420E-06,-0.264
4.430E-06,-0.288
4.440E-06,-0.272
4.450E-06,-0.272
4.460E-06,-0.280
4.470E-06,-0.272
4.480E-06,-0.272
4.490E-06,-0.272
4.500E-06,-0.240
4.510E-06,-0.224
4.520E-06,-0.200
4.530E-06,-0.192
4.540E-06,-0.168
4.550E-06,-0.152
4.560E-06,-0.128
4.570E-06,-0.112
4.580E-06,-0.096
4.590E-06,-0.088
4.600E-06,-0.056
4.610E-06,-0.040
4.620E-06,-0.032
4.630E-06,0.000
4.640E-06,0.000
4.650E-06,0.000
4.660E-06,-0.008
4.670E-06,-0.008
4.680E-06,-0.016
4.690E-06,-0.008
4.700E-06,0.000
4.710E-06,-0.016
4.720E-06,-0.024
4.730E-06,-0.064
4.740E-06,-0.080
4.750E-06,-0.112
4.760E-06,-0.128
4.770E-06,-0.128
4.780E-06,-0.136
4.790E-06,-0.120
4.800E-06,-0.112
4.810E-06,-0.120
4.820E-06,-0.136
4.830E-06,-0.152
4.840E-06,-0.136
4.850E-06,-0.120
4.860E-06,-0.112
4.870E-06,-0.112
4.880E-06,-0.136
4.890E-06,-0.144
4.900E-06,-0.168
4.910E-06,-0.152
4.920E-06,-0.136
4.930E-06,-0.120
4.940E-06,-0.128
4.950E-06,-0.136
4.960E-06,-0.144
4.970E-06,-0.176
4.980E-06,-0.168
4.990E-06,-0.168
5.000E-06,-0.176
5.010E-06,-0.152
5.020E-06,-0.112
5.030E-06,-0.120
5.040E-06,-0.128
5.050E-06,-0.136
5.060E-06,-0.168
5.070E-06,-0.144
5.080E-06,-0.152
5.090E-06,-0.112
5.100E-06,-0.088
5.110E-06,-0.120
5.120E-06,-0.112
5.130E-06,-0.128
5.140E-06,-0.152
5.150E-06,-0.112
5.160E-06,-0.112
5.170E-06,-0.104
5.180E-06,-0.136
5.190E-06,-0.208
5.200E-06,-0.248
5.210E-06,-0.296
5.220E-06,-0.328
5.230E-06,-0.320
5.240E-06,-0.296
5.250E-06,-0.280
5.260E-06,-0.216
5.270E-06,-0.200
5.280E-06,-0.128
5.290E-06,-0.080
5.300E-06,-0.048
5.310E-06,0.024
5.320E-06,0.096
5.330E-06,0.168
5.340E-06,0.208
5.350E-06,0.240
5.360E-06,0.232
5.370E-06,0.248
5.380E-06,0.232
5.390E-06,0.264
5.400E-06,0.304
5.410E-06,0.232
5.420E-06,0.200
5.430E-06,0.120
5.440E-06,0.032
5.450E-06,0.040
5.460E-06,-0.024
5.470E-06,-0.024
5.480E-06,-0.032
5.490E-06,-0.120
5.500E-06,-0.176
5.510E-06,-0.216
5.520E-06,-0.232
5.530E-06,-0.216
5.540E-06,-0.168
5.550E-06,-0.136
5.560E-06,-0.112
5.570E-06,-0.104
5.580E-06,-0.136
5.590E-06,-0.184
5.600E-06,-0.240
5.610E-06,-0.272
5.620E-06,-0.280
5.630E-06,-0.296
5.640E-06,-0.320
5.650E-06,-0.328
5.660E-06,-0.344
5.670E-06,-0.352
5.680E-06,-0.344
5.690E-06,-0.328
5.700E-06,-0.296
5.710E-06,-0.216
5.720E-06,-0.168
5.730E-06,-0.088
5.740E-06,-0.016
5.750E-06,0.040
5.760E-06,0.120
5.770E-06,0.168
5.780E-06,0.208
5.790E-06,0.256
5.800E-06,0.264
5.810E-06,0.264
5.820E-06,0.240
5.830E-06,0.216
5.840E-06,0.232
5.850E-06,0.224
5.860E-06,0.216
5.870E-06,0.232
5.880E-06,0.224
5.890E-06,0.256
5.900E-06,0.288
5.910E-06,0.272
5.920E-06,0.272
5.930E-06,0.256
5.940E-06,0.248
5.950E-06,0.216
5.960E-06,0.192
5.970E-06,0.168
5.980E-06,0.128
5.990E-06,0.096
6.000E-06,0.040
6.010E-06,-0.008
6.020E-06,-0.024
6.030E-06,-0.040
6.040E-06,-0.064
6.050E-06,-0.080
6.060E-06,-0.104
6.070E-06,-0.120
6.080E-06,-0.128
6.090E-06,-0.136
6.100E-06,-0.128
6.110E-06,-0.112
6.120E-06,-0.112
6.130E-06,-0.088
6.140E-06,-0.064
6.150E-06,-0.048
6.160E-06,0.000
6.170E-06,0.000
6.180E-06,0.016
6.190E-06,0.008
6.200E-06,0.008
6.210E-06,0.000
6.220E-06,0.024
6.230E-06,0.064
6.240E-06,0.096
6.250E-06,0.120
6.260E-06,0.096
6.270E-06,0.080
6.280E-06,0.032
6.290E-06,-0.040
6.300E-06,-0.096
6.310E-06,-0.144
6.320E-06,-0.152
6.330E-06,-0.112
6.340E-06,-0.048
6.350E-06,0.072
6.360E-06,0.144
6.370E-06,0.176
6.380E-06,0.168
6.390E-06,0.152
6.400E-06,0.160
6.410E-06,0.224
6.420E-06,0.248
6.430E-06,0.240
6.440E-06,0.200
6.450E-06,0.112
6.460E-06,0.000
6.470E-06,-0.136
6.480E-06,-0.264
6.490E-06,-0.376
6.500E-06,-0.416
6.510E-06,-0.440
6.520E-06,-0.368
6.530E-06,-0.240
6.540E-06,-0.072
6.550E-06,0.104
6.560E-06,0.256
6.570E-06,0.360
6.580E-06,0.408
6.590E-06,0.432
6.600E-06,0.432
6.610E-06,0.376
6.620E-06,0.304
6.630E-06,0.208
6.640E-06,0.168
6.650E-06,0.144
6.660E-06,0.160
6.670E-06,0.224
6.680E-06,0.296
6.690E-06,0.384
6.700E-06,0.480
6.710E-06,0.536
6.720E-06,0.576
6.730E-06,0.624
6.740E-06,0.624
6.750E-06,0.600
6.760E-06,0.552
6.770E-06,0.496
6.780E-06,0.456
6.790E-06,0.408
6.800E-06,0.344
6.810E-06,0.328
6.820E-06,0.336
6.830E-06,0.352
6.840E-06,0.360
6.850E-06,0.352
6.860E-06,0.336
6.870E-06,0.288
6.880E-06,0.232
6.890E-06,0.184
6.900E-06,0.088
6.910E-06,0.000
6.920E-06,-0.136
6.930E-06,-0.272
6.940E-06,-0.408
6.950E-06,-0.544
6.960E-06,-0.632
6.970E-06,-0.672
6.980E-06,-0.656
6.990E-06,-0.560
7.000E-06,-0.440
7.010E-06,-0.288
7.020E-06,-0.128
7.030E-06,0.024
7.040E-06,0.168
7.050E-06,0.296
7.060E-06,0.376
7.070E-06,0.448
7.080E-06,0.472
7.090E-06,0.464
7.100E-06,0.440
7.110E-06,0.392
7.120E-06,0.336
7.130E-06,0.264
7.140E-06,0.192
7.150E-06,0.136
7.160E-06,0.104
7.170E-06,0.088
7.180E-06,0.104
7.190E-06,0.152
7.200E-06,0.216
7.210E-06,0.296
7.220E-06,0.384
7.230E-06,0.448
7.240E-06,0.520
7.250E-06,0.560
7.260E-06,0.568
7.270E-06,0.576
7.280E-06,0.536
7.290E-06,0.480
7.300E-06,0.416
7.310E-06,0.360
7.320E-06,0.320
7.330E-06,0.288
7.340E-06,0.304
7.350E-06,0.304
7.360E-06,0.296
7.370E-06,0.304
7.380E-06,0.304
7.390E-06,0.312
7.400E-06,0.336
7.410E-06,0.360
7.420E-06,0.384
7.430E-06,0.424
7.440E-06,0.456
7.450E-06,0.488
7.460E-06,0.504
7.470E-06,0.512
7.480E-06,0.528
7.490E-06,0.528
7.500E-06,0.528
7.510E-06,0.504
7.520E-06,0.464
7.530E-06,0.416
7.540E-06,0.384
7.550E-06,0.320
7.560E-06,0.272
7.570E-06,0.208
7.580E-06,0.144
7.590E-06,0.080
7.600E-06,0.000
7.610E-06,-0.064
7.620E-06,-0.120
7.630E-06,-0.152
7.640E-06,-0.120
