mediciones/Mediciones filtradas (saque las feas)/6-10/9.4/WaveData5689.csv

#timebase=2000000(ps)
,#voltbase=100000(mv/100)
#size=4000
-4.200E-06,0.012
-4.190E-06,0.004
-4.180E-06,-0.004
-4.170E-06,-0.004
-4.160E-06,0.000
-4.150E-06,0.004
-4.140E-06,0.016
-4.130E-06,0.012
-4.120E-06,0.012
-4.110E-06,0.008
-4.100E-06,-0.004
-4.090E-06,0.000
-4.080E-06,-0.004
-4.070E-06,0.000
-4.060E-06,0.016
-4.050E-06,0.016
-4.040E-06,0.012
-4.030E-06,-0.004
-4.020E-06,0.000
-4.010E-06,-0.012
-4.000E-06,0.004
-3.990E-06,0.004
-3.980E-06,0.004
-3.970E-06,0.004
-3.960E-06,0.008
-3.950E-06,0.004
-3.940E-06,0.000
-3.930E-06,0.008
-3.920E-06,0.008
-3.910E-06,0.000
-3.900E-06,0.008
-3.890E-06,0.004
-3.880E-06,0.000
-3.870E-06,0.008
-3.860E-06,0.012
-3.850E-06,0.004
-3.840E-06,0.008
-3.830E-06,0.008
-3.820E-06,0.012
-3.810E-06,0.028
-3.800E-06,0.036
-3.790E-06,0.036
-3.780E-06,0.032
-3.770E-06,0.024
-3.760E-06,-0.004
-3.750E-06,-0.036
-3.740E-06,-0.036
-3.730E-06,-0.044
-3.720E-06,-0.028
-3.710E-06,0.004
-3.700E-06,0.028
-3.690E-06,0.040
-3.680E-06,0.008
-3.670E-06,-0.020
-3.660E-06,-0.024
-3.650E-06,-0.024
-3.640E-06,0.000
-3.630E-06,0.024
-3.620E-06,0.028
-3.610E-06,0.020
-3.600E-06,0.008
-3.590E-06,-0.004
-3.580E-06,-0.008
-3.570E-06,-0.012
-3.560E-06,0.000
-3.550E-06,0.012
-3.540E-06,0.020
-3.530E-06,0.016
-3.520E-06,0.008
-3.510E-06,-0.004
-3.500E-06,-0.008
-3.490E-06,-0.004
-3.480E-06,-0.004
-3.470E-06,0.004
-3.460E-06,0.008
-3.450E-06,0.020
-3.440E-06,0.012
-3.430E-06,0.004
-3.420E-06,-0.004
-3.410E-06,-0.008
-3.400E-06,0.004
-3.390E-06,0.008
-3.380E-06,0.016
-3.370E-06,0.024
-3.360E-06,0.008
-3.350E-06,-0.004
-3.340E-06,-0.008
-3.330E-06,0.000
-3.320E-06,0.000
-3.310E-06,0.024
-3.300E-06,0.020
-3.290E-06,0.024
-3.280E-06,-0.008
-3.270E-06,-0.028
-3.260E-06,-0.024
-3.250E-06,-0.016
-3.240E-06,-0.004
-3.230E-06,0.016
-3.220E-06,0.024
-3.210E-06,0.012
-3.200E-06,0.000
-3.190E-06,-0.012
-3.180E-06,-0.008
-3.170E-06,-0.008
-3.160E-06,0.004
-3.150E-06,0.020
-3.140E-06,0.028
-3.130E-06,0.028
-3.120E-06,0.012
-3.110E-06,0.000
-3.100E-06,-0.012
-3.090E-06,-0.008
-3.080E-06,0.004
-3.070E-06,0.024
-3.060E-06,0.032
-3.050E-06,0.036
-3.040E-06,0.020
-3.030E-06,0.012
-3.020E-06,-0.008
-3.010E-06,-0.008
-3.000E-06,0.000
-2.990E-06,0.024
-2.980E-06,0.028
-2.970E-06,0.024
-2.960E-06,0.008
-2.950E-06,0.024
-2.940E-06,0.016
-2.930E-06,0.056
-2.920E-06,-0.036
-2.910E-06,0.076
-2.900E-06,0.044
-2.890E-06,0.060
-2.880E-06,-0.044
-2.870E-06,-0.108
-2.860E-06,-0.092
-2.850E-06,-0.044
-2.840E-06,0.004
-2.830E-06,0.040
-2.820E-06,0.076
-2.810E-06,0.036
-2.800E-06,0.012
-2.790E-06,-0.028
-2.780E-06,-0.048
-2.770E-06,-0.044
-2.760E-06,-0.004
-2.750E-06,0.024
-2.740E-06,0.040
-2.730E-06,0.028
-2.720E-06,0.008
-2.710E-06,-0.012
-2.700E-06,-0.036
-2.690E-06,-0.012
-2.680E-06,0.008
-2.670E-06,0.024
-2.660E-06,0.044
-2.650E-06,0.036
-2.640E-06,0.016
-2.630E-06,-0.004
-2.620E-06,-0.016
-2.610E-06,-0.008
-2.600E-06,0.008
-2.590E-06,0.032
-2.580E-06,0.044
-2.570E-06,0.032
-2.560E-06,0.008
-2.550E-06,-0.004
-2.540E-06,-0.004
-2.530E-06,0.008
-2.520E-06,0.024
-2.510E-06,0.044
-2.500E-06,0.056
-2.490E-06,0.032
-2.480E-06,0.036
-2.470E-06,-0.004
-2.460E-06,0.040
-2.450E-06,-0.012
-2.440E-06,-0.036
-2.430E-06,0.008
-2.420E-06,-0.036
-2.410E-06,-0.032
-2.400E-06,-0.024
-2.390E-06,-0.040
-2.380E-06,-0.060
-2.370E-06,-0.036
-2.360E-06,-0.008
-2.350E-06,0.000
-2.340E-06,0.044
-2.330E-06,0.068
-2.320E-06,0.020
-2.310E-06,-0.012
-2.300E-06,-0.024
-2.290E-06,-0.032
-2.280E-06,-0.008
-2.270E-06,0.028
-2.260E-06,0.032
-2.250E-06,0.036
-2.240E-06,0.040
-2.230E-06,0.032
-2.220E-06,0.012
-2.210E-06,0.004
-2.200E-06,-0.004
-2.190E-06,0.012
-2.180E-06,0.044
-2.170E-06,0.036
-2.160E-06,0.040
-2.150E-06,0.020
-2.140E-06,-0.008
-2.130E-06,0.020
-2.120E-06,0.036
-2.110E-06,0.044
-2.100E-06,0.084
-2.090E-06,0.068
-2.080E-06,0.080
-2.070E-06,0.056
-2.060E-06,0.016
-2.050E-06,-0.004
-2.040E-06,-0.080
-2.030E-06,-0.064
-2.020E-06,-0.004
-2.010E-06,-0.016
-2.000E-06,0.016
-1.990E-06,0.064
-1.980E-06,0.004
-1.970E-06,0.024
-1.960E-06,-0.016
-1.950E-06,-0.036
-1.940E-06,-0.016
-1.930E-06,-0.036
-1.920E-06,0.028
-1.910E-06,0.076
-1.900E-06,0.076
-1.890E-06,0.056
-1.880E-06,0.024
-1.870E-06,0.036
-1.860E-06,0.012
-1.850E-06,0.052
-1.840E-06,0.064
-1.830E-06,0.084
-1.820E-06,0.056
-1.810E-06,0.032
-1.800E-06,0.040
-1.790E-06,-0.020
-1.780E-06,-0.048
-1.770E-06,-0.060
-1.760E-06,-0.068
-1.750E-06,-0.108
-1.740E-06,-0.060
-1.730E-06,-0.076
-1.720E-06,-0.016
-1.710E-06,0.000
-1.700E-06,0.016
-1.690E-06,-0.040
-1.680E-06,-0.044
-1.670E-06,-0.020
-1.660E-06,-0.024
-1.650E-06,0.004
-1.640E-06,0.012
-1.630E-06,0.024
-1.620E-06,0.012
-1.610E-06,0.032
-1.600E-06,0.016
-1.590E-06,0.028
-1.580E-06,0.032
-1.570E-06,0.040
-1.560E-06,0.056
-1.550E-06,0.064
-1.540E-06,0.068
-1.530E-06,0.044
-1.520E-06,0.048
-1.510E-06,0.056
-1.500E-06,0.080
-1.490E-06,0.092
-1.480E-06,0.108
-1.470E-06,0.108
-1.460E-06,0.132
-1.450E-06,0.028
-1.440E-06,-0.008
-1.430E-06,-0.052
-1.420E-06,-0.076
-1.410E-06,-0.068
-1.400E-06,-0.048
-1.390E-06,-0.036
-1.380E-06,-0.008
-1.370E-06,0.024
-1.360E-06,-0.004
-1.350E-06,-0.024
-1.340E-06,-0.056
-1.330E-06,0.000
-1.320E-06,0.024
-1.310E-06,0.056
-1.300E-06,0.016
-1.290E-06,-0.040
-1.280E-06,-0.004
-1.270E-06,-0.004
-1.260E-06,0.008
-1.250E-06,0.028
-1.240E-06,0.092
-1.230E-06,0.100
-1.220E-06,0.124
-1.210E-06,0.128
-1.200E-06,0.104
-1.190E-06,0.104
-1.180E-06,0.096
-1.170E-06,0.116
-1.160E-06,0.136
-1.150E-06,0.176
-1.140E-06,0.152
-1.130E-06,0.124
-1.120E-06,0.092
-1.110E-06,0.040
-1.100E-06,-0.012
-1.090E-06,-0.032
-1.080E-06,0.008
-1.070E-06,-0.008
-1.060E-06,0.060
-1.050E-06,0.056
-1.040E-06,-0.004
-1.030E-06,0.072
-1.020E-06,0.048
-1.010E-06,0.028
-1.000E-06,0.088
-9.900E-07,0.068
-9.800E-07,0.152
-9.700E-07,0.060
-9.600E-07,0.004
-9.500E-07,-0.132
-9.400E-07,-0.208
-9.300E-07,-0.224
-9.200E-07,0.020
-9.100E-07,0.144
-9.000E-07,0.320
-8.900E-07,0.168
-8.800E-07,0.016
-8.700E-07,-0.252
-8.600E-07,-0.348
-8.500E-07,-0.288
-8.400E-07,-0.124
-8.300E-07,0.124
-8.200E-07,0.208
-8.100E-07,0.272
-8.000E-07,0.164
-7.900E-07,0.004
-7.800E-07,-0.164
-7.700E-07,-0.224
-7.600E-07,-0.072
-7.500E-07,0.028
-7.400E-07,0.136
-7.300E-07,0.040
-7.200E-07,0.060
-7.100E-07,-0.032
-7.000E-07,-0.056
-6.900E-07,-0.052
-6.800E-07,-0.004
-6.700E-07,0.076
-6.600E-07,0.144
-6.500E-07,0.148
-6.400E-07,0.004
-6.300E-07,0.020
-6.200E-07,-0.016
-6.100E-07,0.032
-6.000E-07,0.068
-5.900E-07,0.144
-5.800E-07,0.152
-5.700E-07,0.136
-5.600E-07,0.124
-5.500E-07,0.072
-5.400E-07,0.092
-5.300E-07,0.124
-5.200E-07,0.140
-5.100E-07,0.144
-5.000E-07,0.136
-4.900E-07,0.096
-4.800E-07,0.028
-4.700E-07,-0.028
-4.600E-07,-0.056
-4.500E-07,-0.032
-4.400E-07,-0.072
-4.300E-07,-0.100
-4.200E-07,-0.088
-4.100E-07,-0.060
-4.000E-07,-0.116
-3.900E-07,-0.024
-3.800E-07,-0.076
-3.700E-07,0.096
-3.600E-07,0.120
-3.500E-07,0.140
-3.400E-07,0.192
-3.300E-07,0.196
-3.200E-07,0.236
-3.100E-07,0.232
-3.000E-07,0.224
-2.900E-07,0.200
-2.800E-07,0.184
-2.700E-07,0.180
-2.600E-07,0.180
-2.500E-07,0.148
-2.400E-07,0.168
-2.300E-07,0.188
-2.200E-07,0.160
-2.100E-07,0.136
-2.000E-07,0.100
-1.900E-07,0.080
-1.800E-07,0.096
-1.700E-07,0.168
-1.600E-07,0.188
-1.500E-07,0.184
-1.400E-07,0.132
-1.300E-07,0.060
-1.200E-07,-0.044
-1.100E-07,-0.072
-1.000E-07,-0.064
-9.000E-08,-0.012
-8.000E-08,0.040
-7.000E-08,0.124
-6.000E-08,0.088
-5.000E-08,0.080
-4.000E-08,0.076
-3.000E-08,0.084
-2.000E-08,0.196
-1.000E-08,0.248
0.000E+00,0.348
1.000E-08,0.288
2.000E-08,0.196
3.000E-08,0.124
4.000E-08,0.044
5.000E-08,0.072
6.000E-08,0.124
7.000E-08,0.192
8.000E-08,0.236
9.000E-08,0.232
1.000E-07,0.168
1.100E-07,0.068
1.200E-07,0.032
1.300E-07,-0.004
1.400E-07,0.064
1.500E-07,0.172
1.600E-07,0.216
1.700E-07,0.232
1.800E-07,0.232
1.900E-07,0.216
2.000E-07,0.072
2.100E-07,0.128
2.200E-07,0.156
2.300E-07,0.176
2.400E-07,0.260
2.500E-07,0.260
2.600E-07,0.260
2.700E-07,0.192
2.800E-07,0.152
2.900E-07,0.148
3.000E-07,0.172
3.100E-07,0.200
3.200E-07,0.216
3.300E-07,0.236
3.400E-07,0.224
3.500E-07,0.196
3.600E-07,0.164
3.700E-07,0.156
3.800E-07,0.168
3.900E-07,0.180
4.000E-07,0.208
4.100E-07,0.220
4.200E-07,0.208
4.300E-07,0.196
4.400E-07,0.176
4.500E-07,0.164
4.600E-07,0.164
4.700E-07,0.184
4.800E-07,0.204
4.900E-07,0.224
5.000E-07,0.220
5.100E-07,0.204
5.200E-07,0.192
5.300E-07,0.176
5.400E-07,0.184
5.500E-07,0.188
5.600E-07,0.196
5.700E-07,0.208
5.800E-07,0.220
5.900E-07,0.212
6.000E-07,0.192
6.100E-07,0.188
6.200E-07,0.180
6.300E-07,0.180
6.400E-07,0.188
6.500E-07,0.196
6.600E-07,0.204
6.700E-07,0.200
6.800E-07,0.192
6.900E-07,0.192
7.000E-07,0.188
7.100E-07,0.188
7.200E-07,0.188
7.300E-07,0.192
7.400E-07,0.192
7.500E-07,0.196
7.600E-07,0.188
7.700E-07,0.184
7.800E-07,0.176
7.900E-07,0.172
8.000E-07,0.180
8.100E-07,0.192
8.200E-07,0.192
8.300E-07,0.188
8.400E-07,0.192
8.500E-07,0.188
8.600E-07,0.176
8.700E-07,0.176
8.800E-07,0.188
8.900E-07,0.192
9.000E-07,0.180
9.100E-07,0.188
9.200E-07,0.188
9.300E-07,0.176
9.400E-07,0.180
9.500E-07,0.164
9.600E-07,0.172
9.700E-07,0.180
9.800E-07,0.184
9.900E-07,0.192
1.000E-06,0.188
1.010E-06,0.188
1.020E-06,0.184
1.030E-06,0.180
1.040E-06,0.176
1.050E-06,0.184
1.060E-06,0.192
1.070E-06,0.188
1.080E-06,0.196
1.090E-06,0.188
1.100E-06,0.184
1.110E-06,0.176
1.120E-06,0.172
1.130E-06,0.184
1.140E-06,0.188
1.150E-06,0.192
1.160E-06,0.184
1.170E-06,0.180
1.180E-06,0.180
1.190E-06,0.176
1.200E-06,0.176
1.210E-06,0.172
1.220E-06,0.176
1.230E-06,0.180
1.240E-06,0.184
1.250E-06,0.184
1.260E-06,0.176
1.270E-06,0.176
1.280E-06,0.180
1.290E-06,0.176
1.300E-06,0.176
1.310E-06,0.176
1.320E-06,0.176
1.330E-06,0.172
1.340E-06,0.176
1.350E-06,0.176
1.360E-06,0.180
1.370E-06,0.176
1.380E-06,0.168
1.390E-06,0.172
1.400E-06,0.180
1.410E-06,0.180
1.420E-06,0.172
1.430E-06,0.172
1.440E-06,0.168
1.450E-06,0.168
1.460E-06,0.164
1.470E-06,0.164
1.480E-06,0.168
1.490E-06,0.172
1.500E-06,0.168
1.510E-06,0.168
1.520E-06,0.168
1.530E-06,0.164
1.540E-06,0.156
1.550E-06,0.160
1.560E-06,0.160
1.570E-06,0.168
1.580E-06,0.168
1.590E-06,0.160
1.600E-06,0.168
1.610E-06,0.168
1.620E-06,0.164
1.630E-06,0.152
1.640E-06,0.156
1.650E-06,0.164
1.660E-06,0.164
1.670E-06,0.168
1.680E-06,0.160
1.690E-06,0.160
1.700E-06,0.160
1.710E-06,0.156
1.720E-06,0.160
1.730E-06,0.160
1.740E-06,0.164
1.750E-06,0.164
1.760E-06,0.164
1.770E-06,0.152
1.780E-06,0.152
1.790E-06,0.156
1.800E-06,0.152
1.810E-06,0.156
1.820E-06,0.156
1.830E-06,0.160
1.840E-06,0.156
1.850E-06,0.160
1.860E-06,0.160
1.870E-06,0.160
1.880E-06,0.160
1.890E-06,0.152
1.900E-06,0.156
1.910E-06,0.160
1.920E-06,0.156
1.930E-06,0.148
1.940E-06,0.156
1.950E-06,0.156
1.960E-06,0.160
1.970E-06,0.160
1.980E-06,0.160
1.990E-06,0.152
2.000E-06,0.152
2.010E-06,0.152
2.020E-06,0.156
2.030E-06,0.152
2.040E-06,0.152
2.050E-06,0.140
2.060E-06,0.148
2.070E-06,0.148
2.080E-06,0.160
2.090E-06,0.156
2.100E-06,0.144
2.110E-06,0.144
2.120E-06,0.140
2.130E-06,0.140
2.140E-06,0.140
2.150E-06,0.140
2.160E-06,0.144
2.170E-06,0.152
2.180E-06,0.140
2.190E-06,0.144
2.200E-06,0.140
2.210E-06,0.144
2.220E-06,0.136
2.230E-06,0.144
2.240E-06,0.144
2.250E-06,0.144
2.260E-06,0.140
2.270E-06,0.140
2.280E-06,0.140
2.290E-06,0.136
2.300E-06,0.136
2.310E-06,0.136
2.320E-06,0.144
2.330E-06,0.144
2.340E-06,0.140
2.350E-06,0.132
2.360E-06,0.128
2.370E-06,0.132
2.380E-06,0.140
2.390E-06,0.136
2.400E-06,0.140
2.410E-06,0.140
2.420E-06,0.136
2.430E-06,0.128
2.440E-06,0.128
2.450E-06,0.124
2.460E-06,0.128
2.470E-06,0.124
2.480E-06,0.136
2.490E-06,0.136
2.500E-06,0.136
2.510E-06,0.128
2.520E-06,0.128
2.530E-06,0.124
2.540E-06,0.124
2.550E-06,0.128
2.560E-06,0.128
2.570E-06,0.132
2.580E-06,0.132
2.590E-06,0.128
2.600E-06,0.128
2.610E-06,0.124
2.620E-06,0.120
2.630E-06,0.120
2.640E-06,0.124
2.650E-06,0.124
2.660E-06,0.128
2.670E-06,0.128
2.680E-06,0.124
2.690E-06,0.120
2.700E-06,0.120
2.710E-06,0.120
2.720E-06,0.120
2.730E-06,0.120
2.740E-06,0.120
2.750E-06,0.124
2.760E-06,0.124
2.770E-06,0.120
2.780E-06,0.120
2.790E-06,0.120
2.800E-06,0.120
2.810E-06,0.120
2.820E-06,0.116
2.830E-06,0.120
2.840E-06,0.124
2.850E-06,0.120
2.860E-06,0.112
2.870E-06,0.112
2.880E-06,0.108
2.890E-06,0.112
2.900E-06,0.112
2.910E-06,0.108
2.920E-06,0.112
2.930E-06,0.112
2.940E-06,0.108
2.950E-06,0.104
2.960E-06,0.104
2.970E-06,0.108
2.980E-06,0.104
2.990E-06,0.100
3.000E-06,0.108
3.010E-06,0.112
3.020E-06,0.112
3.030E-06,0.112
3.040E-06,0.108
3.050E-06,0.104
3.060E-06,0.100
3.070E-06,0.100
3.080E-06,0.104
3.090E-06,0.108
3.100E-06,0.108
3.110E-06,0.108
3.120E-06,0.104
3.130E-06,0.104
3.140E-06,0.100
3.150E-06,0.096
3.160E-06,0.100
3.170E-06,0.096
3.180E-06,0.096
3.190E-06,0.104
3.200E-06,0.104
3.210E-06,0.096
3.220E-06,0.096
3.230E-06,0.092
3.240E-06,0.092
3.250E-06,0.092
3.260E-06,0.096
3.270E-06,0.092
3.280E-06,0.092
3.290E-06,0.092
3.300E-06,0.092
3.310E-06,0.088
3.320E-06,0.092
3.330E-06,0.092
3.340E-06,0.096
3.350E-06,0.092
3.360E-06,0.092
3.370E-06,0.088
3.380E-06,0.092
3.390E-06,0.088
3.400E-06,0.088
3.410E-06,0.092
3.420E-06,0.088
3.430E-06,0.092
3.440E-06,0.092
3.450E-06,0.092
3.460E-06,0.088
3.470E-06,0.088
3.480E-06,0.088
3.490E-06,0.088
3.500E-06,0.088
3.510E-06,0.092
3.520E-06,0.088
3.530E-06,0.084
3.540E-06,0.088
3.550E-06,0.088
3.560E-06,0.088
3.570E-06,0.088
3.580E-06,0.088
3.590E-06,0.088
3.600E-06,0.084
3.610E-06,0.088
3.620E-06,0.084
3.630E-06,0.088
3.640E-06,0.088
3.650E-06,0.088
3.660E-06,0.088
3.670E-06,0.080
3.680E-06,0.080
3.690E-06,0.076
3.700E-06,0.084
3.710E-06,0.084
3.720E-06,0.076
3.730E-06,0.080
3.740E-06,0.080
3.750E-06,0.072
3.760E-06,0.072
3.770E-06,0.076
3.780E-06,0.072
3.790E-06,0.080
3.800E-06,0.080
3.810E-06,0.076
3.820E-06,0.076
3.830E-06,0.072
3.840E-06,0.076
3.850E-06,0.072
3.860E-06,0.072
3.870E-06,0.076
3.880E-06,0.076
3.890E-06,0.072
3.900E-06,0.072
3.910E-06,0.076
3.920E-06,0.068
3.930E-06,0.068
3.940E-06,0.064
3.950E-06,0.072
3.960E-06,0.068
3.970E-06,0.068
3.980E-06,0.072
3.990E-06,0.068
4.000E-06,0.068
4.010E-06,0.072
4.020E-06,0.068
4.030E-06,0.064
4.040E-06,0.068
4.050E-06,0.064
4.060E-06,0.064
4.070E-06,0.064
4.080E-06,0.064
4.090E-06,0.068
4.100E-06,0.068
4.110E-06,0.060
4.120E-06,0.068
4.130E-06,0.064
4.140E-06,0.060
4.150E-06,0.060
4.160E-06,0.064
4.170E-06,0.060
4.180E-06,0.060
4.190E-06,0.064
4.200E-06,0.064
4.210E-06,0.056
4.220E-06,0.056
4.230E-06,0.056
4.240E-06,0.060
4.250E-06,0.060
4.260E-06,0.056
4.270E-06,0.060
4.280E-06,0.060
4.290E-06,0.056
4.300E-06,0.056
4.310E-06,0.056
4.320E-06,0.056
4.330E-06,0.056
4.340E-06,0.056
4.350E-06,0.056
4.360E-06,0.056
4.370E-06,0.052
4.380E-06,0.052
4.390E-06,0.056
4.400E-06,0.060
4.410E-06,0.056
4.420E-06,0.052
4.430E-06,0.052
4.440E-06,0.052
4.450E-06,0.040
4.460E-06,0.048
4.470E-06,0.048
4.480E-06,0.056
4.490E-06,0.056
4.500E-06,0.052
4.510E-06,0.052
4.520E-06,0.056
4.530E-06,0.048
4.540E-06,0.044
4.550E-06,0.036
4.560E-06,0.044
4.570E-06,0.048
4.580E-06,0.044
4.590E-06,0.052
4.600E-06,0.056
4.610E-06,0.048
4.620E-06,0.044
4.630E-06,0.036
4.640E-06,0.036
4.650E-06,0.036
4.660E-06,0.044
4.670E-06,0.044
4.680E-06,0.044
4.690E-06,0.040
4.700E-06,0.036
4.710E-06,0.040
4.720E-06,0.032
4.730E-06,0.040
4.740E-06,0.036
4.750E-06,0.036
4.760E-06,0.040
4.770E-06,0.048
4.780E-06,0.040
4.790E-06,0.040
4.800E-06,0.044
4.810E-06,0.044
4.820E-06,0.036
4.830E-06,0.032
4.840E-06,0.036
4.850E-06,0.032
4.860E-06,0.032
4.870E-06,0.036
4.880E-06,0.040
4.890E-06,0.032
4.900E-06,0.036
4.910E-06,0.036
4.920E-06,0.032
4.930E-06,0.032
4.940E-06,0.032
4.950E-06,0.040
4.960E-06,0.040
4.970E-06,0.036
4.980E-06,0.032
4.990E-06,0.032
5.000E-06,0.028
5.010E-06,0.032
5.020E-06,0.028
5.030E-06,0.028
5.040E-06,0.032
5.050E-06,0.028
5.060E-06,0.032
5.070E-06,0.024
5.080E-06,0.024
5.090E-06,0.024
5.100E-06,0.024
5.110E-06,0.028
5.120E-06,0.024
5.130E-06,0.032
5.140E-06,0.032
5.150E-06,0.032
5.160E-06,0.028
5.170E-06,0.024
5.180E-06,0.028
5.190E-06,0.020
5.200E-06,0.024
5.210E-06,0.028
5.220E-06,0.028
5.230E-06,0.028
5.240E-06,0.032
5.250E-06,0.032
5.260E-06,0.024
5.270E-06,0.024
5.280E-06,0.028
5.290E-06,0.024
5.300E-06,0.028
5.310E-06,0.024
5.320E-06,0.024
5.330E-06,0.032
5.340E-06,0.028
5.350E-06,0.024
5.360E-06,0.024
5.370E-06,0.020
5.380E-06,0.024
5.390E-06,0.024
5.400E-06,0.024
5.410E-06,0.028
5.420E-06,0.024
5.430E-06,0.024
5.440E-06,0.024
5.450E-06,0.024
5.460E-06,0.028
5.470E-06,0.020
5.480E-06,0.020
5.490E-06,0.024
5.500E-06,0.028
5.510E-06,0.024
5.520E-06,0.016
5.530E-06,0.024
5.540E-06,0.024
5.550E-06,0.024
5.560E-06,0.020
5.570E-06,0.024
5.580E-06,0.024
5.590E-06,0.020
5.600E-06,0.012
5.610E-06,0.016
5.620E-06,0.016
5.630E-06,0.020
5.640E-06,0.016
5.650E-06,0.020
5.660E-06,0.020
5.670E-06,0.016
5.680E-06,0.016
5.690E-06,0.012
5.700E-06,0.008
5.710E-06,0.012
5.720E-06,0.016
5.730E-06,0.016
5.740E-06,0.012
5.750E-06,0.012
5.760E-06,0.016
5.770E-06,0.012
5.780E-06,0.012
5.790E-06,0.008
5.800E-06,0.008
5.810E-06,0.012
5.820E-06,0.008
5.830E-06,0.008
5.840E-06,0.008
5.850E-06,0.016
5.860E-06,0.008
5.870E-06,0.008
5.880E-06,0.008
5.890E-06,0.008
5.900E-06,0.012
5.910E-06,0.012
5.920E-06,0.008
5.930E-06,0.008
5.940E-06,0.008
5.950E-06,0.008
5.960E-06,0.008
5.970E-06,0.008
5.980E-06,0.004
5.990E-06,0.004
6.000E-06,0.008
6.010E-06,0.004
6.020E-06,0.004
6.030E-06,0.004
6.040E-06,0.000
6.050E-06,0.004
6.060E-06,0.000
6.070E-06,0.004
6.080E-06,0.004
6.090E-06,0.004
6.100E-06,0.008
6.110E-06,0.008
6.120E-06,0.004
6.130E-06,0.004
6.140E-06,0.008
6.150E-06,-0.004
6.160E-06,0.000
6.170E-06,0.004
6.180E-06,0.000
6.190E-06,0.000
6.200E-06,0.000
6.210E-06,0.000
6.220E-06,0.000
6.230E-06,0.000
6.240E-06,0.000
6.250E-06,0.000
6.260E-06,0.000
6.270E-06,0.000
6.280E-06,-0.004
6.290E-06,0.000
6.300E-06,-0.004
6.310E-06,0.000
6.320E-06,-0.004
6.330E-06,0.000
6.340E-06,-0.004
6.350E-06,-0.004
6.360E-06,-0.004
6.370E-06,-0.004
6.380E-06,-0.004
6.390E-06,-0.004
6.400E-06,0.000
6.410E-06,-0.004
6.420E-06,-0.004
6.430E-06,-0.004
6.440E-06,-0.004
6.450E-06,-0.004
6.460E-06,-0.004
6.470E-06,-0.004
6.480E-06,-0.004
6.490E-06,-0.004
6.500E-06,0.000
6.510E-06,-0.004
6.520E-06,-0.008
6.530E-06,0.000
6.540E-06,-0.004
6.550E-06,-0.004
6.560E-06,0.000
6.570E-06,-0.004
6.580E-06,-0.004
6.590E-06,-0.008
6.600E-06,-0.008
6.610E-06,-0.008
6.620E-06,-0.008
6.630E-06,-0.008
6.640E-06,-0.004
6.650E-06,-0.004
6.660E-06,-0.012
6.670E-06,-0.004
6.680E-06,-0.004
6.690E-06,-0.008
6.700E-06,-0.004
6.710E-06,-0.008
6.720E-06,-0.008
6.730E-06,-0.008
6.740E-06,-0.008
6.750E-06,-0.008
6.760E-06,-0.008
6.770E-06,-0.008
6.780E-06,-0.004
6.790E-06,-0.004
6.800E-06,-0.008
6.810E-06,-0.004
6.820E-06,-0.008
6.830E-06,-0.004
6.840E-06,-0.008
6.850E-06,-0.008
6.860E-06,-0.012
6.870E-06,-0.008
6.880E-06,-0.016
6.890E-06,-0.012
6.900E-06,-0.016
6.910E-06,-0.012
6.920E-06,-0.012
6.930E-06,-0.008
6.940E-06,-0.012
6.950E-06,-0.012
6.960E-06,-0.012
6.970E-06,-0.012
6.980E-06,-0.016
6.990E-06,-0.016
7.000E-06,-0.016
7.010E-06,-0.016
7.020E-06,-0.008
7.030E-06,-0.012
7.040E-06,-0.012
7.050E-06,-0.012
7.060E-06,-0.012
7.070E-06,-0.012
7.080E-06,-0.012
7.090E-06,-0.012
7.100E-06,-0.016
7.110E-06,-0.020
7.120E-06,-0.012
7.130E-06,-0.012
7.140E-06,-0.016
7.150E-06,-0.024
7.160E-06,-0.012
7.170E-06,-0.016
7.180E-06,-0.016
7.190E-06,-0.024
7.200E-06,-0.020
7.210E-06,-0.016
7.220E-06,-0.016
7.230E-06,-0.020
7.240E-06,-0.024
7.250E-06,-0.012
7.260E-06,-0.016
7.270E-06,-0.024
7.280E-06,-0.016
7.290E-06,-0.020
7.300E-06,-0.020
7.310E-06,-0.020
7.320E-06,-0.024
7.330E-06,-0.020
7.340E-06,-0.016
7.350E-06,-0.016
7.360E-06,-0.020
7.370E-06,-0.024
7.380E-06,-0.028
7.390E-06,-0.020
7.400E-06,-0.020
7.410E-06,-0.024
7.420E-06,-0.028
7.430E-06,-0.020
7.440E-06,-0.020
7.450E-06,-0.024
7.460E-06,-0.024
7.470E-06,-0.016
7.480E-06,-0.016
7.490E-06,-0.024
7.500E-06,-0.024
7.510E-06,-0.024
7.520E-06,-0.028
7.530E-06,-0.024
7.540E-06,-0.028
7.550E-06,-0.028
7.560E-06,-0.028
7.570E-06,-0.028
7.580E-06,-0.028
7.590E-06,-0.032
7.600E-06,-0.020
7.610E-06,-0.024
7.620E-06,-0.028
7.630E-06,-0.032
7.640E-06,-0.024
7.650E-06,-0.024
7.660E-06,-0.028
7.670E-06,-0.028
7.680E-06,-0.020
7.690E-06,-0.028
7.700E-06,-0.028
7.710E-06,-0.032
7.720E-06,-0.028
7.730E-06,-0.024
7.740E-06,-0.028
7.750E-06,-0.032
7.760E-06,-0.028
7.770E-06,-0.024
7.780E-06,-0.028
7.790E-06,-0.032
7.800E-06,-0.028
7.810E-06,-0.032
