mediciones/Mediciones filtradas (saque las feas)/6-10/22.5/WaveData5583.csv

#timebase=2000000(ps)
,#voltbase=100000(mv/100)
#size=4000
-4.250E-06,0.016
-4.240E-06,0.012
-4.230E-06,0.000
-4.220E-06,-0.004
-4.210E-06,0.000
-4.200E-06,-0.004
-4.190E-06,0.012
-4.180E-06,0.004
-4.170E-06,0.004
-4.160E-06,0.000
-4.150E-06,0.000
-4.140E-06,-0.004
-4.130E-06,0.000
-4.120E-06,0.000
-4.110E-06,0.008
-4.100E-06,0.024
-4.090E-06,0.004
-4.080E-06,0.012
-4.070E-06,0.008
-4.060E-06,0.000
-4.050E-06,-0.004
-4.040E-06,-0.012
-4.030E-06,0.008
-4.020E-06,0.008
-4.010E-06,0.016
-4.000E-06,0.020
-3.990E-06,0.004
-3.980E-06,-0.008
-3.970E-06,-0.016
-3.960E-06,-0.008
-3.950E-06,0.000
-3.940E-06,0.020
-3.930E-06,0.020
-3.920E-06,0.016
-3.910E-06,0.000
-3.900E-06,-0.016
-3.890E-06,-0.016
-3.880E-06,0.000
-3.870E-06,0.000
-3.860E-06,0.016
-3.850E-06,0.008
-3.840E-06,0.012
-3.830E-06,0.008
-3.820E-06,0.000
-3.810E-06,0.000
-3.800E-06,-0.004
-3.790E-06,0.004
-3.780E-06,0.000
-3.770E-06,0.008
-3.760E-06,0.004
-3.750E-06,0.008
-3.740E-06,-0.004
-3.730E-06,0.000
-3.720E-06,0.000
-3.710E-06,0.012
-3.700E-06,0.012
-3.690E-06,0.012
-3.680E-06,-0.004
-3.670E-06,-0.004
-3.660E-06,0.000
-3.650E-06,0.000
-3.640E-06,0.000
-3.630E-06,0.004
-3.620E-06,0.004
-3.610E-06,0.004
-3.600E-06,0.004
-3.590E-06,0.000
-3.580E-06,0.000
-3.570E-06,0.004
-3.560E-06,0.008
-3.550E-06,0.012
-3.540E-06,0.008
-3.530E-06,0.008
-3.520E-06,0.000
-3.510E-06,0.000
-3.500E-06,0.004
-3.490E-06,-0.004
-3.480E-06,0.004
-3.470E-06,-0.004
-3.460E-06,-0.004
-3.450E-06,0.000
-3.440E-06,0.004
-3.430E-06,0.008
-3.420E-06,0.008
-3.410E-06,0.000
-3.400E-06,0.000
-3.390E-06,-0.004
-3.380E-06,0.004
-3.370E-06,0.000
-3.360E-06,0.000
-3.350E-06,0.008
-3.340E-06,0.000
-3.330E-06,0.000
-3.320E-06,0.000
-3.310E-06,0.000
-3.300E-06,0.008
-3.290E-06,-0.004
-3.280E-06,-0.004
-3.270E-06,0.000
-3.260E-06,0.004
-3.250E-06,0.004
-3.240E-06,0.008
-3.230E-06,0.008
-3.220E-06,0.008
-3.210E-06,0.000
-3.200E-06,-0.008
-3.190E-06,0.012
-3.180E-06,0.004
-3.170E-06,-0.004
-3.160E-06,0.004
-3.150E-06,0.004
-3.140E-06,0.004
-3.130E-06,0.008
-3.120E-06,0.008
-3.110E-06,0.000
-3.100E-06,-0.004
-3.090E-06,0.000
-3.080E-06,-0.004
-3.070E-06,0.004
-3.060E-06,0.012
-3.050E-06,0.004
-3.040E-06,0.008
-3.030E-06,0.008
-3.020E-06,0.000
-3.010E-06,-0.008
-3.000E-06,-0.004
-2.990E-06,0.000
-2.980E-06,0.012
-2.970E-06,0.016
-2.960E-06,0.008
-2.950E-06,0.004
-2.940E-06,0.000
-2.930E-06,-0.004
-2.920E-06,-0.004
-2.910E-06,0.004
-2.900E-06,0.008
-2.890E-06,0.004
-2.880E-06,0.008
-2.870E-06,0.012
-2.860E-06,0.004
-2.850E-06,0.008
-2.840E-06,0.004
-2.830E-06,0.020
-2.820E-06,0.008
-2.810E-06,0.000
-2.800E-06,-0.008
-2.790E-06,-0.020
-2.780E-06,-0.008
-2.770E-06,-0.004
-2.760E-06,0.016
-2.750E-06,0.024
-2.740E-06,0.012
-2.730E-06,0.004
-2.720E-06,-0.004
-2.710E-06,-0.016
-2.700E-06,-0.028
-2.690E-06,0.000
-2.680E-06,0.000
-2.670E-06,0.016
-2.660E-06,0.016
-2.650E-06,0.008
-2.640E-06,0.008
-2.630E-06,0.000
-2.620E-06,-0.016
-2.610E-06,-0.012
-2.600E-06,-0.004
-2.590E-06,0.008
-2.580E-06,0.016
-2.570E-06,0.016
-2.560E-06,0.012
-2.550E-06,-0.008
-2.540E-06,-0.004
-2.530E-06,-0.008
-2.520E-06,-0.004
-2.510E-06,0.004
-2.500E-06,0.016
-2.490E-06,0.016
-2.480E-06,0.012
-2.470E-06,0.004
-2.460E-06,-0.004
-2.450E-06,-0.004
-2.440E-06,0.012
-2.430E-06,0.004
-2.420E-06,0.012
-2.410E-06,0.012
-2.400E-06,0.012
-2.390E-06,-0.004
-2.380E-06,0.004
-2.370E-06,-0.004
-2.360E-06,0.004
-2.350E-06,0.004
-2.340E-06,0.012
-2.330E-06,0.012
-2.320E-06,0.000
-2.310E-06,0.000
-2.300E-06,-0.008
-2.290E-06,-0.004
-2.280E-06,0.004
-2.270E-06,0.024
-2.260E-06,0.016
-2.250E-06,0.012
-2.240E-06,-0.004
-2.230E-06,-0.012
-2.220E-06,-0.004
-2.210E-06,-0.008
-2.200E-06,0.000
-2.190E-06,0.004
-2.180E-06,0.020
-2.170E-06,0.008
-2.160E-06,-0.004
-2.150E-06,-0.004
-2.140E-06,0.000
-2.130E-06,-0.004
-2.120E-06,0.008
-2.110E-06,0.008
-2.100E-06,0.012
-2.090E-06,0.012
-2.080E-06,0.004
-2.070E-06,0.004
-2.060E-06,0.000
-2.050E-06,0.000
-2.040E-06,0.004
-2.030E-06,0.008
-2.020E-06,0.016
-2.010E-06,0.012
-2.000E-06,0.008
-1.990E-06,0.008
-1.980E-06,0.008
-1.970E-06,0.000
-1.960E-06,0.008
-1.950E-06,0.012
-1.940E-06,0.020
-1.930E-06,0.028
-1.920E-06,0.016
-1.910E-06,0.012
-1.900E-06,0.000
-1.890E-06,0.008
-1.880E-06,0.008
-1.870E-06,0.020
-1.860E-06,0.020
-1.850E-06,0.020
-1.840E-06,0.008
-1.830E-06,-0.008
-1.820E-06,-0.020
-1.810E-06,0.004
-1.800E-06,0.016
-1.790E-06,0.016
-1.780E-06,0.076
-1.770E-06,0.028
-1.760E-06,0.008
-1.750E-06,-0.048
-1.740E-06,-0.076
-1.730E-06,-0.060
-1.720E-06,-0.028
-1.710E-06,0.036
-1.700E-06,0.028
-1.690E-06,0.024
-1.680E-06,0.012
-1.670E-06,-0.016
-1.660E-06,-0.028
-1.650E-06,-0.028
-1.640E-06,-0.016
-1.630E-06,-0.008
-1.620E-06,0.012
-1.610E-06,0.028
-1.600E-06,0.044
-1.590E-06,0.020
-1.580E-06,0.012
-1.570E-06,-0.024
-1.560E-06,-0.016
-1.550E-06,-0.012
-1.540E-06,0.004
-1.530E-06,0.020
-1.520E-06,0.028
-1.510E-06,0.024
-1.500E-06,-0.004
-1.490E-06,-0.008
-1.480E-06,-0.020
-1.470E-06,0.008
-1.460E-06,0.016
-1.450E-06,0.032
-1.440E-06,0.028
-1.430E-06,0.024
-1.420E-06,0.004
-1.410E-06,-0.012
-1.400E-06,-0.020
-1.390E-06,-0.012
-1.380E-06,0.012
-1.370E-06,0.032
-1.360E-06,0.040
-1.350E-06,0.032
-1.340E-06,-0.004
-1.330E-06,-0.004
-1.320E-06,0.000
-1.310E-06,0.012
-1.300E-06,0.012
-1.290E-06,0.024
-1.280E-06,0.016
-1.270E-06,0.024
-1.260E-06,0.004
-1.250E-06,-0.016
-1.240E-06,-0.016
-1.230E-06,-0.012
-1.220E-06,0.000
-1.210E-06,-0.004
-1.200E-06,0.012
-1.190E-06,0.016
-1.180E-06,0.008
-1.170E-06,0.024
-1.160E-06,0.016
-1.150E-06,0.028
-1.140E-06,0.028
-1.130E-06,0.016
-1.120E-06,0.028
-1.110E-06,0.020
-1.100E-06,0.008
-1.090E-06,0.000
-1.080E-06,-0.012
-1.070E-06,-0.036
-1.060E-06,-0.040
-1.050E-06,-0.024
-1.040E-06,0.004
-1.030E-06,0.016
-1.020E-06,0.024
-1.010E-06,0.008
-1.000E-06,0.012
-9.900E-07,-0.008
-9.800E-07,0.016
-9.700E-07,0.016
-9.600E-07,0.032
-9.500E-07,0.028
-9.400E-07,0.004
-9.300E-07,-0.004
-9.200E-07,0.000
-9.100E-07,0.000
-9.000E-07,-0.004
-8.900E-07,0.012
-8.800E-07,-0.004
-8.700E-07,-0.012
-8.600E-07,-0.032
-8.500E-07,-0.020
-8.400E-07,0.008
-8.300E-07,0.032
-8.200E-07,0.040
-8.100E-07,0.036
-8.000E-07,0.028
-7.900E-07,0.016
-7.800E-07,0.008
-7.700E-07,0.008
-7.600E-07,0.020
-7.500E-07,0.032
-7.400E-07,0.044
-7.300E-07,0.028
-7.200E-07,0.008
-7.100E-07,-0.020
-7.000E-07,-0.040
-6.900E-07,-0.024
-6.800E-07,0.000
-6.700E-07,0.028
-6.600E-07,0.048
-6.500E-07,0.056
-6.400E-07,0.044
-6.300E-07,0.044
-6.200E-07,0.032
-6.100E-07,0.048
-6.000E-07,0.056
-5.900E-07,0.064
-5.800E-07,0.068
-5.700E-07,0.044
-5.600E-07,0.044
-5.500E-07,0.024
-5.400E-07,0.012
-5.300E-07,0.012
-5.200E-07,0.040
-5.100E-07,0.068
-5.000E-07,0.080
-4.900E-07,0.100
-4.800E-07,0.104
-4.700E-07,0.084
-4.600E-07,0.024
-4.500E-07,0.032
-4.400E-07,-0.044
-4.300E-07,-0.068
-4.200E-07,-0.112
-4.100E-07,-0.108
-4.000E-07,-0.032
-3.900E-07,-0.020
-3.800E-07,-0.024
-3.700E-07,-0.008
-3.600E-07,-0.036
-3.500E-07,-0.052
-3.400E-07,-0.060
-3.300E-07,-0.060
-3.200E-07,-0.028
-3.100E-07,0.024
-3.000E-07,0.036
-2.900E-07,0.036
-2.800E-07,0.008
-2.700E-07,0.020
-2.600E-07,0.032
-2.500E-07,0.068
-2.400E-07,0.092
-2.300E-07,0.120
-2.200E-07,0.132
-2.100E-07,0.128
-2.000E-07,0.112
-1.900E-07,0.072
-1.800E-07,0.048
-1.700E-07,0.028
-1.600E-07,0.056
-1.500E-07,0.080
-1.400E-07,0.100
-1.300E-07,0.092
-1.200E-07,0.136
-1.100E-07,0.132
-1.000E-07,0.112
-9.000E-08,0.044
-8.000E-08,0.052
-7.000E-08,0.088
-6.000E-08,0.132
-5.000E-08,-0.252
-4.000E-08,-0.508
-3.000E-08,-0.512
-2.000E-08,-0.512
-1.000E-08,-0.192
0.000E+00,0.540
1.000E-08,0.540
2.000E-08,0.540
3.000E-08,0.180
4.000E-08,-0.512
5.000E-08,-0.512
6.000E-08,-0.512
7.000E-08,-0.036
8.000E-08,0.540
9.000E-08,0.536
1.000E-07,0.500
1.100E-07,0.184
1.200E-07,-0.284
1.300E-07,-0.448
1.400E-07,-0.420
1.500E-07,-0.180
1.600E-07,0.172
1.700E-07,0.396
1.800E-07,0.348
1.900E-07,0.160
2.000E-07,-0.100
2.100E-07,-0.308
2.200E-07,-0.292
2.300E-07,-0.172
2.400E-07,0.056
2.500E-07,0.204
2.600E-07,0.292
2.700E-07,0.204
2.800E-07,0.012
2.900E-07,-0.172
3.000E-07,-0.232
3.100E-07,-0.148
3.200E-07,-0.008
3.300E-07,0.140
3.400E-07,0.188
3.500E-07,0.180
3.600E-07,0.056
3.700E-07,-0.048
3.800E-07,-0.092
3.900E-07,-0.068
4.000E-07,0.020
4.100E-07,0.128
4.200E-07,0.232
4.300E-07,0.248
4.400E-07,0.196
4.500E-07,0.108
4.600E-07,0.044
4.700E-07,0.024
4.800E-07,0.072
4.900E-07,0.100
5.000E-07,0.128
5.100E-07,0.124
5.200E-07,0.084
5.300E-07,0.004
5.400E-07,-0.072
5.500E-07,-0.112
5.600E-07,-0.092
5.700E-07,-0.036
5.800E-07,-0.012
5.900E-07,0.004
6.000E-07,-0.024
6.100E-07,-0.048
6.200E-07,-0.064
6.300E-07,-0.064
6.400E-07,-0.024
6.500E-07,0.024
6.600E-07,0.148
6.700E-07,0.164
6.800E-07,0.192
6.900E-07,0.164
7.000E-07,0.128
7.100E-07,0.092
7.200E-07,0.096
7.300E-07,0.120
7.400E-07,0.156
7.500E-07,0.212
7.600E-07,0.196
7.700E-07,0.168
7.800E-07,0.128
7.900E-07,0.120
8.000E-07,0.104
8.100E-07,0.140
8.200E-07,0.168
8.300E-07,0.216
8.400E-07,0.208
8.500E-07,0.188
8.600E-07,0.112
8.700E-07,0.068
8.800E-07,0.060
8.900E-07,0.068
9.000E-07,0.104
9.100E-07,0.128
9.200E-07,0.084
9.300E-07,0.020
9.400E-07,-0.060
9.500E-07,-0.116
9.600E-07,-0.140
9.700E-07,-0.064
9.800E-07,0.028
9.900E-07,0.176
1.000E-06,0.284
1.010E-06,0.308
1.020E-06,0.244
1.030E-06,0.172
1.040E-06,0.004
1.050E-06,-0.028
1.060E-06,-0.028
1.070E-06,0.028
1.080E-06,0.052
1.090E-06,0.028
1.100E-06,0.036
1.110E-06,0.044
1.120E-06,0.112
1.130E-06,0.084
1.140E-06,0.028
1.150E-06,-0.044
1.160E-06,-0.148
1.170E-06,-0.184
1.180E-06,-0.224
1.190E-06,-0.140
1.200E-06,0.016
1.210E-06,0.068
1.220E-06,0.100
1.230E-06,0.076
1.240E-06,-0.036
1.250E-06,-0.072
1.260E-06,-0.012
1.270E-06,0.064
1.280E-06,0.076
1.290E-06,0.148
1.300E-06,0.144
1.310E-06,0.132
1.320E-06,0.104
1.330E-06,0.144
1.340E-06,0.188
1.350E-06,0.200
1.360E-06,0.216
1.370E-06,0.236
1.380E-06,0.228
1.390E-06,0.180
1.400E-06,0.128
1.410E-06,0.124
1.420E-06,0.128
1.430E-06,0.164
1.440E-06,0.204
1.450E-06,0.204
1.460E-06,0.212
1.470E-06,0.168
1.480E-06,0.148
1.490E-06,0.144
1.500E-06,0.152
1.510E-06,0.180
1.520E-06,0.196
1.530E-06,0.228
1.540E-06,0.224
1.550E-06,0.212
1.560E-06,0.188
1.570E-06,0.184
1.580E-06,0.180
1.590E-06,0.196
1.600E-06,0.208
1.610E-06,0.220
1.620E-06,0.224
1.630E-06,0.212
1.640E-06,0.204
1.650E-06,0.192
1.660E-06,0.188
1.670E-06,0.192
1.680E-06,0.204
1.690E-06,0.212
1.700E-06,0.220
1.710E-06,0.212
1.720E-06,0.204
1.730E-06,0.196
1.740E-06,0.196
1.750E-06,0.192
1.760E-06,0.196
1.770E-06,0.212
1.780E-06,0.208
1.790E-06,0.208
1.800E-06,0.208
1.810E-06,0.204
1.820E-06,0.196
1.830E-06,0.200
1.840E-06,0.200
1.850E-06,0.204
1.860E-06,0.208
1.870E-06,0.204
1.880E-06,0.208
1.890E-06,0.208
1.900E-06,0.200
1.910E-06,0.200
1.920E-06,0.204
1.930E-06,0.200
1.940E-06,0.204
1.950E-06,0.204
1.960E-06,0.208
1.970E-06,0.208
1.980E-06,0.200
1.990E-06,0.196
2.000E-06,0.204
2.010E-06,0.208
2.020E-06,0.200
2.030E-06,0.200
2.040E-06,0.204
2.050E-06,0.200
2.060E-06,0.200
2.070E-06,0.196
2.080E-06,0.192
2.090E-06,0.200
2.100E-06,0.200
2.110E-06,0.196
2.120E-06,0.196
2.130E-06,0.196
2.140E-06,0.196
2.150E-06,0.192
2.160E-06,0.196
2.170E-06,0.196
2.180E-06,0.200
2.190E-06,0.196
2.200E-06,0.200
2.210E-06,0.196
2.220E-06,0.196
2.230E-06,0.192
2.240E-06,0.196
2.250E-06,0.196
2.260E-06,0.196
2.270E-06,0.196
2.280E-06,0.192
2.290E-06,0.192
2.300E-06,0.192
2.310E-06,0.196
2.320E-06,0.240
2.330E-06,0.212
2.340E-06,0.172
2.350E-06,0.176
2.360E-06,0.176
2.370E-06,0.172
2.380E-06,0.172
2.390E-06,0.220
2.400E-06,0.192
2.410E-06,0.188
2.420E-06,0.188
2.430E-06,0.192
2.440E-06,0.180
2.450E-06,0.176
2.460E-06,0.208
2.470E-06,0.192
2.480E-06,0.196
2.490E-06,0.200
2.500E-06,0.196
2.510E-06,0.192
2.520E-06,0.184
2.530E-06,0.188
2.540E-06,0.184
2.550E-06,0.176
2.560E-06,0.188
2.570E-06,0.192
2.580E-06,0.188
2.590E-06,0.180
2.600E-06,0.180
2.610E-06,0.176
2.620E-06,0.176
2.630E-06,0.176
2.640E-06,0.184
2.650E-06,0.188
2.660E-06,0.188
2.670E-06,0.184
2.680E-06,0.180
2.690E-06,0.172
2.700E-06,0.164
2.710E-06,0.172
2.720E-06,0.168
2.730E-06,0.176
2.740E-06,0.176
2.750E-06,0.176
2.760E-06,0.180
2.770E-06,0.180
2.780E-06,0.168
2.790E-06,0.168
2.800E-06,0.176
2.810E-06,0.172
2.820E-06,0.176
2.830E-06,0.164
2.840E-06,0.176
2.850E-06,0.164
2.860E-06,0.168
2.870E-06,0.160
2.880E-06,0.168
2.890E-06,0.176
2.900E-06,0.176
2.910E-06,0.172
2.920E-06,0.176
2.930E-06,0.168
2.940E-06,0.164
2.950E-06,0.164
2.960E-06,0.172
2.970E-06,0.164
2.980E-06,0.156
2.990E-06,0.164
3.000E-06,0.164
3.010E-06,0.168
3.020E-06,0.168
3.030E-06,0.164
3.040E-06,0.164
3.050E-06,0.160
3.060E-06,0.160
3.070E-06,0.164
3.080E-06,0.168
3.090E-06,0.164
3.100E-06,0.164
3.110E-06,0.164
3.120E-06,0.164
3.130E-06,0.172
3.140E-06,0.176
3.150E-06,0.184
3.160E-06,0.180
3.170E-06,0.164
3.180E-06,0.160
3.190E-06,0.148
3.200E-06,0.144
3.210E-06,0.152
3.220E-06,0.156
3.230E-06,0.164
3.240E-06,0.160
3.250E-06,0.160
3.260E-06,0.160
3.270E-06,0.148
3.280E-06,0.144
3.290E-06,0.152
3.300E-06,0.160
3.310E-06,0.156
3.320E-06,0.156
3.330E-06,0.156
3.340E-06,0.152
3.350E-06,0.148
3.360E-06,0.140
3.370E-06,0.136
3.380E-06,0.136
3.390E-06,0.144
3.400E-06,0.148
3.410E-06,0.156
3.420E-06,0.160
3.430E-06,0.152
3.440E-06,0.148
3.450E-06,0.144
3.460E-06,0.136
3.470E-06,0.140
3.480E-06,0.152
3.490E-06,0.152
3.500E-06,0.148
3.510E-06,0.148
3.520E-06,0.140
3.530E-06,0.140
3.540E-06,0.136
3.550E-06,0.140
3.560E-06,0.144
3.570E-06,0.148
3.580E-06,0.148
3.590E-06,0.144
3.600E-06,0.148
3.610E-06,0.144
3.620E-06,0.144
3.630E-06,0.144
3.640E-06,0.140
3.650E-06,0.140
3.660E-06,0.144
3.670E-06,0.144
3.680E-06,0.136
3.690E-06,0.140
3.700E-06,0.128
3.710E-06,0.132
3.720E-06,0.132
3.730E-06,0.140
3.740E-06,0.136
3.750E-06,0.136
3.760E-06,0.136
3.770E-06,0.132
3.780E-06,0.136
3.790E-06,0.132
3.800E-06,0.132
3.810E-06,0.132
3.820E-06,0.128
3.830E-06,0.132
3.840E-06,0.132
3.850E-06,0.136
3.860E-06,0.132
3.870E-06,0.132
3.880E-06,0.128
3.890E-06,0.124
3.900E-06,0.124
3.910E-06,0.128
3.920E-06,0.136
3.930E-06,0.136
3.940E-06,0.128
3.950E-06,0.124
3.960E-06,0.120
3.970E-06,0.120
3.980E-06,0.120
3.990E-06,0.116
4.000E-06,0.120
4.010E-06,0.128
4.020E-06,0.128
4.030E-06,0.124
4.040E-06,0.124
4.050E-06,0.120
4.060E-06,0.124
4.070E-06,0.124
4.080E-06,0.128
4.090E-06,0.124
4.100E-06,0.124
4.110E-06,0.124
4.120E-06,0.120
4.130E-06,0.112
4.140E-06,0.108
4.150E-06,0.120
4.160E-06,0.120
4.170E-06,0.124
4.180E-06,0.124
4.190E-06,0.108
4.200E-06,0.112
4.210E-06,0.112
4.220E-06,0.112
4.230E-06,0.116
4.240E-06,0.112
4.250E-06,0.116
4.260E-06,0.112
4.270E-06,0.112
4.280E-06,0.112
4.290E-06,0.116
4.300E-06,0.112
4.310E-06,0.108
4.320E-06,0.108
4.330E-06,0.112
4.340E-06,0.108
4.350E-06,0.104
4.360E-06,0.108
4.370E-06,0.112
4.380E-06,0.112
4.390E-06,0.108
4.400E-06,0.112
4.410E-06,0.108
4.420E-06,0.104
4.430E-06,0.108
4.440E-06,0.104
4.450E-06,0.108
4.460E-06,0.108
4.470E-06,0.108
4.480E-06,0.104
4.490E-06,0.104
4.500E-06,0.096
4.510E-06,0.100
4.520E-06,0.104
4.530E-06,0.104
4.540E-06,0.100
4.550E-06,0.108
4.560E-06,0.108
4.570E-06,0.108
4.580E-06,0.104
4.590E-06,0.096
4.600E-06,0.092
4.610E-06,0.096
4.620E-06,0.100
4.630E-06,0.100
4.640E-06,0.104
4.650E-06,0.104
4.660E-06,0.096
4.670E-06,0.100
4.680E-06,0.092
4.690E-06,0.096
4.700E-06,0.092
4.710E-06,0.100
4.720E-06,0.096
4.730E-06,0.104
4.740E-06,0.100
4.750E-06,0.092
4.760E-06,0.096
4.770E-06,0.092
4.780E-06,0.092
4.790E-06,0.096
4.800E-06,0.096
4.810E-06,0.096
4.820E-06,0.092
4.830E-06,0.088
4.840E-06,0.088
4.850E-06,0.092
4.860E-06,0.092
4.870E-06,0.088
4.880E-06,0.092
4.890E-06,0.092
4.900E-06,0.092
4.910E-06,0.088
4.920E-06,0.088
4.930E-06,0.084
4.940E-06,0.080
4.950E-06,0.084
4.960E-06,0.084
4.970E-06,0.092
4.980E-06,0.084
4.990E-06,0.084
5.000E-06,0.076
5.010E-06,0.076
5.020E-06,0.076
5.030E-06,0.076
5.040E-06,0.080
5.050E-06,0.080
5.060E-06,0.084
5.070E-06,0.084
5.080E-06,0.088
5.090E-06,0.080
5.100E-06,0.072
5.110E-06,0.072
5.120E-06,0.072
5.130E-06,0.076
5.140E-06,0.080
5.150E-06,0.080
5.160E-06,0.080
5.170E-06,0.076
5.180E-06,0.072
5.190E-06,0.068
5.200E-06,0.068
5.210E-06,0.076
5.220E-06,0.072
5.230E-06,0.080
5.240E-06,0.080
5.250E-06,0.072
5.260E-06,0.064
5.270E-06,0.064
5.280E-06,0.060
5.290E-06,0.064
5.300E-06,0.072
5.310E-06,0.076
5.320E-06,0.072
5.330E-06,0.068
5.340E-06,0.072
5.350E-06,0.068
5.360E-06,0.060
5.370E-06,0.064
5.380E-06,0.068
5.390E-06,0.064
5.400E-06,0.068
5.410E-06,0.068
5.420E-06,0.064
5.430E-06,0.064
5.440E-06,0.060
5.450E-06,0.064
5.460E-06,0.060
5.470E-06,0.060
5.480E-06,0.068
5.490E-06,0.068
5.500E-06,0.068
5.510E-06,0.064
5.520E-06,0.060
5.530E-06,0.060
5.540E-06,0.060
5.550E-06,0.056
5.560E-06,0.064
5.570E-06,0.068
5.580E-06,0.068
5.590E-06,0.064
5.600E-06,0.060
5.610E-06,0.056
5.620E-06,0.060
5.630E-06,0.060
5.640E-06,0.060
5.650E-06,0.060
5.660E-06,0.060
5.670E-06,0.060
5.680E-06,0.064
5.690E-06,0.060
5.700E-06,0.060
5.710E-06,0.056
5.720E-06,0.064
5.730E-06,0.064
5.740E-06,0.060
5.750E-06,0.056
5.760E-06,0.056
5.770E-06,0.064
5.780E-06,0.060
5.790E-06,0.052
5.800E-06,0.060
5.810E-06,0.060
5.820E-06,0.060
5.830E-06,0.064
5.840E-06,0.060
5.850E-06,0.060
5.860E-06,0.052
5.870E-06,0.048
5.880E-06,0.052
5.890E-06,0.060
5.900E-06,0.056
5.910E-06,0.060
5.920E-06,0.064
5.930E-06,0.060
5.940E-06,0.044
5.950E-06,0.044
5.960E-06,0.052
5.970E-06,0.056
5.980E-06,0.056
5.990E-06,0.056
6.000E-06,0.056
6.010E-06,0.052
6.020E-06,0.044
6.030E-06,0.044
6.040E-06,0.040
6.050E-06,0.048
6.060E-06,0.056
6.070E-06,0.056
6.080E-06,0.056
6.090E-06,0.056
6.100E-06,0.048
6.110E-06,0.044
6.120E-06,0.048
6.130E-06,0.044
6.140E-06,0.044
6.150E-06,0.048
6.160E-06,0.052
6.170E-06,0.044
6.180E-06,0.044
6.190E-06,0.036
6.200E-06,0.040
6.210E-06,0.036
6.220E-06,0.036
6.230E-06,0.044
6.240E-06,0.048
6.250E-06,0.044
6.260E-06,0.044
6.270E-06,0.028
6.280E-06,0.032
6.290E-06,0.028
6.300E-06,0.036
6.310E-06,0.044
6.320E-06,0.040
6.330E-06,0.032
6.340E-06,0.028
6.350E-06,0.028
6.360E-06,0.032
6.370E-06,0.024
6.380E-06,0.032
6.390E-06,0.036
6.400E-06,0.036
6.410E-06,0.036
6.420E-06,0.028
6.430E-06,0.028
6.440E-06,0.028
6.450E-06,0.032
6.460E-06,0.024
6.470E-06,0.024
6.480E-06,0.032
6.490E-06,0.028
6.500E-06,0.028
6.510E-06,0.028
6.520E-06,0.024
6.530E-06,0.024
6.540E-06,0.024
6.550E-06,0.028
6.560E-06,0.028
6.570E-06,0.036
6.580E-06,0.028
6.590E-06,0.024
6.600E-06,0.028
6.610E-06,0.024
6.620E-06,0.020
6.630E-06,0.024
6.640E-06,0.020
6.650E-06,0.024
6.660E-06,0.028
6.670E-06,0.024
6.680E-06,0.024
6.690E-06,0.024
6.700E-06,0.024
6.710E-06,0.020
6.720E-06,0.024
6.730E-06,0.028
6.740E-06,0.024
6.750E-06,0.020
6.760E-06,0.024
6.770E-06,0.016
6.780E-06,0.020
6.790E-06,0.016
6.800E-06,0.020
6.810E-06,0.016
6.820E-06,0.020
6.830E-06,0.024
6.840E-06,0.020
6.850E-06,0.020
6.860E-06,0.016
6.870E-06,0.016
6.880E-06,0.012
6.890E-06,0.016
6.900E-06,0.012
6.910E-06,0.012
6.920E-06,0.012
6.930E-06,0.016
6.940E-06,0.012
6.950E-06,0.008
6.960E-06,0.008
6.970E-06,0.012
6.980E-06,0.008
6.990E-06,0.012
7.000E-06,0.016
7.010E-06,0.012
7.020E-06,0.012
7.030E-06,0.012
7.040E-06,0.012
7.050E-06,0.012
7.060E-06,0.012
7.070E-06,0.008
7.080E-06,0.012
7.090E-06,0.016
7.100E-06,0.012
7.110E-06,0.008
7.120E-06,0.012
7.130E-06,0.008
7.140E-06,0.012
7.150E-06,0.012
7.160E-06,0.008
7.170E-06,0.012
7.180E-06,0.012
7.190E-06,0.012
7.200E-06,0.012
7.210E-06,0.012
7.220E-06,0.008
7.230E-06,0.004
7.240E-06,0.008
7.250E-06,0.012
7.260E-06,0.008
7.270E-06,0.008
7.280E-06,0.012
7.290E-06,0.004
7.300E-06,0.004
7.310E-06,0.004
7.320E-06,0.008
7.330E-06,0.008
7.340E-06,0.008
7.350E-06,0.008
7.360E-06,0.008
7.370E-06,0.004
7.380E-06,0.004
7.390E-06,0.004
7.400E-06,0.008
7.410E-06,0.012
7.420E-06,0.012
7.430E-06,0.008
7.440E-06,0.004
7.450E-06,0.004
7.460E-06,0.000
7.470E-06,0.004
7.480E-06,0.008
7.490E-06,0.004
7.500E-06,0.000
7.510E-06,0.004
7.520E-06,0.004
7.530E-06,0.000
7.540E-06,0.000
7.550E-06,0.004
7.560E-06,-0.004
7.570E-06,0.000
7.580E-06,0.004
7.590E-06,-0.004
7.600E-06,0.004
7.610E-06,0.000
7.620E-06,0.000
7.630E-06,-0.004
7.640E-06,0.000
7.650E-06,0.000
7.660E-06,0.004
7.670E-06,-0.004
7.680E-06,-0.004
7.690E-06,0.000
7.700E-06,0.000
7.710E-06,0.000
7.720E-06,-0.004
7.730E-06,-0.008
7.740E-06,0.004
7.750E-06,0.004
7.760E-06,0.004
7.770E-06,0.000
7.780E-06,-0.004
7.790E-06,-0.004
7.800E-06,-0.004
7.810E-06,0.000
7.820E-06,-0.008
7.830E-06,-0.004
