mediciones/Mediciones filtradas (saque las feas)/6-10/22.5/WaveData5579.csv

#timebase=2000000(ps)
,#voltbase=500000(mv/100)
#size=4000
-4.250E-06,0.220
-4.240E-06,0.180
-4.230E-06,0.100
-4.220E-06,0.060
-4.210E-06,0.000
-4.200E-06,0.000
-4.190E-06,-0.080
-4.180E-06,-0.100
-4.170E-06,-0.080
-4.160E-06,-0.160
-4.150E-06,-0.160
-4.140E-06,-0.140
-4.130E-06,-0.020
-4.120E-06,-0.060
-4.110E-06,-0.080
-4.100E-06,-0.060
-4.090E-06,-0.140
-4.080E-06,-0.160
-4.070E-06,0.080
-4.060E-06,0.100
-4.050E-06,0.160
-4.040E-06,0.100
-4.030E-06,0.020
-4.020E-06,0.000
-4.010E-06,0.020
-4.000E-06,0.180
-3.990E-06,0.220
-3.980E-06,0.220
-3.970E-06,0.180
-3.960E-06,0.100
-3.950E-06,0.060
-3.940E-06,0.080
-3.930E-06,0.120
-3.920E-06,0.200
-3.910E-06,0.120
-3.900E-06,0.040
-3.890E-06,-0.020
-3.880E-06,-0.020
-3.870E-06,0.000
-3.860E-06,0.000
-3.850E-06,0.000
-3.840E-06,-0.040
-3.830E-06,-0.060
-3.820E-06,-0.100
-3.810E-06,-0.040
-3.800E-06,-0.040
-3.790E-06,-0.020
-3.780E-06,0.000
-3.770E-06,0.020
-3.760E-06,0.060
-3.750E-06,0.000
-3.740E-06,0.080
-3.730E-06,0.120
-3.720E-06,0.160
-3.710E-06,0.180
-3.700E-06,0.220
-3.690E-06,0.220
-3.680E-06,0.240
-3.670E-06,0.240
-3.660E-06,0.240
-3.650E-06,0.200
-3.640E-06,0.140
-3.630E-06,0.120
-3.620E-06,0.060
-3.610E-06,0.060
-3.600E-06,0.060
-3.590E-06,0.040
-3.580E-06,0.040
-3.570E-06,-0.020
-3.560E-06,0.000
-3.550E-06,-0.020
-3.540E-06,-0.060
-3.530E-06,0.000
-3.520E-06,0.060
-3.510E-06,0.260
-3.500E-06,0.160
-3.490E-06,0.160
-3.480E-06,0.200
-3.470E-06,0.140
-3.460E-06,0.120
-3.450E-06,0.360
-3.440E-06,0.340
-3.430E-06,0.360
-3.420E-06,0.240
-3.410E-06,0.140
-3.400E-06,0.260
-3.390E-06,0.180
-3.380E-06,0.400
-3.370E-06,0.360
-3.360E-06,0.160
-3.350E-06,0.080
-3.340E-06,-0.160
-3.330E-06,-0.180
-3.320E-06,-0.160
-3.310E-06,-0.080
-3.300E-06,0.020
-3.290E-06,-0.020
-3.280E-06,-0.060
-3.270E-06,-0.160
-3.260E-06,-0.220
-3.250E-06,-0.140
-3.240E-06,-0.040
-3.230E-06,0.040
-3.220E-06,0.080
-3.210E-06,0.020
-3.200E-06,-0.020
-3.190E-06,-0.020
-3.180E-06,0.020
-3.170E-06,0.080
-3.160E-06,0.100
-3.150E-06,0.120
-3.140E-06,0.060
-3.130E-06,0.020
-3.120E-06,0.060
-3.110E-06,0.040
-3.100E-06,0.080
-3.090E-06,0.020
-3.080E-06,-0.040
-3.070E-06,-0.240
-3.060E-06,-0.420
-3.050E-06,-0.560
-3.040E-06,-0.540
-3.030E-06,-0.360
-3.020E-06,-0.120
-3.010E-06,0.120
-3.000E-06,0.300
-2.990E-06,0.400
-2.980E-06,0.400
-2.970E-06,0.420
-2.960E-06,0.420
-2.950E-06,0.480
-2.940E-06,0.600
-2.930E-06,0.680
-2.920E-06,0.680
-2.910E-06,0.640
-2.900E-06,0.540
-2.890E-06,0.420
-2.880E-06,0.380
-2.870E-06,0.320
-2.860E-06,0.280
-2.850E-06,0.240
-2.840E-06,0.200
-2.830E-06,0.080
-2.820E-06,0.020
-2.810E-06,-0.020
-2.800E-06,0.020
-2.790E-06,0.000
-2.780E-06,0.000
-2.770E-06,-0.040
-2.760E-06,-0.100
-2.750E-06,0.060
-2.740E-06,0.120
-2.730E-06,-0.060
-2.720E-06,0.060
-2.710E-06,-0.100
-2.700E-06,-0.520
-2.690E-06,0.000
-2.680E-06,-0.140
-2.670E-06,0.200
-2.660E-06,0.620
-2.650E-06,0.300
-2.640E-06,0.180
-2.630E-06,-0.180
-2.620E-06,-0.480
-2.610E-06,-0.240
-2.600E-06,-0.220
-2.590E-06,0.000
-2.580E-06,0.080
-2.570E-06,-0.100
-2.560E-06,-0.220
-2.550E-06,-0.420
-2.540E-06,-0.480
-2.530E-06,-0.140
-2.520E-06,0.060
-2.510E-06,0.540
-2.500E-06,0.840
-2.490E-06,0.580
-2.480E-06,0.420
-2.470E-06,0.060
-2.460E-06,-0.140
-2.450E-06,0.220
-2.440E-06,0.380
-2.430E-06,0.700
-2.420E-06,0.840
-2.410E-06,0.460
-2.400E-06,0.320
-2.390E-06,0.120
-2.380E-06,0.120
-2.370E-06,0.340
-2.360E-06,0.460
-2.350E-06,0.480
-2.340E-06,0.440
-2.330E-06,0.300
-2.320E-06,0.160
-2.310E-06,0.160
-2.300E-06,0.180
-2.290E-06,0.180
-2.280E-06,0.220
-2.270E-06,0.280
-2.260E-06,0.260
-2.250E-06,0.340
-2.240E-06,0.340
-2.230E-06,0.240
-2.220E-06,0.220
-2.210E-06,0.220
-2.200E-06,0.260
-2.190E-06,0.320
-2.180E-06,0.420
-2.170E-06,0.480
-2.160E-06,0.320
-2.150E-06,0.280
-2.140E-06,0.120
-2.130E-06,0.000
-2.120E-06,0.040
-2.110E-06,0.040
-2.100E-06,0.100
-2.090E-06,0.080
-2.080E-06,-0.020
-2.070E-06,-0.020
-2.060E-06,-0.140
-2.050E-06,-0.020
-2.040E-06,0.060
-2.030E-06,0.220
-2.020E-06,0.320
-2.010E-06,0.340
-2.000E-06,0.340
-1.990E-06,0.260
-1.980E-06,0.220
-1.970E-06,0.240
-1.960E-06,0.280
-1.950E-06,0.420
-1.940E-06,0.500
-1.930E-06,0.440
-1.920E-06,0.380
-1.910E-06,0.240
-1.900E-06,0.200
-1.890E-06,0.220
-1.880E-06,-0.140
-1.870E-06,-0.180
-1.860E-06,0.000
-1.850E-06,-0.040
-1.840E-06,0.660
-1.830E-06,0.700
-1.820E-06,0.500
-1.810E-06,0.200
-1.800E-06,-0.260
-1.790E-06,-0.400
-1.780E-06,-0.260
-1.770E-06,0.420
-1.760E-06,0.760
-1.750E-06,0.520
-1.740E-06,0.160
-1.730E-06,-0.500
-1.720E-06,-0.480
-1.710E-06,0.160
-1.700E-06,0.900
-1.690E-06,1.180
-1.680E-06,0.840
-1.670E-06,0.040
-1.660E-06,-0.340
-1.650E-06,-0.580
-1.640E-06,0.000
-1.630E-06,0.640
-1.620E-06,0.740
-1.610E-06,0.520
-1.600E-06,0.180
-1.590E-06,-0.160
-1.580E-06,-0.260
-1.570E-06,-0.080
-1.560E-06,0.060
-1.550E-06,0.100
-1.540E-06,0.080
-1.530E-06,0.020
-1.520E-06,-0.020
-1.510E-06,-0.040
-1.500E-06,-0.020
-1.490E-06,-0.100
-1.480E-06,-0.140
-1.470E-06,-0.120
-1.460E-06,-0.120
-1.450E-06,0.000
-1.440E-06,0.140
-1.430E-06,0.060
-1.420E-06,0.080
-1.410E-06,-0.080
-1.400E-06,-0.120
-1.390E-06,-0.120
-1.380E-06,-0.140
-1.370E-06,0.040
-1.360E-06,0.140
-1.350E-06,0.180
-1.340E-06,0.180
-1.330E-06,0.040
-1.320E-06,0.060
-1.310E-06,0.100
-1.300E-06,0.180
-1.290E-06,0.240
-1.280E-06,0.320
-1.270E-06,0.340
-1.260E-06,0.320
-1.250E-06,0.300
-1.240E-06,0.220
-1.230E-06,0.180
-1.220E-06,0.080
-1.210E-06,0.040
-1.200E-06,0.100
-1.190E-06,0.060
-1.180E-06,0.080
-1.170E-06,0.040
-1.160E-06,0.040
-1.150E-06,0.080
-1.140E-06,0.220
-1.130E-06,-1.040
-1.120E-06,-0.760
-1.110E-06,-0.480
-1.100E-06,-1.040
-1.090E-06,1.020
-1.080E-06,0.400
-1.070E-06,0.360
-1.060E-06,0.420
-1.050E-06,-0.860
-1.040E-06,-0.260
-1.030E-06,-0.240
-1.020E-06,-0.020
-1.010E-06,0.740
-1.000E-06,0.360
-9.900E-07,0.380
-9.800E-07,0.380
-9.700E-07,0.000
-9.600E-07,-0.100
-9.500E-07,-0.140
-9.400E-07,-0.240
-9.300E-07,-0.020
-9.200E-07,0.080
-9.100E-07,0.160
-9.000E-07,0.020
-8.900E-07,-0.140
-8.800E-07,-0.280
-8.700E-07,-0.400
-8.600E-07,-0.260
-8.500E-07,-0.080
-8.400E-07,0.020
-8.300E-07,0.080
-8.200E-07,-0.020
-8.100E-07,-0.120
-8.000E-07,-0.140
-7.900E-07,-0.060
-7.800E-07,0.060
-7.700E-07,0.120
-7.600E-07,0.100
-7.500E-07,0.180
-7.400E-07,0.160
-7.300E-07,0.180
-7.200E-07,0.160
-7.100E-07,0.100
-7.000E-07,0.120
-6.900E-07,0.100
-6.800E-07,0.160
-6.700E-07,0.160
-6.600E-07,0.140
-6.500E-07,0.120
-6.400E-07,0.080
-6.300E-07,0.060
-6.200E-07,0.040
-6.100E-07,0.020
-6.000E-07,0.020
-5.900E-07,0.020
-5.800E-07,0.060
-5.700E-07,0.040
-5.600E-07,0.020
-5.500E-07,-0.020
-5.400E-07,-0.040
-5.300E-07,-0.060
-5.200E-07,-0.020
-5.100E-07,0.000
-5.000E-07,0.020
-4.900E-07,0.040
-4.800E-07,0.040
-4.700E-07,0.080
-4.600E-07,0.000
-4.500E-07,0.000
-4.400E-07,-0.040
-4.300E-07,0.000
-4.200E-07,0.060
-4.100E-07,0.120
-4.000E-07,0.140
-3.900E-07,0.140
-3.800E-07,0.140
-3.700E-07,0.080
-3.600E-07,0.040
-3.500E-07,0.080
-3.400E-07,0.020
-3.300E-07,0.080
-3.200E-07,0.120
-3.100E-07,0.180
-3.000E-07,0.220
-2.900E-07,0.140
-2.800E-07,0.140
-2.700E-07,0.080
-2.600E-07,0.100
-2.500E-07,0.060
-2.400E-07,0.160
-2.300E-07,0.040
-2.200E-07,-0.020
-2.100E-07,0.000
-2.000E-07,-0.060
-1.900E-07,0.000
-1.800E-07,0.200
-1.700E-07,0.180
-1.600E-07,0.260
-1.500E-07,0.140
-1.400E-07,0.100
-1.300E-07,0.200
-1.200E-07,0.000
-1.100E-07,0.080
-1.000E-07,0.060
-9.000E-08,0.240
-8.000E-08,0.640
-7.000E-08,0.440
-6.000E-08,1.120
-5.000E-08,0.480
-4.000E-08,-0.160
-3.000E-08,-0.200
-2.000E-08,-1.060
-1.000E-08,-0.320
0.000E+00,0.080
1.000E-08,0.480
2.000E-08,1.000
3.000E-08,0.600
4.000E-08,0.060
5.000E-08,-0.300
6.000E-08,-0.540
7.000E-08,-0.220
8.000E-08,0.420
9.000E-08,0.760
1.000E-07,1.000
1.100E-07,0.800
1.200E-07,0.480
1.300E-07,-0.160
1.400E-07,-0.180
1.500E-07,-0.040
1.600E-07,0.340
1.700E-07,0.740
1.800E-07,0.600
1.900E-07,0.380
2.000E-07,0.000
2.100E-07,-0.340
2.200E-07,-0.340
2.300E-07,-0.300
2.400E-07,-0.180
2.500E-07,-0.040
2.600E-07,-0.100
2.700E-07,-0.200
2.800E-07,-0.280
2.900E-07,-0.360
3.000E-07,-0.380
3.100E-07,-0.360
3.200E-07,-0.340
3.300E-07,-0.280
3.400E-07,-0.160
3.500E-07,-0.080
3.600E-07,0.000
3.700E-07,0.020
3.800E-07,0.020
3.900E-07,-0.020
4.000E-07,0.040
4.100E-07,0.180
4.200E-07,0.220
4.300E-07,0.180
4.400E-07,0.220
4.500E-07,0.180
4.600E-07,0.180
4.700E-07,0.360
4.800E-07,0.260
4.900E-07,0.360
5.000E-07,0.220
5.100E-07,0.220
5.200E-07,0.200
5.300E-07,0.180
5.400E-07,0.140
5.500E-07,0.120
5.600E-07,0.040
5.700E-07,0.140
5.800E-07,0.060
5.900E-07,0.160
6.000E-07,0.160
6.100E-07,0.220
6.200E-07,0.300
6.300E-07,0.160
6.400E-07,0.160
6.500E-07,0.100
6.600E-07,0.000
6.700E-07,0.160
6.800E-07,0.200
6.900E-07,0.240
7.000E-07,0.320
7.100E-07,0.080
7.200E-07,0.160
7.300E-07,-0.020
7.400E-07,-0.080
7.500E-07,-0.020
7.600E-07,0.220
7.700E-07,0.100
7.800E-07,0.260
7.900E-07,0.300
8.000E-07,-0.200
8.100E-07,-0.160
8.200E-07,-0.360
8.300E-07,-0.260
8.400E-07,-0.320
8.500E-07,-0.120
8.600E-07,0.000
8.700E-07,0.260
8.800E-07,0.580
8.900E-07,0.500
9.000E-07,0.560
9.100E-07,0.320
9.200E-07,0.240
9.300E-07,0.440
9.400E-07,0.440
9.500E-07,0.340
9.600E-07,0.320
9.700E-07,0.080
9.800E-07,0.140
9.900E-07,0.440
1.000E-06,0.920
1.010E-06,1.700
1.020E-06,0.880
1.030E-06,0.640
1.040E-06,-0.620
1.050E-06,-1.440
1.060E-06,-0.160
1.070E-06,-0.160
1.080E-06,1.120
1.090E-06,1.620
1.100E-06,0.520
1.110E-06,0.340
1.120E-06,-0.520
1.130E-06,-0.740
1.140E-06,-0.340
1.150E-06,0.100
1.160E-06,0.420
1.170E-06,0.640
1.180E-06,0.500
1.190E-06,0.180
1.200E-06,0.180
1.210E-06,-0.020
1.220E-06,-0.020
1.230E-06,0.180
1.240E-06,0.360
1.250E-06,0.240
1.260E-06,0.180
1.270E-06,0.160
1.280E-06,-0.860
1.290E-06,-0.680
1.300E-06,-0.680
1.310E-06,-0.620
1.320E-06,0.820
1.330E-06,0.660
1.340E-06,0.880
1.350E-06,0.600
1.360E-06,-0.820
1.370E-06,-0.900
1.380E-06,-1.860
1.390E-06,-0.880
1.400E-06,-0.160
1.410E-06,0.500
1.420E-06,1.380
1.430E-06,0.800
1.440E-06,0.220
1.450E-06,-0.100
1.460E-06,-0.600
1.470E-06,0.000
1.480E-06,0.500
1.490E-06,0.920
1.500E-06,1.160
1.510E-06,0.840
1.520E-06,0.500
1.530E-06,0.200
1.540E-06,0.000
1.550E-06,0.280
1.560E-06,0.740
1.570E-06,0.140
1.580E-06,-0.700
1.590E-06,-1.180
1.600E-06,-1.840
1.610E-06,-1.360
1.620E-06,-0.360
1.630E-06,0.020
1.640E-06,0.980
1.650E-06,0.500
1.660E-06,0.080
1.670E-06,-0.160
1.680E-06,-0.520
1.690E-06,-0.020
1.700E-06,0.380
1.710E-06,0.660
1.720E-06,0.840
1.730E-06,0.600
1.740E-06,0.280
1.750E-06,0.220
1.760E-06,0.160
1.770E-06,0.080
1.780E-06,0.460
1.790E-06,0.100
1.800E-06,-0.040
1.810E-06,-0.140
1.820E-06,-0.680
1.830E-06,-0.520
1.840E-06,-0.320
1.850E-06,-0.840
1.860E-06,-0.200
1.870E-06,-0.820
1.880E-06,-1.180
1.890E-06,-0.700
1.900E-06,-1.020
1.910E-06,-0.320
1.920E-06,-0.020
1.930E-06,-0.100
1.940E-06,-0.020
1.950E-06,0.000
1.960E-06,0.100
1.970E-06,0.620
1.980E-06,0.600
1.990E-06,0.600
2.000E-06,0.620
2.010E-06,0.320
2.020E-06,0.440
2.030E-06,0.500
2.040E-06,0.340
2.050E-06,0.340
2.060E-06,0.200
2.070E-06,0.100
2.080E-06,0.180
2.090E-06,-0.020
2.100E-06,0.000
2.110E-06,-0.220
2.120E-06,-0.340
2.130E-06,-0.460
2.140E-06,-0.360
2.150E-06,-0.120
2.160E-06,-0.120
2.170E-06,0.020
2.180E-06,-0.100
2.190E-06,-0.240
2.200E-06,-0.200
2.210E-06,-0.200
2.220E-06,-0.080
2.230E-06,0.140
2.240E-06,0.280
2.250E-06,0.320
2.260E-06,0.280
2.270E-06,0.080
2.280E-06,0.080
2.290E-06,0.260
2.300E-06,0.140
2.310E-06,0.100
2.320E-06,-0.220
2.330E-06,-0.160
2.340E-06,0.480
2.350E-06,0.400
2.360E-06,0.860
2.370E-06,1.020
2.380E-06,0.620
2.390E-06,0.300
2.400E-06,-1.360
2.410E-06,-1.100
2.420E-06,-1.360
2.430E-06,-1.640
2.440E-06,0.940
2.450E-06,0.640
2.460E-06,1.500
2.470E-06,2.120
2.480E-06,-1.100
2.490E-06,-0.920
2.500E-06,-1.100
2.510E-06,-1.200
2.520E-06,1.820
2.530E-06,2.040
2.540E-06,2.140
2.550E-06,2.060
2.560E-06,-0.200
2.570E-06,-0.580
2.580E-06,0.000
2.590E-06,0.100
2.600E-06,1.100
2.610E-06,1.240
2.620E-06,0.420
2.630E-06,0.060
2.640E-06,-0.740
2.650E-06,-1.240
2.660E-06,-1.220
2.670E-06,-1.260
2.680E-06,-1.280
2.690E-06,-1.180
2.700E-06,-1.180
2.710E-06,-1.360
2.720E-06,-1.480
2.730E-06,-1.640
2.740E-06,-1.680
2.750E-06,-1.640
2.760E-06,-1.200
2.770E-06,-0.920
2.780E-06,-0.560
2.790E-06,-0.380
2.800E-06,-0.400
2.810E-06,-0.340
2.820E-06,-0.200
2.830E-06,0.180
2.840E-06,0.360
2.850E-06,0.660
2.860E-06,0.880
2.870E-06,0.860
2.880E-06,0.700
2.890E-06,0.480
2.900E-06,0.240
2.910E-06,0.420
2.920E-06,0.380
2.930E-06,0.760
2.940E-06,0.680
2.950E-06,0.540
2.960E-06,0.560
2.970E-06,0.240
2.980E-06,0.260
2.990E-06,0.140
3.000E-06,0.000
3.010E-06,-0.080
3.020E-06,-0.060
3.030E-06,-0.080
3.040E-06,0.020
3.050E-06,-0.020
3.060E-06,-0.100
3.070E-06,-0.280
3.080E-06,-0.260
3.090E-06,-0.260
3.100E-06,-0.620
3.110E-06,-0.320
3.120E-06,-0.180
3.130E-06,-0.660
3.140E-06,-0.340
3.150E-06,-0.200
3.160E-06,-1.040
3.170E-06,-0.140
3.180E-06,-0.400
3.190E-06,-0.220
3.200E-06,0.640
3.210E-06,-0.260
3.220E-06,0.240
3.230E-06,-0.940
3.240E-06,-1.860
3.250E-06,-2.480
3.260E-06,-2.660
3.270E-06,-2.320
3.280E-06,-1.020
3.290E-06,-0.340
3.300E-06,1.280
3.310E-06,-0.040
3.320E-06,-0.720
3.330E-06,-1.460
3.340E-06,-2.260
3.350E-06,-1.200
3.360E-06,-0.840
3.370E-06,-0.700
3.380E-06,0.060
3.390E-06,-0.100
3.400E-06,-0.080
3.410E-06,0.460
3.420E-06,0.060
3.430E-06,0.320
3.440E-06,-0.160
3.450E-06,-0.500
3.460E-06,-0.280
3.470E-06,-0.380
3.480E-06,-0.160
3.490E-06,-0.240
3.500E-06,-0.780
3.510E-06,-1.000
3.520E-06,-1.480
3.530E-06,-1.780
3.540E-06,-1.700
3.550E-06,-1.600
3.560E-06,-1.360
3.570E-06,-1.180
3.580E-06,-0.920
3.590E-06,-0.780
3.600E-06,-0.680
3.610E-06,-0.680
3.620E-06,-0.520
3.630E-06,-0.440
3.640E-06,-0.200
3.650E-06,-0.080
3.660E-06,0.160
3.670E-06,0.240
3.680E-06,0.260
3.690E-06,0.420
3.700E-06,0.260
3.710E-06,0.220
3.720E-06,0.040
3.730E-06,-0.080
3.740E-06,-0.160
3.750E-06,-0.160
3.760E-06,-0.320
3.770E-06,-0.380
3.780E-06,-0.540
3.790E-06,-0.640
3.800E-06,-0.700
3.810E-06,-0.720
3.820E-06,-0.780
3.830E-06,-0.800
3.840E-06,-0.820
3.850E-06,-0.860
3.860E-06,-0.860
3.870E-06,-0.780
3.880E-06,-0.800
3.890E-06,-0.660
3.900E-06,-0.600
3.910E-06,-0.520
3.920E-06,-0.380
3.930E-06,-0.340
3.940E-06,-0.320
3.950E-06,-0.280
3.960E-06,-0.240
3.970E-06,-0.240
3.980E-06,-0.180
3.990E-06,-0.120
4.000E-06,-0.080
4.010E-06,-0.060
4.020E-06,-0.180
4.030E-06,-0.260
4.040E-06,-0.240
4.050E-06,-0.340
4.060E-06,-0.320
4.070E-06,-0.320
4.080E-06,-0.340
4.090E-06,-0.420
4.100E-06,-0.460
4.110E-06,-0.420
4.120E-06,-0.380
4.130E-06,-0.320
4.140E-06,-0.320
4.150E-06,-0.220
4.160E-06,-0.200
4.170E-06,-0.140
4.180E-06,-0.100
4.190E-06,-0.040
4.200E-06,-0.080
4.210E-06,0.020
4.220E-06,0.080
4.230E-06,0.040
4.240E-06,0.160
4.250E-06,0.140
4.260E-06,0.160
4.270E-06,0.140
4.280E-06,0.100
4.290E-06,0.100
4.300E-06,0.080
4.310E-06,0.060
4.320E-06,0.040
4.330E-06,-0.040
4.340E-06,-0.080
4.350E-06,-0.060
4.360E-06,-0.120
4.370E-06,-0.160
4.380E-06,-0.140
4.390E-06,-0.200
4.400E-06,-0.220
4.410E-06,-0.240
4.420E-06,-0.220
4.430E-06,-0.260
4.440E-06,-0.260
4.450E-06,-0.300
4.460E-06,-0.340
4.470E-06,-0.380
4.480E-06,-0.380
4.490E-06,-0.400
4.500E-06,-0.420
4.510E-06,-0.420
4.520E-06,-0.380
4.530E-06,-0.320
4.540E-06,-0.280
4.550E-06,-0.280
4.560E-06,-0.240
4.570E-06,-0.200
4.580E-06,-0.160
4.590E-06,-0.100
4.600E-06,-0.040
4.610E-06,-0.020
4.620E-06,0.040
4.630E-06,0.100
4.640E-06,0.080
4.650E-06,0.100
4.660E-06,0.080
4.670E-06,0.100
4.680E-06,0.140
4.690E-06,0.160
4.700E-06,0.180
4.710E-06,0.200
4.720E-06,0.180
4.730E-06,0.180
4.740E-06,0.180
4.750E-06,0.180
4.760E-06,0.180
4.770E-06,0.200
4.780E-06,0.160
4.790E-06,0.180
4.800E-06,0.180
4.810E-06,0.160
4.820E-06,0.160
4.830E-06,0.120
4.840E-06,0.100
4.850E-06,0.040
4.860E-06,0.040
4.870E-06,0.020
4.880E-06,0.020
4.890E-06,-0.020
4.900E-06,0.000
4.910E-06,0.000
4.920E-06,-0.020
4.930E-06,-0.040
4.940E-06,-0.040
4.950E-06,-0.060
4.960E-06,-0.080
4.970E-06,-0.060
4.980E-06,-0.020
4.990E-06,-0.020
5.000E-06,-0.020
5.010E-06,-0.040
5.020E-06,0.000
5.030E-06,-0.020
5.040E-06,-0.060
5.050E-06,-0.060
5.060E-06,-0.040
5.070E-06,-0.100
5.080E-06,-0.060
5.090E-06,-0.060
5.100E-06,-0.080
5.110E-06,-0.060
5.120E-06,-0.040
5.130E-06,-0.060
5.140E-06,-0.040
5.150E-06,-0.040
5.160E-06,-0.060
5.170E-06,-0.040
5.180E-06,-0.080
5.190E-06,-0.060
5.200E-06,-0.060
5.210E-06,-0.040
5.220E-06,-0.020
5.230E-06,0.060
5.240E-06,0.040
5.250E-06,0.040
5.260E-06,0.100
5.270E-06,0.100
5.280E-06,0.080
5.290E-06,0.120
5.300E-06,0.140
5.310E-06,0.080
5.320E-06,0.120
5.330E-06,0.040
5.340E-06,0.100
5.350E-06,0.060
5.360E-06,0.000
5.370E-06,0.000
5.380E-06,-0.080
5.390E-06,-0.120
5.400E-06,-0.100
5.410E-06,-0.180
5.420E-06,-0.120
5.430E-06,-0.140
5.440E-06,-0.180
5.450E-06,-0.160
5.460E-06,-0.140
5.470E-06,-0.120
5.480E-06,-0.120
5.490E-06,-0.060
5.500E-06,-0.040
5.510E-06,-0.020
5.520E-06,0.000
5.530E-06,-0.020
5.540E-06,0.000
5.550E-06,0.000
5.560E-06,0.000
5.570E-06,-0.060
5.580E-06,-0.020
5.590E-06,-0.080
5.600E-06,-0.120
5.610E-06,-0.180
5.620E-06,-0.200
5.630E-06,-0.240
5.640E-06,-0.260
5.650E-06,-0.300
5.660E-06,-0.300
5.670E-06,-0.320
5.680E-06,-0.320
5.690E-06,-0.240
5.700E-06,-0.240
5.710E-06,-0.160
5.720E-06,-0.120
5.730E-06,-0.060
5.740E-06,-0.020
5.750E-06,0.020
5.760E-06,0.060
5.770E-06,0.080
5.780E-06,0.100
5.790E-06,0.140
5.800E-06,0.140
5.810E-06,0.140
5.820E-06,0.160
5.830E-06,0.200
5.840E-06,0.260
5.850E-06,0.300
5.860E-06,0.320
5.870E-06,0.320
5.880E-06,0.320
5.890E-06,0.300
5.900E-06,0.280
5.910E-06,0.240
5.920E-06,0.260
5.930E-06,0.260
5.940E-06,0.280
5.950E-06,0.300
5.960E-06,0.300
5.970E-06,0.240
5.980E-06,0.240
5.990E-06,0.180
6.000E-06,0.180
6.010E-06,0.100
6.020E-06,0.060
6.030E-06,0.020
6.040E-06,-0.040
6.050E-06,-0.100
6.060E-06,-0.100
6.070E-06,-0.120
6.080E-06,-0.140
6.090E-06,-0.160
6.100E-06,-0.120
6.110E-06,-0.140
6.120E-06,-0.140
6.130E-06,-0.160
6.140E-06,-0.160
6.150E-06,-0.180
6.160E-06,-0.200
6.170E-06,-0.220
6.180E-06,-0.220
6.190E-06,-0.220
6.200E-06,-0.160
6.210E-06,-0.180
6.220E-06,-0.160
6.230E-06,-0.080
6.240E-06,-0.020
6.250E-06,0.020
6.260E-06,0.080
6.270E-06,0.100
6.280E-06,0.120
6.290E-06,0.120
6.300E-06,0.160
6.310E-06,0.180
6.320E-06,0.180
6.330E-06,0.180
6.340E-06,0.180
6.350E-06,0.160
6.360E-06,0.160
6.370E-06,0.160
6.380E-06,0.180
6.390E-06,0.180
6.400E-06,0.160
6.410E-06,0.120
6.420E-06,0.080
6.430E-06,0.020
6.440E-06,0.020
6.450E-06,0.040
6.460E-06,0.040
6.470E-06,0.040
6.480E-06,0.020
6.490E-06,0.000
6.500E-06,0.000
6.510E-06,0.000
6.520E-06,-0.020
6.530E-06,-0.020
6.540E-06,-0.020
6.550E-06,-0.020
6.560E-06,-0.020
6.570E-06,0.000
6.580E-06,0.000
6.590E-06,0.000
6.600E-06,0.040
6.610E-06,0.060
6.620E-06,0.060
6.630E-06,0.020
6.640E-06,-0.020
6.650E-06,0.040
6.660E-06,0.020
6.670E-06,0.060
6.680E-06,0.060
6.690E-06,0.100
6.700E-06,0.160
6.710E-06,0.140
6.720E-06,0.100
6.730E-06,0.080
6.740E-06,0.080
6.750E-06,0.060
6.760E-06,0.060
6.770E-06,0.000
6.780E-06,0.020
6.790E-06,0.020
6.800E-06,0.000
6.810E-06,-0.020
6.820E-06,0.000
6.830E-06,-0.020
6.840E-06,-0.020
6.850E-06,-0.080
6.860E-06,-0.080
6.870E-06,-0.160
6.880E-06,-0.160
6.890E-06,-0.200
6.900E-06,-0.160
6.910E-06,-0.080
6.920E-06,0.000
6.930E-06,0.080
6.940E-06,0.100
6.950E-06,0.180
6.960E-06,0.200
6.970E-06,0.220
6.980E-06,0.240
6.990E-06,0.220
7.000E-06,0.160
7.010E-06,0.140
7.020E-06,0.120
7.030E-06,0.100
7.040E-06,0.040
7.050E-06,0.020
7.060E-06,0.020
7.070E-06,0.040
7.080E-06,0.080
7.090E-06,0.120
7.100E-06,0.140
7.110E-06,0.140
7.120E-06,0.180
7.130E-06,0.200
7.140E-06,0.220
7.150E-06,0.260
7.160E-06,0.280
7.170E-06,0.320
7.180E-06,0.360
7.190E-06,0.320
7.200E-06,0.360
7.210E-06,0.400
7.220E-06,0.460
7.230E-06,0.500
7.240E-06,0.600
7.250E-06,0.660
7.260E-06,0.700
7.270E-06,0.740
7.280E-06,0.680
7.290E-06,0.660
7.300E-06,0.580
7.310E-06,0.500
7.320E-06,0.520
7.330E-06,0.440
7.340E-06,0.360
7.350E-06,0.360
7.360E-06,0.320
7.370E-06,0.320
7.380E-06,0.320
7.390E-06,0.320
7.400E-06,0.360
7.410E-06,0.340
7.420E-06,0.360
7.430E-06,0.320
7.440E-06,0.320
7.450E-06,0.300
7.460E-06,0.260
7.470E-06,0.260
7.480E-06,0.300
7.490E-06,0.320
7.500E-06,0.320
7.510E-06,0.320
7.520E-06,0.340
7.530E-06,0.320
7.540E-06,0.260
7.550E-06,0.180
7.560E-06,0.140
7.570E-06,0.120
7.580E-06,0.080
7.590E-06,0.060
7.600E-06,0.080
7.610E-06,0.080
7.620E-06,0.040
7.630E-06,0.060
7.640E-06,0.060
