mediciones/mediciones removidas por ser diferentes/30/WaveData47441.csv

#timebase=2000000(ps)
,#voltbase=100000(mv/100)
#size=4000
-8.400E-06,0.012
-8.390E-06,0.012
-8.380E-06,0.004
-8.370E-06,0.000
-8.360E-06,0.004
-8.350E-06,0.004
-8.340E-06,0.000
-8.330E-06,0.000
-8.320E-06,0.000
-8.310E-06,0.004
-8.300E-06,0.004
-8.290E-06,0.008
-8.280E-06,0.004
-8.270E-06,0.004
-8.260E-06,0.004
-8.250E-06,0.000
-8.240E-06,0.004
-8.230E-06,0.004
-8.220E-06,0.008
-8.210E-06,0.004
-8.200E-06,0.004
-8.190E-06,0.004
-8.180E-06,0.000
-8.170E-06,-0.004
-8.160E-06,0.000
-8.150E-06,0.008
-8.140E-06,0.004
-8.130E-06,0.004
-8.120E-06,0.008
-8.110E-06,0.008
-8.100E-06,0.004
-8.090E-06,-0.004
-8.080E-06,0.000
-8.070E-06,0.000
-8.060E-06,0.008
-8.050E-06,0.004
-8.040E-06,0.008
-8.030E-06,0.008
-8.020E-06,0.004
-8.010E-06,0.008
-8.000E-06,0.004
-7.990E-06,-0.004
-7.980E-06,-0.004
-7.970E-06,0.000
-7.960E-06,0.000
-7.950E-06,-0.004
-7.940E-06,0.004
-7.930E-06,0.000
-7.920E-06,0.000
-7.910E-06,0.000
-7.900E-06,0.000
-7.890E-06,0.000
-7.880E-06,0.000
-7.870E-06,0.000
-7.860E-06,0.000
-7.850E-06,-0.004
-7.840E-06,0.004
-7.830E-06,0.000
-7.820E-06,0.000
-7.810E-06,0.004
-7.800E-06,0.008
-7.790E-06,0.004
-7.780E-06,0.008
-7.770E-06,0.004
-7.760E-06,0.008
-7.750E-06,0.000
-7.740E-06,0.008
-7.730E-06,0.004
-7.720E-06,0.000
-7.710E-06,-0.004
-7.700E-06,0.004
-7.690E-06,0.004
-7.680E-06,0.004
-7.670E-06,0.004
-7.660E-06,0.000
-7.650E-06,0.004
-7.640E-06,0.004
-7.630E-06,0.004
-7.620E-06,0.008
-7.610E-06,0.000
-7.600E-06,0.004
-7.590E-06,0.004
-7.580E-06,0.004
-7.570E-06,0.004
-7.560E-06,0.004
-7.550E-06,0.004
-7.540E-06,0.008
-7.530E-06,0.004
-7.520E-06,0.004
-7.510E-06,0.000
-7.500E-06,0.004
-7.490E-06,0.004
-7.480E-06,0.004
-7.470E-06,0.004
-7.460E-06,0.004
-7.450E-06,0.004
-7.440E-06,0.000
-7.430E-06,0.004
-7.420E-06,0.004
-7.410E-06,0.004
-7.400E-06,0.000
-7.390E-06,0.008
-7.380E-06,0.008
-7.370E-06,0.008
-7.360E-06,0.004
-7.350E-06,0.004
-7.340E-06,0.000
-7.330E-06,0.000
-7.320E-06,-0.004
-7.310E-06,0.000
-7.300E-06,0.008
-7.290E-06,0.008
-7.280E-06,0.008
-7.270E-06,0.000
-7.260E-06,-0.004
-7.250E-06,-0.008
-7.240E-06,0.004
-7.230E-06,0.008
-7.220E-06,0.004
-7.210E-06,0.008
-7.200E-06,0.004
-7.190E-06,0.004
-7.180E-06,-0.004
-7.170E-06,0.000
-7.160E-06,0.004
-7.150E-06,0.004
-7.140E-06,0.004
-7.130E-06,0.004
-7.120E-06,0.004
-7.110E-06,0.008
-7.100E-06,0.008
-7.090E-06,0.008
-7.080E-06,-0.004
-7.070E-06,0.004
-7.060E-06,0.004
-7.050E-06,0.004
-7.040E-06,0.004
-7.030E-06,0.008
-7.020E-06,0.004
-7.010E-06,0.004
-7.000E-06,0.004
-6.990E-06,0.008
-6.980E-06,0.008
-6.970E-06,0.008
-6.960E-06,0.008
-6.950E-06,0.000
-6.940E-06,0.000
-6.930E-06,0.004
-6.920E-06,0.004
-6.910E-06,0.008
-6.900E-06,0.008
-6.890E-06,0.004
-6.880E-06,0.008
-6.870E-06,0.008
-6.860E-06,0.008
-6.850E-06,-0.004
-6.840E-06,-0.004
-6.830E-06,0.000
-6.820E-06,0.004
-6.810E-06,0.004
-6.800E-06,0.004
-6.790E-06,0.008
-6.780E-06,0.004
-6.770E-06,0.004
-6.760E-06,0.004
-6.750E-06,0.008
-6.740E-06,0.008
-6.730E-06,0.012
-6.720E-06,0.012
-6.710E-06,0.012
-6.700E-06,0.004
-6.690E-06,0.000
-6.680E-06,-0.004
-6.670E-06,0.000
-6.660E-06,0.000
-6.650E-06,0.000
-6.640E-06,0.000
-6.630E-06,-0.008
-6.620E-06,-0.004
-6.610E-06,-0.004
-6.600E-06,0.008
-6.590E-06,0.012
-6.580E-06,0.024
-6.570E-06,0.004
-6.560E-06,-0.012
-6.550E-06,-0.012
-6.540E-06,0.000
-6.530E-06,0.008
-6.520E-06,0.016
-6.510E-06,0.008
-6.500E-06,0.000
-6.490E-06,-0.008
-6.480E-06,0.000
-6.470E-06,0.008
-6.460E-06,0.008
-6.450E-06,0.016
-6.440E-06,0.008
-6.430E-06,-0.004
-6.420E-06,0.000
-6.410E-06,-0.004
-6.400E-06,0.008
-6.390E-06,0.012
-6.380E-06,0.016
-6.370E-06,0.004
-6.360E-06,0.000
-6.350E-06,0.004
-6.340E-06,0.004
-6.330E-06,-0.004
-6.320E-06,-0.004
-6.310E-06,0.000
-6.300E-06,0.000
-6.290E-06,0.008
-6.280E-06,0.008
-6.270E-06,0.004
-6.260E-06,0.000
-6.250E-06,0.000
-6.240E-06,0.000
-6.230E-06,0.004
-6.220E-06,0.012
-6.210E-06,0.012
-6.200E-06,0.012
-6.190E-06,-0.004
-6.180E-06,-0.004
-6.170E-06,-0.024
-6.160E-06,-0.020
-6.150E-06,-0.008
-6.140E-06,0.028
-6.130E-06,0.068
-6.120E-06,0.080
-6.110E-06,0.060
-6.100E-06,0.004
-6.090E-06,-0.044
-6.080E-06,-0.072
-6.070E-06,-0.052
-6.060E-06,0.000
-6.050E-06,0.048
-6.040E-06,0.064
-6.030E-06,0.060
-6.020E-06,0.012
-6.010E-06,-0.024
-6.000E-06,-0.048
-5.990E-06,-0.040
-5.980E-06,-0.012
-5.970E-06,0.028
-5.960E-06,0.044
-5.950E-06,0.040
-5.940E-06,0.028
-5.930E-06,0.012
-5.920E-06,-0.012
-5.910E-06,-0.024
-5.900E-06,-0.020
-5.890E-06,-0.004
-5.880E-06,0.024
-5.870E-06,0.036
-5.860E-06,0.040
-5.850E-06,0.012
-5.840E-06,-0.024
-5.830E-06,-0.032
-5.820E-06,-0.028
-5.810E-06,0.004
-5.800E-06,0.028
-5.790E-06,0.056
-5.780E-06,0.044
-5.770E-06,0.008
-5.760E-06,-0.004
-5.750E-06,-0.036
-5.740E-06,-0.032
-5.730E-06,-0.024
-5.720E-06,0.004
-5.710E-06,0.016
-5.700E-06,0.024
-5.690E-06,0.016
-5.680E-06,0.000
-5.670E-06,-0.012
-5.660E-06,-0.020
-5.650E-06,-0.016
-5.640E-06,-0.004
-5.630E-06,0.016
-5.620E-06,0.032
-5.610E-06,0.032
-5.600E-06,0.020
-5.590E-06,-0.008
-5.580E-06,-0.032
-5.570E-06,-0.040
-5.560E-06,-0.016
-5.550E-06,0.004
-5.540E-06,0.036
-5.530E-06,0.032
-5.520E-06,0.024
-5.510E-06,0.000
-5.500E-06,-0.016
-5.490E-06,-0.024
-5.480E-06,-0.008
-5.470E-06,0.012
-5.460E-06,0.024
-5.450E-06,0.032
-5.440E-06,0.024
-5.430E-06,0.016
-5.420E-06,-0.004
-5.410E-06,-0.016
-5.400E-06,-0.012
-5.390E-06,0.012
-5.380E-06,0.004
-5.370E-06,0.008
-5.360E-06,0.012
-5.350E-06,0.004
-5.340E-06,-0.012
-5.330E-06,-0.024
-5.320E-06,-0.008
-5.310E-06,0.004
-5.300E-06,0.012
-5.290E-06,0.012
-5.280E-06,0.012
-5.270E-06,0.016
-5.260E-06,0.000
-5.250E-06,-0.004
-5.240E-06,-0.012
-5.230E-06,-0.004
-5.220E-06,-0.008
-5.210E-06,0.016
-5.200E-06,0.012
-5.190E-06,0.016
-5.180E-06,0.008
-5.170E-06,-0.004
-5.160E-06,-0.016
-5.150E-06,-0.024
-5.140E-06,-0.012
-5.130E-06,0.004
-5.120E-06,0.020
-5.110E-06,0.024
-5.100E-06,0.008
-5.090E-06,-0.004
-5.080E-06,-0.008
-5.070E-06,-0.004
-5.060E-06,-0.004
-5.050E-06,0.036
-5.040E-06,0.064
-5.030E-06,0.056
-5.020E-06,-0.036
-5.010E-06,-0.100
-5.000E-06,-0.124
-4.990E-06,-0.088
-4.980E-06,0.048
-4.970E-06,0.084
-4.960E-06,0.084
-4.950E-06,0.036
-4.940E-06,0.044
-4.930E-06,-0.032
-4.920E-06,-0.048
-4.910E-06,-0.060
-4.900E-06,-0.024
-4.890E-06,0.016
-4.880E-06,0.048
-4.870E-06,0.052
-4.860E-06,0.028
-4.850E-06,0.008
-4.840E-06,-0.024
-4.830E-06,-0.048
-4.820E-06,-0.052
-4.810E-06,-0.016
-4.800E-06,0.036
-4.790E-06,0.080
-4.780E-06,0.064
-4.770E-06,0.028
-4.760E-06,-0.024
-4.750E-06,-0.060
-4.740E-06,-0.052
-4.730E-06,-0.008
-4.720E-06,0.040
-4.710E-06,0.056
-4.700E-06,0.056
-4.690E-06,0.012
-4.680E-06,-0.024
-4.670E-06,-0.056
-4.660E-06,-0.056
-4.650E-06,-0.020
-4.640E-06,0.008
-4.630E-06,0.044
-4.620E-06,0.056
-4.610E-06,0.024
-4.600E-06,0.004
-4.590E-06,-0.016
-4.580E-06,-0.032
-4.570E-06,0.008
-4.560E-06,-0.004
-4.550E-06,0.008
-4.540E-06,0.016
-4.530E-06,0.032
-4.520E-06,0.016
-4.510E-06,-0.004
-4.500E-06,-0.020
-4.490E-06,-0.028
-4.480E-06,-0.008
-4.470E-06,0.008
-4.460E-06,0.028
-4.450E-06,0.032
-4.440E-06,0.024
-4.430E-06,0.012
-4.420E-06,0.000
-4.410E-06,-0.004
-4.400E-06,-0.020
-4.390E-06,-0.008
-4.380E-06,0.004
-4.370E-06,0.028
-4.360E-06,0.032
-4.350E-06,0.020
-4.340E-06,0.008
-4.330E-06,0.016
-4.320E-06,-0.024
-4.310E-06,-0.064
-4.300E-06,-0.044
-4.290E-06,-0.044
-4.280E-06,0.028
-4.270E-06,0.060
-4.260E-06,0.060
-4.250E-06,-0.016
-4.240E-06,0.016
-4.230E-06,0.000
-4.220E-06,-0.040
-4.210E-06,-0.060
-4.200E-06,-0.004
-4.190E-06,0.052
-4.180E-06,0.064
-4.170E-06,0.032
-4.160E-06,-0.024
-4.150E-06,-0.040
-4.140E-06,-0.056
-4.130E-06,0.004
-4.120E-06,-0.004
-4.110E-06,0.056
-4.100E-06,0.016
-4.090E-06,0.036
-4.080E-06,0.004
-4.070E-06,-0.028
-4.060E-06,-0.028
-4.050E-06,0.004
-4.040E-06,0.052
-4.030E-06,-0.004
-4.020E-06,0.008
-4.010E-06,0.000
-4.000E-06,0.008
-3.990E-06,0.024
-3.980E-06,-0.004
-3.970E-06,-0.008
-3.960E-06,0.000
-3.950E-06,0.024
-3.940E-06,0.012
-3.930E-06,0.016
-3.920E-06,0.000
-3.910E-06,0.012
-3.900E-06,0.000
-3.890E-06,0.004
-3.880E-06,0.004
-3.870E-06,0.012
-3.860E-06,0.024
-3.850E-06,0.028
-3.840E-06,0.020
-3.830E-06,0.000
-3.820E-06,0.000
-3.810E-06,0.000
-3.800E-06,0.024
-3.790E-06,0.024
-3.780E-06,0.028
-3.770E-06,0.008
-3.760E-06,0.004
-3.750E-06,-0.004
-3.740E-06,-0.008
-3.730E-06,-0.004
-3.720E-06,0.012
-3.710E-06,0.032
-3.700E-06,0.028
-3.690E-06,0.032
-3.680E-06,0.016
-3.670E-06,0.012
-3.660E-06,-0.012
-3.650E-06,-0.008
-3.640E-06,0.012
-3.630E-06,0.024
-3.620E-06,0.028
-3.610E-06,0.020
-3.600E-06,0.012
-3.590E-06,-0.040
-3.580E-06,-0.044
-3.570E-06,-0.040
-3.560E-06,-0.040
-3.550E-06,-0.032
-3.540E-06,0.064
-3.530E-06,0.092
-3.520E-06,0.016
-3.510E-06,-0.020
-3.500E-06,-0.024
-3.490E-06,-0.060
-3.480E-06,-0.056
-3.470E-06,0.008
-3.460E-06,0.028
-3.450E-06,0.056
-3.440E-06,0.040
-3.430E-06,0.012
-3.420E-06,-0.020
-3.410E-06,-0.040
-3.400E-06,-0.040
-3.390E-06,0.004
-3.380E-06,0.032
-3.370E-06,0.016
-3.360E-06,0.036
-3.350E-06,0.040
-3.340E-06,0.012
-3.330E-06,-0.020
-3.320E-06,-0.008
-3.310E-06,-0.004
-3.300E-06,0.008
-3.290E-06,0.032
-3.280E-06,0.040
-3.270E-06,0.036
-3.260E-06,0.020
-3.250E-06,0.004
-3.240E-06,0.000
-3.230E-06,0.004
-3.220E-06,0.004
-3.210E-06,0.024
-3.200E-06,0.032
-3.190E-06,0.024
-3.180E-06,0.028
-3.170E-06,0.016
-3.160E-06,0.000
-3.150E-06,0.004
-3.140E-06,0.028
-3.130E-06,0.036
-3.120E-06,0.028
-3.110E-06,0.028
-3.100E-06,0.028
-3.090E-06,0.028
-3.080E-06,0.012
-3.070E-06,-0.012
-3.060E-06,-0.016
-3.050E-06,-0.004
-3.040E-06,-0.008
-3.030E-06,-0.012
-3.020E-06,-0.028
-3.010E-06,-0.036
-3.000E-06,-0.016
-2.990E-06,0.004
-2.980E-06,0.012
-2.970E-06,0.008
-2.960E-06,0.016
-2.950E-06,0.000
-2.940E-06,-0.008
-2.930E-06,-0.008
-2.920E-06,0.004
-2.910E-06,0.020
-2.900E-06,0.032
-2.890E-06,0.020
-2.880E-06,0.012
-2.870E-06,-0.008
-2.860E-06,0.000
-2.850E-06,0.000
-2.840E-06,0.004
-2.830E-06,0.020
-2.820E-06,0.020
-2.810E-06,0.020
-2.800E-06,0.012
-2.790E-06,0.000
-2.780E-06,-0.004
-2.770E-06,-0.004
-2.760E-06,0.000
-2.750E-06,0.016
-2.740E-06,0.024
-2.730E-06,0.028
-2.720E-06,0.016
-2.710E-06,0.008
-2.700E-06,-0.012
-2.690E-06,-0.004
-2.680E-06,-0.004
-2.670E-06,0.008
-2.660E-06,0.012
-2.650E-06,0.016
-2.640E-06,0.024
-2.630E-06,0.016
-2.620E-06,0.008
-2.610E-06,-0.008
-2.600E-06,-0.008
-2.590E-06,0.004
-2.580E-06,0.004
-2.570E-06,0.008
-2.560E-06,0.012
-2.550E-06,0.024
-2.540E-06,0.016
-2.530E-06,0.000
-2.520E-06,0.004
-2.510E-06,0.008
-2.500E-06,0.012
-2.490E-06,0.024
-2.480E-06,0.028
-2.470E-06,0.028
-2.460E-06,0.024
-2.450E-06,0.012
-2.440E-06,0.020
-2.430E-06,0.020
-2.420E-06,0.040
-2.410E-06,0.048
-2.400E-06,0.048
-2.390E-06,0.040
-2.380E-06,0.048
-2.370E-06,0.036
-2.360E-06,0.020
-2.350E-06,0.024
-2.340E-06,0.028
-2.330E-06,0.032
-2.320E-06,0.036
-2.310E-06,0.036
-2.300E-06,0.020
-2.290E-06,0.008
-2.280E-06,0.008
-2.270E-06,0.008
-2.260E-06,0.008
-2.250E-06,0.000
-2.240E-06,0.012
-2.230E-06,0.016
-2.220E-06,0.028
-2.210E-06,0.024
-2.200E-06,0.024
-2.190E-06,0.020
-2.180E-06,0.016
-2.170E-06,0.020
-2.160E-06,0.032
-2.150E-06,0.036
-2.140E-06,0.052
-2.130E-06,0.064
-2.120E-06,0.056
-2.110E-06,0.048
-2.100E-06,0.032
-2.090E-06,0.040
-2.080E-06,0.044
-2.070E-06,0.056
-2.060E-06,0.056
-2.050E-06,0.044
-2.040E-06,0.056
-2.030E-06,0.028
-2.020E-06,-0.008
-2.010E-06,-0.044
-2.000E-06,-0.128
-1.990E-06,-0.200
-1.980E-06,-0.228
-1.970E-06,-0.128
-1.960E-06,0.008
-1.950E-06,0.096
-1.940E-06,0.088
-1.930E-06,0.032
-1.920E-06,-0.020
-1.910E-06,-0.100
-1.900E-06,-0.232
-1.890E-06,-0.400
-1.880E-06,-0.384
-1.870E-06,-0.216
-1.860E-06,-0.004
-1.850E-06,0.240
-1.840E-06,0.372
-1.830E-06,0.272
-1.820E-06,0.016
-1.810E-06,-0.196
-1.800E-06,-0.260
-1.790E-06,-0.108
-1.780E-06,0.080
-1.770E-06,0.196
-1.760E-06,0.176
-1.750E-06,0.052
-1.740E-06,-0.080
-1.730E-06,-0.120
-1.720E-06,-0.076
-1.710E-06,0.000
-1.700E-06,0.092
-1.690E-06,0.156
-1.680E-06,0.152
-1.670E-06,0.124
-1.660E-06,0.016
-1.650E-06,-0.056
-1.640E-06,-0.104
-1.630E-06,-0.072
-1.620E-06,-0.008
-1.610E-06,0.064
-1.600E-06,0.124
-1.590E-06,0.084
-1.580E-06,0.016
-1.570E-06,-0.096
-1.560E-06,-0.164
-1.550E-06,-0.172
-1.540E-06,-0.112
-1.530E-06,-0.024
-1.520E-06,0.076
-1.510E-06,0.108
-1.500E-06,0.088
-1.490E-06,0.012
-1.480E-06,-0.056
-1.470E-06,-0.080
-1.460E-06,-0.068
-1.450E-06,-0.012
-1.440E-06,0.036
-1.430E-06,0.060
-1.420E-06,0.032
-1.410E-06,-0.004
-1.400E-06,-0.004
-1.390E-06,0.012
-1.380E-06,0.028
-1.370E-06,0.028
-1.360E-06,-0.008
-1.350E-06,-0.040
-1.340E-06,-0.040
-1.330E-06,-0.012
-1.320E-06,0.032
-1.310E-06,0.056
-1.300E-06,0.048
-1.290E-06,0.012
-1.280E-06,-0.004
-1.270E-06,-0.016
-1.260E-06,0.016
-1.250E-06,0.052
-1.240E-06,0.064
-1.230E-06,0.024
-1.220E-06,-0.020
-1.210E-06,-0.060
-1.200E-06,-0.068
-1.190E-06,-0.048
-1.180E-06,-0.040
-1.170E-06,0.000
-1.160E-06,0.056
-1.150E-06,0.076
-1.140E-06,0.056
-1.130E-06,0.016
-1.120E-06,-0.032
-1.110E-06,-0.036
-1.100E-06,0.004
-1.090E-06,0.064
-1.080E-06,0.112
-1.070E-06,0.124
-1.060E-06,0.104
-1.050E-06,0.060
-1.040E-06,0.016
-1.030E-06,0.000
-1.020E-06,-0.020
-1.010E-06,-0.056
-1.000E-06,-0.088
-9.900E-07,-0.084
-9.800E-07,-0.076
-9.700E-07,-0.028
-9.600E-07,0.024
-9.500E-07,0.028
-9.400E-07,-0.032
-9.300E-07,-0.080
-9.200E-07,-0.068
-9.100E-07,-0.052
-9.000E-07,-0.004
-8.900E-07,0.048
-8.800E-07,0.032
-8.700E-07,0.008
-8.600E-07,-0.008
-8.500E-07,-0.028
-8.400E-07,-0.028
-8.300E-07,-0.008
-8.200E-07,0.000
-8.100E-07,0.008
-8.000E-07,0.008
-7.900E-07,0.012
-7.800E-07,0.012
-7.700E-07,0.000
-7.600E-07,0.000
-7.500E-07,0.000
-7.400E-07,0.016
-7.300E-07,0.028
-7.200E-07,0.048
-7.100E-07,0.040
-7.000E-07,0.028
-6.900E-07,0.016
-6.800E-07,0.000
-6.700E-07,-0.004
-6.600E-07,0.012
-6.500E-07,0.036
-6.400E-07,0.040
-6.300E-07,0.036
-6.200E-07,0.028
-6.100E-07,-0.008
-6.000E-07,-0.012
-5.900E-07,-0.004
-5.800E-07,0.004
-5.700E-07,0.028
-5.600E-07,0.036
-5.500E-07,0.032
-5.400E-07,0.024
-5.300E-07,0.012
-5.200E-07,-0.004
-5.100E-07,0.000
-5.000E-07,0.008
-4.900E-07,0.036
-4.800E-07,0.060
-4.700E-07,0.068
-4.600E-07,0.036
-4.500E-07,0.024
-4.400E-07,0.008
-4.300E-07,0.020
-4.200E-07,0.024
-4.100E-07,0.040
-4.000E-07,0.060
-3.900E-07,0.068
-3.800E-07,0.068
-3.700E-07,0.060
-3.600E-07,0.044
-3.500E-07,0.044
-3.400E-07,0.060
-3.300E-07,0.080
-3.200E-07,0.096
-3.100E-07,0.096
-3.000E-07,0.088
-2.900E-07,0.084
-2.800E-07,0.080
-2.700E-07,0.080
-2.600E-07,0.072
-2.500E-07,0.072
-2.400E-07,0.088
-2.300E-07,0.088
-2.200E-07,0.088
-2.100E-07,0.088
-2.000E-07,0.092
-1.900E-07,0.080
-1.800E-07,0.068
-1.700E-07,0.068
-1.600E-07,0.060
-1.500E-07,0.056
-1.400E-07,0.052
-1.300E-07,0.032
-1.200E-07,0.028
-1.100E-07,0.032
-1.000E-07,0.032
-9.000E-08,0.024
-8.000E-08,0.000
-7.000E-08,-0.056
-6.000E-08,-0.312
-5.000E-08,-0.508
-4.000E-08,-0.508
-3.000E-08,-0.492
-2.000E-08,-0.100
-1.000E-08,0.280
0.000E+00,0.484
1.000E-08,0.284
2.000E-08,-0.132
3.000E-08,-0.512
4.000E-08,-0.512
5.000E-08,-0.252
6.000E-08,0.124
7.000E-08,0.308
8.000E-08,0.320
9.000E-08,0.176
1.000E-07,-0.008
1.100E-07,-0.180
1.200E-07,-0.304
1.300E-07,-0.240
1.400E-07,-0.084
1.500E-07,0.184
1.600E-07,0.324
1.700E-07,0.312
1.800E-07,0.100
1.900E-07,-0.120
2.000E-07,-0.232
2.100E-07,-0.196
2.200E-07,-0.040
2.300E-07,0.120
2.400E-07,0.236
2.500E-07,0.212
2.600E-07,0.124
2.700E-07,-0.008
2.800E-07,-0.096
2.900E-07,-0.104
3.000E-07,-0.036
3.100E-07,0.060
3.200E-07,0.124
3.300E-07,0.120
3.400E-07,0.060
3.500E-07,-0.020
3.600E-07,-0.068
3.700E-07,-0.056
3.800E-07,-0.004
3.900E-07,0.064
4.000E-07,0.128
4.100E-07,0.148
4.200E-07,0.132
4.300E-07,0.088
4.400E-07,0.048
4.500E-07,0.032
4.600E-07,0.056
4.700E-07,0.092
4.800E-07,0.136
4.900E-07,0.156
5.000E-07,0.140
5.100E-07,0.104
5.200E-07,0.052
5.300E-07,0.004
5.400E-07,-0.016
5.500E-07,-0.012
5.600E-07,0.012
5.700E-07,0.028
5.800E-07,0.048
5.900E-07,0.052
6.000E-07,0.024
6.100E-07,0.004
6.200E-07,-0.016
6.300E-07,-0.004
6.400E-07,0.012
6.500E-07,0.052
6.600E-07,0.080
6.700E-07,0.072
6.800E-07,0.060
6.900E-07,0.036
7.000E-07,0.028
7.100E-07,0.028
7.200E-07,0.056
7.300E-07,0.092
7.400E-07,0.112
7.500E-07,0.132
7.600E-07,0.128
7.700E-07,0.108
7.800E-07,0.084
7.900E-07,0.072
8.000E-07,0.068
8.100E-07,0.080
8.200E-07,0.100
8.300E-07,0.112
8.400E-07,0.112
8.500E-07,0.100
8.600E-07,0.080
8.700E-07,0.052
8.800E-07,0.040
8.900E-07,0.060
9.000E-07,0.088
9.100E-07,0.104
9.200E-07,0.100
9.300E-07,0.080
9.400E-07,0.064
9.500E-07,0.044
9.600E-07,0.024
9.700E-07,0.016
9.800E-07,-0.012
9.900E-07,-0.076
1.000E-06,-0.152
1.010E-06,-0.172
1.020E-06,-0.136
1.030E-06,-0.032
1.040E-06,0.092
1.050E-06,0.176
1.060E-06,0.128
1.070E-06,-0.004
1.080E-06,-0.104
1.090E-06,-0.144
1.100E-06,-0.112
1.110E-06,0.004
1.120E-06,0.148
1.130E-06,0.220
1.140E-06,0.208
1.150E-06,0.096
1.160E-06,-0.072
1.170E-06,-0.176
1.180E-06,-0.184
1.190E-06,-0.072
1.200E-06,0.092
1.210E-06,0.212
1.220E-06,0.220
1.230E-06,0.116
1.240E-06,-0.056
1.250E-06,-0.240
1.260E-06,-0.360
1.270E-06,-0.400
1.280E-06,-0.320
1.290E-06,-0.200
1.300E-06,-0.108
1.310E-06,-0.060
1.320E-06,-0.076
1.330E-06,-0.128
1.340E-06,-0.204
1.350E-06,-0.192
1.360E-06,-0.144
1.370E-06,-0.064
1.380E-06,0.012
1.390E-06,0.100
1.400E-06,0.116
1.410E-06,0.072
1.420E-06,0.020
1.430E-06,-0.028
1.440E-06,-0.024
1.450E-06,0.020
1.460E-06,0.100
1.470E-06,0.152
1.480E-06,0.144
1.490E-06,0.076
1.500E-06,0.020
1.510E-06,-0.020
1.520E-06,-0.008
1.530E-06,0.056
1.540E-06,0.112
1.550E-06,0.144
1.560E-06,0.124
1.570E-06,0.080
1.580E-06,0.032
1.590E-06,0.036
1.600E-06,0.064
1.610E-06,0.108
1.620E-06,0.152
1.630E-06,0.176
1.640E-06,0.152
1.650E-06,0.120
1.660E-06,0.080
1.670E-06,0.068
1.680E-06,0.088
1.690E-06,0.124
1.700E-06,0.152
1.710E-06,0.168
1.720E-06,0.156
1.730E-06,0.124
1.740E-06,0.104
1.750E-06,0.092
1.760E-06,0.092
1.770E-06,0.124
1.780E-06,0.148
1.790E-06,0.160
1.800E-06,0.152
1.810E-06,0.136
1.820E-06,0.104
1.830E-06,0.092
1.840E-06,0.092
1.850E-06,0.112
1.860E-06,0.136
1.870E-06,0.148
1.880E-06,0.140
1.890E-06,0.132
1.900E-06,0.116
1.910E-06,0.096
1.920E-06,0.092
1.930E-06,0.104
1.940E-06,0.120
1.950E-06,0.120
1.960E-06,0.108
1.970E-06,0.084
1.980E-06,0.056
1.990E-06,0.020
2.000E-06,-0.004
2.010E-06,-0.020
2.020E-06,-0.032
2.030E-06,-0.040
2.040E-06,-0.060
2.050E-06,-0.088
2.060E-06,-0.112
2.070E-06,-0.136
2.080E-06,-0.136
2.090E-06,-0.144
2.100E-06,-0.136
2.110E-06,-0.136
2.120E-06,-0.120
2.130E-06,-0.108
2.140E-06,-0.096
2.150E-06,-0.076
2.160E-06,-0.056
2.170E-06,-0.056
2.180E-06,-0.056
2.190E-06,-0.052
2.200E-06,-0.020
2.210E-06,0.012
2.220E-06,0.052
2.230E-06,0.080
2.240E-06,0.080
2.250E-06,0.064
2.260E-06,0.020
2.270E-06,0.008
2.280E-06,0.000
2.290E-06,0.024
2.300E-06,0.076
2.310E-06,0.112
2.320E-06,0.128
2.330E-06,0.104
2.340E-06,0.076
2.350E-06,0.040
2.360E-06,0.036
2.370E-06,0.044
2.380E-06,0.076
2.390E-06,0.108
2.400E-06,0.120
2.410E-06,0.108
2.420E-06,0.076
2.430E-06,0.040
2.440E-06,0.020
2.450E-06,0.036
2.460E-06,0.076
2.470E-06,0.124
2.480E-06,0.156
2.490E-06,0.176
2.500E-06,0.156
2.510E-06,0.136
2.520E-06,0.104
2.530E-06,0.096
2.540E-06,0.108
2.550E-06,0.132
2.560E-06,0.160
2.570E-06,0.172
2.580E-06,0.160
2.590E-06,0.140
2.600E-06,0.116
2.610E-06,0.092
2.620E-06,0.096
2.630E-06,0.120
2.640E-06,0.140
2.650E-06,0.152
2.660E-06,0.152
2.670E-06,0.132
2.680E-06,0.108
2.690E-06,0.092
2.700E-06,0.088
2.710E-06,0.108
2.720E-06,0.136
2.730E-06,0.152
2.740E-06,0.148
2.750E-06,0.140
2.760E-06,0.116
2.770E-06,0.104
2.780E-06,0.100
2.790E-06,0.104
2.800E-06,0.132
2.810E-06,0.144
2.820E-06,0.136
2.830E-06,0.128
2.840E-06,0.108
2.850E-06,0.088
2.860E-06,0.080
2.870E-06,0.088
2.880E-06,0.092
2.890E-06,0.108
2.900E-06,0.116
2.910E-06,0.120
2.920E-06,0.112
2.930E-06,0.108
2.940E-06,0.100
2.950E-06,0.104
2.960E-06,0.108
2.970E-06,0.116
2.980E-06,0.120
2.990E-06,0.120
3.000E-06,0.124
3.010E-06,0.108
3.020E-06,0.088
3.030E-06,0.068
3.040E-06,0.060
3.050E-06,0.060
3.060E-06,0.076
3.070E-06,0.092
3.080E-06,0.104
3.090E-06,0.108
3.100E-06,0.104
3.110E-06,0.088
3.120E-06,0.076
3.130E-06,0.076
3.140E-06,0.088
3.150E-06,0.116
3.160E-06,0.136
3.170E-06,0.140
3.180E-06,0.136
3.190E-06,0.120
3.200E-06,0.100
3.210E-06,0.088
3.220E-06,0.096
3.230E-06,0.116
3.240E-06,0.136
3.250E-06,0.144
3.260E-06,0.140
3.270E-06,0.124
3.280E-06,0.108
3.290E-06,0.100
3.300E-06,0.100
3.310E-06,0.112
3.320E-06,0.124
3.330E-06,0.140
