mediciones/Mediciones filtradas (saque las feas)/6-3/-12.5/WaveData5325.csv

#timebase=2000000(ps)
,#voltbase=500000(mv/100)
#size=4000
-2.250E-06,0.320
-2.240E-06,0.460
-2.230E-06,0.140
-2.220E-06,0.440
-2.210E-06,0.520
-2.200E-06,0.260
-2.190E-06,0.220
-2.180E-06,0.360
-2.170E-06,0.320
-2.160E-06,0.220
-2.150E-06,0.260
-2.140E-06,0.340
-2.130E-06,0.080
-2.120E-06,0.060
-2.110E-06,0.160
-2.100E-06,0.080
-2.090E-06,-0.040
-2.080E-06,-0.040
-2.070E-06,-0.120
-2.060E-06,-0.180
-2.050E-06,0.140
-2.040E-06,0.000
-2.030E-06,0.100
-2.020E-06,0.020
-2.010E-06,-0.060
-2.000E-06,-0.080
-1.990E-06,-0.200
-1.980E-06,0.020
-1.970E-06,-0.020
-1.960E-06,0.060
-1.950E-06,0.440
-1.940E-06,0.380
-1.930E-06,0.460
-1.920E-06,0.300
-1.910E-06,0.520
-1.900E-06,0.460
-1.890E-06,0.520
-1.880E-06,0.560
-1.870E-06,0.680
-1.860E-06,0.440
-1.850E-06,0.740
-1.840E-06,0.580
-1.830E-06,0.580
-1.820E-06,0.360
-1.810E-06,0.360
-1.800E-06,0.520
-1.790E-06,0.580
-1.780E-06,0.820
-1.770E-06,0.640
-1.760E-06,0.380
-1.750E-06,0.220
-1.740E-06,0.000
-1.730E-06,0.020
-1.720E-06,0.140
-1.710E-06,-0.020
-1.700E-06,-0.140
-1.690E-06,-0.340
-1.680E-06,-0.460
-1.670E-06,-0.800
-1.660E-06,-1.060
-1.650E-06,-1.160
-1.640E-06,-1.260
-1.630E-06,-0.940
-1.620E-06,-0.420
-1.610E-06,-0.020
-1.600E-06,0.240
-1.590E-06,0.340
-1.580E-06,0.420
-1.570E-06,0.400
-1.560E-06,0.660
-1.550E-06,1.100
-1.540E-06,0.940
-1.530E-06,1.320
-1.520E-06,1.140
-1.510E-06,1.320
-1.500E-06,1.320
-1.490E-06,1.240
-1.480E-06,1.020
-1.470E-06,0.660
-1.460E-06,0.520
-1.450E-06,0.560
-1.440E-06,0.440
-1.430E-06,0.440
-1.420E-06,0.240
-1.410E-06,-0.040
-1.400E-06,-0.160
-1.390E-06,-0.060
-1.380E-06,0.080
-1.370E-06,0.100
-1.360E-06,0.320
-1.350E-06,0.320
-1.340E-06,0.500
-1.330E-06,0.900
-1.320E-06,1.060
-1.310E-06,1.200
-1.300E-06,0.900
-1.290E-06,0.840
-1.280E-06,0.500
-1.270E-06,0.700
-1.260E-06,0.800
-1.250E-06,1.040
-1.240E-06,0.840
-1.230E-06,0.460
-1.220E-06,0.080
-1.210E-06,-0.260
-1.200E-06,-0.260
-1.190E-06,-0.360
-1.180E-06,-0.420
-1.170E-06,-0.600
-1.160E-06,-0.840
-1.150E-06,-0.880
-1.140E-06,-0.780
-1.130E-06,-0.560
-1.120E-06,-0.440
-1.110E-06,-0.320
-1.100E-06,-0.280
-1.090E-06,-0.080
-1.080E-06,0.220
-1.070E-06,0.580
-1.060E-06,0.860
-1.050E-06,0.940
-1.040E-06,0.940
-1.030E-06,1.000
-1.020E-06,1.120
-1.010E-06,1.220
-1.000E-06,1.200
-9.900E-07,1.160
-9.800E-07,0.940
-9.700E-07,0.800
-9.600E-07,0.700
-9.500E-07,0.640
-9.400E-07,0.540
-9.300E-07,0.420
-9.200E-07,0.240
-9.100E-07,0.120
-9.000E-07,0.020
-8.900E-07,0.080
-8.800E-07,0.120
-8.700E-07,0.100
-8.600E-07,0.160
-8.500E-07,0.200
-8.400E-07,0.320
-8.300E-07,0.460
-8.200E-07,0.600
-8.100E-07,0.560
-8.000E-07,0.700
-7.900E-07,0.760
-7.800E-07,0.820
-7.700E-07,0.980
-7.600E-07,0.820
-7.500E-07,0.840
-7.400E-07,0.540
-7.300E-07,0.480
-7.200E-07,0.200
-7.100E-07,0.120
-7.000E-07,0.000
-6.900E-07,-0.200
-6.800E-07,-0.280
-6.700E-07,-1.160
-6.600E-07,0.060
-6.500E-07,-0.460
-6.400E-07,0.240
-6.300E-07,1.100
-6.200E-07,0.300
-6.100E-07,0.100
-6.000E-07,-0.600
-5.900E-07,-0.420
-5.800E-07,-0.200
-5.700E-07,0.160
-5.600E-07,1.280
-5.500E-07,0.660
-5.400E-07,0.380
-5.300E-07,0.520
-5.200E-07,0.500
-5.100E-07,0.360
-5.000E-07,0.460
-4.900E-07,0.820
-4.800E-07,0.420
-4.700E-07,0.420
-4.600E-07,0.760
-4.500E-07,0.680
-4.400E-07,0.340
-4.300E-07,0.180
-4.200E-07,0.000
-4.100E-07,-0.260
-4.000E-07,0.080
-3.900E-07,0.480
-3.800E-07,0.480
-3.700E-07,0.160
-3.600E-07,-0.060
-3.500E-07,-0.200
-3.400E-07,-0.260
-3.300E-07,0.080
-3.200E-07,0.300
-3.100E-07,0.260
-3.000E-07,0.220
-2.900E-07,0.140
-2.800E-07,0.020
-2.700E-07,0.000
-2.600E-07,0.100
-2.500E-07,0.220
-2.400E-07,0.260
-2.300E-07,0.420
-2.200E-07,0.540
-2.100E-07,0.560
-2.000E-07,0.580
-1.900E-07,0.680
-1.800E-07,0.720
-1.700E-07,0.760
-1.600E-07,0.920
-1.500E-07,1.000
-1.400E-07,0.940
-1.300E-07,0.820
-1.200E-07,0.760
-1.100E-07,0.440
-1.000E-07,0.220
-9.000E-08,0.320
-8.000E-08,-0.500
-7.000E-08,-0.560
-6.000E-08,-0.280
-5.000E-08,-0.720
-4.000E-08,0.340
-3.000E-08,0.300
-2.000E-08,-0.840
-1.000E-08,-2.020
0.000E+00,-1.700
1.000E-08,-1.740
2.000E-08,0.200
3.000E-08,0.980
4.000E-08,1.360
5.000E-08,-0.160
6.000E-08,-1.200
7.000E-08,-0.880
8.000E-08,0.000
9.000E-08,0.760
1.000E-07,1.180
1.100E-07,0.700
1.200E-07,0.120
1.300E-07,0.420
1.400E-07,0.960
1.500E-07,0.860
1.600E-07,0.480
1.700E-07,-0.100
1.800E-07,-0.600
1.900E-07,-0.540
2.000E-07,0.260
2.100E-07,0.700
2.200E-07,0.160
2.300E-07,-0.620
2.400E-07,-1.260
2.500E-07,-1.200
2.600E-07,-0.600
2.700E-07,0.240
2.800E-07,0.340
2.900E-07,-0.180
3.000E-07,-0.680
3.100E-07,-0.760
3.200E-07,-0.500
3.300E-07,-0.020
3.400E-07,0.280
3.500E-07,0.200
3.600E-07,-0.020
3.700E-07,-0.100
3.800E-07,-0.080
3.900E-07,0.020
4.000E-07,0.140
4.100E-07,0.200
4.200E-07,0.180
4.300E-07,0.100
4.400E-07,0.100
4.500E-07,0.060
4.600E-07,0.000
4.700E-07,0.000
4.800E-07,-0.020
4.900E-07,-0.080
5.000E-07,-0.060
5.100E-07,0.060
5.200E-07,0.160
5.300E-07,0.260
5.400E-07,0.300
5.500E-07,0.300
5.600E-07,0.360
5.700E-07,0.460
5.800E-07,0.640
5.900E-07,0.600
6.000E-07,0.600
6.100E-07,0.660
6.200E-07,0.960
6.300E-07,0.920
6.400E-07,0.180
6.500E-07,0.840
6.600E-07,0.080
6.700E-07,-1.160
6.800E-07,0.000
6.900E-07,-1.960
7.000E-07,-0.180
7.100E-07,-0.060
7.200E-07,0.800
7.300E-07,0.920
7.400E-07,0.040
7.500E-07,-0.740
7.600E-07,-1.020
7.700E-07,-0.820
7.800E-07,0.400
7.900E-07,0.380
8.000E-07,0.520
8.100E-07,-0.060
8.200E-07,-0.220
8.300E-07,-0.080
8.400E-07,-0.020
8.500E-07,0.340
8.600E-07,-0.400
8.700E-07,-0.560
8.800E-07,-0.480
8.900E-07,-0.140
9.000E-07,0.180
9.100E-07,0.200
9.200E-07,-0.300
9.300E-07,-0.940
9.400E-07,-0.960
9.500E-07,-0.360
9.600E-07,0.340
9.700E-07,0.560
9.800E-07,0.460
9.900E-07,0.020
1.000E-06,-0.340
1.010E-06,-0.140
1.020E-06,0.280
1.030E-06,0.580
1.040E-06,0.560
1.050E-06,0.420
1.060E-06,0.260
1.070E-06,0.220
1.080E-06,0.300
1.090E-06,0.360
1.100E-06,0.300
1.110E-06,0.340
1.120E-06,0.380
1.130E-06,0.420
1.140E-06,0.420
1.150E-06,0.480
1.160E-06,0.500
1.170E-06,0.500
1.180E-06,0.500
1.190E-06,0.520
1.200E-06,0.540
1.210E-06,0.600
1.220E-06,0.720
1.230E-06,0.680
1.240E-06,0.680
1.250E-06,0.580
1.260E-06,0.400
1.270E-06,0.220
1.280E-06,0.180
1.290E-06,0.220
1.300E-06,0.260
1.310E-06,0.360
1.320E-06,0.420
1.330E-06,0.480
1.340E-06,0.040
1.350E-06,-0.380
1.360E-06,-0.300
1.370E-06,-0.800
1.380E-06,-1.200
1.390E-06,-0.960
1.400E-06,-0.260
1.410E-06,-0.080
1.420E-06,0.440
1.430E-06,-0.460
1.440E-06,-0.920
1.450E-06,-2.380
1.460E-06,-1.480
1.470E-06,-0.780
1.480E-06,0.360
1.490E-06,0.880
1.500E-06,0.000
1.510E-06,-0.320
1.520E-06,-0.500
1.530E-06,0.500
1.540E-06,1.000
1.550E-06,1.120
1.560E-06,1.000
1.570E-06,0.700
1.580E-06,0.600
1.590E-06,1.000
1.600E-06,1.400
1.610E-06,1.220
1.620E-06,0.680
1.630E-06,0.340
1.640E-06,0.300
1.650E-06,0.680
1.660E-06,0.920
1.670E-06,0.920
1.680E-06,0.340
1.690E-06,-0.200
1.700E-06,-0.360
1.710E-06,-0.040
1.720E-06,0.000
1.730E-06,-0.060
1.740E-06,-0.280
1.750E-06,-0.680
1.760E-06,-0.780
1.770E-06,-0.500
1.780E-06,-0.300
1.790E-06,-0.360
1.800E-06,-0.360
1.810E-06,-0.320
1.820E-06,-0.260
1.830E-06,-0.120
1.840E-06,0.180
1.850E-06,0.260
1.860E-06,0.360
1.870E-06,0.480
1.880E-06,0.600
1.890E-06,0.520
1.900E-06,0.420
1.910E-06,0.500
1.920E-06,0.480
1.930E-06,0.520
1.940E-06,0.500
1.950E-06,0.440
1.960E-06,0.280
1.970E-06,0.160
1.980E-06,0.180
1.990E-06,0.120
2.000E-06,0.140
2.010E-06,0.260
2.020E-06,0.140
2.030E-06,0.160
2.040E-06,0.000
2.050E-06,-0.220
2.060E-06,-0.260
2.070E-06,-0.380
2.080E-06,-0.260
2.090E-06,-0.320
2.100E-06,-0.300
2.110E-06,-0.100
2.120E-06,-0.140
2.130E-06,-0.120
2.140E-06,0.000
2.150E-06,-0.180
2.160E-06,-0.240
2.170E-06,-0.180
2.180E-06,-0.140
2.190E-06,0.240
2.200E-06,0.340
2.210E-06,0.660
2.220E-06,0.500
2.230E-06,0.380
2.240E-06,0.260
2.250E-06,0.220
2.260E-06,0.320
2.270E-06,0.220
2.280E-06,0.160
2.290E-06,0.020
2.300E-06,0.000
2.310E-06,-0.060
2.320E-06,-0.220
2.330E-06,-0.300
2.340E-06,-0.360
2.350E-06,-0.360
2.360E-06,-0.200
2.370E-06,-0.100
2.380E-06,0.020
2.390E-06,-0.080
2.400E-06,-0.020
2.410E-06,-0.020
2.420E-06,0.060
2.430E-06,0.080
2.440E-06,0.060
2.450E-06,-0.060
2.460E-06,-0.180
2.470E-06,-0.240
2.480E-06,-0.220
2.490E-06,-0.220
2.500E-06,-0.160
2.510E-06,-0.220
2.520E-06,-0.300
2.530E-06,-0.320
2.540E-06,-0.400
2.550E-06,-0.300
2.560E-06,-0.340
2.570E-06,-0.340
2.580E-06,-0.220
2.590E-06,-0.220
2.600E-06,-0.040
2.610E-06,0.200
2.620E-06,0.240
2.630E-06,0.320
2.640E-06,0.560
2.650E-06,0.360
2.660E-06,0.360
2.670E-06,0.320
2.680E-06,0.320
2.690E-06,0.440
2.700E-06,0.420
2.710E-06,0.720
2.720E-06,0.480
2.730E-06,0.380
2.740E-06,0.180
2.750E-06,0.060
2.760E-06,0.000
2.770E-06,0.120
2.780E-06,-0.020
2.790E-06,-0.220
2.800E-06,-0.360
2.810E-06,-0.440
2.820E-06,-0.360
2.830E-06,-0.400
2.840E-06,-0.420
2.850E-06,-0.500
2.860E-06,-0.580
2.870E-06,-0.340
2.880E-06,-0.180
2.890E-06,0.160
2.900E-06,0.160
2.910E-06,0.160
2.920E-06,0.220
2.930E-06,0.360
2.940E-06,0.560
2.950E-06,0.840
2.960E-06,1.020
2.970E-06,1.000
2.980E-06,0.980
2.990E-06,0.880
3.000E-06,0.700
3.010E-06,0.460
3.020E-06,0.340
3.030E-06,0.360
3.040E-06,0.180
3.050E-06,0.180
3.060E-06,0.120
3.070E-06,-0.160
3.080E-06,-0.320
3.090E-06,-1.100
3.100E-06,-1.040
3.110E-06,-1.180
3.120E-06,-0.860
3.130E-06,-0.260
3.140E-06,0.140
3.150E-06,0.580
3.160E-06,0.500
3.170E-06,0.620
3.180E-06,0.740
3.190E-06,0.900
3.200E-06,1.020
3.210E-06,1.020
3.220E-06,0.900
3.230E-06,1.080
3.240E-06,1.040
3.250E-06,1.380
3.260E-06,1.380
3.270E-06,1.320
3.280E-06,1.300
3.290E-06,1.360
3.300E-06,1.560
3.310E-06,1.660
3.320E-06,1.800
3.330E-06,1.700
3.340E-06,1.580
3.350E-06,1.560
3.360E-06,1.400
3.370E-06,1.620
3.380E-06,1.520
3.390E-06,1.340
3.400E-06,1.260
3.410E-06,0.900
3.420E-06,1.000
3.430E-06,0.880
3.440E-06,0.940
3.450E-06,0.860
3.460E-06,0.520
3.470E-06,0.460
3.480E-06,0.160
3.490E-06,0.100
3.500E-06,-0.080
3.510E-06,-0.300
3.520E-06,-0.400
3.530E-06,-0.700
3.540E-06,-0.920
3.550E-06,-1.180
3.560E-06,-1.040
3.570E-06,-1.100
3.580E-06,-1.340
3.590E-06,-1.560
3.600E-06,-2.260
3.610E-06,-2.320
3.620E-06,-2.360
3.630E-06,-2.100
3.640E-06,-1.480
3.650E-06,-1.520
3.660E-06,-1.000
3.670E-06,-0.940
3.680E-06,-0.220
3.690E-06,0.440
3.700E-06,1.140
3.710E-06,1.360
3.720E-06,1.500
3.730E-06,1.520
3.740E-06,1.700
3.750E-06,2.020
3.760E-06,2.280
3.770E-06,2.300
3.780E-06,2.080
3.790E-06,1.900
3.800E-06,1.720
3.810E-06,1.640
3.820E-06,1.480
3.830E-06,1.200
3.840E-06,0.860
3.850E-06,0.520
3.860E-06,0.340
3.870E-06,0.340
3.880E-06,0.180
3.890E-06,0.020
3.900E-06,-0.300
3.910E-06,-0.640
3.920E-06,-0.960
3.930E-06,-0.980
3.940E-06,-1.020
3.950E-06,-1.100
3.960E-06,-1.280
3.970E-06,-1.420
3.980E-06,-1.660
3.990E-06,-1.880
4.000E-06,-1.940
4.010E-06,-2.020
4.020E-06,-2.040
4.030E-06,-1.980
4.040E-06,-1.900
4.050E-06,-1.960
4.060E-06,-1.940
4.070E-06,-1.960
4.080E-06,-2.040
4.090E-06,-2.100
4.100E-06,-2.120
4.110E-06,-2.220
4.120E-06,-2.180
4.130E-06,-2.260
4.140E-06,-2.380
4.150E-06,-2.440
4.160E-06,-2.660
4.170E-06,-2.660
4.180E-06,-2.640
4.190E-06,-2.660
4.200E-06,-2.660
4.210E-06,-2.680
4.220E-06,-2.680
4.230E-06,-2.660
4.240E-06,-2.660
4.250E-06,-2.660
4.260E-06,-2.660
4.270E-06,-2.660
4.280E-06,-2.660
4.290E-06,-2.680
4.300E-06,-2.680
4.310E-06,-2.660
4.320E-06,-2.660
4.330E-06,-2.660
4.340E-06,-2.660
4.350E-06,-2.660
4.360E-06,-2.660
4.370E-06,-2.680
4.380E-06,-2.680
4.390E-06,-2.660
4.400E-06,-2.660
4.410E-06,-2.640
4.420E-06,-2.640
4.430E-06,-2.660
4.440E-06,-2.660
4.450E-06,-2.680
4.460E-06,-2.680
4.470E-06,-2.660
4.480E-06,-2.660
4.490E-06,-2.640
4.500E-06,-2.640
4.510E-06,-2.660
4.520E-06,-2.660
4.530E-06,-2.660
4.540E-06,-2.660
4.550E-06,-2.660
4.560E-06,-2.660
4.570E-06,-2.660
4.580E-06,-2.660
4.590E-06,-2.660
4.600E-06,-2.660
4.610E-06,-2.660
4.620E-06,-2.660
4.630E-06,-2.660
4.640E-06,-2.640
4.650E-06,-2.660
4.660E-06,-2.660
4.670E-06,-2.660
4.680E-06,-2.640
4.690E-06,-2.640
4.700E-06,-2.640
4.710E-06,-2.640
4.720E-06,-2.640
4.730E-06,-2.640
4.740E-06,-2.660
4.750E-06,-2.660
4.760E-06,-2.660
4.770E-06,-2.660
4.780E-06,-2.680
4.790E-06,-2.680
4.800E-06,-2.660
4.810E-06,-2.660
4.820E-06,-2.660
4.830E-06,-2.660
4.840E-06,-2.640
4.850E-06,-2.660
4.860E-06,-2.660
4.870E-06,-2.660
4.880E-06,-2.560
4.890E-06,-2.540
4.900E-06,-2.380
4.910E-06,-2.320
4.920E-06,-2.300
4.930E-06,-2.200
4.940E-06,-2.280
4.950E-06,-2.240
4.960E-06,-2.260
4.970E-06,-2.380
4.980E-06,-2.480
4.990E-06,-2.540
5.000E-06,-2.560
5.010E-06,-2.500
5.020E-06,-2.460
5.030E-06,-2.460
5.040E-06,-2.500
5.050E-06,-2.580
5.060E-06,-2.640
5.070E-06,-2.660
5.080E-06,-2.660
5.090E-06,-2.660
5.100E-06,-2.660
5.110E-06,-2.660
5.120E-06,-2.660
5.130E-06,-2.640
5.140E-06,-2.640
5.150E-06,-2.640
5.160E-06,-2.640
5.170E-06,-2.660
5.180E-06,-2.660
5.190E-06,-2.680
5.200E-06,-2.680
5.210E-06,-2.680
5.220E-06,-2.680
5.230E-06,-2.660
5.240E-06,-2.660
5.250E-06,-2.640
5.260E-06,-2.660
5.270E-06,-2.660
5.280E-06,-1.840
5.290E-06,-1.360
5.300E-06,-0.400
5.310E-06,-0.020
5.320E-06,0.280
5.330E-06,0.200
5.340E-06,0.320
5.350E-06,0.340
5.360E-06,0.420
5.370E-06,0.580
5.380E-06,0.740
5.390E-06,0.640
5.400E-06,0.320
5.410E-06,-0.240
5.420E-06,-0.980
5.430E-06,-1.940
5.440E-06,-2.640
5.450E-06,-2.640
5.460E-06,-2.640
5.470E-06,-2.640
5.480E-06,-2.660
5.490E-06,-2.660
5.500E-06,-2.660
5.510E-06,-2.660
5.520E-06,-2.660
5.530E-06,-2.640
5.540E-06,-2.640
5.550E-06,-2.660
5.560E-06,-2.660
5.570E-06,-2.660
5.580E-06,-2.660
5.590E-06,-2.660
5.600E-06,-2.660
5.610E-06,-2.660
5.620E-06,-2.660
5.630E-06,-2.660
5.640E-06,-2.660
5.650E-06,-2.660
5.660E-06,-2.640
5.670E-06,-2.640
5.680E-06,-2.640
5.690E-06,-2.660
5.700E-06,-2.660
5.710E-06,-2.660
5.720E-06,-2.660
5.730E-06,-2.660
5.740E-06,-2.680
5.750E-06,-2.660
5.760E-06,-2.660
5.770E-06,-2.660
5.780E-06,-2.660
5.790E-06,-2.680
5.800E-06,-2.680
5.810E-06,-2.660
5.820E-06,-2.660
5.830E-06,-2.660
5.840E-06,-2.660
5.850E-06,-2.660
5.860E-06,-2.660
5.870E-06,-2.660
5.880E-06,-2.660
5.890E-06,-2.660
5.900E-06,-2.660
5.910E-06,-2.660
5.920E-06,-2.660
5.930E-06,-2.660
5.940E-06,-2.640
5.950E-06,-2.660
5.960E-06,-2.660
5.970E-06,-2.680
5.980E-06,-2.680
5.990E-06,-2.660
6.000E-06,-2.660
6.010E-06,-2.640
6.020E-06,-2.420
6.030E-06,-2.200
6.040E-06,-2.020
6.050E-06,-1.820
6.060E-06,-1.680
6.070E-06,-1.560
6.080E-06,-1.440
6.090E-06,-1.420
6.100E-06,-1.380
6.110E-06,-1.380
6.120E-06,-1.440
6.130E-06,-1.500
6.140E-06,-1.600
6.150E-06,-1.620
6.160E-06,-1.700
6.170E-06,-1.700
6.180E-06,-1.740
6.190E-06,-1.780
6.200E-06,-1.820
6.210E-06,-1.800
6.220E-06,-1.760
6.230E-06,-1.680
6.240E-06,-1.620
6.250E-06,-1.520
6.260E-06,-1.480
6.270E-06,-1.360
6.280E-06,-1.260
6.290E-06,-1.180
6.300E-06,-1.160
6.310E-06,-1.060
6.320E-06,-1.020
6.330E-06,-0.960
6.340E-06,-0.900
6.350E-06,-0.860
6.360E-06,-0.800
6.370E-06,-0.800
6.380E-06,-0.760
6.390E-06,-0.740
6.400E-06,-0.680
6.410E-06,-0.700
6.420E-06,-0.700
6.430E-06,-0.680
6.440E-06,-0.720
6.450E-06,-0.780
6.460E-06,-0.840
6.470E-06,-0.860
6.480E-06,-0.900
6.490E-06,-0.880
6.500E-06,-0.920
6.510E-06,-0.920
6.520E-06,-1.000
6.530E-06,-1.040
6.540E-06,-1.020
6.550E-06,-1.060
6.560E-06,-1.080
6.570E-06,-1.020
6.580E-06,-0.980
6.590E-06,-0.920
6.600E-06,-0.900
6.610E-06,-0.860
6.620E-06,-0.800
6.630E-06,-0.800
6.640E-06,-0.800
6.650E-06,-0.840
6.660E-06,-0.840
6.670E-06,-0.820
6.680E-06,-0.780
6.690E-06,-0.720
6.700E-06,-0.680
6.710E-06,-0.660
6.720E-06,-0.660
6.730E-06,-0.640
6.740E-06,-0.640
6.750E-06,-0.660
6.760E-06,-0.660
6.770E-06,-0.700
6.780E-06,-0.660
6.790E-06,-0.700
6.800E-06,-0.640
6.810E-06,-0.620
6.820E-06,-0.600
6.830E-06,-0.560
6.840E-06,-0.560
6.850E-06,-0.520
6.860E-06,-0.500
6.870E-06,-0.500
6.880E-06,-0.500
6.890E-06,-0.440
6.900E-06,-0.460
6.910E-06,-0.460
6.920E-06,-0.500
6.930E-06,-0.480
6.940E-06,-0.460
6.950E-06,-0.420
6.960E-06,-0.400
6.970E-06,-0.400
6.980E-06,-0.400
6.990E-06,-0.440
7.000E-06,-0.500
7.010E-06,-0.520
7.020E-06,-0.600
7.030E-06,-0.660
7.040E-06,-0.700
7.050E-06,-0.800
7.060E-06,-0.860
7.070E-06,-0.880
7.080E-06,-0.920
7.090E-06,-0.920
7.100E-06,-0.940
7.110E-06,-0.940
7.120E-06,-0.960
7.130E-06,-0.920
7.140E-06,-0.820
7.150E-06,-0.760
7.160E-06,-0.660
7.170E-06,-0.640
7.180E-06,-0.620
7.190E-06,-0.600
7.200E-06,-0.600
7.210E-06,-0.640
7.220E-06,-0.660
7.230E-06,-0.680
7.240E-06,-0.740
7.250E-06,-0.700
7.260E-06,-0.700
7.270E-06,-0.680
7.280E-06,-0.640
7.290E-06,-0.580
7.300E-06,-0.500
7.310E-06,-0.400
7.320E-06,-0.280
7.330E-06,-0.180
7.340E-06,-0.080
7.350E-06,0.000
7.360E-06,0.040
7.370E-06,0.100
7.380E-06,0.080
7.390E-06,0.020
7.400E-06,0.000
7.410E-06,-0.040
7.420E-06,-0.080
7.430E-06,-0.120
7.440E-06,-0.120
7.450E-06,-0.120
7.460E-06,-0.100
7.470E-06,-0.080
7.480E-06,-0.080
7.490E-06,-0.020
7.500E-06,0.000
7.510E-06,0.020
7.520E-06,0.000
7.530E-06,0.000
7.540E-06,0.040
7.550E-06,0.020
7.560E-06,0.040
7.570E-06,0.080
7.580E-06,0.120
7.590E-06,0.180
7.600E-06,0.200
7.610E-06,0.200
7.620E-06,0.240
7.630E-06,0.240
7.640E-06,0.240
7.650E-06,0.220
7.660E-06,0.240
7.670E-06,0.220
7.680E-06,0.260
7.690E-06,0.300
7.700E-06,0.340
7.710E-06,0.400
7.720E-06,0.460
7.730E-06,0.500
7.740E-06,0.540
7.750E-06,0.580
7.760E-06,0.540
7.770E-06,0.540
7.780E-06,0.580
7.790E-06,0.560
7.800E-06,0.600
7.810E-06,0.600
7.820E-06,0.640
7.830E-06,0.660
7.840E-06,0.680
7.850E-06,0.660
7.860E-06,0.640
7.870E-06,0.540
7.880E-06,0.520
7.890E-06,0.400
7.900E-06,0.400
7.910E-06,0.440
7.920E-06,0.460
7.930E-06,0.500
7.940E-06,0.520
7.950E-06,0.480
7.960E-06,0.420
7.970E-06,0.340
7.980E-06,0.260
7.990E-06,0.140
8.000E-06,0.020
8.010E-06,-0.040
8.020E-06,-0.160
8.030E-06,-0.160
8.040E-06,-0.260
8.050E-06,-0.240
8.060E-06,-0.280
8.070E-06,-0.300
8.080E-06,-0.320
8.090E-06,-0.400
8.100E-06,-0.440
8.110E-06,-0.460
8.120E-06,-0.460
8.130E-06,-0.500
8.140E-06,-0.500
8.150E-06,-0.600
8.160E-06,-0.660
8.170E-06,-0.660
8.180E-06,-0.720
8.190E-06,-0.760
8.200E-06,-0.780
8.210E-06,-0.740
8.220E-06,-0.680
8.230E-06,-0.660
8.240E-06,-0.580
8.250E-06,-0.460
8.260E-06,-0.360
8.270E-06,-0.280
8.280E-06,-0.200
8.290E-06,-0.160
8.300E-06,-0.060
8.310E-06,-0.020
8.320E-06,0.060
8.330E-06,0.100
8.340E-06,0.140
8.350E-06,0.160
8.360E-06,0.220
8.370E-06,0.280
8.380E-06,0.320
8.390E-06,0.360
8.400E-06,0.460
8.410E-06,0.500
8.420E-06,0.540
8.430E-06,0.560
8.440E-06,0.600
8.450E-06,0.600
8.460E-06,0.580
8.470E-06,0.540
8.480E-06,0.500
8.490E-06,0.460
8.500E-06,0.400
8.510E-06,0.380
8.520E-06,0.360
8.530E-06,0.320
8.540E-06,0.320
8.550E-06,0.320
8.560E-06,0.320
8.570E-06,0.340
8.580E-06,0.340
8.590E-06,0.340
8.600E-06,0.320
8.610E-06,0.320
8.620E-06,0.360
8.630E-06,0.320
8.640E-06,0.340
8.650E-06,0.360
8.660E-06,0.320
8.670E-06,0.320
8.680E-06,0.300
8.690E-06,0.280
8.700E-06,0.300
8.710E-06,0.300
8.720E-06,0.320
8.730E-06,0.380
8.740E-06,0.460
8.750E-06,0.560
8.760E-06,0.680
8.770E-06,0.780
8.780E-06,0.860
8.790E-06,0.940
8.800E-06,1.020
8.810E-06,1.040
8.820E-06,1.080
8.830E-06,1.100
8.840E-06,1.100
8.850E-06,1.100
8.860E-06,1.100
8.870E-06,1.040
8.880E-06,1.060
8.890E-06,1.060
8.900E-06,1.100
8.910E-06,1.140
8.920E-06,1.220
8.930E-06,1.300
8.940E-06,1.360
8.950E-06,1.420
8.960E-06,1.480
8.970E-06,1.520
8.980E-06,1.560
8.990E-06,1.620
9.000E-06,1.660
9.010E-06,1.660
9.020E-06,1.700
9.030E-06,1.720
9.040E-06,1.760
9.050E-06,1.760
9.060E-06,1.800
9.070E-06,1.820
9.080E-06,1.820
9.090E-06,1.800
9.100E-06,1.840
9.110E-06,1.820
9.120E-06,1.840
9.130E-06,1.860
9.140E-06,1.920
9.150E-06,2.020
9.160E-06,2.100
9.170E-06,2.200
9.180E-06,2.240
9.190E-06,2.260
9.200E-06,2.220
9.210E-06,2.180
9.220E-06,2.160
9.230E-06,2.120
9.240E-06,2.140
9.250E-06,2.160
9.260E-06,2.180
9.270E-06,2.220
9.280E-06,2.240
9.290E-06,2.220
9.300E-06,2.220
9.310E-06,2.220
9.320E-06,2.200
9.330E-06,2.280
9.340E-06,2.320
9.350E-06,2.400
9.360E-06,2.500
9.370E-06,2.660
9.380E-06,2.760
9.390E-06,2.760
9.400E-06,2.740
9.410E-06,2.760
9.420E-06,2.760
9.430E-06,2.760
9.440E-06,2.740
9.450E-06,2.760
9.460E-06,2.760
9.470E-06,2.740
9.480E-06,2.760
9.490E-06,2.760
9.500E-06,2.760
9.510E-06,2.760
9.520E-06,2.760
9.530E-06,2.760
9.540E-06,2.760
9.550E-06,2.760
9.560E-06,2.760
9.570E-06,2.760
9.580E-06,2.740
9.590E-06,2.760
9.600E-06,2.760
9.610E-06,2.780
9.620E-06,2.780
9.630E-06,2.760
9.640E-06,2.780
9.650E-06,2.760
9.660E-06,2.760
9.670E-06,2.760
9.680E-06,2.760
9.690E-06,2.780
9.700E-06,2.760
