mediciones/Mediciones filtradas (saque las feas)/6-3/-12.5/WaveData5323.csv

#timebase=2000000(ps)
,#voltbase=500000(mv/100)
#size=4000
-2.250E-06,0.040
-2.240E-06,0.000
-2.230E-06,0.000
-2.220E-06,-0.080
-2.210E-06,-0.340
-2.200E-06,-0.160
-2.190E-06,-0.740
-2.180E-06,-0.600
-2.170E-06,-0.280
-2.160E-06,-0.420
-2.150E-06,0.660
-2.140E-06,0.780
-2.130E-06,0.900
-2.120E-06,0.560
-2.110E-06,0.120
-2.100E-06,0.220
-2.090E-06,0.280
-2.080E-06,0.560
-2.070E-06,0.860
-2.060E-06,0.440
-2.050E-06,0.400
-2.040E-06,0.320
-2.030E-06,0.180
-2.020E-06,0.300
-2.010E-06,0.240
-2.000E-06,0.240
-1.990E-06,0.020
-1.980E-06,0.220
-1.970E-06,0.420
-1.960E-06,0.400
-1.950E-06,0.420
-1.940E-06,0.240
-1.930E-06,0.020
-1.920E-06,0.040
-1.910E-06,0.260
-1.900E-06,0.420
-1.890E-06,0.440
-1.880E-06,0.340
-1.870E-06,0.160
-1.860E-06,0.040
-1.850E-06,0.180
-1.840E-06,0.280
-1.830E-06,0.340
-1.820E-06,0.280
-1.810E-06,0.240
-1.800E-06,0.180
-1.790E-06,0.180
-1.780E-06,0.180
-1.770E-06,0.180
-1.760E-06,0.160
-1.750E-06,0.160
-1.740E-06,0.240
-1.730E-06,0.240
-1.720E-06,0.320
-1.710E-06,0.320
-1.700E-06,0.340
-1.690E-06,0.320
-1.680E-06,0.340
-1.670E-06,0.360
-1.660E-06,0.420
-1.650E-06,0.420
-1.640E-06,0.400
-1.630E-06,0.340
-1.620E-06,0.300
-1.610E-06,0.260
-1.600E-06,0.180
-1.590E-06,0.120
-1.580E-06,0.040
-1.570E-06,-0.020
-1.560E-06,-0.100
-1.550E-06,-0.120
-1.540E-06,-0.140
-1.530E-06,-0.180
-1.520E-06,-0.260
-1.510E-06,-0.300
-1.500E-06,-0.340
-1.490E-06,-0.300
-1.480E-06,-0.200
-1.470E-06,-0.160
-1.460E-06,-0.140
-1.450E-06,-0.140
-1.440E-06,-0.160
-1.430E-06,-0.120
-1.420E-06,-0.020
-1.410E-06,0.060
-1.400E-06,0.120
-1.390E-06,0.220
-1.380E-06,0.280
-1.370E-06,0.320
-1.360E-06,0.360
-1.350E-06,0.400
-1.340E-06,0.480
-1.330E-06,0.520
-1.320E-06,0.560
-1.310E-06,0.640
-1.300E-06,0.680
-1.290E-06,0.660
-1.280E-06,0.720
-1.270E-06,0.780
-1.260E-06,0.660
-1.250E-06,0.680
-1.240E-06,0.720
-1.230E-06,0.380
-1.220E-06,0.360
-1.210E-06,0.240
-1.200E-06,0.100
-1.190E-06,0.020
-1.180E-06,0.040
-1.170E-06,0.060
-1.160E-06,0.080
-1.150E-06,0.060
-1.140E-06,0.240
-1.130E-06,0.300
-1.120E-06,0.200
-1.110E-06,0.240
-1.100E-06,0.400
-1.090E-06,0.240
-1.080E-06,0.580
-1.070E-06,0.520
-1.060E-06,0.560
-1.050E-06,0.380
-1.040E-06,0.320
-1.030E-06,0.460
-1.020E-06,0.340
-1.010E-06,0.240
-1.000E-06,0.240
-9.900E-07,-0.080
-9.800E-07,-0.380
-9.700E-07,-0.680
-9.600E-07,-0.840
-9.500E-07,-0.740
-9.400E-07,-0.280
-9.300E-07,0.080
-9.200E-07,0.260
-9.100E-07,0.160
-9.000E-07,0.220
-8.900E-07,0.120
-8.800E-07,0.300
-8.700E-07,0.480
-8.600E-07,0.860
-8.500E-07,0.980
-8.400E-07,1.160
-8.300E-07,1.540
-8.200E-07,1.600
-8.100E-07,1.660
-8.000E-07,1.680
-7.900E-07,1.560
-7.800E-07,1.480
-7.700E-07,1.440
-7.600E-07,1.600
-7.500E-07,1.700
-7.400E-07,1.580
-7.300E-07,1.520
-7.200E-07,1.220
-7.100E-07,1.020
-7.000E-07,0.980
-6.900E-07,0.940
-6.800E-07,0.900
-6.700E-07,0.680
-6.600E-07,0.480
-6.500E-07,0.320
-6.400E-07,0.180
-6.300E-07,0.160
-6.200E-07,0.120
-6.100E-07,0.120
-6.000E-07,0.000
-5.900E-07,-0.180
-5.800E-07,-0.260
-5.700E-07,-0.380
-5.600E-07,-0.360
-5.500E-07,-0.360
-5.400E-07,-0.380
-5.300E-07,-0.540
-5.200E-07,-0.680
-5.100E-07,-0.820
-5.000E-07,-0.840
-4.900E-07,-0.760
-4.800E-07,-0.720
-4.700E-07,-0.780
-4.600E-07,-0.820
-4.500E-07,-0.720
-4.400E-07,-0.620
-4.300E-07,-0.380
-4.200E-07,-0.240
-4.100E-07,-0.160
-4.000E-07,-0.080
-3.900E-07,0.000
-3.800E-07,0.180
-3.700E-07,0.360
-3.600E-07,0.520
-3.500E-07,0.600
-3.400E-07,0.660
-3.300E-07,0.660
-3.200E-07,0.820
-3.100E-07,0.880
-3.000E-07,0.920
-2.900E-07,0.920
-2.800E-07,0.720
-2.700E-07,0.660
-2.600E-07,0.720
-2.500E-07,0.660
-2.400E-07,0.760
-2.300E-07,0.660
-2.200E-07,0.520
-2.100E-07,0.400
-2.000E-07,0.320
-1.900E-07,0.360
-1.800E-07,0.360
-1.700E-07,0.440
-1.600E-07,0.500
-1.500E-07,0.400
-1.400E-07,0.480
-1.300E-07,0.380
-1.200E-07,0.340
-1.100E-07,0.500
-1.000E-07,0.340
-9.000E-08,0.220
-8.000E-08,-0.100
-7.000E-08,0.100
-6.000E-08,0.280
-5.000E-08,0.380
-4.000E-08,0.400
-3.000E-08,-0.400
-2.000E-08,-1.040
-1.000E-08,-1.480
0.000E+00,-0.820
1.000E-08,0.160
2.000E-08,1.020
3.000E-08,1.440
4.000E-08,0.720
5.000E-08,-0.320
6.000E-08,-0.660
7.000E-08,-1.020
8.000E-08,-1.180
9.000E-08,-1.460
1.000E-07,-2.260
1.100E-07,-2.620
1.200E-07,-2.220
1.300E-07,-1.300
1.400E-07,-0.080
1.500E-07,0.700
1.600E-07,0.400
1.700E-07,0.320
1.800E-07,0.580
1.900E-07,1.720
2.000E-07,2.540
2.100E-07,2.760
2.200E-07,2.680
2.300E-07,1.760
2.400E-07,1.680
2.500E-07,1.820
2.600E-07,2.360
2.700E-07,2.760
2.800E-07,2.680
2.900E-07,2.260
3.000E-07,1.760
3.100E-07,1.540
3.200E-07,1.440
3.300E-07,1.100
3.400E-07,0.800
3.500E-07,0.220
3.600E-07,-0.160
3.700E-07,-0.340
3.800E-07,-0.380
3.900E-07,-0.420
4.000E-07,-0.560
4.100E-07,-0.600
4.200E-07,-0.580
4.300E-07,-0.460
4.400E-07,-0.160
4.500E-07,0.200
4.600E-07,0.500
4.700E-07,0.700
4.800E-07,0.780
4.900E-07,0.760
5.000E-07,0.600
5.100E-07,0.440
5.200E-07,0.360
5.300E-07,0.200
5.400E-07,0.020
5.500E-07,-0.300
5.600E-07,-0.640
5.700E-07,-0.960
5.800E-07,-1.160
5.900E-07,-1.180
6.000E-07,-1.300
6.100E-07,-1.380
6.200E-07,-1.540
6.300E-07,-1.560
6.400E-07,-1.520
6.500E-07,-1.260
6.600E-07,-1.080
6.700E-07,-0.840
6.800E-07,-0.600
6.900E-07,-0.340
7.000E-07,-0.160
7.100E-07,-0.040
7.200E-07,0.080
7.300E-07,0.060
7.400E-07,0.020
7.500E-07,-0.040
7.600E-07,-0.100
7.700E-07,-0.200
7.800E-07,-0.340
7.900E-07,-0.380
8.000E-07,-0.500
8.100E-07,-0.620
8.200E-07,-0.700
8.300E-07,-0.880
8.400E-07,-1.020
8.500E-07,-1.040
8.600E-07,-1.020
8.700E-07,-0.840
8.800E-07,-0.640
8.900E-07,-0.160
9.000E-07,-0.020
9.100E-07,0.320
9.200E-07,0.400
9.300E-07,0.420
9.400E-07,0.580
9.500E-07,0.520
9.600E-07,0.560
9.700E-07,0.640
9.800E-07,0.300
9.900E-07,0.180
1.000E-06,0.060
1.010E-06,0.020
1.020E-06,-0.160
1.030E-06,-0.360
1.040E-06,-0.840
1.050E-06,-1.360
1.060E-06,-1.800
1.070E-06,-1.960
1.080E-06,-1.840
1.090E-06,-1.460
1.100E-06,-1.100
1.110E-06,-0.860
1.120E-06,-0.760
1.130E-06,-0.540
1.140E-06,-0.320
1.150E-06,-0.080
1.160E-06,0.200
1.170E-06,0.320
1.180E-06,0.340
1.190E-06,0.360
1.200E-06,0.420
1.210E-06,0.440
1.220E-06,0.420
1.230E-06,0.240
1.240E-06,0.020
1.250E-06,-0.240
1.260E-06,-0.380
1.270E-06,-0.460
1.280E-06,-0.540
1.290E-06,-0.700
1.300E-06,-0.940
1.310E-06,-1.160
1.320E-06,-1.380
1.330E-06,-1.480
1.340E-06,-1.500
1.350E-06,-1.580
1.360E-06,-1.680
1.370E-06,-1.780
1.380E-06,-1.860
1.390E-06,-1.880
1.400E-06,-1.820
1.410E-06,-1.700
1.420E-06,-1.600
1.430E-06,-1.540
1.440E-06,-1.480
1.450E-06,-1.400
1.460E-06,-1.440
1.470E-06,-1.540
1.480E-06,-1.640
1.490E-06,-1.920
1.500E-06,-2.320
1.510E-06,-2.660
1.520E-06,-2.660
1.530E-06,-2.640
1.540E-06,-2.660
1.550E-06,-2.660
1.560E-06,-2.660
1.570E-06,-2.660
1.580E-06,-2.680
1.590E-06,-2.660
1.600E-06,-2.660
1.610E-06,-2.660
1.620E-06,-2.660
1.630E-06,-2.680
1.640E-06,-2.680
1.650E-06,-2.680
1.660E-06,-2.680
1.670E-06,-2.660
1.680E-06,-2.660
1.690E-06,-2.640
1.700E-06,-2.660
1.710E-06,-2.660
1.720E-06,-2.660
1.730E-06,-2.660
1.740E-06,-2.660
1.750E-06,-2.660
1.760E-06,-2.680
1.770E-06,-2.660
1.780E-06,-2.660
1.790E-06,-2.660
1.800E-06,-2.660
1.810E-06,-2.660
1.820E-06,-2.660
1.830E-06,-2.660
1.840E-06,-2.660
1.850E-06,-2.660
1.860E-06,-2.660
1.870E-06,-2.660
1.880E-06,-2.660
1.890E-06,-2.660
1.900E-06,-2.680
1.910E-06,-2.660
1.920E-06,-2.660
1.930E-06,-2.660
1.940E-06,-2.660
1.950E-06,-2.660
1.960E-06,-2.680
1.970E-06,-2.660
1.980E-06,-2.660
1.990E-06,-2.640
2.000E-06,-2.660
2.010E-06,-2.660
2.020E-06,-2.660
2.030E-06,-2.660
2.040E-06,-2.660
2.050E-06,-2.660
2.060E-06,-2.660
2.070E-06,-2.660
2.080E-06,-2.660
2.090E-06,-2.660
2.100E-06,-2.660
2.110E-06,-2.640
2.120E-06,-2.660
2.130E-06,-2.660
2.140E-06,-2.660
2.150E-06,-2.660
2.160E-06,-2.660
2.170E-06,-2.660
2.180E-06,-2.640
2.190E-06,-2.640
2.200E-06,-2.660
2.210E-06,-2.660
2.220E-06,-2.660
2.230E-06,-2.660
2.240E-06,-2.580
2.250E-06,-2.440
2.260E-06,-2.320
2.270E-06,-2.200
2.280E-06,-2.120
2.290E-06,-2.080
2.300E-06,-2.000
2.310E-06,-1.940
2.320E-06,-1.880
2.330E-06,-1.840
2.340E-06,-1.860
2.350E-06,-1.880
2.360E-06,-1.920
2.370E-06,-1.940
2.380E-06,-1.960
2.390E-06,-2.020
2.400E-06,-2.040
2.410E-06,-2.100
2.420E-06,-2.080
2.430E-06,-2.100
2.440E-06,-2.060
2.450E-06,-1.920
2.460E-06,-1.840
2.470E-06,-1.760
2.480E-06,-1.640
2.490E-06,-1.540
2.500E-06,-1.440
2.510E-06,-1.340
2.520E-06,-1.180
2.530E-06,-1.140
2.540E-06,-1.120
2.550E-06,-1.100
2.560E-06,-1.100
2.570E-06,-1.100
2.580E-06,-1.100
2.590E-06,-1.140
2.600E-06,-1.160
2.610E-06,-1.220
2.620E-06,-1.280
2.630E-06,-1.260
2.640E-06,-1.320
2.650E-06,-1.320
2.660E-06,-1.400
2.670E-06,-1.480
2.680E-06,-1.520
2.690E-06,-1.640
2.700E-06,-1.740
2.710E-06,-1.820
2.720E-06,-1.880
2.730E-06,-1.980
2.740E-06,-2.020
2.750E-06,-2.020
2.760E-06,-2.040
2.770E-06,-2.020
2.780E-06,-2.000
2.790E-06,-1.960
2.800E-06,-1.860
2.810E-06,-1.780
2.820E-06,-1.640
2.830E-06,-1.500
2.840E-06,-1.400
2.850E-06,-1.280
2.860E-06,-1.160
2.870E-06,-1.080
2.880E-06,-0.940
2.890E-06,-0.820
2.900E-06,-0.720
2.910E-06,-0.640
2.920E-06,-0.540
2.930E-06,-0.500
2.940E-06,-0.520
2.950E-06,-0.500
2.960E-06,-0.520
2.970E-06,-0.560
2.980E-06,-0.600
2.990E-06,-0.660
3.000E-06,-0.740
3.010E-06,-0.860
3.020E-06,-0.940
3.030E-06,-1.000
3.040E-06,-1.080
3.050E-06,-1.120
3.060E-06,-1.120
3.070E-06,-1.160
3.080E-06,-1.160
3.090E-06,-1.140
3.100E-06,-1.160
3.110E-06,-1.140
3.120E-06,-1.160
3.130E-06,-1.120
3.140E-06,-1.120
3.150E-06,-1.060
3.160E-06,-1.060
3.170E-06,-1.060
3.180E-06,-1.080
3.190E-06,-1.040
3.200E-06,-1.080
3.210E-06,-1.060
3.220E-06,-1.080
3.230E-06,-1.060
3.240E-06,-1.060
3.250E-06,-1.040
3.260E-06,-1.040
3.270E-06,-1.020
3.280E-06,-1.040
3.290E-06,-0.960
3.300E-06,-0.880
3.310E-06,-0.840
3.320E-06,-0.680
3.330E-06,-0.600
3.340E-06,-0.500
3.350E-06,-0.380
3.360E-06,-0.380
3.370E-06,-0.420
3.380E-06,-0.420
3.390E-06,-0.480
3.400E-06,-0.580
3.410E-06,-0.680
3.420E-06,-0.780
3.430E-06,-0.880
3.440E-06,-0.960
3.450E-06,-0.960
3.460E-06,-0.940
3.470E-06,-1.000
3.480E-06,-1.000
3.490E-06,-0.980
3.500E-06,-0.980
3.510E-06,-0.920
3.520E-06,-0.840
3.530E-06,-0.780
3.540E-06,-0.760
3.550E-06,-0.740
3.560E-06,-0.720
3.570E-06,-0.700
3.580E-06,-0.660
3.590E-06,-0.500
3.600E-06,-0.440
3.610E-06,-0.360
3.620E-06,-0.240
3.630E-06,-0.160
3.640E-06,-0.060
3.650E-06,0.000
3.660E-06,0.100
3.670E-06,0.120
3.680E-06,0.160
3.690E-06,0.180
3.700E-06,0.200
3.710E-06,0.240
3.720E-06,0.180
3.730E-06,0.160
3.740E-06,0.100
3.750E-06,0.000
3.760E-06,-0.040
3.770E-06,-0.120
3.780E-06,-0.180
3.790E-06,-0.260
3.800E-06,-0.280
3.810E-06,-0.340
3.820E-06,-0.420
3.830E-06,-0.500
3.840E-06,-0.580
3.850E-06,-0.620
3.860E-06,-0.640
3.870E-06,-0.700
3.880E-06,-0.780
3.890E-06,-0.820
3.900E-06,-0.860
3.910E-06,-0.900
3.920E-06,-0.880
3.930E-06,-0.940
3.940E-06,-0.980
3.950E-06,-1.000
3.960E-06,-1.040
3.970E-06,-1.100
3.980E-06,-1.220
3.990E-06,-1.300
4.000E-06,-1.440
4.010E-06,-1.540
4.020E-06,-1.700
4.030E-06,-1.760
4.040E-06,-1.880
4.050E-06,-1.940
4.060E-06,-1.920
4.070E-06,-1.860
4.080E-06,-1.760
4.090E-06,-1.620
4.100E-06,-1.480
4.110E-06,-1.280
4.120E-06,-1.120
4.130E-06,-1.040
4.140E-06,-1.000
4.150E-06,-0.920
4.160E-06,-0.840
4.170E-06,-0.740
4.180E-06,-0.640
4.190E-06,-0.440
4.200E-06,-0.260
4.210E-06,-0.080
4.220E-06,0.200
4.230E-06,0.440
4.240E-06,0.720
4.250E-06,1.040
4.260E-06,1.300
4.270E-06,1.540
4.280E-06,1.720
4.290E-06,1.860
4.300E-06,1.980
4.310E-06,2.100
4.320E-06,2.140
4.330E-06,2.120
4.340E-06,2.080
4.350E-06,1.960
4.360E-06,1.840
4.370E-06,1.640
4.380E-06,1.400
4.390E-06,1.160
4.400E-06,0.920
4.410E-06,0.700
4.420E-06,0.560
4.430E-06,0.560
4.440E-06,0.600
4.450E-06,0.680
4.460E-06,0.800
4.470E-06,0.940
4.480E-06,1.020
4.490E-06,1.140
4.500E-06,1.200
4.510E-06,1.180
4.520E-06,1.180
4.530E-06,1.060
4.540E-06,0.980
4.550E-06,0.860
4.560E-06,0.700
4.570E-06,0.480
4.580E-06,0.340
4.590E-06,0.180
4.600E-06,0.040
4.610E-06,0.000
4.620E-06,-0.060
4.630E-06,-0.060
4.640E-06,0.000
4.650E-06,0.040
4.660E-06,0.120
4.670E-06,0.220
4.680E-06,0.300
4.690E-06,0.380
4.700E-06,0.440
4.710E-06,0.500
4.720E-06,0.560
4.730E-06,0.640
4.740E-06,0.680
4.750E-06,0.740
4.760E-06,0.760
4.770E-06,0.740
4.780E-06,0.720
4.790E-06,0.760
4.800E-06,0.780
4.810E-06,0.800
4.820E-06,0.840
4.830E-06,0.840
4.840E-06,0.840
4.850E-06,0.780
4.860E-06,0.760
4.870E-06,0.660
4.880E-06,0.680
4.890E-06,0.640
4.900E-06,0.700
4.910E-06,0.720
4.920E-06,0.800
4.930E-06,0.900
4.940E-06,0.940
4.950E-06,1.040
4.960E-06,1.100
4.970E-06,1.180
4.980E-06,1.200
4.990E-06,1.220
5.000E-06,1.200
5.010E-06,1.160
5.020E-06,1.080
5.030E-06,1.040
5.040E-06,0.980
5.050E-06,0.940
5.060E-06,0.900
5.070E-06,0.840
5.080E-06,0.820
5.090E-06,0.800
5.100E-06,0.780
5.110E-06,0.760
5.120E-06,0.720
5.130E-06,0.680
5.140E-06,0.660
5.150E-06,0.660
5.160E-06,0.640
5.170E-06,0.660
5.180E-06,0.660
5.190E-06,0.680
5.200E-06,0.640
5.210E-06,0.640
5.220E-06,0.600
5.230E-06,0.600
5.240E-06,0.660
5.250E-06,0.680
5.260E-06,0.740
5.270E-06,0.840
5.280E-06,0.900
5.290E-06,0.920
5.300E-06,0.920
5.310E-06,1.000
5.320E-06,0.920
5.330E-06,0.920
5.340E-06,0.920
5.350E-06,0.900
5.360E-06,0.900
5.370E-06,0.860
5.380E-06,0.860
5.390E-06,0.760
5.400E-06,0.700
5.410E-06,0.660
5.420E-06,0.560
5.430E-06,0.520
5.440E-06,0.500
5.450E-06,0.480
5.460E-06,0.500
5.470E-06,0.500
5.480E-06,0.500
5.490E-06,0.460
5.500E-06,0.460
5.510E-06,0.360
5.520E-06,0.260
5.530E-06,0.160
5.540E-06,0.060
5.550E-06,-0.060
5.560E-06,-0.140
5.570E-06,-0.220
5.580E-06,-0.280
5.590E-06,-0.300
5.600E-06,-0.260
5.610E-06,-0.260
5.620E-06,-0.240
5.630E-06,-0.180
5.640E-06,-0.100
5.650E-06,-0.080
5.660E-06,-0.040
5.670E-06,0.060
5.680E-06,0.100
5.690E-06,0.140
5.700E-06,0.180
5.710E-06,0.260
5.720E-06,0.300
5.730E-06,0.320
5.740E-06,0.340
5.750E-06,0.420
5.760E-06,0.440
5.770E-06,0.460
5.780E-06,0.520
5.790E-06,0.580
5.800E-06,0.620
5.810E-06,0.660
5.820E-06,0.680
5.830E-06,0.700
5.840E-06,0.720
5.850E-06,0.680
5.860E-06,0.680
5.870E-06,0.700
5.880E-06,0.700
5.890E-06,0.720
5.900E-06,0.720
5.910E-06,0.740
5.920E-06,0.760
5.930E-06,0.780
5.940E-06,0.820
5.950E-06,0.840
5.960E-06,0.860
5.970E-06,0.920
5.980E-06,0.920
5.990E-06,0.960
6.000E-06,1.020
6.010E-06,1.060
6.020E-06,1.120
6.030E-06,1.220
6.040E-06,1.280
6.050E-06,1.380
6.060E-06,1.400
6.070E-06,1.480
6.080E-06,1.540
6.090E-06,1.600
6.100E-06,1.640
6.110E-06,1.700
6.120E-06,1.740
6.130E-06,1.740
6.140E-06,1.760
6.150E-06,1.740
6.160E-06,1.720
6.170E-06,1.700
6.180E-06,1.660
6.190E-06,1.580
6.200E-06,1.520
6.210E-06,1.520
6.220E-06,1.480
6.230E-06,1.480
6.240E-06,1.500
6.250E-06,1.500
6.260E-06,1.520
6.270E-06,1.580
6.280E-06,1.640
6.290E-06,1.680
6.300E-06,1.720
6.310E-06,1.720
6.320E-06,1.740
6.330E-06,1.700
6.340E-06,1.680
6.350E-06,1.620
6.360E-06,1.620
6.370E-06,1.600
6.380E-06,1.600
6.390E-06,1.640
6.400E-06,1.760
6.410E-06,1.880
6.420E-06,2.100
6.430E-06,2.340
6.440E-06,2.600
6.450E-06,2.740
6.460E-06,2.760
6.470E-06,2.780
6.480E-06,2.760
6.490E-06,2.740
6.500E-06,2.760
6.510E-06,2.760
6.520E-06,2.780
6.530E-06,2.780
6.540E-06,2.760
6.550E-06,2.760
6.560E-06,2.760
6.570E-06,2.760
6.580E-06,2.760
6.590E-06,2.740
6.600E-06,2.760
6.610E-06,2.760
6.620E-06,2.780
6.630E-06,2.780
6.640E-06,2.760
6.650E-06,2.780
6.660E-06,2.760
6.670E-06,2.760
6.680E-06,2.760
6.690E-06,2.780
6.700E-06,2.760
6.710E-06,2.760
6.720E-06,2.740
6.730E-06,2.760
6.740E-06,2.780
6.750E-06,2.780
6.760E-06,2.760
6.770E-06,2.760
6.780E-06,2.740
6.790E-06,2.760
6.800E-06,2.760
6.810E-06,2.780
6.820E-06,2.780
6.830E-06,2.760
6.840E-06,2.760
6.850E-06,2.780
6.860E-06,2.760
6.870E-06,2.760
6.880E-06,2.740
6.890E-06,2.760
6.900E-06,2.760
6.910E-06,2.760
6.920E-06,2.740
6.930E-06,2.760
6.940E-06,2.760
6.950E-06,2.760
6.960E-06,2.760
6.970E-06,2.740
6.980E-06,2.760
6.990E-06,2.760
7.000E-06,2.780
7.010E-06,2.760
7.020E-06,2.760
7.030E-06,2.760
7.040E-06,2.760
7.050E-06,2.760
7.060E-06,2.760
7.070E-06,2.740
7.080E-06,2.740
7.090E-06,2.700
7.100E-06,2.680
7.110E-06,2.660
7.120E-06,2.580
7.130E-06,2.540
7.140E-06,2.560
7.150E-06,2.500
7.160E-06,2.400
7.170E-06,2.380
7.180E-06,2.340
7.190E-06,2.300
7.200E-06,2.260
7.210E-06,2.220
7.220E-06,2.160
7.230E-06,2.120
7.240E-06,2.060
7.250E-06,2.000
7.260E-06,2.000
7.270E-06,1.960
7.280E-06,1.880
7.290E-06,1.860
7.300E-06,1.820
7.310E-06,1.820
7.320E-06,1.760
7.330E-06,1.720
7.340E-06,1.700
7.350E-06,1.640
7.360E-06,1.600
7.370E-06,1.580
7.380E-06,1.520
7.390E-06,1.460
7.400E-06,1.400
7.410E-06,1.360
7.420E-06,1.340
7.430E-06,1.300
7.440E-06,1.240
7.450E-06,1.240
7.460E-06,1.220
7.470E-06,1.180
7.480E-06,1.140
7.490E-06,1.140
7.500E-06,1.120
7.510E-06,1.060
7.520E-06,1.060
7.530E-06,1.020
7.540E-06,1.020
7.550E-06,1.000
7.560E-06,0.960
7.570E-06,0.980
7.580E-06,0.960
7.590E-06,0.980
7.600E-06,0.980
7.610E-06,0.960
7.620E-06,0.960
7.630E-06,0.960
7.640E-06,0.940
7.650E-06,0.940
7.660E-06,0.940
7.670E-06,0.880
7.680E-06,0.880
7.690E-06,0.840
7.700E-06,0.840
7.710E-06,0.840
7.720E-06,0.820
7.730E-06,0.760
7.740E-06,0.780
7.750E-06,0.780
7.760E-06,0.760
7.770E-06,0.800
7.780E-06,0.820
7.790E-06,0.800
7.800E-06,0.820
7.810E-06,0.820
7.820E-06,0.780
7.830E-06,0.760
7.840E-06,0.740
7.850E-06,0.740
7.860E-06,0.740
7.870E-06,0.700
7.880E-06,0.700
7.890E-06,0.680
7.900E-06,0.700
7.910E-06,0.660
7.920E-06,0.700
7.930E-06,0.700
7.940E-06,0.700
7.950E-06,0.660
7.960E-06,0.680
7.970E-06,0.660
7.980E-06,0.660
7.990E-06,0.620
8.000E-06,0.580
8.010E-06,0.560
8.020E-06,0.540
8.030E-06,0.520
8.040E-06,0.500
8.050E-06,0.520
8.060E-06,0.480
8.070E-06,0.460
8.080E-06,0.440
8.090E-06,0.440
8.100E-06,0.420
8.110E-06,0.420
8.120E-06,0.420
8.130E-06,0.420
8.140E-06,0.420
8.150E-06,0.400
8.160E-06,0.400
8.170E-06,0.340
8.180E-06,0.340
8.190E-06,0.340
8.200E-06,0.360
8.210E-06,0.320
8.220E-06,0.320
8.230E-06,0.280
8.240E-06,0.280
8.250E-06,0.240
8.260E-06,0.240
8.270E-06,0.220
8.280E-06,0.240
8.290E-06,0.220
8.300E-06,0.180
8.310E-06,0.200
8.320E-06,0.160
8.330E-06,0.160
8.340E-06,0.160
8.350E-06,0.180
8.360E-06,0.160
8.370E-06,0.160
8.380E-06,0.120
8.390E-06,0.120
8.400E-06,0.140
8.410E-06,0.100
8.420E-06,0.100
8.430E-06,0.100
8.440E-06,0.100
8.450E-06,0.100
8.460E-06,0.040
8.470E-06,0.100
8.480E-06,0.080
8.490E-06,0.060
8.500E-06,0.060
8.510E-06,0.060
8.520E-06,0.060
8.530E-06,0.020
8.540E-06,0.020
8.550E-06,0.020
8.560E-06,0.000
8.570E-06,0.000
8.580E-06,-0.020
8.590E-06,-0.020
8.600E-06,-0.020
8.610E-06,-0.040
8.620E-06,-0.040
8.630E-06,-0.080
8.640E-06,-0.060
8.650E-06,-0.100
8.660E-06,-0.080
8.670E-06,-0.060
8.680E-06,-0.100
8.690E-06,-0.100
8.700E-06,-0.120
8.710E-06,-0.140
8.720E-06,-0.120
8.730E-06,-0.120
8.740E-06,-0.140
8.750E-06,-0.140
8.760E-06,-0.160
8.770E-06,-0.160
8.780E-06,-0.160
8.790E-06,-0.180
8.800E-06,-0.200
8.810E-06,-0.220
8.820E-06,-0.220
8.830E-06,-0.240
8.840E-06,-0.240
8.850E-06,-0.240
8.860E-06,-0.280
8.870E-06,-0.280
8.880E-06,-0.300
8.890E-06,-0.300
8.900E-06,-0.300
8.910E-06,-0.300
8.920E-06,-0.320
8.930E-06,-0.280
8.940E-06,-0.300
8.950E-06,-0.340
8.960E-06,-0.320
8.970E-06,-0.320
8.980E-06,-0.340
8.990E-06,-0.380
9.000E-06,-0.360
9.010E-06,-0.360
9.020E-06,-0.380
9.030E-06,-0.360
9.040E-06,-0.380
9.050E-06,-0.340
9.060E-06,-0.380
9.070E-06,-0.360
9.080E-06,-0.400
9.090E-06,-0.380
9.100E-06,-0.380
9.110E-06,-0.420
9.120E-06,-0.400
9.130E-06,-0.420
9.140E-06,-0.420
9.150E-06,-0.460
9.160E-06,-0.480
9.170E-06,-0.460
9.180E-06,-0.500
9.190E-06,-0.480
9.200E-06,-0.520
9.210E-06,-0.500
9.220E-06,-0.500
9.230E-06,-0.500
9.240E-06,-0.520
9.250E-06,-0.520
9.260E-06,-0.500
9.270E-06,-0.500
9.280E-06,-0.520
9.290E-06,-0.520
9.300E-06,-0.540
9.310E-06,-0.540
9.320E-06,-0.560
9.330E-06,-0.520
9.340E-06,-0.540
9.350E-06,-0.540
9.360E-06,-0.580
9.370E-06,-0.580
9.380E-06,-0.600
9.390E-06,-0.560
9.400E-06,-0.580
9.410E-06,-0.580
9.420E-06,-0.600
9.430E-06,-0.600
9.440E-06,-0.600
9.450E-06,-0.600
9.460E-06,-0.580
9.470E-06,-0.600
9.480E-06,-0.620
9.490E-06,-0.600
9.500E-06,-0.620
9.510E-06,-0.600
9.520E-06,-0.600
9.530E-06,-0.600
9.540E-06,-0.600
9.550E-06,-0.600
9.560E-06,-0.580
9.570E-06,-0.620
9.580E-06,-0.600
9.590E-06,-0.580
9.600E-06,-0.600
9.610E-06,-0.600
9.620E-06,-0.560
9.630E-06,-0.580
9.640E-06,-0.560
9.650E-06,-0.560
9.660E-06,-0.560
9.670E-06,-0.560
9.680E-06,-0.540
9.690E-06,-0.540
9.700E-06,-0.540
9.710E-06,-0.520
9.720E-06,-0.540
