mediciones/Mediciones filtradas (saque las feas)/6-3/-12.5/WaveData5314.csv

#timebase=2000000(ps)
,#voltbase=100000(mv/100)
#size=4000
-2.250E-06,0.008
-2.240E-06,0.000
-2.230E-06,0.012
-2.220E-06,0.000
-2.210E-06,0.008
-2.200E-06,0.004
-2.190E-06,-0.004
-2.180E-06,-0.004
-2.170E-06,0.000
-2.160E-06,0.004
-2.150E-06,-0.004
-2.140E-06,0.008
-2.130E-06,0.004
-2.120E-06,0.000
-2.110E-06,0.000
-2.100E-06,0.000
-2.090E-06,-0.004
-2.080E-06,0.004
-2.070E-06,0.004
-2.060E-06,0.020
-2.050E-06,0.004
-2.040E-06,0.000
-2.030E-06,0.004
-2.020E-06,-0.004
-2.010E-06,-0.004
-2.000E-06,-0.004
-1.990E-06,0.000
-1.980E-06,-0.004
-1.970E-06,-0.004
-1.960E-06,0.004
-1.950E-06,0.008
-1.940E-06,0.012
-1.930E-06,0.000
-1.920E-06,0.004
-1.910E-06,0.008
-1.900E-06,0.004
-1.890E-06,0.008
-1.880E-06,0.012
-1.870E-06,0.000
-1.860E-06,-0.004
-1.850E-06,-0.004
-1.840E-06,0.000
-1.830E-06,0.004
-1.820E-06,0.004
-1.810E-06,0.004
-1.800E-06,-0.004
-1.790E-06,0.000
-1.780E-06,0.000
-1.770E-06,0.000
-1.760E-06,0.000
-1.750E-06,0.008
-1.740E-06,0.008
-1.730E-06,0.008
-1.720E-06,0.000
-1.710E-06,0.000
-1.700E-06,0.004
-1.690E-06,0.000
-1.680E-06,0.000
-1.670E-06,0.004
-1.660E-06,0.004
-1.650E-06,0.000
-1.640E-06,0.000
-1.630E-06,0.000
-1.620E-06,0.004
-1.610E-06,0.000
-1.600E-06,0.004
-1.590E-06,0.012
-1.580E-06,0.008
-1.570E-06,-0.004
-1.560E-06,0.004
-1.550E-06,0.008
-1.540E-06,0.004
-1.530E-06,0.008
-1.520E-06,0.012
-1.510E-06,0.004
-1.500E-06,-0.004
-1.490E-06,0.000
-1.480E-06,0.004
-1.470E-06,0.004
-1.460E-06,0.012
-1.450E-06,0.008
-1.440E-06,-0.004
-1.430E-06,0.000
-1.420E-06,-0.004
-1.410E-06,0.004
-1.400E-06,0.008
-1.390E-06,0.008
-1.380E-06,0.008
-1.370E-06,0.004
-1.360E-06,0.004
-1.350E-06,0.004
-1.340E-06,0.004
-1.330E-06,0.008
-1.320E-06,0.004
-1.310E-06,0.004
-1.300E-06,0.004
-1.290E-06,0.004
-1.280E-06,0.016
-1.270E-06,0.004
-1.260E-06,0.008
-1.250E-06,0.012
-1.240E-06,0.012
-1.230E-06,0.012
-1.220E-06,0.004
-1.210E-06,0.008
-1.200E-06,0.008
-1.190E-06,0.008
-1.180E-06,0.000
-1.170E-06,-0.004
-1.160E-06,-0.004
-1.150E-06,-0.016
-1.140E-06,-0.008
-1.130E-06,-0.012
-1.120E-06,0.004
-1.110E-06,0.008
-1.100E-06,0.028
-1.090E-06,0.004
-1.080E-06,0.008
-1.070E-06,0.000
-1.060E-06,-0.008
-1.050E-06,0.004
-1.040E-06,0.012
-1.030E-06,0.016
-1.020E-06,0.016
-1.010E-06,0.016
-1.000E-06,0.008
-9.900E-07,0.012
-9.800E-07,0.008
-9.700E-07,0.024
-9.600E-07,0.032
-9.500E-07,0.052
-9.400E-07,0.048
-9.300E-07,0.024
-9.200E-07,-0.004
-9.100E-07,-0.048
-9.000E-07,-0.048
-8.900E-07,-0.032
-8.800E-07,0.004
-8.700E-07,0.028
-8.600E-07,0.024
-8.500E-07,0.024
-8.400E-07,0.020
-8.300E-07,0.004
-8.200E-07,-0.008
-8.100E-07,0.012
-8.000E-07,0.000
-7.900E-07,-0.004
-7.800E-07,-0.012
-7.700E-07,-0.024
-7.600E-07,-0.028
-7.500E-07,-0.024
-7.400E-07,0.004
-7.300E-07,0.004
-7.200E-07,0.012
-7.100E-07,0.016
-7.000E-07,-0.004
-6.900E-07,-0.016
-6.800E-07,-0.012
-6.700E-07,-0.008
-6.600E-07,-0.004
-6.500E-07,0.004
-6.400E-07,0.012
-6.300E-07,0.000
-6.200E-07,-0.008
-6.100E-07,-0.008
-6.000E-07,-0.008
-5.900E-07,-0.008
-5.800E-07,-0.012
-5.700E-07,-0.012
-5.600E-07,-0.016
-5.500E-07,-0.016
-5.400E-07,-0.008
-5.300E-07,0.004
-5.200E-07,0.020
-5.100E-07,0.024
-5.000E-07,0.012
-4.900E-07,0.000
-4.800E-07,-0.016
-4.700E-07,-0.016
-4.600E-07,-0.012
-4.500E-07,0.012
-4.400E-07,0.016
-4.300E-07,0.024
-4.200E-07,0.012
-4.100E-07,0.000
-4.000E-07,-0.008
-3.900E-07,-0.016
-3.800E-07,-0.008
-3.700E-07,0.008
-3.600E-07,0.020
-3.500E-07,0.024
-3.400E-07,0.008
-3.300E-07,0.000
-3.200E-07,-0.008
-3.100E-07,-0.012
-3.000E-07,0.004
-2.900E-07,0.012
-2.800E-07,0.020
-2.700E-07,0.024
-2.600E-07,0.008
-2.500E-07,0.000
-2.400E-07,0.000
-2.300E-07,0.004
-2.200E-07,0.020
-2.100E-07,0.024
-2.000E-07,0.044
-1.900E-07,0.052
-1.800E-07,0.044
-1.700E-07,0.060
-1.600E-07,0.080
-1.500E-07,0.088
-1.400E-07,0.032
-1.300E-07,0.028
-1.200E-07,-0.048
-1.100E-07,-0.020
-1.000E-07,0.076
-9.000E-08,0.164
-8.000E-08,0.148
-7.000E-08,-0.032
-6.000E-08,-0.192
-5.000E-08,-0.280
-4.000E-08,-0.324
-3.000E-08,-0.192
-2.000E-08,0.092
-1.000E-08,0.268
0.000E+00,0.344
1.000E-08,0.076
2.000E-08,-0.076
3.000E-08,-0.296
4.000E-08,-0.176
5.000E-08,-0.084
6.000E-08,0.056
7.000E-08,0.176
8.000E-08,0.152
9.000E-08,0.092
1.000E-07,-0.072
1.100E-07,-0.100
1.200E-07,-0.128
1.300E-07,-0.040
1.400E-07,0.040
1.500E-07,0.096
1.600E-07,0.080
1.700E-07,0.028
1.800E-07,-0.008
1.900E-07,-0.064
2.000E-07,-0.048
2.100E-07,0.000
2.200E-07,0.036
2.300E-07,0.032
2.400E-07,0.032
2.500E-07,0.008
2.600E-07,-0.008
2.700E-07,0.000
2.800E-07,0.008
2.900E-07,0.000
3.000E-07,0.000
3.100E-07,0.004
3.200E-07,0.008
3.300E-07,0.016
3.400E-07,0.024
3.500E-07,0.024
3.600E-07,0.000
3.700E-07,0.000
3.800E-07,0.000
3.900E-07,0.008
4.000E-07,0.028
4.100E-07,0.044
4.200E-07,0.048
4.300E-07,0.040
4.400E-07,0.040
4.500E-07,0.032
4.600E-07,0.080
4.700E-07,0.072
4.800E-07,0.120
4.900E-07,0.108
5.000E-07,0.096
5.100E-07,0.044
5.200E-07,-0.052
5.300E-07,-0.108
5.400E-07,-0.104
5.500E-07,-0.008
5.600E-07,0.088
5.700E-07,0.160
5.800E-07,0.204
5.900E-07,0.124
6.000E-07,-0.004
6.100E-07,-0.152
6.200E-07,-0.340
6.300E-07,-0.288
6.400E-07,-0.288
6.500E-07,-0.080
6.600E-07,0.112
6.700E-07,0.176
6.800E-07,0.192
6.900E-07,0.068
7.000E-07,-0.040
7.100E-07,-0.192
7.200E-07,-0.192
7.300E-07,-0.072
7.400E-07,0.044
7.500E-07,0.148
7.600E-07,0.144
7.700E-07,0.072
7.800E-07,-0.060
7.900E-07,-0.108
8.000E-07,-0.088
8.100E-07,-0.028
8.200E-07,0.028
8.300E-07,0.100
8.400E-07,0.064
8.500E-07,-0.012
8.600E-07,-0.044
8.700E-07,-0.076
8.800E-07,-0.072
8.900E-07,-0.008
9.000E-07,0.064
9.100E-07,0.064
9.200E-07,0.044
9.300E-07,0.004
9.400E-07,-0.044
9.500E-07,-0.044
9.600E-07,0.004
9.700E-07,0.024
9.800E-07,0.032
9.900E-07,0.028
1.000E-06,0.008
1.010E-06,-0.020
1.020E-06,-0.012
1.030E-06,0.008
1.040E-06,0.020
1.050E-06,0.028
1.060E-06,0.028
1.070E-06,0.020
1.080E-06,0.000
1.090E-06,0.000
1.100E-06,0.024
1.110E-06,0.032
1.120E-06,0.044
1.130E-06,0.056
1.140E-06,0.060
1.150E-06,0.056
1.160E-06,0.072
1.170E-06,0.092
1.180E-06,0.112
1.190E-06,0.144
1.200E-06,0.168
1.210E-06,0.172
1.220E-06,0.164
1.230E-06,0.132
1.240E-06,0.076
1.250E-06,0.048
1.260E-06,-0.160
1.270E-06,-0.304
1.280E-06,-0.444
1.290E-06,-0.360
1.300E-06,-0.228
1.310E-06,-0.012
1.320E-06,0.196
1.330E-06,0.172
1.340E-06,0.168
1.350E-06,0.016
1.360E-06,-0.100
1.370E-06,-0.204
1.380E-06,-0.076
1.390E-06,0.040
1.400E-06,0.144
1.410E-06,0.164
1.420E-06,0.112
1.430E-06,-0.032
1.440E-06,-0.128
1.450E-06,-0.096
1.460E-06,-0.044
1.470E-06,0.044
1.480E-06,0.084
1.490E-06,0.088
1.500E-06,0.028
1.510E-06,-0.036
1.520E-06,-0.068
1.530E-06,-0.036
1.540E-06,-0.004
1.550E-06,0.048
1.560E-06,0.056
1.570E-06,0.024
1.580E-06,-0.004
1.590E-06,-0.056
1.600E-06,-0.056
1.610E-06,-0.012
1.620E-06,0.024
1.630E-06,0.032
1.640E-06,0.028
1.650E-06,0.000
1.660E-06,-0.024
1.670E-06,-0.048
1.680E-06,-0.024
1.690E-06,0.012
1.700E-06,0.028
1.710E-06,0.032
1.720E-06,0.016
1.730E-06,-0.004
1.740E-06,-0.016
1.750E-06,-0.012
1.760E-06,-0.004
1.770E-06,0.000
1.780E-06,0.012
1.790E-06,0.024
1.800E-06,0.028
1.810E-06,0.016
1.820E-06,0.008
1.830E-06,0.000
1.840E-06,0.000
1.850E-06,-0.004
1.860E-06,0.008
1.870E-06,0.028
1.880E-06,0.036
1.890E-06,0.028
1.900E-06,0.024
1.910E-06,0.020
1.920E-06,0.028
1.930E-06,0.032
1.940E-06,0.040
1.950E-06,0.052
1.960E-06,0.056
1.970E-06,0.060
1.980E-06,0.052
1.990E-06,0.068
2.000E-06,0.068
2.010E-06,0.092
2.020E-06,0.104
2.030E-06,0.108
2.040E-06,0.108
2.050E-06,0.120
2.060E-06,0.128
2.070E-06,0.132
2.080E-06,0.132
2.090E-06,0.140
2.100E-06,0.132
2.110E-06,0.100
2.120E-06,0.096
2.130E-06,0.080
2.140E-06,0.084
2.150E-06,0.024
2.160E-06,-0.084
2.170E-06,-0.196
2.180E-06,-0.316
2.190E-06,-0.272
2.200E-06,-0.140
2.210E-06,-0.104
2.220E-06,0.036
2.230E-06,-0.060
2.240E-06,0.008
2.250E-06,-0.164
2.260E-06,-0.272
2.270E-06,-0.064
2.280E-06,-0.104
2.290E-06,0.088
2.300E-06,0.060
2.310E-06,0.060
2.320E-06,0.000
2.330E-06,-0.064
2.340E-06,0.024
2.350E-06,-0.036
2.360E-06,0.020
2.370E-06,0.120
2.380E-06,0.088
2.390E-06,-0.004
2.400E-06,-0.052
2.410E-06,-0.136
2.420E-06,-0.168
2.430E-06,-0.028
2.440E-06,0.028
2.450E-06,0.096
2.460E-06,0.096
2.470E-06,0.040
2.480E-06,-0.012
2.490E-06,-0.160
2.500E-06,-0.108
2.510E-06,-0.056
2.520E-06,0.044
2.530E-06,0.072
2.540E-06,0.032
2.550E-06,0.096
2.560E-06,-0.052
2.570E-06,-0.044
2.580E-06,-0.024
2.590E-06,-0.024
2.600E-06,0.032
2.610E-06,0.044
2.620E-06,0.060
2.630E-06,0.008
2.640E-06,-0.012
2.650E-06,-0.024
2.660E-06,-0.036
2.670E-06,0.008
2.680E-06,0.040
2.690E-06,0.068
2.700E-06,0.040
2.710E-06,0.028
2.720E-06,0.000
2.730E-06,-0.024
2.740E-06,-0.024
2.750E-06,-0.004
2.760E-06,0.016
2.770E-06,0.024
2.780E-06,0.032
2.790E-06,0.020
2.800E-06,0.004
2.810E-06,-0.004
2.820E-06,0.004
2.830E-06,0.008
2.840E-06,0.016
2.850E-06,0.024
2.860E-06,0.016
2.870E-06,0.008
2.880E-06,0.008
2.890E-06,0.008
2.900E-06,0.012
2.910E-06,0.016
2.920E-06,0.020
2.930E-06,0.024
2.940E-06,0.032
2.950E-06,0.032
2.960E-06,0.028
2.970E-06,0.028
2.980E-06,0.024
2.990E-06,0.036
3.000E-06,0.048
3.010E-06,0.064
3.020E-06,0.080
3.030E-06,0.096
3.040E-06,0.108
3.050E-06,0.124
3.060E-06,0.132
3.070E-06,0.144
3.080E-06,0.160
3.090E-06,0.160
3.100E-06,0.160
3.110E-06,0.160
3.120E-06,0.156
3.130E-06,0.148
3.140E-06,0.156
3.150E-06,0.152
3.160E-06,0.156
3.170E-06,0.156
3.180E-06,0.148
3.190E-06,0.152
3.200E-06,0.140
3.210E-06,0.148
3.220E-06,0.120
3.230E-06,0.156
3.240E-06,0.032
3.250E-06,0.036
3.260E-06,0.088
3.270E-06,0.044
3.280E-06,0.100
3.290E-06,-0.052
3.300E-06,-0.076
3.310E-06,-0.172
3.320E-06,-0.108
3.330E-06,0.096
3.340E-06,0.196
3.350E-06,0.380
3.360E-06,0.360
3.370E-06,0.112
3.380E-06,-0.172
3.390E-06,-0.196
3.400E-06,-0.324
3.410E-06,-0.236
3.420E-06,-0.220
3.430E-06,-0.420
3.440E-06,-0.396
3.450E-06,-0.368
3.460E-06,-0.008
3.470E-06,-0.072
3.480E-06,0.300
3.490E-06,0.188
3.500E-06,-0.052
3.510E-06,-0.296
3.520E-06,-0.384
3.530E-06,-0.392
3.540E-06,-0.508
3.550E-06,-0.228
3.560E-06,-0.032
3.570E-06,0.020
3.580E-06,0.124
3.590E-06,0.052
3.600E-06,0.052
3.610E-06,-0.088
3.620E-06,-0.168
3.630E-06,-0.136
3.640E-06,-0.068
3.650E-06,0.024
3.660E-06,0.016
3.670E-06,0.052
3.680E-06,-0.004
3.690E-06,0.012
3.700E-06,0.056
3.710E-06,0.028
3.720E-06,-0.032
3.730E-06,-0.072
3.740E-06,-0.032
3.750E-06,0.024
3.760E-06,0.124
3.770E-06,0.124
3.780E-06,0.092
3.790E-06,-0.008
3.800E-06,-0.052
3.810E-06,-0.064
3.820E-06,0.004
3.830E-06,0.080
3.840E-06,0.148
3.850E-06,0.140
3.860E-06,0.092
3.870E-06,0.056
3.880E-06,-0.004
3.890E-06,0.032
3.900E-06,0.040
3.910E-06,0.104
3.920E-06,0.088
3.930E-06,0.104
3.940E-06,0.084
3.950E-06,0.088
3.960E-06,0.092
3.970E-06,0.044
3.980E-06,0.084
3.990E-06,0.068
4.000E-06,0.100
4.010E-06,0.144
4.020E-06,0.128
4.030E-06,0.156
4.040E-06,0.076
4.050E-06,0.136
4.060E-06,0.104
4.070E-06,0.148
4.080E-06,0.184
4.090E-06,0.172
4.100E-06,0.176
4.110E-06,0.132
4.120E-06,0.120
4.130E-06,0.116
4.140E-06,0.136
4.150E-06,0.160
4.160E-06,0.164
4.170E-06,0.156
4.180E-06,0.152
4.190E-06,0.112
4.200E-06,0.120
4.210E-06,0.128
4.220E-06,0.164
4.230E-06,0.176
4.240E-06,0.184
4.250E-06,0.176
4.260E-06,0.156
4.270E-06,0.148
4.280E-06,0.140
4.290E-06,0.144
4.300E-06,0.160
4.310E-06,0.172
4.320E-06,0.176
4.330E-06,0.168
4.340E-06,0.132
4.350E-06,0.092
4.360E-06,0.036
4.370E-06,-0.124
4.380E-06,-0.180
4.390E-06,-0.204
4.400E-06,-0.128
4.410E-06,-0.200
4.420E-06,-0.296
4.430E-06,-0.364
4.440E-06,-0.436
4.450E-06,-0.512
4.460E-06,-0.352
4.470E-06,-0.404
4.480E-06,-0.196
4.490E-06,-0.200
4.500E-06,-0.052
4.510E-06,-0.256
4.520E-06,-0.192
4.530E-06,-0.220
4.540E-06,-0.080
4.550E-06,0.036
4.560E-06,0.100
4.570E-06,0.140
4.580E-06,0.016
4.590E-06,-0.028
4.600E-06,-0.024
4.610E-06,-0.048
4.620E-06,0.004
4.630E-06,0.096
4.640E-06,0.140
4.650E-06,0.088
4.660E-06,0.084
4.670E-06,0.044
4.680E-06,0.064
4.690E-06,0.056
4.700E-06,0.144
4.710E-06,0.140
4.720E-06,0.132
4.730E-06,0.104
4.740E-06,0.092
4.750E-06,0.064
4.760E-06,0.100
4.770E-06,0.132
4.780E-06,0.164
4.790E-06,0.168
4.800E-06,0.152
4.810E-06,0.144
4.820E-06,0.100
4.830E-06,0.108
4.840E-06,0.096
4.850E-06,0.104
4.860E-06,0.080
4.870E-06,0.120
4.880E-06,0.124
4.890E-06,0.148
4.900E-06,0.136
4.910E-06,0.132
4.920E-06,0.108
4.930E-06,0.096
4.940E-06,0.096
4.950E-06,0.104
4.960E-06,0.128
4.970E-06,0.132
4.980E-06,0.132
4.990E-06,0.112
5.000E-06,0.112
5.010E-06,0.128
5.020E-06,0.124
5.030E-06,0.156
5.040E-06,0.184
5.050E-06,0.188
5.060E-06,0.176
5.070E-06,0.164
5.080E-06,0.160
5.090E-06,0.152
5.100E-06,0.152
5.110E-06,0.180
5.120E-06,0.172
5.130E-06,0.176
5.140E-06,0.168
5.150E-06,0.164
5.160E-06,0.160
5.170E-06,0.160
5.180E-06,0.160
5.190E-06,0.160
5.200E-06,0.156
5.210E-06,0.156
5.220E-06,0.144
5.230E-06,0.136
5.240E-06,0.132
5.250E-06,0.120
5.260E-06,0.108
5.270E-06,0.076
5.280E-06,0.064
5.290E-06,0.040
5.300E-06,0.028
5.310E-06,0.016
5.320E-06,0.024
5.330E-06,0.032
5.340E-06,0.100
5.350E-06,0.092
5.360E-06,0.120
5.370E-06,0.068
5.380E-06,0.076
5.390E-06,0.072
5.400E-06,0.056
5.410E-06,0.072
5.420E-06,0.076
5.430E-06,0.172
5.440E-06,0.196
5.450E-06,0.224
5.460E-06,0.180
5.470E-06,0.168
5.480E-06,0.168
5.490E-06,0.144
5.500E-06,0.136
5.510E-06,0.144
5.520E-06,0.156
5.530E-06,0.164
5.540E-06,0.172
5.550E-06,0.172
5.560E-06,0.164
5.570E-06,0.144
5.580E-06,0.152
5.590E-06,0.156
5.600E-06,0.160
5.610E-06,0.172
5.620E-06,0.184
5.630E-06,0.184
5.640E-06,0.172
5.650E-06,0.168
5.660E-06,0.160
5.670E-06,0.160
5.680E-06,0.160
5.690E-06,0.176
5.700E-06,0.176
5.710E-06,0.176
5.720E-06,0.168
5.730E-06,0.164
5.740E-06,0.156
5.750E-06,0.160
5.760E-06,0.164
5.770E-06,0.168
5.780E-06,0.176
5.790E-06,0.176
5.800E-06,0.168
5.810E-06,0.168
5.820E-06,0.164
5.830E-06,0.164
5.840E-06,0.160
5.850E-06,0.164
5.860E-06,0.172
5.870E-06,0.164
5.880E-06,0.160
5.890E-06,0.164
5.900E-06,0.164
5.910E-06,0.164
5.920E-06,0.164
5.930E-06,0.160
5.940E-06,0.156
5.950E-06,0.164
5.960E-06,0.164
5.970E-06,0.164
5.980E-06,0.160
5.990E-06,0.160
6.000E-06,0.160
6.010E-06,0.160
6.020E-06,0.160
6.030E-06,0.156
6.040E-06,0.156
6.050E-06,0.160
6.060E-06,0.152
6.070E-06,0.152
6.080E-06,0.156
6.090E-06,0.152
6.100E-06,0.160
6.110E-06,0.164
6.120E-06,0.164
6.130E-06,0.156
6.140E-06,0.152
6.150E-06,0.156
6.160E-06,0.152
6.170E-06,0.156
6.180E-06,0.156
6.190E-06,0.160
6.200E-06,0.156
6.210E-06,0.160
6.220E-06,0.152
6.230E-06,0.156
6.240E-06,0.156
6.250E-06,0.156
6.260E-06,0.160
6.270E-06,0.156
6.280E-06,0.148
6.290E-06,0.152
6.300E-06,0.152
6.310E-06,0.156
6.320E-06,0.156
6.330E-06,0.152
6.340E-06,0.152
6.350E-06,0.156
6.360E-06,0.152
6.370E-06,0.152
6.380E-06,0.152
6.390E-06,0.152
6.400E-06,0.152
6.410E-06,0.148
6.420E-06,0.152
6.430E-06,0.156
6.440E-06,0.156
6.450E-06,0.156
6.460E-06,0.148
6.470E-06,0.148
6.480E-06,0.148
6.490E-06,0.148
6.500E-06,0.144
6.510E-06,0.144
6.520E-06,0.152
6.530E-06,0.152
6.540E-06,0.152
6.550E-06,0.144
6.560E-06,0.144
6.570E-06,0.148
6.580E-06,0.140
6.590E-06,0.148
6.600E-06,0.148
6.610E-06,0.144
6.620E-06,0.148
6.630E-06,0.148
6.640E-06,0.148
6.650E-06,0.140
6.660E-06,0.144
6.670E-06,0.140
6.680E-06,0.148
6.690E-06,0.144
6.700E-06,0.140
6.710E-06,0.140
6.720E-06,0.144
6.730E-06,0.140
6.740E-06,0.144
6.750E-06,0.136
6.760E-06,0.140
6.770E-06,0.140
6.780E-06,0.136
6.790E-06,0.136
6.800E-06,0.140
6.810E-06,0.136
6.820E-06,0.136
6.830E-06,0.144
6.840E-06,0.136
6.850E-06,0.136
6.860E-06,0.136
6.870E-06,0.136
6.880E-06,0.136
6.890E-06,0.136
6.900E-06,0.132
6.910E-06,0.136
6.920E-06,0.132
6.930E-06,0.128
6.940E-06,0.128
6.950E-06,0.128
6.960E-06,0.132
6.970E-06,0.132
6.980E-06,0.132
6.990E-06,0.132
7.000E-06,0.132
7.010E-06,0.132
7.020E-06,0.132
7.030E-06,0.132
7.040E-06,0.136
7.050E-06,0.132
7.060E-06,0.136
7.070E-06,0.136
7.080E-06,0.132
7.090E-06,0.132
7.100E-06,0.132
7.110E-06,0.132
7.120E-06,0.132
7.130E-06,0.128
7.140E-06,0.128
7.150E-06,0.128
7.160E-06,0.128
7.170E-06,0.132
7.180E-06,0.128
7.190E-06,0.128
7.200E-06,0.128
7.210E-06,0.128
7.220E-06,0.128
7.230E-06,0.128
7.240E-06,0.128
7.250E-06,0.128
7.260E-06,0.128
7.270E-06,0.128
7.280E-06,0.124
7.290E-06,0.124
7.300E-06,0.124
7.310E-06,0.124
7.320E-06,0.128
7.330E-06,0.124
7.340E-06,0.124
7.350E-06,0.124
7.360E-06,0.120
7.370E-06,0.120
7.380E-06,0.116
7.390E-06,0.116
7.400E-06,0.124
7.410E-06,0.124
7.420E-06,0.116
7.430E-06,0.120
7.440E-06,0.112
7.450E-06,0.112
7.460E-06,0.108
7.470E-06,0.112
7.480E-06,0.116
7.490E-06,0.116
7.500E-06,0.120
7.510E-06,0.108
7.520E-06,0.112
7.530E-06,0.108
7.540E-06,0.112
7.550E-06,0.108
7.560E-06,0.116
7.570E-06,0.120
7.580E-06,0.108
7.590E-06,0.112
7.600E-06,0.108
7.610E-06,0.108
7.620E-06,0.104
7.630E-06,0.112
7.640E-06,0.108
7.650E-06,0.112
7.660E-06,0.112
7.670E-06,0.108
7.680E-06,0.108
7.690E-06,0.108
7.700E-06,0.112
7.710E-06,0.120
7.720E-06,0.116
7.730E-06,0.108
7.740E-06,0.108
7.750E-06,0.108
7.760E-06,0.108
7.770E-06,0.108
7.780E-06,0.108
7.790E-06,0.112
7.800E-06,0.112
7.810E-06,0.112
7.820E-06,0.108
7.830E-06,0.108
7.840E-06,0.108
7.850E-06,0.108
7.860E-06,0.108
7.870E-06,0.112
7.880E-06,0.108
7.890E-06,0.104
7.900E-06,0.108
7.910E-06,0.108
7.920E-06,0.108
7.930E-06,0.108
7.940E-06,0.104
7.950E-06,0.108
7.960E-06,0.108
7.970E-06,0.108
7.980E-06,0.104
7.990E-06,0.104
8.000E-06,0.104
8.010E-06,0.100
8.020E-06,0.104
8.030E-06,0.104
8.040E-06,0.104
8.050E-06,0.104
8.060E-06,0.100
8.070E-06,0.096
8.080E-06,0.100
8.090E-06,0.096
8.100E-06,0.100
8.110E-06,0.104
8.120E-06,0.100
8.130E-06,0.096
8.140E-06,0.088
8.150E-06,0.096
8.160E-06,0.092
8.170E-06,0.088
8.180E-06,0.088
8.190E-06,0.088
8.200E-06,0.088
8.210E-06,0.092
8.220E-06,0.088
8.230E-06,0.088
8.240E-06,0.092
8.250E-06,0.088
8.260E-06,0.092
8.270E-06,0.088
8.280E-06,0.092
8.290E-06,0.088
8.300E-06,0.088
8.310E-06,0.088
8.320E-06,0.088
8.330E-06,0.088
8.340E-06,0.088
8.350E-06,0.092
8.360E-06,0.092
8.370E-06,0.088
8.380E-06,0.084
8.390E-06,0.084
8.400E-06,0.084
8.410E-06,0.084
8.420E-06,0.088
8.430E-06,0.088
8.440E-06,0.084
8.450E-06,0.084
8.460E-06,0.080
8.470E-06,0.080
8.480E-06,0.080
8.490E-06,0.076
8.500E-06,0.076
8.510E-06,0.080
8.520E-06,0.084
8.530E-06,0.076
8.540E-06,0.072
8.550E-06,0.076
8.560E-06,0.076
8.570E-06,0.080
8.580E-06,0.080
8.590E-06,0.076
8.600E-06,0.076
8.610E-06,0.076
8.620E-06,0.080
8.630E-06,0.076
8.640E-06,0.076
8.650E-06,0.080
8.660E-06,0.076
8.670E-06,0.080
8.680E-06,0.076
8.690E-06,0.076
8.700E-06,0.076
8.710E-06,0.076
8.720E-06,0.080
8.730E-06,0.080
8.740E-06,0.072
8.750E-06,0.076
8.760E-06,0.076
8.770E-06,0.072
8.780E-06,0.072
8.790E-06,0.076
8.800E-06,0.072
8.810E-06,0.076
8.820E-06,0.076
8.830E-06,0.076
8.840E-06,0.072
8.850E-06,0.068
8.860E-06,0.068
8.870E-06,0.064
8.880E-06,0.068
8.890E-06,0.068
8.900E-06,0.072
8.910E-06,0.076
8.920E-06,0.072
8.930E-06,0.068
8.940E-06,0.064
8.950E-06,0.068
8.960E-06,0.068
8.970E-06,0.068
8.980E-06,0.068
8.990E-06,0.068
9.000E-06,0.064
9.010E-06,0.068
9.020E-06,0.068
9.030E-06,0.064
9.040E-06,0.064
9.050E-06,0.072
9.060E-06,0.064
9.070E-06,0.068
9.080E-06,0.068
9.090E-06,0.068
9.100E-06,0.060
9.110E-06,0.064
9.120E-06,0.068
9.130E-06,0.064
9.140E-06,0.064
9.150E-06,0.064
9.160E-06,0.060
9.170E-06,0.056
9.180E-06,0.060
9.190E-06,0.060
9.200E-06,0.060
9.210E-06,0.056
9.220E-06,0.060
9.230E-06,0.064
9.240E-06,0.056
9.250E-06,0.056
9.260E-06,0.060
9.270E-06,0.056
9.280E-06,0.056
9.290E-06,0.056
9.300E-06,0.060
9.310E-06,0.060
9.320E-06,0.056
9.330E-06,0.060
9.340E-06,0.056
9.350E-06,0.056
9.360E-06,0.060
9.370E-06,0.052
9.380E-06,0.056
9.390E-06,0.060
9.400E-06,0.056
9.410E-06,0.056
9.420E-06,0.052
9.430E-06,0.056
9.440E-06,0.052
9.450E-06,0.056
9.460E-06,0.060
9.470E-06,0.052
9.480E-06,0.056
9.490E-06,0.060
9.500E-06,0.060
9.510E-06,0.052
9.520E-06,0.048
9.530E-06,0.052
9.540E-06,0.056
9.550E-06,0.044
9.560E-06,0.048
9.570E-06,0.052
9.580E-06,0.048
9.590E-06,0.052
9.600E-06,0.048
9.610E-06,0.048
9.620E-06,0.048
9.630E-06,0.048
9.640E-06,0.048
9.650E-06,0.044
9.660E-06,0.052
9.670E-06,0.048
9.680E-06,0.048
9.690E-06,0.040
9.700E-06,0.048
9.710E-06,0.048
9.720E-06,0.052
9.730E-06,0.052
9.740E-06,0.052
9.750E-06,0.056
9.760E-06,0.052
9.770E-06,0.056
9.780E-06,0.056
9.790E-06,0.056
9.800E-06,0.052
9.810E-06,0.056
9.820E-06,0.056
9.830E-06,0.056
9.840E-06,0.052
9.850E-06,0.048
9.860E-06,0.044
9.870E-06,0.040
9.880E-06,0.044
9.890E-06,0.048
9.900E-06,0.044
9.910E-06,0.036
9.920E-06,0.040
