mediciones/Mediciones filtradas (saque las feas)/6-3/-12.5/WaveData5328.csv

#timebase=2000000(ps)
,#voltbase=100000(mv/100)
#size=4000
-2.250E-06,0.060
-2.240E-06,-0.068
-2.230E-06,-0.080
-2.220E-06,-0.044
-2.210E-06,-0.008
-2.200E-06,0.060
-2.190E-06,0.092
-2.180E-06,0.080
-2.170E-06,-0.036
-2.160E-06,-0.040
-2.150E-06,-0.064
-2.140E-06,-0.016
-2.130E-06,0.012
-2.120E-06,0.052
-2.110E-06,0.056
-2.100E-06,0.008
-2.090E-06,0.012
-2.080E-06,-0.024
-2.070E-06,-0.012
-2.060E-06,-0.004
-2.050E-06,0.044
-2.040E-06,0.044
-2.030E-06,0.056
-2.020E-06,0.036
-2.010E-06,0.024
-2.000E-06,0.024
-1.990E-06,0.044
-1.980E-06,0.076
-1.970E-06,0.068
-1.960E-06,0.024
-1.950E-06,-0.016
-1.940E-06,-0.060
-1.930E-06,-0.052
-1.920E-06,0.028
-1.910E-06,0.108
-1.900E-06,0.156
-1.890E-06,0.120
-1.880E-06,0.092
-1.870E-06,0.064
-1.860E-06,0.016
-1.850E-06,0.028
-1.840E-06,-0.040
-1.830E-06,-0.040
-1.820E-06,-0.060
-1.810E-06,0.036
-1.800E-06,0.064
-1.790E-06,0.076
-1.780E-06,0.060
-1.770E-06,0.056
-1.760E-06,-0.020
-1.750E-06,-0.216
-1.740E-06,-0.232
-1.730E-06,-0.352
-1.720E-06,-0.244
-1.710E-06,0.056
-1.700E-06,0.204
-1.690E-06,0.264
-1.680E-06,0.084
-1.670E-06,-0.020
-1.660E-06,-0.204
-1.650E-06,-0.176
-1.640E-06,-0.144
-1.630E-06,0.052
-1.620E-06,0.156
-1.610E-06,0.136
-1.600E-06,0.052
-1.590E-06,-0.028
-1.580E-06,-0.096
-1.570E-06,-0.116
-1.560E-06,-0.020
-1.550E-06,0.056
-1.540E-06,0.088
-1.530E-06,0.064
-1.520E-06,0.008
-1.510E-06,-0.052
-1.500E-06,-0.048
-1.490E-06,-0.008
-1.480E-06,0.056
-1.470E-06,0.060
-1.460E-06,0.076
-1.450E-06,0.028
-1.440E-06,0.008
-1.430E-06,-0.012
-1.420E-06,0.016
-1.410E-06,0.056
-1.400E-06,0.096
-1.390E-06,0.076
-1.380E-06,0.004
-1.370E-06,-0.056
-1.360E-06,-0.104
-1.350E-06,-0.076
-1.340E-06,-0.028
-1.330E-06,0.036
-1.320E-06,0.072
-1.310E-06,0.108
-1.300E-06,0.124
-1.290E-06,0.092
-1.280E-06,0.124
-1.270E-06,0.124
-1.260E-06,0.100
-1.250E-06,0.056
-1.240E-06,0.044
-1.230E-06,0.032
-1.220E-06,0.020
-1.210E-06,0.072
-1.200E-06,0.048
-1.190E-06,0.048
-1.180E-06,0.024
-1.170E-06,-0.008
-1.160E-06,-0.008
-1.150E-06,-0.024
-1.140E-06,0.004
-1.130E-06,-0.040
-1.120E-06,-0.104
-1.110E-06,-0.172
-1.100E-06,-0.204
-1.090E-06,-0.176
-1.080E-06,-0.072
-1.070E-06,0.040
-1.060E-06,0.124
-1.050E-06,0.056
-1.040E-06,0.004
-1.030E-06,-0.072
-1.020E-06,-0.080
-1.010E-06,-0.028
-1.000E-06,0.024
-9.900E-07,0.076
-9.800E-07,0.112
-9.700E-07,0.104
-9.600E-07,0.040
-9.500E-07,0.012
-9.400E-07,-0.004
-9.300E-07,0.080
-9.200E-07,0.096
-9.100E-07,0.092
-9.000E-07,0.104
-8.900E-07,-0.012
-8.800E-07,-0.036
-8.700E-07,-0.068
-8.600E-07,0.016
-8.500E-07,0.092
-8.400E-07,0.136
-8.300E-07,0.152
-8.200E-07,0.040
-8.100E-07,-0.124
-8.000E-07,-0.144
-7.900E-07,-0.220
-7.800E-07,-0.172
-7.700E-07,-0.052
-7.600E-07,0.064
-7.500E-07,0.044
-7.400E-07,0.076
-7.300E-07,-0.016
-7.200E-07,-0.076
-7.100E-07,-0.088
-7.000E-07,-0.072
-6.900E-07,-0.020
-6.800E-07,0.064
-6.700E-07,0.056
-6.600E-07,0.040
-6.500E-07,0.004
-6.400E-07,-0.024
-6.300E-07,-0.044
-6.200E-07,-0.012
-6.100E-07,0.016
-6.000E-07,0.056
-5.900E-07,0.024
-5.800E-07,-0.020
-5.700E-07,-0.012
-5.600E-07,-0.004
-5.500E-07,0.000
-5.400E-07,0.076
-5.300E-07,0.128
-5.200E-07,0.144
-5.100E-07,0.120
-5.000E-07,0.080
-4.900E-07,0.024
-4.800E-07,-0.012
-4.700E-07,0.016
-4.600E-07,0.032
-4.500E-07,0.044
-4.400E-07,0.056
-4.300E-07,0.024
-4.200E-07,-0.008
-4.100E-07,-0.140
-4.000E-07,-0.136
-3.900E-07,-0.108
-3.800E-07,-0.068
-3.700E-07,-0.004
-3.600E-07,0.072
-3.500E-07,0.132
-3.400E-07,0.084
-3.300E-07,0.096
-3.200E-07,0.096
-3.100E-07,0.120
-3.000E-07,0.140
-2.900E-07,0.180
-2.800E-07,0.136
-2.700E-07,0.104
-2.600E-07,0.048
-2.500E-07,0.024
-2.400E-07,0.008
-2.300E-07,0.056
-2.200E-07,0.100
-2.100E-07,0.108
-2.000E-07,0.104
-1.900E-07,0.136
-1.800E-07,0.160
-1.700E-07,0.120
-1.600E-07,0.124
-1.500E-07,0.052
-1.400E-07,0.080
-1.300E-07,0.064
-1.200E-07,0.136
-1.100E-07,0.156
-1.000E-07,0.180
-9.000E-08,0.180
-8.000E-08,0.008
-7.000E-08,-0.096
-6.000E-08,-0.476
-5.000E-08,-0.508
-4.000E-08,-0.512
-3.000E-08,-0.456
-2.000E-08,-0.336
-1.000E-08,0.268
0.000E+00,0.536
1.000E-08,0.352
2.000E-08,0.048
3.000E-08,-0.160
4.000E-08,-0.332
5.000E-08,-0.332
6.000E-08,-0.172
7.000E-08,0.156
8.000E-08,0.180
9.000E-08,0.196
1.000E-07,0.092
1.100E-07,-0.208
1.200E-07,-0.248
1.300E-07,-0.048
1.400E-07,0.096
1.500E-07,0.196
1.600E-07,0.084
1.700E-07,-0.016
1.800E-07,-0.184
1.900E-07,-0.200
2.000E-07,-0.188
2.100E-07,-0.056
2.200E-07,0.048
2.300E-07,0.108
2.400E-07,0.120
2.500E-07,-0.072
2.600E-07,-0.124
2.700E-07,-0.132
2.800E-07,0.016
2.900E-07,0.100
3.000E-07,0.188
3.100E-07,0.088
3.200E-07,-0.024
3.300E-07,-0.080
3.400E-07,-0.104
3.500E-07,0.004
3.600E-07,0.100
3.700E-07,0.160
3.800E-07,0.112
3.900E-07,0.092
4.000E-07,0.012
4.100E-07,-0.008
4.200E-07,0.008
4.300E-07,0.056
4.400E-07,0.108
4.500E-07,0.148
4.600E-07,0.172
4.700E-07,0.176
4.800E-07,0.164
4.900E-07,0.140
5.000E-07,0.132
5.100E-07,0.132
5.200E-07,0.160
5.300E-07,0.208
5.400E-07,0.244
5.500E-07,0.212
5.600E-07,0.172
5.700E-07,0.140
5.800E-07,0.128
5.900E-07,0.144
6.000E-07,0.188
6.100E-07,0.224
6.200E-07,0.228
6.300E-07,0.208
6.400E-07,0.168
6.500E-07,0.156
6.600E-07,0.076
6.700E-07,0.088
6.800E-07,0.100
6.900E-07,0.168
7.000E-07,0.168
7.100E-07,0.216
7.200E-07,0.164
7.300E-07,0.180
7.400E-07,0.056
7.500E-07,0.124
7.600E-07,0.020
7.700E-07,0.140
7.800E-07,0.092
7.900E-07,0.216
8.000E-07,0.164
8.100E-07,0.164
8.200E-07,0.148
8.300E-07,0.124
8.400E-07,0.100
8.500E-07,0.096
8.600E-07,0.132
8.700E-07,0.144
8.800E-07,0.128
8.900E-07,0.096
9.000E-07,0.048
9.100E-07,0.048
9.200E-07,-0.024
9.300E-07,0.056
9.400E-07,0.000
9.500E-07,0.088
9.600E-07,0.060
9.700E-07,0.064
9.800E-07,0.056
9.900E-07,0.056
1.000E-06,0.084
1.010E-06,0.104
1.020E-06,0.128
1.030E-06,0.144
1.040E-06,0.152
1.050E-06,0.144
1.060E-06,0.092
1.070E-06,0.104
1.080E-06,0.076
1.090E-06,0.096
1.100E-06,0.148
1.110E-06,0.176
1.120E-06,0.200
1.130E-06,0.200
1.140E-06,0.192
1.150E-06,0.152
1.160E-06,0.144
1.170E-06,0.136
1.180E-06,0.148
1.190E-06,0.160
1.200E-06,0.172
1.210E-06,0.180
1.220E-06,0.176
1.230E-06,0.160
1.240E-06,0.156
1.250E-06,0.160
1.260E-06,0.160
1.270E-06,0.176
1.280E-06,0.188
1.290E-06,0.184
1.300E-06,0.176
1.310E-06,0.172
1.320E-06,0.160
1.330E-06,0.168
1.340E-06,0.156
1.350E-06,0.160
1.360E-06,0.168
1.370E-06,0.184
1.380E-06,0.196
1.390E-06,0.204
1.400E-06,0.204
1.410E-06,0.200
1.420E-06,0.188
1.430E-06,0.176
1.440E-06,0.168
1.450E-06,0.172
1.460E-06,0.176
1.470E-06,0.176
1.480E-06,0.184
1.490E-06,0.176
1.500E-06,0.164
1.510E-06,0.152
1.520E-06,0.156
1.530E-06,0.156
1.540E-06,0.172
1.550E-06,0.176
1.560E-06,0.184
1.570E-06,0.172
1.580E-06,0.168
1.590E-06,0.156
1.600E-06,0.152
1.610E-06,0.156
1.620E-06,0.160
1.630E-06,0.168
1.640E-06,0.168
1.650E-06,0.172
1.660E-06,0.168
1.670E-06,0.160
1.680E-06,0.160
1.690E-06,0.148
1.700E-06,0.160
1.710E-06,0.164
1.720E-06,0.176
1.730E-06,0.176
1.740E-06,0.172
1.750E-06,0.168
1.760E-06,0.168
1.770E-06,0.156
1.780E-06,0.152
1.790E-06,0.156
1.800E-06,0.156
1.810E-06,0.164
1.820E-06,0.172
1.830E-06,0.164
1.840E-06,0.164
1.850E-06,0.164
1.860E-06,0.172
1.870E-06,0.172
1.880E-06,0.172
1.890E-06,0.168
1.900E-06,0.172
1.910E-06,0.176
1.920E-06,0.168
1.930E-06,0.168
1.940E-06,0.172
1.950E-06,0.156
1.960E-06,0.156
1.970E-06,0.156
1.980E-06,0.152
1.990E-06,0.160
2.000E-06,0.164
2.010E-06,0.160
2.020E-06,0.160
2.030E-06,0.156
2.040E-06,0.156
2.050E-06,0.160
2.060E-06,0.156
2.070E-06,0.160
2.080E-06,0.160
2.090E-06,0.164
2.100E-06,0.164
2.110E-06,0.156
2.120E-06,0.160
2.130E-06,0.164
2.140E-06,0.160
2.150E-06,0.156
2.160E-06,0.152
2.170E-06,0.156
2.180E-06,0.156
2.190E-06,0.164
2.200E-06,0.160
2.210E-06,0.164
2.220E-06,0.168
2.230E-06,0.164
2.240E-06,0.160
2.250E-06,0.156
2.260E-06,0.156
2.270E-06,0.152
2.280E-06,0.156
2.290E-06,0.160
2.300E-06,0.160
2.310E-06,0.156
2.320E-06,0.156
2.330E-06,0.144
2.340E-06,0.144
2.350E-06,0.144
2.360E-06,0.144
2.370E-06,0.156
2.380E-06,0.156
2.390E-06,0.164
2.400E-06,0.156
2.410E-06,0.152
2.420E-06,0.148
2.430E-06,0.136
2.440E-06,0.136
2.450E-06,0.140
2.460E-06,0.144
2.470E-06,0.144
2.480E-06,0.144
2.490E-06,0.140
2.500E-06,0.144
2.510E-06,0.136
2.520E-06,0.136
2.530E-06,0.144
2.540E-06,0.136
2.550E-06,0.144
2.560E-06,0.140
2.570E-06,0.144
2.580E-06,0.140
2.590E-06,0.144
2.600E-06,0.148
2.610E-06,0.148
2.620E-06,0.140
2.630E-06,0.144
2.640E-06,0.140
2.650E-06,0.140
2.660E-06,0.140
2.670E-06,0.148
2.680E-06,0.144
2.690E-06,0.144
2.700E-06,0.152
2.710E-06,0.144
2.720E-06,0.140
2.730E-06,0.132
2.740E-06,0.144
2.750E-06,0.140
2.760E-06,0.140
2.770E-06,0.144
2.780E-06,0.140
2.790E-06,0.144
2.800E-06,0.144
2.810E-06,0.148
2.820E-06,0.136
2.830E-06,0.144
2.840E-06,0.140
2.850E-06,0.132
2.860E-06,0.128
2.870E-06,0.136
2.880E-06,0.136
2.890E-06,0.136
2.900E-06,0.136
2.910E-06,0.136
2.920E-06,0.136
2.930E-06,0.128
2.940E-06,0.132
2.950E-06,0.128
2.960E-06,0.132
2.970E-06,0.132
2.980E-06,0.136
2.990E-06,0.140
3.000E-06,0.136
3.010E-06,0.136
3.020E-06,0.128
3.030E-06,0.128
3.040E-06,0.124
3.050E-06,0.124
3.060E-06,0.124
3.070E-06,0.128
3.080E-06,0.128
3.090E-06,0.128
3.100E-06,0.132
3.110E-06,0.128
3.120E-06,0.132
3.130E-06,0.128
3.140E-06,0.128
3.150E-06,0.132
3.160E-06,0.136
3.170E-06,0.136
3.180E-06,0.132
3.190E-06,0.128
3.200E-06,0.128
3.210E-06,0.124
3.220E-06,0.128
3.230E-06,0.132
3.240E-06,0.132
3.250E-06,0.132
3.260E-06,0.128
3.270E-06,0.124
3.280E-06,0.120
3.290E-06,0.116
3.300E-06,0.124
3.310E-06,0.124
3.320E-06,0.128
3.330E-06,0.128
3.340E-06,0.124
3.350E-06,0.116
3.360E-06,0.116
3.370E-06,0.112
3.380E-06,0.116
3.390E-06,0.120
3.400E-06,0.128
3.410E-06,0.124
3.420E-06,0.124
3.430E-06,0.120
3.440E-06,0.116
3.450E-06,0.112
3.460E-06,0.108
3.470E-06,0.120
3.480E-06,0.120
3.490E-06,0.120
3.500E-06,0.120
3.510E-06,0.108
3.520E-06,0.108
3.530E-06,0.104
3.540E-06,0.096
3.550E-06,0.096
3.560E-06,0.100
3.570E-06,0.108
3.580E-06,0.108
3.590E-06,0.112
3.600E-06,0.104
3.610E-06,0.108
3.620E-06,0.104
3.630E-06,0.100
3.640E-06,0.108
3.650E-06,0.112
3.660E-06,0.112
3.670E-06,0.108
3.680E-06,0.112
3.690E-06,0.108
3.700E-06,0.100
3.710E-06,0.104
3.720E-06,0.104
3.730E-06,0.108
3.740E-06,0.112
3.750E-06,0.108
3.760E-06,0.108
3.770E-06,0.100
3.780E-06,0.096
3.790E-06,0.100
3.800E-06,0.104
3.810E-06,0.108
3.820E-06,0.112
3.830E-06,0.108
3.840E-06,0.100
3.850E-06,0.100
3.860E-06,0.100
3.870E-06,0.104
3.880E-06,0.104
3.890E-06,0.100
3.900E-06,0.100
3.910E-06,0.096
3.920E-06,0.096
3.930E-06,0.100
3.940E-06,0.096
3.950E-06,0.100
3.960E-06,0.096
3.970E-06,0.096
3.980E-06,0.096
3.990E-06,0.096
4.000E-06,0.096
4.010E-06,0.092
4.020E-06,0.100
4.030E-06,0.096
4.040E-06,0.092
4.050E-06,0.092
4.060E-06,0.092
4.070E-06,0.096
4.080E-06,0.096
4.090E-06,0.092
4.100E-06,0.092
4.110E-06,0.096
4.120E-06,0.088
4.130E-06,0.092
4.140E-06,0.092
4.150E-06,0.092
4.160E-06,0.092
4.170E-06,0.096
4.180E-06,0.088
4.190E-06,0.088
4.200E-06,0.088
4.210E-06,0.088
4.220E-06,0.096
4.230E-06,0.092
4.240E-06,0.088
4.250E-06,0.088
4.260E-06,0.088
4.270E-06,0.092
4.280E-06,0.088
4.290E-06,0.088
4.300E-06,0.088
4.310E-06,0.092
4.320E-06,0.084
4.330E-06,0.088
4.340E-06,0.092
4.350E-06,0.088
4.360E-06,0.092
4.370E-06,0.088
4.380E-06,0.092
4.390E-06,0.088
4.400E-06,0.084
4.410E-06,0.088
4.420E-06,0.088
4.430E-06,0.092
4.440E-06,0.088
4.450E-06,0.084
4.460E-06,0.084
4.470E-06,0.088
4.480E-06,0.088
4.490E-06,0.092
4.500E-06,0.092
4.510E-06,0.088
4.520E-06,0.084
4.530E-06,0.080
4.540E-06,0.080
4.550E-06,0.080
4.560E-06,0.080
4.570E-06,0.084
4.580E-06,0.084
4.590E-06,0.076
4.600E-06,0.076
4.610E-06,0.080
4.620E-06,0.072
4.630E-06,0.072
4.640E-06,0.076
4.650E-06,0.076
4.660E-06,0.076
4.670E-06,0.084
4.680E-06,0.080
4.690E-06,0.076
4.700E-06,0.076
4.710E-06,0.072
4.720E-06,0.072
4.730E-06,0.076
4.740E-06,0.076
4.750E-06,0.072
4.760E-06,0.072
4.770E-06,0.076
4.780E-06,0.072
4.790E-06,0.068
4.800E-06,0.076
4.810E-06,0.076
4.820E-06,0.072
4.830E-06,0.076
4.840E-06,0.072
4.850E-06,0.068
4.860E-06,0.064
4.870E-06,0.064
4.880E-06,0.068
4.890E-06,0.068
4.900E-06,0.068
4.910E-06,0.068
4.920E-06,0.064
4.930E-06,0.064
4.940E-06,0.064
4.950E-06,0.060
4.960E-06,0.064
4.970E-06,0.068
4.980E-06,0.068
4.990E-06,0.060
5.000E-06,0.064
5.010E-06,0.064
5.020E-06,0.060
5.030E-06,0.060
5.040E-06,0.060
5.050E-06,0.064
5.060E-06,0.064
5.070E-06,0.056
5.080E-06,0.056
5.090E-06,0.056
5.100E-06,0.056
5.110E-06,0.056
5.120E-06,0.056
5.130E-06,0.056
5.140E-06,0.056
5.150E-06,0.060
5.160E-06,0.056
5.170E-06,0.056
5.180E-06,0.056
5.190E-06,0.060
5.200E-06,0.056
5.210E-06,0.056
5.220E-06,0.056
5.230E-06,0.052
5.240E-06,0.056
5.250E-06,0.056
5.260E-06,0.052
5.270E-06,0.052
5.280E-06,0.052
5.290E-06,0.056
5.300E-06,0.056
5.310E-06,0.048
5.320E-06,0.048
5.330E-06,0.048
5.340E-06,0.048
5.350E-06,0.048
5.360E-06,0.052
5.370E-06,0.048
5.380E-06,0.052
5.390E-06,0.044
5.400E-06,0.048
5.410E-06,0.044
5.420E-06,0.052
5.430E-06,0.056
5.440E-06,0.052
5.450E-06,0.052
5.460E-06,0.052
5.470E-06,0.044
5.480E-06,0.044
5.490E-06,0.040
5.500E-06,0.044
5.510E-06,0.044
5.520E-06,0.044
5.530E-06,0.044
5.540E-06,0.044
5.550E-06,0.044
5.560E-06,0.044
5.570E-06,0.040
5.580E-06,0.044
5.590E-06,0.044
5.600E-06,0.044
5.610E-06,0.044
5.620E-06,0.044
5.630E-06,0.044
5.640E-06,0.044
5.650E-06,0.036
5.660E-06,0.036
5.670E-06,0.040
5.680E-06,0.036
5.690E-06,0.044
5.700E-06,0.040
5.710E-06,0.036
5.720E-06,0.036
5.730E-06,0.040
5.740E-06,0.040
5.750E-06,0.036
5.760E-06,0.044
5.770E-06,0.044
5.780E-06,0.040
5.790E-06,0.044
5.800E-06,0.040
5.810E-06,0.040
5.820E-06,0.036
5.830E-06,0.040
5.840E-06,0.036
5.850E-06,0.036
5.860E-06,0.036
5.870E-06,0.036
5.880E-06,0.028
5.890E-06,0.032
5.900E-06,0.036
5.910E-06,0.032
5.920E-06,0.032
5.930E-06,0.032
5.940E-06,0.032
5.950E-06,0.036
5.960E-06,0.032
5.970E-06,0.036
5.980E-06,0.032
5.990E-06,0.036
6.000E-06,0.036
6.010E-06,0.036
6.020E-06,0.028
6.030E-06,0.032
6.040E-06,0.032
6.050E-06,0.036
6.060E-06,0.028
6.070E-06,0.024
6.080E-06,0.028
6.090E-06,0.032
6.100E-06,0.032
6.110E-06,0.028
6.120E-06,0.032
6.130E-06,0.028
6.140E-06,0.032
6.150E-06,0.024
6.160E-06,0.028
6.170E-06,0.032
6.180E-06,0.028
6.190E-06,0.024
6.200E-06,0.028
6.210E-06,0.020
6.220E-06,0.024
6.230E-06,0.024
6.240E-06,0.028
6.250E-06,0.028
6.260E-06,0.028
6.270E-06,0.028
6.280E-06,0.032
6.290E-06,0.028
6.300E-06,0.032
6.310E-06,0.020
6.320E-06,0.020
6.330E-06,0.024
6.340E-06,0.032
6.350E-06,0.024
6.360E-06,0.020
6.370E-06,0.028
6.380E-06,0.032
6.390E-06,0.032
6.400E-06,0.024
6.410E-06,0.028
6.420E-06,0.028
6.430E-06,0.036
6.440E-06,0.028
6.450E-06,0.032
6.460E-06,0.032
6.470E-06,0.032
6.480E-06,0.028
6.490E-06,0.032
6.500E-06,0.020
6.510E-06,0.024
6.520E-06,0.024
6.530E-06,0.020
6.540E-06,0.020
6.550E-06,0.016
6.560E-06,0.012
6.570E-06,0.016
6.580E-06,0.016
6.590E-06,0.016
6.600E-06,0.020
6.610E-06,0.016
6.620E-06,0.012
6.630E-06,0.012
6.640E-06,0.016
6.650E-06,0.008
6.660E-06,0.004
6.670E-06,0.012
6.680E-06,0.012
6.690E-06,0.012
6.700E-06,0.012
6.710E-06,0.008
6.720E-06,0.008
6.730E-06,0.012
6.740E-06,0.008
6.750E-06,0.012
6.760E-06,0.008
6.770E-06,0.012
6.780E-06,0.012
6.790E-06,0.012
6.800E-06,0.008
6.810E-06,0.012
6.820E-06,0.004
6.830E-06,0.012
6.840E-06,0.012
6.850E-06,0.012
6.860E-06,0.008
6.870E-06,0.008
6.880E-06,0.008
6.890E-06,0.004
6.900E-06,0.008
6.910E-06,0.004
6.920E-06,0.004
6.930E-06,0.012
6.940E-06,0.004
6.950E-06,0.008
6.960E-06,0.008
6.970E-06,0.008
6.980E-06,0.008
6.990E-06,0.008
7.000E-06,0.008
7.010E-06,0.008
7.020E-06,0.004
7.030E-06,0.008
7.040E-06,0.008
7.050E-06,0.008
7.060E-06,0.004
7.070E-06,0.008
7.080E-06,0.004
7.090E-06,0.008
7.100E-06,0.000
7.110E-06,0.004
7.120E-06,0.008
7.130E-06,0.000
7.140E-06,-0.004
7.150E-06,0.004
7.160E-06,0.000
7.170E-06,-0.004
7.180E-06,0.004
7.190E-06,-0.004
7.200E-06,0.000
7.210E-06,0.004
7.220E-06,0.000
7.230E-06,0.000
7.240E-06,0.000
7.250E-06,0.004
7.260E-06,0.004
7.270E-06,-0.004
7.280E-06,0.000
7.290E-06,0.000
7.300E-06,0.000
7.310E-06,0.000
7.320E-06,0.000
7.330E-06,0.004
7.340E-06,-0.004
7.350E-06,0.000
7.360E-06,0.000
7.370E-06,0.000
7.380E-06,-0.004
7.390E-06,-0.004
7.400E-06,-0.004
7.410E-06,0.000
7.420E-06,0.000
7.430E-06,-0.008
7.440E-06,-0.008
7.450E-06,0.004
7.460E-06,0.000
7.470E-06,-0.004
7.480E-06,-0.004
7.490E-06,-0.004
7.500E-06,-0.008
7.510E-06,-0.008
7.520E-06,-0.008
7.530E-06,-0.008
7.540E-06,-0.008
7.550E-06,-0.008
7.560E-06,-0.008
7.570E-06,-0.008
7.580E-06,-0.008
7.590E-06,-0.008
7.600E-06,0.000
7.610E-06,0.000
7.620E-06,-0.004
7.630E-06,-0.008
7.640E-06,0.000
7.650E-06,-0.004
7.660E-06,-0.004
7.670E-06,-0.004
7.680E-06,-0.004
7.690E-06,-0.004
7.700E-06,0.000
7.710E-06,-0.004
7.720E-06,-0.004
7.730E-06,0.000
7.740E-06,-0.008
7.750E-06,-0.012
7.760E-06,0.000
7.770E-06,-0.004
7.780E-06,-0.004
7.790E-06,-0.008
7.800E-06,-0.004
7.810E-06,-0.008
7.820E-06,-0.008
7.830E-06,-0.008
7.840E-06,-0.008
7.850E-06,-0.008
7.860E-06,-0.008
7.870E-06,-0.008
7.880E-06,-0.008
7.890E-06,-0.004
7.900E-06,-0.008
7.910E-06,-0.008
7.920E-06,-0.008
7.930E-06,-0.008
7.940E-06,-0.008
7.950E-06,-0.008
7.960E-06,-0.004
7.970E-06,-0.008
7.980E-06,-0.008
7.990E-06,-0.008
8.000E-06,-0.008
8.010E-06,-0.008
8.020E-06,-0.008
8.030E-06,-0.004
8.040E-06,-0.012
8.050E-06,-0.008
8.060E-06,-0.012
8.070E-06,-0.012
8.080E-06,-0.008
8.090E-06,-0.008
8.100E-06,-0.008
8.110E-06,-0.012
8.120E-06,-0.012
8.130E-06,-0.012
8.140E-06,-0.012
8.150E-06,-0.008
8.160E-06,-0.004
8.170E-06,-0.012
8.180E-06,-0.016
8.190E-06,-0.016
8.200E-06,-0.016
8.210E-06,-0.016
8.220E-06,-0.008
8.230E-06,-0.012
8.240E-06,-0.016
8.250E-06,-0.012
8.260E-06,-0.012
8.270E-06,-0.016
8.280E-06,-0.016
8.290E-06,-0.012
8.300E-06,-0.016
8.310E-06,-0.012
8.320E-06,-0.016
8.330E-06,-0.012
8.340E-06,-0.016
8.350E-06,-0.016
8.360E-06,-0.020
8.370E-06,-0.016
8.380E-06,-0.016
8.390E-06,-0.016
8.400E-06,-0.016
8.410E-06,-0.020
8.420E-06,-0.020
8.430E-06,-0.012
8.440E-06,-0.016
8.450E-06,-0.020
8.460E-06,-0.016
8.470E-06,-0.020
8.480E-06,-0.016
8.490E-06,-0.020
8.500E-06,-0.016
8.510E-06,-0.020
8.520E-06,-0.016
8.530E-06,-0.016
8.540E-06,-0.020
8.550E-06,-0.016
8.560E-06,-0.020
8.570E-06,-0.020
8.580E-06,-0.024
8.590E-06,-0.020
8.600E-06,-0.016
8.610E-06,-0.020
8.620E-06,-0.016
8.630E-06,-0.024
8.640E-06,-0.016
8.650E-06,-0.020
8.660E-06,-0.020
8.670E-06,-0.028
8.680E-06,-0.020
8.690E-06,-0.020
8.700E-06,-0.016
8.710E-06,-0.024
8.720E-06,-0.020
8.730E-06,-0.024
8.740E-06,-0.020
8.750E-06,-0.020
8.760E-06,-0.028
8.770E-06,-0.028
8.780E-06,-0.020
8.790E-06,-0.024
8.800E-06,-0.028
8.810E-06,-0.024
8.820E-06,-0.028
8.830E-06,-0.028
8.840E-06,-0.020
8.850E-06,-0.024
8.860E-06,-0.028
8.870E-06,-0.024
8.880E-06,-0.024
8.890E-06,-0.024
8.900E-06,-0.028
8.910E-06,-0.028
8.920E-06,-0.024
8.930E-06,-0.020
8.940E-06,-0.024
8.950E-06,-0.020
8.960E-06,-0.024
8.970E-06,-0.028
8.980E-06,-0.028
8.990E-06,-0.024
9.000E-06,-0.024
9.010E-06,-0.028
9.020E-06,-0.024
9.030E-06,-0.024
9.040E-06,-0.024
9.050E-06,-0.024
9.060E-06,-0.028
9.070E-06,-0.028
9.080E-06,-0.028
9.090E-06,-0.032
9.100E-06,-0.032
9.110E-06,-0.032
9.120E-06,-0.036
9.130E-06,-0.028
9.140E-06,-0.028
9.150E-06,-0.032
9.160E-06,-0.032
9.170E-06,-0.036
9.180E-06,-0.032
9.190E-06,-0.032
9.200E-06,-0.028
9.210E-06,-0.024
9.220E-06,-0.032
9.230E-06,-0.028
9.240E-06,-0.032
9.250E-06,-0.028
9.260E-06,-0.032
9.270E-06,-0.028
9.280E-06,-0.032
9.290E-06,-0.028
9.300E-06,-0.032
9.310E-06,-0.032
9.320E-06,-0.036
9.330E-06,-0.032
9.340E-06,-0.028
9.350E-06,-0.032
9.360E-06,-0.032
9.370E-06,-0.032
9.380E-06,-0.036
9.390E-06,-0.036
9.400E-06,-0.036
9.410E-06,-0.032
9.420E-06,-0.040
9.430E-06,-0.036
9.440E-06,-0.028
9.450E-06,-0.028
9.460E-06,-0.036
9.470E-06,-0.036
9.480E-06,-0.028
9.490E-06,-0.032
9.500E-06,-0.040
9.510E-06,-0.040
9.520E-06,-0.036
9.530E-06,-0.040
9.540E-06,-0.036
9.550E-06,-0.036
9.560E-06,-0.036
9.570E-06,-0.028
9.580E-06,-0.036
9.590E-06,-0.036
9.600E-06,-0.032
9.610E-06,-0.036
9.620E-06,-0.036
9.630E-06,-0.032
9.640E-06,-0.036
9.650E-06,-0.040
9.660E-06,-0.036
9.670E-06,-0.040
9.680E-06,-0.032
9.690E-06,-0.036
9.700E-06,-0.040
9.710E-06,-0.040
9.720E-06,-0.036
9.730E-06,-0.036
9.740E-06,-0.036
9.750E-06,-0.040
9.760E-06,-0.040
9.770E-06,-0.036
9.780E-06,-0.044
9.790E-06,-0.044
9.800E-06,-0.040
9.810E-06,-0.044
9.820E-06,-0.040
9.830E-06,-0.036
9.840E-06,-0.040
