mediciones/Mediciones filtradas (saque las feas)/6-3/-12.5/WaveData5321.csv

#timebase=2000000(ps)
,#voltbase=500000(mv/100)
#size=4000
-2.250E-06,0.940
-2.240E-06,1.060
-2.230E-06,0.460
-2.220E-06,-0.040
-2.210E-06,-0.060
-2.200E-06,0.220
-2.190E-06,0.640
-2.180E-06,0.780
-2.170E-06,0.700
-2.160E-06,0.020
-2.150E-06,-0.240
-2.140E-06,0.220
-2.130E-06,0.300
-2.120E-06,0.260
-2.110E-06,0.000
-2.100E-06,-0.160
-2.090E-06,-0.460
-2.080E-06,-0.120
-2.070E-06,0.180
-2.060E-06,0.120
-2.050E-06,-0.320
-2.040E-06,-0.580
-2.030E-06,-0.700
-2.020E-06,-0.520
-2.010E-06,-0.100
-2.000E-06,0.120
-1.990E-06,-0.240
-1.980E-06,-0.520
-1.970E-06,-0.640
-1.960E-06,-0.500
-1.950E-06,-0.180
-1.940E-06,0.080
-1.930E-06,0.000
-1.920E-06,-0.580
-1.910E-06,0.080
-1.900E-06,-0.120
-1.890E-06,0.400
-1.880E-06,0.800
-1.870E-06,0.540
-1.860E-06,0.320
-1.850E-06,0.000
-1.840E-06,0.420
-1.830E-06,0.420
-1.820E-06,0.500
-1.810E-06,0.720
-1.800E-06,0.460
-1.790E-06,0.260
-1.780E-06,0.460
-1.770E-06,0.540
-1.760E-06,0.500
-1.750E-06,0.340
-1.740E-06,0.260
-1.730E-06,0.020
-1.720E-06,-0.080
-1.710E-06,0.000
-1.700E-06,0.040
-1.690E-06,-0.260
-1.680E-06,-0.620
-1.670E-06,-0.500
-1.660E-06,-0.200
-1.650E-06,-0.720
-1.640E-06,0.100
-1.630E-06,0.120
-1.620E-06,0.020
-1.610E-06,0.120
-1.600E-06,0.240
-1.590E-06,-0.080
-1.580E-06,-0.300
-1.570E-06,-0.220
-1.560E-06,0.200
-1.550E-06,0.100
-1.540E-06,0.460
-1.530E-06,0.440
-1.520E-06,0.180
-1.510E-06,0.140
-1.500E-06,0.440
-1.490E-06,0.460
-1.480E-06,0.360
-1.470E-06,0.340
-1.460E-06,0.300
-1.450E-06,0.160
-1.440E-06,0.220
-1.430E-06,0.420
-1.420E-06,0.320
-1.410E-06,-0.180
-1.400E-06,-0.220
-1.390E-06,-0.280
-1.380E-06,-0.220
-1.370E-06,0.080
-1.360E-06,0.540
-1.350E-06,-0.080
-1.340E-06,-0.600
-1.330E-06,-0.280
-1.320E-06,-0.360
-1.310E-06,0.260
-1.300E-06,0.500
-1.290E-06,0.300
-1.280E-06,-0.300
-1.270E-06,-0.800
-1.260E-06,-0.420
-1.250E-06,-0.060
-1.240E-06,0.100
-1.230E-06,0.420
-1.220E-06,0.160
-1.210E-06,-0.080
-1.200E-06,0.060
-1.190E-06,0.340
-1.180E-06,0.360
-1.170E-06,0.300
-1.160E-06,0.200
-1.150E-06,0.080
-1.140E-06,0.120
-1.130E-06,0.460
-1.120E-06,0.660
-1.110E-06,0.420
-1.100E-06,0.160
-1.090E-06,-0.020
-1.080E-06,-0.120
-1.070E-06,0.040
-1.060E-06,0.280
-1.050E-06,0.200
-1.040E-06,-0.100
-1.030E-06,-0.360
-1.020E-06,-0.460
-1.010E-06,-0.380
-1.000E-06,-0.320
-9.900E-07,-0.280
-9.800E-07,-0.400
-9.700E-07,-0.540
-9.600E-07,-0.460
-9.500E-07,-0.420
-9.400E-07,-0.260
-9.300E-07,-0.160
-9.200E-07,-0.140
-9.100E-07,-0.160
-9.000E-07,-0.100
-8.900E-07,0.140
-8.800E-07,0.260
-8.700E-07,0.360
-8.600E-07,0.400
-8.500E-07,0.420
-8.400E-07,0.280
-8.300E-07,0.320
-8.200E-07,0.380
-8.100E-07,0.320
-8.000E-07,0.380
-7.900E-07,0.380
-7.800E-07,0.500
-7.700E-07,0.000
-7.600E-07,0.320
-7.500E-07,-0.240
-7.400E-07,0.220
-7.300E-07,0.360
-7.200E-07,0.520
-7.100E-07,0.840
-7.000E-07,0.400
-6.900E-07,0.140
-6.800E-07,-0.240
-6.700E-07,-0.160
-6.600E-07,-0.140
-6.500E-07,-0.260
-6.400E-07,0.180
-6.300E-07,0.520
-6.200E-07,0.520
-6.100E-07,1.400
-6.000E-07,1.000
-5.900E-07,0.800
-5.800E-07,-0.180
-5.700E-07,-0.100
-5.600E-07,-0.100
-5.500E-07,0.420
-5.400E-07,0.980
-5.300E-07,0.940
-5.200E-07,0.380
-5.100E-07,0.040
-5.000E-07,-0.040
-4.900E-07,-0.080
-4.800E-07,-0.060
-4.700E-07,0.100
-4.600E-07,-0.180
-4.500E-07,-0.360
-4.400E-07,-0.240
-4.300E-07,-0.120
-4.200E-07,-0.200
-4.100E-07,-0.420
-4.000E-07,-0.600
-3.900E-07,-0.740
-3.800E-07,-0.500
-3.700E-07,-0.100
-3.600E-07,0.120
-3.500E-07,0.000
-3.400E-07,-0.200
-3.300E-07,-0.340
-3.200E-07,-0.280
-3.100E-07,-0.040
-3.000E-07,0.220
-2.900E-07,0.240
-2.800E-07,0.160
-2.700E-07,0.080
-2.600E-07,0.020
-2.500E-07,0.080
-2.400E-07,0.120
-2.300E-07,0.220
-2.200E-07,0.160
-2.100E-07,0.220
-2.000E-07,0.180
-1.900E-07,0.180
-1.800E-07,0.120
-1.700E-07,0.100
-1.600E-07,0.140
-1.500E-07,-0.040
-1.400E-07,0.040
-1.300E-07,0.160
-1.200E-07,0.220
-1.100E-07,0.340
-1.000E-07,0.320
-9.000E-08,0.220
-8.000E-08,0.160
-7.000E-08,0.100
-6.000E-08,0.360
-5.000E-08,-0.320
-4.000E-08,-0.020
-3.000E-08,0.260
-2.000E-08,-1.580
-1.000E-08,-0.100
0.000E+00,0.000
1.000E-08,0.720
2.000E-08,1.580
3.000E-08,1.700
4.000E-08,0.520
5.000E-08,-0.600
6.000E-08,-1.040
7.000E-08,0.260
8.000E-08,0.340
9.000E-08,1.420
1.000E-07,1.140
1.100E-07,0.140
1.200E-07,-0.160
1.300E-07,0.340
1.400E-07,0.620
1.500E-07,0.240
1.600E-07,0.140
1.700E-07,-0.100
1.800E-07,-0.540
1.900E-07,0.020
2.000E-07,0.540
2.100E-07,0.400
2.200E-07,-0.420
2.300E-07,-0.860
2.400E-07,-1.100
2.500E-07,-0.840
2.600E-07,-0.060
2.700E-07,0.420
2.800E-07,0.040
2.900E-07,-0.680
3.000E-07,-0.680
3.100E-07,-0.500
3.200E-07,-0.340
3.300E-07,0.220
3.400E-07,-0.140
3.500E-07,-0.340
3.600E-07,-0.320
3.700E-07,0.220
3.800E-07,0.560
3.900E-07,0.580
4.000E-07,0.560
4.100E-07,0.440
4.200E-07,0.320
4.300E-07,0.760
4.400E-07,1.120
4.500E-07,0.980
4.600E-07,1.020
4.700E-07,0.860
4.800E-07,0.820
4.900E-07,0.060
5.000E-07,-0.420
5.100E-07,-0.420
5.200E-07,-0.560
5.300E-07,0.220
5.400E-07,1.000
5.500E-07,1.140
5.600E-07,0.740
5.700E-07,0.040
5.800E-07,-0.180
5.900E-07,-0.060
6.000E-07,0.480
6.100E-07,1.160
6.200E-07,0.940
6.300E-07,0.760
6.400E-07,0.560
6.500E-07,0.440
6.600E-07,0.380
6.700E-07,0.400
6.800E-07,0.440
6.900E-07,0.220
7.000E-07,0.280
7.100E-07,0.460
7.200E-07,0.380
7.300E-07,0.140
7.400E-07,-0.160
7.500E-07,-0.420
7.600E-07,-0.440
7.700E-07,-0.060
7.800E-07,0.300
7.900E-07,0.340
8.000E-07,0.040
8.100E-07,-0.340
8.200E-07,-0.600
8.300E-07,-0.580
8.400E-07,-0.260
8.500E-07,-0.040
8.600E-07,-0.060
8.700E-07,-0.180
8.800E-07,-0.320
8.900E-07,-0.420
9.000E-07,-0.380
9.100E-07,-0.300
9.200E-07,-0.160
9.300E-07,-0.100
9.400E-07,0.020
9.500E-07,0.100
9.600E-07,0.080
9.700E-07,0.060
9.800E-07,0.020
9.900E-07,0.020
1.000E-06,0.060
1.010E-06,0.120
1.020E-06,0.180
1.030E-06,0.180
1.040E-06,0.180
1.050E-06,0.160
1.060E-06,0.080
1.070E-06,0.080
1.080E-06,0.120
1.090E-06,0.200
1.100E-06,0.260
1.110E-06,0.260
1.120E-06,0.280
1.130E-06,0.260
1.140E-06,0.240
1.150E-06,0.280
1.160E-06,0.240
1.170E-06,0.240
1.180E-06,0.240
1.190E-06,0.300
1.200E-06,0.340
1.210E-06,0.360
1.220E-06,0.360
1.230E-06,0.300
1.240E-06,0.220
1.250E-06,0.240
1.260E-06,0.320
1.270E-06,0.380
1.280E-06,0.420
1.290E-06,0.460
1.300E-06,0.420
1.310E-06,0.420
1.320E-06,0.440
1.330E-06,0.400
1.340E-06,0.420
1.350E-06,0.440
1.360E-06,0.380
1.370E-06,0.380
1.380E-06,0.220
1.390E-06,0.000
1.400E-06,-0.140
1.410E-06,-0.460
1.420E-06,-0.540
1.430E-06,-0.600
1.440E-06,-0.400
1.450E-06,-0.220
1.460E-06,0.060
1.470E-06,0.200
1.480E-06,0.200
1.490E-06,0.220
1.500E-06,0.220
1.510E-06,0.400
1.520E-06,0.520
1.530E-06,0.900
1.540E-06,0.840
1.550E-06,0.660
1.560E-06,0.420
1.570E-06,-0.020
1.580E-06,-0.280
1.590E-06,-0.860
1.600E-06,-0.380
1.610E-06,-0.200
1.620E-06,0.340
1.630E-06,0.920
1.640E-06,0.920
1.650E-06,0.540
1.660E-06,0.060
1.670E-06,-0.140
1.680E-06,0.000
1.690E-06,0.060
1.700E-06,0.520
1.710E-06,0.860
1.720E-06,0.340
1.730E-06,0.560
1.740E-06,0.640
1.750E-06,0.120
1.760E-06,0.060
1.770E-06,-0.260
1.780E-06,0.080
1.790E-06,-0.040
1.800E-06,0.760
1.810E-06,0.860
1.820E-06,0.720
1.830E-06,0.240
1.840E-06,-0.020
1.850E-06,-0.200
1.860E-06,-0.200
1.870E-06,0.200
1.880E-06,0.200
1.890E-06,0.260
1.900E-06,-0.080
1.910E-06,0.020
1.920E-06,-0.320
1.930E-06,-0.120
1.940E-06,0.040
1.950E-06,0.120
1.960E-06,0.080
1.970E-06,0.000
1.980E-06,0.040
1.990E-06,0.060
2.000E-06,0.180
2.010E-06,0.280
2.020E-06,0.140
2.030E-06,0.060
2.040E-06,-0.020
2.050E-06,0.080
2.060E-06,0.120
2.070E-06,0.240
2.080E-06,0.220
2.090E-06,0.020
2.100E-06,-0.060
2.110E-06,-0.060
2.120E-06,0.000
2.130E-06,0.100
2.140E-06,0.180
2.150E-06,0.160
2.160E-06,0.040
2.170E-06,0.000
2.180E-06,0.020
2.190E-06,0.000
2.200E-06,0.000
2.210E-06,-0.020
2.220E-06,0.000
2.230E-06,0.000
2.240E-06,0.160
2.250E-06,0.340
2.260E-06,0.480
2.270E-06,0.500
2.280E-06,0.600
2.290E-06,0.680
2.300E-06,0.720
2.310E-06,0.860
2.320E-06,0.920
2.330E-06,0.860
2.340E-06,0.780
2.350E-06,0.660
2.360E-06,0.620
2.370E-06,0.580
2.380E-06,0.500
2.390E-06,0.460
2.400E-06,0.360
2.410E-06,0.280
2.420E-06,0.120
2.430E-06,-0.240
2.440E-06,-0.500
2.450E-06,-0.920
2.460E-06,-1.320
2.470E-06,-1.520
2.480E-06,-1.920
2.490E-06,-1.760
2.500E-06,-1.840
2.510E-06,-1.440
2.520E-06,-1.300
2.530E-06,-0.860
2.540E-06,-1.180
2.550E-06,-1.000
2.560E-06,-0.940
2.570E-06,-0.780
2.580E-06,-0.300
2.590E-06,-0.280
2.600E-06,0.160
2.610E-06,-0.020
2.620E-06,0.440
2.630E-06,0.800
2.640E-06,1.140
2.650E-06,1.080
2.660E-06,1.140
2.670E-06,0.960
2.680E-06,1.020
2.690E-06,0.980
2.700E-06,1.320
2.710E-06,1.180
2.720E-06,1.200
2.730E-06,0.840
2.740E-06,0.720
2.750E-06,0.660
2.760E-06,0.740
2.770E-06,0.880
2.780E-06,0.980
2.790E-06,1.040
2.800E-06,0.880
2.810E-06,0.920
2.820E-06,0.800
2.830E-06,0.780
2.840E-06,0.560
2.850E-06,0.500
2.860E-06,0.280
2.870E-06,0.280
2.880E-06,0.100
2.890E-06,0.100
2.900E-06,0.060
2.910E-06,-0.080
2.920E-06,-0.160
2.930E-06,-0.320
2.940E-06,-0.180
2.950E-06,-0.080
2.960E-06,0.140
2.970E-06,0.220
2.980E-06,0.120
2.990E-06,0.180
3.000E-06,0.140
3.010E-06,0.280
3.020E-06,0.400
3.030E-06,0.500
3.040E-06,0.440
3.050E-06,0.440
3.060E-06,0.440
3.070E-06,0.500
3.080E-06,0.540
3.090E-06,0.600
3.100E-06,0.640
3.110E-06,0.440
3.120E-06,0.260
3.130E-06,0.180
3.140E-06,0.260
3.150E-06,0.340
3.160E-06,0.360
3.170E-06,0.240
3.180E-06,0.200
3.190E-06,0.200
3.200E-06,0.220
3.210E-06,0.320
3.220E-06,0.380
3.230E-06,0.420
3.240E-06,0.520
3.250E-06,0.560
3.260E-06,0.640
3.270E-06,0.700
3.280E-06,0.640
3.290E-06,0.560
3.300E-06,0.580
3.310E-06,0.560
3.320E-06,0.620
3.330E-06,0.580
3.340E-06,0.580
3.350E-06,0.240
3.360E-06,-0.040
3.370E-06,-0.380
3.380E-06,-0.640
3.390E-06,-0.760
3.400E-06,-0.840
3.410E-06,-1.020
3.420E-06,-1.100
3.430E-06,-1.300
3.440E-06,-1.360
3.450E-06,-1.300
3.460E-06,-1.120
3.470E-06,-0.620
3.480E-06,-0.400
3.490E-06,0.100
3.500E-06,0.320
3.510E-06,0.680
3.520E-06,0.860
3.530E-06,0.920
3.540E-06,0.880
3.550E-06,0.980
3.560E-06,0.800
3.570E-06,0.720
3.580E-06,0.700
3.590E-06,0.580
3.600E-06,0.600
3.610E-06,0.420
3.620E-06,-0.040
3.630E-06,-0.060
3.640E-06,-0.580
3.650E-06,-0.340
3.660E-06,0.000
3.670E-06,-0.420
3.680E-06,-0.660
3.690E-06,-0.820
3.700E-06,-0.860
3.710E-06,-0.600
3.720E-06,0.320
3.730E-06,0.760
3.740E-06,0.440
3.750E-06,0.560
3.760E-06,-0.300
3.770E-06,-0.160
3.780E-06,-0.380
3.790E-06,0.220
3.800E-06,0.220
3.810E-06,0.400
3.820E-06,0.600
3.830E-06,0.820
3.840E-06,0.740
3.850E-06,1.060
3.860E-06,0.720
3.870E-06,0.680
3.880E-06,0.520
3.890E-06,0.880
3.900E-06,1.100
3.910E-06,1.100
3.920E-06,1.360
3.930E-06,1.200
3.940E-06,1.260
3.950E-06,1.320
3.960E-06,1.560
3.970E-06,1.480
3.980E-06,1.380
3.990E-06,1.200
4.000E-06,0.940
4.010E-06,0.600
4.020E-06,0.380
4.030E-06,0.180
4.040E-06,-0.140
4.050E-06,-0.420
4.060E-06,-0.620
4.070E-06,-0.840
4.080E-06,-1.120
4.090E-06,-1.240
4.100E-06,-1.400
4.110E-06,-1.520
4.120E-06,-1.520
4.130E-06,-1.520
4.140E-06,-1.560
4.150E-06,-1.540
4.160E-06,-1.420
4.170E-06,-1.260
4.180E-06,-1.180
4.190E-06,-1.080
4.200E-06,-1.020
4.210E-06,-1.020
4.220E-06,-0.980
4.230E-06,-0.940
4.240E-06,-0.940
4.250E-06,-1.040
4.260E-06,-1.100
4.270E-06,-1.260
4.280E-06,-1.460
4.290E-06,-1.620
4.300E-06,-1.800
4.310E-06,-2.080
4.320E-06,-2.300
4.330E-06,-2.660
4.340E-06,-2.660
4.350E-06,-2.640
4.360E-06,-2.660
4.370E-06,-2.660
4.380E-06,-2.680
4.390E-06,-2.660
4.400E-06,-2.660
4.410E-06,-2.660
4.420E-06,-2.660
4.430E-06,-2.660
4.440E-06,-2.580
4.450E-06,-2.240
4.460E-06,-1.960
4.470E-06,-1.980
4.480E-06,-2.240
4.490E-06,-2.600
4.500E-06,-2.640
4.510E-06,-2.660
4.520E-06,-2.660
4.530E-06,-2.660
4.540E-06,-2.660
4.550E-06,-2.640
4.560E-06,-2.640
4.570E-06,-2.640
4.580E-06,-2.660
4.590E-06,-2.660
4.600E-06,-2.660
4.610E-06,-2.640
4.620E-06,-2.640
4.630E-06,-2.660
4.640E-06,-2.660
4.650E-06,-2.660
4.660E-06,-2.660
4.670E-06,-2.660
4.680E-06,-2.680
4.690E-06,-2.680
4.700E-06,-2.660
4.710E-06,-2.660
4.720E-06,-2.660
4.730E-06,-2.660
4.740E-06,-2.660
4.750E-06,-2.660
4.760E-06,-2.660
4.770E-06,-2.680
4.780E-06,-2.660
4.790E-06,-2.660
4.800E-06,-2.660
4.810E-06,-2.660
4.820E-06,-2.640
4.830E-06,-2.660
4.840E-06,-2.660
4.850E-06,-2.660
4.860E-06,-2.660
4.870E-06,-2.660
4.880E-06,-2.660
4.890E-06,-2.660
4.900E-06,-2.660
4.910E-06,-2.660
4.920E-06,-2.660
4.930E-06,-2.640
4.940E-06,-2.660
4.950E-06,-2.660
4.960E-06,-2.660
4.970E-06,-2.660
4.980E-06,-2.660
4.990E-06,-2.680
5.000E-06,-2.660
5.010E-06,-2.660
5.020E-06,-2.660
5.030E-06,-2.680
5.040E-06,-2.660
5.050E-06,-2.660
5.060E-06,-2.660
5.070E-06,-2.660
5.080E-06,-2.660
5.090E-06,-2.660
5.100E-06,-2.660
5.110E-06,-2.660
5.120E-06,-2.680
5.130E-06,-2.680
5.140E-06,-2.680
5.150E-06,-2.680
5.160E-06,-2.680
5.170E-06,-2.660
5.180E-06,-2.660
5.190E-06,-2.660
5.200E-06,-2.680
5.210E-06,-2.660
5.220E-06,-2.660
5.230E-06,-2.660
5.240E-06,-2.660
5.250E-06,-2.660
5.260E-06,-2.660
5.270E-06,-2.640
5.280E-06,-2.600
5.290E-06,-2.540
5.300E-06,-2.500
5.310E-06,-2.520
5.320E-06,-2.500
5.330E-06,-2.500
5.340E-06,-2.480
5.350E-06,-2.500
5.360E-06,-2.500
5.370E-06,-2.440
5.380E-06,-2.440
5.390E-06,-2.420
5.400E-06,-2.420
5.410E-06,-2.500
5.420E-06,-2.540
5.430E-06,-2.480
5.440E-06,-2.540
5.450E-06,-2.440
5.460E-06,-2.400
5.470E-06,-2.360
5.480E-06,-2.280
5.490E-06,-2.340
5.500E-06,-2.300
5.510E-06,-2.180
5.520E-06,-2.060
5.530E-06,-1.900
5.540E-06,-1.700
5.550E-06,-1.540
5.560E-06,-1.400
5.570E-06,-1.200
5.580E-06,-1.040
5.590E-06,-0.860
5.600E-06,-0.760
5.610E-06,-0.700
5.620E-06,-0.640
5.630E-06,-0.660
5.640E-06,-0.660
5.650E-06,-0.720
5.660E-06,-0.840
5.670E-06,-0.980
5.680E-06,-1.120
5.690E-06,-1.280
5.700E-06,-1.440
5.710E-06,-1.620
5.720E-06,-1.780
5.730E-06,-1.960
5.740E-06,-2.120
5.750E-06,-2.240
5.760E-06,-2.320
5.770E-06,-2.380
5.780E-06,-2.460
5.790E-06,-2.500
5.800E-06,-2.540
5.810E-06,-2.520
5.820E-06,-2.500
5.830E-06,-2.440
5.840E-06,-2.400
5.850E-06,-2.360
5.860E-06,-2.220
5.870E-06,-2.140
5.880E-06,-2.060
5.890E-06,-1.920
5.900E-06,-1.820
5.910E-06,-1.720
5.920E-06,-1.560
5.930E-06,-1.440
5.940E-06,-1.340
5.950E-06,-1.180
5.960E-06,-1.080
5.970E-06,-0.920
5.980E-06,-0.800
5.990E-06,-0.660
6.000E-06,-0.520
6.010E-06,-0.340
6.020E-06,-0.220
6.030E-06,-0.140
6.040E-06,-0.020
6.050E-06,0.080
6.060E-06,0.140
6.070E-06,0.140
6.080E-06,0.040
6.090E-06,0.000
6.100E-06,-0.040
6.110E-06,-0.180
6.120E-06,-0.260
6.130E-06,-0.340
6.140E-06,-0.400
6.150E-06,-0.500
6.160E-06,-0.580
6.170E-06,-0.580
6.180E-06,-0.600
6.190E-06,-0.560
6.200E-06,-0.540
6.210E-06,-0.520
6.220E-06,-0.480
6.230E-06,-0.420
6.240E-06,-0.520
6.250E-06,-0.580
6.260E-06,-0.660
6.270E-06,-0.640
6.280E-06,-0.700
6.290E-06,-0.720
6.300E-06,-0.760
6.310E-06,-0.900
6.320E-06,-1.020
6.330E-06,-1.020
6.340E-06,-1.100
6.350E-06,-1.120
6.360E-06,-1.100
6.370E-06,-1.100
6.380E-06,-1.100
6.390E-06,-1.100
6.400E-06,-1.020
6.410E-06,-0.980
6.420E-06,-0.960
6.430E-06,-0.960
6.440E-06,-0.940
6.450E-06,-0.940
6.460E-06,-0.900
6.470E-06,-0.880
6.480E-06,-0.840
6.490E-06,-0.820
6.500E-06,-0.780
6.510E-06,-0.740
6.520E-06,-0.700
6.530E-06,-0.600
6.540E-06,-0.540
6.550E-06,-0.420
6.560E-06,-0.320
6.570E-06,-0.260
6.580E-06,-0.160
6.590E-06,-0.020
6.600E-06,0.040
6.610E-06,0.120
6.620E-06,0.180
6.630E-06,0.260
6.640E-06,0.280
6.650E-06,0.360
6.660E-06,0.500
6.670E-06,0.500
6.680E-06,0.580
6.690E-06,0.560
6.700E-06,0.500
6.710E-06,0.380
6.720E-06,0.240
6.730E-06,0.080
6.740E-06,-0.120
6.750E-06,-0.320
6.760E-06,-0.520
6.770E-06,-0.720
6.780E-06,-0.880
6.790E-06,-1.020
6.800E-06,-1.060
6.810E-06,-1.180
6.820E-06,-1.240
6.830E-06,-1.240
6.840E-06,-1.160
6.850E-06,-1.120
6.860E-06,-1.020
6.870E-06,-0.880
6.880E-06,-0.720
6.890E-06,-0.580
6.900E-06,-0.360
6.910E-06,-0.160
6.920E-06,-0.040
6.930E-06,0.100
6.940E-06,0.220
6.950E-06,0.280
6.960E-06,0.280
6.970E-06,0.340
6.980E-06,0.420
6.990E-06,0.420
7.000E-06,0.480
7.010E-06,0.460
7.020E-06,0.480
7.030E-06,0.420
7.040E-06,0.440
7.050E-06,0.400
7.060E-06,0.320
7.070E-06,0.260
7.080E-06,0.180
7.090E-06,0.140
7.100E-06,0.060
7.110E-06,0.000
7.120E-06,-0.040
7.130E-06,-0.120
7.140E-06,-0.200
7.150E-06,-0.220
7.160E-06,-0.260
7.170E-06,-0.280
7.180E-06,-0.260
7.190E-06,-0.300
7.200E-06,-0.340
7.210E-06,-0.360
7.220E-06,-0.360
7.230E-06,-0.400
7.240E-06,-0.440
7.250E-06,-0.480
7.260E-06,-0.520
7.270E-06,-0.600
7.280E-06,-0.640
7.290E-06,-0.760
7.300E-06,-0.880
7.310E-06,-0.960
7.320E-06,-1.020
7.330E-06,-1.080
7.340E-06,-1.060
7.350E-06,-1.060
7.360E-06,-1.040
7.370E-06,-1.020
7.380E-06,-1.020
7.390E-06,-1.080
7.400E-06,-1.120
7.410E-06,-1.180
7.420E-06,-1.180
7.430E-06,-1.140
7.440E-06,-1.000
7.450E-06,-0.780
7.460E-06,-0.480
7.470E-06,-0.140
7.480E-06,0.160
7.490E-06,0.440
7.500E-06,0.700
7.510E-06,0.880
7.520E-06,0.960
7.530E-06,1.000
7.540E-06,1.000
7.550E-06,0.920
7.560E-06,0.780
7.570E-06,0.620
7.580E-06,0.460
7.590E-06,0.260
7.600E-06,0.080
7.610E-06,-0.060
7.620E-06,-0.160
7.630E-06,-0.220
7.640E-06,-0.260
7.650E-06,-0.300
7.660E-06,-0.260
7.670E-06,-0.300
7.680E-06,-0.320
7.690E-06,-0.320
7.700E-06,-0.340
7.710E-06,-0.340
7.720E-06,-0.240
7.730E-06,-0.200
7.740E-06,-0.160
7.750E-06,-0.100
7.760E-06,-0.040
7.770E-06,-0.020
7.780E-06,0.100
7.790E-06,0.200
7.800E-06,0.320
7.810E-06,0.380
7.820E-06,0.500
7.830E-06,0.640
7.840E-06,0.760
7.850E-06,0.860
7.860E-06,0.980
7.870E-06,1.080
7.880E-06,1.180
7.890E-06,1.300
7.900E-06,1.380
7.910E-06,1.420
7.920E-06,1.520
7.930E-06,1.580
7.940E-06,1.600
7.950E-06,1.660
7.960E-06,1.640
7.970E-06,1.640
7.980E-06,1.580
7.990E-06,1.500
8.000E-06,1.360
8.010E-06,1.180
8.020E-06,1.000
8.030E-06,0.800
8.040E-06,0.600
8.050E-06,0.400
8.060E-06,0.260
8.070E-06,0.160
8.080E-06,0.080
8.090E-06,0.100
8.100E-06,0.160
8.110E-06,0.260
8.120E-06,0.380
8.130E-06,0.500
8.140E-06,0.640
8.150E-06,0.720
8.160E-06,0.760
8.170E-06,0.800
8.180E-06,0.820
8.190E-06,0.780
8.200E-06,0.760
8.210E-06,0.740
8.220E-06,0.660
8.230E-06,0.620
8.240E-06,0.600
8.250E-06,0.600
8.260E-06,0.680
8.270E-06,0.720
8.280E-06,0.800
8.290E-06,0.940
8.300E-06,1.020
8.310E-06,1.100
8.320E-06,1.120
8.330E-06,1.160
8.340E-06,1.100
8.350E-06,1.100
8.360E-06,1.060
8.370E-06,1.020
8.380E-06,1.020
8.390E-06,0.960
8.400E-06,0.920
8.410E-06,0.880
8.420E-06,0.820
8.430E-06,0.780
8.440E-06,0.760
8.450E-06,0.740
8.460E-06,0.720
8.470E-06,0.780
8.480E-06,0.920
8.490E-06,1.000
8.500E-06,1.120
8.510E-06,1.240
8.520E-06,1.280
8.530E-06,1.360
8.540E-06,1.360
8.550E-06,1.300
8.560E-06,1.240
8.570E-06,1.160
8.580E-06,1.100
8.590E-06,1.020
8.600E-06,0.960
8.610E-06,0.860
8.620E-06,0.760
8.630E-06,0.600
8.640E-06,0.480
8.650E-06,0.380
8.660E-06,0.260
8.670E-06,0.180
8.680E-06,0.160
8.690E-06,0.080
8.700E-06,0.120
8.710E-06,0.100
8.720E-06,0.100
8.730E-06,0.080
8.740E-06,0.120
8.750E-06,0.140
8.760E-06,0.200
8.770E-06,0.300
8.780E-06,0.400
8.790E-06,0.520
8.800E-06,0.620
8.810E-06,0.760
8.820E-06,0.840
8.830E-06,0.900
8.840E-06,1.020
8.850E-06,1.040
8.860E-06,1.040
8.870E-06,1.100
8.880E-06,1.120
8.890E-06,1.160
8.900E-06,1.160
8.910E-06,1.180
8.920E-06,1.220
8.930E-06,1.260
8.940E-06,1.220
8.950E-06,1.240
8.960E-06,1.200
8.970E-06,1.160
8.980E-06,1.140
8.990E-06,1.100
9.000E-06,1.160
9.010E-06,1.140
9.020E-06,1.200
9.030E-06,1.220
9.040E-06,1.240
9.050E-06,1.300
9.060E-06,1.320
9.070E-06,1.360
9.080E-06,1.380
9.090E-06,1.440
9.100E-06,1.460
9.110E-06,1.460
9.120E-06,1.540
9.130E-06,1.560
9.140E-06,1.620
9.150E-06,1.660
9.160E-06,1.700
9.170E-06,1.720
9.180E-06,1.760
9.190E-06,1.740
9.200E-06,1.700
9.210E-06,1.660
9.220E-06,1.580
9.230E-06,1.480
9.240E-06,1.360
9.250E-06,1.300
9.260E-06,1.200
9.270E-06,1.160
9.280E-06,1.180
9.290E-06,1.180
9.300E-06,1.240
9.310E-06,1.360
9.320E-06,1.340
9.330E-06,1.420
9.340E-06,1.520
9.350E-06,1.620
9.360E-06,1.800
9.370E-06,1.980
9.380E-06,2.240
9.390E-06,2.540
9.400E-06,2.780
9.410E-06,2.780
9.420E-06,2.760
9.430E-06,2.780
9.440E-06,2.780
9.450E-06,2.760
9.460E-06,2.760
9.470E-06,2.780
9.480E-06,2.780
9.490E-06,2.760
9.500E-06,2.780
9.510E-06,2.760
9.520E-06,2.760
9.530E-06,2.760
9.540E-06,2.740
9.550E-06,2.760
9.560E-06,2.760
9.570E-06,2.780
9.580E-06,2.760
9.590E-06,2.760
9.600E-06,2.760
9.610E-06,2.740
9.620E-06,2.760
9.630E-06,2.760
9.640E-06,2.760
9.650E-06,2.740
9.660E-06,2.760
9.670E-06,2.780
9.680E-06,2.760
9.690E-06,2.760
9.700E-06,2.760
9.710E-06,2.780
9.720E-06,2.780
9.730E-06,2.760
