mediciones/Mediciones filtradas (saque las feas)/6-3/-12.5/WaveData5341.csv

#timebase=2000000(ps)
,#voltbase=500000(mv/100)
#size=4000
-2.250E-06,0.060
-2.240E-06,0.060
-2.230E-06,0.020
-2.220E-06,0.000
-2.210E-06,0.000
-2.200E-06,0.040
-2.190E-06,0.060
-2.180E-06,0.080
-2.170E-06,0.080
-2.160E-06,0.000
-2.150E-06,0.020
-2.140E-06,0.040
-2.130E-06,0.080
-2.120E-06,0.180
-2.110E-06,0.200
-2.100E-06,0.180
-2.090E-06,0.160
-2.080E-06,0.120
-2.070E-06,0.160
-2.060E-06,0.200
-2.050E-06,0.220
-2.040E-06,0.200
-2.030E-06,0.260
-2.020E-06,0.240
-2.010E-06,0.260
-2.000E-06,0.300
-1.990E-06,0.320
-1.980E-06,0.260
-1.970E-06,0.240
-1.960E-06,0.260
-1.950E-06,0.280
-1.940E-06,0.320
-1.930E-06,0.340
-1.920E-06,0.300
-1.910E-06,0.260
-1.900E-06,0.160
-1.890E-06,0.280
-1.880E-06,0.200
-1.870E-06,0.100
-1.860E-06,0.220
-1.850E-06,0.100
-1.840E-06,0.080
-1.830E-06,0.200
-1.820E-06,0.240
-1.810E-06,0.160
-1.800E-06,0.380
-1.790E-06,0.140
-1.780E-06,0.360
-1.770E-06,0.120
-1.760E-06,0.020
-1.750E-06,0.020
-1.740E-06,-0.040
-1.730E-06,0.020
-1.720E-06,0.060
-1.710E-06,0.200
-1.700E-06,0.060
-1.690E-06,0.160
-1.680E-06,0.260
-1.670E-06,0.220
-1.660E-06,0.220
-1.650E-06,0.180
-1.640E-06,0.060
-1.630E-06,0.120
-1.620E-06,0.160
-1.610E-06,0.340
-1.600E-06,0.360
-1.590E-06,0.220
-1.580E-06,0.280
-1.570E-06,0.080
-1.560E-06,0.080
-1.550E-06,0.140
-1.540E-06,0.100
-1.530E-06,0.120
-1.520E-06,0.140
-1.510E-06,0.080
-1.500E-06,0.100
-1.490E-06,0.060
-1.480E-06,0.060
-1.470E-06,0.020
-1.460E-06,0.000
-1.450E-06,0.020
-1.440E-06,0.000
-1.430E-06,0.020
-1.420E-06,0.060
-1.410E-06,0.000
-1.400E-06,0.020
-1.390E-06,-0.020
-1.380E-06,0.000
-1.370E-06,0.060
-1.360E-06,0.080
-1.350E-06,0.100
-1.340E-06,0.060
-1.330E-06,0.080
-1.320E-06,0.060
-1.310E-06,0.120
-1.300E-06,0.160
-1.290E-06,0.160
-1.280E-06,0.220
-1.270E-06,0.200
-1.260E-06,0.100
-1.250E-06,0.120
-1.240E-06,0.120
-1.230E-06,0.160
-1.220E-06,0.200
-1.210E-06,0.260
-1.200E-06,0.320
-1.190E-06,0.320
-1.180E-06,0.300
-1.170E-06,0.260
-1.160E-06,0.260
-1.150E-06,0.280
-1.140E-06,0.360
-1.130E-06,0.360
-1.120E-06,0.340
-1.110E-06,0.380
-1.100E-06,0.340
-1.090E-06,0.360
-1.080E-06,0.360
-1.070E-06,0.320
-1.060E-06,0.340
-1.050E-06,0.380
-1.040E-06,0.420
-1.030E-06,0.480
-1.020E-06,0.460
-1.010E-06,0.440
-1.000E-06,0.400
-9.900E-07,0.360
-9.800E-07,0.360
-9.700E-07,0.360
-9.600E-07,0.320
-9.500E-07,0.300
-9.400E-07,0.260
-9.300E-07,0.240
-9.200E-07,0.220
-9.100E-07,0.240
-9.000E-07,0.140
-8.900E-07,0.120
-8.800E-07,0.180
-8.700E-07,0.160
-8.600E-07,0.200
-8.500E-07,0.160
-8.400E-07,0.240
-8.300E-07,0.220
-8.200E-07,0.220
-8.100E-07,0.280
-8.000E-07,0.300
-7.900E-07,0.300
-7.800E-07,0.300
-7.700E-07,0.340
-7.600E-07,0.340
-7.500E-07,0.420
-7.400E-07,0.400
-7.300E-07,0.400
-7.200E-07,0.320
-7.100E-07,0.340
-7.000E-07,0.340
-6.900E-07,0.340
-6.800E-07,0.360
-6.700E-07,0.400
-6.600E-07,0.380
-6.500E-07,0.380
-6.400E-07,0.400
-6.300E-07,0.420
-6.200E-07,0.360
-6.100E-07,0.380
-6.000E-07,0.380
-5.900E-07,0.400
-5.800E-07,0.400
-5.700E-07,0.380
-5.600E-07,0.380
-5.500E-07,0.320
-5.400E-07,0.320
-5.300E-07,0.340
-5.200E-07,0.320
-5.100E-07,0.320
-5.000E-07,0.280
-4.900E-07,0.240
-4.800E-07,0.200
-4.700E-07,0.160
-4.600E-07,0.180
-4.500E-07,0.180
-4.400E-07,0.220
-4.300E-07,0.240
-4.200E-07,0.280
-4.100E-07,0.300
-4.000E-07,0.240
-3.900E-07,0.320
-3.800E-07,0.340
-3.700E-07,0.320
-3.600E-07,0.400
-3.500E-07,0.380
-3.400E-07,0.400
-3.300E-07,0.360
-3.200E-07,0.420
-3.100E-07,0.380
-3.000E-07,0.280
-2.900E-07,0.260
-2.800E-07,0.220
-2.700E-07,0.180
-2.600E-07,0.340
-2.500E-07,0.200
-2.400E-07,0.260
-2.300E-07,0.180
-2.200E-07,0.060
-2.100E-07,0.200
-2.000E-07,0.180
-1.900E-07,0.420
-1.800E-07,0.260
-1.700E-07,0.360
-1.600E-07,0.440
-1.500E-07,0.380
-1.400E-07,0.580
-1.300E-07,0.640
-1.200E-07,0.720
-1.100E-07,0.520
-1.000E-07,0.900
-9.000E-08,0.820
-8.000E-08,0.880
-7.000E-08,1.040
-6.000E-08,0.920
-5.000E-08,0.520
-4.000E-08,0.680
-3.000E-08,0.060
-2.000E-08,0.620
-1.000E-08,-0.160
0.000E+00,-0.820
1.000E-08,0.700
2.000E-08,-0.160
3.000E-08,1.980
4.000E-08,1.320
5.000E-08,1.120
6.000E-08,-0.340
7.000E-08,-0.240
8.000E-08,0.220
9.000E-08,1.160
1.000E-07,1.500
1.100E-07,0.900
1.200E-07,0.320
1.300E-07,-0.380
1.400E-07,0.420
1.500E-07,0.500
1.600E-07,0.400
1.700E-07,-0.020
1.800E-07,-0.180
1.900E-07,-0.040
2.000E-07,0.560
2.100E-07,1.120
2.200E-07,1.020
2.300E-07,0.320
2.400E-07,-0.160
2.500E-07,-0.240
2.600E-07,0.280
2.700E-07,0.760
2.800E-07,1.220
2.900E-07,0.880
3.000E-07,0.180
3.100E-07,0.260
3.200E-07,0.000
3.300E-07,0.140
3.400E-07,0.080
3.500E-07,-0.340
3.600E-07,-0.260
3.700E-07,-0.120
3.800E-07,0.040
3.900E-07,0.040
4.000E-07,-0.160
4.100E-07,-0.220
4.200E-07,-0.100
4.300E-07,0.260
4.400E-07,0.560
4.500E-07,0.400
4.600E-07,0.080
4.700E-07,-0.100
4.800E-07,0.060
4.900E-07,0.180
5.000E-07,0.340
5.100E-07,0.380
5.200E-07,0.200
5.300E-07,0.060
5.400E-07,0.180
5.500E-07,0.320
5.600E-07,0.400
5.700E-07,0.420
5.800E-07,0.340
5.900E-07,0.260
6.000E-07,0.280
6.100E-07,0.380
6.200E-07,0.460
6.300E-07,0.440
6.400E-07,0.400
6.500E-07,0.220
6.600E-07,0.220
6.700E-07,0.240
6.800E-07,0.020
6.900E-07,0.500
7.000E-07,0.180
7.100E-07,0.360
7.200E-07,0.080
7.300E-07,0.020
7.400E-07,-0.040
7.500E-07,-0.160
7.600E-07,-0.080
7.700E-07,0.120
7.800E-07,0.120
7.900E-07,-0.060
8.000E-07,-0.080
8.100E-07,-0.260
8.200E-07,-0.360
8.300E-07,-0.420
8.400E-07,-0.380
8.500E-07,-0.320
8.600E-07,-0.260
8.700E-07,-0.220
8.800E-07,-0.260
8.900E-07,-0.220
9.000E-07,-0.260
9.100E-07,-0.100
9.200E-07,0.000
9.300E-07,0.080
9.400E-07,0.220
9.500E-07,0.200
9.600E-07,0.180
9.700E-07,0.180
9.800E-07,0.100
9.900E-07,0.160
1.000E-06,0.180
1.010E-06,0.180
1.020E-06,0.120
1.030E-06,0.020
1.040E-06,0.840
1.050E-06,-0.680
1.060E-06,0.060
1.070E-06,1.160
1.080E-06,-2.660
1.090E-06,1.880
1.100E-06,-2.460
1.110E-06,-1.160
1.120E-06,0.520
1.130E-06,-1.280
1.140E-06,1.720
1.150E-06,-0.420
1.160E-06,0.780
1.170E-06,-0.780
1.180E-06,-0.680
1.190E-06,-0.120
1.200E-06,1.240
1.210E-06,0.240
1.220E-06,0.800
1.230E-06,-0.340
1.240E-06,-0.640
1.250E-06,-0.660
1.260E-06,0.200
1.270E-06,0.160
1.280E-06,-0.020
1.290E-06,-0.240
1.300E-06,-0.140
1.310E-06,-0.100
1.320E-06,0.520
1.330E-06,0.760
1.340E-06,0.320
1.350E-06,-0.160
1.360E-06,-0.140
1.370E-06,0.240
1.380E-06,0.440
1.390E-06,0.980
1.400E-06,0.420
1.410E-06,0.260
1.420E-06,-0.160
1.430E-06,0.280
1.440E-06,0.560
1.450E-06,1.020
1.460E-06,0.900
1.470E-06,0.600
1.480E-06,0.380
1.490E-06,0.300
1.500E-06,0.860
1.510E-06,0.700
1.520E-06,0.900
1.530E-06,0.480
1.540E-06,0.020
1.550E-06,-0.100
1.560E-06,-0.140
1.570E-06,0.420
1.580E-06,0.620
1.590E-06,0.900
1.600E-06,0.560
1.610E-06,0.140
1.620E-06,-0.020
1.630E-06,0.300
1.640E-06,0.580
1.650E-06,0.680
1.660E-06,0.520
1.670E-06,0.080
1.680E-06,-0.080
1.690E-06,-0.160
1.700E-06,0.060
1.710E-06,-0.080
1.720E-06,-0.320
1.730E-06,-0.500
1.740E-06,-0.680
1.750E-06,-0.560
1.760E-06,-0.120
1.770E-06,-0.040
1.780E-06,-0.180
1.790E-06,0.020
1.800E-06,-0.200
1.810E-06,0.220
1.820E-06,0.640
1.830E-06,0.420
1.840E-06,0.540
1.850E-06,0.500
1.860E-06,0.540
1.870E-06,0.780
1.880E-06,0.700
1.890E-06,0.860
1.900E-06,0.820
1.910E-06,0.720
1.920E-06,0.840
1.930E-06,0.740
1.940E-06,0.640
1.950E-06,0.580
1.960E-06,0.420
1.970E-06,0.420
1.980E-06,0.200
1.990E-06,0.640
2.000E-06,0.420
2.010E-06,0.540
2.020E-06,0.560
2.030E-06,0.740
2.040E-06,0.760
2.050E-06,0.820
2.060E-06,0.980
2.070E-06,0.880
2.080E-06,0.900
2.090E-06,0.800
2.100E-06,0.820
2.110E-06,0.700
2.120E-06,0.700
2.130E-06,0.660
2.140E-06,0.660
2.150E-06,0.460
2.160E-06,0.540
2.170E-06,0.380
2.180E-06,0.300
2.190E-06,0.280
2.200E-06,0.240
2.210E-06,0.180
2.220E-06,0.180
2.230E-06,0.200
2.240E-06,0.220
2.250E-06,0.320
2.260E-06,0.060
2.270E-06,0.080
2.280E-06,-0.240
2.290E-06,-0.180
2.300E-06,0.080
2.310E-06,0.100
2.320E-06,0.360
2.330E-06,0.420
2.340E-06,0.240
2.350E-06,0.800
2.360E-06,0.500
2.370E-06,0.720
2.380E-06,0.920
2.390E-06,0.480
2.400E-06,0.920
2.410E-06,1.000
2.420E-06,1.180
2.430E-06,1.340
2.440E-06,1.360
2.450E-06,1.140
2.460E-06,1.180
2.470E-06,1.060
2.480E-06,1.080
2.490E-06,0.820
2.500E-06,0.560
2.510E-06,0.760
2.520E-06,0.860
2.530E-06,0.860
2.540E-06,0.680
2.550E-06,0.500
2.560E-06,0.420
2.570E-06,0.580
2.580E-06,0.600
2.590E-06,0.600
2.600E-06,0.540
2.610E-06,0.500
2.620E-06,0.440
2.630E-06,0.560
2.640E-06,0.540
2.650E-06,0.480
2.660E-06,0.380
2.670E-06,0.300
2.680E-06,0.320
2.690E-06,0.260
2.700E-06,0.360
2.710E-06,0.320
2.720E-06,0.080
2.730E-06,0.020
2.740E-06,-0.160
2.750E-06,-0.340
2.760E-06,-0.260
2.770E-06,-0.240
2.780E-06,-0.400
2.790E-06,-0.440
2.800E-06,-0.680
2.810E-06,-0.660
2.820E-06,-0.700
2.830E-06,-0.480
2.840E-06,-0.340
2.850E-06,-0.320
2.860E-06,-0.320
2.870E-06,-0.320
2.880E-06,-0.160
2.890E-06,-0.080
2.900E-06,0.180
2.910E-06,0.040
2.920E-06,0.080
2.930E-06,-0.200
2.940E-06,-0.160
2.950E-06,-0.040
2.960E-06,-0.100
2.970E-06,0.040
2.980E-06,-0.180
2.990E-06,-0.180
3.000E-06,-0.240
3.010E-06,0.000
3.020E-06,0.020
3.030E-06,-0.260
3.040E-06,-0.400
3.050E-06,-1.020
3.060E-06,-1.020
3.070E-06,-1.020
3.080E-06,-0.940
3.090E-06,-0.960
3.100E-06,-1.360
3.110E-06,-1.620
3.120E-06,-1.640
3.130E-06,-1.860
3.140E-06,-1.820
3.150E-06,-1.940
3.160E-06,-2.300
3.170E-06,-2.480
3.180E-06,-2.340
3.190E-06,-2.160
3.200E-06,-1.740
3.210E-06,-1.800
3.220E-06,-1.520
3.230E-06,-1.520
3.240E-06,-1.300
3.250E-06,-0.700
3.260E-06,-0.420
3.270E-06,-0.340
3.280E-06,-0.700
3.290E-06,-1.060
3.300E-06,-1.540
3.310E-06,-1.940
3.320E-06,-2.480
3.330E-06,-2.680
3.340E-06,-2.660
3.350E-06,-2.660
3.360E-06,-2.660
3.370E-06,-2.660
3.380E-06,-2.660
3.390E-06,-2.660
3.400E-06,-2.660
3.410E-06,-2.660
3.420E-06,-2.660
3.430E-06,-2.660
3.440E-06,-2.660
3.450E-06,-2.660
3.460E-06,-2.660
3.470E-06,-2.660
3.480E-06,-2.660
3.490E-06,-2.660
3.500E-06,-2.660
3.510E-06,-2.660
3.520E-06,-2.680
3.530E-06,-2.680
3.540E-06,-2.680
3.550E-06,-2.660
3.560E-06,-2.660
3.570E-06,-2.640
3.580E-06,-2.660
3.590E-06,-2.660
3.600E-06,-2.660
3.610E-06,-2.660
3.620E-06,-2.660
3.630E-06,-2.680
3.640E-06,-2.680
3.650E-06,-2.680
3.660E-06,-2.680
3.670E-06,-2.680
3.680E-06,-2.660
3.690E-06,-2.660
3.700E-06,-2.640
3.710E-06,-2.660
3.720E-06,-2.660
3.730E-06,-2.660
3.740E-06,-2.660
3.750E-06,-2.660
3.760E-06,-2.660
3.770E-06,-2.660
3.780E-06,-2.660
3.790E-06,-2.660
3.800E-06,-2.660
3.810E-06,-2.660
3.820E-06,-2.660
3.830E-06,-2.640
3.840E-06,-2.660
3.850E-06,-2.660
3.860E-06,-2.680
3.870E-06,-2.680
3.880E-06,-2.660
3.890E-06,-2.660
3.900E-06,-2.660
3.910E-06,-2.680
3.920E-06,-2.660
3.930E-06,-2.660
3.940E-06,-2.660
3.950E-06,-2.660
3.960E-06,-2.660
3.970E-06,-2.640
3.980E-06,-2.660
3.990E-06,-2.660
4.000E-06,-2.660
4.010E-06,-2.660
4.020E-06,-2.660
4.030E-06,-2.680
4.040E-06,-2.660
4.050E-06,-2.660
4.060E-06,-2.660
4.070E-06,-2.660
4.080E-06,-2.660
4.090E-06,-2.660
4.100E-06,-2.680
4.110E-06,-2.680
4.120E-06,-2.660
4.130E-06,-2.660
4.140E-06,-2.660
4.150E-06,-2.660
4.160E-06,-2.660
4.170E-06,-2.640
4.180E-06,-2.400
4.190E-06,-2.280
4.200E-06,-2.140
4.210E-06,-2.040
4.220E-06,-1.980
4.230E-06,-1.940
4.240E-06,-1.760
4.250E-06,-1.700
4.260E-06,-1.620
4.270E-06,-1.500
4.280E-06,-1.400
4.290E-06,-1.300
4.300E-06,-1.240
4.310E-06,-1.180
4.320E-06,-1.040
4.330E-06,-1.040
4.340E-06,-1.040
4.350E-06,-1.060
4.360E-06,-1.100
4.370E-06,-1.140
4.380E-06,-1.100
4.390E-06,-1.120
4.400E-06,-1.140
4.410E-06,-1.160
4.420E-06,-1.280
4.430E-06,-1.400
4.440E-06,-1.460
4.450E-06,-1.480
4.460E-06,-1.540
4.470E-06,-1.560
4.480E-06,-1.520
4.490E-06,-1.520
4.500E-06,-1.480
4.510E-06,-1.460
4.520E-06,-1.420
4.530E-06,-1.460
4.540E-06,-1.480
4.550E-06,-1.440
4.560E-06,-1.440
4.570E-06,-1.380
4.580E-06,-1.400
4.590E-06,-1.480
4.600E-06,-1.620
4.610E-06,-1.680
4.620E-06,-1.760
4.630E-06,-1.860
4.640E-06,-1.940
4.650E-06,-2.020
4.660E-06,-2.120
4.670E-06,-2.200
4.680E-06,-2.180
4.690E-06,-2.200
4.700E-06,-2.200
4.710E-06,-2.220
4.720E-06,-2.240
4.730E-06,-2.260
4.740E-06,-2.240
4.750E-06,-2.200
4.760E-06,-2.160
4.770E-06,-2.120
4.780E-06,-2.080
4.790E-06,-2.020
4.800E-06,-1.940
4.810E-06,-1.840
4.820E-06,-1.800
4.830E-06,-1.720
4.840E-06,-1.600
4.850E-06,-1.500
4.860E-06,-1.420
4.870E-06,-1.280
4.880E-06,-1.180
4.890E-06,-1.180
4.900E-06,-1.180
4.910E-06,-1.140
4.920E-06,-1.160
4.930E-06,-1.140
4.940E-06,-1.080
4.950E-06,-1.060
4.960E-06,-1.040
4.970E-06,-1.100
4.980E-06,-1.100
4.990E-06,-1.100
5.000E-06,-1.180
5.010E-06,-1.200
5.020E-06,-1.240
5.030E-06,-1.240
5.040E-06,-1.200
5.050E-06,-1.120
5.060E-06,-1.040
5.070E-06,-0.940
5.080E-06,-0.860
5.090E-06,-0.740
5.100E-06,-0.660
5.110E-06,-0.540
5.120E-06,-0.460
5.130E-06,-0.420
5.140E-06,-0.400
5.150E-06,-0.360
5.160E-06,-0.320
5.170E-06,-0.320
5.180E-06,-0.320
5.190E-06,-0.340
5.200E-06,-0.340
5.210E-06,-0.360
5.220E-06,-0.360
5.230E-06,-0.320
5.240E-06,-0.320
5.250E-06,-0.340
5.260E-06,-0.380
5.270E-06,-0.400
5.280E-06,-0.360
5.290E-06,-0.360
5.300E-06,-0.300
5.310E-06,-0.260
5.320E-06,-0.260
5.330E-06,-0.220
5.340E-06,-0.180
5.350E-06,-0.140
5.360E-06,-0.120
5.370E-06,-0.140
5.380E-06,-0.260
5.390E-06,-0.340
5.400E-06,-0.520
5.410E-06,-0.660
5.420E-06,-0.780
5.430E-06,-0.920
5.440E-06,-1.100
5.450E-06,-1.220
5.460E-06,-1.340
5.470E-06,-1.460
5.480E-06,-1.540
5.490E-06,-1.520
5.500E-06,-1.520
5.510E-06,-1.420
5.520E-06,-1.340
5.530E-06,-1.200
5.540E-06,-1.080
5.550E-06,-1.020
5.560E-06,-1.000
5.570E-06,-0.900
5.580E-06,-0.760
5.590E-06,-0.640
5.600E-06,-0.440
5.610E-06,-0.220
5.620E-06,-0.060
5.630E-06,0.080
5.640E-06,0.040
5.650E-06,-0.020
5.660E-06,-0.220
5.670E-06,-0.380
5.680E-06,-0.500
5.690E-06,-0.580
5.700E-06,-0.600
5.710E-06,-0.580
5.720E-06,-0.540
5.730E-06,-0.520
5.740E-06,-0.400
5.750E-06,-0.320
5.760E-06,-0.260
5.770E-06,-0.160
5.780E-06,-0.060
5.790E-06,0.080
5.800E-06,0.180
5.810E-06,0.320
5.820E-06,0.420
5.830E-06,0.480
5.840E-06,0.560
5.850E-06,0.580
5.860E-06,0.620
5.870E-06,0.660
5.880E-06,0.660
5.890E-06,0.680
5.900E-06,0.580
5.910E-06,0.560
5.920E-06,0.540
5.930E-06,0.400
5.940E-06,0.280
5.950E-06,0.100
5.960E-06,-0.080
5.970E-06,-0.340
5.980E-06,-0.560
5.990E-06,-0.760
6.000E-06,-0.940
6.010E-06,-1.040
6.020E-06,-1.100
6.030E-06,-1.080
6.040E-06,-1.020
6.050E-06,-0.980
6.060E-06,-0.860
6.070E-06,-0.800
6.080E-06,-0.660
6.090E-06,-0.480
6.100E-06,-0.340
6.110E-06,-0.140
6.120E-06,0.040
6.130E-06,0.240
6.140E-06,0.360
6.150E-06,0.460
6.160E-06,0.520
6.170E-06,0.520
6.180E-06,0.480
6.190E-06,0.400
6.200E-06,0.260
6.210E-06,0.080
6.220E-06,-0.160
6.230E-06,-0.420
6.240E-06,-0.620
6.250E-06,-0.800
6.260E-06,-0.940
6.270E-06,-1.020
6.280E-06,-1.040
6.290E-06,-1.040
6.300E-06,-1.060
6.310E-06,-1.000
6.320E-06,-0.940
6.330E-06,-0.840
6.340E-06,-0.740
6.350E-06,-0.680
6.360E-06,-0.560
6.370E-06,-0.480
6.380E-06,-0.380
6.390E-06,-0.340
6.400E-06,-0.260
6.410E-06,-0.180
6.420E-06,-0.120
6.430E-06,-0.040
6.440E-06,0.000
6.450E-06,0.080
6.460E-06,0.180
6.470E-06,0.260
6.480E-06,0.340
6.490E-06,0.440
6.500E-06,0.520
6.510E-06,0.640
6.520E-06,0.740
6.530E-06,0.760
6.540E-06,0.840
6.550E-06,0.900
6.560E-06,0.940
6.570E-06,0.960
6.580E-06,0.980
6.590E-06,1.000
6.600E-06,1.060
6.610E-06,1.060
6.620E-06,1.080
6.630E-06,1.100
6.640E-06,1.100
6.650E-06,1.120
6.660E-06,1.180
6.670E-06,1.200
6.680E-06,1.260
6.690E-06,1.340
6.700E-06,1.260
6.710E-06,1.280
6.720E-06,1.220
6.730E-06,1.100
6.740E-06,1.000
6.750E-06,0.860
6.760E-06,0.760
6.770E-06,0.640
6.780E-06,0.500
6.790E-06,0.360
6.800E-06,0.200
6.810E-06,0.080
6.820E-06,-0.040
6.830E-06,-0.160
6.840E-06,-0.240
6.850E-06,-0.260
6.860E-06,-0.300
6.870E-06,-0.320
6.880E-06,-0.260
6.890E-06,-0.180
6.900E-06,-0.140
6.910E-06,-0.060
6.920E-06,-0.020
6.930E-06,0.080
6.940E-06,0.160
6.950E-06,0.240
6.960E-06,0.260
6.970E-06,0.400
6.980E-06,0.440
6.990E-06,0.520
7.000E-06,0.580
7.010E-06,0.660
7.020E-06,0.760
7.030E-06,0.820
7.040E-06,0.860
7.050E-06,0.940
7.060E-06,1.020
7.070E-06,1.120
7.080E-06,1.180
7.090E-06,1.280
7.100E-06,1.320
7.110E-06,1.340
7.120E-06,1.360
7.130E-06,1.300
7.140E-06,1.260
7.150E-06,1.180
7.160E-06,1.140
7.170E-06,1.060
7.180E-06,1.040
7.190E-06,0.980
7.200E-06,0.940
7.210E-06,0.900
7.220E-06,0.840
7.230E-06,0.820
7.240E-06,0.800
7.250E-06,0.860
7.260E-06,0.920
7.270E-06,0.940
7.280E-06,0.920
7.290E-06,0.940
7.300E-06,0.880
7.310E-06,0.820
7.320E-06,0.720
7.330E-06,0.680
7.340E-06,0.660
7.350E-06,0.660
7.360E-06,0.660
7.370E-06,0.680
7.380E-06,0.720
7.390E-06,0.700
7.400E-06,0.740
7.410E-06,0.720
7.420E-06,0.720
7.430E-06,0.740
7.440E-06,0.780
7.450E-06,0.780
7.460E-06,0.800
7.470E-06,0.840
7.480E-06,0.880
7.490E-06,0.880
7.500E-06,0.940
7.510E-06,0.920
7.520E-06,0.940
7.530E-06,0.960
7.540E-06,1.020
7.550E-06,1.060
7.560E-06,1.080
7.570E-06,1.120
7.580E-06,1.180
7.590E-06,1.180
7.600E-06,1.200
7.610E-06,1.240
7.620E-06,1.260
7.630E-06,1.260
7.640E-06,1.280
7.650E-06,1.340
7.660E-06,1.360
7.670E-06,1.400
7.680E-06,1.420
7.690E-06,1.420
7.700E-06,1.460
7.710E-06,1.500
7.720E-06,1.500
7.730E-06,1.520
7.740E-06,1.500
7.750E-06,1.500
7.760E-06,1.460
7.770E-06,1.380
7.780E-06,1.360
7.790E-06,1.260
7.800E-06,1.200
7.810E-06,1.120
7.820E-06,1.080
7.830E-06,1.040
7.840E-06,1.000
7.850E-06,1.040
7.860E-06,1.000
7.870E-06,1.000
7.880E-06,0.980
7.890E-06,1.020
7.900E-06,1.020
7.910E-06,1.040
7.920E-06,1.080
7.930E-06,1.100
7.940E-06,1.120
7.950E-06,1.160
7.960E-06,1.180
7.970E-06,1.220
7.980E-06,1.240
7.990E-06,1.320
8.000E-06,1.360
8.010E-06,1.400
8.020E-06,1.420
8.030E-06,1.460
8.040E-06,1.420
8.050E-06,1.460
8.060E-06,1.480
8.070E-06,1.460
8.080E-06,1.440
8.090E-06,1.420
8.100E-06,1.360
8.110E-06,1.340
8.120E-06,1.280
8.130E-06,1.240
8.140E-06,1.220
8.150E-06,1.180
8.160E-06,1.220
8.170E-06,1.220
8.180E-06,1.280
8.190E-06,1.300
8.200E-06,1.360
8.210E-06,1.480
8.220E-06,1.600
8.230E-06,1.780
8.240E-06,2.060
8.250E-06,2.440
8.260E-06,2.780
8.270E-06,2.780
8.280E-06,2.760
8.290E-06,2.780
8.300E-06,2.760
8.310E-06,2.760
8.320E-06,2.760
8.330E-06,2.760
8.340E-06,2.760
8.350E-06,2.740
8.360E-06,2.760
8.370E-06,2.760
8.380E-06,2.740
8.390E-06,2.760
8.400E-06,2.780
8.410E-06,2.760
8.420E-06,2.760
8.430E-06,2.760
8.440E-06,2.760
8.450E-06,2.740
8.460E-06,2.760
8.470E-06,2.780
8.480E-06,2.760
8.490E-06,2.780
8.500E-06,2.760
8.510E-06,2.780
8.520E-06,2.760
8.530E-06,2.760
8.540E-06,2.740
8.550E-06,2.760
8.560E-06,2.760
8.570E-06,2.760
8.580E-06,2.760
8.590E-06,2.780
8.600E-06,2.780
8.610E-06,2.760
8.620E-06,2.760
8.630E-06,2.760
8.640E-06,2.760
8.650E-06,2.740
8.660E-06,2.760
8.670E-06,2.760
8.680E-06,2.780
8.690E-06,2.760
8.700E-06,2.760
8.710E-06,2.740
8.720E-06,2.760
8.730E-06,2.760
8.740E-06,2.760
8.750E-06,2.760
8.760E-06,2.760
8.770E-06,2.780
8.780E-06,2.780
8.790E-06,2.760
8.800E-06,2.760
8.810E-06,2.760
8.820E-06,2.760
8.830E-06,2.760
8.840E-06,2.760
8.850E-06,2.780
8.860E-06,2.760
8.870E-06,2.740
8.880E-06,2.760
8.890E-06,2.780
8.900E-06,2.760
8.910E-06,2.700
8.920E-06,2.560
8.930E-06,2.440
8.940E-06,2.320
8.950E-06,2.200
8.960E-06,2.160
8.970E-06,2.100
8.980E-06,2.080
8.990E-06,2.060
9.000E-06,2.060
9.010E-06,2.040
9.020E-06,2.060
9.030E-06,2.040
9.040E-06,2.000
9.050E-06,1.980
9.060E-06,1.960
9.070E-06,1.960
9.080E-06,1.940
9.090E-06,1.900
9.100E-06,1.880
9.110E-06,1.860
9.120E-06,1.840
9.130E-06,1.820
9.140E-06,1.800
9.150E-06,1.780
9.160E-06,1.740
9.170E-06,1.740
9.180E-06,1.680
9.190E-06,1.640
9.200E-06,1.580
9.210E-06,1.560
9.220E-06,1.520
9.230E-06,1.480
9.240E-06,1.440
9.250E-06,1.420
9.260E-06,1.440
9.270E-06,1.460
9.280E-06,1.440
9.290E-06,1.420
9.300E-06,1.420
9.310E-06,1.460
9.320E-06,1.440
9.330E-06,1.440
9.340E-06,1.440
9.350E-06,1.460
9.360E-06,1.480
9.370E-06,1.420
9.380E-06,1.440
9.390E-06,1.400
9.400E-06,1.380
9.410E-06,1.340
9.420E-06,1.340
9.430E-06,1.320
9.440E-06,1.280
9.450E-06,1.240
9.460E-06,1.220
9.470E-06,1.180
9.480E-06,1.220
9.490E-06,1.220
9.500E-06,1.200
9.510E-06,1.220
9.520E-06,1.240
9.530E-06,1.300
9.540E-06,1.300
9.550E-06,1.320
9.560E-06,1.340
9.570E-06,1.320
9.580E-06,1.340
9.590E-06,1.260
9.600E-06,1.220
9.610E-06,1.220
9.620E-06,1.200
9.630E-06,1.140
9.640E-06,1.100
9.650E-06,1.100
9.660E-06,1.080
9.670E-06,1.040
9.680E-06,1.020
9.690E-06,1.020
9.700E-06,1.000
9.710E-06,0.980
9.720E-06,0.940
9.730E-06,0.940
9.740E-06,0.900
9.750E-06,0.840
9.760E-06,0.820
9.770E-06,0.740
9.780E-06,0.720
9.790E-06,0.700
9.800E-06,0.680
