mediciones/Mediciones filtradas (saque las feas)/6-3/-12.5/WaveData5322.csv

#timebase=2000000(ps)
,#voltbase=100000(mv/100)
#size=4000
-2.250E-06,0.052
-2.240E-06,0.092
-2.230E-06,-0.064
-2.220E-06,-0.156
-2.210E-06,-0.160
-2.200E-06,-0.284
-2.190E-06,-0.168
-2.180E-06,-0.036
-2.170E-06,0.140
-2.160E-06,0.208
-2.150E-06,0.148
-2.140E-06,0.012
-2.130E-06,-0.124
-2.120E-06,-0.088
-2.110E-06,-0.032
-2.100E-06,0.028
-2.090E-06,0.080
-2.080E-06,0.096
-2.070E-06,-0.012
-2.060E-06,-0.072
-2.050E-06,-0.104
-2.040E-06,-0.084
-2.030E-06,-0.040
-2.020E-06,0.044
-2.010E-06,0.068
-2.000E-06,0.056
-1.990E-06,0.012
-1.980E-06,-0.036
-1.970E-06,-0.048
-1.960E-06,-0.040
-1.950E-06,0.012
-1.940E-06,0.036
-1.930E-06,0.044
-1.920E-06,0.020
-1.910E-06,-0.004
-1.900E-06,-0.024
-1.890E-06,-0.020
-1.880E-06,-0.004
-1.870E-06,0.024
-1.860E-06,0.032
-1.850E-06,0.020
-1.840E-06,-0.008
-1.830E-06,-0.016
-1.820E-06,-0.008
-1.810E-06,0.000
-1.800E-06,0.016
-1.790E-06,0.020
-1.780E-06,0.008
-1.770E-06,-0.004
-1.760E-06,-0.004
-1.750E-06,-0.004
-1.740E-06,0.000
-1.730E-06,-0.004
-1.720E-06,0.004
-1.710E-06,0.004
-1.700E-06,0.004
-1.690E-06,0.012
-1.680E-06,0.008
-1.670E-06,0.008
-1.660E-06,0.000
-1.650E-06,-0.004
-1.640E-06,0.000
-1.630E-06,-0.004
-1.620E-06,0.008
-1.610E-06,0.016
-1.600E-06,0.020
-1.590E-06,0.012
-1.580E-06,0.008
-1.570E-06,0.004
-1.560E-06,0.008
-1.550E-06,0.012
-1.540E-06,0.012
-1.530E-06,0.020
-1.520E-06,0.028
-1.510E-06,0.024
-1.500E-06,0.024
-1.490E-06,0.020
-1.480E-06,0.020
-1.470E-06,0.024
-1.460E-06,0.032
-1.450E-06,0.032
-1.440E-06,0.052
-1.430E-06,0.060
-1.420E-06,0.060
-1.410E-06,0.060
-1.400E-06,0.060
-1.390E-06,0.068
-1.380E-06,0.084
-1.370E-06,0.096
-1.360E-06,0.112
-1.350E-06,0.120
-1.340E-06,0.120
-1.330E-06,0.108
-1.320E-06,0.104
-1.310E-06,0.096
-1.300E-06,0.092
-1.290E-06,0.112
-1.280E-06,0.108
-1.270E-06,0.120
-1.260E-06,0.076
-1.250E-06,0.052
-1.240E-06,0.012
-1.230E-06,-0.020
-1.220E-06,0.000
-1.210E-06,-0.032
-1.200E-06,0.004
-1.190E-06,0.036
-1.180E-06,0.020
-1.170E-06,0.104
-1.160E-06,0.068
-1.150E-06,0.056
-1.140E-06,0.044
-1.130E-06,0.028
-1.120E-06,0.064
-1.110E-06,0.076
-1.100E-06,0.100
-1.090E-06,0.088
-1.080E-06,0.080
-1.070E-06,0.056
-1.060E-06,0.012
-1.050E-06,0.020
-1.040E-06,0.044
-1.030E-06,0.016
-1.020E-06,-0.088
-1.010E-06,-0.168
-1.000E-06,-0.276
-9.900E-07,-0.384
-9.800E-07,-0.348
-9.700E-07,-0.252
-9.600E-07,-0.144
-9.500E-07,0.024
-9.400E-07,0.008
-9.300E-07,0.016
-9.200E-07,-0.124
-9.100E-07,-0.152
-9.000E-07,-0.148
-8.900E-07,-0.068
-8.800E-07,-0.004
-8.700E-07,0.088
-8.600E-07,0.068
-8.500E-07,0.036
-8.400E-07,-0.012
-8.300E-07,-0.032
-8.200E-07,-0.064
-8.100E-07,-0.040
-8.000E-07,0.008
-7.900E-07,0.060
-7.800E-07,0.028
-7.700E-07,0.024
-7.600E-07,-0.028
-7.500E-07,-0.020
-7.400E-07,-0.024
-7.300E-07,-0.004
-7.200E-07,0.016
-7.100E-07,-0.004
-7.000E-07,0.008
-6.900E-07,-0.032
-6.800E-07,-0.012
-6.700E-07,-0.004
-6.600E-07,0.008
-6.500E-07,0.032
-6.400E-07,0.020
-6.300E-07,0.040
-6.200E-07,0.012
-6.100E-07,0.004
-6.000E-07,-0.012
-5.900E-07,-0.008
-5.800E-07,0.004
-5.700E-07,0.008
-5.600E-07,0.020
-5.500E-07,0.024
-5.400E-07,0.020
-5.300E-07,0.016
-5.200E-07,0.024
-5.100E-07,0.024
-5.000E-07,0.036
-4.900E-07,0.048
-4.800E-07,0.048
-4.700E-07,0.060
-4.600E-07,0.056
-4.500E-07,0.064
-4.400E-07,0.080
-4.300E-07,0.076
-4.200E-07,0.072
-4.100E-07,0.068
-4.000E-07,0.076
-3.900E-07,0.088
-3.800E-07,0.088
-3.700E-07,0.096
-3.600E-07,0.096
-3.500E-07,0.104
-3.400E-07,0.104
-3.300E-07,0.112
-3.200E-07,0.104
-3.100E-07,0.104
-3.000E-07,0.124
-2.900E-07,0.136
-2.800E-07,0.152
-2.700E-07,0.152
-2.600E-07,0.164
-2.500E-07,0.160
-2.400E-07,0.160
-2.300E-07,0.172
-2.200E-07,0.176
-2.100E-07,0.188
-2.000E-07,0.164
-1.900E-07,0.164
-1.800E-07,0.144
-1.700E-07,0.156
-1.600E-07,0.144
-1.500E-07,0.164
-1.400E-07,0.112
-1.300E-07,0.064
-1.200E-07,-0.004
-1.100E-07,0.000
-1.000E-07,0.060
-9.000E-08,0.144
-8.000E-08,0.192
-7.000E-08,0.084
-6.000E-08,-0.028
-5.000E-08,-0.284
-4.000E-08,-0.472
-3.000E-08,-0.296
-2.000E-08,-0.108
-1.000E-08,0.300
0.000E+00,0.444
1.000E-08,0.492
2.000E-08,0.232
3.000E-08,-0.092
4.000E-08,-0.344
5.000E-08,-0.512
6.000E-08,-0.512
7.000E-08,-0.512
8.000E-08,-0.448
9.000E-08,-0.208
1.000E-07,-0.112
1.100E-07,0.060
1.200E-07,-0.068
1.300E-07,-0.084
1.400E-07,-0.228
1.500E-07,-0.204
1.600E-07,-0.116
1.700E-07,-0.044
1.800E-07,-0.036
1.900E-07,0.060
2.000E-07,0.056
2.100E-07,0.052
2.200E-07,0.008
2.300E-07,-0.008
2.400E-07,0.048
2.500E-07,0.072
2.600E-07,0.080
2.700E-07,0.072
2.800E-07,0.088
2.900E-07,0.084
3.000E-07,0.064
3.100E-07,0.072
3.200E-07,0.076
3.300E-07,0.136
3.400E-07,0.188
3.500E-07,0.208
3.600E-07,0.196
3.700E-07,0.164
3.800E-07,0.144
3.900E-07,0.156
4.000E-07,0.196
4.100E-07,0.224
4.200E-07,0.236
4.300E-07,0.208
4.400E-07,0.176
4.500E-07,0.156
4.600E-07,0.160
4.700E-07,0.180
4.800E-07,0.196
4.900E-07,0.196
5.000E-07,0.184
5.100E-07,0.164
5.200E-07,0.172
5.300E-07,0.164
5.400E-07,0.176
5.500E-07,0.176
5.600E-07,0.184
5.700E-07,0.180
5.800E-07,0.176
5.900E-07,0.176
6.000E-07,0.184
6.100E-07,0.180
6.200E-07,0.176
6.300E-07,0.156
6.400E-07,0.144
6.500E-07,0.128
6.600E-07,0.128
6.700E-07,0.132
6.800E-07,0.124
6.900E-07,0.108
7.000E-07,0.096
7.100E-07,0.080
7.200E-07,0.092
7.300E-07,0.112
7.400E-07,0.144
7.500E-07,0.164
7.600E-07,0.164
7.700E-07,0.160
7.800E-07,0.144
7.900E-07,0.132
8.000E-07,0.120
8.100E-07,0.080
8.200E-07,0.060
8.300E-07,0.016
8.400E-07,-0.068
8.500E-07,-0.076
8.600E-07,-0.160
8.700E-07,-0.132
8.800E-07,-0.176
8.900E-07,-0.184
9.000E-07,-0.164
9.100E-07,-0.168
9.200E-07,-0.136
9.300E-07,-0.028
9.400E-07,-0.096
9.500E-07,0.000
9.600E-07,-0.060
9.700E-07,0.008
9.800E-07,0.036
9.900E-07,0.108
1.000E-06,0.152
1.010E-06,0.160
1.020E-06,0.184
1.030E-06,0.160
1.040E-06,0.160
1.050E-06,0.172
1.060E-06,0.204
1.070E-06,0.208
1.080E-06,0.220
1.090E-06,0.196
1.100E-06,0.168
1.110E-06,0.136
1.120E-06,0.140
1.130E-06,0.160
1.140E-06,0.180
1.150E-06,0.204
1.160E-06,0.208
1.170E-06,0.192
1.180E-06,0.164
1.190E-06,0.144
1.200E-06,0.140
1.210E-06,0.156
1.220E-06,0.180
1.230E-06,0.204
1.240E-06,0.204
1.250E-06,0.180
1.260E-06,0.160
1.270E-06,0.148
1.280E-06,0.152
1.290E-06,0.164
1.300E-06,0.188
1.310E-06,0.196
1.320E-06,0.192
1.330E-06,0.172
1.340E-06,0.164
1.350E-06,0.160
1.360E-06,0.160
1.370E-06,0.168
1.380E-06,0.176
1.390E-06,0.184
1.400E-06,0.180
1.410E-06,0.176
1.420E-06,0.172
1.430E-06,0.164
1.440E-06,0.164
1.450E-06,0.160
1.460E-06,0.160
1.470E-06,0.164
1.480E-06,0.168
1.490E-06,0.172
1.500E-06,0.160
1.510E-06,0.160
1.520E-06,0.156
1.530E-06,0.156
1.540E-06,0.152
1.550E-06,0.160
1.560E-06,0.176
1.570E-06,0.168
1.580E-06,0.160
1.590E-06,0.160
1.600E-06,0.156
1.610E-06,0.164
1.620E-06,0.164
1.630E-06,0.172
1.640E-06,0.176
1.650E-06,0.172
1.660E-06,0.160
1.670E-06,0.160
1.680E-06,0.160
1.690E-06,0.160
1.700E-06,0.172
1.710E-06,0.176
1.720E-06,0.172
1.730E-06,0.168
1.740E-06,0.168
1.750E-06,0.160
1.760E-06,0.160
1.770E-06,0.164
1.780E-06,0.156
1.790E-06,0.160
1.800E-06,0.168
1.810E-06,0.164
1.820E-06,0.164
1.830E-06,0.168
1.840E-06,0.160
1.850E-06,0.164
1.860E-06,0.156
1.870E-06,0.164
1.880E-06,0.172
1.890E-06,0.176
1.900E-06,0.164
1.910E-06,0.168
1.920E-06,0.168
1.930E-06,0.160
1.940E-06,0.164
1.950E-06,0.168
1.960E-06,0.164
1.970E-06,0.160
1.980E-06,0.164
1.990E-06,0.168
2.000E-06,0.160
2.010E-06,0.160
2.020E-06,0.152
2.030E-06,0.160
2.040E-06,0.164
2.050E-06,0.160
2.060E-06,0.156
2.070E-06,0.160
2.080E-06,0.160
2.090E-06,0.160
2.100E-06,0.156
2.110E-06,0.156
2.120E-06,0.164
2.130E-06,0.156
2.140E-06,0.160
2.150E-06,0.164
2.160E-06,0.160
2.170E-06,0.160
2.180E-06,0.160
2.190E-06,0.160
2.200E-06,0.152
2.210E-06,0.156
2.220E-06,0.160
2.230E-06,0.156
2.240E-06,0.152
2.250E-06,0.152
2.260E-06,0.152
2.270E-06,0.144
2.280E-06,0.152
2.290E-06,0.152
2.300E-06,0.156
2.310E-06,0.156
2.320E-06,0.156
2.330E-06,0.156
2.340E-06,0.148
2.350E-06,0.148
2.360E-06,0.144
2.370E-06,0.144
2.380E-06,0.152
2.390E-06,0.152
2.400E-06,0.144
2.410E-06,0.144
2.420E-06,0.140
2.430E-06,0.144
2.440E-06,0.140
2.450E-06,0.144
2.460E-06,0.144
2.470E-06,0.148
2.480E-06,0.140
2.490E-06,0.140
2.500E-06,0.140
2.510E-06,0.136
2.520E-06,0.136
2.530E-06,0.140
2.540E-06,0.140
2.550E-06,0.136
2.560E-06,0.140
2.570E-06,0.144
2.580E-06,0.144
2.590E-06,0.140
2.600E-06,0.136
2.610E-06,0.140
2.620E-06,0.136
2.630E-06,0.140
2.640E-06,0.140
2.650E-06,0.140
2.660E-06,0.140
2.670E-06,0.136
2.680E-06,0.136
2.690E-06,0.136
2.700E-06,0.136
2.710E-06,0.136
2.720E-06,0.144
2.730E-06,0.144
2.740E-06,0.140
2.750E-06,0.140
2.760E-06,0.136
2.770E-06,0.136
2.780E-06,0.136
2.790E-06,0.136
2.800E-06,0.140
2.810E-06,0.136
2.820E-06,0.136
2.830E-06,0.132
2.840E-06,0.132
2.850E-06,0.124
2.860E-06,0.128
2.870E-06,0.128
2.880E-06,0.132
2.890E-06,0.124
2.900E-06,0.124
2.910E-06,0.128
2.920E-06,0.128
2.930E-06,0.124
2.940E-06,0.124
2.950E-06,0.128
2.960E-06,0.124
2.970E-06,0.124
2.980E-06,0.128
2.990E-06,0.132
3.000E-06,0.132
3.010E-06,0.124
3.020E-06,0.124
3.030E-06,0.124
3.040E-06,0.124
3.050E-06,0.128
3.060E-06,0.128
3.070E-06,0.124
3.080E-06,0.124
3.090E-06,0.124
3.100E-06,0.124
3.110E-06,0.124
3.120E-06,0.124
3.130E-06,0.124
3.140E-06,0.124
3.150E-06,0.124
3.160E-06,0.124
3.170E-06,0.120
3.180E-06,0.124
3.190E-06,0.128
3.200E-06,0.128
3.210E-06,0.124
3.220E-06,0.124
3.230E-06,0.124
3.240E-06,0.124
3.250E-06,0.124
3.260E-06,0.120
3.270E-06,0.120
3.280E-06,0.116
3.290E-06,0.124
3.300E-06,0.120
3.310E-06,0.124
3.320E-06,0.120
3.330E-06,0.116
3.340E-06,0.104
3.350E-06,0.108
3.360E-06,0.104
3.370E-06,0.104
3.380E-06,0.112
3.390E-06,0.124
3.400E-06,0.124
3.410E-06,0.120
3.420E-06,0.112
3.430E-06,0.104
3.440E-06,0.104
3.450E-06,0.112
3.460E-06,0.120
3.470E-06,0.124
3.480E-06,0.124
3.490E-06,0.120
3.500E-06,0.112
3.510E-06,0.104
3.520E-06,0.104
3.530E-06,0.108
3.540E-06,0.108
3.550E-06,0.108
3.560E-06,0.108
3.570E-06,0.108
3.580E-06,0.104
3.590E-06,0.104
3.600E-06,0.104
3.610E-06,0.100
3.620E-06,0.100
3.630E-06,0.100
3.640E-06,0.100
3.650E-06,0.100
3.660E-06,0.100
3.670E-06,0.100
3.680E-06,0.104
3.690E-06,0.100
3.700E-06,0.096
3.710E-06,0.092
3.720E-06,0.096
3.730E-06,0.096
3.740E-06,0.096
3.750E-06,0.100
3.760E-06,0.096
3.770E-06,0.092
3.780E-06,0.096
3.790E-06,0.096
3.800E-06,0.100
3.810E-06,0.092
3.820E-06,0.092
3.830E-06,0.092
3.840E-06,0.096
3.850E-06,0.096
3.860E-06,0.096
3.870E-06,0.092
3.880E-06,0.092
3.890E-06,0.096
3.900E-06,0.096
3.910E-06,0.092
3.920E-06,0.096
3.930E-06,0.092
3.940E-06,0.092
3.950E-06,0.096
3.960E-06,0.088
3.970E-06,0.088
3.980E-06,0.092
3.990E-06,0.092
4.000E-06,0.096
4.010E-06,0.092
4.020E-06,0.088
4.030E-06,0.088
4.040E-06,0.092
4.050E-06,0.092
4.060E-06,0.096
4.070E-06,0.092
4.080E-06,0.092
4.090E-06,0.088
4.100E-06,0.088
4.110E-06,0.092
4.120E-06,0.092
4.130E-06,0.084
4.140E-06,0.088
4.150E-06,0.088
4.160E-06,0.088
4.170E-06,0.088
4.180E-06,0.088
4.190E-06,0.088
4.200E-06,0.088
4.210E-06,0.092
4.220E-06,0.088
4.230E-06,0.092
4.240E-06,0.088
4.250E-06,0.084
4.260E-06,0.088
4.270E-06,0.080
4.280E-06,0.080
4.290E-06,0.076
4.300E-06,0.084
4.310E-06,0.080
4.320E-06,0.088
4.330E-06,0.080
4.340E-06,0.076
4.350E-06,0.076
4.360E-06,0.072
4.370E-06,0.072
4.380E-06,0.080
4.390E-06,0.080
4.400E-06,0.080
4.410E-06,0.080
4.420E-06,0.080
4.430E-06,0.080
4.440E-06,0.080
4.450E-06,0.076
4.460E-06,0.076
4.470E-06,0.080
4.480E-06,0.076
4.490E-06,0.080
4.500E-06,0.076
4.510E-06,0.072
4.520E-06,0.076
4.530E-06,0.068
4.540E-06,0.072
4.550E-06,0.076
4.560E-06,0.068
4.570E-06,0.076
4.580E-06,0.072
4.590E-06,0.072
4.600E-06,0.072
4.610E-06,0.072
4.620E-06,0.068
4.630E-06,0.076
4.640E-06,0.072
4.650E-06,0.068
4.660E-06,0.068
4.670E-06,0.064
4.680E-06,0.072
4.690E-06,0.064
4.700E-06,0.072
4.710E-06,0.064
4.720E-06,0.064
4.730E-06,0.064
4.740E-06,0.060
4.750E-06,0.064
4.760E-06,0.068
4.770E-06,0.064
4.780E-06,0.060
4.790E-06,0.064
4.800E-06,0.060
4.810E-06,0.060
4.820E-06,0.060
4.830E-06,0.056
4.840E-06,0.060
4.850E-06,0.064
4.860E-06,0.060
4.870E-06,0.064
4.880E-06,0.064
4.890E-06,0.060
4.900E-06,0.060
4.910E-06,0.060
4.920E-06,0.064
4.930E-06,0.060
4.940E-06,0.064
4.950E-06,0.064
4.960E-06,0.064
4.970E-06,0.056
4.980E-06,0.056
4.990E-06,0.060
5.000E-06,0.056
5.010E-06,0.060
5.020E-06,0.056
5.030E-06,0.056
5.040E-06,0.060
5.050E-06,0.060
5.060E-06,0.056
5.070E-06,0.056
5.080E-06,0.056
5.090E-06,0.056
5.100E-06,0.060
5.110E-06,0.056
5.120E-06,0.060
5.130E-06,0.052
5.140E-06,0.052
5.150E-06,0.052
5.160E-06,0.052
5.170E-06,0.056
5.180E-06,0.056
5.190E-06,0.052
5.200E-06,0.052
5.210E-06,0.048
5.220E-06,0.052
5.230E-06,0.056
5.240E-06,0.052
5.250E-06,0.056
5.260E-06,0.052
5.270E-06,0.056
5.280E-06,0.048
5.290E-06,0.044
5.300E-06,0.048
5.310E-06,0.048
5.320E-06,0.056
5.330E-06,0.056
5.340E-06,0.052
5.350E-06,0.052
5.360E-06,0.048
5.370E-06,0.044
5.380E-06,0.048
5.390E-06,0.044
5.400E-06,0.052
5.410E-06,0.052
5.420E-06,0.048
5.430E-06,0.056
5.440E-06,0.048
5.450E-06,0.044
5.460E-06,0.040
5.470E-06,0.044
5.480E-06,0.048
5.490E-06,0.044
5.500E-06,0.044
5.510E-06,0.044
5.520E-06,0.040
5.530E-06,0.044
5.540E-06,0.044
5.550E-06,0.040
5.560E-06,0.044
5.570E-06,0.044
5.580E-06,0.044
5.590E-06,0.040
5.600E-06,0.044
5.610E-06,0.048
5.620E-06,0.044
5.630E-06,0.040
5.640E-06,0.040
5.650E-06,0.048
5.660E-06,0.048
5.670E-06,0.044
5.680E-06,0.044
5.690E-06,0.048
5.700E-06,0.044
5.710E-06,0.036
5.720E-06,0.040
5.730E-06,0.044
5.740E-06,0.044
5.750E-06,0.044
5.760E-06,0.044
5.770E-06,0.044
5.780E-06,0.044
5.790E-06,0.036
5.800E-06,0.036
5.810E-06,0.032
5.820E-06,0.040
5.830E-06,0.040
5.840E-06,0.036
5.850E-06,0.032
5.860E-06,0.036
5.870E-06,0.032
5.880E-06,0.036
5.890E-06,0.036
5.900E-06,0.036
5.910E-06,0.032
5.920E-06,0.036
5.930E-06,0.032
5.940E-06,0.032
5.950E-06,0.036
5.960E-06,0.032
5.970E-06,0.028
5.980E-06,0.032
5.990E-06,0.036
6.000E-06,0.032
6.010E-06,0.028
6.020E-06,0.032
6.030E-06,0.036
6.040E-06,0.032
6.050E-06,0.024
6.060E-06,0.028
6.070E-06,0.024
6.080E-06,0.028
6.090E-06,0.028
6.100E-06,0.028
6.110E-06,0.028
6.120E-06,0.028
6.130E-06,0.028
6.140E-06,0.024
6.150E-06,0.028
6.160E-06,0.028
6.170E-06,0.032
6.180E-06,0.024
6.190E-06,0.028
6.200E-06,0.028
6.210E-06,0.028
6.220E-06,0.028
6.230E-06,0.028
6.240E-06,0.024
6.250E-06,0.024
6.260E-06,0.032
6.270E-06,0.024
6.280E-06,0.020
6.290E-06,0.024
6.300E-06,0.024
6.310E-06,0.028
6.320E-06,0.024
6.330E-06,0.016
6.340E-06,0.024
6.350E-06,0.024
6.360E-06,0.024
6.370E-06,0.024
6.380E-06,0.028
6.390E-06,0.024
6.400E-06,0.024
6.410E-06,0.028
6.420E-06,0.024
6.430E-06,0.024
6.440E-06,0.028
6.450E-06,0.028
6.460E-06,0.020
6.470E-06,0.024
6.480E-06,0.028
6.490E-06,0.028
6.500E-06,0.020
6.510E-06,0.020
6.520E-06,0.024
6.530E-06,0.024
6.540E-06,0.024
6.550E-06,0.020
6.560E-06,0.020
6.570E-06,0.024
6.580E-06,0.020
6.590E-06,0.020
6.600E-06,0.020
6.610E-06,0.012
6.620E-06,0.012
6.630E-06,0.012
6.640E-06,0.016
6.650E-06,0.012
6.660E-06,0.012
6.670E-06,0.016
6.680E-06,0.012
6.690E-06,0.008
6.700E-06,0.004
6.710E-06,0.012
6.720E-06,0.008
6.730E-06,0.008
6.740E-06,0.012
6.750E-06,0.012
6.760E-06,0.012
6.770E-06,0.008
6.780E-06,0.008
6.790E-06,0.008
6.800E-06,0.012
6.810E-06,0.016
6.820E-06,0.008
6.830E-06,0.012
6.840E-06,0.012
6.850E-06,0.008
6.860E-06,0.008
6.870E-06,0.008
6.880E-06,0.008
6.890E-06,0.008
6.900E-06,0.012
6.910E-06,0.012
6.920E-06,0.004
6.930E-06,0.004
6.940E-06,0.000
6.950E-06,0.004
6.960E-06,0.008
6.970E-06,0.008
6.980E-06,0.008
6.990E-06,0.012
7.000E-06,0.004
7.010E-06,0.004
7.020E-06,0.004
7.030E-06,0.004
7.040E-06,0.004
7.050E-06,0.004
7.060E-06,0.008
7.070E-06,0.008
7.080E-06,0.008
7.090E-06,0.008
7.100E-06,0.008
7.110E-06,0.000
7.120E-06,0.004
7.130E-06,0.000
7.140E-06,0.004
7.150E-06,0.004
7.160E-06,0.004
7.170E-06,0.004
7.180E-06,0.000
7.190E-06,0.000
7.200E-06,0.004
7.210E-06,0.004
7.220E-06,0.000
7.230E-06,0.000
7.240E-06,0.000
7.250E-06,0.000
7.260E-06,0.004
7.270E-06,0.000
7.280E-06,-0.004
7.290E-06,0.000
7.300E-06,0.000
7.310E-06,0.000
7.320E-06,0.000
7.330E-06,0.000
7.340E-06,0.000
7.350E-06,-0.004
7.360E-06,-0.004
7.370E-06,-0.004
7.380E-06,0.000
7.390E-06,-0.004
7.400E-06,-0.004
7.410E-06,0.000
7.420E-06,0.000
7.430E-06,0.000
7.440E-06,-0.004
7.450E-06,-0.004
7.460E-06,-0.004
7.470E-06,0.000
7.480E-06,-0.004
7.490E-06,-0.004
7.500E-06,-0.004
7.510E-06,-0.004
7.520E-06,-0.004
7.530E-06,-0.004
7.540E-06,0.000
7.550E-06,-0.004
7.560E-06,0.000
7.570E-06,-0.004
7.580E-06,-0.004
7.590E-06,-0.004
7.600E-06,-0.008
7.610E-06,0.000
7.620E-06,-0.004
7.630E-06,0.000
7.640E-06,-0.004
7.650E-06,-0.004
7.660E-06,-0.008
7.670E-06,-0.008
7.680E-06,-0.008
7.690E-06,-0.012
7.700E-06,-0.004
7.710E-06,0.000
7.720E-06,-0.004
7.730E-06,-0.004
7.740E-06,-0.004
7.750E-06,-0.004
7.760E-06,-0.008
7.770E-06,-0.008
7.780E-06,-0.004
7.790E-06,-0.008
7.800E-06,-0.008
7.810E-06,-0.008
7.820E-06,-0.008
7.830E-06,-0.008
7.840E-06,-0.004
7.850E-06,-0.008
7.860E-06,-0.004
7.870E-06,-0.008
7.880E-06,-0.004
7.890E-06,-0.004
7.900E-06,-0.008
7.910E-06,-0.012
7.920E-06,-0.004
7.930E-06,-0.004
7.940E-06,-0.008
7.950E-06,-0.004
7.960E-06,-0.004
7.970E-06,-0.008
7.980E-06,-0.004
7.990E-06,-0.008
8.000E-06,-0.008
8.010E-06,-0.012
8.020E-06,-0.008
8.030E-06,-0.008
8.040E-06,-0.016
8.050E-06,-0.016
8.060E-06,-0.008
8.070E-06,-0.012
8.080E-06,-0.012
8.090E-06,-0.012
8.100E-06,-0.016
8.110E-06,-0.016
8.120E-06,-0.012
8.130E-06,-0.008
8.140E-06,-0.008
8.150E-06,-0.012
8.160E-06,-0.012
8.170E-06,-0.008
8.180E-06,-0.008
8.190E-06,-0.012
8.200E-06,-0.016
8.210E-06,-0.008
8.220E-06,-0.016
8.230E-06,-0.016
8.240E-06,-0.020
8.250E-06,-0.016
8.260E-06,-0.016
8.270E-06,-0.012
8.280E-06,-0.020
8.290E-06,-0.016
8.300E-06,-0.016
8.310E-06,-0.020
8.320E-06,-0.020
8.330E-06,-0.020
8.340E-06,-0.016
8.350E-06,-0.020
8.360E-06,-0.016
8.370E-06,-0.020
8.380E-06,-0.012
8.390E-06,-0.020
8.400E-06,-0.024
8.410E-06,-0.024
8.420E-06,-0.016
8.430E-06,-0.016
8.440E-06,-0.020
8.450E-06,-0.020
8.460E-06,-0.020
8.470E-06,-0.020
8.480E-06,-0.024
8.490E-06,-0.020
8.500E-06,-0.016
8.510E-06,-0.020
8.520E-06,-0.020
8.530E-06,-0.020
8.540E-06,-0.020
8.550E-06,-0.020
8.560E-06,-0.020
8.570E-06,-0.024
8.580E-06,-0.020
8.590E-06,-0.020
8.600E-06,-0.024
8.610E-06,-0.024
8.620E-06,-0.024
8.630E-06,-0.020
8.640E-06,-0.020
8.650E-06,-0.024
8.660E-06,-0.028
8.670E-06,-0.024
8.680E-06,-0.024
8.690E-06,-0.024
8.700E-06,-0.024
8.710E-06,-0.024
8.720E-06,-0.024
8.730E-06,-0.028
8.740E-06,-0.024
8.750E-06,-0.032
8.760E-06,-0.020
8.770E-06,-0.024
8.780E-06,-0.028
8.790E-06,-0.024
8.800E-06,-0.020
8.810E-06,-0.028
8.820E-06,-0.020
8.830E-06,-0.024
8.840E-06,-0.020
8.850E-06,-0.024
8.860E-06,-0.020
8.870E-06,-0.024
8.880E-06,-0.024
8.890E-06,-0.028
8.900E-06,-0.028
8.910E-06,-0.032
8.920E-06,-0.028
8.930E-06,-0.024
8.940E-06,-0.028
8.950E-06,-0.028
8.960E-06,-0.032
8.970E-06,-0.024
8.980E-06,-0.032
8.990E-06,-0.032
9.000E-06,-0.024
9.010E-06,-0.028
9.020E-06,-0.028
9.030E-06,-0.032
9.040E-06,-0.028
9.050E-06,-0.028
9.060E-06,-0.028
9.070E-06,-0.028
9.080E-06,-0.028
9.090E-06,-0.032
9.100E-06,-0.036
9.110E-06,-0.028
9.120E-06,-0.024
9.130E-06,-0.032
9.140E-06,-0.032
9.150E-06,-0.032
9.160E-06,-0.032
9.170E-06,-0.024
9.180E-06,-0.032
9.190E-06,-0.028
9.200E-06,-0.032
9.210E-06,-0.032
9.220E-06,-0.032
9.230E-06,-0.032
9.240E-06,-0.036
9.250E-06,-0.032
9.260E-06,-0.036
9.270E-06,-0.028
9.280E-06,-0.028
9.290E-06,-0.040
9.300E-06,-0.028
9.310E-06,-0.032
9.320E-06,-0.036
9.330E-06,-0.036
9.340E-06,-0.036
9.350E-06,-0.036
9.360E-06,-0.036
9.370E-06,-0.028
9.380E-06,-0.032
9.390E-06,-0.036
9.400E-06,-0.032
9.410E-06,-0.036
9.420E-06,-0.036
9.430E-06,-0.028
9.440E-06,-0.032
9.450E-06,-0.040
9.460E-06,-0.040
9.470E-06,-0.036
9.480E-06,-0.040
9.490E-06,-0.036
9.500E-06,-0.036
9.510E-06,-0.036
9.520E-06,-0.036
9.530E-06,-0.032
9.540E-06,-0.036
9.550E-06,-0.036
9.560E-06,-0.032
9.570E-06,-0.036
9.580E-06,-0.040
9.590E-06,-0.032
9.600E-06,-0.040
9.610E-06,-0.036
9.620E-06,-0.036
9.630E-06,-0.036
9.640E-06,-0.036
9.650E-06,-0.032
9.660E-06,-0.036
9.670E-06,-0.040
9.680E-06,-0.036
9.690E-06,-0.040
9.700E-06,-0.040
9.710E-06,-0.036
9.720E-06,-0.036
9.730E-06,-0.036
9.740E-06,-0.036
9.750E-06,-0.036
9.760E-06,-0.036
9.770E-06,-0.032
9.780E-06,-0.036
9.790E-06,-0.040
9.800E-06,-0.044
9.810E-06,-0.040
9.820E-06,-0.036
9.830E-06,-0.040
9.840E-06,-0.040
9.850E-06,-0.036
