mediciones/Mediciones filtradas (saque las feas)/6-3/-12.5/WaveData5302.csv

#timebase=2000000(ps)
,#voltbase=100000(mv/100)
#size=4000
-1.000E-07,0.072
-9.000E-08,0.092
-8.000E-08,0.024
-7.000E-08,-0.060
-6.000E-08,-0.240
-5.000E-08,-0.328
-4.000E-08,-0.408
-3.000E-08,-0.196
-2.000E-08,0.108
-1.000E-08,0.184
0.000E+00,0.320
1.000E-08,0.136
2.000E-08,0.032
3.000E-08,-0.188
4.000E-08,-0.192
5.000E-08,-0.192
6.000E-08,-0.008
7.000E-08,0.084
8.000E-08,0.164
9.000E-08,0.156
1.000E-07,0.092
1.100E-07,-0.032
1.200E-07,-0.204
1.300E-07,-0.152
1.400E-07,-0.240
1.500E-07,-0.060
1.600E-07,0.060
1.700E-07,0.208
1.800E-07,0.136
1.900E-07,0.044
2.000E-07,-0.056
2.100E-07,-0.160
2.200E-07,-0.056
2.300E-07,0.028
2.400E-07,0.096
2.500E-07,0.048
2.600E-07,0.072
2.700E-07,-0.032
2.800E-07,-0.028
2.900E-07,-0.032
3.000E-07,0.016
3.100E-07,-0.004
3.200E-07,0.024
3.300E-07,0.040
3.400E-07,0.040
3.500E-07,0.008
3.600E-07,0.000
3.700E-07,0.044
3.800E-07,0.056
3.900E-07,0.076
4.000E-07,0.028
4.100E-07,-0.016
4.200E-07,-0.080
4.300E-07,-0.100
4.400E-07,-0.052
4.500E-07,-0.004
4.600E-07,0.068
4.700E-07,0.088
4.800E-07,0.048
4.900E-07,0.004
5.000E-07,-0.028
5.100E-07,0.000
5.200E-07,0.040
5.300E-07,0.068
5.400E-07,0.060
5.500E-07,0.000
5.600E-07,-0.040
5.700E-07,-0.040
5.800E-07,-0.040
5.900E-07,0.004
6.000E-07,0.052
6.100E-07,0.104
6.200E-07,0.072
6.300E-07,0.028
6.400E-07,0.004
6.500E-07,-0.036
6.600E-07,-0.036
6.700E-07,-0.020
6.800E-07,0.012
6.900E-07,0.028
7.000E-07,0.012
7.100E-07,0.004
7.200E-07,-0.036
7.300E-07,-0.072
7.400E-07,-0.052
7.500E-07,-0.040
7.600E-07,-0.004
7.700E-07,0.000
7.800E-07,0.008
7.900E-07,-0.004
8.000E-07,-0.012
8.100E-07,-0.008
8.200E-07,0.008
8.300E-07,-0.008
8.400E-07,0.020
8.500E-07,0.012
8.600E-07,0.008
8.700E-07,0.004
8.800E-07,0.012
8.900E-07,0.028
9.000E-07,0.032
9.100E-07,0.068
9.200E-07,0.048
9.300E-07,0.060
9.400E-07,-0.028
9.500E-07,-0.032
9.600E-07,-0.052
9.700E-07,-0.040
9.800E-07,0.004
9.900E-07,0.044
1.000E-06,0.084
1.010E-06,0.064
1.020E-06,0.056
1.030E-06,0.008
1.040E-06,-0.048
1.050E-06,-0.032
1.060E-06,-0.032
1.070E-06,-0.004
1.080E-06,0.048
1.090E-06,-0.028
1.100E-06,0.020
1.110E-06,-0.020
1.120E-06,-0.044
1.130E-06,-0.032
1.140E-06,0.000
1.150E-06,0.040
1.160E-06,0.068
1.170E-06,0.092
1.180E-06,0.072
1.190E-06,0.000
1.200E-06,-0.068
1.210E-06,-0.064
1.220E-06,-0.068
1.230E-06,-0.052
1.240E-06,-0.040
1.250E-06,0.008
1.260E-06,0.008
1.270E-06,0.008
1.280E-06,0.036
1.290E-06,0.000
1.300E-06,0.000
1.310E-06,0.020
1.320E-06,0.072
1.330E-06,0.064
1.340E-06,0.044
1.350E-06,0.056
1.360E-06,0.016
1.370E-06,0.032
1.380E-06,0.000
1.390E-06,-0.056
1.400E-06,-0.104
1.410E-06,-0.064
1.420E-06,-0.012
1.430E-06,0.008
1.440E-06,0.024
1.450E-06,0.056
1.460E-06,0.028
1.470E-06,-0.004
1.480E-06,0.036
1.490E-06,-0.032
1.500E-06,-0.028
1.510E-06,-0.040
1.520E-06,-0.004
1.530E-06,0.004
1.540E-06,0.028
1.550E-06,0.024
1.560E-06,0.008
1.570E-06,-0.028
1.580E-06,-0.004
1.590E-06,0.016
1.600E-06,0.028
1.610E-06,0.060
1.620E-06,0.044
1.630E-06,0.060
1.640E-06,0.012
1.650E-06,0.012
1.660E-06,0.012
1.670E-06,0.000
1.680E-06,0.004
1.690E-06,0.032
1.700E-06,0.012
1.710E-06,0.008
1.720E-06,0.012
1.730E-06,0.012
1.740E-06,0.004
1.750E-06,0.024
1.760E-06,0.044
1.770E-06,0.064
1.780E-06,0.092
1.790E-06,0.064
1.800E-06,0.028
1.810E-06,0.016
1.820E-06,-0.040
1.830E-06,0.008
1.840E-06,-0.040
1.850E-06,-0.088
1.860E-06,-0.088
1.870E-06,-0.136
1.880E-06,-0.132
1.890E-06,-0.092
1.900E-06,-0.036
1.910E-06,0.016
1.920E-06,0.068
1.930E-06,0.048
1.940E-06,0.020
1.950E-06,-0.016
1.960E-06,-0.044
1.970E-06,-0.048
1.980E-06,0.000
1.990E-06,0.028
2.000E-06,0.060
2.010E-06,0.060
2.020E-06,0.028
2.030E-06,0.044
2.040E-06,0.012
2.050E-06,0.028
2.060E-06,0.024
2.070E-06,0.024
2.080E-06,-0.008
2.090E-06,-0.008
2.100E-06,-0.104
2.110E-06,-0.004
2.120E-06,0.028
2.130E-06,-0.020
2.140E-06,0.036
2.150E-06,-0.056
2.160E-06,-0.028
2.170E-06,-0.064
2.180E-06,0.016
2.190E-06,0.024
2.200E-06,0.060
2.210E-06,0.088
2.220E-06,0.032
2.230E-06,0.028
2.240E-06,-0.004
2.250E-06,0.016
2.260E-06,0.008
2.270E-06,0.016
2.280E-06,0.020
2.290E-06,-0.052
2.300E-06,-0.016
2.310E-06,-0.068
2.320E-06,-0.036
2.330E-06,-0.024
2.340E-06,0.016
2.350E-06,0.052
2.360E-06,0.032
2.370E-06,0.044
2.380E-06,0.032
2.390E-06,0.048
2.400E-06,0.060
2.410E-06,0.072
2.420E-06,0.056
2.430E-06,0.028
2.440E-06,-0.004
2.450E-06,-0.008
2.460E-06,-0.044
2.470E-06,-0.044
2.480E-06,-0.052
2.490E-06,-0.056
2.500E-06,0.000
2.510E-06,-0.068
2.520E-06,0.008
2.530E-06,-0.016
2.540E-06,-0.056
2.550E-06,0.000
2.560E-06,0.032
2.570E-06,-0.004
2.580E-06,0.000
2.590E-06,-0.012
2.600E-06,-0.036
2.610E-06,-0.016
2.620E-06,-0.024
2.630E-06,0.004
2.640E-06,0.012
2.650E-06,0.040
2.660E-06,0.004
2.670E-06,0.008
2.680E-06,0.000
2.690E-06,0.004
2.700E-06,-0.004
2.710E-06,-0.004
2.720E-06,0.000
2.730E-06,0.008
2.740E-06,0.008
2.750E-06,0.004
2.760E-06,0.008
2.770E-06,0.032
2.780E-06,0.060
2.790E-06,0.052
2.800E-06,0.024
2.810E-06,0.008
2.820E-06,-0.008
2.830E-06,0.000
2.840E-06,0.024
2.850E-06,0.048
2.860E-06,0.056
2.870E-06,0.044
2.880E-06,0.032
2.890E-06,-0.008
2.900E-06,-0.024
2.910E-06,-0.020
2.920E-06,0.048
2.930E-06,0.068
2.940E-06,0.108
2.950E-06,0.100
2.960E-06,0.056
2.970E-06,0.024
2.980E-06,0.020
2.990E-06,0.004
3.000E-06,-0.024
3.010E-06,0.020
3.020E-06,0.016
3.030E-06,0.040
3.040E-06,0.036
3.050E-06,0.000
3.060E-06,-0.004
3.070E-06,0.004
3.080E-06,0.012
3.090E-06,0.008
3.100E-06,0.064
3.110E-06,0.100
3.120E-06,0.104
3.130E-06,0.100
3.140E-06,0.064
3.150E-06,0.020
3.160E-06,0.028
3.170E-06,-0.008
3.180E-06,0.044
3.190E-06,0.044
3.200E-06,0.040
3.210E-06,0.056
3.220E-06,-0.004
3.230E-06,-0.100
3.240E-06,-0.220
3.250E-06,-0.240
3.260E-06,-0.184
3.270E-06,0.000
3.280E-06,0.200
3.290E-06,0.444
3.300E-06,0.332
3.310E-06,0.180
3.320E-06,-0.188
3.330E-06,-0.512
3.340E-06,-0.512
3.350E-06,-0.512
3.360E-06,-0.072
3.370E-06,0.220
3.380E-06,0.376
3.390E-06,0.460
3.400E-06,0.228
3.410E-06,-0.100
3.420E-06,-0.336
3.430E-06,-0.336
3.440E-06,-0.124
3.450E-06,0.216
3.460E-06,0.244
3.470E-06,0.120
3.480E-06,-0.072
3.490E-06,-0.184
3.500E-06,-0.256
3.510E-06,-0.084
3.520E-06,0.124
3.530E-06,0.200
3.540E-06,0.156
3.550E-06,0.012
3.560E-06,-0.112
3.570E-06,-0.196
3.580E-06,-0.140
3.590E-06,-0.020
3.600E-06,0.124
3.610E-06,0.164
3.620E-06,0.136
3.630E-06,0.036
3.640E-06,-0.088
3.650E-06,-0.164
3.660E-06,-0.132
3.670E-06,-0.016
3.680E-06,0.076
3.690E-06,0.104
3.700E-06,0.044
3.710E-06,-0.008
3.720E-06,-0.072
3.730E-06,-0.064
3.740E-06,-0.020
3.750E-06,0.028
3.760E-06,0.048
3.770E-06,0.040
3.780E-06,0.036
3.790E-06,0.008
3.800E-06,-0.008
3.810E-06,-0.028
3.820E-06,-0.020
3.830E-06,-0.016
3.840E-06,0.016
3.850E-06,0.036
3.860E-06,0.044
3.870E-06,0.036
3.880E-06,0.000
3.890E-06,-0.020
3.900E-06,-0.024
3.910E-06,0.000
3.920E-06,0.028
3.930E-06,0.040
3.940E-06,0.044
3.950E-06,0.024
3.960E-06,0.004
3.970E-06,-0.008
3.980E-06,-0.004
3.990E-06,0.008
4.000E-06,0.024
4.010E-06,0.044
4.020E-06,0.040
4.030E-06,0.024
4.040E-06,0.008
4.050E-06,0.020
4.060E-06,0.024
4.070E-06,0.032
4.080E-06,0.052
4.090E-06,0.060
4.100E-06,0.068
4.110E-06,0.068
4.120E-06,0.080
4.130E-06,0.100
4.140E-06,0.088
4.150E-06,0.092
4.160E-06,0.092
4.170E-06,0.096
4.180E-06,0.088
4.190E-06,0.076
4.200E-06,0.052
4.210E-06,0.048
4.220E-06,0.036
4.230E-06,0.036
4.240E-06,0.012
4.250E-06,0.016
4.260E-06,0.072
4.270E-06,0.012
4.280E-06,0.088
4.290E-06,-0.040
4.300E-06,-0.124
4.310E-06,-0.324
4.320E-06,-0.296
4.330E-06,-0.172
4.340E-06,0.044
4.350E-06,0.120
4.360E-06,0.148
4.370E-06,-0.004
4.380E-06,-0.068
4.390E-06,-0.208
4.400E-06,-0.144
4.410E-06,-0.048
4.420E-06,0.128
4.430E-06,0.192
4.440E-06,0.176
4.450E-06,0.112
4.460E-06,-0.072
4.470E-06,-0.032
4.480E-06,-0.012
4.490E-06,0.072
4.500E-06,0.124
4.510E-06,0.072
4.520E-06,0.072
4.530E-06,-0.168
4.540E-06,-0.160
4.550E-06,-0.372
4.560E-06,-0.340
4.570E-06,0.016
4.580E-06,0.224
4.590E-06,0.308
4.600E-06,0.160
4.610E-06,0.020
4.620E-06,-0.144
4.630E-06,-0.236
4.640E-06,-0.208
4.650E-06,-0.140
4.660E-06,0.092
4.670E-06,0.240
4.680E-06,0.196
4.690E-06,0.096
4.700E-06,0.004
4.710E-06,-0.048
4.720E-06,-0.084
4.730E-06,-0.008
4.740E-06,0.128
4.750E-06,0.100
4.760E-06,0.156
4.770E-06,0.052
4.780E-06,0.004
4.790E-06,-0.060
4.800E-06,-0.100
4.810E-06,-0.052
4.820E-06,-0.056
4.830E-06,0.004
4.840E-06,-0.068
4.850E-06,-0.108
4.860E-06,-0.140
4.870E-06,-0.136
4.880E-06,-0.160
4.890E-06,0.060
4.900E-06,0.096
4.910E-06,0.084
4.920E-06,0.000
4.930E-06,-0.056
4.940E-06,-0.056
4.950E-06,-0.024
4.960E-06,0.028
4.970E-06,0.028
4.980E-06,0.032
4.990E-06,0.036
5.000E-06,0.020
5.010E-06,-0.004
5.020E-06,0.000
5.030E-06,0.000
5.040E-06,0.008
5.050E-06,0.024
5.060E-06,0.036
5.070E-06,0.012
5.080E-06,-0.004
5.090E-06,0.008
5.100E-06,0.008
5.110E-06,0.024
5.120E-06,0.028
5.130E-06,0.040
5.140E-06,0.036
5.150E-06,0.040
5.160E-06,0.076
5.170E-06,0.088
5.180E-06,0.096
5.190E-06,0.088
5.200E-06,0.100
5.210E-06,0.088
5.220E-06,0.060
5.230E-06,-0.012
5.240E-06,-0.040
5.250E-06,-0.080
5.260E-06,-0.076
5.270E-06,-0.056
5.280E-06,0.004
5.290E-06,0.020
5.300E-06,0.092
5.310E-06,0.072
5.320E-06,0.064
5.330E-06,0.024
5.340E-06,0.044
5.350E-06,0.016
5.360E-06,0.052
5.370E-06,0.104
5.380E-06,0.112
5.390E-06,0.080
5.400E-06,0.020
5.410E-06,0.020
5.420E-06,-0.024
5.430E-06,-0.008
5.440E-06,0.012
5.450E-06,0.044
5.460E-06,0.072
5.470E-06,0.072
5.480E-06,0.088
5.490E-06,0.056
5.500E-06,0.064
5.510E-06,0.052
5.520E-06,0.068
5.530E-06,0.076
5.540E-06,0.080
5.550E-06,0.060
5.560E-06,0.020
5.570E-06,0.032
5.580E-06,-0.012
5.590E-06,-0.064
5.600E-06,-0.128
5.610E-06,-0.092
5.620E-06,-0.228
5.630E-06,-0.276
5.640E-06,-0.060
5.650E-06,-0.376
5.660E-06,-0.072
5.670E-06,-0.252
5.680E-06,-0.072
5.690E-06,0.076
5.700E-06,0.132
5.710E-06,0.032
5.720E-06,-0.136
5.730E-06,-0.040
5.740E-06,-0.064
5.750E-06,0.064
5.760E-06,0.172
5.770E-06,0.156
5.780E-06,-0.124
5.790E-06,-0.272
5.800E-06,-0.272
5.810E-06,-0.056
5.820E-06,0.064
5.830E-06,0.212
5.840E-06,0.160
5.850E-06,0.064
5.860E-06,-0.108
5.870E-06,-0.188
5.880E-06,-0.112
5.890E-06,-0.028
5.900E-06,0.136
5.910E-06,0.160
5.920E-06,0.136
5.930E-06,0.000
5.940E-06,-0.080
5.950E-06,-0.112
5.960E-06,-0.100
5.970E-06,0.060
5.980E-06,0.088
5.990E-06,0.104
6.000E-06,0.012
6.010E-06,-0.060
6.020E-06,-0.076
6.030E-06,-0.064
6.040E-06,0.008
6.050E-06,0.076
6.060E-06,0.096
6.070E-06,0.072
6.080E-06,0.008
6.090E-06,-0.008
6.100E-06,-0.036
6.110E-06,-0.028
6.120E-06,0.000
6.130E-06,0.028
6.140E-06,0.032
6.150E-06,0.060
6.160E-06,0.056
6.170E-06,0.032
6.180E-06,-0.044
6.190E-06,0.012
6.200E-06,0.004
6.210E-06,0.116
6.220E-06,0.072
6.230E-06,0.104
6.240E-06,0.028
6.250E-06,0.064
6.260E-06,0.028
6.270E-06,0.060
6.280E-06,0.080
6.290E-06,0.124
6.300E-06,0.124
6.310E-06,0.152
6.320E-06,0.128
6.330E-06,0.140
6.340E-06,0.092
6.350E-06,0.128
6.360E-06,0.124
6.370E-06,0.120
6.380E-06,0.108
6.390E-06,0.072
6.400E-06,0.080
6.410E-06,0.056
6.420E-06,0.072
6.430E-06,0.076
6.440E-06,0.088
6.450E-06,0.100
6.460E-06,0.088
6.470E-06,0.084
6.480E-06,0.072
6.490E-06,0.068
6.500E-06,0.072
6.510E-06,0.028
6.520E-06,-0.140
6.530E-06,-0.452
6.540E-06,-0.404
6.550E-06,-0.480
6.560E-06,-0.252
6.570E-06,-0.228
6.580E-06,0.292
6.590E-06,-0.036
6.600E-06,0.040
6.610E-06,-0.320
6.620E-06,-0.512
6.630E-06,0.024
6.640E-06,0.208
6.650E-06,0.200
6.660E-06,-0.008
6.670E-06,0.140
6.680E-06,-0.228
6.690E-06,-0.320
6.700E-06,-0.124
6.710E-06,-0.052
6.720E-06,0.096
6.730E-06,0.188
6.740E-06,0.232
6.750E-06,0.040
6.760E-06,-0.052
6.770E-06,-0.116
6.780E-06,-0.180
6.790E-06,-0.096
6.800E-06,0.060
6.810E-06,0.176
6.820E-06,0.112
6.830E-06,0.080
6.840E-06,0.012
6.850E-06,-0.044
6.860E-06,-0.052
6.870E-06,0.020
6.880E-06,0.060
6.890E-06,0.048
6.900E-06,0.084
6.910E-06,0.112
6.920E-06,-0.016
6.930E-06,-0.048
6.940E-06,-0.020
6.950E-06,-0.024
6.960E-06,0.048
6.970E-06,0.080
6.980E-06,0.116
6.990E-06,0.056
7.000E-06,0.056
7.010E-06,0.012
7.020E-06,0.028
7.030E-06,-0.020
7.040E-06,0.056
7.050E-06,0.068
7.060E-06,0.116
7.070E-06,0.132
7.080E-06,0.100
7.090E-06,0.032
7.100E-06,0.076
7.110E-06,0.056
7.120E-06,0.132
7.130E-06,0.132
7.140E-06,0.188
7.150E-06,0.164
7.160E-06,0.144
7.170E-06,0.132
7.180E-06,0.104
7.190E-06,0.084
7.200E-06,0.068
7.210E-06,0.092
7.220E-06,0.072
7.230E-06,0.032
7.240E-06,0.000
7.250E-06,-0.012
7.260E-06,-0.044
7.270E-06,-0.060
7.280E-06,-0.028
7.290E-06,-0.008
7.300E-06,-0.008
7.310E-06,0.024
7.320E-06,0.012
7.330E-06,0.028
7.340E-06,0.060
7.350E-06,0.064
7.360E-06,0.068
7.370E-06,0.092
7.380E-06,0.128
7.390E-06,0.088
7.400E-06,0.136
7.410E-06,0.136
7.420E-06,0.144
7.430E-06,0.136
7.440E-06,0.120
7.450E-06,0.132
7.460E-06,0.116
7.470E-06,0.140
7.480E-06,0.144
7.490E-06,0.164
7.500E-06,0.160
7.510E-06,0.140
7.520E-06,0.124
7.530E-06,0.096
7.540E-06,0.080
7.550E-06,0.080
7.560E-06,0.096
7.570E-06,0.120
7.580E-06,0.160
7.590E-06,0.120
7.600E-06,0.028
7.610E-06,0.000
7.620E-06,-0.104
7.630E-06,-0.064
7.640E-06,-0.128
7.650E-06,-0.104
7.660E-06,-0.172
7.670E-06,-0.128
7.680E-06,-0.160
7.690E-06,-0.180
7.700E-06,-0.156
7.710E-06,-0.044
7.720E-06,0.192
7.730E-06,0.080
7.740E-06,0.184
7.750E-06,0.148
7.760E-06,0.080
7.770E-06,0.056
7.780E-06,0.056
7.790E-06,0.124
7.800E-06,0.092
7.810E-06,0.096
7.820E-06,0.020
7.830E-06,-0.028
7.840E-06,-0.096
7.850E-06,-0.108
7.860E-06,-0.216
7.870E-06,-0.348
7.880E-06,-0.432
7.890E-06,-0.404
7.900E-06,-0.268
7.910E-06,0.012
7.920E-06,-0.268
7.930E-06,0.036
7.940E-06,0.120
7.950E-06,0.140
7.960E-06,-0.044
7.970E-06,-0.032
7.980E-06,0.028
7.990E-06,0.036
8.000E-06,-0.068
8.010E-06,0.120
8.020E-06,0.000
8.030E-06,-0.120
8.040E-06,-0.112
8.050E-06,-0.080
8.060E-06,-0.048
8.070E-06,-0.012
8.080E-06,0.136
8.090E-06,0.140
8.100E-06,0.208
8.110E-06,0.168
8.120E-06,0.136
8.130E-06,0.068
8.140E-06,0.092
8.150E-06,0.124
8.160E-06,0.128
8.170E-06,0.136
8.180E-06,0.156
8.190E-06,0.156
8.200E-06,0.100
8.210E-06,0.136
8.220E-06,0.108
8.230E-06,0.112
8.240E-06,0.092
8.250E-06,0.140
8.260E-06,0.136
8.270E-06,0.132
8.280E-06,0.140
8.290E-06,0.136
8.300E-06,0.144
8.310E-06,0.136
8.320E-06,0.176
8.330E-06,0.152
8.340E-06,0.152
8.350E-06,0.144
8.360E-06,0.164
8.370E-06,0.148
8.380E-06,0.164
8.390E-06,0.152
8.400E-06,0.148
8.410E-06,0.140
8.420E-06,0.148
8.430E-06,0.148
8.440E-06,0.140
8.450E-06,0.140
8.460E-06,0.144
8.470E-06,0.144
8.480E-06,0.128
8.490E-06,0.140
8.500E-06,0.132
8.510E-06,0.128
8.520E-06,0.132
8.530E-06,0.132
8.540E-06,0.140
8.550E-06,0.136
8.560E-06,0.140
8.570E-06,0.140
8.580E-06,0.136
8.590E-06,0.128
8.600E-06,0.124
8.610E-06,0.124
8.620E-06,0.124
8.630E-06,0.124
8.640E-06,0.120
8.650E-06,0.128
8.660E-06,0.136
8.670E-06,0.116
8.680E-06,0.096
8.690E-06,0.060
8.700E-06,0.016
8.710E-06,-0.088
8.720E-06,-0.236
8.730E-06,-0.304
8.740E-06,-0.248
8.750E-06,-0.272
8.760E-06,-0.276
8.770E-06,-0.252
8.780E-06,-0.088
8.790E-06,-0.104
8.800E-06,0.076
8.810E-06,0.040
8.820E-06,0.152
8.830E-06,0.160
8.840E-06,0.124
8.850E-06,0.136
8.860E-06,0.136
8.870E-06,0.228
8.880E-06,0.152
8.890E-06,0.164
8.900E-06,0.152
8.910E-06,0.128
8.920E-06,0.080
8.930E-06,0.096
8.940E-06,0.140
8.950E-06,0.144
8.960E-06,0.140
8.970E-06,0.128
8.980E-06,0.108
8.990E-06,0.064
9.000E-06,0.064
9.010E-06,0.092
9.020E-06,0.108
9.030E-06,0.152
9.040E-06,0.172
9.050E-06,0.172
9.060E-06,0.144
9.070E-06,0.136
9.080E-06,0.124
9.090E-06,0.120
9.100E-06,0.132
9.110E-06,0.156
9.120E-06,0.152
9.130E-06,0.152
9.140E-06,0.140
9.150E-06,0.140
9.160E-06,0.128
9.170E-06,0.136
9.180E-06,0.144
9.190E-06,0.140
9.200E-06,0.140
9.210E-06,0.144
9.220E-06,0.144
9.230E-06,0.140
9.240E-06,0.144
9.250E-06,0.144
9.260E-06,0.140
9.270E-06,0.136
9.280E-06,0.148
9.290E-06,0.144
9.300E-06,0.140
9.310E-06,0.140
9.320E-06,0.128
9.330E-06,0.128
9.340E-06,0.128
9.350E-06,0.132
9.360E-06,0.136
9.370E-06,0.136
9.380E-06,0.140
9.390E-06,0.136
9.400E-06,0.132
9.410E-06,0.136
9.420E-06,0.136
9.430E-06,0.136
9.440E-06,0.144
9.450E-06,0.148
9.460E-06,0.136
9.470E-06,0.136
9.480E-06,0.132
9.490E-06,0.136
9.500E-06,0.128
9.510E-06,0.132
9.520E-06,0.136
9.530E-06,0.136
9.540E-06,0.140
9.550E-06,0.140
9.560E-06,0.144
9.570E-06,0.144
9.580E-06,0.144
9.590E-06,0.136
9.600E-06,0.136
9.610E-06,0.140
9.620E-06,0.140
9.630E-06,0.136
9.640E-06,0.132
9.650E-06,0.132
9.660E-06,0.128
9.670E-06,0.124
9.680E-06,0.132
9.690E-06,0.136
9.700E-06,0.136
9.710E-06,0.132
9.720E-06,0.132
9.730E-06,0.136
9.740E-06,0.132
9.750E-06,0.132
9.760E-06,0.136
9.770E-06,0.136
9.780E-06,0.136
9.790E-06,0.136
9.800E-06,0.132
9.810E-06,0.128
9.820E-06,0.124
9.830E-06,0.132
9.840E-06,0.132
9.850E-06,0.136
9.860E-06,0.132
9.870E-06,0.132
9.880E-06,0.128
9.890E-06,0.128
9.900E-06,0.128
9.910E-06,0.128
9.920E-06,0.136
9.930E-06,0.136
9.940E-06,0.132
9.950E-06,0.128
9.960E-06,0.128
9.970E-06,0.128
9.980E-06,0.128
9.990E-06,0.124
1.000E-05,0.124
1.001E-05,0.128
1.002E-05,0.128
1.003E-05,0.128
1.004E-05,0.128
1.005E-05,0.124
1.006E-05,0.124
1.007E-05,0.120
1.008E-05,0.124
1.009E-05,0.128
1.010E-05,0.128
1.011E-05,0.128
1.012E-05,0.124
1.013E-05,0.128
1.014E-05,0.124
1.015E-05,0.132
1.016E-05,0.128
1.017E-05,0.124
1.018E-05,0.128
1.019E-05,0.124
1.020E-05,0.124
1.021E-05,0.124
1.022E-05,0.124
1.023E-05,0.124
1.024E-05,0.128
1.025E-05,0.128
1.026E-05,0.124
1.027E-05,0.120
1.028E-05,0.124
1.029E-05,0.120
1.030E-05,0.120
1.031E-05,0.124
1.032E-05,0.124
1.033E-05,0.124
1.034E-05,0.128
1.035E-05,0.128
1.036E-05,0.120
1.037E-05,0.120
1.038E-05,0.120
1.039E-05,0.116
1.040E-05,0.124
1.041E-05,0.124
1.042E-05,0.124
1.043E-05,0.120
1.044E-05,0.116
1.045E-05,0.120
1.046E-05,0.124
1.047E-05,0.116
1.048E-05,0.120
1.049E-05,0.120
1.050E-05,0.120
1.051E-05,0.116
1.052E-05,0.112
1.053E-05,0.112
1.054E-05,0.112
1.055E-05,0.112
1.056E-05,0.112
1.057E-05,0.116
1.058E-05,0.116
1.059E-05,0.112
1.060E-05,0.112
1.061E-05,0.108
1.062E-05,0.112
1.063E-05,0.112
1.064E-05,0.108
1.065E-05,0.116
1.066E-05,0.116
1.067E-05,0.108
1.068E-05,0.108
1.069E-05,0.108
1.070E-05,0.112
1.071E-05,0.108
1.072E-05,0.112
1.073E-05,0.112
1.074E-05,0.116
1.075E-05,0.108
1.076E-05,0.104
1.077E-05,0.104
1.078E-05,0.104
1.079E-05,0.108
1.080E-05,0.104
1.081E-05,0.112
1.082E-05,0.112
1.083E-05,0.108
1.084E-05,0.104
1.085E-05,0.104
1.086E-05,0.104
1.087E-05,0.108
1.088E-05,0.108
1.089E-05,0.108
1.090E-05,0.104
1.091E-05,0.100
1.092E-05,0.096
1.093E-05,0.096
1.094E-05,0.104
1.095E-05,0.104
1.096E-05,0.108
1.097E-05,0.104
1.098E-05,0.096
1.099E-05,0.096
1.100E-05,0.092
1.101E-05,0.092
1.102E-05,0.100
1.103E-05,0.096
1.104E-05,0.096
1.105E-05,0.096
1.106E-05,0.096
1.107E-05,0.096
1.108E-05,0.092
1.109E-05,0.092
1.110E-05,0.100
1.111E-05,0.100
1.112E-05,0.096
1.113E-05,0.104
1.114E-05,0.100
1.115E-05,0.096
1.116E-05,0.096
1.117E-05,0.096
1.118E-05,0.096
1.119E-05,0.096
1.120E-05,0.096
1.121E-05,0.100
1.122E-05,0.100
1.123E-05,0.096
1.124E-05,0.092
1.125E-05,0.092
1.126E-05,0.100
1.127E-05,0.092
1.128E-05,0.100
1.129E-05,0.096
1.130E-05,0.092
1.131E-05,0.092
1.132E-05,0.096
1.133E-05,0.096
1.134E-05,0.096
1.135E-05,0.096
1.136E-05,0.092
1.137E-05,0.088
1.138E-05,0.092
1.139E-05,0.088
1.140E-05,0.092
1.141E-05,0.088
1.142E-05,0.088
1.143E-05,0.088
1.144E-05,0.088
1.145E-05,0.088
1.146E-05,0.092
1.147E-05,0.088
1.148E-05,0.092
1.149E-05,0.096
1.150E-05,0.092
1.151E-05,0.088
1.152E-05,0.092
1.153E-05,0.088
1.154E-05,0.084
1.155E-05,0.084
1.156E-05,0.084
1.157E-05,0.092
1.158E-05,0.092
1.159E-05,0.084
1.160E-05,0.084
1.161E-05,0.088
1.162E-05,0.088
1.163E-05,0.080
1.164E-05,0.088
1.165E-05,0.084
1.166E-05,0.080
1.167E-05,0.088
1.168E-05,0.084
1.169E-05,0.088
1.170E-05,0.084
1.171E-05,0.080
1.172E-05,0.076
1.173E-05,0.076
1.174E-05,0.076
1.175E-05,0.080
1.176E-05,0.088
1.177E-05,0.084
1.178E-05,0.084
1.179E-05,0.084
1.180E-05,0.076
1.181E-05,0.080
1.182E-05,0.076
1.183E-05,0.084
1.184E-05,0.084
1.185E-05,0.080
1.186E-05,0.080
1.187E-05,0.076
1.188E-05,0.080
1.189E-05,0.076
1.190E-05,0.080
1.191E-05,0.084
1.192E-05,0.080
1.193E-05,0.084
1.194E-05,0.096
1.195E-05,0.084
1.196E-05,0.072
1.197E-05,0.068
1.198E-05,0.056
1.199E-05,0.056
1.200E-05,0.060
1.201E-05,0.076
1.202E-05,0.068
1.203E-05,0.080
1.204E-05,0.080
1.205E-05,0.076
1.206E-05,0.072
1.207E-05,0.072
1.208E-05,0.080
1.209E-05,0.072
1.210E-05,0.084
1.211E-05,0.084
1.212E-05,0.072
1.213E-05,0.072
1.214E-05,0.060
1.215E-05,0.056
