mediciones/Mediciones filtradas (saque las feas)/6-3/-12.5/WaveData5333.csv

#timebase=2000000(ps)
,#voltbase=500000(mv/100)
#size=4000
-2.250E-06,0.120
-2.240E-06,0.080
-2.230E-06,0.180
-2.220E-06,0.060
-2.210E-06,-0.040
-2.200E-06,0.180
-2.190E-06,-0.120
-2.180E-06,0.080
-2.170E-06,0.020
-2.160E-06,0.080
-2.150E-06,0.160
-2.140E-06,0.280
-2.130E-06,0.420
-2.120E-06,0.280
-2.110E-06,0.280
-2.100E-06,0.380
-2.090E-06,0.280
-2.080E-06,0.440
-2.070E-06,0.540
-2.060E-06,0.400
-2.050E-06,0.180
-2.040E-06,0.060
-2.030E-06,0.120
-2.020E-06,0.140
-2.010E-06,0.300
-2.000E-06,0.180
-1.990E-06,0.180
-1.980E-06,-0.140
-1.970E-06,0.080
-1.960E-06,0.040
-1.950E-06,0.060
-1.940E-06,0.080
-1.930E-06,-0.040
-1.920E-06,-0.160
-1.910E-06,-0.180
-1.900E-06,0.020
-1.890E-06,-0.020
-1.880E-06,-0.020
-1.870E-06,-0.080
-1.860E-06,0.000
-1.850E-06,0.080
-1.840E-06,0.280
-1.830E-06,0.420
-1.820E-06,0.380
-1.810E-06,0.340
-1.800E-06,0.340
-1.790E-06,0.460
-1.780E-06,0.600
-1.770E-06,0.640
-1.760E-06,0.540
-1.750E-06,0.460
-1.740E-06,0.360
-1.730E-06,0.360
-1.720E-06,0.420
-1.710E-06,0.420
-1.700E-06,0.400
-1.690E-06,0.300
-1.680E-06,0.260
-1.670E-06,0.240
-1.660E-06,0.200
-1.650E-06,0.080
-1.640E-06,0.020
-1.630E-06,-0.120
-1.620E-06,-0.160
-1.610E-06,-0.220
-1.600E-06,-0.180
-1.590E-06,-0.240
-1.580E-06,-0.320
-1.570E-06,-0.380
-1.560E-06,-0.480
-1.550E-06,-0.460
-1.540E-06,-0.420
-1.530E-06,-0.400
-1.520E-06,-0.380
-1.510E-06,-0.360
-1.500E-06,-0.400
-1.490E-06,-0.380
-1.480E-06,-0.320
-1.470E-06,-0.260
-1.460E-06,-0.200
-1.450E-06,-0.140
-1.440E-06,-0.080
-1.430E-06,-0.080
-1.420E-06,-0.020
-1.410E-06,0.040
-1.400E-06,0.100
-1.390E-06,0.160
-1.380E-06,0.140
-1.370E-06,0.180
-1.360E-06,0.180
-1.350E-06,0.200
-1.340E-06,0.180
-1.330E-06,0.260
-1.320E-06,0.260
-1.310E-06,0.220
-1.300E-06,0.200
-1.290E-06,0.100
-1.280E-06,0.080
-1.270E-06,0.000
-1.260E-06,-0.020
-1.250E-06,-0.120
-1.240E-06,0.000
-1.230E-06,-0.020
-1.220E-06,-0.020
-1.210E-06,0.000
-1.200E-06,-0.060
-1.190E-06,-0.080
-1.180E-06,-0.120
-1.170E-06,-0.140
-1.160E-06,-0.160
-1.150E-06,-0.060
-1.140E-06,0.000
-1.130E-06,0.040
-1.120E-06,0.100
-1.110E-06,0.120
-1.100E-06,0.140
-1.090E-06,0.100
-1.080E-06,0.120
-1.070E-06,0.100
-1.060E-06,0.160
-1.050E-06,0.240
-1.040E-06,0.220
-1.030E-06,0.280
-1.020E-06,0.240
-1.010E-06,0.340
-1.000E-06,0.220
-9.900E-07,0.380
-9.800E-07,0.220
-9.700E-07,-0.020
-9.600E-07,-0.180
-9.500E-07,-0.140
-9.400E-07,-0.140
-9.300E-07,0.100
-9.200E-07,0.480
-9.100E-07,0.500
-9.000E-07,0.500
-8.900E-07,0.480
-8.800E-07,0.580
-8.700E-07,0.640
-8.600E-07,0.680
-8.500E-07,0.600
-8.400E-07,0.640
-8.300E-07,0.480
-8.200E-07,0.560
-8.100E-07,0.760
-8.000E-07,0.760
-7.900E-07,0.580
-7.800E-07,0.460
-7.700E-07,0.140
-7.600E-07,0.160
-7.500E-07,0.080
-7.400E-07,0.260
-7.300E-07,0.200
-7.200E-07,0.020
-7.100E-07,-0.060
-7.000E-07,-0.180
-6.900E-07,-0.080
-6.800E-07,0.000
-6.700E-07,-0.020
-6.600E-07,-0.060
-6.500E-07,-0.140
-6.400E-07,-0.180
-6.300E-07,-0.120
-6.200E-07,-0.060
-6.100E-07,0.020
-6.000E-07,0.000
-5.900E-07,0.020
-5.800E-07,-0.020
-5.700E-07,-0.040
-5.600E-07,-0.020
-5.500E-07,-0.020
-5.400E-07,-0.060
-5.300E-07,-0.100
-5.200E-07,-0.060
-5.100E-07,-0.020
-5.000E-07,0.020
-4.900E-07,0.020
-4.800E-07,0.060
-4.700E-07,0.060
-4.600E-07,0.080
-4.500E-07,0.140
-4.400E-07,0.220
-4.300E-07,0.360
-4.200E-07,0.360
-4.100E-07,0.420
-4.000E-07,0.380
-3.900E-07,0.360
-3.800E-07,0.320
-3.700E-07,0.320
-3.600E-07,0.340
-3.500E-07,0.380
-3.400E-07,0.340
-3.300E-07,0.320
-3.200E-07,0.300
-3.100E-07,0.320
-3.000E-07,0.220
-2.900E-07,0.200
-2.800E-07,0.180
-2.700E-07,0.120
-2.600E-07,0.080
-2.500E-07,0.020
-2.400E-07,-0.120
-2.300E-07,-0.240
-2.200E-07,-0.160
-2.100E-07,-0.320
-2.000E-07,-0.200
-1.900E-07,-0.160
-1.800E-07,-0.160
-1.700E-07,0.060
-1.600E-07,0.060
-1.500E-07,0.120
-1.400E-07,0.080
-1.300E-07,0.040
-1.200E-07,-0.060
-1.100E-07,-0.080
-1.000E-07,0.000
-9.000E-08,0.020
-8.000E-08,-0.060
-7.000E-08,0.040
-6.000E-08,-0.140
-5.000E-08,-0.340
-4.000E-08,-0.920
-3.000E-08,-1.200
-2.000E-08,-2.500
-1.000E-08,-2.640
0.000E+00,-2.640
1.000E-08,-2.640
2.000E-08,-1.020
3.000E-08,1.200
4.000E-08,1.460
5.000E-08,1.700
6.000E-08,0.480
7.000E-08,-0.480
8.000E-08,-0.340
9.000E-08,0.200
1.000E-07,1.220
1.100E-07,0.900
1.200E-07,0.500
1.300E-07,0.040
1.400E-07,0.120
1.500E-07,0.300
1.600E-07,0.440
1.700E-07,0.080
1.800E-07,-0.420
1.900E-07,-0.560
2.000E-07,-0.160
2.100E-07,0.340
2.200E-07,0.600
2.300E-07,0.180
2.400E-07,-0.600
2.500E-07,-1.100
2.600E-07,-1.020
2.700E-07,-0.340
2.800E-07,-0.020
2.900E-07,0.020
3.000E-07,-0.300
3.100E-07,-0.760
3.200E-07,-0.700
3.300E-07,-0.320
3.400E-07,0.000
3.500E-07,0.180
3.600E-07,0.080
3.700E-07,-0.020
3.800E-07,-0.100
3.900E-07,-0.040
4.000E-07,0.020
4.100E-07,0.080
4.200E-07,0.200
4.300E-07,0.160
4.400E-07,0.220
4.500E-07,0.120
4.600E-07,0.000
4.700E-07,0.080
4.800E-07,0.180
4.900E-07,0.340
5.000E-07,0.400
5.100E-07,0.260
5.200E-07,0.100
5.300E-07,0.060
5.400E-07,0.140
5.500E-07,0.260
5.600E-07,0.180
5.700E-07,0.140
5.800E-07,0.020
5.900E-07,-0.160
6.000E-07,-0.300
6.100E-07,-0.440
6.200E-07,-0.720
6.300E-07,-0.840
6.400E-07,-1.100
6.500E-07,-1.220
6.600E-07,-1.240
6.700E-07,-1.180
6.800E-07,-1.180
6.900E-07,-1.180
7.000E-07,-1.060
7.100E-07,-1.040
7.200E-07,-0.960
7.300E-07,-0.900
7.400E-07,-0.660
7.500E-07,-0.560
7.600E-07,-0.320
7.700E-07,-0.160
7.800E-07,-0.020
7.900E-07,0.040
8.000E-07,0.100
8.100E-07,0.120
8.200E-07,0.120
8.300E-07,0.200
8.400E-07,0.260
8.500E-07,0.280
8.600E-07,0.260
8.700E-07,0.020
8.800E-07,0.100
8.900E-07,-0.220
9.000E-07,-0.220
9.100E-07,-0.260
9.200E-07,-0.340
9.300E-07,-0.240
9.400E-07,-0.100
9.500E-07,0.000
9.600E-07,0.160
9.700E-07,0.140
9.800E-07,0.240
9.900E-07,0.200
1.000E-06,0.220
1.010E-06,0.360
1.020E-06,0.280
1.030E-06,0.300
1.040E-06,0.140
1.050E-06,-0.140
1.060E-06,-0.500
1.070E-06,-0.280
1.080E-06,-0.920
1.090E-06,-0.020
1.100E-06,-0.500
1.110E-06,0.120
1.120E-06,-0.200
1.130E-06,-0.560
1.140E-06,-0.260
1.150E-06,-0.660
1.160E-06,-0.520
1.170E-06,-0.200
1.180E-06,0.020
1.190E-06,-0.040
1.200E-06,0.000
1.210E-06,-0.040
1.220E-06,-0.360
1.230E-06,-0.720
1.240E-06,-0.680
1.250E-06,-0.560
1.260E-06,-0.460
1.270E-06,0.020
1.280E-06,0.340
1.290E-06,0.120
1.300E-06,0.100
1.310E-06,0.460
1.320E-06,0.380
1.330E-06,0.660
1.340E-06,0.940
1.350E-06,0.880
1.360E-06,0.780
1.370E-06,0.640
1.380E-06,0.760
1.390E-06,0.540
1.400E-06,0.540
1.410E-06,0.600
1.420E-06,0.260
1.430E-06,0.440
1.440E-06,0.260
1.450E-06,0.260
1.460E-06,-0.040
1.470E-06,-0.160
1.480E-06,-0.280
1.490E-06,-0.420
1.500E-06,-0.420
1.510E-06,-0.500
1.520E-06,-0.700
1.530E-06,-0.920
1.540E-06,-0.860
1.550E-06,-0.760
1.560E-06,-0.820
1.570E-06,-0.800
1.580E-06,-0.880
1.590E-06,-1.020
1.600E-06,-0.980
1.610E-06,-0.940
1.620E-06,-0.780
1.630E-06,-0.820
1.640E-06,-0.660
1.650E-06,-0.440
1.660E-06,-0.300
1.670E-06,-0.020
1.680E-06,0.100
1.690E-06,0.100
1.700E-06,0.040
1.710E-06,0.100
1.720E-06,0.240
1.730E-06,0.240
1.740E-06,0.260
1.750E-06,0.180
1.760E-06,-0.060
1.770E-06,-0.180
1.780E-06,-0.340
1.790E-06,-0.440
1.800E-06,-0.600
1.810E-06,-0.700
1.820E-06,-0.820
1.830E-06,-0.920
1.840E-06,-0.960
1.850E-06,-1.020
1.860E-06,-1.060
1.870E-06,-1.140
1.880E-06,-1.160
1.890E-06,-1.040
1.900E-06,-1.000
1.910E-06,-0.980
1.920E-06,-0.960
1.930E-06,-0.960
1.940E-06,-1.040
1.950E-06,-1.160
1.960E-06,-1.440
1.970E-06,-1.620
1.980E-06,-2.040
1.990E-06,-2.060
2.000E-06,-2.200
2.010E-06,-2.300
2.020E-06,-2.280
2.030E-06,-2.340
2.040E-06,-2.660
2.050E-06,-2.640
2.060E-06,-2.640
2.070E-06,-2.640
2.080E-06,-2.640
2.090E-06,-2.640
2.100E-06,-2.280
2.110E-06,-2.080
2.120E-06,-2.100
2.130E-06,-2.000
2.140E-06,-2.160
2.150E-06,-2.340
2.160E-06,-1.720
2.170E-06,-1.800
2.180E-06,-1.320
2.190E-06,-1.100
2.200E-06,-0.820
2.210E-06,-0.740
2.220E-06,-0.780
2.230E-06,-0.360
2.240E-06,-0.480
2.250E-06,0.000
2.260E-06,0.280
2.270E-06,0.620
2.280E-06,0.500
2.290E-06,0.500
2.300E-06,0.280
2.310E-06,0.300
2.320E-06,0.160
2.330E-06,0.180
2.340E-06,-0.160
2.350E-06,-0.400
2.360E-06,-0.640
2.370E-06,-0.920
2.380E-06,-1.240
2.390E-06,-1.480
2.400E-06,-1.680
2.410E-06,-1.780
2.420E-06,-1.880
2.430E-06,-1.860
2.440E-06,-2.020
2.450E-06,-2.260
2.460E-06,-2.440
2.470E-06,-2.660
2.480E-06,-2.640
2.490E-06,-2.660
2.500E-06,-2.660
2.510E-06,-2.660
2.520E-06,-2.660
2.530E-06,-2.640
2.540E-06,-2.640
2.550E-06,-2.640
2.560E-06,-2.660
2.570E-06,-2.660
2.580E-06,-2.660
2.590E-06,-2.660
2.600E-06,-2.660
2.610E-06,-2.660
2.620E-06,-2.660
2.630E-06,-2.660
2.640E-06,-2.660
2.650E-06,-2.660
2.660E-06,-2.680
2.670E-06,-2.680
2.680E-06,-2.660
2.690E-06,-2.660
2.700E-06,-2.660
2.710E-06,-2.660
2.720E-06,-2.640
2.730E-06,-2.640
2.740E-06,-2.640
2.750E-06,-2.660
2.760E-06,-2.660
2.770E-06,-2.660
2.780E-06,-2.640
2.790E-06,-2.640
2.800E-06,-2.640
2.810E-06,-2.640
2.820E-06,-2.640
2.830E-06,-2.640
2.840E-06,-2.640
2.850E-06,-2.660
2.860E-06,-2.660
2.870E-06,-2.660
2.880E-06,-2.660
2.890E-06,-2.660
2.900E-06,-2.660
2.910E-06,-2.660
2.920E-06,-2.660
2.930E-06,-2.660
2.940E-06,-2.640
2.950E-06,-2.640
2.960E-06,-2.660
2.970E-06,-2.660
2.980E-06,-2.680
2.990E-06,-2.680
3.000E-06,-2.660
3.010E-06,-2.660
3.020E-06,-2.640
3.030E-06,-2.660
3.040E-06,-2.660
3.050E-06,-2.660
3.060E-06,-2.640
3.070E-06,-2.640
3.080E-06,-2.660
3.090E-06,-2.660
3.100E-06,-2.660
3.110E-06,-2.580
3.120E-06,-1.440
3.130E-06,-0.360
3.140E-06,0.520
3.150E-06,1.220
3.160E-06,1.620
3.170E-06,1.680
3.180E-06,1.600
3.190E-06,1.420
3.200E-06,1.120
3.210E-06,0.720
3.220E-06,0.180
3.230E-06,-0.500
3.240E-06,-1.260
3.250E-06,-1.980
3.260E-06,-2.660
3.270E-06,-2.680
3.280E-06,-2.680
3.290E-06,-2.660
3.300E-06,-2.660
3.310E-06,-2.640
3.320E-06,-2.660
3.330E-06,-2.660
3.340E-06,-2.660
3.350E-06,-2.660
3.360E-06,-2.660
3.370E-06,-2.660
3.380E-06,-2.660
3.390E-06,-2.680
3.400E-06,-2.660
3.410E-06,-2.660
3.420E-06,-2.660
3.430E-06,-2.600
3.440E-06,-2.300
3.450E-06,-2.040
3.460E-06,-1.920
3.470E-06,-1.920
3.480E-06,-2.000
3.490E-06,-2.140
3.500E-06,-2.320
3.510E-06,-2.520
3.520E-06,-2.660
3.530E-06,-2.660
3.540E-06,-2.660
3.550E-06,-2.660
3.560E-06,-2.660
3.570E-06,-2.660
3.580E-06,-2.660
3.590E-06,-2.640
3.600E-06,-2.660
3.610E-06,-2.640
3.620E-06,-2.440
3.630E-06,-2.240
3.640E-06,-2.040
3.650E-06,-1.840
3.660E-06,-1.700
3.670E-06,-1.540
3.680E-06,-1.420
3.690E-06,-1.300
3.700E-06,-1.280
3.710E-06,-1.200
3.720E-06,-1.160
3.730E-06,-1.200
3.740E-06,-1.180
3.750E-06,-1.240
3.760E-06,-1.240
3.770E-06,-1.320
3.780E-06,-1.400
3.790E-06,-1.500
3.800E-06,-1.600
3.810E-06,-1.680
3.820E-06,-1.840
3.830E-06,-2.000
3.840E-06,-2.120
3.850E-06,-2.260
3.860E-06,-2.380
3.870E-06,-2.460
3.880E-06,-2.540
3.890E-06,-2.580
3.900E-06,-2.620
3.910E-06,-2.640
3.920E-06,-2.600
3.930E-06,-2.580
3.940E-06,-2.540
3.950E-06,-2.480
3.960E-06,-2.360
3.970E-06,-2.300
3.980E-06,-2.200
3.990E-06,-2.120
4.000E-06,-2.020
4.010E-06,-1.880
4.020E-06,-1.780
4.030E-06,-1.700
4.040E-06,-1.640
4.050E-06,-1.540
4.060E-06,-1.420
4.070E-06,-1.380
4.080E-06,-1.400
4.090E-06,-1.380
4.100E-06,-1.360
4.110E-06,-1.360
4.120E-06,-1.400
4.130E-06,-1.420
4.140E-06,-1.440
4.150E-06,-1.480
4.160E-06,-1.460
4.170E-06,-1.480
4.180E-06,-1.420
4.190E-06,-1.420
4.200E-06,-1.420
4.210E-06,-1.360
4.220E-06,-1.280
4.230E-06,-1.180
4.240E-06,-1.100
4.250E-06,-1.040
4.260E-06,-0.960
4.270E-06,-0.920
4.280E-06,-0.820
4.290E-06,-0.800
4.300E-06,-0.760
4.310E-06,-0.740
4.320E-06,-0.760
4.330E-06,-0.820
4.340E-06,-0.780
4.350E-06,-0.800
4.360E-06,-0.820
4.370E-06,-0.880
4.380E-06,-0.860
4.390E-06,-0.880
4.400E-06,-0.920
4.410E-06,-0.880
4.420E-06,-0.920
4.430E-06,-0.900
4.440E-06,-0.900
4.450E-06,-0.860
4.460E-06,-0.820
4.470E-06,-0.800
4.480E-06,-0.740
4.490E-06,-0.680
4.500E-06,-0.640
4.510E-06,-0.620
4.520E-06,-0.620
4.530E-06,-0.600
4.540E-06,-0.600
4.550E-06,-0.600
4.560E-06,-0.600
4.570E-06,-0.640
4.580E-06,-0.700
4.590E-06,-0.760
4.600E-06,-0.760
4.610E-06,-0.840
4.620E-06,-0.920
4.630E-06,-1.020
4.640E-06,-1.100
4.650E-06,-1.180
4.660E-06,-1.280
4.670E-06,-1.360
4.680E-06,-1.380
4.690E-06,-1.460
4.700E-06,-1.460
4.710E-06,-1.480
4.720E-06,-1.500
4.730E-06,-1.520
4.740E-06,-1.520
4.750E-06,-1.480
4.760E-06,-1.400
4.770E-06,-1.360
4.780E-06,-1.240
4.790E-06,-1.160
4.800E-06,-1.120
4.810E-06,-1.020
4.820E-06,-0.920
4.830E-06,-0.860
4.840E-06,-0.840
4.850E-06,-0.840
4.860E-06,-0.780
4.870E-06,-0.740
4.880E-06,-0.720
4.890E-06,-0.680
4.900E-06,-0.640
4.910E-06,-0.620
4.920E-06,-0.620
4.930E-06,-0.580
4.940E-06,-0.580
4.950E-06,-0.560
4.960E-06,-0.540
4.970E-06,-0.480
4.980E-06,-0.420
4.990E-06,-0.380
5.000E-06,-0.320
5.010E-06,-0.280
5.020E-06,-0.200
5.030E-06,-0.180
5.040E-06,-0.120
5.050E-06,-0.100
5.060E-06,-0.080
5.070E-06,-0.080
5.080E-06,-0.080
5.090E-06,-0.080
5.100E-06,-0.080
5.110E-06,-0.120
5.120E-06,-0.160
5.130E-06,-0.160
5.140E-06,-0.240
5.150E-06,-0.260
5.160E-06,-0.320
5.170E-06,-0.360
5.180E-06,-0.320
5.190E-06,-0.380
5.200E-06,-0.360
5.210E-06,-0.400
5.220E-06,-0.400
5.230E-06,-0.360
5.240E-06,-0.400
5.250E-06,-0.380
5.260E-06,-0.360
5.270E-06,-0.260
5.280E-06,-0.240
5.290E-06,-0.180
5.300E-06,-0.080
5.310E-06,-0.060
5.320E-06,0.000
5.330E-06,0.020
5.340E-06,0.040
5.350E-06,0.040
5.360E-06,0.080
5.370E-06,0.120
5.380E-06,0.160
5.390E-06,0.200
5.400E-06,0.240
5.410E-06,0.280
5.420E-06,0.340
5.430E-06,0.340
5.440E-06,0.380
5.450E-06,0.320
5.460E-06,0.420
5.470E-06,0.460
5.480E-06,0.440
5.490E-06,0.440
5.500E-06,0.460
5.510E-06,0.500
5.520E-06,0.520
5.530E-06,0.540
5.540E-06,0.580
5.550E-06,0.660
5.560E-06,0.740
5.570E-06,0.860
5.580E-06,0.960
5.590E-06,1.000
5.600E-06,1.080
5.610E-06,1.080
5.620E-06,1.120
5.630E-06,1.160
5.640E-06,1.200
5.650E-06,1.180
5.660E-06,1.200
5.670E-06,1.100
5.680E-06,1.040
5.690E-06,0.940
5.700E-06,0.860
5.710E-06,0.800
5.720E-06,0.720
5.730E-06,0.720
5.740E-06,0.660
5.750E-06,0.660
5.760E-06,0.660
5.770E-06,0.660
5.780E-06,0.620
5.790E-06,0.600
5.800E-06,0.540
5.810E-06,0.500
5.820E-06,0.460
5.830E-06,0.400
5.840E-06,0.340
5.850E-06,0.280
5.860E-06,0.220
5.870E-06,0.140
5.880E-06,0.060
5.890E-06,-0.020
5.900E-06,-0.040
5.910E-06,-0.120
5.920E-06,-0.160
5.930E-06,-0.220
5.940E-06,-0.260
5.950E-06,-0.300
5.960E-06,-0.340
5.970E-06,-0.360
5.980E-06,-0.400
5.990E-06,-0.440
6.000E-06,-0.440
6.010E-06,-0.460
6.020E-06,-0.440
6.030E-06,-0.480
6.040E-06,-0.500
6.050E-06,-0.500
6.060E-06,-0.480
6.070E-06,-0.520
6.080E-06,-0.480
6.090E-06,-0.520
6.100E-06,-0.580
6.110E-06,-0.640
6.120E-06,-0.660
6.130E-06,-0.720
6.140E-06,-0.800
6.150E-06,-0.800
6.160E-06,-0.860
6.170E-06,-0.860
6.180E-06,-0.900
6.190E-06,-0.880
6.200E-06,-0.920
6.210E-06,-0.900
6.220E-06,-0.900
6.230E-06,-0.940
6.240E-06,-0.880
6.250E-06,-0.860
6.260E-06,-0.820
6.270E-06,-0.740
6.280E-06,-0.600
6.290E-06,-0.560
6.300E-06,-0.460
6.310E-06,-0.380
6.320E-06,-0.300
6.330E-06,-0.280
6.340E-06,-0.220
6.350E-06,-0.120
6.360E-06,-0.060
6.370E-06,0.000
6.380E-06,0.060
6.390E-06,0.080
6.400E-06,0.100
6.410E-06,0.040
6.420E-06,0.060
6.430E-06,0.080
6.440E-06,0.100
6.450E-06,0.160
6.460E-06,0.320
6.470E-06,0.420
6.480E-06,0.520
6.490E-06,0.740
6.500E-06,0.860
6.510E-06,1.000
6.520E-06,1.160
6.530E-06,1.300
6.540E-06,1.420
6.550E-06,1.480
6.560E-06,1.500
6.570E-06,1.520
6.580E-06,1.480
6.590E-06,1.420
6.600E-06,1.320
6.610E-06,1.220
6.620E-06,1.160
6.630E-06,1.040
6.640E-06,0.980
6.650E-06,0.940
6.660E-06,0.900
6.670E-06,0.960
6.680E-06,1.040
6.690E-06,1.140
6.700E-06,1.200
6.710E-06,1.320
6.720E-06,1.380
6.730E-06,1.440
6.740E-06,1.440
6.750E-06,1.420
6.760E-06,1.360
6.770E-06,1.300
6.780E-06,1.260
6.790E-06,1.260
6.800E-06,1.320
6.810E-06,1.420
6.820E-06,1.520
6.830E-06,1.660
6.840E-06,1.800
6.850E-06,1.840
6.860E-06,1.880
6.870E-06,1.840
6.880E-06,1.820
6.890E-06,1.740
6.900E-06,1.640
6.910E-06,1.580
6.920E-06,1.460
6.930E-06,1.400
6.940E-06,1.300
6.950E-06,1.260
6.960E-06,1.200
6.970E-06,1.080
6.980E-06,1.020
6.990E-06,1.000
7.000E-06,0.980
7.010E-06,0.960
7.020E-06,0.960
7.030E-06,0.940
7.040E-06,0.900
7.050E-06,0.800
7.060E-06,0.660
7.070E-06,0.520
7.080E-06,0.420
7.090E-06,0.280
7.100E-06,0.220
7.110E-06,0.240
7.120E-06,0.260
7.130E-06,0.420
7.140E-06,0.560
7.150E-06,0.720
7.160E-06,0.860
7.170E-06,1.000
7.180E-06,1.160
7.190E-06,1.320
7.200E-06,1.460
7.210E-06,1.560
7.220E-06,1.640
7.230E-06,1.740
7.240E-06,1.780
7.250E-06,1.740
7.260E-06,1.760
7.270E-06,1.740
7.280E-06,1.740
7.290E-06,1.680
7.300E-06,1.660
7.310E-06,1.660
7.320E-06,1.660
7.330E-06,1.680
7.340E-06,1.660
7.350E-06,1.660
7.360E-06,1.660
7.370E-06,1.600
7.380E-06,1.580
7.390E-06,1.620
7.400E-06,1.580
7.410E-06,1.620
7.420E-06,1.680
7.430E-06,1.740
7.440E-06,1.780
7.450E-06,1.820
7.460E-06,1.880
7.470E-06,1.900
7.480E-06,1.900
7.490E-06,1.860
7.500E-06,1.860
7.510E-06,1.800
7.520E-06,1.680
7.530E-06,1.640
7.540E-06,1.580
7.550E-06,1.500
7.560E-06,1.480
7.570E-06,1.400
7.580E-06,1.400
7.590E-06,1.340
7.600E-06,1.260
7.610E-06,1.280
7.620E-06,1.260
7.630E-06,1.280
7.640E-06,1.320
7.650E-06,1.360
7.660E-06,1.420
7.670E-06,1.440
7.680E-06,1.520
7.690E-06,1.540
7.700E-06,1.660
7.710E-06,1.680
7.720E-06,1.800
7.730E-06,1.900
7.740E-06,2.020
7.750E-06,2.140
7.760E-06,2.220
7.770E-06,2.360
7.780E-06,2.520
7.790E-06,2.700
7.800E-06,2.780
7.810E-06,2.760
7.820E-06,2.780
7.830E-06,2.760
7.840E-06,2.740
7.850E-06,2.760
7.860E-06,2.780
7.870E-06,2.780
7.880E-06,2.760
7.890E-06,2.780
7.900E-06,2.780
7.910E-06,2.760
7.920E-06,2.780
7.930E-06,2.760
7.940E-06,2.760
7.950E-06,2.740
7.960E-06,2.760
7.970E-06,2.760
7.980E-06,2.780
7.990E-06,2.780
8.000E-06,2.760
8.010E-06,2.760
8.020E-06,2.780
8.030E-06,2.760
8.040E-06,2.740
8.050E-06,2.760
8.060E-06,2.760
8.070E-06,2.760
8.080E-06,2.760
8.090E-06,2.740
8.100E-06,2.760
8.110E-06,2.760
8.120E-06,2.760
8.130E-06,2.760
8.140E-06,2.740
8.150E-06,2.760
8.160E-06,2.760
8.170E-06,2.740
8.180E-06,2.760
8.190E-06,2.780
8.200E-06,2.760
8.210E-06,2.760
8.220E-06,2.780
8.230E-06,2.760
8.240E-06,2.740
8.250E-06,2.760
8.260E-06,2.760
8.270E-06,2.780
8.280E-06,2.780
8.290E-06,2.760
8.300E-06,2.780
8.310E-06,2.780
8.320E-06,2.760
8.330E-06,2.780
8.340E-06,2.780
8.350E-06,2.760
8.360E-06,2.780
8.370E-06,2.760
8.380E-06,2.680
8.390E-06,2.560
8.400E-06,2.540
8.410E-06,2.520
8.420E-06,2.540
8.430E-06,2.580
8.440E-06,2.620
8.450E-06,2.660
8.460E-06,2.640
8.470E-06,2.640
8.480E-06,2.540
8.490E-06,2.480
8.500E-06,2.400
8.510E-06,2.260
8.520E-06,2.100
8.530E-06,2.000
8.540E-06,1.860
8.550E-06,1.760
8.560E-06,1.680
8.570E-06,1.580
8.580E-06,1.560
8.590E-06,1.540
8.600E-06,1.580
8.610E-06,1.660
8.620E-06,1.700
8.630E-06,1.740
8.640E-06,1.760
8.650E-06,1.800
8.660E-06,1.780
8.670E-06,1.720
8.680E-06,1.700
8.690E-06,1.640
8.700E-06,1.600
8.710E-06,1.540
8.720E-06,1.500
8.730E-06,1.460
8.740E-06,1.440
8.750E-06,1.440
8.760E-06,1.460
8.770E-06,1.480
8.780E-06,1.480
8.790E-06,1.500
8.800E-06,1.480
8.810E-06,1.480
8.820E-06,1.420
8.830E-06,1.420
8.840E-06,1.400
8.850E-06,1.340
8.860E-06,1.280
8.870E-06,1.260
8.880E-06,1.220
8.890E-06,1.200
8.900E-06,1.220
8.910E-06,1.260
8.920E-06,1.280
8.930E-06,1.280
8.940E-06,1.340
8.950E-06,1.340
8.960E-06,1.360
8.970E-06,1.360
8.980E-06,1.360
8.990E-06,1.360
9.000E-06,1.320
9.010E-06,1.320
9.020E-06,1.300
9.030E-06,1.240
9.040E-06,1.220
9.050E-06,1.140
9.060E-06,1.120
9.070E-06,1.020
9.080E-06,0.960
9.090E-06,0.920
9.100E-06,0.880
9.110E-06,0.880
9.120E-06,0.900
9.130E-06,0.920
9.140E-06,0.980
9.150E-06,1.020
9.160E-06,1.100
9.170E-06,1.120
9.180E-06,1.160
9.190E-06,1.180
9.200E-06,1.200
9.210E-06,1.200
9.220E-06,1.220
9.230E-06,1.200
9.240E-06,1.160
9.250E-06,1.160
9.260E-06,1.140
9.270E-06,1.140
9.280E-06,1.160
9.290E-06,1.120
9.300E-06,1.140
9.310E-06,1.180
9.320E-06,1.180
9.330E-06,1.200
9.340E-06,1.200
9.350E-06,1.200
9.360E-06,1.240
9.370E-06,1.220
9.380E-06,1.200
9.390E-06,1.220
9.400E-06,1.200
9.410E-06,1.160
9.420E-06,1.120
9.430E-06,1.040
9.440E-06,1.020
9.450E-06,0.980
9.460E-06,0.940
9.470E-06,0.880
9.480E-06,0.860
9.490E-06,0.840
9.500E-06,0.840
9.510E-06,0.860
9.520E-06,0.840
9.530E-06,0.780
9.540E-06,0.780
9.550E-06,0.720
9.560E-06,0.700
9.570E-06,0.660
9.580E-06,0.660
9.590E-06,0.580
9.600E-06,0.540
9.610E-06,0.500
9.620E-06,0.460
9.630E-06,0.420
9.640E-06,0.380
9.650E-06,0.360
9.660E-06,0.380
9.670E-06,0.380
9.680E-06,0.440
9.690E-06,0.480
9.700E-06,0.460
9.710E-06,0.500
