mediciones/Mediciones filtradas (saque las feas)/5-15/7.5/WaveData47177.csv

#timebase=2000000(ps)
,#voltbase=100000(mv/100)
#size=4000
-8.400E-06,0.004
-8.390E-06,0.004
-8.380E-06,0.008
-8.370E-06,0.008
-8.360E-06,0.000
-8.350E-06,0.004
-8.340E-06,-0.004
-8.330E-06,0.000
-8.320E-06,0.004
-8.310E-06,0.004
-8.300E-06,0.000
-8.290E-06,0.000
-8.280E-06,0.004
-8.270E-06,0.008
-8.260E-06,-0.004
-8.250E-06,-0.004
-8.240E-06,0.004
-8.230E-06,0.000
-8.220E-06,0.008
-8.210E-06,0.000
-8.200E-06,0.004
-8.190E-06,0.004
-8.180E-06,0.000
-8.170E-06,0.000
-8.160E-06,-0.004
-8.150E-06,0.004
-8.140E-06,0.012
-8.130E-06,0.004
-8.120E-06,0.000
-8.110E-06,0.004
-8.100E-06,0.004
-8.090E-06,0.004
-8.080E-06,0.004
-8.070E-06,0.000
-8.060E-06,0.000
-8.050E-06,0.004
-8.040E-06,0.004
-8.030E-06,0.000
-8.020E-06,0.004
-8.010E-06,0.004
-8.000E-06,0.008
-7.990E-06,0.008
-7.980E-06,0.000
-7.970E-06,-0.004
-7.960E-06,0.000
-7.950E-06,-0.004
-7.940E-06,0.000
-7.930E-06,0.004
-7.920E-06,0.008
-7.910E-06,0.008
-7.900E-06,0.008
-7.890E-06,0.004
-7.880E-06,0.004
-7.870E-06,0.004
-7.860E-06,0.004
-7.850E-06,0.008
-7.840E-06,0.008
-7.830E-06,0.004
-7.820E-06,0.000
-7.810E-06,-0.008
-7.800E-06,0.000
-7.790E-06,0.000
-7.780E-06,0.008
-7.770E-06,0.012
-7.760E-06,0.012
-7.750E-06,0.004
-7.740E-06,-0.004
-7.730E-06,-0.004
-7.720E-06,0.000
-7.710E-06,0.008
-7.700E-06,0.008
-7.690E-06,0.008
-7.680E-06,0.004
-7.670E-06,-0.004
-7.660E-06,0.004
-7.650E-06,0.004
-7.640E-06,0.000
-7.630E-06,0.004
-7.620E-06,-0.004
-7.610E-06,0.000
-7.600E-06,-0.004
-7.590E-06,0.000
-7.580E-06,0.008
-7.570E-06,0.004
-7.560E-06,0.004
-7.550E-06,-0.004
-7.540E-06,0.000
-7.530E-06,-0.004
-7.520E-06,-0.004
-7.510E-06,0.008
-7.500E-06,0.004
-7.490E-06,-0.008
-7.480E-06,-0.004
-7.470E-06,0.004
-7.460E-06,0.008
-7.450E-06,0.004
-7.440E-06,0.004
-7.430E-06,-0.004
-7.420E-06,-0.012
-7.410E-06,0.000
-7.400E-06,0.008
-7.390E-06,0.024
-7.380E-06,0.020
-7.370E-06,0.004
-7.360E-06,-0.008
-7.350E-06,-0.016
-7.340E-06,-0.004
-7.330E-06,0.012
-7.320E-06,0.020
-7.310E-06,0.016
-7.300E-06,0.008
-7.290E-06,0.000
-7.280E-06,-0.004
-7.270E-06,-0.004
-7.260E-06,0.004
-7.250E-06,0.008
-7.240E-06,0.008
-7.230E-06,0.004
-7.220E-06,-0.004
-7.210E-06,0.000
-7.200E-06,0.000
-7.190E-06,0.000
-7.180E-06,0.008
-7.170E-06,0.008
-7.160E-06,0.008
-7.150E-06,-0.004
-7.140E-06,-0.004
-7.130E-06,-0.004
-7.120E-06,-0.004
-7.110E-06,-0.004
-7.100E-06,0.008
-7.090E-06,0.012
-7.080E-06,0.012
-7.070E-06,0.000
-7.060E-06,-0.004
-7.050E-06,-0.008
-7.040E-06,-0.004
-7.030E-06,0.008
-7.020E-06,0.008
-7.010E-06,0.008
-7.000E-06,0.012
-6.990E-06,0.000
-6.980E-06,-0.004
-6.970E-06,-0.004
-6.960E-06,-0.004
-6.950E-06,0.008
-6.940E-06,0.008
-6.930E-06,0.004
-6.920E-06,0.004
-6.910E-06,-0.004
-6.900E-06,-0.004
-6.890E-06,-0.004
-6.880E-06,0.000
-6.870E-06,0.004
-6.860E-06,0.012
-6.850E-06,0.012
-6.840E-06,-0.004
-6.830E-06,0.000
-6.820E-06,-0.004
-6.810E-06,0.012
-6.800E-06,0.016
-6.790E-06,0.012
-6.780E-06,0.004
-6.770E-06,-0.012
-6.760E-06,0.000
-6.750E-06,0.000
-6.740E-06,0.008
-6.730E-06,0.012
-6.720E-06,0.012
-6.710E-06,0.004
-6.700E-06,-0.008
-6.690E-06,0.000
-6.680E-06,0.000
-6.670E-06,0.004
-6.660E-06,0.012
-6.650E-06,0.012
-6.640E-06,0.008
-6.630E-06,0.004
-6.620E-06,0.000
-6.610E-06,0.000
-6.600E-06,0.000
-6.590E-06,0.008
-6.580E-06,0.012
-6.570E-06,0.004
-6.560E-06,0.008
-6.550E-06,0.008
-6.540E-06,0.000
-6.530E-06,0.000
-6.520E-06,-0.008
-6.510E-06,-0.004
-6.500E-06,0.000
-6.490E-06,0.008
-6.480E-06,0.012
-6.470E-06,0.004
-6.460E-06,0.000
-6.450E-06,-0.004
-6.440E-06,-0.004
-6.430E-06,0.000
-6.420E-06,0.004
-6.410E-06,0.008
-6.400E-06,0.008
-6.390E-06,0.004
-6.380E-06,0.000
-6.370E-06,-0.008
-6.360E-06,-0.008
-6.350E-06,-0.004
-6.340E-06,0.000
-6.330E-06,0.008
-6.320E-06,0.004
-6.310E-06,0.000
-6.300E-06,0.004
-6.290E-06,-0.004
-6.280E-06,0.000
-6.270E-06,0.008
-6.260E-06,0.000
-6.250E-06,0.004
-6.240E-06,0.004
-6.230E-06,0.004
-6.220E-06,0.004
-6.210E-06,0.000
-6.200E-06,0.000
-6.190E-06,0.004
-6.180E-06,0.004
-6.170E-06,0.012
-6.160E-06,0.004
-6.150E-06,0.004
-6.140E-06,0.004
-6.130E-06,-0.004
-6.120E-06,0.000
-6.110E-06,0.000
-6.100E-06,0.000
-6.090E-06,0.004
-6.080E-06,0.004
-6.070E-06,0.008
-6.060E-06,0.004
-6.050E-06,0.000
-6.040E-06,-0.004
-6.030E-06,0.004
-6.020E-06,0.000
-6.010E-06,0.000
-6.000E-06,0.004
-5.990E-06,0.000
-5.980E-06,0.004
-5.970E-06,0.000
-5.960E-06,0.004
-5.950E-06,0.000
-5.940E-06,-0.004
-5.930E-06,0.004
-5.920E-06,0.000
-5.910E-06,0.004
-5.900E-06,0.008
-5.890E-06,0.004
-5.880E-06,0.004
-5.870E-06,0.000
-5.860E-06,0.004
-5.850E-06,0.004
-5.840E-06,0.004
-5.830E-06,0.000
-5.820E-06,0.008
-5.810E-06,0.004
-5.800E-06,0.004
-5.790E-06,0.004
-5.780E-06,0.000
-5.770E-06,0.004
-5.760E-06,0.004
-5.750E-06,0.008
-5.740E-06,0.008
-5.730E-06,0.008
-5.720E-06,0.004
-5.710E-06,0.008
-5.700E-06,0.008
-5.690E-06,0.012
-5.680E-06,0.012
-5.670E-06,0.012
-5.660E-06,0.016
-5.650E-06,0.012
-5.640E-06,0.012
-5.630E-06,0.012
-5.620E-06,0.000
-5.610E-06,0.004
-5.600E-06,0.004
-5.590E-06,0.016
-5.580E-06,0.016
-5.570E-06,0.012
-5.560E-06,0.012
-5.550E-06,0.000
-5.540E-06,-0.004
-5.530E-06,-0.004
-5.520E-06,-0.004
-5.510E-06,0.000
-5.500E-06,0.004
-5.490E-06,0.000
-5.480E-06,-0.004
-5.470E-06,0.000
-5.460E-06,0.000
-5.450E-06,-0.004
-5.440E-06,-0.008
-5.430E-06,-0.008
-5.420E-06,-0.004
-5.410E-06,-0.004
-5.400E-06,0.000
-5.390E-06,0.008
-5.380E-06,0.008
-5.370E-06,0.004
-5.360E-06,-0.004
-5.350E-06,-0.008
-5.340E-06,0.000
-5.330E-06,0.008
-5.320E-06,0.012
-5.310E-06,0.004
-5.300E-06,-0.004
-5.290E-06,-0.004
-5.280E-06,0.000
-5.270E-06,0.004
-5.260E-06,0.008
-5.250E-06,0.008
-5.240E-06,0.008
-5.230E-06,-0.004
-5.220E-06,0.000
-5.210E-06,0.004
-5.200E-06,0.004
-5.190E-06,0.004
-5.180E-06,0.008
-5.170E-06,0.004
-5.160E-06,0.004
-5.150E-06,0.008
-5.140E-06,0.012
-5.130E-06,0.016
-5.120E-06,0.000
-5.110E-06,-0.004
-5.100E-06,0.004
-5.090E-06,0.004
-5.080E-06,0.016
-5.070E-06,0.012
-5.060E-06,0.000
-5.050E-06,-0.012
-5.040E-06,-0.016
-5.030E-06,-0.004
-5.020E-06,0.008
-5.010E-06,0.020
-5.000E-06,0.024
-4.990E-06,0.008
-4.980E-06,-0.004
-4.970E-06,-0.004
-4.960E-06,-0.008
-4.950E-06,0.000
-4.940E-06,0.004
-4.930E-06,0.024
-4.920E-06,0.024
-4.910E-06,0.020
-4.900E-06,-0.004
-4.890E-06,-0.008
-4.880E-06,-0.020
-4.870E-06,-0.004
-4.860E-06,0.004
-4.850E-06,0.024
-4.840E-06,0.024
-4.830E-06,0.012
-4.820E-06,-0.004
-4.810E-06,-0.020
-4.800E-06,-0.008
-4.790E-06,0.056
-4.780E-06,0.000
-4.770E-06,0.004
-4.760E-06,-0.016
-4.750E-06,-0.024
-4.740E-06,0.012
-4.730E-06,0.100
-4.720E-06,-0.008
-4.710E-06,-0.072
-4.700E-06,0.008
-4.690E-06,0.036
-4.680E-06,0.024
-4.670E-06,0.028
-4.660E-06,0.016
-4.650E-06,-0.024
-4.640E-06,0.008
-4.630E-06,-0.004
-4.620E-06,0.008
-4.610E-06,0.000
-4.600E-06,0.028
-4.590E-06,0.020
-4.580E-06,0.004
-4.570E-06,-0.004
-4.560E-06,-0.008
-4.550E-06,0.000
-4.540E-06,-0.008
-4.530E-06,0.024
-4.520E-06,0.032
-4.510E-06,0.020
-4.500E-06,-0.020
-4.490E-06,-0.024
-4.480E-06,-0.016
-4.470E-06,0.000
-4.460E-06,0.044
-4.450E-06,0.008
-4.440E-06,-0.004
-4.430E-06,0.004
-4.420E-06,0.020
-4.410E-06,-0.008
-4.400E-06,-0.004
-4.390E-06,0.000
-4.380E-06,0.008
-4.370E-06,0.012
-4.360E-06,0.012
-4.350E-06,0.012
-4.340E-06,-0.004
-4.330E-06,0.004
-4.320E-06,-0.004
-4.310E-06,0.000
-4.300E-06,-0.004
-4.290E-06,0.004
-4.280E-06,0.012
-4.270E-06,0.012
-4.260E-06,0.008
-4.250E-06,0.004
-4.240E-06,0.004
-4.230E-06,-0.004
-4.220E-06,0.004
-4.210E-06,0.004
-4.200E-06,0.012
-4.190E-06,0.012
-4.180E-06,0.016
-4.170E-06,0.004
-4.160E-06,-0.004
-4.150E-06,0.000
-4.140E-06,0.000
-4.130E-06,0.000
-4.120E-06,0.000
-4.110E-06,0.016
-4.100E-06,0.000
-4.090E-06,0.008
-4.080E-06,0.008
-4.070E-06,0.008
-4.060E-06,0.000
-4.050E-06,0.004
-4.040E-06,-0.004
-4.030E-06,0.008
-4.020E-06,0.008
-4.010E-06,0.024
-4.000E-06,0.016
-3.990E-06,0.024
-3.980E-06,0.008
-3.970E-06,-0.008
-3.960E-06,0.008
-3.950E-06,0.012
-3.940E-06,0.008
-3.930E-06,0.012
-3.920E-06,0.024
-3.910E-06,0.016
-3.900E-06,-0.016
-3.890E-06,-0.024
-3.880E-06,-0.028
-3.870E-06,-0.028
-3.860E-06,-0.008
-3.850E-06,0.004
-3.840E-06,0.016
-3.830E-06,0.016
-3.820E-06,0.004
-3.810E-06,-0.004
-3.800E-06,-0.020
-3.790E-06,-0.016
-3.780E-06,0.008
-3.770E-06,0.016
-3.760E-06,0.024
-3.750E-06,0.024
-3.740E-06,0.012
-3.730E-06,-0.004
-3.720E-06,-0.004
-3.710E-06,-0.004
-3.700E-06,0.000
-3.690E-06,0.016
-3.680E-06,0.024
-3.670E-06,0.020
-3.660E-06,0.020
-3.650E-06,0.008
-3.640E-06,-0.008
-3.630E-06,-0.020
-3.620E-06,-0.008
-3.610E-06,0.008
-3.600E-06,0.032
-3.590E-06,0.036
-3.580E-06,0.028
-3.570E-06,0.016
-3.560E-06,0.000
-3.550E-06,-0.008
-3.540E-06,-0.008
-3.530E-06,0.004
-3.520E-06,0.020
-3.510E-06,0.028
-3.500E-06,0.016
-3.490E-06,0.008
-3.480E-06,-0.008
-3.470E-06,-0.008
-3.460E-06,-0.004
-3.450E-06,0.008
-3.440E-06,0.024
-3.430E-06,0.036
-3.420E-06,0.040
-3.410E-06,0.028
-3.400E-06,0.016
-3.390E-06,0.004
-3.380E-06,0.004
-3.370E-06,0.016
-3.360E-06,0.032
-3.350E-06,0.040
-3.340E-06,0.044
-3.330E-06,0.028
-3.320E-06,0.008
-3.310E-06,0.000
-3.300E-06,-0.008
-3.290E-06,-0.004
-3.280E-06,0.012
-3.270E-06,0.008
-3.260E-06,0.012
-3.250E-06,0.012
-3.240E-06,0.012
-3.230E-06,-0.016
-3.220E-06,-0.032
-3.210E-06,-0.040
-3.200E-06,-0.052
-3.190E-06,-0.044
-3.180E-06,-0.028
-3.170E-06,-0.008
-3.160E-06,0.016
-3.150E-06,0.008
-3.140E-06,0.000
-3.130E-06,-0.008
-3.120E-06,-0.028
-3.110E-06,-0.020
-3.100E-06,-0.012
-3.090E-06,0.012
-3.080E-06,0.016
-3.070E-06,0.012
-3.060E-06,0.008
-3.050E-06,-0.004
-3.040E-06,-0.004
-3.030E-06,-0.016
-3.020E-06,-0.008
-3.010E-06,0.008
-3.000E-06,0.020
-2.990E-06,0.012
-2.980E-06,0.012
-2.970E-06,0.004
-2.960E-06,-0.004
-2.950E-06,-0.008
-2.940E-06,-0.004
-2.930E-06,0.008
-2.920E-06,0.020
-2.910E-06,0.024
-2.900E-06,0.024
-2.890E-06,0.008
-2.880E-06,-0.004
-2.870E-06,-0.004
-2.860E-06,0.004
-2.850E-06,0.012
-2.840E-06,0.024
-2.830E-06,0.028
-2.820E-06,0.012
-2.810E-06,0.004
-2.800E-06,0.008
-2.790E-06,0.016
-2.780E-06,0.024
-2.770E-06,0.028
-2.760E-06,0.020
-2.750E-06,0.028
-2.740E-06,0.032
-2.730E-06,0.024
-2.720E-06,0.016
-2.710E-06,0.032
-2.700E-06,0.028
-2.690E-06,0.028
-2.680E-06,0.024
-2.670E-06,0.016
-2.660E-06,0.020
-2.650E-06,0.020
-2.640E-06,0.028
-2.630E-06,0.024
-2.620E-06,0.020
-2.610E-06,0.016
-2.600E-06,0.024
-2.590E-06,0.028
-2.580E-06,0.024
-2.570E-06,0.028
-2.560E-06,0.012
-2.550E-06,0.016
-2.540E-06,0.012
-2.530E-06,0.012
-2.520E-06,0.012
-2.510E-06,0.020
-2.500E-06,0.024
-2.490E-06,0.028
-2.480E-06,0.028
-2.470E-06,0.008
-2.460E-06,0.016
-2.450E-06,0.024
-2.440E-06,0.024
-2.430E-06,0.016
-2.420E-06,0.016
-2.410E-06,0.020
-2.400E-06,0.012
-2.390E-06,0.012
-2.380E-06,0.008
-2.370E-06,0.020
-2.360E-06,0.016
-2.350E-06,0.012
-2.340E-06,0.016
-2.330E-06,0.016
-2.320E-06,0.012
-2.310E-06,0.012
-2.300E-06,0.012
-2.290E-06,0.012
-2.280E-06,0.012
-2.270E-06,0.024
-2.260E-06,0.024
-2.250E-06,0.024
-2.240E-06,0.008
-2.230E-06,0.016
-2.220E-06,0.008
-2.210E-06,0.004
-2.200E-06,0.008
-2.190E-06,0.016
-2.180E-06,0.032
-2.170E-06,0.016
-2.160E-06,0.024
-2.150E-06,0.024
-2.140E-06,0.012
-2.130E-06,0.004
-2.120E-06,0.000
-2.110E-06,0.008
-2.100E-06,0.016
-2.090E-06,0.024
-2.080E-06,0.016
-2.070E-06,0.016
-2.060E-06,0.000
-2.050E-06,0.004
-2.040E-06,0.008
-2.030E-06,0.016
-2.020E-06,0.024
-2.010E-06,0.028
-2.000E-06,0.032
-1.990E-06,0.028
-1.980E-06,0.020
-1.970E-06,0.012
-1.960E-06,0.020
-1.950E-06,0.012
-1.940E-06,0.028
-1.930E-06,0.028
-1.920E-06,0.036
-1.910E-06,0.028
-1.900E-06,0.008
-1.890E-06,-0.004
-1.880E-06,0.000
-1.870E-06,0.012
-1.860E-06,0.024
-1.850E-06,0.036
-1.840E-06,0.032
-1.830E-06,0.028
-1.820E-06,0.032
-1.810E-06,0.032
-1.800E-06,0.024
-1.790E-06,0.028
-1.780E-06,0.036
-1.770E-06,0.044
-1.760E-06,0.052
-1.750E-06,0.048
-1.740E-06,0.048
-1.730E-06,0.032
-1.720E-06,0.024
-1.710E-06,0.032
-1.700E-06,0.040
-1.690E-06,0.044
-1.680E-06,0.060
-1.670E-06,0.060
-1.660E-06,0.052
-1.650E-06,0.044
-1.640E-06,0.028
-1.630E-06,0.024
-1.620E-06,0.020
-1.610E-06,0.036
-1.600E-06,0.056
-1.590E-06,0.056
-1.580E-06,0.044
-1.570E-06,0.028
-1.560E-06,-0.016
-1.550E-06,-0.044
-1.540E-06,-0.028
-1.530E-06,-0.028
-1.520E-06,-0.044
-1.510E-06,-0.096
-1.500E-06,-0.112
-1.490E-06,-0.072
-1.480E-06,-0.028
-1.470E-06,0.004
-1.460E-06,0.032
-1.450E-06,0.016
-1.440E-06,-0.132
-1.430E-06,-0.204
-1.420E-06,-0.200
-1.410E-06,-0.040
-1.400E-06,0.076
-1.390E-06,0.160
-1.380E-06,0.164
-1.370E-06,-0.032
-1.360E-06,-0.156
-1.350E-06,-0.232
-1.340E-06,-0.108
-1.330E-06,0.076
-1.320E-06,0.256
-1.310E-06,0.276
-1.300E-06,0.184
-1.290E-06,0.040
-1.280E-06,-0.108
-1.270E-06,-0.136
-1.260E-06,-0.100
-1.250E-06,0.024
-1.240E-06,0.128
-1.230E-06,0.196
-1.220E-06,0.152
-1.210E-06,0.052
-1.200E-06,-0.076
-1.190E-06,-0.128
-1.180E-06,-0.100
-1.170E-06,-0.004
-1.160E-06,0.108
-1.150E-06,0.176
-1.140E-06,0.156
-1.130E-06,0.044
-1.120E-06,-0.096
-1.110E-06,-0.216
-1.100E-06,-0.252
-1.090E-06,-0.192
-1.080E-06,-0.072
-1.070E-06,0.020
-1.060E-06,0.080
-1.050E-06,0.028
-1.040E-06,-0.056
-1.030E-06,-0.136
-1.020E-06,-0.156
-1.010E-06,-0.084
-1.000E-06,0.068
-9.900E-07,0.236
-9.800E-07,0.264
-9.700E-07,0.172
-9.600E-07,-0.004
-9.500E-07,-0.144
-9.400E-07,-0.212
-9.300E-07,-0.168
-9.200E-07,-0.084
-9.100E-07,-0.016
-9.000E-07,0.016
-8.900E-07,-0.008
-8.800E-07,-0.056
-8.700E-07,-0.116
-8.600E-07,-0.140
-8.500E-07,-0.120
-8.400E-07,-0.048
-8.300E-07,0.028
-8.200E-07,0.092
-8.100E-07,0.112
-8.000E-07,0.092
-7.900E-07,0.040
-7.800E-07,-0.004
-7.700E-07,-0.012
-7.600E-07,0.008
-7.500E-07,0.064
-7.400E-07,0.108
-7.300E-07,0.132
-7.200E-07,0.104
-7.100E-07,0.056
-7.000E-07,0.012
-6.900E-07,0.004
-6.800E-07,0.028
-6.700E-07,0.068
-6.600E-07,0.108
-6.500E-07,0.128
-6.400E-07,0.116
-6.300E-07,0.080
-6.200E-07,0.036
-6.100E-07,-0.008
-6.000E-07,-0.012
-5.900E-07,0.020
-5.800E-07,0.056
-5.700E-07,0.088
-5.600E-07,0.092
-5.500E-07,0.068
-5.400E-07,0.024
-5.300E-07,-0.020
-5.200E-07,-0.044
-5.100E-07,-0.044
-5.000E-07,-0.008
-4.900E-07,0.028
-4.800E-07,0.052
-4.700E-07,0.048
-4.600E-07,0.032
-4.500E-07,0.024
-4.400E-07,0.016
-4.300E-07,0.024
-4.200E-07,0.048
-4.100E-07,0.068
-4.000E-07,0.088
-3.900E-07,0.092
-3.800E-07,0.088
-3.700E-07,0.064
-3.600E-07,0.032
-3.500E-07,0.028
-3.400E-07,0.024
-3.300E-07,0.044
-3.200E-07,0.068
-3.100E-07,0.084
-3.000E-07,0.092
-2.900E-07,0.076
-2.800E-07,0.064
-2.700E-07,0.048
-2.600E-07,0.052
-2.500E-07,0.060
-2.400E-07,0.076
-2.300E-07,0.092
-2.200E-07,0.092
-2.100E-07,0.076
-2.000E-07,0.056
-1.900E-07,0.036
-1.800E-07,0.028
-1.700E-07,0.036
-1.600E-07,0.048
-1.500E-07,0.040
-1.400E-07,-0.008
-1.300E-07,-0.104
-1.200E-07,-0.144
-1.100E-07,-0.216
-1.000E-07,-0.208
-9.000E-08,-0.172
-8.000E-08,-0.188
-7.000E-08,-0.300
-6.000E-08,-0.512
-5.000E-08,-0.512
-4.000E-08,-0.512
-3.000E-08,-0.264
-2.000E-08,0.112
-1.000E-08,0.340
0.000E+00,0.336
1.000E-08,0.128
2.000E-08,-0.072
3.000E-08,-0.248
4.000E-08,-0.316
5.000E-08,-0.228
6.000E-08,-0.056
7.000E-08,0.148
8.000E-08,0.268
9.000E-08,0.264
1.000E-07,0.128
1.100E-07,-0.040
1.200E-07,-0.196
1.300E-07,-0.228
1.400E-07,-0.148
1.500E-07,0.020
1.600E-07,0.200
1.700E-07,0.264
1.800E-07,0.188
1.900E-07,0.028
2.000E-07,-0.096
2.100E-07,-0.140
2.200E-07,-0.072
2.300E-07,0.036
2.400E-07,0.140
2.500E-07,0.192
2.600E-07,0.196
2.700E-07,0.124
2.800E-07,-0.004
2.900E-07,-0.104
3.000E-07,-0.136
3.100E-07,-0.068
3.200E-07,0.056
3.300E-07,0.144
3.400E-07,0.148
3.500E-07,0.088
3.600E-07,-0.032
3.700E-07,-0.124
3.800E-07,-0.152
3.900E-07,-0.108
4.000E-07,-0.020
4.100E-07,0.072
4.200E-07,0.120
4.300E-07,0.096
4.400E-07,0.024
4.500E-07,-0.048
4.600E-07,-0.104
4.700E-07,-0.100
4.800E-07,-0.028
4.900E-07,0.060
5.000E-07,0.132
5.100E-07,0.148
5.200E-07,0.108
5.300E-07,0.024
5.400E-07,-0.040
5.500E-07,-0.052
5.600E-07,-0.012
5.700E-07,0.064
5.800E-07,0.132
5.900E-07,0.156
6.000E-07,0.132
6.100E-07,0.060
6.200E-07,0.004
6.300E-07,-0.020
6.400E-07,-0.004
6.500E-07,0.044
6.600E-07,0.100
6.700E-07,0.132
6.800E-07,0.124
6.900E-07,0.084
7.000E-07,0.028
7.100E-07,0.004
7.200E-07,0.008
7.300E-07,0.040
7.400E-07,0.092
7.500E-07,0.128
7.600E-07,0.132
7.700E-07,0.104
7.800E-07,0.060
7.900E-07,0.028
8.000E-07,0.004
8.100E-07,0.012
8.200E-07,0.012
8.300E-07,0.000
8.400E-07,-0.016
8.500E-07,-0.052
8.600E-07,-0.068
8.700E-07,-0.052
8.800E-07,-0.028
8.900E-07,0.012
9.000E-07,0.080
9.100E-07,0.100
9.200E-07,0.072
9.300E-07,0.028
9.400E-07,-0.004
9.500E-07,-0.008
9.600E-07,-0.072
9.700E-07,-0.244
9.800E-07,-0.512
9.900E-07,-0.512
1.000E-06,-0.512
1.010E-06,-0.512
1.020E-06,-0.212
1.030E-06,0.364
1.040E-06,0.512
1.050E-06,0.412
1.060E-06,0.032
1.070E-06,-0.388
1.080E-06,-0.512
1.090E-06,-0.436
1.100E-06,-0.088
1.110E-06,0.216
1.120E-06,0.452
1.130E-06,0.420
1.140E-06,0.260
1.150E-06,-0.072
1.160E-06,-0.308
1.170E-06,-0.384
1.180E-06,-0.216
1.190E-06,0.068
1.200E-06,0.340
1.210E-06,0.452
1.220E-06,0.308
1.230E-06,0.052
1.240E-06,-0.216
1.250E-06,-0.320
1.260E-06,-0.244
1.270E-06,-0.008
1.280E-06,0.208
1.290E-06,0.352
1.300E-06,0.304
1.310E-06,0.140
1.320E-06,-0.072
1.330E-06,-0.220
1.340E-06,-0.208
1.350E-06,-0.084
1.360E-06,0.124
1.370E-06,0.260
1.380E-06,0.284
1.390E-06,0.160
1.400E-06,-0.012
1.410E-06,-0.156
1.420E-06,-0.184
1.430E-06,-0.100
1.440E-06,0.052
1.450E-06,0.188
1.460E-06,0.232
1.470E-06,0.180
1.480E-06,0.052
1.490E-06,-0.064
1.500E-06,-0.124
1.510E-06,-0.076
1.520E-06,0.032
1.530E-06,0.148
1.540E-06,0.208
1.550E-06,0.192
1.560E-06,0.104
1.570E-06,-0.004
1.580E-06,-0.064
1.590E-06,-0.056
1.600E-06,0.016
1.610E-06,0.104
1.620E-06,0.176
1.630E-06,0.180
1.640E-06,0.132
1.650E-06,0.056
1.660E-06,-0.004
1.670E-06,-0.020
1.680E-06,0.004
1.690E-06,0.060
1.700E-06,0.104
1.710E-06,0.128
1.720E-06,0.108
1.730E-06,0.060
1.740E-06,0.016
1.750E-06,-0.012
1.760E-06,-0.040
1.770E-06,-0.100
1.780E-06,-0.180
1.790E-06,-0.232
1.800E-06,-0.448
1.810E-06,-0.508
1.820E-06,-0.508
1.830E-06,-0.332
1.840E-06,-0.264
1.850E-06,0.072
1.860E-06,0.504
1.870E-06,0.224
1.880E-06,-0.264
1.890E-06,-0.400
1.900E-06,-0.212
1.910E-06,0.096
1.920E-06,0.204
1.930E-06,0.220
1.940E-06,0.036
1.950E-06,0.004
1.960E-06,-0.032
1.970E-06,0.044
1.980E-06,-0.008
1.990E-06,-0.028
2.000E-06,-0.004
2.010E-06,0.092
2.020E-06,0.144
2.030E-06,0.096
2.040E-06,0.056
2.050E-06,-0.004
2.060E-06,-0.020
2.070E-06,-0.040
2.080E-06,0.052
2.090E-06,0.072
2.100E-06,0.100
2.110E-06,0.092
2.120E-06,0.100
2.130E-06,0.104
2.140E-06,0.092
2.150E-06,0.056
2.160E-06,0.004
2.170E-06,0.024
2.180E-06,0.044
2.190E-06,0.112
2.200E-06,0.132
2.210E-06,0.124
2.220E-06,0.084
2.230E-06,0.060
2.240E-06,0.040
2.250E-06,0.012
2.260E-06,0.024
2.270E-06,0.032
2.280E-06,0.088
2.290E-06,0.112
2.300E-06,0.108
2.310E-06,0.032
2.320E-06,-0.048
2.330E-06,-0.140
2.340E-06,-0.220
2.350E-06,-0.268
2.360E-06,-0.272
2.370E-06,-0.220
2.380E-06,-0.104
2.390E-06,-0.028
2.400E-06,0.024
2.410E-06,0.024
2.420E-06,-0.036
2.430E-06,-0.080
2.440E-06,0.012
2.450E-06,0.104
2.460E-06,0.132
2.470E-06,0.076
2.480E-06,0.004
2.490E-06,-0.044
2.500E-06,-0.028
2.510E-06,0.016
2.520E-06,0.064
2.530E-06,0.096
2.540E-06,0.072
2.550E-06,0.056
2.560E-06,0.012
2.570E-06,-0.004
2.580E-06,-0.004
2.590E-06,0.028
2.600E-06,0.068
2.610E-06,0.108
2.620E-06,0.112
2.630E-06,0.084
2.640E-06,0.052
2.650E-06,0.008
2.660E-06,0.000
2.670E-06,0.012
2.680E-06,0.064
2.690E-06,0.076
2.700E-06,0.092
2.710E-06,0.068
2.720E-06,0.044
2.730E-06,0.004
2.740E-06,-0.056
2.750E-06,-0.076
2.760E-06,-0.100
2.770E-06,-0.056
2.780E-06,-0.032
2.790E-06,-0.012
2.800E-06,-0.028
2.810E-06,-0.100
2.820E-06,-0.204
2.830E-06,-0.264
2.840E-06,-0.236
2.850E-06,-0.108
2.860E-06,0.056
2.870E-06,0.132
2.880E-06,0.076
2.890E-06,0.020
2.900E-06,0.032
2.910E-06,0.020
2.920E-06,-0.024
2.930E-06,-0.128
2.940E-06,-0.212
2.950E-06,-0.252
2.960E-06,-0.192
2.970E-06,-0.072
2.980E-06,0.056
2.990E-06,0.128
3.000E-06,0.124
3.010E-06,0.088
3.020E-06,0.024
3.030E-06,-0.012
3.040E-06,-0.036
3.050E-06,0.008
3.060E-06,0.060
3.070E-06,0.148
3.080E-06,0.196
3.090E-06,0.200
3.100E-06,0.120
3.110E-06,0.004
3.120E-06,-0.076
3.130E-06,-0.092
3.140E-06,-0.012
3.150E-06,0.088
3.160E-06,0.164
3.170E-06,0.152
3.180E-06,0.088
3.190E-06,-0.028
3.200E-06,-0.096
3.210E-06,-0.112
3.220E-06,-0.072
3.230E-06,0.000
3.240E-06,0.036
3.250E-06,0.016
3.260E-06,-0.040
3.270E-06,-0.120
3.280E-06,-0.188
3.290E-06,-0.176
3.300E-06,-0.132
