mediciones/Mediciones filtradas (saque las feas)/5-15/7.5/WaveData47149.csv

#timebase=2000000(ps)
,#voltbase=100000(mv/100)
#size=4000
-8.400E-06,0.000
-8.390E-06,0.040
-8.380E-06,0.100
-8.370E-06,0.076
-8.360E-06,0.004
-8.350E-06,-0.040
-8.340E-06,-0.052
-8.330E-06,-0.012
-8.320E-06,0.012
-8.310E-06,0.052
-8.300E-06,0.000
-8.290E-06,-0.008
-8.280E-06,-0.012
-8.270E-06,0.008
-8.260E-06,0.028
-8.250E-06,0.012
-8.240E-06,-0.020
-8.230E-06,-0.044
-8.220E-06,-0.008
-8.210E-06,0.012
-8.200E-06,0.056
-8.190E-06,0.032
-8.180E-06,0.012
-8.170E-06,-0.032
-8.160E-06,-0.044
-8.150E-06,-0.040
-8.140E-06,-0.004
-8.130E-06,0.032
-8.120E-06,0.040
-8.110E-06,0.024
-8.100E-06,-0.004
-8.090E-06,-0.016
-8.080E-06,-0.028
-8.070E-06,0.000
-8.060E-06,0.000
-8.050E-06,0.008
-8.040E-06,0.016
-8.030E-06,0.016
-8.020E-06,0.008
-8.010E-06,0.000
-8.000E-06,-0.012
-7.990E-06,-0.032
-7.980E-06,-0.020
-7.970E-06,-0.004
-7.960E-06,0.024
-7.950E-06,0.032
-7.940E-06,0.024
-7.930E-06,0.008
-7.920E-06,-0.016
-7.910E-06,-0.024
-7.900E-06,0.000
-7.890E-06,-0.004
-7.880E-06,0.004
-7.870E-06,0.008
-7.860E-06,0.004
-7.850E-06,0.008
-7.840E-06,0.008
-7.830E-06,0.004
-7.820E-06,-0.004
-7.810E-06,-0.004
-7.800E-06,0.012
-7.790E-06,0.020
-7.780E-06,0.016
-7.770E-06,0.004
-7.760E-06,-0.004
-7.750E-06,-0.008
-7.740E-06,-0.004
-7.730E-06,0.012
-7.720E-06,0.024
-7.710E-06,0.020
-7.700E-06,0.004
-7.690E-06,-0.008
-7.680E-06,-0.012
-7.670E-06,-0.012
-7.660E-06,0.000
-7.650E-06,0.016
-7.640E-06,0.028
-7.630E-06,0.016
-7.620E-06,0.008
-7.610E-06,-0.004
-7.600E-06,-0.012
-7.590E-06,-0.008
-7.580E-06,0.008
-7.570E-06,0.016
-7.560E-06,0.024
-7.550E-06,0.032
-7.540E-06,0.020
-7.530E-06,0.008
-7.520E-06,-0.008
-7.510E-06,-0.024
-7.500E-06,-0.008
-7.490E-06,0.008
-7.480E-06,0.028
-7.470E-06,0.036
-7.460E-06,0.036
-7.450E-06,0.012
-7.440E-06,-0.008
-7.430E-06,-0.028
-7.420E-06,-0.028
-7.410E-06,0.000
-7.400E-06,0.024
-7.390E-06,0.044
-7.380E-06,0.048
-7.370E-06,0.024
-7.360E-06,-0.008
-7.350E-06,-0.032
-7.340E-06,-0.024
-7.330E-06,-0.004
-7.320E-06,-0.028
-7.310E-06,-0.016
-7.300E-06,-0.040
-7.290E-06,-0.028
-7.280E-06,0.028
-7.270E-06,0.068
-7.260E-06,0.056
-7.250E-06,-0.032
-7.240E-06,-0.052
-7.230E-06,-0.068
-7.220E-06,-0.012
-7.210E-06,0.044
-7.200E-06,0.068
-7.190E-06,0.036
-7.180E-06,0.004
-7.170E-06,-0.020
-7.160E-06,-0.052
-7.150E-06,-0.016
-7.140E-06,0.012
-7.130E-06,0.044
-7.120E-06,0.032
-7.110E-06,0.012
-7.100E-06,-0.020
-7.090E-06,-0.016
-7.080E-06,-0.012
-7.070E-06,-0.004
-7.060E-06,0.008
-7.050E-06,0.020
-7.040E-06,0.028
-7.030E-06,0.012
-7.020E-06,-0.004
-7.010E-06,-0.020
-7.000E-06,-0.012
-6.990E-06,0.000
-6.980E-06,0.020
-6.970E-06,0.024
-6.960E-06,0.000
-6.950E-06,-0.008
-6.940E-06,-0.032
-6.930E-06,-0.020
-6.920E-06,0.004
-6.910E-06,0.044
-6.900E-06,0.032
-6.890E-06,0.024
-6.880E-06,-0.008
-6.870E-06,-0.040
-6.860E-06,-0.020
-6.850E-06,-0.004
-6.840E-06,0.020
-6.830E-06,0.024
-6.820E-06,0.032
-6.810E-06,0.008
-6.800E-06,0.000
-6.790E-06,-0.012
-6.780E-06,-0.036
-6.770E-06,-0.048
-6.760E-06,-0.020
-6.750E-06,0.020
-6.740E-06,0.040
-6.730E-06,0.060
-6.720E-06,0.024
-6.710E-06,-0.016
-6.700E-06,-0.040
-6.690E-06,-0.028
-6.680E-06,-0.012
-6.670E-06,0.028
-6.660E-06,0.040
-6.650E-06,0.024
-6.640E-06,0.008
-6.630E-06,-0.008
-6.620E-06,-0.012
-6.610E-06,-0.008
-6.600E-06,0.000
-6.590E-06,0.008
-6.580E-06,0.012
-6.570E-06,0.016
-6.560E-06,0.012
-6.550E-06,0.004
-6.540E-06,-0.004
-6.530E-06,-0.008
-6.520E-06,-0.012
-6.510E-06,0.000
-6.500E-06,0.008
-6.490E-06,0.016
-6.480E-06,0.016
-6.470E-06,0.008
-6.460E-06,0.004
-6.450E-06,0.000
-6.440E-06,0.004
-6.430E-06,-0.008
-6.420E-06,0.000
-6.410E-06,-0.012
-6.400E-06,-0.020
-6.390E-06,-0.004
-6.380E-06,0.024
-6.370E-06,0.040
-6.360E-06,0.000
-6.350E-06,-0.004
-6.340E-06,-0.024
-6.330E-06,-0.016
-6.320E-06,-0.012
-6.310E-06,0.012
-6.300E-06,0.028
-6.290E-06,0.024
-6.280E-06,0.020
-6.270E-06,-0.004
-6.260E-06,-0.012
-6.250E-06,-0.024
-6.240E-06,-0.004
-6.230E-06,0.008
-6.220E-06,0.020
-6.210E-06,0.012
-6.200E-06,0.012
-6.190E-06,-0.008
-6.180E-06,-0.012
-6.170E-06,0.000
-6.160E-06,-0.004
-6.150E-06,0.008
-6.140E-06,0.008
-6.130E-06,0.016
-6.120E-06,0.012
-6.110E-06,0.012
-6.100E-06,-0.008
-6.090E-06,-0.004
-6.080E-06,-0.004
-6.070E-06,0.004
-6.060E-06,0.000
-6.050E-06,0.004
-6.040E-06,0.008
-6.030E-06,0.000
-6.020E-06,0.008
-6.010E-06,0.004
-6.000E-06,0.000
-5.990E-06,-0.004
-5.980E-06,-0.004
-5.970E-06,-0.004
-5.960E-06,0.004
-5.950E-06,0.008
-5.940E-06,0.008
-5.930E-06,-0.004
-5.920E-06,-0.008
-5.910E-06,-0.008
-5.900E-06,0.000
-5.890E-06,0.016
-5.880E-06,0.024
-5.870E-06,0.008
-5.860E-06,-0.004
-5.850E-06,-0.008
-5.840E-06,-0.008
-5.830E-06,0.004
-5.820E-06,0.012
-5.810E-06,0.012
-5.800E-06,0.008
-5.790E-06,0.004
-5.780E-06,-0.004
-5.770E-06,0.004
-5.760E-06,0.008
-5.750E-06,0.004
-5.740E-06,0.008
-5.730E-06,0.008
-5.720E-06,0.004
-5.710E-06,0.000
-5.700E-06,-0.004
-5.690E-06,0.004
-5.680E-06,0.000
-5.670E-06,0.004
-5.660E-06,0.000
-5.650E-06,0.000
-5.640E-06,0.004
-5.630E-06,0.000
-5.620E-06,0.004
-5.610E-06,0.000
-5.600E-06,0.000
-5.590E-06,0.000
-5.580E-06,0.004
-5.570E-06,0.008
-5.560E-06,0.008
-5.550E-06,0.012
-5.540E-06,0.004
-5.530E-06,-0.004
-5.520E-06,0.004
-5.510E-06,0.012
-5.500E-06,0.008
-5.490E-06,0.008
-5.480E-06,-0.004
-5.470E-06,0.004
-5.460E-06,0.000
-5.450E-06,0.004
-5.440E-06,0.008
-5.430E-06,0.012
-5.420E-06,0.000
-5.410E-06,0.004
-5.400E-06,0.004
-5.390E-06,0.000
-5.380E-06,0.004
-5.370E-06,0.008
-5.360E-06,0.012
-5.350E-06,0.008
-5.340E-06,0.004
-5.330E-06,-0.004
-5.320E-06,-0.012
-5.310E-06,-0.008
-5.300E-06,-0.020
-5.290E-06,-0.008
-5.280E-06,0.012
-5.270E-06,0.036
-5.260E-06,0.040
-5.250E-06,0.008
-5.240E-06,-0.020
-5.230E-06,-0.036
-5.220E-06,-0.020
-5.210E-06,0.008
-5.200E-06,0.040
-5.190E-06,0.040
-5.180E-06,0.020
-5.170E-06,0.000
-5.160E-06,-0.040
-5.150E-06,-0.036
-5.140E-06,-0.020
-5.130E-06,0.016
-5.120E-06,0.036
-5.110E-06,0.036
-5.100E-06,0.024
-5.090E-06,-0.012
-5.080E-06,-0.020
-5.070E-06,-0.028
-5.060E-06,-0.008
-5.050E-06,0.012
-5.040E-06,0.032
-5.030E-06,0.032
-5.020E-06,0.016
-5.010E-06,-0.004
-5.000E-06,-0.016
-4.990E-06,-0.020
-4.980E-06,-0.008
-4.970E-06,0.012
-4.960E-06,0.020
-4.950E-06,0.020
-4.940E-06,0.008
-4.930E-06,0.000
-4.920E-06,-0.008
-4.910E-06,-0.008
-4.900E-06,-0.008
-4.890E-06,0.004
-4.880E-06,0.016
-4.870E-06,0.020
-4.860E-06,0.012
-4.850E-06,0.004
-4.840E-06,-0.004
-4.830E-06,-0.008
-4.820E-06,-0.004
-4.810E-06,0.008
-4.800E-06,0.012
-4.790E-06,0.016
-4.780E-06,0.012
-4.770E-06,0.000
-4.760E-06,-0.008
-4.750E-06,-0.008
-4.740E-06,-0.004
-4.730E-06,0.004
-4.720E-06,0.008
-4.710E-06,0.024
-4.700E-06,0.008
-4.690E-06,-0.008
-4.680E-06,-0.024
-4.670E-06,-0.020
-4.660E-06,0.000
-4.650E-06,0.020
-4.640E-06,0.032
-4.630E-06,0.024
-4.620E-06,0.000
-4.610E-06,-0.012
-4.600E-06,-0.016
-4.590E-06,-0.012
-4.580E-06,0.004
-4.570E-06,0.012
-4.560E-06,0.012
-4.550E-06,0.004
-4.540E-06,0.004
-4.530E-06,-0.008
-4.520E-06,0.000
-4.510E-06,0.000
-4.500E-06,0.004
-4.490E-06,0.008
-4.480E-06,0.012
-4.470E-06,0.012
-4.460E-06,0.000
-4.450E-06,0.004
-4.440E-06,0.000
-4.430E-06,0.000
-4.420E-06,-0.004
-4.410E-06,-0.004
-4.400E-06,0.004
-4.390E-06,0.012
-4.380E-06,0.012
-4.370E-06,0.000
-4.360E-06,0.000
-4.350E-06,0.000
-4.340E-06,0.008
-4.330E-06,0.004
-4.320E-06,0.000
-4.310E-06,0.008
-4.300E-06,0.008
-4.290E-06,0.004
-4.280E-06,0.000
-4.270E-06,0.004
-4.260E-06,0.000
-4.250E-06,0.000
-4.240E-06,0.000
-4.230E-06,0.004
-4.220E-06,0.000
-4.210E-06,0.008
-4.200E-06,0.008
-4.190E-06,0.008
-4.180E-06,0.012
-4.170E-06,0.008
-4.160E-06,0.004
-4.150E-06,-0.008
-4.140E-06,-0.004
-4.130E-06,0.000
-4.120E-06,0.004
-4.110E-06,0.008
-4.100E-06,0.020
-4.090E-06,0.020
-4.080E-06,0.008
-4.070E-06,-0.004
-4.060E-06,-0.008
-4.050E-06,-0.008
-4.040E-06,0.000
-4.030E-06,0.008
-4.020E-06,0.012
-4.010E-06,0.000
-4.000E-06,-0.008
-3.990E-06,-0.020
-3.980E-06,-0.004
-3.970E-06,0.012
-3.960E-06,0.016
-3.950E-06,0.020
-3.940E-06,0.020
-3.930E-06,-0.004
-3.920E-06,-0.024
-3.910E-06,-0.020
-3.900E-06,-0.004
-3.890E-06,0.012
-3.880E-06,0.028
-3.870E-06,0.020
-3.860E-06,0.000
-3.850E-06,-0.008
-3.840E-06,-0.020
-3.830E-06,-0.008
-3.820E-06,0.004
-3.810E-06,0.016
-3.800E-06,0.012
-3.790E-06,0.016
-3.780E-06,0.000
-3.770E-06,-0.004
-3.760E-06,-0.004
-3.750E-06,-0.004
-3.740E-06,0.000
-3.730E-06,0.008
-3.720E-06,0.008
-3.710E-06,0.008
-3.700E-06,0.008
-3.690E-06,0.000
-3.680E-06,0.000
-3.670E-06,-0.004
-3.660E-06,-0.004
-3.650E-06,0.000
-3.640E-06,0.008
-3.630E-06,0.012
-3.620E-06,0.004
-3.610E-06,0.004
-3.600E-06,0.004
-3.590E-06,0.004
-3.580E-06,0.004
-3.570E-06,0.004
-3.560E-06,0.000
-3.550E-06,-0.004
-3.540E-06,0.000
-3.530E-06,0.004
-3.520E-06,0.008
-3.510E-06,0.008
-3.500E-06,0.004
-3.490E-06,0.000
-3.480E-06,-0.004
-3.470E-06,-0.004
-3.460E-06,0.008
-3.450E-06,0.008
-3.440E-06,0.008
-3.430E-06,0.008
-3.420E-06,0.004
-3.410E-06,0.000
-3.400E-06,-0.004
-3.390E-06,0.004
-3.380E-06,0.008
-3.370E-06,0.008
-3.360E-06,0.004
-3.350E-06,0.008
-3.340E-06,0.004
-3.330E-06,0.000
-3.320E-06,0.000
-3.310E-06,0.000
-3.300E-06,0.000
-3.290E-06,0.000
-3.280E-06,0.004
-3.270E-06,0.004
-3.260E-06,0.004
-3.250E-06,0.008
-3.240E-06,0.008
-3.230E-06,0.008
-3.220E-06,0.000
-3.210E-06,-0.004
-3.200E-06,-0.004
-3.190E-06,-0.004
-3.180E-06,0.000
-3.170E-06,0.004
-3.160E-06,0.012
-3.150E-06,0.016
-3.140E-06,0.008
-3.130E-06,-0.004
-3.120E-06,-0.004
-3.110E-06,-0.004
-3.100E-06,0.004
-3.090E-06,0.004
-3.080E-06,0.012
-3.070E-06,0.008
-3.060E-06,0.000
-3.050E-06,-0.008
-3.040E-06,-0.016
-3.030E-06,-0.008
-3.020E-06,0.004
-3.010E-06,0.008
-3.000E-06,0.016
-2.990E-06,0.016
-2.980E-06,0.004
-2.970E-06,0.000
-2.960E-06,-0.004
-2.950E-06,-0.008
-2.940E-06,0.000
-2.930E-06,0.012
-2.920E-06,0.016
-2.910E-06,0.012
-2.900E-06,0.008
-2.890E-06,-0.012
-2.880E-06,-0.004
-2.870E-06,0.000
-2.860E-06,0.008
-2.850E-06,0.008
-2.840E-06,0.012
-2.830E-06,0.012
-2.820E-06,0.000
-2.810E-06,-0.004
-2.800E-06,-0.004
-2.790E-06,0.004
-2.780E-06,0.012
-2.770E-06,0.008
-2.760E-06,0.008
-2.750E-06,0.004
-2.740E-06,0.000
-2.730E-06,-0.004
-2.720E-06,-0.004
-2.710E-06,0.000
-2.700E-06,0.008
-2.690E-06,0.000
-2.680E-06,0.004
-2.670E-06,-0.004
-2.660E-06,0.000
-2.650E-06,0.000
-2.640E-06,0.004
-2.630E-06,0.004
-2.620E-06,0.004
-2.610E-06,0.004
-2.600E-06,0.004
-2.590E-06,0.008
-2.580E-06,0.004
-2.570E-06,-0.004
-2.560E-06,0.000
-2.550E-06,0.004
-2.540E-06,0.008
-2.530E-06,0.008
-2.520E-06,0.008
-2.510E-06,0.004
-2.500E-06,0.004
-2.490E-06,0.004
-2.480E-06,0.000
-2.470E-06,0.000
-2.460E-06,0.008
-2.450E-06,0.004
-2.440E-06,0.012
-2.430E-06,0.008
-2.420E-06,0.008
-2.410E-06,0.008
-2.400E-06,0.008
-2.390E-06,0.004
-2.380E-06,0.004
-2.370E-06,0.000
-2.360E-06,-0.004
-2.350E-06,-0.008
-2.340E-06,-0.004
-2.330E-06,0.012
-2.320E-06,0.012
-2.310E-06,0.008
-2.300E-06,0.004
-2.290E-06,0.000
-2.280E-06,0.000
-2.270E-06,0.012
-2.260E-06,0.020
-2.250E-06,0.020
-2.240E-06,0.012
-2.230E-06,0.008
-2.220E-06,0.000
-2.210E-06,0.012
-2.200E-06,0.012
-2.190E-06,0.020
-2.180E-06,0.020
-2.170E-06,0.012
-2.160E-06,0.000
-2.150E-06,0.000
-2.140E-06,0.008
-2.130E-06,0.008
-2.120E-06,0.016
-2.110E-06,0.004
-2.100E-06,-0.020
-2.090E-06,-0.020
-2.080E-06,-0.008
-2.070E-06,-0.020
-2.060E-06,-0.008
-2.050E-06,0.016
-2.040E-06,0.028
-2.030E-06,0.024
-2.020E-06,0.008
-2.010E-06,0.000
-2.000E-06,-0.004
-1.990E-06,0.000
-1.980E-06,0.012
-1.970E-06,0.012
-1.960E-06,0.012
-1.950E-06,0.012
-1.940E-06,0.008
-1.930E-06,0.008
-1.920E-06,-0.004
-1.910E-06,-0.004
-1.900E-06,0.008
-1.890E-06,0.000
-1.880E-06,0.008
-1.870E-06,0.012
-1.860E-06,0.020
-1.850E-06,0.024
-1.840E-06,0.044
-1.830E-06,0.044
-1.820E-06,0.036
-1.810E-06,0.028
-1.800E-06,0.004
-1.790E-06,-0.020
-1.780E-06,-0.036
-1.770E-06,-0.024
-1.760E-06,-0.012
-1.750E-06,0.004
-1.740E-06,0.004
-1.730E-06,0.008
-1.720E-06,0.012
-1.710E-06,0.008
-1.700E-06,-0.012
-1.690E-06,-0.012
-1.680E-06,-0.016
-1.670E-06,-0.012
-1.660E-06,-0.004
-1.650E-06,0.012
-1.640E-06,0.020
-1.630E-06,0.028
-1.620E-06,0.016
-1.610E-06,0.004
-1.600E-06,-0.008
-1.590E-06,-0.008
-1.580E-06,-0.008
-1.570E-06,0.012
-1.560E-06,0.028
-1.550E-06,0.036
-1.540E-06,0.032
-1.530E-06,0.016
-1.520E-06,0.012
-1.510E-06,0.008
-1.500E-06,0.028
-1.490E-06,0.036
-1.480E-06,0.008
-1.470E-06,-0.036
-1.460E-06,-0.076
-1.450E-06,-0.072
-1.440E-06,-0.032
-1.430E-06,0.032
-1.420E-06,0.068
-1.410E-06,0.064
-1.400E-06,0.028
-1.390E-06,-0.032
-1.380E-06,-0.068
-1.370E-06,-0.056
-1.360E-06,-0.012
-1.350E-06,0.036
-1.340E-06,0.060
-1.330E-06,0.052
-1.320E-06,0.016
-1.310E-06,-0.020
-1.300E-06,-0.040
-1.290E-06,-0.032
-1.280E-06,0.004
-1.270E-06,0.028
-1.260E-06,0.048
-1.250E-06,0.056
-1.240E-06,0.024
-1.230E-06,0.004
-1.220E-06,-0.008
-1.210E-06,-0.004
-1.200E-06,0.004
-1.190E-06,0.016
-1.180E-06,0.024
-1.170E-06,0.032
-1.160E-06,0.024
-1.150E-06,0.016
-1.140E-06,0.008
-1.130E-06,0.008
-1.120E-06,0.024
-1.110E-06,0.036
-1.100E-06,0.036
-1.090E-06,0.040
-1.080E-06,0.032
-1.070E-06,0.020
-1.060E-06,0.020
-1.050E-06,0.028
-1.040E-06,0.036
-1.030E-06,0.040
-1.020E-06,0.028
-1.010E-06,0.024
-1.000E-06,0.012
-9.900E-07,0.008
-9.800E-07,0.012
-9.700E-07,0.024
-9.600E-07,0.024
-9.500E-07,0.008
-9.400E-07,-0.016
-9.300E-07,-0.056
-9.200E-07,-0.068
-9.100E-07,-0.056
-9.000E-07,-0.024
-8.900E-07,0.024
-8.800E-07,0.044
-8.700E-07,0.044
-8.600E-07,0.024
-8.500E-07,-0.016
-8.400E-07,-0.044
-8.300E-07,-0.048
-8.200E-07,-0.020
-8.100E-07,0.020
-8.000E-07,0.048
-7.900E-07,0.052
-7.800E-07,0.028
-7.700E-07,0.008
-7.600E-07,-0.020
-7.500E-07,-0.012
-7.400E-07,0.012
-7.300E-07,0.020
-7.200E-07,0.032
-7.100E-07,0.028
-7.000E-07,0.032
-6.900E-07,0.024
-6.800E-07,0.012
-6.700E-07,0.008
-6.600E-07,0.024
-6.500E-07,0.056
-6.400E-07,0.080
-6.300E-07,0.092
-6.200E-07,0.092
-6.100E-07,0.084
-6.000E-07,0.056
-5.900E-07,0.036
-5.800E-07,0.004
-5.700E-07,0.008
-5.600E-07,0.000
-5.500E-07,0.012
-5.400E-07,0.012
-5.300E-07,0.028
-5.200E-07,0.032
-5.100E-07,0.024
-5.000E-07,0.028
-4.900E-07,0.040
-4.800E-07,0.048
-4.700E-07,0.044
-4.600E-07,0.040
-4.500E-07,0.012
-4.400E-07,0.008
-4.300E-07,0.004
-4.200E-07,0.012
-4.100E-07,0.024
-4.000E-07,0.060
-3.900E-07,0.080
-3.800E-07,0.080
-3.700E-07,0.056
-3.600E-07,0.012
-3.500E-07,-0.008
-3.400E-07,-0.008
-3.300E-07,0.016
-3.200E-07,0.052
-3.100E-07,0.076
-3.000E-07,0.064
-2.900E-07,0.036
-2.800E-07,0.012
-2.700E-07,0.008
-2.600E-07,0.020
-2.500E-07,0.052
-2.400E-07,0.084
-2.300E-07,0.088
-2.200E-07,0.092
-2.100E-07,0.068
-2.000E-07,0.040
-1.900E-07,0.024
-1.800E-07,0.024
-1.700E-07,0.016
-1.600E-07,0.008
-1.500E-07,0.008
-1.400E-07,0.040
-1.300E-07,0.076
-1.200E-07,0.104
-1.100E-07,0.096
-1.000E-07,0.060
-9.000E-08,-0.032
-8.000E-08,-0.120
-7.000E-08,-0.288
-6.000E-08,-0.464
-5.000E-08,-0.508
-4.000E-08,-0.508
-3.000E-08,-0.508
-2.000E-08,-0.164
-1.000E-08,0.404
0.000E+00,0.540
1.000E-08,0.540
2.000E-08,0.068
3.000E-08,-0.452
4.000E-08,-0.512
5.000E-08,-0.404
6.000E-08,0.072
7.000E-08,0.472
8.000E-08,0.532
9.000E-08,0.292
1.000E-07,-0.072
1.100E-07,-0.328
1.200E-07,-0.340
1.300E-07,-0.172
1.400E-07,0.092
1.500E-07,0.260
1.600E-07,0.300
1.700E-07,0.152
1.800E-07,-0.036
1.900E-07,-0.224
2.000E-07,-0.240
2.100E-07,-0.136
2.200E-07,0.080
2.300E-07,0.240
2.400E-07,0.260
2.500E-07,0.128
2.600E-07,-0.056
2.700E-07,-0.160
2.800E-07,-0.168
2.900E-07,-0.052
3.000E-07,0.080
3.100E-07,0.196
3.200E-07,0.192
3.300E-07,0.112
3.400E-07,-0.012
3.500E-07,-0.076
3.600E-07,-0.072
3.700E-07,0.008
3.800E-07,0.116
3.900E-07,0.176
4.000E-07,0.160
4.100E-07,0.072
4.200E-07,0.000
4.300E-07,-0.032
4.400E-07,0.012
4.500E-07,0.092
4.600E-07,0.188
4.700E-07,0.236
4.800E-07,0.208
4.900E-07,0.132
5.000E-07,0.040
5.100E-07,-0.004
5.200E-07,0.008
5.300E-07,0.064
5.400E-07,0.120
5.500E-07,0.124
5.600E-07,0.068
5.700E-07,-0.016
5.800E-07,-0.088
5.900E-07,-0.112
6.000E-07,-0.072
6.100E-07,0.000
6.200E-07,0.088
6.300E-07,0.116
6.400E-07,0.108
6.500E-07,0.052
6.600E-07,-0.016
6.700E-07,-0.048
6.800E-07,-0.020
6.900E-07,0.024
7.000E-07,0.068
7.100E-07,0.092
7.200E-07,0.084
7.300E-07,-0.004
7.400E-07,-0.076
7.500E-07,-0.140
7.600E-07,-0.116
7.700E-07,-0.064
7.800E-07,-0.012
7.900E-07,0.008
8.000E-07,0.000
8.100E-07,-0.008
8.200E-07,-0.024
8.300E-07,0.000
8.400E-07,0.032
8.500E-07,0.112
8.600E-07,0.164
8.700E-07,0.196
8.800E-07,0.156
8.900E-07,0.076
9.000E-07,-0.004
9.100E-07,-0.072
9.200E-07,-0.064
9.300E-07,-0.024
9.400E-07,0.016
9.500E-07,0.020
9.600E-07,-0.012
9.700E-07,-0.068
9.800E-07,-0.108
9.900E-07,-0.108
1.000E-06,-0.060
1.010E-06,0.024
1.020E-06,0.088
1.030E-06,0.060
1.040E-06,-0.020
1.050E-06,-0.104
1.060E-06,-0.180
1.070E-06,-0.176
1.080E-06,-0.120
1.090E-06,-0.076
1.100E-06,-0.052
1.110E-06,-0.048
1.120E-06,-0.040
1.130E-06,-0.056
1.140E-06,-0.056
1.150E-06,-0.048
1.160E-06,-0.036
1.170E-06,-0.012
1.180E-06,0.008
1.190E-06,0.020
1.200E-06,0.024
1.210E-06,0.032
1.220E-06,0.024
1.230E-06,0.012
1.240E-06,0.016
1.250E-06,0.024
1.260E-06,0.048
1.270E-06,0.064
1.280E-06,0.068
1.290E-06,0.076
1.300E-06,0.076
1.310E-06,0.072
1.320E-06,0.068
1.330E-06,0.068
1.340E-06,0.088
1.350E-06,0.088
1.360E-06,0.096
1.370E-06,0.092
1.380E-06,0.088
1.390E-06,0.092
1.400E-06,0.088
1.410E-06,0.092
1.420E-06,0.108
1.430E-06,0.124
1.440E-06,0.128
1.450E-06,0.140
1.460E-06,0.132
1.470E-06,0.120
1.480E-06,0.108
1.490E-06,0.096
1.500E-06,0.088
1.510E-06,0.096
1.520E-06,0.108
1.530E-06,0.112
1.540E-06,0.112
1.550E-06,0.100
1.560E-06,0.076
1.570E-06,0.068
1.580E-06,0.064
1.590E-06,0.068
1.600E-06,0.088
1.610E-06,0.096
1.620E-06,0.104
1.630E-06,0.092
1.640E-06,0.084
1.650E-06,0.068
1.660E-06,0.064
1.670E-06,0.060
1.680E-06,0.076
1.690E-06,0.096
1.700E-06,0.116
1.710E-06,0.128
1.720E-06,0.136
1.730E-06,0.136
1.740E-06,0.128
1.750E-06,0.124
1.760E-06,0.108
1.770E-06,0.108
1.780E-06,0.108
1.790E-06,0.128
1.800E-06,0.140
1.810E-06,0.144
1.820E-06,0.140
1.830E-06,0.132
1.840E-06,0.120
1.850E-06,0.104
1.860E-06,0.092
1.870E-06,0.068
1.880E-06,0.056
1.890E-06,0.008
1.900E-06,-0.012
1.910E-06,-0.020
1.920E-06,0.000
1.930E-06,0.036
1.940E-06,0.056
1.950E-06,0.076
1.960E-06,0.100
1.970E-06,0.104
1.980E-06,0.096
1.990E-06,0.088
2.000E-06,0.084
2.010E-06,0.060
2.020E-06,0.016
2.030E-06,-0.028
2.040E-06,-0.084
2.050E-06,-0.096
2.060E-06,-0.084
2.070E-06,-0.072
2.080E-06,-0.032
2.090E-06,0.024
2.100E-06,0.108
2.110E-06,0.140
2.120E-06,0.136
2.130E-06,0.044
2.140E-06,-0.100
2.150E-06,-0.204
2.160E-06,-0.208
2.170E-06,-0.076
2.180E-06,0.104
2.190E-06,0.252
2.200E-06,0.272
2.210E-06,0.160
2.220E-06,-0.036
2.230E-06,-0.188
2.240E-06,-0.204
2.250E-06,-0.128
2.260E-06,-0.008
2.270E-06,0.092
2.280E-06,0.092
2.290E-06,-0.008
2.300E-06,-0.136
2.310E-06,-0.236
2.320E-06,-0.236
2.330E-06,-0.148
2.340E-06,-0.072
2.350E-06,0.016
2.360E-06,0.040
2.370E-06,0.028
2.380E-06,-0.008
2.390E-06,-0.056
2.400E-06,-0.060
2.410E-06,-0.036
2.420E-06,0.028
2.430E-06,0.092
2.440E-06,0.148
2.450E-06,0.144
2.460E-06,0.128
2.470E-06,0.088
2.480E-06,0.064
2.490E-06,0.064
2.500E-06,0.104
2.510E-06,0.156
2.520E-06,0.180
2.530E-06,0.188
2.540E-06,0.172
2.550E-06,0.144
2.560E-06,0.120
2.570E-06,0.112
2.580E-06,0.128
2.590E-06,0.156
2.600E-06,0.176
2.610E-06,0.180
2.620E-06,0.168
2.630E-06,0.144
2.640E-06,0.120
2.650E-06,0.104
2.660E-06,0.112
2.670E-06,0.128
2.680E-06,0.148
2.690E-06,0.160
2.700E-06,0.152
2.710E-06,0.132
2.720E-06,0.116
2.730E-06,0.100
2.740E-06,0.096
2.750E-06,0.108
2.760E-06,0.124
2.770E-06,0.132
2.780E-06,0.136
2.790E-06,0.124
2.800E-06,0.116
2.810E-06,0.108
2.820E-06,0.096
2.830E-06,0.080
2.840E-06,0.072
2.850E-06,0.068
2.860E-06,0.076
2.870E-06,0.100
2.880E-06,0.128
2.890E-06,0.144
2.900E-06,0.156
2.910E-06,0.140
2.920E-06,0.120
2.930E-06,0.104
2.940E-06,0.108
2.950E-06,0.120
2.960E-06,0.136
2.970E-06,0.136
2.980E-06,0.124
2.990E-06,0.088
3.000E-06,0.040
3.010E-06,0.016
3.020E-06,0.008
3.030E-06,0.024
3.040E-06,0.056
3.050E-06,0.092
3.060E-06,0.100
3.070E-06,0.088
3.080E-06,0.056
3.090E-06,0.024
3.100E-06,0.004
3.110E-06,0.020
3.120E-06,0.064
3.130E-06,0.120
3.140E-06,0.140
3.150E-06,0.112
3.160E-06,0.060
3.170E-06,0.008
3.180E-06,-0.012
3.190E-06,0.000
3.200E-06,0.056
3.210E-06,0.108
3.220E-06,0.164
3.230E-06,0.192
3.240E-06,0.176
3.250E-06,0.136
3.260E-06,0.092
3.270E-06,0.068
3.280E-06,0.076
3.290E-06,0.120
3.300E-06,0.160
3.310E-06,0.196
