mediciones/Mediciones filtradas (saque las feas)/5-15/3/WaveData47193.csv

#timebase=2000000(ps)
,#voltbase=100000(mv/100)
#size=4000
-8.400E-06,-0.016
-8.390E-06,0.012
-8.380E-06,0.040
-8.370E-06,0.048
-8.360E-06,0.028
-8.350E-06,-0.012
-8.340E-06,-0.040
-8.330E-06,-0.040
-8.320E-06,-0.004
-8.310E-06,0.040
-8.300E-06,0.056
-8.290E-06,0.060
-8.280E-06,0.032
-8.270E-06,-0.008
-8.260E-06,-0.036
-8.250E-06,-0.040
-8.240E-06,-0.032
-8.230E-06,-0.004
-8.220E-06,0.008
-8.210E-06,0.024
-8.200E-06,0.064
-8.190E-06,0.032
-8.180E-06,-0.016
-8.170E-06,-0.072
-8.160E-06,-0.052
-8.150E-06,0.008
-8.140E-06,0.068
-8.130E-06,0.076
-8.120E-06,0.024
-8.110E-06,-0.024
-8.100E-06,-0.052
-8.090E-06,-0.032
-8.080E-06,-0.012
-8.070E-06,0.008
-8.060E-06,0.032
-8.050E-06,0.028
-8.040E-06,0.000
-8.030E-06,-0.004
-8.020E-06,-0.008
-8.010E-06,-0.004
-8.000E-06,0.012
-7.990E-06,-0.004
-7.980E-06,-0.004
-7.970E-06,0.008
-7.960E-06,0.016
-7.950E-06,0.016
-7.940E-06,0.012
-7.930E-06,-0.004
-7.920E-06,-0.008
-7.910E-06,-0.008
-7.900E-06,0.000
-7.890E-06,-0.004
-7.880E-06,0.008
-7.870E-06,0.012
-7.860E-06,0.008
-7.850E-06,0.008
-7.840E-06,-0.004
-7.830E-06,-0.008
-7.820E-06,-0.012
-7.810E-06,-0.008
-7.800E-06,0.016
-7.790E-06,0.024
-7.780E-06,0.024
-7.770E-06,0.012
-7.760E-06,0.000
-7.750E-06,-0.012
-7.740E-06,-0.020
-7.730E-06,-0.004
-7.720E-06,0.012
-7.710E-06,0.016
-7.700E-06,0.016
-7.690E-06,0.012
-7.680E-06,0.008
-7.670E-06,0.000
-7.660E-06,-0.004
-7.650E-06,-0.008
-7.640E-06,-0.016
-7.630E-06,-0.008
-7.620E-06,0.016
-7.610E-06,0.032
-7.600E-06,0.028
-7.590E-06,0.012
-7.580E-06,-0.020
-7.570E-06,-0.052
-7.560E-06,-0.044
-7.550E-06,-0.012
-7.540E-06,0.048
-7.530E-06,0.060
-7.520E-06,0.032
-7.510E-06,-0.012
-7.500E-06,-0.040
-7.490E-06,-0.032
-7.480E-06,-0.020
-7.470E-06,0.008
-7.460E-06,0.028
-7.450E-06,0.020
-7.440E-06,0.000
-7.430E-06,-0.008
-7.420E-06,-0.004
-7.410E-06,0.012
-7.400E-06,0.024
-7.390E-06,0.016
-7.380E-06,0.012
-7.370E-06,-0.004
-7.360E-06,-0.020
-7.350E-06,-0.016
-7.340E-06,-0.004
-7.330E-06,0.016
-7.320E-06,0.020
-7.310E-06,0.024
-7.300E-06,0.012
-7.290E-06,0.000
-7.280E-06,-0.008
-7.270E-06,0.000
-7.260E-06,0.008
-7.250E-06,0.020
-7.240E-06,0.004
-7.230E-06,-0.004
-7.220E-06,-0.008
-7.210E-06,-0.008
-7.200E-06,-0.004
-7.190E-06,0.000
-7.180E-06,-0.004
-7.170E-06,0.012
-7.160E-06,0.008
-7.150E-06,0.008
-7.140E-06,0.012
-7.130E-06,-0.004
-7.120E-06,-0.008
-7.110E-06,-0.008
-7.100E-06,0.000
-7.090E-06,0.012
-7.080E-06,0.020
-7.070E-06,0.008
-7.060E-06,0.008
-7.050E-06,-0.004
-7.040E-06,-0.008
-7.030E-06,-0.008
-7.020E-06,0.004
-7.010E-06,0.016
-7.000E-06,0.016
-6.990E-06,0.008
-6.980E-06,0.004
-6.970E-06,-0.004
-6.960E-06,-0.008
-6.950E-06,0.000
-6.940E-06,0.008
-6.930E-06,0.016
-6.920E-06,0.012
-6.910E-06,0.012
-6.900E-06,-0.004
-6.890E-06,0.008
-6.880E-06,0.000
-6.870E-06,-0.008
-6.860E-06,-0.004
-6.850E-06,0.000
-6.840E-06,0.004
-6.830E-06,0.012
-6.820E-06,0.012
-6.810E-06,0.008
-6.800E-06,0.004
-6.790E-06,-0.004
-6.780E-06,-0.008
-6.770E-06,0.000
-6.760E-06,0.008
-6.750E-06,0.008
-6.740E-06,0.008
-6.730E-06,0.004
-6.720E-06,-0.004
-6.710E-06,0.000
-6.700E-06,0.000
-6.690E-06,0.008
-6.680E-06,0.012
-6.670E-06,0.012
-6.660E-06,0.008
-6.650E-06,0.000
-6.640E-06,0.004
-6.630E-06,0.008
-6.620E-06,0.016
-6.610E-06,0.004
-6.600E-06,-0.004
-6.590E-06,-0.008
-6.580E-06,-0.008
-6.570E-06,0.020
-6.560E-06,0.032
-6.550E-06,0.016
-6.540E-06,0.004
-6.530E-06,-0.024
-6.520E-06,-0.040
-6.510E-06,-0.024
-6.500E-06,0.008
-6.490E-06,0.044
-6.480E-06,0.044
-6.470E-06,0.020
-6.460E-06,-0.024
-6.450E-06,-0.060
-6.440E-06,-0.036
-6.430E-06,0.012
-6.420E-06,0.056
-6.410E-06,0.052
-6.400E-06,-0.004
-6.390E-06,-0.028
-6.380E-06,-0.024
-6.370E-06,-0.040
-6.360E-06,-0.008
-6.350E-06,0.044
-6.340E-06,0.056
-6.330E-06,0.004
-6.320E-06,-0.024
-6.310E-06,-0.032
-6.300E-06,-0.012
-6.290E-06,0.024
-6.280E-06,0.040
-6.270E-06,0.028
-6.260E-06,-0.004
-6.250E-06,-0.012
-6.240E-06,-0.016
-6.230E-06,0.000
-6.220E-06,0.004
-6.210E-06,0.024
-6.200E-06,0.028
-6.190E-06,0.028
-6.180E-06,0.000
-6.170E-06,-0.004
-6.160E-06,-0.004
-6.150E-06,-0.008
-6.140E-06,-0.008
-6.130E-06,0.004
-6.120E-06,0.008
-6.110E-06,0.008
-6.100E-06,0.020
-6.090E-06,0.024
-6.080E-06,-0.004
-6.070E-06,-0.020
-6.060E-06,-0.028
-6.050E-06,-0.016
-6.040E-06,0.008
-6.030E-06,0.040
-6.020E-06,0.036
-6.010E-06,0.016
-6.000E-06,-0.012
-5.990E-06,-0.028
-5.980E-06,-0.024
-5.970E-06,0.004
-5.960E-06,0.028
-5.950E-06,0.028
-5.940E-06,0.020
-5.930E-06,-0.004
-5.920E-06,-0.012
-5.910E-06,-0.016
-5.900E-06,-0.008
-5.890E-06,0.008
-5.880E-06,0.020
-5.870E-06,0.024
-5.860E-06,0.016
-5.850E-06,-0.008
-5.840E-06,-0.016
-5.830E-06,-0.004
-5.820E-06,0.004
-5.810E-06,0.016
-5.800E-06,0.024
-5.790E-06,0.032
-5.780E-06,0.008
-5.770E-06,0.000
-5.760E-06,-0.020
-5.750E-06,-0.028
-5.740E-06,-0.016
-5.730E-06,-0.004
-5.720E-06,0.020
-5.710E-06,0.024
-5.700E-06,0.024
-5.690E-06,0.000
-5.680E-06,-0.004
-5.670E-06,-0.008
-5.660E-06,-0.008
-5.650E-06,0.000
-5.640E-06,0.012
-5.630E-06,0.024
-5.620E-06,0.008
-5.610E-06,0.008
-5.600E-06,0.000
-5.590E-06,0.000
-5.580E-06,-0.004
-5.570E-06,0.004
-5.560E-06,-0.004
-5.550E-06,0.000
-5.540E-06,0.004
-5.530E-06,0.008
-5.520E-06,0.012
-5.510E-06,0.008
-5.500E-06,0.008
-5.490E-06,-0.012
-5.480E-06,-0.008
-5.470E-06,-0.004
-5.460E-06,0.004
-5.450E-06,0.012
-5.440E-06,0.004
-5.430E-06,0.004
-5.420E-06,-0.008
-5.410E-06,-0.004
-5.400E-06,0.000
-5.390E-06,-0.004
-5.380E-06,0.000
-5.370E-06,0.012
-5.360E-06,0.016
-5.350E-06,0.016
-5.340E-06,0.008
-5.330E-06,0.008
-5.320E-06,-0.004
-5.310E-06,-0.016
-5.300E-06,-0.004
-5.290E-06,0.004
-5.280E-06,0.020
-5.270E-06,0.020
-5.260E-06,0.012
-5.250E-06,0.000
-5.240E-06,-0.008
-5.230E-06,-0.020
-5.220E-06,0.000
-5.210E-06,0.016
-5.200E-06,0.028
-5.190E-06,0.012
-5.180E-06,0.000
-5.170E-06,-0.008
-5.160E-06,-0.016
-5.150E-06,-0.008
-5.140E-06,0.008
-5.130E-06,0.008
-5.120E-06,0.012
-5.110E-06,0.008
-5.100E-06,-0.004
-5.090E-06,-0.008
-5.080E-06,-0.004
-5.070E-06,0.000
-5.060E-06,0.012
-5.050E-06,0.008
-5.040E-06,0.008
-5.030E-06,0.000
-5.020E-06,0.000
-5.010E-06,0.004
-5.000E-06,0.004
-4.990E-06,0.004
-4.980E-06,0.008
-4.970E-06,-0.004
-4.960E-06,-0.004
-4.950E-06,0.008
-4.940E-06,0.012
-4.930E-06,0.012
-4.920E-06,0.008
-4.910E-06,0.004
-4.900E-06,-0.004
-4.890E-06,-0.004
-4.880E-06,0.004
-4.870E-06,-0.008
-4.860E-06,0.000
-4.850E-06,0.008
-4.840E-06,0.016
-4.830E-06,0.016
-4.820E-06,0.016
-4.810E-06,0.008
-4.800E-06,0.008
-4.790E-06,0.004
-4.780E-06,0.008
-4.770E-06,0.000
-4.760E-06,0.020
-4.750E-06,0.012
-4.740E-06,-0.004
-4.730E-06,-0.024
-4.720E-06,-0.056
-4.710E-06,-0.056
-4.700E-06,-0.024
-4.690E-06,0.032
-4.680E-06,0.076
-4.670E-06,0.080
-4.660E-06,0.028
-4.650E-06,-0.040
-4.640E-06,-0.104
-4.630E-06,-0.068
-4.620E-06,0.016
-4.610E-06,0.080
-4.600E-06,0.092
-4.590E-06,0.056
-4.580E-06,-0.012
-4.570E-06,-0.072
-4.560E-06,-0.068
-4.550E-06,-0.016
-4.540E-06,0.040
-4.530E-06,0.060
-4.520E-06,0.056
-4.510E-06,0.016
-4.500E-06,-0.020
-4.490E-06,-0.040
-4.480E-06,-0.032
-4.470E-06,0.000
-4.460E-06,0.024
-4.450E-06,0.032
-4.440E-06,0.028
-4.430E-06,0.020
-4.420E-06,0.004
-4.410E-06,-0.004
-4.400E-06,-0.012
-4.390E-06,-0.008
-4.380E-06,-0.008
-4.370E-06,0.012
-4.360E-06,0.024
-4.350E-06,0.032
-4.340E-06,0.016
-4.330E-06,-0.004
-4.320E-06,-0.004
-4.310E-06,-0.024
-4.300E-06,-0.004
-4.290E-06,0.008
-4.280E-06,0.028
-4.270E-06,0.024
-4.260E-06,0.004
-4.250E-06,0.000
-4.240E-06,-0.020
-4.230E-06,-0.008
-4.220E-06,0.000
-4.210E-06,0.016
-4.200E-06,0.016
-4.190E-06,0.020
-4.180E-06,0.004
-4.170E-06,-0.008
-4.160E-06,-0.012
-4.150E-06,-0.004
-4.140E-06,0.016
-4.130E-06,0.032
-4.120E-06,0.040
-4.110E-06,0.012
-4.100E-06,-0.012
-4.090E-06,-0.036
-4.080E-06,-0.024
-4.070E-06,0.012
-4.060E-06,0.012
-4.050E-06,0.024
-4.040E-06,0.024
-4.030E-06,0.008
-4.020E-06,-0.012
-4.010E-06,-0.032
-4.000E-06,-0.040
-3.990E-06,-0.008
-3.980E-06,0.032
-3.970E-06,0.040
-3.960E-06,0.044
-3.950E-06,0.028
-3.940E-06,-0.008
-3.930E-06,-0.028
-3.920E-06,-0.032
-3.910E-06,-0.012
-3.900E-06,0.008
-3.890E-06,0.028
-3.880E-06,0.028
-3.870E-06,-0.020
-3.860E-06,-0.036
-3.850E-06,-0.020
-3.840E-06,0.008
-3.830E-06,0.020
-3.820E-06,0.032
-3.810E-06,0.000
-3.800E-06,-0.008
-3.790E-06,-0.008
-3.780E-06,0.004
-3.770E-06,0.020
-3.760E-06,0.016
-3.750E-06,0.008
-3.740E-06,-0.008
-3.730E-06,-0.024
-3.720E-06,-0.016
-3.710E-06,0.020
-3.700E-06,0.032
-3.690E-06,0.028
-3.680E-06,0.000
-3.670E-06,-0.020
-3.660E-06,-0.024
-3.650E-06,0.000
-3.640E-06,0.020
-3.630E-06,0.036
-3.620E-06,0.024
-3.610E-06,0.004
-3.600E-06,-0.004
-3.590E-06,-0.024
-3.580E-06,-0.020
-3.570E-06,-0.004
-3.560E-06,0.024
-3.550E-06,0.036
-3.540E-06,0.028
-3.530E-06,0.004
-3.520E-06,0.000
-3.510E-06,-0.016
-3.500E-06,-0.024
-3.490E-06,0.000
-3.480E-06,0.012
-3.470E-06,0.016
-3.460E-06,0.020
-3.450E-06,0.012
-3.440E-06,-0.008
-3.430E-06,-0.008
-3.420E-06,-0.004
-3.410E-06,-0.004
-3.400E-06,0.004
-3.390E-06,0.016
-3.380E-06,0.012
-3.370E-06,0.008
-3.360E-06,0.008
-3.350E-06,-0.004
-3.340E-06,-0.008
-3.330E-06,-0.008
-3.320E-06,0.008
-3.310E-06,0.020
-3.300E-06,0.028
-3.290E-06,0.024
-3.280E-06,0.008
-3.270E-06,-0.004
-3.260E-06,-0.028
-3.250E-06,-0.020
-3.240E-06,-0.004
-3.230E-06,0.016
-3.220E-06,0.036
-3.210E-06,0.040
-3.200E-06,0.012
-3.190E-06,-0.028
-3.180E-06,-0.036
-3.170E-06,-0.032
-3.160E-06,-0.004
-3.150E-06,0.032
-3.140E-06,0.044
-3.130E-06,0.028
-3.120E-06,0.008
-3.110E-06,-0.024
-3.100E-06,-0.020
-3.090E-06,0.000
-3.080E-06,0.008
-3.070E-06,0.020
-3.060E-06,0.024
-3.050E-06,0.012
-3.040E-06,0.004
-3.030E-06,-0.008
-3.020E-06,-0.012
-3.010E-06,-0.008
-3.000E-06,-0.008
-2.990E-06,0.008
-2.980E-06,0.012
-2.970E-06,0.020
-2.960E-06,0.012
-2.950E-06,0.000
-2.940E-06,-0.012
-2.930E-06,-0.012
-2.920E-06,-0.004
-2.910E-06,0.012
-2.900E-06,0.020
-2.890E-06,0.024
-2.880E-06,0.008
-2.870E-06,-0.004
-2.860E-06,-0.008
-2.850E-06,-0.016
-2.840E-06,0.000
-2.830E-06,0.008
-2.820E-06,0.020
-2.810E-06,0.012
-2.800E-06,0.008
-2.790E-06,-0.008
-2.780E-06,-0.008
-2.770E-06,0.008
-2.760E-06,0.008
-2.750E-06,0.020
-2.740E-06,0.020
-2.730E-06,0.012
-2.720E-06,0.008
-2.710E-06,0.000
-2.700E-06,0.004
-2.690E-06,0.012
-2.680E-06,0.028
-2.670E-06,0.032
-2.660E-06,0.000
-2.650E-06,-0.020
-2.640E-06,-0.032
-2.630E-06,-0.004
-2.620E-06,0.040
-2.610E-06,0.060
-2.600E-06,0.056
-2.590E-06,0.004
-2.580E-06,-0.036
-2.570E-06,-0.060
-2.560E-06,-0.028
-2.550E-06,0.020
-2.540E-06,0.036
-2.530E-06,0.028
-2.520E-06,0.004
-2.510E-06,-0.016
-2.500E-06,-0.032
-2.490E-06,-0.024
-2.480E-06,0.004
-2.470E-06,0.004
-2.460E-06,0.008
-2.450E-06,0.012
-2.440E-06,0.020
-2.430E-06,0.024
-2.420E-06,0.020
-2.410E-06,0.000
-2.400E-06,-0.024
-2.390E-06,-0.032
-2.380E-06,-0.004
-2.370E-06,0.024
-2.360E-06,0.060
-2.350E-06,0.048
-2.340E-06,0.012
-2.330E-06,-0.016
-2.320E-06,-0.024
-2.310E-06,-0.020
-2.300E-06,0.000
-2.290E-06,0.028
-2.280E-06,0.036
-2.270E-06,0.040
-2.260E-06,0.020
-2.250E-06,-0.004
-2.240E-06,-0.024
-2.230E-06,-0.024
-2.220E-06,-0.012
-2.210E-06,0.012
-2.200E-06,0.036
-2.190E-06,0.040
-2.180E-06,0.024
-2.170E-06,0.004
-2.160E-06,-0.008
-2.150E-06,-0.024
-2.140E-06,-0.004
-2.130E-06,0.008
-2.120E-06,0.028
-2.110E-06,0.036
-2.100E-06,0.028
-2.090E-06,0.024
-2.080E-06,0.020
-2.070E-06,0.008
-2.060E-06,0.020
-2.050E-06,0.036
-2.040E-06,0.008
-2.030E-06,-0.036
-2.020E-06,-0.072
-2.010E-06,-0.080
-2.000E-06,-0.048
-1.990E-06,0.008
-1.980E-06,0.040
-1.970E-06,0.040
-1.960E-06,0.024
-1.950E-06,-0.012
-1.940E-06,-0.036
-1.930E-06,-0.036
-1.920E-06,-0.020
-1.910E-06,0.000
-1.900E-06,0.020
-1.890E-06,0.024
-1.880E-06,0.016
-1.870E-06,0.008
-1.860E-06,-0.004
-1.850E-06,-0.016
-1.840E-06,-0.024
-1.830E-06,-0.004
-1.820E-06,0.012
-1.810E-06,0.028
-1.800E-06,0.028
-1.790E-06,0.000
-1.780E-06,-0.012
-1.770E-06,-0.012
-1.760E-06,-0.004
-1.750E-06,0.016
-1.740E-06,0.032
-1.730E-06,0.024
-1.720E-06,0.020
-1.710E-06,0.012
-1.700E-06,0.012
-1.690E-06,0.008
-1.680E-06,0.008
-1.670E-06,0.008
-1.660E-06,0.012
-1.650E-06,0.012
-1.640E-06,0.008
-1.630E-06,0.012
-1.620E-06,0.028
-1.610E-06,0.048
-1.600E-06,0.044
-1.590E-06,0.044
-1.580E-06,0.036
-1.570E-06,0.040
-1.560E-06,0.024
-1.550E-06,-0.012
-1.540E-06,-0.024
-1.530E-06,-0.020
-1.520E-06,-0.004
-1.510E-06,0.032
-1.500E-06,0.064
-1.490E-06,0.012
-1.480E-06,-0.068
-1.470E-06,-0.124
-1.460E-06,-0.124
-1.450E-06,-0.040
-1.440E-06,0.044
-1.430E-06,0.096
-1.420E-06,0.088
-1.410E-06,0.028
-1.400E-06,-0.056
-1.390E-06,-0.100
-1.380E-06,-0.072
-1.370E-06,-0.012
-1.360E-06,0.048
-1.350E-06,0.084
-1.340E-06,0.056
-1.330E-06,0.008
-1.320E-06,-0.028
-1.310E-06,-0.044
-1.300E-06,-0.020
-1.290E-06,0.008
-1.280E-06,0.056
-1.270E-06,0.060
-1.260E-06,0.076
-1.250E-06,0.060
-1.240E-06,0.028
-1.230E-06,0.024
-1.220E-06,0.040
-1.210E-06,0.088
-1.200E-06,0.000
-1.190E-06,-0.004
-1.180E-06,-0.088
-1.170E-06,-0.136
-1.160E-06,-0.088
-1.150E-06,0.036
-1.140E-06,0.132
-1.130E-06,0.092
-1.120E-06,0.008
-1.110E-06,-0.060
-1.100E-06,-0.076
-1.090E-06,-0.048
-1.080E-06,0.028
-1.070E-06,0.068
-1.060E-06,0.096
-1.050E-06,0.060
-1.040E-06,0.032
-1.030E-06,0.016
-1.020E-06,0.016
-1.010E-06,0.028
-1.000E-06,-0.024
-9.900E-07,-0.104
-9.800E-07,-0.132
-9.700E-07,-0.072
-9.600E-07,-0.056
-9.500E-07,0.000
-9.400E-07,0.040
-9.300E-07,0.076
-9.200E-07,0.024
-9.100E-07,0.000
-9.000E-07,-0.036
-8.900E-07,-0.052
-8.800E-07,-0.024
-8.700E-07,0.024
-8.600E-07,0.052
-8.500E-07,0.036
-8.400E-07,0.012
-8.300E-07,-0.020
-8.200E-07,-0.028
-8.100E-07,-0.032
-8.000E-07,-0.004
-7.900E-07,0.036
-7.800E-07,0.072
-7.700E-07,0.076
-7.600E-07,0.056
-7.500E-07,0.040
-7.400E-07,0.016
-7.300E-07,0.040
-7.200E-07,0.092
-7.100E-07,0.088
-7.000E-07,0.024
-6.900E-07,-0.040
-6.800E-07,-0.108
-6.700E-07,-0.120
-6.600E-07,-0.024
-6.500E-07,0.124
-6.400E-07,0.200
-6.300E-07,0.172
-6.200E-07,0.072
-6.100E-07,-0.056
-6.000E-07,-0.136
-5.900E-07,-0.112
-5.800E-07,-0.028
-5.700E-07,0.072
-5.600E-07,0.132
-5.500E-07,0.120
-5.400E-07,0.068
-5.300E-07,0.012
-5.200E-07,-0.004
-5.100E-07,0.000
-5.000E-07,0.040
-4.900E-07,0.064
-4.800E-07,0.104
-4.700E-07,0.024
-4.600E-07,-0.128
-4.500E-07,-0.208
-4.400E-07,-0.136
-4.300E-07,-0.240
-4.200E-07,-0.108
-4.100E-07,-0.120
-4.000E-07,0.044
-3.900E-07,0.144
-3.800E-07,0.200
-3.700E-07,0.128
-3.600E-07,-0.156
-3.500E-07,-0.196
-3.400E-07,-0.168
-3.300E-07,0.052
-3.200E-07,0.196
-3.100E-07,0.236
-3.000E-07,0.048
-2.900E-07,-0.100
-2.800E-07,-0.204
-2.700E-07,-0.204
-2.600E-07,-0.056
-2.500E-07,0.116
-2.400E-07,0.232
-2.300E-07,0.148
-2.200E-07,0.036
-2.100E-07,-0.152
-2.000E-07,-0.168
-1.900E-07,-0.088
-1.800E-07,0.076
-1.700E-07,0.180
-1.600E-07,0.200
-1.500E-07,0.124
-1.400E-07,-0.004
-1.300E-07,-0.068
-1.200E-07,-0.104
-1.100E-07,0.008
-1.000E-07,0.132
-9.000E-08,0.276
-8.000E-08,0.308
-7.000E-08,0.184
-6.000E-08,-0.188
-5.000E-08,-0.468
-4.000E-08,-0.512
-3.000E-08,-0.472
-2.000E-08,-0.124
-1.000E-08,0.352
0.000E+00,0.540
1.000E-08,0.440
2.000E-08,0.104
3.000E-08,-0.384
4.000E-08,-0.512
5.000E-08,-0.436
6.000E-08,-0.008
7.000E-08,0.416
8.000E-08,0.540
9.000E-08,0.372
1.000E-07,-0.040
1.100E-07,-0.376
1.200E-07,-0.472
1.300E-07,-0.272
1.400E-07,0.060
1.500E-07,0.368
1.600E-07,0.452
1.700E-07,0.308
1.800E-07,0.008
1.900E-07,-0.256
2.000E-07,-0.336
2.100E-07,-0.212
2.200E-07,0.056
2.300E-07,0.304
2.400E-07,0.408
2.500E-07,0.320
2.600E-07,0.148
2.700E-07,-0.068
2.800E-07,-0.188
2.900E-07,-0.188
3.000E-07,-0.076
3.100E-07,0.088
3.200E-07,0.192
3.300E-07,0.204
3.400E-07,0.084
3.500E-07,0.000
3.600E-07,-0.068
3.700E-07,-0.072
3.800E-07,0.004
3.900E-07,0.120
4.000E-07,0.176
4.100E-07,0.092
4.200E-07,-0.068
4.300E-07,-0.192
4.400E-07,-0.200
4.500E-07,-0.136
4.600E-07,-0.032
4.700E-07,0.080
4.800E-07,0.144
4.900E-07,0.144
5.000E-07,0.088
5.100E-07,0.040
5.200E-07,0.016
5.300E-07,0.028
5.400E-07,0.032
5.500E-07,0.032
5.600E-07,0.028
5.700E-07,0.044
5.800E-07,0.068
5.900E-07,0.128
6.000E-07,0.192
6.100E-07,0.184
6.200E-07,0.108
6.300E-07,0.072
6.400E-07,0.036
6.500E-07,0.024
6.600E-07,0.052
6.700E-07,0.076
6.800E-07,0.088
6.900E-07,-0.020
7.000E-07,-0.188
7.100E-07,-0.360
7.200E-07,-0.508
7.300E-07,-0.400
7.400E-07,-0.140
7.500E-07,0.200
7.600E-07,0.408
7.700E-07,0.408
7.800E-07,0.168
7.900E-07,-0.076
8.000E-07,-0.208
8.100E-07,-0.184
8.200E-07,0.012
8.300E-07,0.284
8.400E-07,0.432
8.500E-07,0.356
8.600E-07,0.144
8.700E-07,-0.136
8.800E-07,-0.272
8.900E-07,-0.324
9.000E-07,-0.252
9.100E-07,-0.160
9.200E-07,0.004
9.300E-07,-0.028
9.400E-07,0.012
9.500E-07,0.088
9.600E-07,-0.008
9.700E-07,-0.064
9.800E-07,-0.124
9.900E-07,0.044
1.000E-06,0.192
1.010E-06,0.288
1.020E-06,0.132
1.030E-06,-0.164
1.040E-06,-0.500
1.050E-06,-0.512
1.060E-06,-0.368
1.070E-06,-0.032
1.080E-06,0.316
1.090E-06,0.456
1.100E-06,0.308
1.110E-06,-0.036
1.120E-06,-0.340
1.130E-06,-0.380
1.140E-06,-0.160
1.150E-06,0.144
1.160E-06,0.408
1.170E-06,0.496
1.180E-06,0.320
1.190E-06,0.036
1.200E-06,-0.172
1.210E-06,-0.252
1.220E-06,-0.128
1.230E-06,0.156
1.240E-06,0.392
1.250E-06,0.352
1.260E-06,0.088
1.270E-06,-0.260
1.280E-06,-0.512
1.290E-06,-0.512
1.300E-06,-0.320
1.310E-06,0.024
1.320E-06,0.232
1.330E-06,0.388
1.340E-06,0.236
1.350E-06,-0.092
1.360E-06,-0.360
1.370E-06,-0.400
1.380E-06,-0.180
1.390E-06,0.156
1.400E-06,0.364
1.410E-06,0.332
1.420E-06,0.108
1.430E-06,-0.140
1.440E-06,-0.256
1.450E-06,-0.220
1.460E-06,-0.056
1.470E-06,0.144
1.480E-06,0.284
1.490E-06,0.308
1.500E-06,0.208
1.510E-06,0.064
1.520E-06,-0.088
1.530E-06,-0.076
1.540E-06,0.080
1.550E-06,0.296
1.560E-06,0.428
1.570E-06,0.456
1.580E-06,0.348
1.590E-06,0.176
1.600E-06,0.044
1.610E-06,0.008
1.620E-06,0.056
1.630E-06,0.160
1.640E-06,0.256
1.650E-06,0.276
1.660E-06,0.204
1.670E-06,0.080
1.680E-06,-0.020
1.690E-06,-0.072
1.700E-06,-0.044
1.710E-06,0.032
1.720E-06,0.128
1.730E-06,0.172
1.740E-06,0.148
1.750E-06,0.076
1.760E-06,-0.012
1.770E-06,-0.068
1.780E-06,-0.100
1.790E-06,-0.020
1.800E-06,0.080
1.810E-06,0.152
1.820E-06,0.200
1.830E-06,0.204
1.840E-06,0.164
1.850E-06,0.172
1.860E-06,0.200
1.870E-06,0.256
1.880E-06,0.280
1.890E-06,0.264
1.900E-06,0.232
1.910E-06,0.192
1.920E-06,0.172
1.930E-06,0.204
1.940E-06,0.248
1.950E-06,0.252
1.960E-06,0.176
1.970E-06,0.120
1.980E-06,0.072
1.990E-06,0.100
2.000E-06,0.088
2.010E-06,0.028
2.020E-06,-0.088
2.030E-06,-0.284
2.040E-06,-0.272
2.050E-06,-0.136
2.060E-06,0.124
2.070E-06,0.128
2.080E-06,-0.244
2.090E-06,-0.512
2.100E-06,-0.512
2.110E-06,-0.508
2.120E-06,-0.512
2.130E-06,-0.212
2.140E-06,0.544
2.150E-06,0.544
2.160E-06,0.540
2.170E-06,-0.392
2.180E-06,-0.512
2.190E-06,-0.508
2.200E-06,-0.508
2.210E-06,0.336
2.220E-06,0.540
2.230E-06,0.540
2.240E-06,0.536
2.250E-06,-0.168
2.260E-06,-0.512
2.270E-06,-0.512
2.280E-06,-0.428
2.290E-06,0.244
2.300E-06,0.540
2.310E-06,0.544
2.320E-06,0.544
2.330E-06,-0.032
2.340E-06,-0.512
2.350E-06,-0.512
2.360E-06,-0.336
2.370E-06,0.172
2.380E-06,0.540
2.390E-06,0.540
2.400E-06,0.532
2.410E-06,0.108
2.420E-06,-0.236
2.430E-06,-0.336
2.440E-06,-0.152
2.450E-06,0.188
2.460E-06,0.504
2.470E-06,0.540
2.480E-06,0.540
2.490E-06,0.296
2.500E-06,0.008
2.510E-06,-0.108
2.520E-06,-0.028
2.530E-06,0.196
2.540E-06,0.428
2.550E-06,0.536
2.560E-06,0.500
2.570E-06,0.340
2.580E-06,0.152
2.590E-06,0.016
2.600E-06,0.012
2.610E-06,0.104
2.620E-06,0.232
2.630E-06,0.296
2.640E-06,0.280
2.650E-06,0.148
2.660E-06,-0.004
2.670E-06,-0.104
2.680E-06,-0.100
2.690E-06,-0.028
2.700E-06,0.108
2.710E-06,0.320
2.720E-06,0.444
2.730E-06,0.472
2.740E-06,0.348
2.750E-06,0.192
2.760E-06,0.056
2.770E-06,-0.004
2.780E-06,0.044
2.790E-06,0.164
2.800E-06,0.284
2.810E-06,0.320
2.820E-06,0.260
2.830E-06,0.076
2.840E-06,-0.076
2.850E-06,-0.168
2.860E-06,-0.160
2.870E-06,-0.104
2.880E-06,-0.004
2.890E-06,-0.008
2.900E-06,-0.140
2.910E-06,-0.344
2.920E-06,-0.512
2.930E-06,-0.512
2.940E-06,-0.396
2.950E-06,-0.108
2.960E-06,0.124
2.970E-06,0.264
2.980E-06,0.112
2.990E-06,-0.152
3.000E-06,-0.360
3.010E-06,-0.480
3.020E-06,-0.392
3.030E-06,-0.188
3.040E-06,0.172
3.050E-06,0.300
3.060E-06,0.288
3.070E-06,0.128
3.080E-06,-0.072
3.090E-06,-0.176
3.100E-06,-0.120
3.110E-06,0.096
3.120E-06,0.348
3.130E-06,0.496
3.140E-06,0.464
3.150E-06,0.352
3.160E-06,0.188
3.170E-06,0.072
3.180E-06,0.056
3.190E-06,0.180
3.200E-06,0.336
3.210E-06,0.448
3.220E-06,0.468
3.230E-06,0.384
3.240E-06,0.264
