mediciones/Mediciones filtradas (saque las feas)/5-15/3/WaveData47207.csv

#timebase=2000000(ps)
,#voltbase=100000(mv/100)
#size=4000
-8.400E-06,0.012
-8.390E-06,-0.004
-8.380E-06,0.000
-8.370E-06,0.000
-8.360E-06,0.000
-8.350E-06,0.000
-8.340E-06,0.004
-8.330E-06,0.008
-8.320E-06,-0.004
-8.310E-06,0.000
-8.300E-06,0.000
-8.290E-06,0.004
-8.280E-06,0.000
-8.270E-06,0.004
-8.260E-06,0.004
-8.250E-06,-0.004
-8.240E-06,-0.004
-8.230E-06,0.000
-8.220E-06,0.000
-8.210E-06,0.008
-8.200E-06,0.008
-8.190E-06,0.004
-8.180E-06,0.008
-8.170E-06,0.000
-8.160E-06,0.000
-8.150E-06,0.012
-8.140E-06,0.004
-8.130E-06,0.004
-8.120E-06,0.000
-8.110E-06,0.008
-8.100E-06,0.012
-8.090E-06,0.000
-8.080E-06,-0.024
-8.070E-06,-0.004
-8.060E-06,-0.004
-8.050E-06,0.024
-8.040E-06,0.024
-8.030E-06,0.000
-8.020E-06,-0.008
-8.010E-06,0.016
-8.000E-06,0.004
-7.990E-06,-0.008
-7.980E-06,0.004
-7.970E-06,0.008
-7.960E-06,0.012
-7.950E-06,0.004
-7.940E-06,0.016
-7.930E-06,-0.004
-7.920E-06,0.000
-7.910E-06,0.004
-7.900E-06,0.004
-7.890E-06,0.000
-7.880E-06,0.000
-7.870E-06,0.008
-7.860E-06,0.004
-7.850E-06,0.004
-7.840E-06,0.004
-7.830E-06,0.008
-7.820E-06,0.004
-7.810E-06,0.000
-7.800E-06,-0.008
-7.790E-06,0.000
-7.780E-06,0.004
-7.770E-06,0.004
-7.760E-06,0.008
-7.750E-06,0.008
-7.740E-06,0.000
-7.730E-06,-0.004
-7.720E-06,0.008
-7.710E-06,-0.004
-7.700E-06,0.004
-7.690E-06,0.004
-7.680E-06,0.000
-7.670E-06,0.008
-7.660E-06,0.004
-7.650E-06,0.000
-7.640E-06,0.000
-7.630E-06,-0.004
-7.620E-06,0.000
-7.610E-06,0.000
-7.600E-06,0.008
-7.590E-06,0.008
-7.580E-06,0.004
-7.570E-06,0.004
-7.560E-06,0.000
-7.550E-06,0.000
-7.540E-06,0.000
-7.530E-06,0.000
-7.520E-06,0.008
-7.510E-06,0.012
-7.500E-06,0.004
-7.490E-06,0.004
-7.480E-06,-0.004
-7.470E-06,0.000
-7.460E-06,-0.004
-7.450E-06,0.004
-7.440E-06,-0.004
-7.430E-06,0.008
-7.420E-06,0.000
-7.410E-06,0.004
-7.400E-06,0.000
-7.390E-06,-0.004
-7.380E-06,0.000
-7.370E-06,-0.004
-7.360E-06,0.004
-7.350E-06,0.000
-7.340E-06,0.008
-7.330E-06,0.004
-7.320E-06,0.004
-7.310E-06,-0.004
-7.300E-06,0.004
-7.290E-06,-0.004
-7.280E-06,0.008
-7.270E-06,0.008
-7.260E-06,0.004
-7.250E-06,0.008
-7.240E-06,0.008
-7.230E-06,0.000
-7.220E-06,0.004
-7.210E-06,0.008
-7.200E-06,-0.004
-7.190E-06,0.004
-7.180E-06,0.004
-7.170E-06,0.008
-7.160E-06,0.004
-7.150E-06,0.008
-7.140E-06,0.008
-7.130E-06,0.000
-7.120E-06,-0.004
-7.110E-06,0.000
-7.100E-06,0.004
-7.090E-06,-0.004
-7.080E-06,0.000
-7.070E-06,0.008
-7.060E-06,0.008
-7.050E-06,0.004
-7.040E-06,0.008
-7.030E-06,0.012
-7.020E-06,0.008
-7.010E-06,0.008
-7.000E-06,-0.004
-6.990E-06,0.000
-6.980E-06,0.004
-6.970E-06,0.008
-6.960E-06,0.012
-6.950E-06,0.012
-6.940E-06,-0.004
-6.930E-06,0.000
-6.920E-06,-0.004
-6.910E-06,0.004
-6.900E-06,0.008
-6.890E-06,0.012
-6.880E-06,0.004
-6.870E-06,0.008
-6.860E-06,0.000
-6.850E-06,-0.004
-6.840E-06,0.004
-6.830E-06,-0.004
-6.820E-06,0.000
-6.810E-06,0.004
-6.800E-06,0.004
-6.790E-06,0.004
-6.780E-06,0.008
-6.770E-06,0.008
-6.760E-06,0.004
-6.750E-06,0.000
-6.740E-06,0.000
-6.730E-06,0.000
-6.720E-06,-0.004
-6.710E-06,-0.004
-6.700E-06,0.008
-6.690E-06,0.012
-6.680E-06,0.012
-6.670E-06,0.004
-6.660E-06,-0.004
-6.650E-06,-0.004
-6.640E-06,0.000
-6.630E-06,0.012
-6.620E-06,0.004
-6.610E-06,0.008
-6.600E-06,0.004
-6.590E-06,-0.004
-6.580E-06,0.000
-6.570E-06,-0.004
-6.560E-06,-0.004
-6.550E-06,0.004
-6.540E-06,0.008
-6.530E-06,0.000
-6.520E-06,0.008
-6.510E-06,0.004
-6.500E-06,0.004
-6.490E-06,-0.008
-6.480E-06,0.000
-6.470E-06,0.000
-6.460E-06,0.008
-6.450E-06,0.004
-6.440E-06,0.004
-6.430E-06,0.004
-6.420E-06,-0.004
-6.410E-06,0.004
-6.400E-06,0.000
-6.390E-06,0.008
-6.380E-06,0.000
-6.370E-06,0.000
-6.360E-06,0.004
-6.350E-06,0.008
-6.340E-06,-0.004
-6.330E-06,-0.004
-6.320E-06,0.008
-6.310E-06,0.000
-6.300E-06,0.000
-6.290E-06,0.000
-6.280E-06,0.008
-6.270E-06,0.008
-6.260E-06,-0.004
-6.250E-06,0.000
-6.240E-06,0.004
-6.230E-06,0.004
-6.220E-06,0.000
-6.210E-06,0.004
-6.200E-06,0.000
-6.190E-06,0.000
-6.180E-06,0.004
-6.170E-06,0.008
-6.160E-06,0.004
-6.150E-06,0.004
-6.140E-06,0.004
-6.130E-06,-0.004
-6.120E-06,0.000
-6.110E-06,0.008
-6.100E-06,0.012
-6.090E-06,0.000
-6.080E-06,0.000
-6.070E-06,0.004
-6.060E-06,0.004
-6.050E-06,0.008
-6.040E-06,0.008
-6.030E-06,0.000
-6.020E-06,0.000
-6.010E-06,0.004
-6.000E-06,0.004
-5.990E-06,0.004
-5.980E-06,0.004
-5.970E-06,0.008
-5.960E-06,0.008
-5.950E-06,-0.008
-5.940E-06,-0.004
-5.930E-06,-0.004
-5.920E-06,0.008
-5.910E-06,0.012
-5.900E-06,0.012
-5.890E-06,0.012
-5.880E-06,-0.004
-5.870E-06,-0.004
-5.860E-06,0.000
-5.850E-06,0.004
-5.840E-06,0.012
-5.830E-06,0.004
-5.820E-06,0.008
-5.810E-06,0.000
-5.800E-06,0.000
-5.790E-06,-0.004
-5.780E-06,0.000
-5.770E-06,0.004
-5.760E-06,0.004
-5.750E-06,0.008
-5.740E-06,0.004
-5.730E-06,0.000
-5.720E-06,0.004
-5.710E-06,0.008
-5.700E-06,0.000
-5.690E-06,0.000
-5.680E-06,0.000
-5.670E-06,0.004
-5.660E-06,0.004
-5.650E-06,0.000
-5.640E-06,0.000
-5.630E-06,0.004
-5.620E-06,0.004
-5.610E-06,0.004
-5.600E-06,0.008
-5.590E-06,0.000
-5.580E-06,0.000
-5.570E-06,0.004
-5.560E-06,0.004
-5.550E-06,0.004
-5.540E-06,0.004
-5.530E-06,0.008
-5.520E-06,0.008
-5.510E-06,0.000
-5.500E-06,0.004
-5.490E-06,0.000
-5.480E-06,-0.004
-5.470E-06,0.000
-5.460E-06,0.000
-5.450E-06,0.000
-5.440E-06,-0.004
-5.430E-06,0.004
-5.420E-06,0.008
-5.410E-06,0.008
-5.400E-06,0.004
-5.390E-06,0.000
-5.380E-06,0.000
-5.370E-06,0.004
-5.360E-06,0.000
-5.350E-06,0.004
-5.340E-06,0.008
-5.330E-06,0.004
-5.320E-06,0.008
-5.310E-06,0.004
-5.300E-06,0.000
-5.290E-06,0.000
-5.280E-06,-0.004
-5.270E-06,0.004
-5.260E-06,0.012
-5.250E-06,0.008
-5.240E-06,0.000
-5.230E-06,0.004
-5.220E-06,0.004
-5.210E-06,0.004
-5.200E-06,0.004
-5.190E-06,0.000
-5.180E-06,0.000
-5.170E-06,0.004
-5.160E-06,0.004
-5.150E-06,0.004
-5.140E-06,0.004
-5.130E-06,0.004
-5.120E-06,0.000
-5.110E-06,0.000
-5.100E-06,0.000
-5.090E-06,0.004
-5.080E-06,0.008
-5.070E-06,0.008
-5.060E-06,0.008
-5.050E-06,0.012
-5.040E-06,0.004
-5.030E-06,-0.004
-5.020E-06,0.000
-5.010E-06,0.004
-5.000E-06,0.008
-4.990E-06,0.004
-4.980E-06,0.004
-4.970E-06,0.000
-4.960E-06,0.000
-4.950E-06,0.004
-4.940E-06,0.004
-4.930E-06,0.004
-4.920E-06,0.004
-4.910E-06,0.000
-4.900E-06,0.008
-4.890E-06,0.000
-4.880E-06,0.004
-4.870E-06,0.004
-4.860E-06,0.000
-4.850E-06,0.004
-4.840E-06,0.000
-4.830E-06,0.004
-4.820E-06,0.008
-4.810E-06,0.008
-4.800E-06,0.000
-4.790E-06,0.000
-4.780E-06,-0.004
-4.770E-06,-0.004
-4.760E-06,0.000
-4.750E-06,0.004
-4.740E-06,0.012
-4.730E-06,0.008
-4.720E-06,0.004
-4.710E-06,0.000
-4.700E-06,0.000
-4.690E-06,0.000
-4.680E-06,0.000
-4.670E-06,0.004
-4.660E-06,0.008
-4.650E-06,0.012
-4.640E-06,0.008
-4.630E-06,0.004
-4.620E-06,0.004
-4.610E-06,0.000
-4.600E-06,0.004
-4.590E-06,0.004
-4.580E-06,0.004
-4.570E-06,0.008
-4.560E-06,0.000
-4.550E-06,0.004
-4.540E-06,0.000
-4.530E-06,-0.004
-4.520E-06,-0.004
-4.510E-06,0.008
-4.500E-06,0.004
-4.490E-06,0.008
-4.480E-06,0.008
-4.470E-06,0.000
-4.460E-06,0.000
-4.450E-06,0.000
-4.440E-06,0.004
-4.430E-06,0.004
-4.420E-06,0.008
-4.410E-06,0.004
-4.400E-06,0.000
-4.390E-06,0.004
-4.380E-06,0.004
-4.370E-06,0.004
-4.360E-06,0.004
-4.350E-06,-0.004
-4.340E-06,-0.004
-4.330E-06,-0.004
-4.320E-06,-0.004
-4.310E-06,-0.004
-4.300E-06,0.012
-4.290E-06,0.016
-4.280E-06,0.012
-4.270E-06,0.004
-4.260E-06,-0.004
-4.250E-06,-0.008
-4.240E-06,-0.008
-4.230E-06,0.004
-4.220E-06,0.012
-4.210E-06,0.016
-4.200E-06,0.012
-4.190E-06,0.008
-4.180E-06,-0.008
-4.170E-06,-0.004
-4.160E-06,-0.008
-4.150E-06,-0.004
-4.140E-06,0.004
-4.130E-06,0.012
-4.120E-06,0.020
-4.110E-06,0.012
-4.100E-06,0.004
-4.090E-06,-0.004
-4.080E-06,-0.004
-4.070E-06,-0.008
-4.060E-06,-0.004
-4.050E-06,0.004
-4.040E-06,0.016
-4.030E-06,0.016
-4.020E-06,0.008
-4.010E-06,-0.004
-4.000E-06,-0.012
-3.990E-06,-0.008
-3.980E-06,0.004
-3.970E-06,0.004
-3.960E-06,0.012
-3.950E-06,0.008
-3.940E-06,0.004
-3.930E-06,-0.004
-3.920E-06,-0.004
-3.910E-06,0.000
-3.900E-06,0.004
-3.890E-06,0.008
-3.880E-06,0.012
-3.870E-06,0.012
-3.860E-06,0.012
-3.850E-06,0.008
-3.840E-06,0.004
-3.830E-06,0.004
-3.820E-06,0.004
-3.810E-06,0.004
-3.800E-06,-0.004
-3.790E-06,0.000
-3.780E-06,0.012
-3.770E-06,0.008
-3.760E-06,0.004
-3.750E-06,0.000
-3.740E-06,0.000
-3.730E-06,-0.004
-3.720E-06,0.004
-3.710E-06,0.004
-3.700E-06,0.004
-3.690E-06,0.008
-3.680E-06,0.008
-3.670E-06,0.008
-3.660E-06,0.004
-3.650E-06,0.000
-3.640E-06,0.000
-3.630E-06,0.004
-3.620E-06,0.004
-3.610E-06,0.008
-3.600E-06,0.008
-3.590E-06,0.008
-3.580E-06,0.004
-3.570E-06,0.000
-3.560E-06,-0.004
-3.550E-06,0.004
-3.540E-06,0.012
-3.530E-06,0.016
-3.520E-06,0.016
-3.510E-06,0.000
-3.500E-06,-0.004
-3.490E-06,-0.004
-3.480E-06,-0.004
-3.470E-06,-0.004
-3.460E-06,0.012
-3.450E-06,0.012
-3.440E-06,0.004
-3.430E-06,0.000
-3.420E-06,0.000
-3.410E-06,-0.004
-3.400E-06,-0.004
-3.390E-06,0.008
-3.380E-06,0.008
-3.370E-06,0.004
-3.360E-06,0.008
-3.350E-06,0.004
-3.340E-06,0.004
-3.330E-06,0.004
-3.320E-06,0.000
-3.310E-06,-0.004
-3.300E-06,0.000
-3.290E-06,0.000
-3.280E-06,0.008
-3.270E-06,0.016
-3.260E-06,0.008
-3.250E-06,0.000
-3.240E-06,-0.004
-3.230E-06,-0.004
-3.220E-06,-0.004
-3.210E-06,0.000
-3.200E-06,0.008
-3.190E-06,0.012
-3.180E-06,0.012
-3.170E-06,0.004
-3.160E-06,-0.004
-3.150E-06,-0.008
-3.140E-06,-0.008
-3.130E-06,0.000
-3.120E-06,0.008
-3.110E-06,0.008
-3.100E-06,0.008
-3.090E-06,0.004
-3.080E-06,0.000
-3.070E-06,0.004
-3.060E-06,0.004
-3.050E-06,0.004
-3.040E-06,0.000
-3.030E-06,0.000
-3.020E-06,0.000
-3.010E-06,0.008
-3.000E-06,0.008
-2.990E-06,0.008
-2.980E-06,0.000
-2.970E-06,0.000
-2.960E-06,-0.004
-2.950E-06,-0.004
-2.940E-06,0.008
-2.930E-06,0.008
-2.920E-06,0.012
-2.910E-06,0.012
-2.900E-06,-0.004
-2.890E-06,-0.004
-2.880E-06,0.000
-2.870E-06,0.004
-2.860E-06,0.008
-2.850E-06,0.012
-2.840E-06,0.016
-2.830E-06,0.008
-2.820E-06,0.008
-2.810E-06,0.000
-2.800E-06,-0.004
-2.790E-06,0.000
-2.780E-06,0.000
-2.770E-06,0.008
-2.760E-06,0.016
-2.750E-06,0.016
-2.740E-06,0.008
-2.730E-06,0.004
-2.720E-06,-0.004
-2.710E-06,-0.004
-2.700E-06,0.004
-2.690E-06,0.008
-2.680E-06,0.016
-2.670E-06,0.016
-2.660E-06,0.012
-2.650E-06,0.004
-2.640E-06,-0.004
-2.630E-06,0.000
-2.620E-06,0.008
-2.610E-06,0.016
-2.600E-06,0.004
-2.590E-06,0.000
-2.580E-06,0.000
-2.570E-06,0.000
-2.560E-06,0.008
-2.550E-06,0.020
-2.540E-06,0.008
-2.530E-06,0.004
-2.520E-06,0.008
-2.510E-06,0.000
-2.500E-06,0.004
-2.490E-06,0.012
-2.480E-06,0.020
-2.470E-06,0.012
-2.460E-06,0.024
-2.450E-06,0.028
-2.440E-06,0.012
-2.430E-06,-0.004
-2.420E-06,-0.016
-2.410E-06,-0.024
-2.400E-06,-0.028
-2.390E-06,-0.012
-2.380E-06,0.008
-2.370E-06,0.020
-2.360E-06,0.016
-2.350E-06,0.008
-2.340E-06,-0.004
-2.330E-06,-0.016
-2.320E-06,-0.016
-2.310E-06,-0.004
-2.300E-06,0.004
-2.290E-06,0.012
-2.280E-06,0.020
-2.270E-06,0.012
-2.260E-06,-0.004
-2.250E-06,-0.012
-2.240E-06,-0.016
-2.230E-06,-0.004
-2.220E-06,0.012
-2.210E-06,0.024
-2.200E-06,0.024
-2.190E-06,0.008
-2.180E-06,-0.004
-2.170E-06,-0.016
-2.160E-06,-0.012
-2.150E-06,0.004
-2.140E-06,0.004
-2.130E-06,0.024
-2.120E-06,0.028
-2.110E-06,0.016
-2.100E-06,0.012
-2.090E-06,-0.012
-2.080E-06,-0.004
-2.070E-06,-0.004
-2.060E-06,0.000
-2.050E-06,0.016
-2.040E-06,0.024
-2.030E-06,0.028
-2.020E-06,0.020
-2.010E-06,0.008
-2.000E-06,-0.004
-1.990E-06,-0.004
-1.980E-06,-0.004
-1.970E-06,0.000
-1.960E-06,0.024
-1.950E-06,0.032
-1.940E-06,0.020
-1.930E-06,0.004
-1.920E-06,0.000
-1.910E-06,-0.008
-1.900E-06,-0.004
-1.890E-06,0.004
-1.880E-06,0.016
-1.870E-06,0.020
-1.860E-06,0.020
-1.850E-06,0.008
-1.840E-06,0.000
-1.830E-06,0.000
-1.820E-06,0.000
-1.810E-06,0.008
-1.800E-06,0.012
-1.790E-06,0.008
-1.780E-06,0.008
-1.770E-06,0.008
-1.760E-06,0.004
-1.750E-06,0.008
-1.740E-06,0.004
-1.730E-06,0.008
-1.720E-06,0.004
-1.710E-06,0.012
-1.700E-06,0.016
-1.690E-06,0.016
-1.680E-06,0.008
-1.670E-06,0.012
-1.660E-06,0.016
-1.650E-06,0.016
-1.640E-06,0.020
-1.630E-06,0.016
-1.620E-06,0.016
-1.610E-06,0.008
-1.600E-06,0.008
-1.590E-06,0.012
-1.580E-06,0.012
-1.570E-06,0.008
-1.560E-06,0.008
-1.550E-06,0.012
-1.540E-06,0.008
-1.530E-06,0.000
-1.520E-06,-0.004
-1.510E-06,0.000
-1.500E-06,0.012
-1.490E-06,0.016
-1.480E-06,0.012
-1.470E-06,0.012
-1.460E-06,0.012
-1.450E-06,0.012
-1.440E-06,0.004
-1.430E-06,0.012
-1.420E-06,0.016
-1.410E-06,0.024
-1.400E-06,0.020
-1.390E-06,0.008
-1.380E-06,0.004
-1.370E-06,0.008
-1.360E-06,0.016
-1.350E-06,0.020
-1.340E-06,0.020
-1.330E-06,0.012
-1.320E-06,0.012
-1.310E-06,0.016
-1.300E-06,0.036
-1.290E-06,0.040
-1.280E-06,0.036
-1.270E-06,0.020
-1.260E-06,0.000
-1.250E-06,-0.012
-1.240E-06,-0.004
-1.230E-06,0.016
-1.220E-06,0.032
-1.210E-06,0.048
-1.200E-06,0.044
-1.190E-06,0.024
-1.180E-06,0.012
-1.170E-06,0.012
-1.160E-06,0.020
-1.150E-06,0.028
-1.140E-06,0.048
-1.130E-06,0.056
-1.120E-06,0.056
-1.110E-06,0.044
-1.100E-06,0.040
-1.090E-06,0.040
-1.080E-06,0.048
-1.070E-06,0.060
-1.060E-06,0.076
-1.050E-06,0.084
-1.040E-06,0.068
-1.030E-06,0.052
-1.020E-06,0.040
-1.010E-06,0.036
-1.000E-06,0.056
-9.900E-07,0.060
-9.800E-07,0.060
-9.700E-07,0.024
-9.600E-07,-0.032
-9.500E-07,-0.068
-9.400E-07,-0.072
-9.300E-07,-0.040
-9.200E-07,0.004
-9.100E-07,0.032
-9.000E-07,0.024
-8.900E-07,-0.008
-8.800E-07,-0.036
-8.700E-07,-0.056
-8.600E-07,-0.044
-8.500E-07,-0.036
-8.400E-07,-0.004
-8.300E-07,0.020
-8.200E-07,0.036
-8.100E-07,0.040
-8.000E-07,0.040
-7.900E-07,0.020
-7.800E-07,-0.008
-7.700E-07,-0.028
-7.600E-07,-0.028
-7.500E-07,0.004
-7.400E-07,0.048
-7.300E-07,0.080
-7.200E-07,0.092
-7.100E-07,0.076
-7.000E-07,0.056
-6.900E-07,0.020
-6.800E-07,0.024
-6.700E-07,0.036
-6.600E-07,0.068
-6.500E-07,0.092
-6.400E-07,0.096
-6.300E-07,0.092
-6.200E-07,0.072
-6.100E-07,0.044
-6.000E-07,0.032
-5.900E-07,0.028
-5.800E-07,0.040
-5.700E-07,0.072
-5.600E-07,0.100
-5.500E-07,0.104
-5.400E-07,0.088
-5.300E-07,0.028
-5.200E-07,-0.004
-5.100E-07,-0.040
-5.000E-07,-0.024
-4.900E-07,0.012
-4.800E-07,0.068
-4.700E-07,0.108
-4.600E-07,0.092
-4.500E-07,0.080
-4.400E-07,0.024
-4.300E-07,-0.012
-4.200E-07,-0.036
-4.100E-07,-0.020
-4.000E-07,-0.004
-3.900E-07,0.016
-3.800E-07,0.000
-3.700E-07,-0.052
-3.600E-07,-0.084
-3.500E-07,-0.084
-3.400E-07,-0.032
-3.300E-07,0.008
-3.200E-07,0.052
-3.100E-07,0.056
-3.000E-07,0.068
-2.900E-07,0.056
-2.800E-07,0.052
-2.700E-07,0.056
-2.600E-07,0.100
-2.500E-07,0.144
-2.400E-07,0.164
-2.300E-07,0.168
-2.200E-07,0.144
-2.100E-07,0.128
-2.000E-07,0.116
-1.900E-07,0.128
-1.800E-07,0.156
-1.700E-07,0.176
-1.600E-07,0.188
-1.500E-07,0.176
-1.400E-07,0.160
-1.300E-07,0.140
-1.200E-07,0.168
-1.100E-07,0.156
-1.000E-07,0.164
-9.000E-08,0.108
-8.000E-08,0.064
-7.000E-08,-0.024
-6.000E-08,-0.372
-5.000E-08,-0.508
-4.000E-08,-0.508
-3.000E-08,-0.512
-2.000E-08,-0.512
-1.000E-08,0.028
0.000E+00,0.540
1.000E-08,0.540
2.000E-08,0.540
3.000E-08,-0.188
4.000E-08,-0.508
5.000E-08,-0.512
6.000E-08,-0.512
7.000E-08,0.540
8.000E-08,0.540
9.000E-08,0.544
1.000E-07,0.540
1.100E-07,-0.348
1.200E-07,-0.512
1.300E-07,-0.512
1.400E-07,-0.352
1.500E-07,0.348
1.600E-07,0.540
1.700E-07,0.540
1.800E-07,0.536
1.900E-07,-0.052
2.000E-07,-0.508
2.100E-07,-0.512
2.200E-07,-0.456
2.300E-07,0.272
2.400E-07,0.540
2.500E-07,0.540
2.600E-07,0.536
2.700E-07,0.096
2.800E-07,-0.360
2.900E-07,-0.508
3.000E-07,-0.320
3.100E-07,-0.024
3.200E-07,0.380
3.300E-07,0.496
3.400E-07,0.508
3.500E-07,0.232
3.600E-07,0.000
3.700E-07,-0.140
3.800E-07,-0.160
3.900E-07,-0.072
4.000E-07,0.004
4.100E-07,-0.052
4.200E-07,-0.268
4.300E-07,-0.468
4.400E-07,-0.512
4.500E-07,-0.512
4.600E-07,-0.324
4.700E-07,0.072
4.800E-07,0.328
4.900E-07,0.340
5.000E-07,0.216
5.100E-07,0.016
5.200E-07,-0.152
5.300E-07,-0.152
5.400E-07,0.056
5.500E-07,0.252
5.600E-07,0.436
5.700E-07,0.448
5.800E-07,0.356
5.900E-07,0.160
6.000E-07,0.016
6.100E-07,-0.044
6.200E-07,0.008
6.300E-07,0.108
6.400E-07,0.144
6.500E-07,0.152
6.600E-07,-0.028
6.700E-07,-0.240
6.800E-07,-0.488
6.900E-07,-0.512
7.000E-07,-0.512
7.100E-07,-0.416
7.200E-07,-0.208
7.300E-07,0.028
7.400E-07,0.140
7.500E-07,0.144
7.600E-07,0.048
7.700E-07,-0.112
7.800E-07,-0.200
7.900E-07,-0.160
8.000E-07,0.036
8.100E-07,0.212
8.200E-07,0.324
8.300E-07,0.288
8.400E-07,0.188
8.500E-07,0.072
8.600E-07,0.040
8.700E-07,0.100
8.800E-07,0.232
8.900E-07,0.364
9.000E-07,0.420
9.100E-07,0.372
9.200E-07,0.228
9.300E-07,0.076
9.400E-07,-0.032
9.500E-07,-0.012
9.600E-07,0.096
9.700E-07,0.228
9.800E-07,0.276
9.900E-07,0.244
1.000E-06,0.152
1.010E-06,0.044
1.020E-06,0.008
1.030E-06,0.040
1.040E-06,0.128
1.050E-06,0.208
1.060E-06,0.236
1.070E-06,0.172
1.080E-06,0.008
1.090E-06,-0.172
1.100E-06,-0.344
1.110E-06,-0.436
1.120E-06,-0.448
1.130E-06,-0.332
1.140E-06,-0.228
1.150E-06,-0.068
1.160E-06,0.024
1.170E-06,0.068
1.180E-06,0.024
1.190E-06,-0.088
1.200E-06,-0.088
1.210E-06,-0.036
1.220E-06,0.108
1.230E-06,0.192
1.240E-06,0.232
1.250E-06,0.208
1.260E-06,0.180
1.270E-06,0.172
1.280E-06,0.220
1.290E-06,0.276
1.300E-06,0.320
1.310E-06,0.312
1.320E-06,0.260
1.330E-06,0.212
1.340E-06,0.156
1.350E-06,0.168
1.360E-06,0.188
1.370E-06,0.244
1.380E-06,0.272
1.390E-06,0.272
1.400E-06,0.224
1.410E-06,0.180
1.420E-06,0.144
1.430E-06,0.140
1.440E-06,0.180
1.450E-06,0.224
1.460E-06,0.264
1.470E-06,0.272
1.480E-06,0.224
1.490E-06,0.132
1.500E-06,0.052
1.510E-06,0.072
1.520E-06,0.112
1.530E-06,0.196
1.540E-06,0.244
1.550E-06,0.196
1.560E-06,0.056
1.570E-06,-0.040
1.580E-06,-0.032
1.590E-06,0.108
1.600E-06,0.284
1.610E-06,0.380
1.620E-06,0.340
1.630E-06,0.152
1.640E-06,-0.072
1.650E-06,-0.224
1.660E-06,-0.220
1.670E-06,-0.064
1.680E-06,-0.016
1.690E-06,-0.160
1.700E-06,-0.332
1.710E-06,-0.500
1.720E-06,-0.472
1.730E-06,-0.136
1.740E-06,0.356
1.750E-06,0.540
1.760E-06,0.540
1.770E-06,0.316
1.780E-06,-0.184
1.790E-06,-0.456
1.800E-06,-0.468
1.810E-06,-0.216
1.820E-06,0.188
1.830E-06,0.540
1.840E-06,0.540
1.850E-06,0.344
1.860E-06,-0.092
1.870E-06,-0.468
1.880E-06,-0.512
1.890E-06,-0.388
1.900E-06,0.000
1.910E-06,0.324
1.920E-06,0.428
1.930E-06,0.240
1.940E-06,-0.132
1.950E-06,-0.512
1.960E-06,-0.512
1.970E-06,-0.408
1.980E-06,0.008
1.990E-06,0.416
2.000E-06,0.540
2.010E-06,0.496
2.020E-06,0.192
2.030E-06,-0.140
2.040E-06,-0.248
2.050E-06,-0.128
2.060E-06,0.136
2.070E-06,0.452
2.080E-06,0.540
2.090E-06,0.540
2.100E-06,0.348
2.110E-06,0.072
2.120E-06,-0.100
2.130E-06,-0.068
2.140E-06,0.124
2.150E-06,0.360
2.160E-06,0.524
2.170E-06,0.528
2.180E-06,0.388
2.190E-06,0.168
2.200E-06,0.008
2.210E-06,-0.044
2.220E-06,0.072
2.230E-06,0.256
2.240E-06,0.420
2.250E-06,0.460
2.260E-06,0.384
2.270E-06,0.228
2.280E-06,0.088
2.290E-06,0.036
2.300E-06,0.084
2.310E-06,0.208
2.320E-06,0.336
2.330E-06,0.408
2.340E-06,0.368
2.350E-06,0.276
2.360E-06,0.160
2.370E-06,0.092
2.380E-06,0.096
2.390E-06,0.180
2.400E-06,0.276
2.410E-06,0.340
2.420E-06,0.316
2.430E-06,0.252
2.440E-06,0.172
2.450E-06,0.120
2.460E-06,0.128
2.470E-06,0.180
2.480E-06,0.244
2.490E-06,0.284
2.500E-06,0.280
2.510E-06,0.244
2.520E-06,0.196
2.530E-06,0.156
2.540E-06,0.152
2.550E-06,0.192
2.560E-06,0.224
2.570E-06,0.264
2.580E-06,0.272
2.590E-06,0.248
2.600E-06,0.208
2.610E-06,0.176
2.620E-06,0.168
2.630E-06,0.188
2.640E-06,0.220
2.650E-06,0.252
2.660E-06,0.260
2.670E-06,0.248
2.680E-06,0.224
2.690E-06,0.192
2.700E-06,0.192
2.710E-06,0.196
2.720E-06,0.216
2.730E-06,0.224
2.740E-06,0.236
2.750E-06,0.228
2.760E-06,0.212
2.770E-06,0.204
2.780E-06,0.200
2.790E-06,0.196
2.800E-06,0.196
2.810E-06,0.208
2.820E-06,0.220
2.830E-06,0.228
2.840E-06,0.224
2.850E-06,0.216
2.860E-06,0.204
2.870E-06,0.200
2.880E-06,0.208
2.890E-06,0.216
2.900E-06,0.220
2.910E-06,0.224
2.920E-06,0.216
2.930E-06,0.208
2.940E-06,0.200
2.950E-06,0.196
2.960E-06,0.200
2.970E-06,0.204
2.980E-06,0.208
2.990E-06,0.204
3.000E-06,0.208
3.010E-06,0.204
3.020E-06,0.200
3.030E-06,0.204
3.040E-06,0.204
3.050E-06,0.204
3.060E-06,0.208
3.070E-06,0.212
3.080E-06,0.208
3.090E-06,0.200
3.100E-06,0.208
3.110E-06,0.208
3.120E-06,0.216
3.130E-06,0.224
3.140E-06,0.224
3.150E-06,0.220
3.160E-06,0.208
3.170E-06,0.196
3.180E-06,0.188
3.190E-06,0.184
3.200E-06,0.192
3.210E-06,0.200
3.220E-06,0.208
3.230E-06,0.208
3.240E-06,0.208
3.250E-06,0.208
3.260E-06,0.188
3.270E-06,0.188
3.280E-06,0.180
3.290E-06,0.192
3.300E-06,0.200
3.310E-06,0.212
3.320E-06,0.212
3.330E-06,0.200
3.340E-06,0.188
3.350E-06,0.180
3.360E-06,0.180
3.370E-06,0.180
