mediciones/Mediciones filtradas (saque las feas)/6-10/53.8/WaveData55244.csv

#timebase=2000000(ps)
,#voltbase=500000(mv/100)
#size=4000
-4.200E-06,0.100
-4.190E-06,0.000
-4.180E-06,-0.100
-4.170E-06,-0.120
-4.160E-06,-0.160
-4.150E-06,-0.160
-4.140E-06,-0.160
-4.130E-06,-0.160
-4.120E-06,-0.240
-4.110E-06,-0.220
-4.100E-06,-0.160
-4.090E-06,-0.160
-4.080E-06,-0.140
-4.070E-06,-0.140
-4.060E-06,-0.140
-4.050E-06,-0.120
-4.040E-06,-0.020
-4.030E-06,0.000
-4.020E-06,0.020
-4.010E-06,0.080
-4.000E-06,0.060
-3.990E-06,0.040
-3.980E-06,0.060
-3.970E-06,0.100
-3.960E-06,0.100
-3.950E-06,0.120
-3.940E-06,0.140
-3.930E-06,0.120
-3.920E-06,0.080
-3.910E-06,0.100
-3.900E-06,0.120
-3.890E-06,0.120
-3.880E-06,0.140
-3.870E-06,0.120
-3.860E-06,0.180
-3.850E-06,0.160
-3.840E-06,0.160
-3.830E-06,0.200
-3.820E-06,0.160
-3.810E-06,0.180
-3.800E-06,0.180
-3.790E-06,0.160
-3.780E-06,0.160
-3.770E-06,0.160
-3.760E-06,0.160
-3.750E-06,0.160
-3.740E-06,0.120
-3.730E-06,0.140
-3.720E-06,0.180
-3.710E-06,0.160
-3.700E-06,0.220
-3.690E-06,0.100
-3.680E-06,-0.020
-3.670E-06,-0.080
-3.660E-06,-0.320
-3.650E-06,-0.300
-3.640E-06,0.020
-3.630E-06,0.360
-3.620E-06,0.580
-3.610E-06,0.460
-3.600E-06,0.320
-3.590E-06,-0.100
-3.580E-06,-0.540
-3.570E-06,-0.300
-3.560E-06,-0.100
-3.550E-06,0.260
-3.540E-06,0.660
-3.530E-06,0.380
-3.520E-06,0.320
-3.510E-06,-0.040
-3.500E-06,-0.420
-3.490E-06,-0.500
-3.480E-06,-0.520
-3.470E-06,-0.100
-3.460E-06,0.160
-3.450E-06,0.340
-3.440E-06,0.400
-3.430E-06,0.140
-3.420E-06,-0.160
-3.410E-06,-0.400
-3.400E-06,-0.400
-3.390E-06,-0.160
-3.380E-06,0.080
-3.370E-06,0.280
-3.360E-06,0.220
-3.350E-06,0.100
-3.340E-06,0.000
-3.330E-06,-0.060
-3.320E-06,0.020
-3.310E-06,0.120
-3.300E-06,0.200
-3.290E-06,0.220
-3.280E-06,0.200
-3.270E-06,0.180
-3.260E-06,0.120
-3.250E-06,0.120
-3.240E-06,0.100
-3.230E-06,0.040
-3.220E-06,0.020
-3.210E-06,0.020
-3.200E-06,0.020
-3.190E-06,0.020
-3.180E-06,0.000
-3.170E-06,-0.020
-3.160E-06,0.000
-3.150E-06,-0.020
-3.140E-06,-0.060
-3.130E-06,-0.060
-3.120E-06,-0.040
-3.110E-06,0.000
-3.100E-06,0.060
-3.090E-06,0.060
-3.080E-06,0.020
-3.070E-06,0.040
-3.060E-06,0.040
-3.050E-06,0.020
-3.040E-06,0.040
-3.030E-06,0.080
-3.020E-06,0.100
-3.010E-06,0.120
-3.000E-06,0.120
-2.990E-06,0.120
-2.980E-06,0.180
-2.970E-06,0.220
-2.960E-06,0.220
-2.950E-06,0.220
-2.940E-06,0.360
-2.930E-06,0.220
-2.920E-06,0.160
-2.910E-06,0.140
-2.900E-06,-0.020
-2.890E-06,0.020
-2.880E-06,0.160
-2.870E-06,0.320
-2.860E-06,0.420
-2.850E-06,0.620
-2.840E-06,0.380
-2.830E-06,0.260
-2.820E-06,0.000
-2.810E-06,-0.220
-2.800E-06,-0.180
-2.790E-06,-0.120
-2.780E-06,0.000
-2.770E-06,0.160
-2.760E-06,0.200
-2.750E-06,0.140
-2.740E-06,0.140
-2.730E-06,-0.120
-2.720E-06,-0.200
-2.710E-06,-0.120
-2.700E-06,-0.040
-2.690E-06,0.120
-2.680E-06,0.220
-2.670E-06,0.120
-2.660E-06,-0.060
-2.650E-06,-0.100
-2.640E-06,-0.280
-2.630E-06,-0.160
-2.620E-06,0.000
-2.610E-06,-0.080
-2.600E-06,0.040
-2.590E-06,-0.100
-2.580E-06,0.020
-2.570E-06,-0.060
-2.560E-06,0.020
-2.550E-06,0.040
-2.540E-06,0.040
-2.530E-06,0.180
-2.520E-06,0.220
-2.510E-06,0.300
-2.500E-06,0.320
-2.490E-06,0.360
-2.480E-06,0.240
-2.470E-06,0.100
-2.460E-06,0.060
-2.450E-06,0.060
-2.440E-06,0.060
-2.430E-06,0.160
-2.420E-06,0.260
-2.410E-06,0.320
-2.400E-06,0.300
-2.390E-06,0.260
-2.380E-06,0.180
-2.370E-06,0.120
-2.360E-06,0.100
-2.350E-06,0.140
-2.340E-06,0.180
-2.330E-06,0.140
-2.320E-06,0.100
-2.310E-06,0.040
-2.300E-06,0.020
-2.290E-06,-0.060
-2.280E-06,-0.020
-2.270E-06,-0.160
-2.260E-06,-0.220
-2.250E-06,-0.160
-2.240E-06,-0.160
-2.230E-06,-0.020
-2.220E-06,0.080
-2.210E-06,0.160
-2.200E-06,0.040
-2.190E-06,-0.100
-2.180E-06,-0.180
-2.170E-06,-0.340
-2.160E-06,-0.280
-2.150E-06,-0.080
-2.140E-06,0.100
-2.130E-06,0.360
-2.120E-06,0.420
-2.110E-06,0.420
-2.100E-06,0.340
-2.090E-06,0.180
-2.080E-06,0.160
-2.070E-06,0.300
-2.060E-06,0.380
-2.050E-06,0.500
-2.040E-06,0.540
-2.030E-06,0.400
-2.020E-06,0.420
-2.010E-06,0.360
-2.000E-06,0.380
-1.990E-06,0.380
-1.980E-06,0.420
-1.970E-06,0.380
-1.960E-06,0.320
-1.950E-06,0.320
-1.940E-06,0.160
-1.930E-06,0.000
-1.920E-06,0.000
-1.910E-06,-0.060
-1.900E-06,-0.460
-1.890E-06,-0.080
-1.880E-06,-0.140
-1.870E-06,0.000
-1.860E-06,0.420
-1.850E-06,0.000
-1.840E-06,0.040
-1.830E-06,-0.080
-1.820E-06,-0.180
-1.810E-06,0.160
-1.800E-06,0.300
-1.790E-06,0.420
-1.780E-06,0.460
-1.770E-06,0.260
-1.760E-06,0.200
-1.750E-06,0.180
-1.740E-06,0.120
-1.730E-06,0.140
-1.720E-06,0.160
-1.710E-06,0.080
-1.700E-06,0.000
-1.690E-06,-0.040
-1.680E-06,-0.120
-1.670E-06,-0.200
-1.660E-06,-0.240
-1.650E-06,-0.320
-1.640E-06,-0.360
-1.630E-06,-0.320
-1.620E-06,-0.300
-1.610E-06,-0.260
-1.600E-06,-0.180
-1.590E-06,-0.120
-1.580E-06,-0.120
-1.570E-06,-0.040
-1.560E-06,0.000
-1.550E-06,0.040
-1.540E-06,0.120
-1.530E-06,0.180
-1.520E-06,0.260
-1.510E-06,0.320
-1.500E-06,0.260
-1.490E-06,0.260
-1.480E-06,0.220
-1.470E-06,0.160
-1.460E-06,0.160
-1.450E-06,0.160
-1.440E-06,0.140
-1.430E-06,0.060
-1.420E-06,0.040
-1.410E-06,0.020
-1.400E-06,0.060
-1.390E-06,0.060
-1.380E-06,0.100
-1.370E-06,0.100
-1.360E-06,0.080
-1.350E-06,0.060
-1.340E-06,0.020
-1.330E-06,0.100
-1.320E-06,0.180
-1.310E-06,0.220
-1.300E-06,0.260
-1.290E-06,0.240
-1.280E-06,0.220
-1.270E-06,0.180
-1.260E-06,0.160
-1.250E-06,0.320
-1.240E-06,0.200
-1.230E-06,0.500
-1.220E-06,0.580
-1.210E-06,0.120
-1.200E-06,0.260
-1.190E-06,-0.340
-1.180E-06,-0.680
-1.170E-06,-0.420
-1.160E-06,-0.340
-1.150E-06,0.120
-1.140E-06,0.580
-1.130E-06,0.280
-1.120E-06,0.120
-1.110E-06,-0.140
-1.100E-06,-0.500
-1.090E-06,0.000
-1.080E-06,0.500
-1.070E-06,0.440
-1.060E-06,0.560
-1.050E-06,0.320
-1.040E-06,0.000
-1.030E-06,0.120
-1.020E-06,0.100
-1.010E-06,0.340
-1.000E-06,0.180
-9.900E-07,0.340
-9.800E-07,0.000
-9.700E-07,0.100
-9.600E-07,0.040
-9.500E-07,-0.220
-9.400E-07,0.040
-9.300E-07,-0.080
-9.200E-07,-0.020
-9.100E-07,0.280
-9.000E-07,0.240
-8.900E-07,0.240
-8.800E-07,0.160
-8.700E-07,0.020
-8.600E-07,0.120
-8.500E-07,0.200
-8.400E-07,0.300
-8.300E-07,0.320
-8.200E-07,0.340
-8.100E-07,0.380
-8.000E-07,0.340
-7.900E-07,0.500
-7.800E-07,0.460
-7.700E-07,0.220
-7.600E-07,0.200
-7.500E-07,-0.040
-7.400E-07,0.080
-7.300E-07,0.200
-7.200E-07,0.300
-7.100E-07,0.500
-7.000E-07,0.360
-6.900E-07,0.240
-6.800E-07,0.260
-6.700E-07,0.240
-6.600E-07,0.340
-6.500E-07,0.340
-6.400E-07,0.380
-6.300E-07,0.420
-6.200E-07,0.520
-6.100E-07,0.520
-6.000E-07,0.360
-5.900E-07,0.400
-5.800E-07,0.120
-5.700E-07,0.380
-5.600E-07,0.600
-5.500E-07,0.380
-5.400E-07,0.600
-5.300E-07,0.600
-5.200E-07,0.360
-5.100E-07,0.400
-5.000E-07,0.060
-4.900E-07,-0.020
-4.800E-07,-0.180
-4.700E-07,-0.260
-4.600E-07,-0.080
-4.500E-07,-0.160
-4.400E-07,0.060
-4.300E-07,0.080
-4.200E-07,-0.200
-4.100E-07,-0.180
-4.000E-07,-0.400
-3.900E-07,-0.460
-3.800E-07,0.060
-3.700E-07,0.220
-3.600E-07,0.520
-3.500E-07,0.760
-3.400E-07,0.600
-3.300E-07,0.560
-3.200E-07,0.580
-3.100E-07,0.500
-3.000E-07,0.520
-2.900E-07,0.420
-2.800E-07,0.200
-2.700E-07,0.220
-2.600E-07,0.140
-2.500E-07,0.020
-2.400E-07,0.000
-2.300E-07,-0.020
-2.200E-07,-0.220
-2.100E-07,-0.220
-2.000E-07,-0.200
-1.900E-07,-0.240
-1.800E-07,-0.140
-1.700E-07,-0.260
-1.600E-07,-0.280
-1.500E-07,-0.280
-1.400E-07,-0.480
-1.300E-07,-0.360
-1.200E-07,-0.240
-1.100E-07,-0.200
-1.000E-07,-0.100
-9.000E-08,0.040
-8.000E-08,-0.420
-7.000E-08,0.060
-6.000E-08,0.300
-5.000E-08,-0.600
-4.000E-08,1.140
-3.000E-08,-2.080
-2.000E-08,-1.360
-1.000E-08,-2.120
0.000E+00,-0.940
1.000E-08,1.500
2.000E-08,1.380
3.000E-08,2.700
4.000E-08,0.820
5.000E-08,-0.200
6.000E-08,-0.580
7.000E-08,-0.280
8.000E-08,1.480
9.000E-08,2.740
1.000E-07,2.360
1.100E-07,2.040
1.200E-07,0.460
1.300E-07,-0.440
1.400E-07,0.340
1.500E-07,0.040
1.600E-07,1.040
1.700E-07,1.240
1.800E-07,0.220
1.900E-07,-0.200
2.000E-07,-0.720
2.100E-07,-1.680
2.200E-07,-1.220
2.300E-07,-1.560
2.400E-07,-1.160
2.500E-07,-0.760
2.600E-07,-0.740
2.700E-07,-0.320
2.800E-07,-0.520
2.900E-07,0.240
3.000E-07,-0.280
3.100E-07,0.140
3.200E-07,0.060
3.300E-07,0.080
3.400E-07,0.380
3.500E-07,0.700
3.600E-07,1.040
3.700E-07,1.240
3.800E-07,1.220
3.900E-07,1.120
4.000E-07,0.760
4.100E-07,0.640
4.200E-07,0.860
4.300E-07,0.680
4.400E-07,0.840
4.500E-07,0.520
4.600E-07,0.540
4.700E-07,0.340
4.800E-07,0.180
4.900E-07,0.260
5.000E-07,0.240
5.100E-07,0.260
5.200E-07,0.300
5.300E-07,0.320
5.400E-07,0.260
5.500E-07,0.320
5.600E-07,0.180
5.700E-07,0.220
5.800E-07,0.260
5.900E-07,0.300
6.000E-07,0.280
6.100E-07,0.240
6.200E-07,0.080
6.300E-07,-0.160
6.400E-07,-0.360
6.500E-07,-0.740
6.600E-07,-0.760
6.700E-07,-0.920
6.800E-07,-0.880
6.900E-07,-0.680
7.000E-07,-1.000
7.100E-07,-0.980
7.200E-07,-1.100
7.300E-07,-1.400
7.400E-07,-0.980
7.500E-07,-1.440
7.600E-07,-1.320
7.700E-07,-1.440
7.800E-07,-1.640
7.900E-07,-1.300
8.000E-07,-1.560
8.100E-07,-1.020
8.200E-07,-1.080
8.300E-07,-0.420
8.400E-07,-0.960
8.500E-07,-0.600
8.600E-07,0.120
8.700E-07,-0.060
8.800E-07,0.660
8.900E-07,-0.100
9.000E-07,-0.400
9.100E-07,-0.960
9.200E-07,-1.600
9.300E-07,-0.800
9.400E-07,-0.040
9.500E-07,0.880
9.600E-07,1.700
9.700E-07,1.180
9.800E-07,0.960
9.900E-07,0.160
1.000E-06,-0.800
1.010E-06,-0.680
1.020E-06,-0.900
1.030E-06,-1.180
1.040E-06,-1.300
1.050E-06,-1.820
1.060E-06,-2.460
1.070E-06,-2.640
1.080E-06,-2.660
1.090E-06,-2.660
1.100E-06,-2.660
1.110E-06,-2.660
1.120E-06,-2.660
1.130E-06,-2.660
1.140E-06,-2.660
1.150E-06,-2.640
1.160E-06,-2.640
1.170E-06,-2.660
1.180E-06,-2.660
1.190E-06,-2.680
1.200E-06,-2.680
1.210E-06,-2.680
1.220E-06,-2.500
1.230E-06,-2.220
1.240E-06,-2.060
1.250E-06,-1.920
1.260E-06,-1.740
1.270E-06,-1.560
1.280E-06,-1.420
1.290E-06,-1.340
1.300E-06,-1.340
1.310E-06,-1.340
1.320E-06,-1.360
1.330E-06,-1.420
1.340E-06,-1.360
1.350E-06,-1.360
1.360E-06,-1.300
1.370E-06,-1.200
1.380E-06,-1.080
1.390E-06,-0.980
1.400E-06,-0.820
1.410E-06,-0.720
1.420E-06,-0.540
1.430E-06,-0.420
1.440E-06,-0.380
1.450E-06,-0.260
1.460E-06,-0.260
1.470E-06,-0.120
1.480E-06,0.040
1.490E-06,-0.020
1.500E-06,0.060
1.510E-06,0.240
1.520E-06,0.240
1.530E-06,0.300
1.540E-06,0.260
1.550E-06,0.160
1.560E-06,0.060
1.570E-06,-0.060
1.580E-06,-0.040
1.590E-06,0.000
1.600E-06,0.040
1.610E-06,0.000
1.620E-06,-0.120
1.630E-06,0.040
1.640E-06,0.420
1.650E-06,0.540
1.660E-06,0.880
1.670E-06,1.240
1.680E-06,1.300
1.690E-06,1.480
1.700E-06,1.440
1.710E-06,1.400
1.720E-06,1.440
1.730E-06,1.320
1.740E-06,1.300
1.750E-06,1.100
1.760E-06,0.860
1.770E-06,0.720
1.780E-06,0.520
1.790E-06,0.340
1.800E-06,0.240
1.810E-06,0.080
1.820E-06,-0.080
1.830E-06,-0.200
1.840E-06,-0.360
1.850E-06,-0.500
1.860E-06,-0.640
1.870E-06,-0.720
1.880E-06,-0.780
1.890E-06,-0.780
1.900E-06,-0.760
1.910E-06,-0.820
1.920E-06,-0.840
1.930E-06,-0.840
1.940E-06,-0.880
1.950E-06,-0.860
1.960E-06,-0.840
1.970E-06,-0.800
1.980E-06,-0.780
1.990E-06,-0.680
2.000E-06,-0.600
2.010E-06,-0.560
2.020E-06,-0.500
2.030E-06,-0.460
2.040E-06,-0.380
2.050E-06,-0.320
2.060E-06,-0.260
2.070E-06,-0.180
2.080E-06,-0.080
2.090E-06,-0.040
2.100E-06,0.040
2.110E-06,0.120
2.120E-06,0.180
2.130E-06,0.260
2.140E-06,0.300
2.150E-06,0.360
2.160E-06,0.400
2.170E-06,0.380
2.180E-06,0.380
2.190E-06,0.360
2.200E-06,0.340
2.210E-06,0.340
2.220E-06,0.320
2.230E-06,0.280
2.240E-06,0.260
2.250E-06,0.240
2.260E-06,0.220
2.270E-06,0.160
2.280E-06,0.140
2.290E-06,0.120
2.300E-06,0.080
2.310E-06,0.080
2.320E-06,0.040
2.330E-06,0.040
2.340E-06,0.040
2.350E-06,0.020
2.360E-06,0.020
2.370E-06,0.020
2.380E-06,0.000
2.390E-06,0.020
2.400E-06,0.020
2.410E-06,0.020
2.420E-06,-0.060
2.430E-06,-0.080
2.440E-06,-0.060
2.450E-06,-0.040
2.460E-06,-0.060
2.470E-06,-0.060
2.480E-06,-0.080
2.490E-06,-0.080
2.500E-06,-0.080
2.510E-06,-0.140
2.520E-06,-0.120
2.530E-06,-0.140
2.540E-06,-0.160
2.550E-06,-0.180
2.560E-06,-0.160
2.570E-06,-0.120
2.580E-06,-0.160
2.590E-06,-0.200
2.600E-06,-0.200
2.610E-06,-0.180
2.620E-06,-0.180
2.630E-06,-0.180
2.640E-06,-0.160
2.650E-06,-0.120
2.660E-06,-0.100
2.670E-06,-0.060
2.680E-06,-0.060
2.690E-06,-0.040
2.700E-06,-0.040
2.710E-06,-0.040
2.720E-06,0.000
2.730E-06,0.040
2.740E-06,0.080
2.750E-06,0.080
2.760E-06,0.080
2.770E-06,0.060
2.780E-06,-0.020
2.790E-06,-0.100
2.800E-06,-0.140
2.810E-06,-0.180
2.820E-06,-0.200
2.830E-06,-0.220
2.840E-06,-0.240
2.850E-06,-0.280
2.860E-06,-0.300
2.870E-06,-0.320
2.880E-06,-0.320
2.890E-06,-0.260
2.900E-06,-0.200
2.910E-06,-0.180
2.920E-06,-0.080
2.930E-06,0.020
2.940E-06,0.020
2.950E-06,0.040
2.960E-06,0.080
2.970E-06,0.140
2.980E-06,0.220
2.990E-06,0.260
3.000E-06,0.300
3.010E-06,0.340
3.020E-06,0.300
3.030E-06,0.260
3.040E-06,0.180
3.050E-06,0.100
3.060E-06,0.040
3.070E-06,0.000
3.080E-06,-0.020
3.090E-06,-0.080
3.100E-06,-0.120
3.110E-06,-0.140
3.120E-06,-0.180
3.130E-06,-0.140
3.140E-06,-0.140
3.150E-06,-0.120
3.160E-06,-0.160
3.170E-06,-0.140
3.180E-06,-0.120
3.190E-06,-0.180
3.200E-06,-0.180
3.210E-06,-0.160
3.220E-06,-0.120
3.230E-06,-0.100
3.240E-06,-0.080
3.250E-06,-0.020
3.260E-06,0.000
3.270E-06,0.020
3.280E-06,0.060
3.290E-06,0.080
3.300E-06,0.120
3.310E-06,0.120
3.320E-06,0.200
3.330E-06,0.200
3.340E-06,0.220
3.350E-06,0.200
3.360E-06,0.160
3.370E-06,0.160
3.380E-06,0.160
3.390E-06,0.180
3.400E-06,0.120
3.410E-06,0.140
3.420E-06,0.140
3.430E-06,0.160
3.440E-06,0.180
3.450E-06,0.160
3.460E-06,0.240
3.470E-06,0.220
3.480E-06,0.260
3.490E-06,0.260
3.500E-06,0.300
3.510E-06,0.320
3.520E-06,0.300
3.530E-06,0.280
3.540E-06,0.240
3.550E-06,0.240
3.560E-06,0.180
3.570E-06,0.180
3.580E-06,0.120
3.590E-06,0.080
3.600E-06,0.040
3.610E-06,0.000
3.620E-06,-0.040
3.630E-06,-0.100
3.640E-06,-0.100
3.650E-06,-0.140
3.660E-06,-0.160
3.670E-06,-0.180
3.680E-06,-0.160
3.690E-06,-0.160
3.700E-06,-0.160
3.710E-06,-0.180
3.720E-06,-0.160
3.730E-06,-0.120
3.740E-06,-0.040
3.750E-06,-0.020
3.760E-06,0.020
3.770E-06,0.060
3.780E-06,0.080
3.790E-06,0.160
3.800E-06,0.240
3.810E-06,0.320
3.820E-06,0.360
3.830E-06,0.360
3.840E-06,0.400
3.850E-06,0.380
3.860E-06,0.420
3.870E-06,0.440
3.880E-06,0.500
3.890E-06,0.560
3.900E-06,0.600
3.910E-06,0.580
3.920E-06,0.500
3.930E-06,0.440
3.940E-06,0.400
3.950E-06,0.380
3.960E-06,0.380
3.970E-06,0.340
3.980E-06,0.300
3.990E-06,0.220
4.000E-06,0.240
4.010E-06,0.160
4.020E-06,0.160
4.030E-06,0.160
4.040E-06,0.120
4.050E-06,0.160
4.060E-06,0.120
4.070E-06,0.160
4.080E-06,0.200
4.090E-06,0.180
4.100E-06,0.260
4.110E-06,0.240
4.120E-06,0.160
4.130E-06,0.180
4.140E-06,0.140
4.150E-06,0.160
4.160E-06,0.160
4.170E-06,0.160
4.180E-06,0.120
4.190E-06,0.120
4.200E-06,0.100
4.210E-06,0.080
4.220E-06,0.080
4.230E-06,0.080
4.240E-06,0.040
4.250E-06,0.040
4.260E-06,0.100
4.270E-06,0.080
4.280E-06,0.100
4.290E-06,0.100
4.300E-06,0.160
4.310E-06,0.160
4.320E-06,0.180
4.330E-06,0.220
4.340E-06,0.280
4.350E-06,0.340
4.360E-06,0.380
4.370E-06,0.420
4.380E-06,0.440
4.390E-06,0.480
4.400E-06,0.500
4.410E-06,0.480
4.420E-06,0.460
4.430E-06,0.460
4.440E-06,0.420
4.450E-06,0.420
4.460E-06,0.360
4.470E-06,0.320
4.480E-06,0.300
4.490E-06,0.260
4.500E-06,0.220
4.510E-06,0.220
4.520E-06,0.200
4.530E-06,0.220
4.540E-06,0.260
4.550E-06,0.260
4.560E-06,0.300
4.570E-06,0.320
4.580E-06,0.320
4.590E-06,0.380
4.600E-06,0.400
4.610E-06,0.380
4.620E-06,0.420
4.630E-06,0.420
4.640E-06,0.340
4.650E-06,0.340
4.660E-06,0.340
4.670E-06,0.360
4.680E-06,0.360
4.690E-06,0.360
4.700E-06,0.400
4.710E-06,0.420
4.720E-06,0.420
4.730E-06,0.440
4.740E-06,0.440
4.750E-06,0.400
4.760E-06,0.420
4.770E-06,0.400
4.780E-06,0.400
4.790E-06,0.440
4.800E-06,0.440
4.810E-06,0.440
4.820E-06,0.500
4.830E-06,0.480
4.840E-06,0.480
4.850E-06,0.520
4.860E-06,0.500
4.870E-06,0.520
4.880E-06,0.500
4.890E-06,0.500
4.900E-06,0.500
4.910E-06,0.520
4.920E-06,0.460
4.930E-06,0.480
4.940E-06,0.440
4.950E-06,0.460
4.960E-06,0.440
4.970E-06,0.480
4.980E-06,0.480
4.990E-06,0.500
5.000E-06,0.560
5.010E-06,0.680
5.020E-06,0.800
5.030E-06,0.980
5.040E-06,1.260
5.050E-06,1.600
5.060E-06,1.980
5.070E-06,2.420
5.080E-06,2.780
5.090E-06,2.780
5.100E-06,2.760
5.110E-06,2.760
5.120E-06,2.760
5.130E-06,2.740
5.140E-06,2.760
5.150E-06,2.780
5.160E-06,2.780
5.170E-06,2.760
5.180E-06,2.760
5.190E-06,2.760
5.200E-06,2.520
5.210E-06,2.080
5.220E-06,1.640
5.230E-06,1.200
5.240E-06,0.920
5.250E-06,0.660
5.260E-06,0.480
5.270E-06,0.500
5.280E-06,0.540
5.290E-06,0.680
5.300E-06,0.860
5.310E-06,1.000
5.320E-06,1.160
5.330E-06,1.200
5.340E-06,1.280
5.350E-06,1.320
5.360E-06,1.320
5.370E-06,1.300
5.380E-06,1.220
5.390E-06,1.160
5.400E-06,1.060
5.410E-06,1.000
5.420E-06,0.940
5.430E-06,0.900
5.440E-06,0.820
5.450E-06,0.800
5.460E-06,0.700
5.470E-06,0.580
5.480E-06,0.480
5.490E-06,0.420
5.500E-06,0.400
5.510E-06,0.380
5.520E-06,0.320
5.530E-06,0.340
5.540E-06,0.320
5.550E-06,0.260
5.560E-06,0.160
5.570E-06,0.080
5.580E-06,0.040
5.590E-06,-0.020
5.600E-06,0.000
5.610E-06,0.000
5.620E-06,0.100
5.630E-06,0.140
5.640E-06,0.260
5.650E-06,0.340
5.660E-06,0.380
5.670E-06,0.420
5.680E-06,0.420
5.690E-06,0.440
5.700E-06,0.480
5.710E-06,0.440
5.720E-06,0.380
5.730E-06,0.360
5.740E-06,0.340
5.750E-06,0.260
5.760E-06,0.220
5.770E-06,0.160
5.780E-06,0.120
5.790E-06,0.080
5.800E-06,0.080
5.810E-06,0.100
5.820E-06,0.160
5.830E-06,0.220
5.840E-06,0.300
5.850E-06,0.360
5.860E-06,0.440
5.870E-06,0.440
5.880E-06,0.440
5.890E-06,0.420
5.900E-06,0.380
5.910E-06,0.300
5.920E-06,0.240
5.930E-06,0.180
5.940E-06,0.080
5.950E-06,0.080
5.960E-06,0.020
5.970E-06,0.020
5.980E-06,0.020
5.990E-06,-0.020
6.000E-06,0.020
6.010E-06,0.120
6.020E-06,0.200
6.030E-06,0.300
6.040E-06,0.420
6.050E-06,0.460
6.060E-06,0.500
6.070E-06,0.500
6.080E-06,0.520
6.090E-06,0.540
6.100E-06,0.500
6.110E-06,0.500
6.120E-06,0.520
6.130E-06,0.540
6.140E-06,0.560
6.150E-06,0.560
6.160E-06,0.560
6.170E-06,0.560
6.180E-06,0.520
6.190E-06,0.480
6.200E-06,0.440
6.210E-06,0.360
6.220E-06,0.260
6.230E-06,0.180
6.240E-06,0.080
6.250E-06,0.020
6.260E-06,-0.040
6.270E-06,-0.080
6.280E-06,-0.140
6.290E-06,-0.160
6.300E-06,-0.160
6.310E-06,-0.140
6.320E-06,-0.100
6.330E-06,0.000
6.340E-06,0.100
6.350E-06,0.220
6.360E-06,0.320
6.370E-06,0.340
6.380E-06,0.420
6.390E-06,0.420
6.400E-06,0.480
6.410E-06,0.500
6.420E-06,0.500
6.430E-06,0.500
6.440E-06,0.480
6.450E-06,0.500
6.460E-06,0.460
6.470E-06,0.460
6.480E-06,0.440
6.490E-06,0.460
6.500E-06,0.440
6.510E-06,0.440
6.520E-06,0.440
6.530E-06,0.420
6.540E-06,0.340
6.550E-06,0.320
6.560E-06,0.300
6.570E-06,0.240
6.580E-06,0.220
6.590E-06,0.220
6.600E-06,0.260
6.610E-06,0.320
6.620E-06,0.360
6.630E-06,0.320
6.640E-06,0.380
6.650E-06,0.420
6.660E-06,0.440
6.670E-06,0.460
6.680E-06,0.520
6.690E-06,0.500
6.700E-06,0.520
6.710E-06,0.500
6.720E-06,0.520
6.730E-06,0.520
6.740E-06,0.500
6.750E-06,0.500
6.760E-06,0.520
6.770E-06,0.560
6.780E-06,0.540
6.790E-06,0.560
6.800E-06,0.620
6.810E-06,0.640
6.820E-06,0.700
6.830E-06,0.660
6.840E-06,0.700
6.850E-06,0.720
6.860E-06,0.740
6.870E-06,0.760
6.880E-06,0.740
6.890E-06,0.720
6.900E-06,0.700
6.910E-06,0.600
6.920E-06,0.540
6.930E-06,0.500
6.940E-06,0.460
6.950E-06,0.420
6.960E-06,0.440
6.970E-06,0.460
6.980E-06,0.460
6.990E-06,0.480
7.000E-06,0.520
7.010E-06,0.560
7.020E-06,0.600
7.030E-06,0.660
7.040E-06,0.740
7.050E-06,0.780
7.060E-06,0.820
7.070E-06,0.860
7.080E-06,0.840
7.090E-06,0.840
7.100E-06,0.880
7.110E-06,0.860
7.120E-06,0.920
7.130E-06,0.940
7.140E-06,0.940
7.150E-06,0.920
7.160E-06,0.920
7.170E-06,0.920
7.180E-06,0.960
7.190E-06,0.960
7.200E-06,0.980
7.210E-06,1.000
7.220E-06,1.000
7.230E-06,1.020
7.240E-06,1.020
7.250E-06,1.000
7.260E-06,1.020
7.270E-06,1.000
7.280E-06,1.000
7.290E-06,1.020
7.300E-06,1.040
7.310E-06,1.060
7.320E-06,1.100
7.330E-06,1.140
7.340E-06,1.160
7.350E-06,1.160
7.360E-06,1.160
7.370E-06,1.160
7.380E-06,1.120
7.390E-06,1.120
7.400E-06,1.060
7.410E-06,1.040
7.420E-06,1.040
7.430E-06,1.000
7.440E-06,1.040
7.450E-06,1.040
7.460E-06,1.080
7.470E-06,1.120
7.480E-06,1.100
7.490E-06,1.080
7.500E-06,1.060
7.510E-06,1.040
7.520E-06,1.020
7.530E-06,0.960
7.540E-06,0.960
7.550E-06,0.940
7.560E-06,0.920
7.570E-06,0.940
7.580E-06,1.000
7.590E-06,1.020
7.600E-06,1.020
7.610E-06,1.040
7.620E-06,1.060
7.630E-06,1.080
7.640E-06,1.080
7.650E-06,1.100
7.660E-06,1.180
7.670E-06,1.200
7.680E-06,1.180
7.690E-06,1.240
7.700E-06,1.280
7.710E-06,1.300
7.720E-06,1.320
7.730E-06,1.320
7.740E-06,1.380
7.750E-06,1.340
7.760E-06,1.340
7.770E-06,1.340
7.780E-06,1.340
