mediciones/Mediciones filtradas (saque las feas)/6-10/43.2/WaveData55215.csv

#timebase=2000000(ps)
,#voltbase=100000(mv/100)
#size=4000
-4.250E-06,0.000
-4.240E-06,0.000
-4.230E-06,0.004
-4.220E-06,0.008
-4.210E-06,0.004
-4.200E-06,0.004
-4.190E-06,0.008
-4.180E-06,0.012
-4.170E-06,-0.004
-4.160E-06,0.000
-4.150E-06,-0.004
-4.140E-06,0.012
-4.130E-06,0.008
-4.120E-06,0.008
-4.110E-06,0.000
-4.100E-06,0.000
-4.090E-06,-0.004
-4.080E-06,-0.004
-4.070E-06,0.012
-4.060E-06,0.016
-4.050E-06,0.020
-4.040E-06,0.000
-4.030E-06,0.000
-4.020E-06,0.004
-4.010E-06,-0.028
-4.000E-06,-0.004
-3.990E-06,0.004
-3.980E-06,0.000
-3.970E-06,0.004
-3.960E-06,0.016
-3.950E-06,-0.004
-3.940E-06,-0.008
-3.930E-06,-0.008
-3.920E-06,-0.012
-3.910E-06,-0.004
-3.900E-06,0.020
-3.890E-06,0.020
-3.880E-06,0.012
-3.870E-06,-0.004
-3.860E-06,-0.008
-3.850E-06,-0.020
-3.840E-06,0.000
-3.830E-06,0.012
-3.820E-06,0.008
-3.810E-06,0.016
-3.800E-06,0.012
-3.790E-06,0.000
-3.780E-06,0.000
-3.770E-06,-0.004
-3.760E-06,-0.004
-3.750E-06,0.012
-3.740E-06,0.024
-3.730E-06,0.008
-3.720E-06,0.000
-3.710E-06,0.004
-3.700E-06,0.000
-3.690E-06,-0.004
-3.680E-06,0.008
-3.670E-06,0.008
-3.660E-06,0.008
-3.650E-06,0.008
-3.640E-06,0.000
-3.630E-06,0.008
-3.620E-06,0.012
-3.610E-06,0.008
-3.600E-06,0.012
-3.590E-06,0.000
-3.580E-06,0.004
-3.570E-06,0.008
-3.560E-06,0.004
-3.550E-06,0.004
-3.540E-06,-0.012
-3.530E-06,-0.008
-3.520E-06,0.008
-3.510E-06,0.012
-3.500E-06,0.008
-3.490E-06,0.012
-3.480E-06,-0.008
-3.470E-06,-0.008
-3.460E-06,-0.008
-3.450E-06,-0.012
-3.440E-06,-0.004
-3.430E-06,-0.004
-3.420E-06,0.016
-3.410E-06,0.024
-3.400E-06,0.004
-3.390E-06,-0.008
-3.380E-06,-0.020
-3.370E-06,-0.008
-3.360E-06,-0.004
-3.350E-06,0.016
-3.340E-06,0.028
-3.330E-06,0.016
-3.320E-06,-0.004
-3.310E-06,-0.024
-3.300E-06,-0.020
-3.290E-06,-0.004
-3.280E-06,0.016
-3.270E-06,0.032
-3.260E-06,0.020
-3.250E-06,0.000
-3.240E-06,0.004
-3.230E-06,-0.004
-3.220E-06,-0.004
-3.210E-06,-0.004
-3.200E-06,0.004
-3.190E-06,0.012
-3.180E-06,0.008
-3.170E-06,0.004
-3.160E-06,-0.004
-3.150E-06,0.000
-3.140E-06,0.000
-3.130E-06,0.008
-3.120E-06,0.008
-3.110E-06,0.008
-3.100E-06,0.008
-3.090E-06,-0.004
-3.080E-06,0.008
-3.070E-06,0.024
-3.060E-06,0.016
-3.050E-06,0.008
-3.040E-06,-0.008
-3.030E-06,0.012
-3.020E-06,-0.004
-3.010E-06,0.012
-3.000E-06,0.000
-2.990E-06,0.024
-2.980E-06,0.000
-2.970E-06,0.020
-2.960E-06,0.024
-2.950E-06,0.008
-2.940E-06,0.000
-2.930E-06,0.000
-2.920E-06,-0.004
-2.910E-06,-0.004
-2.900E-06,0.024
-2.890E-06,0.008
-2.880E-06,-0.012
-2.870E-06,-0.040
-2.860E-06,-0.016
-2.850E-06,0.000
-2.840E-06,0.028
-2.830E-06,0.024
-2.820E-06,0.016
-2.810E-06,0.012
-2.800E-06,-0.008
-2.790E-06,-0.012
-2.780E-06,-0.008
-2.770E-06,-0.036
-2.760E-06,-0.004
-2.750E-06,0.000
-2.740E-06,0.004
-2.730E-06,0.036
-2.720E-06,0.000
-2.710E-06,-0.004
-2.700E-06,-0.020
-2.690E-06,-0.012
-2.680E-06,0.008
-2.670E-06,0.020
-2.660E-06,0.008
-2.650E-06,-0.004
-2.640E-06,0.008
-2.630E-06,0.008
-2.620E-06,-0.004
-2.610E-06,-0.004
-2.600E-06,-0.004
-2.590E-06,0.004
-2.580E-06,0.012
-2.570E-06,0.016
-2.560E-06,0.016
-2.550E-06,0.012
-2.540E-06,0.008
-2.530E-06,0.000
-2.520E-06,0.000
-2.510E-06,-0.012
-2.500E-06,-0.004
-2.490E-06,0.008
-2.480E-06,0.024
-2.470E-06,0.012
-2.460E-06,0.004
-2.450E-06,-0.004
-2.440E-06,-0.008
-2.430E-06,-0.004
-2.420E-06,0.016
-2.410E-06,0.020
-2.400E-06,0.028
-2.390E-06,0.012
-2.380E-06,-0.004
-2.370E-06,0.000
-2.360E-06,0.008
-2.350E-06,0.024
-2.340E-06,0.028
-2.330E-06,-0.008
-2.320E-06,-0.016
-2.310E-06,-0.040
-2.300E-06,-0.016
-2.290E-06,0.004
-2.280E-06,0.020
-2.270E-06,0.024
-2.260E-06,0.040
-2.250E-06,0.016
-2.240E-06,0.008
-2.230E-06,-0.016
-2.220E-06,-0.024
-2.210E-06,-0.020
-2.200E-06,-0.004
-2.190E-06,0.012
-2.180E-06,0.008
-2.170E-06,0.020
-2.160E-06,0.032
-2.150E-06,0.008
-2.140E-06,-0.024
-2.130E-06,-0.040
-2.120E-06,-0.044
-2.110E-06,-0.004
-2.100E-06,0.036
-2.090E-06,0.044
-2.080E-06,0.020
-2.070E-06,0.000
-2.060E-06,-0.028
-2.050E-06,-0.040
-2.040E-06,-0.016
-2.030E-06,0.008
-2.020E-06,0.040
-2.010E-06,0.024
-2.000E-06,0.024
-1.990E-06,-0.024
-1.980E-06,-0.028
-1.970E-06,0.000
-1.960E-06,0.012
-1.950E-06,0.024
-1.940E-06,0.016
-1.930E-06,0.008
-1.920E-06,-0.004
-1.910E-06,-0.008
-1.900E-06,-0.004
-1.890E-06,0.016
-1.880E-06,0.008
-1.870E-06,0.004
-1.860E-06,0.000
-1.850E-06,-0.004
-1.840E-06,0.000
-1.830E-06,0.000
-1.820E-06,0.008
-1.810E-06,0.008
-1.800E-06,-0.004
-1.790E-06,0.000
-1.780E-06,0.008
-1.770E-06,0.004
-1.760E-06,0.012
-1.750E-06,0.012
-1.740E-06,-0.004
-1.730E-06,0.000
-1.720E-06,-0.012
-1.710E-06,0.000
-1.700E-06,0.008
-1.690E-06,0.016
-1.680E-06,0.012
-1.670E-06,0.016
-1.660E-06,0.000
-1.650E-06,0.004
-1.640E-06,0.000
-1.630E-06,0.012
-1.620E-06,0.012
-1.610E-06,0.020
-1.600E-06,0.028
-1.590E-06,0.012
-1.580E-06,0.016
-1.570E-06,0.020
-1.560E-06,0.028
-1.550E-06,0.008
-1.540E-06,-0.012
-1.530E-06,-0.044
-1.520E-06,-0.052
-1.510E-06,-0.036
-1.500E-06,0.008
-1.490E-06,0.028
-1.480E-06,0.044
-1.470E-06,0.000
-1.460E-06,-0.016
-1.450E-06,-0.036
-1.440E-06,-0.016
-1.430E-06,0.012
-1.420E-06,0.028
-1.410E-06,0.020
-1.400E-06,0.004
-1.390E-06,-0.004
-1.380E-06,-0.016
-1.370E-06,-0.008
-1.360E-06,-0.004
-1.350E-06,0.028
-1.340E-06,0.020
-1.330E-06,0.016
-1.320E-06,0.004
-1.310E-06,-0.024
-1.300E-06,-0.004
-1.290E-06,0.004
-1.280E-06,0.016
-1.270E-06,-0.004
-1.260E-06,-0.008
-1.250E-06,-0.008
-1.240E-06,0.004
-1.230E-06,0.020
-1.220E-06,0.024
-1.210E-06,0.024
-1.200E-06,0.016
-1.190E-06,0.008
-1.180E-06,0.000
-1.170E-06,0.000
-1.160E-06,0.008
-1.150E-06,0.012
-1.140E-06,0.008
-1.130E-06,-0.004
-1.120E-06,-0.012
-1.110E-06,-0.008
-1.100E-06,0.004
-1.090E-06,0.004
-1.080E-06,0.008
-1.070E-06,0.016
-1.060E-06,0.008
-1.050E-06,-0.008
-1.040E-06,-0.008
-1.030E-06,0.000
-1.020E-06,0.000
-1.010E-06,0.008
-1.000E-06,0.008
-9.900E-07,0.004
-9.800E-07,0.004
-9.700E-07,-0.004
-9.600E-07,0.000
-9.500E-07,0.004
-9.400E-07,0.008
-9.300E-07,0.004
-9.200E-07,0.004
-9.100E-07,-0.004
-9.000E-07,0.008
-8.900E-07,-0.004
-8.800E-07,0.000
-8.700E-07,0.004
-8.600E-07,0.000
-8.500E-07,0.004
-8.400E-07,0.004
-8.300E-07,0.000
-8.200E-07,0.000
-8.100E-07,0.008
-8.000E-07,0.000
-7.900E-07,-0.004
-7.800E-07,-0.004
-7.700E-07,0.004
-7.600E-07,0.012
-7.500E-07,0.016
-7.400E-07,0.016
-7.300E-07,0.004
-7.200E-07,0.004
-7.100E-07,0.004
-7.000E-07,0.004
-6.900E-07,0.016
-6.800E-07,0.024
-6.700E-07,0.032
-6.600E-07,0.028
-6.500E-07,0.032
-6.400E-07,0.032
-6.300E-07,0.048
-6.200E-07,0.060
-6.100E-07,0.064
-6.000E-07,0.056
-5.900E-07,0.008
-5.800E-07,-0.032
-5.700E-07,-0.076
-5.600E-07,-0.068
-5.500E-07,-0.008
-5.400E-07,0.116
-5.300E-07,0.172
-5.200E-07,0.104
-5.100E-07,0.012
-5.000E-07,-0.092
-4.900E-07,-0.120
-4.800E-07,-0.100
-4.700E-07,-0.016
-4.600E-07,0.056
-4.500E-07,0.108
-4.400E-07,0.104
-4.300E-07,0.036
-4.200E-07,-0.052
-4.100E-07,-0.076
-4.000E-07,-0.060
-3.900E-07,0.004
-3.800E-07,0.056
-3.700E-07,0.068
-3.600E-07,0.044
-3.500E-07,0.012
-3.400E-07,-0.020
-3.300E-07,-0.052
-3.200E-07,-0.028
-3.100E-07,-0.008
-3.000E-07,0.020
-2.900E-07,0.044
-2.800E-07,0.044
-2.700E-07,0.020
-2.600E-07,0.004
-2.500E-07,-0.004
-2.400E-07,-0.008
-2.300E-07,0.008
-2.200E-07,0.028
-2.100E-07,0.064
-2.000E-07,0.068
-1.900E-07,0.064
-1.800E-07,0.044
-1.700E-07,0.032
-1.600E-07,0.032
-1.500E-07,0.044
-1.400E-07,0.056
-1.300E-07,0.076
-1.200E-07,0.108
-1.100E-07,0.084
-1.000E-07,0.052
-9.000E-08,0.032
-8.000E-08,-0.056
-7.000E-08,-0.116
-6.000E-08,-0.308
-5.000E-08,-0.424
-4.000E-08,-0.256
-3.000E-08,0.032
-2.000E-08,0.244
-1.000E-08,0.360
0.000E+00,0.244
1.000E-08,-0.044
2.000E-08,-0.220
3.000E-08,-0.192
4.000E-08,-0.120
5.000E-08,-0.084
6.000E-08,0.052
7.000E-08,0.004
8.000E-08,0.012
9.000E-08,-0.044
1.000E-07,-0.020
1.100E-07,-0.004
1.200E-07,0.004
1.300E-07,0.048
1.400E-07,0.008
1.500E-07,-0.008
1.600E-07,-0.020
1.700E-07,-0.004
1.800E-07,0.000
1.900E-07,0.012
2.000E-07,0.008
2.100E-07,-0.008
2.200E-07,-0.004
2.300E-07,0.020
2.400E-07,0.024
2.500E-07,0.040
2.600E-07,0.036
2.700E-07,0.016
2.800E-07,0.004
2.900E-07,0.008
3.000E-07,0.028
3.100E-07,0.036
3.200E-07,0.068
3.300E-07,0.092
3.400E-07,0.072
3.500E-07,0.068
3.600E-07,0.028
3.700E-07,-0.040
3.800E-07,-0.104
3.900E-07,-0.096
4.000E-07,-0.280
4.100E-07,-0.056
4.200E-07,0.076
4.300E-07,0.096
4.400E-07,0.092
4.500E-07,0.044
4.600E-07,-0.044
4.700E-07,-0.132
4.800E-07,-0.056
4.900E-07,-0.012
5.000E-07,0.036
5.100E-07,0.072
5.200E-07,0.052
5.300E-07,0.008
5.400E-07,-0.028
5.500E-07,-0.036
5.600E-07,-0.024
5.700E-07,0.004
5.800E-07,0.028
5.900E-07,0.056
6.000E-07,0.024
6.100E-07,0.024
6.200E-07,0.028
6.300E-07,-0.012
6.400E-07,-0.032
6.500E-07,-0.084
6.600E-07,-0.028
6.700E-07,0.012
6.800E-07,0.040
6.900E-07,0.048
7.000E-07,-0.004
7.100E-07,-0.020
7.200E-07,-0.016
7.300E-07,-0.008
7.400E-07,0.004
7.500E-07,0.020
7.600E-07,0.008
7.700E-07,0.016
7.800E-07,0.016
7.900E-07,0.020
8.000E-07,0.024
8.100E-07,0.008
8.200E-07,0.008
8.300E-07,-0.004
8.400E-07,-0.008
8.500E-07,-0.012
8.600E-07,-0.004
8.700E-07,0.028
8.800E-07,0.036
8.900E-07,0.036
9.000E-07,0.008
9.100E-07,-0.020
9.200E-07,-0.024
9.300E-07,0.008
9.400E-07,0.016
9.500E-07,0.028
9.600E-07,0.008
9.700E-07,-0.008
9.800E-07,-0.024
9.900E-07,-0.032
1.000E-06,-0.012
1.010E-06,0.012
1.020E-06,0.032
1.030E-06,0.024
1.040E-06,0.020
1.050E-06,0.004
1.060E-06,-0.012
1.070E-06,-0.032
1.080E-06,-0.008
1.090E-06,0.012
1.100E-06,0.024
1.110E-06,0.032
1.120E-06,0.016
1.130E-06,0.004
1.140E-06,-0.008
1.150E-06,-0.008
1.160E-06,0.004
1.170E-06,0.012
1.180E-06,0.024
1.190E-06,0.036
1.200E-06,0.032
1.210E-06,0.016
1.220E-06,0.004
1.230E-06,-0.004
1.240E-06,0.004
1.250E-06,0.020
1.260E-06,0.036
1.270E-06,0.028
1.280E-06,0.028
1.290E-06,0.016
1.300E-06,0.024
1.310E-06,0.016
1.320E-06,0.036
1.330E-06,0.048
1.340E-06,0.072
1.350E-06,0.060
1.360E-06,-0.004
1.370E-06,-0.076
1.380E-06,-0.192
1.390E-06,-0.200
1.400E-06,-0.064
1.410E-06,-0.004
1.420E-06,0.128
1.430E-06,0.156
1.440E-06,0.076
1.450E-06,-0.064
1.460E-06,-0.124
1.470E-06,-0.144
1.480E-06,-0.072
1.490E-06,0.040
1.500E-06,0.112
1.510E-06,0.120
1.520E-06,0.056
1.530E-06,-0.016
1.540E-06,-0.076
1.550E-06,-0.068
1.560E-06,-0.008
1.570E-06,0.032
1.580E-06,0.056
1.590E-06,0.024
1.600E-06,0.012
1.610E-06,0.000
1.620E-06,0.032
1.630E-06,0.028
1.640E-06,0.040
1.650E-06,0.024
1.660E-06,-0.004
1.670E-06,-0.012
1.680E-06,-0.024
1.690E-06,-0.032
1.700E-06,-0.040
1.710E-06,-0.040
1.720E-06,-0.020
1.730E-06,0.024
1.740E-06,0.028
1.750E-06,0.020
1.760E-06,0.012
1.770E-06,-0.020
1.780E-06,-0.036
1.790E-06,-0.032
1.800E-06,-0.016
1.810E-06,0.008
1.820E-06,0.028
1.830E-06,0.032
1.840E-06,0.028
1.850E-06,0.000
1.860E-06,-0.004
1.870E-06,-0.012
1.880E-06,-0.008
1.890E-06,0.008
1.900E-06,0.024
1.910E-06,0.028
1.920E-06,0.012
1.930E-06,0.004
1.940E-06,-0.004
1.950E-06,0.000
1.960E-06,0.012
1.970E-06,0.024
1.980E-06,0.028
1.990E-06,0.020
2.000E-06,0.016
2.010E-06,0.008
2.020E-06,0.012
2.030E-06,0.024
2.040E-06,0.020
2.050E-06,0.028
2.060E-06,0.020
2.070E-06,0.012
2.080E-06,0.008
2.090E-06,0.000
2.100E-06,0.004
2.110E-06,0.008
2.120E-06,0.024
2.130E-06,0.016
2.140E-06,0.008
2.150E-06,-0.004
2.160E-06,-0.008
2.170E-06,-0.004
2.180E-06,0.012
2.190E-06,0.032
2.200E-06,0.044
2.210E-06,0.040
2.220E-06,0.024
2.230E-06,0.008
2.240E-06,0.020
2.250E-06,0.024
2.260E-06,0.060
2.270E-06,0.072
2.280E-06,0.044
2.290E-06,0.008
2.300E-06,-0.056
2.310E-06,-0.104
2.320E-06,-0.104
2.330E-06,-0.072
2.340E-06,0.008
2.350E-06,0.100
2.360E-06,0.120
2.370E-06,0.108
2.380E-06,0.044
2.390E-06,0.028
2.400E-06,0.028
2.410E-06,0.008
2.420E-06,-0.008
2.430E-06,-0.116
2.440E-06,-0.100
2.450E-06,-0.100
2.460E-06,0.056
2.470E-06,0.088
2.480E-06,0.184
2.490E-06,0.176
2.500E-06,-0.248
2.510E-06,-0.480
2.520E-06,-0.508
2.530E-06,-0.336
2.540E-06,0.284
2.550E-06,0.504
2.560E-06,0.540
2.570E-06,0.084
2.580E-06,-0.332
2.590E-06,-0.508
2.600E-06,-0.376
2.610E-06,-0.080
2.620E-06,0.340
2.630E-06,0.468
2.640E-06,0.260
2.650E-06,0.024
2.660E-06,-0.172
2.670E-06,-0.296
2.680E-06,-0.296
2.690E-06,-0.108
2.700E-06,0.084
2.710E-06,0.272
2.720E-06,0.284
2.730E-06,0.148
2.740E-06,-0.044
2.750E-06,-0.204
2.760E-06,-0.220
2.770E-06,-0.124
2.780E-06,0.052
2.790E-06,0.176
2.800E-06,0.224
2.810E-06,0.160
2.820E-06,0.028
2.830E-06,-0.108
2.840E-06,-0.148
2.850E-06,-0.072
2.860E-06,0.036
2.870E-06,0.168
2.880E-06,0.196
2.890E-06,0.140
2.900E-06,-0.024
2.910E-06,-0.176
2.920E-06,-0.184
2.930E-06,-0.168
2.940E-06,0.008
2.950E-06,0.176
2.960E-06,0.200
2.970E-06,0.124
2.980E-06,-0.008
2.990E-06,-0.084
3.000E-06,-0.124
3.010E-06,-0.100
3.020E-06,-0.020
3.030E-06,0.068
3.040E-06,0.128
3.050E-06,0.144
3.060E-06,0.056
3.070E-06,0.004
3.080E-06,-0.048
3.090E-06,-0.056
3.100E-06,-0.012
3.110E-06,-0.040
3.120E-06,-0.128
3.130E-06,-0.124
3.140E-06,-0.036
3.150E-06,0.064
3.160E-06,0.056
3.170E-06,0.048
3.180E-06,0.040
3.190E-06,0.012
3.200E-06,-0.044
3.210E-06,-0.068
3.220E-06,-0.044
3.230E-06,0.048
3.240E-06,0.080
3.250E-06,0.012
3.260E-06,-0.028
3.270E-06,-0.052
3.280E-06,-0.008
3.290E-06,0.060
3.300E-06,0.104
3.310E-06,0.080
3.320E-06,0.064
3.330E-06,0.036
3.340E-06,-0.048
3.350E-06,-0.116
3.360E-06,-0.144
3.370E-06,-0.056
3.380E-06,0.092
3.390E-06,0.168
3.400E-06,0.100
3.410E-06,0.056
3.420E-06,-0.120
3.430E-06,-0.128
3.440E-06,-0.128
3.450E-06,-0.020
3.460E-06,0.104
3.470E-06,0.136
3.480E-06,0.096
3.490E-06,-0.012
3.500E-06,-0.072
3.510E-06,-0.108
3.520E-06,-0.044
3.530E-06,0.028
3.540E-06,0.060
3.550E-06,0.072
3.560E-06,0.020
3.570E-06,-0.016
3.580E-06,-0.040
3.590E-06,-0.004
3.600E-06,-0.004
3.610E-06,0.012
3.620E-06,0.000
3.630E-06,-0.020
3.640E-06,-0.024
3.650E-06,-0.004
3.660E-06,0.016
3.670E-06,0.016
3.680E-06,0.024
3.690E-06,0.028
3.700E-06,0.028
3.710E-06,0.020
3.720E-06,0.016
3.730E-06,0.024
3.740E-06,0.032
3.750E-06,0.052
3.760E-06,0.044
3.770E-06,0.032
3.780E-06,0.012
3.790E-06,-0.004
3.800E-06,-0.008
3.810E-06,-0.008
3.820E-06,-0.008
3.830E-06,0.000
3.840E-06,0.024
3.850E-06,0.044
3.860E-06,0.048
3.870E-06,0.036
3.880E-06,0.008
3.890E-06,0.000
3.900E-06,0.004
3.910E-06,0.024
3.920E-06,0.036
3.930E-06,0.028
3.940E-06,0.012
3.950E-06,-0.004
3.960E-06,-0.004
3.970E-06,-0.004
3.980E-06,0.008
3.990E-06,0.020
4.000E-06,0.052
4.010E-06,0.052
4.020E-06,0.048
4.030E-06,0.040
4.040E-06,0.024
4.050E-06,0.036
4.060E-06,0.056
4.070E-06,0.004
4.080E-06,0.000
4.090E-06,-0.040
4.100E-06,-0.012
4.110E-06,0.064
4.120E-06,0.092
4.130E-06,0.128
4.140E-06,0.128
4.150E-06,0.124
4.160E-06,0.088
4.170E-06,0.024
4.180E-06,0.028
4.190E-06,-0.204
4.200E-06,-0.248
4.210E-06,-0.208
4.220E-06,-0.020
4.230E-06,-0.468
4.240E-06,-0.116
4.250E-06,0.080
4.260E-06,0.028
4.270E-06,0.112
4.280E-06,-0.232
4.290E-06,0.044
4.300E-06,-0.204
4.310E-06,-0.072
4.320E-06,-0.124
4.330E-06,-0.072
4.340E-06,0.000
4.350E-06,0.144
4.360E-06,0.184
4.370E-06,0.088
4.380E-06,-0.024
4.390E-06,-0.196
4.400E-06,-0.100
4.410E-06,0.000
4.420E-06,0.008
4.430E-06,0.072
4.440E-06,0.124
4.450E-06,0.040
4.460E-06,0.004
4.470E-06,-0.020
4.480E-06,-0.060
4.490E-06,-0.060
4.500E-06,0.020
4.510E-06,0.044
4.520E-06,0.072
4.530E-06,0.068
4.540E-06,0.016
4.550E-06,-0.028
4.560E-06,-0.052
4.570E-06,-0.028
4.580E-06,0.004
4.590E-06,0.052
4.600E-06,0.068
4.610E-06,0.064
4.620E-06,0.036
4.630E-06,0.004
4.640E-06,-0.004
4.650E-06,-0.004
4.660E-06,0.020
4.670E-06,0.044
4.680E-06,0.092
4.690E-06,0.096
4.700E-06,0.096
4.710E-06,0.096
4.720E-06,0.068
4.730E-06,0.060
4.740E-06,0.052
4.750E-06,0.056
4.760E-06,-0.064
4.770E-06,-0.268
4.780E-06,-0.384
4.790E-06,-0.404
4.800E-06,0.000
4.810E-06,0.192
4.820E-06,0.332
4.830E-06,0.204
4.840E-06,0.064
4.850E-06,-0.140
4.860E-06,-0.296
4.870E-06,-0.240
4.880E-06,-0.064
4.890E-06,0.208
4.900E-06,0.268
4.910E-06,0.172
4.920E-06,0.016
4.930E-06,-0.144
4.940E-06,-0.200
4.950E-06,-0.132
4.960E-06,0.016
4.970E-06,0.128
4.980E-06,0.204
4.990E-06,0.060
5.000E-06,-0.036
5.010E-06,-0.152
5.020E-06,-0.140
5.030E-06,-0.108
5.040E-06,0.012
5.050E-06,0.128
5.060E-06,0.108
5.070E-06,0.100
5.080E-06,0.008
5.090E-06,-0.056
5.100E-06,-0.080
5.110E-06,-0.020
5.120E-06,0.000
5.130E-06,0.044
5.140E-06,0.076
5.150E-06,0.076
5.160E-06,0.044
5.170E-06,-0.004
5.180E-06,-0.028
5.190E-06,-0.024
5.200E-06,0.032
5.210E-06,0.076
5.220E-06,0.132
5.230E-06,0.148
5.240E-06,0.144
5.250E-06,0.048
5.260E-06,-0.028
5.270E-06,-0.108
5.280E-06,-0.136
5.290E-06,-0.104
5.300E-06,-0.064
5.310E-06,0.052
5.320E-06,0.084
5.330E-06,0.080
5.340E-06,0.044
5.350E-06,0.000
5.360E-06,-0.024
5.370E-06,0.000
5.380E-06,0.072
5.390E-06,0.132
5.400E-06,0.136
5.410E-06,0.100
5.420E-06,0.052
5.430E-06,-0.036
5.440E-06,-0.116
5.450E-06,-0.512
5.460E-06,-0.408
5.470E-06,-0.224
5.480E-06,0.028
5.490E-06,0.224
5.500E-06,0.224
5.510E-06,0.252
5.520E-06,0.028
5.530E-06,-0.156
5.540E-06,-0.268
5.550E-06,-0.240
5.560E-06,0.080
5.570E-06,0.260
5.580E-06,0.200
5.590E-06,0.080
5.600E-06,-0.068
5.610E-06,-0.144
5.620E-06,-0.124
5.630E-06,-0.040
5.640E-06,0.072
5.650E-06,0.144
5.660E-06,0.212
5.670E-06,0.176
5.680E-06,0.056
5.690E-06,-0.184
5.700E-06,-0.184
5.710E-06,-0.248
5.720E-06,0.024
5.730E-06,0.088
5.740E-06,0.204
5.750E-06,0.236
5.760E-06,0.068
5.770E-06,-0.104
5.780E-06,-0.240
5.790E-06,-0.232
5.800E-06,-0.032
5.810E-06,0.024
5.820E-06,0.024
5.830E-06,0.072
5.840E-06,0.104
5.850E-06,0.104
5.860E-06,0.020
5.870E-06,-0.108
5.880E-06,-0.108
5.890E-06,-0.064
5.900E-06,0.044
5.910E-06,0.116
5.920E-06,0.128
5.930E-06,0.068
5.940E-06,0.028
5.950E-06,-0.032
5.960E-06,-0.056
5.970E-06,-0.060
5.980E-06,-0.020
5.990E-06,0.044
6.000E-06,0.088
6.010E-06,0.076
6.020E-06,0.020
6.030E-06,-0.008
6.040E-06,-0.068
6.050E-06,-0.072
6.060E-06,-0.056
6.070E-06,0.008
6.080E-06,0.024
6.090E-06,0.032
6.100E-06,0.012
6.110E-06,-0.004
6.120E-06,-0.024
6.130E-06,-0.028
6.140E-06,-0.016
6.150E-06,-0.008
6.160E-06,0.024
6.170E-06,0.032
6.180E-06,0.036
6.190E-06,0.008
6.200E-06,0.004
6.210E-06,-0.012
6.220E-06,-0.028
6.230E-06,-0.008
6.240E-06,0.012
6.250E-06,0.036
6.260E-06,0.044
6.270E-06,0.036
6.280E-06,0.020
6.290E-06,0.012
6.300E-06,-0.004
6.310E-06,0.008
6.320E-06,0.024
6.330E-06,0.036
6.340E-06,0.048
6.350E-06,0.044
6.360E-06,0.024
6.370E-06,0.012
6.380E-06,0.016
6.390E-06,0.016
6.400E-06,0.044
6.410E-06,0.044
6.420E-06,0.060
6.430E-06,0.056
6.440E-06,0.044
6.450E-06,0.020
6.460E-06,0.028
6.470E-06,0.040
6.480E-06,0.072
6.490E-06,0.032
6.500E-06,0.032
6.510E-06,0.196
6.520E-06,-0.128
6.530E-06,-0.328
6.540E-06,-0.508
6.550E-06,-0.348
6.560E-06,0.072
6.570E-06,0.112
6.580E-06,0.236
6.590E-06,-0.140
6.600E-06,0.056
6.610E-06,-0.132
6.620E-06,-0.264
6.630E-06,-0.232
6.640E-06,0.016
6.650E-06,0.296
6.660E-06,0.240
6.670E-06,0.156
6.680E-06,0.024
6.690E-06,-0.124
6.700E-06,-0.240
6.710E-06,-0.116
6.720E-06,-0.012
6.730E-06,0.152
6.740E-06,0.176
6.750E-06,0.160
6.760E-06,0.072
6.770E-06,-0.024
6.780E-06,-0.036
6.790E-06,-0.064
6.800E-06,0.060
6.810E-06,0.080
6.820E-06,0.156
6.830E-06,0.120
6.840E-06,0.148
6.850E-06,0.028
6.860E-06,0.052
6.870E-06,0.012
6.880E-06,0.024
6.890E-06,0.040
6.900E-06,0.044
6.910E-06,0.072
6.920E-06,0.068
6.930E-06,0.048
6.940E-06,-0.088
6.950E-06,-0.152
6.960E-06,-0.204
6.970E-06,-0.180
6.980E-06,-0.052
6.990E-06,0.108
7.000E-06,0.188
7.010E-06,0.204
7.020E-06,0.196
7.030E-06,0.016
7.040E-06,-0.104
7.050E-06,-0.140
7.060E-06,-0.040
7.070E-06,0.072
7.080E-06,0.172
7.090E-06,0.176
7.100E-06,0.152
7.110E-06,0.096
7.120E-06,0.040
7.130E-06,0.024
7.140E-06,-0.044
7.150E-06,-0.072
7.160E-06,-0.204
7.170E-06,-0.204
7.180E-06,-0.164
7.190E-06,-0.084
7.200E-06,-0.028
7.210E-06,0.068
7.220E-06,0.124
7.230E-06,0.112
7.240E-06,0.044
7.250E-06,-0.060
7.260E-06,-0.160
7.270E-06,-0.120
7.280E-06,0.108
7.290E-06,0.120
7.300E-06,0.228
7.310E-06,0.144
7.320E-06,0.080
7.330E-06,0.064
7.340E-06,0.072
7.350E-06,0.100
7.360E-06,0.068
7.370E-06,0.044
7.380E-06,-0.088
7.390E-06,-0.016
7.400E-06,-0.008
7.410E-06,0.020
7.420E-06,0.164
7.430E-06,0.064
7.440E-06,-0.120
7.450E-06,-0.324
7.460E-06,-0.400
7.470E-06,-0.280
7.480E-06,-0.112
7.490E-06,0.140
7.500E-06,0.364
7.510E-06,0.220
7.520E-06,0.132
7.530E-06,-0.128
7.540E-06,-0.208
7.550E-06,-0.132
7.560E-06,0.056
7.570E-06,0.328
7.580E-06,0.348
7.590E-06,0.288
7.600E-06,-0.008
7.610E-06,-0.088
7.620E-06,-0.096
7.630E-06,0.008
7.640E-06,0.156
7.650E-06,0.228
7.660E-06,0.220
7.670E-06,0.112
