mediciones/Mediciones filtradas (saque las feas)/6-10/43.2/WaveData55216.csv

#timebase=2000000(ps)
,#voltbase=500000(mv/100)
#size=4000
-4.250E-06,0.000
-4.240E-06,0.040
-4.230E-06,0.000
-4.220E-06,0.040
-4.210E-06,0.000
-4.200E-06,0.040
-4.190E-06,0.100
-4.180E-06,0.020
-4.170E-06,0.080
-4.160E-06,0.020
-4.150E-06,0.040
-4.140E-06,0.060
-4.130E-06,0.000
-4.120E-06,0.080
-4.110E-06,0.060
-4.100E-06,0.060
-4.090E-06,0.040
-4.080E-06,-0.020
-4.070E-06,-0.020
-4.060E-06,0.060
-4.050E-06,0.080
-4.040E-06,0.140
-4.030E-06,0.160
-4.020E-06,0.080
-4.010E-06,0.160
-4.000E-06,0.100
-3.990E-06,0.220
-3.980E-06,0.200
-3.970E-06,0.180
-3.960E-06,0.260
-3.950E-06,0.220
-3.940E-06,0.260
-3.930E-06,0.260
-3.920E-06,0.240
-3.910E-06,0.160
-3.900E-06,0.040
-3.890E-06,0.000
-3.880E-06,0.020
-3.870E-06,0.080
-3.860E-06,0.080
-3.850E-06,0.080
-3.840E-06,-0.020
-3.830E-06,-0.060
-3.820E-06,-0.120
-3.810E-06,-0.120
-3.800E-06,-0.020
-3.790E-06,-0.020
-3.780E-06,-0.040
-3.770E-06,-0.080
-3.760E-06,-0.160
-3.750E-06,-0.100
-3.740E-06,-0.100
-3.730E-06,-0.080
-3.720E-06,0.000
-3.710E-06,-0.100
-3.700E-06,-0.040
-3.690E-06,-0.040
-3.680E-06,-0.100
-3.670E-06,0.000
-3.660E-06,0.000
-3.650E-06,0.080
-3.640E-06,0.100
-3.630E-06,0.080
-3.620E-06,0.140
-3.610E-06,0.100
-3.600E-06,0.160
-3.590E-06,0.180
-3.580E-06,0.180
-3.570E-06,0.180
-3.560E-06,0.120
-3.550E-06,0.180
-3.540E-06,0.220
-3.530E-06,0.100
-3.520E-06,0.160
-3.510E-06,0.160
-3.500E-06,0.080
-3.490E-06,0.160
-3.480E-06,0.120
-3.470E-06,0.180
-3.460E-06,0.220
-3.450E-06,0.160
-3.440E-06,0.160
-3.430E-06,0.240
-3.420E-06,-0.080
-3.410E-06,0.220
-3.400E-06,0.260
-3.390E-06,0.140
-3.380E-06,0.360
-3.370E-06,0.020
-3.360E-06,0.000
-3.350E-06,-0.140
-3.340E-06,-0.160
-3.330E-06,-0.020
-3.320E-06,0.080
-3.310E-06,0.120
-3.300E-06,0.080
-3.290E-06,-0.100
-3.280E-06,-0.160
-3.270E-06,-0.120
-3.260E-06,-0.020
-3.250E-06,0.040
-3.240E-06,0.040
-3.230E-06,0.020
-3.220E-06,-0.080
-3.210E-06,-0.120
-3.200E-06,-0.120
-3.190E-06,-0.040
-3.180E-06,0.000
-3.170E-06,0.000
-3.160E-06,0.000
-3.150E-06,-0.020
-3.140E-06,-0.020
-3.130E-06,0.000
-3.120E-06,0.040
-3.110E-06,0.020
-3.100E-06,0.080
-3.090E-06,0.080
-3.080E-06,0.100
-3.070E-06,0.100
-3.060E-06,0.080
-3.050E-06,0.160
-3.040E-06,0.160
-3.030E-06,0.160
-3.020E-06,0.140
-3.010E-06,0.160
-3.000E-06,0.160
-2.990E-06,0.160
-2.980E-06,0.080
-2.970E-06,0.160
-2.960E-06,0.140
-2.950E-06,0.140
-2.940E-06,0.080
-2.930E-06,0.040
-2.920E-06,0.240
-2.910E-06,0.180
-2.900E-06,0.300
-2.890E-06,0.340
-2.880E-06,0.240
-2.870E-06,0.180
-2.860E-06,0.060
-2.850E-06,0.080
-2.840E-06,0.120
-2.830E-06,0.180
-2.820E-06,0.180
-2.810E-06,0.040
-2.800E-06,-0.020
-2.790E-06,-0.160
-2.780E-06,0.100
-2.770E-06,0.000
-2.760E-06,0.040
-2.750E-06,0.240
-2.740E-06,-0.100
-2.730E-06,0.180
-2.720E-06,0.080
-2.710E-06,0.020
-2.700E-06,0.180
-2.690E-06,-0.140
-2.680E-06,-0.140
-2.670E-06,0.000
-2.660E-06,-0.020
-2.650E-06,0.160
-2.640E-06,0.160
-2.630E-06,0.020
-2.620E-06,0.000
-2.610E-06,-0.100
-2.600E-06,-0.100
-2.590E-06,0.040
-2.580E-06,0.060
-2.570E-06,0.120
-2.560E-06,0.020
-2.550E-06,-0.040
-2.540E-06,-0.040
-2.530E-06,0.020
-2.520E-06,0.100
-2.510E-06,0.080
-2.500E-06,0.040
-2.490E-06,-0.020
-2.480E-06,-0.020
-2.470E-06,0.000
-2.460E-06,0.080
-2.450E-06,0.100
-2.440E-06,0.120
-2.430E-06,0.060
-2.420E-06,0.020
-2.410E-06,0.020
-2.400E-06,0.060
-2.390E-06,0.120
-2.380E-06,0.160
-2.370E-06,0.160
-2.360E-06,0.100
-2.350E-06,0.040
-2.340E-06,0.080
-2.330E-06,0.100
-2.320E-06,0.200
-2.310E-06,0.160
-2.300E-06,0.040
-2.290E-06,0.060
-2.280E-06,-0.040
-2.270E-06,0.120
-2.260E-06,0.280
-2.250E-06,0.300
-2.240E-06,0.420
-2.230E-06,0.160
-2.220E-06,0.040
-2.210E-06,0.060
-2.200E-06,0.000
-2.190E-06,0.160
-2.180E-06,0.320
-2.170E-06,0.100
-2.160E-06,0.160
-2.150E-06,0.060
-2.140E-06,0.000
-2.130E-06,0.280
-2.120E-06,0.160
-2.110E-06,-0.040
-2.100E-06,-0.060
-2.090E-06,-0.060
-2.080E-06,0.020
-2.070E-06,0.420
-2.060E-06,0.460
-2.050E-06,0.320
-2.040E-06,0.040
-2.030E-06,-0.260
-2.020E-06,-0.220
-2.010E-06,-0.060
-2.000E-06,0.140
-1.990E-06,0.240
-1.980E-06,0.140
-1.970E-06,-0.080
-1.960E-06,-0.220
-1.950E-06,-0.200
-1.940E-06,-0.100
-1.930E-06,0.080
-1.920E-06,0.060
-1.910E-06,0.040
-1.900E-06,-0.040
-1.890E-06,-0.140
-1.880E-06,-0.100
-1.870E-06,0.000
-1.860E-06,0.080
-1.850E-06,0.020
-1.840E-06,0.000
-1.830E-06,-0.020
-1.820E-06,-0.080
-1.810E-06,0.020
-1.800E-06,0.040
-1.790E-06,0.080
-1.780E-06,0.100
-1.770E-06,0.000
-1.760E-06,0.020
-1.750E-06,0.040
-1.740E-06,0.080
-1.730E-06,0.200
-1.720E-06,0.160
-1.710E-06,0.140
-1.700E-06,0.140
-1.690E-06,0.120
-1.680E-06,0.100
-1.670E-06,0.200
-1.660E-06,0.180
-1.650E-06,0.200
-1.640E-06,0.160
-1.630E-06,0.080
-1.620E-06,0.140
-1.610E-06,0.120
-1.600E-06,0.160
-1.590E-06,0.180
-1.580E-06,0.120
-1.570E-06,0.160
-1.560E-06,0.100
-1.550E-06,0.020
-1.540E-06,0.100
-1.530E-06,0.080
-1.520E-06,0.180
-1.510E-06,-0.160
-1.500E-06,0.000
-1.490E-06,-0.040
-1.480E-06,-0.100
-1.470E-06,0.340
-1.460E-06,0.240
-1.450E-06,0.260
-1.440E-06,0.080
-1.430E-06,-0.160
-1.420E-06,-0.120
-1.410E-06,-0.080
-1.400E-06,0.200
-1.390E-06,0.440
-1.380E-06,0.280
-1.370E-06,0.140
-1.360E-06,-0.080
-1.350E-06,-0.180
-1.340E-06,-0.080
-1.330E-06,0.120
-1.320E-06,0.220
-1.310E-06,0.200
-1.300E-06,0.060
-1.290E-06,-0.100
-1.280E-06,-0.120
-1.270E-06,-0.020
-1.260E-06,0.020
-1.250E-06,0.100
-1.240E-06,0.060
-1.230E-06,-0.060
-1.220E-06,-0.040
-1.210E-06,-0.040
-1.200E-06,0.000
-1.190E-06,0.100
-1.180E-06,0.020
-1.170E-06,0.000
-1.160E-06,-0.020
-1.150E-06,-0.060
-1.140E-06,0.020
-1.130E-06,0.000
-1.120E-06,0.080
-1.110E-06,0.060
-1.100E-06,0.040
-1.090E-06,0.040
-1.080E-06,0.040
-1.070E-06,0.120
-1.060E-06,0.200
-1.050E-06,0.180
-1.040E-06,0.180
-1.030E-06,0.140
-1.020E-06,0.100
-1.010E-06,0.180
-1.000E-06,0.200
-9.900E-07,0.200
-9.800E-07,0.180
-9.700E-07,0.120
-9.600E-07,0.080
-9.500E-07,0.060
-9.400E-07,0.080
-9.300E-07,0.140
-9.200E-07,0.140
-9.100E-07,0.120
-9.000E-07,0.080
-8.900E-07,0.040
-8.800E-07,0.020
-8.700E-07,0.040
-8.600E-07,0.080
-8.500E-07,0.040
-8.400E-07,0.080
-8.300E-07,0.000
-8.200E-07,-0.020
-8.100E-07,0.000
-8.000E-07,-0.060
-7.900E-07,0.020
-7.800E-07,0.000
-7.700E-07,0.000
-7.600E-07,0.000
-7.500E-07,-0.060
-7.400E-07,-0.020
-7.300E-07,0.000
-7.200E-07,0.000
-7.100E-07,0.000
-7.000E-07,0.040
-6.900E-07,0.040
-6.800E-07,0.040
-6.700E-07,0.060
-6.600E-07,0.060
-6.500E-07,0.080
-6.400E-07,0.080
-6.300E-07,0.100
-6.200E-07,0.100
-6.100E-07,0.100
-6.000E-07,0.120
-5.900E-07,0.140
-5.800E-07,0.160
-5.700E-07,0.160
-5.600E-07,0.000
-5.500E-07,-0.100
-5.400E-07,-0.120
-5.300E-07,-0.020
-5.200E-07,0.260
-5.100E-07,0.540
-5.000E-07,0.560
-4.900E-07,0.260
-4.800E-07,0.140
-4.700E-07,-0.240
-4.600E-07,-0.040
-4.500E-07,0.160
-4.400E-07,0.460
-4.300E-07,0.700
-4.200E-07,0.500
-4.100E-07,0.340
-4.000E-07,0.080
-3.900E-07,0.080
-3.800E-07,0.220
-3.700E-07,0.460
-3.600E-07,0.560
-3.500E-07,0.520
-3.400E-07,0.440
-3.300E-07,0.380
-3.200E-07,0.360
-3.100E-07,0.260
-3.000E-07,0.360
-2.900E-07,0.400
-2.800E-07,0.360
-2.700E-07,0.240
-2.600E-07,0.200
-2.500E-07,0.160
-2.400E-07,0.180
-2.300E-07,0.340
-2.200E-07,0.340
-2.100E-07,0.320
-2.000E-07,0.320
-1.900E-07,0.260
-1.800E-07,0.220
-1.700E-07,0.200
-1.600E-07,0.200
-1.500E-07,0.240
-1.400E-07,0.180
-1.300E-07,0.200
-1.200E-07,0.100
-1.100E-07,0.140
-1.000E-07,0.080
-9.000E-08,0.080
-8.000E-08,0.160
-7.000E-08,-0.020
-6.000E-08,0.220
-5.000E-08,0.140
-4.000E-08,-0.540
-3.000E-08,-0.360
-2.000E-08,-0.620
-1.000E-08,-0.160
0.000E+00,0.540
1.000E-08,0.860
2.000E-08,1.020
3.000E-08,0.340
4.000E-08,0.040
5.000E-08,-0.360
6.000E-08,0.120
7.000E-08,0.000
8.000E-08,0.500
9.000E-08,0.640
1.000E-07,0.080
1.100E-07,-0.180
1.200E-07,-0.180
1.300E-07,0.040
1.400E-07,0.360
1.500E-07,0.640
1.600E-07,0.420
1.700E-07,0.360
1.800E-07,0.040
1.900E-07,0.140
2.000E-07,0.260
2.100E-07,0.340
2.200E-07,0.300
2.300E-07,0.100
2.400E-07,-0.100
2.500E-07,-0.180
2.600E-07,-0.100
2.700E-07,-0.020
2.800E-07,0.160
2.900E-07,0.140
3.000E-07,0.020
3.100E-07,-0.020
3.200E-07,-0.060
3.300E-07,-0.020
3.400E-07,0.100
3.500E-07,0.240
3.600E-07,0.320
3.700E-07,0.200
3.800E-07,0.300
3.900E-07,0.220
4.000E-07,0.260
4.100E-07,-0.560
4.200E-07,-0.560
4.300E-07,-0.480
4.400E-07,-0.520
4.500E-07,0.640
4.600E-07,0.580
4.700E-07,0.760
4.800E-07,0.300
4.900E-07,-0.160
5.000E-07,-0.200
5.100E-07,0.000
5.200E-07,0.440
5.300E-07,0.600
5.400E-07,0.600
5.500E-07,0.260
5.600E-07,0.020
5.700E-07,-0.100
5.800E-07,0.020
5.900E-07,0.160
6.000E-07,0.300
6.100E-07,0.160
6.200E-07,-0.080
6.300E-07,-0.340
6.400E-07,-0.160
6.500E-07,-0.260
6.600E-07,-0.660
6.700E-07,-0.260
6.800E-07,-0.400
6.900E-07,-0.100
7.000E-07,0.160
7.100E-07,-0.040
7.200E-07,0.020
7.300E-07,-0.300
7.400E-07,-0.480
7.500E-07,-0.020
7.600E-07,0.100
7.700E-07,0.480
7.800E-07,0.580
7.900E-07,0.380
8.000E-07,0.200
8.100E-07,0.060
8.200E-07,0.120
8.300E-07,0.380
8.400E-07,0.480
8.500E-07,0.520
8.600E-07,0.340
8.700E-07,0.140
8.800E-07,0.060
8.900E-07,0.100
9.000E-07,0.220
9.100E-07,0.280
9.200E-07,0.220
9.300E-07,0.040
9.400E-07,-0.060
9.500E-07,-0.120
9.600E-07,-0.060
9.700E-07,-0.020
9.800E-07,0.120
9.900E-07,0.040
1.000E-06,0.020
1.010E-06,-0.060
1.020E-06,-0.120
1.030E-06,-0.080
1.040E-06,0.040
1.050E-06,0.140
1.060E-06,0.180
1.070E-06,0.180
1.080E-06,0.080
1.090E-06,0.000
1.100E-06,-0.040
1.110E-06,0.020
1.120E-06,0.120
1.130E-06,0.220
1.140E-06,0.240
1.150E-06,0.200
1.160E-06,0.160
1.170E-06,0.100
1.180E-06,0.140
1.190E-06,0.160
1.200E-06,0.200
1.210E-06,0.260
1.220E-06,0.260
1.230E-06,0.280
1.240E-06,0.240
1.250E-06,0.200
1.260E-06,0.160
1.270E-06,0.160
1.280E-06,0.120
1.290E-06,0.080
1.300E-06,0.120
1.310E-06,0.060
1.320E-06,0.080
1.330E-06,0.040
1.340E-06,0.000
1.350E-06,0.100
1.360E-06,0.120
1.370E-06,0.200
1.380E-06,0.200
1.390E-06,-0.060
1.400E-06,-0.120
1.410E-06,-0.200
1.420E-06,-0.260
1.430E-06,-0.080
1.440E-06,0.380
1.450E-06,0.380
1.460E-06,0.680
1.470E-06,0.360
1.480E-06,0.020
1.490E-06,-0.020
1.500E-06,-0.200
1.510E-06,0.120
1.520E-06,0.340
1.530E-06,0.340
1.540E-06,0.240
1.550E-06,-0.020
1.560E-06,-0.260
1.570E-06,-0.180
1.580E-06,-0.060
1.590E-06,0.040
1.600E-06,0.120
1.610E-06,-0.080
1.620E-06,-0.140
1.630E-06,-0.240
1.640E-06,-0.220
1.650E-06,0.060
1.660E-06,0.220
1.670E-06,0.240
1.680E-06,0.120
1.690E-06,-0.020
1.700E-06,-0.220
1.710E-06,-0.100
1.720E-06,-0.100
1.730E-06,0.020
1.740E-06,0.240
1.750E-06,0.160
1.760E-06,0.380
1.770E-06,0.360
1.780E-06,0.520
1.790E-06,0.680
1.800E-06,0.540
1.810E-06,0.480
1.820E-06,0.380
1.830E-06,0.240
1.840E-06,0.200
1.850E-06,0.240
1.860E-06,0.180
1.870E-06,0.180
1.880E-06,0.040
1.890E-06,0.000
1.900E-06,0.000
1.910E-06,-0.020
1.920E-06,0.020
1.930E-06,-0.060
1.940E-06,-0.120
1.950E-06,-0.280
1.960E-06,-0.280
1.970E-06,-0.260
1.980E-06,-0.200
1.990E-06,-0.160
2.000E-06,-0.160
2.010E-06,-0.200
2.020E-06,-0.280
2.030E-06,-0.320
2.040E-06,-0.340
2.050E-06,-0.200
2.060E-06,-0.120
2.070E-06,-0.040
2.080E-06,0.060
2.090E-06,0.040
2.100E-06,-0.020
2.110E-06,0.040
2.120E-06,0.100
2.130E-06,0.240
2.140E-06,0.360
2.150E-06,0.380
2.160E-06,0.380
2.170E-06,0.360
2.180E-06,0.340
2.190E-06,0.400
2.200E-06,0.460
2.210E-06,0.560
2.220E-06,0.640
2.230E-06,0.660
2.240E-06,0.680
2.250E-06,0.540
2.260E-06,0.480
2.270E-06,0.460
2.280E-06,0.420
2.290E-06,0.460
2.300E-06,0.600
2.310E-06,0.440
2.320E-06,0.500
2.330E-06,0.480
2.340E-06,0.340
2.350E-06,0.480
2.360E-06,0.320
2.370E-06,0.380
2.380E-06,0.320
2.390E-06,0.140
2.400E-06,0.260
2.410E-06,0.020
2.420E-06,0.080
2.430E-06,0.220
2.440E-06,0.200
2.450E-06,0.000
2.460E-06,-0.180
2.470E-06,-0.380
2.480E-06,-0.420
2.490E-06,0.040
2.500E-06,0.380
2.510E-06,0.840
2.520E-06,0.740
2.530E-06,-0.240
2.540E-06,-0.940
2.550E-06,-0.620
2.560E-06,-0.580
2.570E-06,1.440
2.580E-06,1.660
2.590E-06,1.520
2.600E-06,0.900
2.610E-06,-0.360
2.620E-06,-0.120
2.630E-06,0.100
2.640E-06,0.860
2.650E-06,1.300
2.660E-06,0.940
2.670E-06,0.340
2.680E-06,0.160
2.690E-06,-0.100
2.700E-06,0.140
2.710E-06,0.120
2.720E-06,0.160
2.730E-06,-0.020
2.740E-06,-0.040
2.750E-06,-0.040
2.760E-06,-0.020
2.770E-06,-0.020
2.780E-06,-0.280
2.790E-06,-0.660
2.800E-06,-0.860
2.810E-06,-0.840
2.820E-06,-0.660
2.830E-06,-0.480
2.840E-06,-0.520
2.850E-06,-0.580
2.860E-06,-0.740
2.870E-06,-0.840
2.880E-06,-0.800
2.890E-06,-0.680
2.900E-06,-0.360
2.910E-06,-0.280
2.920E-06,-0.160
2.930E-06,0.140
2.940E-06,-0.500
2.950E-06,0.000
2.960E-06,0.200
2.970E-06,0.320
2.980E-06,1.180
2.990E-06,0.900
3.000E-06,0.760
3.010E-06,0.640
3.020E-06,0.260
3.030E-06,0.580
3.040E-06,0.740
3.050E-06,0.920
3.060E-06,1.020
3.070E-06,0.800
3.080E-06,0.720
3.090E-06,0.740
3.100E-06,0.660
3.110E-06,0.900
3.120E-06,0.680
3.130E-06,0.980
3.140E-06,-0.140
3.150E-06,-0.260
3.160E-06,0.140
3.170E-06,-0.240
3.180E-06,1.120
3.190E-06,1.000
3.200E-06,0.660
3.210E-06,0.140
3.220E-06,-0.660
3.230E-06,-1.160
3.240E-06,-0.660
3.250E-06,-0.240
3.260E-06,0.120
3.270E-06,0.300
3.280E-06,-0.360
3.290E-06,-0.640
3.300E-06,-0.900
3.310E-06,-0.700
3.320E-06,-0.500
3.330E-06,-0.240
3.340E-06,-0.380
3.350E-06,0.020
3.360E-06,-0.640
3.370E-06,-1.280
3.380E-06,-1.280
3.390E-06,-1.840
3.400E-06,-1.700
3.410E-06,-0.700
3.420E-06,-0.600
3.430E-06,-0.260
3.440E-06,0.120
3.450E-06,-0.240
3.460E-06,0.160
3.470E-06,0.860
3.480E-06,1.480
3.490E-06,2.060
3.500E-06,1.800
3.510E-06,1.280
3.520E-06,0.860
3.530E-06,0.720
3.540E-06,0.900
3.550E-06,1.360
3.560E-06,1.360
3.570E-06,1.100
3.580E-06,0.600
3.590E-06,0.100
3.600E-06,0.000
3.610E-06,0.020
3.620E-06,0.180
3.630E-06,0.220
3.640E-06,0.040
3.650E-06,-0.180
3.660E-06,-0.380
3.670E-06,-0.580
3.680E-06,-0.460
3.690E-06,-0.240
3.700E-06,0.080
3.710E-06,0.360
3.720E-06,0.420
3.730E-06,0.360
3.740E-06,0.240
3.750E-06,0.240
3.760E-06,0.320
3.770E-06,0.420
3.780E-06,0.500
3.790E-06,0.460
3.800E-06,0.380
3.810E-06,0.320
3.820E-06,0.100
3.830E-06,-0.080
3.840E-06,-0.340
3.850E-06,-0.460
3.860E-06,-0.480
3.870E-06,-0.460
3.880E-06,-0.400
3.890E-06,-0.400
3.900E-06,-0.460
3.910E-06,-0.580
3.920E-06,-0.520
3.930E-06,-0.420
3.940E-06,-0.200
3.950E-06,0.000
3.960E-06,0.100
3.970E-06,0.120
3.980E-06,0.160
3.990E-06,0.160
4.000E-06,0.280
4.010E-06,0.460
4.020E-06,0.640
4.030E-06,0.840
4.040E-06,0.740
4.050E-06,0.660
4.060E-06,0.560
4.070E-06,0.500
4.080E-06,0.480
4.090E-06,0.420
4.100E-06,0.400
4.110E-06,0.220
4.120E-06,0.080
4.130E-06,0.100
4.140E-06,0.200
4.150E-06,0.420
4.160E-06,0.620
4.170E-06,0.620
4.180E-06,0.620
4.190E-06,0.300
4.200E-06,0.420
4.210E-06,0.880
4.220E-06,-0.080
4.230E-06,0.680
4.240E-06,1.000
4.250E-06,-0.940
4.260E-06,0.640
4.270E-06,0.360
4.280E-06,1.620
4.290E-06,0.100
4.300E-06,2.080
4.310E-06,0.780
4.320E-06,0.220
4.330E-06,2.360
4.340E-06,0.040
4.350E-06,1.180
4.360E-06,0.480
4.370E-06,-0.180
4.380E-06,0.860
4.390E-06,0.380
4.400E-06,0.320
4.410E-06,0.820
4.420E-06,0.100
4.430E-06,-0.280
4.440E-06,0.000
4.450E-06,-0.500
4.460E-06,-0.460
4.470E-06,-0.180
4.480E-06,-0.520
4.490E-06,-0.680
4.500E-06,-0.640
4.510E-06,-0.920
4.520E-06,-0.920
4.530E-06,-0.840
4.540E-06,-0.860
4.550E-06,-0.900
4.560E-06,-0.780
4.570E-06,-0.760
4.580E-06,-0.700
4.590E-06,-0.540
4.600E-06,-0.480
4.610E-06,-0.380
4.620E-06,-0.320
4.630E-06,-0.140
4.640E-06,-0.120
4.650E-06,0.000
4.660E-06,0.040
4.670E-06,0.000
4.680E-06,-0.020
4.690E-06,0.000
4.700E-06,0.000
4.710E-06,0.140
4.720E-06,0.420
4.730E-06,0.440
4.740E-06,0.600
4.750E-06,0.500
4.760E-06,0.460
4.770E-06,0.320
4.780E-06,0.700
4.790E-06,0.440
4.800E-06,-0.600
4.810E-06,-0.520
4.820E-06,-0.440
4.830E-06,0.380
4.840E-06,2.040
4.850E-06,2.500
4.860E-06,2.420
4.870E-06,1.580
4.880E-06,0.060
4.890E-06,-0.420
4.900E-06,-0.220
4.910E-06,0.540
4.920E-06,1.240
4.930E-06,1.340
4.940E-06,0.860
4.950E-06,0.320
4.960E-06,-0.160
4.970E-06,-0.200
4.980E-06,-0.020
4.990E-06,-0.180
5.000E-06,0.100
5.010E-06,-0.840
5.020E-06,-1.020
5.030E-06,-0.760
5.040E-06,-0.900
5.050E-06,-0.060
5.060E-06,-0.120
5.070E-06,-0.260
5.080E-06,-0.280
5.090E-06,-0.840
5.100E-06,-0.920
5.110E-06,-0.760
5.120E-06,-0.680
5.130E-06,-0.400
5.140E-06,-0.240
5.150E-06,-0.260
5.160E-06,-0.320
5.170E-06,-0.280
5.180E-06,-0.260
5.190E-06,-0.160
5.200E-06,-0.160
5.210E-06,-0.220
5.220E-06,-0.260
5.230E-06,-0.360
5.240E-06,-0.280
5.250E-06,-0.240
5.260E-06,-0.160
5.270E-06,0.020
5.280E-06,-0.220
5.290E-06,0.020
5.300E-06,-0.100
5.310E-06,-0.280
5.320E-06,0.080
5.330E-06,-0.040
5.340E-06,0.360
5.350E-06,0.740
5.360E-06,0.700
5.370E-06,0.900
5.380E-06,0.720
5.390E-06,0.660
5.400E-06,0.840
5.410E-06,0.900
5.420E-06,0.940
5.430E-06,1.100
5.440E-06,0.900
5.450E-06,0.660
5.460E-06,1.040
5.470E-06,-0.340
5.480E-06,-0.760
5.490E-06,0.320
5.500E-06,-0.120
5.510E-06,1.900
5.520E-06,2.560
5.530E-06,1.860
5.540E-06,1.900
5.550E-06,0.180
5.560E-06,-0.660
5.570E-06,-0.240
5.580E-06,-0.160
5.590E-06,0.560
5.600E-06,0.920
5.610E-06,0.060
5.620E-06,-0.160
5.630E-06,-0.640
5.640E-06,-0.880
5.650E-06,-0.940
5.660E-06,-0.760
5.670E-06,-1.160
5.680E-06,-1.480
5.690E-06,-1.480
5.700E-06,-1.360
5.710E-06,-1.700
5.720E-06,-1.860
5.730E-06,-1.800
5.740E-06,-1.580
5.750E-06,-0.640
5.760E-06,-0.520
5.770E-06,0.040
5.780E-06,-0.220
5.790E-06,-0.660
5.800E-06,-0.660
5.810E-06,-0.320
5.820E-06,0.060
5.830E-06,0.600
5.840E-06,0.780
5.850E-06,0.740
5.860E-06,1.380
5.870E-06,1.520
5.880E-06,2.000
5.890E-06,2.020
5.900E-06,1.680
5.910E-06,1.480
5.920E-06,1.120
5.930E-06,1.060
5.940E-06,1.220
5.950E-06,1.120
5.960E-06,1.040
5.970E-06,0.920
5.980E-06,0.580
5.990E-06,0.320
6.000E-06,0.120
6.010E-06,0.020
6.020E-06,-0.120
6.030E-06,-0.240
6.040E-06,-0.320
6.050E-06,-0.400
6.060E-06,-0.460
6.070E-06,-0.500
6.080E-06,-0.520
6.090E-06,-0.560
6.100E-06,-0.560
6.110E-06,-0.640
6.120E-06,-0.680
6.130E-06,-0.720
6.140E-06,-0.740
6.150E-06,-0.660
6.160E-06,-0.560
6.170E-06,-0.440
6.180E-06,-0.400
6.190E-06,-0.380
6.200E-06,-0.340
6.210E-06,-0.280
6.220E-06,-0.200
6.230E-06,-0.080
6.240E-06,-0.080
6.250E-06,-0.120
6.260E-06,-0.140
6.270E-06,0.000
6.280E-06,0.100
6.290E-06,0.260
6.300E-06,0.320
6.310E-06,0.300
6.320E-06,0.320
6.330E-06,0.320
6.340E-06,0.360
6.350E-06,0.380
6.360E-06,0.420
6.370E-06,0.460
6.380E-06,0.520
6.390E-06,0.500
6.400E-06,0.500
6.410E-06,0.500
6.420E-06,0.500
6.430E-06,0.540
6.440E-06,0.500
6.450E-06,0.500
6.460E-06,0.500
6.470E-06,0.420
6.480E-06,0.440
6.490E-06,0.480
6.500E-06,0.400
6.510E-06,0.480
6.520E-06,0.040
6.530E-06,0.200
6.540E-06,0.820
6.550E-06,-0.260
6.560E-06,-0.800
6.570E-06,-1.060
6.580E-06,-0.320
6.590E-06,0.540
6.600E-06,1.460
6.610E-06,1.700
6.620E-06,0.840
6.630E-06,0.400
6.640E-06,-0.440
6.650E-06,-0.780
6.660E-06,-0.020
6.670E-06,0.300
6.680E-06,0.580
6.690E-06,0.800
6.700E-06,0.020
6.710E-06,-0.020
6.720E-06,-0.320
6.730E-06,-0.540
6.740E-06,-0.260
6.750E-06,-0.280
6.760E-06,-0.300
6.770E-06,-0.380
6.780E-06,-0.420
6.790E-06,-0.540
6.800E-06,-0.840
6.810E-06,-0.940
6.820E-06,-0.940
6.830E-06,-1.100
6.840E-06,-0.820
6.850E-06,-0.740
6.860E-06,-0.520
6.870E-06,-0.320
6.880E-06,-0.400
6.890E-06,-0.020
6.900E-06,0.120
6.910E-06,0.340
6.920E-06,0.280
6.930E-06,0.320
6.940E-06,0.460
6.950E-06,0.660
6.960E-06,0.980
6.970E-06,0.560
6.980E-06,0.460
6.990E-06,0.500
7.000E-06,0.180
7.010E-06,0.760
7.020E-06,1.220
7.030E-06,1.460
7.040E-06,1.700
7.050E-06,1.600
7.060E-06,1.140
7.070E-06,0.860
7.080E-06,0.900
7.090E-06,0.840
7.100E-06,1.060
7.110E-06,1.200
7.120E-06,1.100
7.130E-06,1.200
7.140E-06,1.000
7.150E-06,0.800
7.160E-06,1.000
7.170E-06,0.480
7.180E-06,0.180
7.190E-06,-0.720
7.200E-06,-0.620
7.210E-06,-1.120
7.220E-06,-0.500
7.230E-06,0.420
7.240E-06,0.020
7.250E-06,0.760
7.260E-06,0.340
7.270E-06,-1.000
7.280E-06,-0.860
7.290E-06,-1.280
7.300E-06,-1.200
7.310E-06,0.200
7.320E-06,0.240
7.330E-06,0.680
7.340E-06,0.860
7.350E-06,0.220
7.360E-06,-0.040
7.370E-06,0.160
7.380E-06,0.000
7.390E-06,0.200
7.400E-06,0.300
7.410E-06,-0.180
7.420E-06,-0.120
7.430E-06,-0.140
7.440E-06,0.220
7.450E-06,0.760
7.460E-06,0.420
7.470E-06,0.000
7.480E-06,-0.500
7.490E-06,-1.640
7.500E-06,-0.840
7.510E-06,-0.580
7.520E-06,0.680
7.530E-06,1.800
7.540E-06,1.280
7.550E-06,1.540
7.560E-06,0.520
7.570E-06,0.180
7.580E-06,0.520
7.590E-06,0.740
7.600E-06,0.900
7.610E-06,1.140
7.620E-06,0.920
7.630E-06,0.720
7.640E-06,0.600
7.650E-06,0.540
7.660E-06,0.820
7.670E-06,1.120
7.680E-06,1.000
7.690E-06,0.820
