mediciones/mediciones removidas por ser diferentes/-45/WaveData50143.csv

#timebase=2000000(ps)
,#voltbase=1000000(mv/100)
#size=4000
-8.400E-06,0.160
-8.390E-06,0.120
-8.380E-06,0.160
-8.370E-06,0.160
-8.360E-06,0.080
-8.350E-06,0.000
-8.340E-06,-0.040
-8.330E-06,-0.040
-8.320E-06,0.000
-8.310E-06,0.080
-8.300E-06,0.000
-8.290E-06,-0.040
-8.280E-06,0.000
-8.270E-06,-0.040
-8.260E-06,-0.040
-8.250E-06,-0.040
-8.240E-06,0.000
-8.230E-06,-0.040
-8.220E-06,-0.040
-8.210E-06,-0.040
-8.200E-06,-0.040
-8.190E-06,-0.040
-8.180E-06,0.040
-8.170E-06,0.040
-8.160E-06,-0.040
-8.150E-06,0.000
-8.140E-06,0.000
-8.130E-06,0.000
-8.120E-06,0.000
-8.110E-06,0.000
-8.100E-06,0.040
-8.090E-06,0.000
-8.080E-06,0.040
-8.070E-06,0.000
-8.060E-06,0.000
-8.050E-06,0.000
-8.040E-06,0.040
-8.030E-06,0.040
-8.020E-06,-0.040
-8.010E-06,0.000
-8.000E-06,-0.040
-7.990E-06,0.000
-7.980E-06,0.000
-7.970E-06,0.000
-7.960E-06,0.000
-7.950E-06,0.000
-7.940E-06,-0.040
-7.930E-06,0.000
-7.920E-06,0.040
-7.910E-06,0.040
-7.900E-06,0.080
-7.890E-06,0.040
-7.880E-06,0.080
-7.870E-06,0.200
-7.860E-06,0.200
-7.850E-06,0.160
-7.840E-06,0.240
-7.830E-06,0.240
-7.820E-06,0.280
-7.810E-06,0.160
-7.800E-06,0.200
-7.790E-06,0.120
-7.780E-06,0.120
-7.770E-06,0.200
-7.760E-06,0.160
-7.750E-06,0.160
-7.740E-06,0.120
-7.730E-06,0.080
-7.720E-06,0.120
-7.710E-06,0.080
-7.700E-06,0.080
-7.690E-06,0.080
-7.680E-06,0.040
-7.670E-06,0.040
-7.660E-06,0.000
-7.650E-06,0.000
-7.640E-06,0.000
-7.630E-06,0.000
-7.620E-06,0.000
-7.610E-06,0.000
-7.600E-06,-0.080
-7.590E-06,-0.040
-7.580E-06,-0.040
-7.570E-06,0.000
-7.560E-06,0.000
-7.550E-06,-0.040
-7.540E-06,0.000
-7.530E-06,0.000
-7.520E-06,0.000
-7.510E-06,-0.040
-7.500E-06,-0.040
-7.490E-06,-0.040
-7.480E-06,0.040
-7.470E-06,0.040
-7.460E-06,0.080
-7.450E-06,-0.040
-7.440E-06,0.040
-7.430E-06,0.080
-7.420E-06,0.080
-7.410E-06,0.120
-7.400E-06,0.080
-7.390E-06,0.080
-7.380E-06,0.120
-7.370E-06,0.160
-7.360E-06,0.120
-7.350E-06,0.160
-7.340E-06,0.160
-7.330E-06,0.240
-7.320E-06,0.160
-7.310E-06,0.120
-7.300E-06,0.160
-7.290E-06,0.120
-7.280E-06,0.120
-7.270E-06,0.160
-7.260E-06,0.160
-7.250E-06,0.160
-7.240E-06,0.160
-7.230E-06,0.120
-7.220E-06,0.080
-7.210E-06,0.160
-7.200E-06,0.160
-7.190E-06,0.160
-7.180E-06,0.240
-7.170E-06,0.280
-7.160E-06,0.200
-7.150E-06,0.200
-7.140E-06,0.240
-7.130E-06,0.160
-7.120E-06,0.240
-7.110E-06,0.240
-7.100E-06,0.280
-7.090E-06,0.320
-7.080E-06,0.240
-7.070E-06,0.280
-7.060E-06,0.200
-7.050E-06,0.080
-7.040E-06,0.160
-7.030E-06,0.080
-7.020E-06,0.120
-7.010E-06,0.240
-7.000E-06,0.280
-6.990E-06,0.360
-6.980E-06,0.240
-6.970E-06,0.160
-6.960E-06,0.240
-6.950E-06,0.240
-6.940E-06,0.320
-6.930E-06,0.360
-6.920E-06,0.360
-6.910E-06,0.320
-6.900E-06,0.360
-6.890E-06,0.320
-6.880E-06,0.360
-6.870E-06,0.360
-6.860E-06,0.400
-6.850E-06,0.320
-6.840E-06,0.320
-6.830E-06,0.360
-6.820E-06,0.400
-6.810E-06,0.360
-6.800E-06,0.360
-6.790E-06,0.360
-6.780E-06,0.240
-6.770E-06,0.200
-6.760E-06,0.160
-6.750E-06,0.160
-6.740E-06,0.160
-6.730E-06,0.200
-6.720E-06,0.160
-6.710E-06,0.120
-6.700E-06,0.200
-6.690E-06,0.200
-6.680E-06,0.200
-6.670E-06,0.200
-6.660E-06,0.120
-6.650E-06,0.080
-6.640E-06,0.080
-6.630E-06,0.080
-6.620E-06,0.160
-6.610E-06,0.320
-6.600E-06,0.360
-6.590E-06,0.280
-6.580E-06,0.320
-6.570E-06,0.200
-6.560E-06,0.240
-6.550E-06,0.200
-6.540E-06,0.240
-6.530E-06,0.320
-6.520E-06,0.240
-6.510E-06,0.320
-6.500E-06,0.200
-6.490E-06,0.160
-6.480E-06,0.160
-6.470E-06,0.280
-6.460E-06,0.320
-6.450E-06,0.320
-6.440E-06,0.320
-6.430E-06,0.280
-6.420E-06,0.280
-6.410E-06,0.200
-6.400E-06,0.240
-6.390E-06,0.240
-6.380E-06,0.120
-6.370E-06,0.160
-6.360E-06,0.200
-6.350E-06,0.200
-6.340E-06,0.240
-6.330E-06,0.240
-6.320E-06,0.240
-6.310E-06,0.120
-6.300E-06,0.200
-6.290E-06,0.040
-6.280E-06,0.160
-6.270E-06,0.200
-6.260E-06,0.160
-6.250E-06,0.160
-6.240E-06,0.000
-6.230E-06,-0.040
-6.220E-06,-0.040
-6.210E-06,0.080
-6.200E-06,0.200
-6.190E-06,0.360
-6.180E-06,0.360
-6.170E-06,0.240
-6.160E-06,0.200
-6.150E-06,-0.040
-6.140E-06,0.080
-6.130E-06,0.000
-6.120E-06,0.040
-6.110E-06,0.360
-6.100E-06,0.160
-6.090E-06,0.480
-6.080E-06,0.240
-6.070E-06,0.120
-6.060E-06,-0.040
-6.050E-06,-0.080
-6.040E-06,-0.160
-6.030E-06,0.000
-6.020E-06,0.160
-6.010E-06,0.200
-6.000E-06,0.160
-5.990E-06,0.120
-5.980E-06,0.040
-5.970E-06,0.040
-5.960E-06,0.080
-5.950E-06,0.080
-5.940E-06,0.200
-5.930E-06,0.160
-5.920E-06,0.200
-5.910E-06,0.040
-5.900E-06,-0.080
-5.890E-06,-0.080
-5.880E-06,-0.160
-5.870E-06,-0.080
-5.860E-06,-0.080
-5.850E-06,-0.080
-5.840E-06,-0.160
-5.830E-06,-0.240
-5.820E-06,-0.280
-5.810E-06,-0.200
-5.800E-06,-0.200
-5.790E-06,-0.120
-5.780E-06,-0.080
-5.770E-06,-0.080
-5.760E-06,-0.120
-5.750E-06,-0.040
-5.740E-06,-0.040
-5.730E-06,-0.080
-5.720E-06,-0.080
-5.710E-06,-0.160
-5.700E-06,-0.160
-5.690E-06,-0.240
-5.680E-06,-0.200
-5.670E-06,-0.200
-5.660E-06,-0.240
-5.650E-06,-0.280
-5.640E-06,-0.200
-5.630E-06,-0.240
-5.620E-06,-0.080
-5.610E-06,0.000
-5.600E-06,0.040
-5.590E-06,0.160
-5.580E-06,0.160
-5.570E-06,0.080
-5.560E-06,0.080
-5.550E-06,0.120
-5.540E-06,0.120
-5.530E-06,0.200
-5.520E-06,0.320
-5.510E-06,0.360
-5.500E-06,0.120
-5.490E-06,0.280
-5.480E-06,0.520
-5.470E-06,-0.160
-5.460E-06,0.000
-5.450E-06,0.200
-5.440E-06,-0.440
-5.430E-06,0.440
-5.420E-06,0.640
-5.410E-06,0.240
-5.400E-06,0.400
-5.390E-06,-0.280
-5.380E-06,-0.400
-5.370E-06,-0.200
-5.360E-06,-0.080
-5.350E-06,0.160
-5.340E-06,0.200
-5.330E-06,-0.360
-5.320E-06,-0.440
-5.310E-06,-0.720
-5.300E-06,-0.840
-5.290E-06,-0.360
-5.280E-06,-0.240
-5.270E-06,0.000
-5.260E-06,-0.120
-5.250E-06,-0.640
-5.240E-06,-0.640
-5.230E-06,-0.880
-5.220E-06,-0.720
-5.210E-06,-0.640
-5.200E-06,-0.800
-5.190E-06,-0.960
-5.180E-06,-1.040
-5.170E-06,-0.800
-5.160E-06,-1.000
-5.150E-06,-0.720
-5.140E-06,-0.520
-5.130E-06,-0.680
-5.120E-06,-0.240
-5.110E-06,-0.160
-5.100E-06,-0.160
-5.090E-06,0.000
-5.080E-06,-0.240
-5.070E-06,-0.280
-5.060E-06,-0.080
-5.050E-06,0.040
-5.040E-06,0.400
-5.030E-06,0.360
-5.020E-06,0.240
-5.010E-06,0.080
-5.000E-06,-0.040
-4.990E-06,-0.120
-4.980E-06,-0.040
-4.970E-06,-0.040
-4.960E-06,0.080
-4.950E-06,-0.040
-4.940E-06,-0.280
-4.930E-06,-0.320
-4.920E-06,-0.560
-4.910E-06,-0.680
-4.900E-06,-0.680
-4.890E-06,-0.680
-4.880E-06,-0.640
-4.870E-06,-0.600
-4.860E-06,-0.520
-4.850E-06,-0.600
-4.840E-06,-0.680
-4.830E-06,-0.840
-4.820E-06,-0.720
-4.810E-06,-0.800
-4.800E-06,-0.720
-4.790E-06,-0.720
-4.780E-06,-0.840
-4.770E-06,-0.600
-4.760E-06,-0.560
-4.750E-06,-0.360
-4.740E-06,-0.240
-4.730E-06,-0.280
-4.720E-06,-0.240
-4.710E-06,-0.240
-4.700E-06,-0.280
-4.690E-06,-0.200
-4.680E-06,-0.240
-4.670E-06,-0.080
-4.660E-06,-0.120
-4.650E-06,-0.080
-4.640E-06,-0.160
-4.630E-06,-0.080
-4.620E-06,-0.200
-4.610E-06,-0.240
-4.600E-06,-0.120
-4.590E-06,-0.200
-4.580E-06,-0.280
-4.570E-06,-0.200
-4.560E-06,-0.200
-4.550E-06,-0.400
-4.540E-06,-0.240
-4.530E-06,-0.600
-4.520E-06,-0.360
-4.510E-06,-0.320
-4.500E-06,-0.400
-4.490E-06,-0.040
-4.480E-06,-0.120
-4.470E-06,-0.240
-4.460E-06,-0.320
-4.450E-06,-0.640
-4.440E-06,-0.440
-4.430E-06,-0.480
-4.420E-06,-0.400
-4.410E-06,-0.400
-4.400E-06,-0.720
-4.390E-06,-0.800
-4.380E-06,-0.720
-4.370E-06,-0.720
-4.360E-06,-0.400
-4.350E-06,-0.360
-4.340E-06,-0.440
-4.330E-06,-0.480
-4.320E-06,-0.840
-4.310E-06,-0.920
-4.300E-06,-0.880
-4.290E-06,-0.680
-4.280E-06,-0.520
-4.270E-06,-0.480
-4.260E-06,-0.600
-4.250E-06,-0.720
-4.240E-06,-0.840
-4.230E-06,-0.840
-4.220E-06,-0.760
-4.210E-06,-0.680
-4.200E-06,-0.520
-4.190E-06,-0.560
-4.180E-06,-0.640
-4.170E-06,-0.640
-4.160E-06,-0.680
-4.150E-06,-0.720
-4.140E-06,-0.640
-4.130E-06,-0.680
-4.120E-06,-0.680
-4.110E-06,-0.680
-4.100E-06,-0.640
-4.090E-06,-0.480
-4.080E-06,-0.520
-4.070E-06,-0.520
-4.060E-06,-0.440
-4.050E-06,-0.520
-4.040E-06,-0.600
-4.030E-06,-0.440
-4.020E-06,-0.600
-4.010E-06,-0.360
-4.000E-06,-0.560
-3.990E-06,-0.560
-3.980E-06,-0.320
-3.970E-06,-0.600
-3.960E-06,-0.080
-3.950E-06,0.000
-3.940E-06,0.120
-3.930E-06,0.200
-3.920E-06,-0.040
-3.910E-06,-0.200
-3.900E-06,-0.240
-3.890E-06,-0.040
-3.880E-06,0.080
-3.870E-06,0.160
-3.860E-06,0.000
-3.850E-06,-0.120
-3.840E-06,-0.280
-3.830E-06,-0.280
-3.820E-06,-0.240
-3.810E-06,-0.160
-3.800E-06,-0.240
-3.790E-06,-0.360
-3.780E-06,-0.480
-3.770E-06,-0.680
-3.760E-06,-0.720
-3.750E-06,-0.840
-3.740E-06,-0.880
-3.730E-06,-0.960
-3.720E-06,-1.040
-3.710E-06,-1.080
-3.700E-06,-1.080
-3.690E-06,-1.120
-3.680E-06,-1.120
-3.670E-06,-1.200
-3.660E-06,-1.160
-3.650E-06,-1.120
-3.640E-06,-1.040
-3.630E-06,-0.960
-3.620E-06,-1.000
-3.610E-06,-0.920
-3.600E-06,-0.920
-3.590E-06,-0.920
-3.580E-06,-0.880
-3.570E-06,-0.800
-3.560E-06,-0.720
-3.550E-06,-0.680
-3.540E-06,-0.680
-3.530E-06,-0.680
-3.520E-06,-0.720
-3.510E-06,-0.680
-3.500E-06,-0.600
-3.490E-06,-0.520
-3.480E-06,-0.320
-3.470E-06,-0.280
-3.460E-06,-0.200
-3.450E-06,-0.280
-3.440E-06,-0.280
-3.430E-06,-0.240
-3.420E-06,-0.200
-3.410E-06,-0.080
-3.400E-06,-0.080
-3.390E-06,-0.040
-3.380E-06,0.000
-3.370E-06,0.000
-3.360E-06,0.000
-3.350E-06,0.120
-3.340E-06,0.200
-3.330E-06,0.200
-3.320E-06,0.200
-3.310E-06,0.160
-3.300E-06,0.040
-3.290E-06,0.040
-3.280E-06,0.000
-3.270E-06,-0.040
-3.260E-06,-0.160
-3.250E-06,-0.120
-3.240E-06,-0.240
-3.230E-06,-0.240
-3.220E-06,-0.280
-3.210E-06,-0.280
-3.200E-06,-0.160
-3.190E-06,-0.280
-3.180E-06,-0.280
-3.170E-06,-0.360
-3.160E-06,-0.480
-3.150E-06,-0.320
-3.140E-06,-0.360
-3.130E-06,-0.360
-3.120E-06,-0.240
-3.110E-06,-0.360
-3.100E-06,-0.400
-3.090E-06,-0.360
-3.080E-06,-0.400
-3.070E-06,-0.320
-3.060E-06,-0.400
-3.050E-06,-0.360
-3.040E-06,-0.480
-3.030E-06,-0.600
-3.020E-06,-0.640
-3.010E-06,-0.800
-3.000E-06,-0.800
-2.990E-06,-0.800
-2.980E-06,-0.800
-2.970E-06,-0.800
-2.960E-06,-0.840
-2.950E-06,-0.880
-2.940E-06,-1.040
-2.930E-06,-1.000
-2.920E-06,-1.000
-2.910E-06,-0.960
-2.900E-06,-0.880
-2.890E-06,-0.920
-2.880E-06,-0.880
-2.870E-06,-0.920
-2.860E-06,-0.840
-2.850E-06,-0.760
-2.840E-06,-0.760
-2.830E-06,-0.680
-2.820E-06,-0.560
-2.810E-06,-0.560
-2.800E-06,-0.480
-2.790E-06,-0.480
-2.780E-06,-0.440
-2.770E-06,-0.360
-2.760E-06,-0.320
-2.750E-06,-0.320
-2.740E-06,-0.400
-2.730E-06,-0.400
-2.720E-06,-0.440
-2.710E-06,-0.440
-2.700E-06,-0.480
-2.690E-06,-0.520
-2.680E-06,-0.480
-2.670E-06,-0.440
-2.660E-06,-0.520
-2.650E-06,-0.520
-2.640E-06,-0.680
-2.630E-06,-0.920
-2.620E-06,-0.880
-2.610E-06,-0.960
-2.600E-06,-0.960
-2.590E-06,-0.840
-2.580E-06,-0.640
-2.570E-06,-0.480
-2.560E-06,-0.560
-2.550E-06,-0.520
-2.540E-06,-0.720
-2.530E-06,-0.800
-2.520E-06,-0.640
-2.510E-06,-0.560
-2.500E-06,-0.240
-2.490E-06,-0.200
-2.480E-06,-0.080
-2.470E-06,-0.120
-2.460E-06,-0.240
-2.450E-06,-0.120
-2.440E-06,-0.120
-2.430E-06,-0.080
-2.420E-06,0.000
-2.410E-06,-0.160
-2.400E-06,-0.200
-2.390E-06,-0.240
-2.380E-06,-0.280
-2.370E-06,-0.320
-2.360E-06,-0.320
-2.350E-06,-0.440
-2.340E-06,-0.480
-2.330E-06,-0.640
-2.320E-06,-0.680
-2.310E-06,-0.760
-2.300E-06,-0.760
-2.290E-06,-0.920
-2.280E-06,-0.960
-2.270E-06,-1.080
-2.260E-06,-1.120
-2.250E-06,-1.120
-2.240E-06,-1.120
-2.230E-06,-1.080
-2.220E-06,-1.080
-2.210E-06,-1.080
-2.200E-06,-1.080
-2.190E-06,-1.000
-2.180E-06,-0.960
-2.170E-06,-0.800
-2.160E-06,-0.720
-2.150E-06,-0.760
-2.140E-06,-0.680
-2.130E-06,-0.600
-2.120E-06,-0.600
-2.110E-06,-0.480
-2.100E-06,-0.480
-2.090E-06,-0.440
-2.080E-06,-0.400
-2.070E-06,-0.480
-2.060E-06,-0.360
-2.050E-06,-0.280
-2.040E-06,-0.360
-2.030E-06,-0.280
-2.020E-06,-0.240
-2.010E-06,-0.240
-2.000E-06,-0.120
-1.990E-06,-0.120
-1.980E-06,-0.080
-1.970E-06,-0.080
-1.960E-06,-0.040
-1.950E-06,-0.040
-1.940E-06,-0.080
-1.930E-06,-0.080
-1.920E-06,-0.080
-1.910E-06,-0.120
-1.900E-06,-0.200
-1.890E-06,-0.160
-1.880E-06,-0.280
-1.870E-06,-0.360
-1.860E-06,-0.120
-1.850E-06,-0.200
-1.840E-06,-0.200
-1.830E-06,-0.120
-1.820E-06,-0.360
-1.810E-06,-0.400
-1.800E-06,-0.320
-1.790E-06,-0.320
-1.780E-06,-0.640
-1.770E-06,-0.840
-1.760E-06,-1.000
-1.750E-06,-0.960
-1.740E-06,-0.800
-1.730E-06,-0.280
-1.720E-06,-0.160
-1.710E-06,0.200
-1.700E-06,-0.200
-1.690E-06,-0.280
-1.680E-06,-0.320
-1.670E-06,-0.120
-1.660E-06,0.360
-1.650E-06,0.160
-1.640E-06,0.440
-1.630E-06,0.400
-1.620E-06,0.320
-1.610E-06,0.440
-1.600E-06,0.520
-1.590E-06,0.560
-1.580E-06,0.800
-1.570E-06,0.640
-1.560E-06,0.440
-1.550E-06,0.320
-1.540E-06,-0.440
-1.530E-06,-0.520
-1.520E-06,-0.800
-1.510E-06,-0.560
-1.500E-06,-0.360
-1.490E-06,-0.240
-1.480E-06,-0.160
-1.470E-06,-0.520
-1.460E-06,-0.600
-1.450E-06,-0.720
-1.440E-06,-0.280
-1.430E-06,-0.120
-1.420E-06,0.160
-1.410E-06,0.320
-1.400E-06,-0.120
-1.390E-06,-0.040
-1.380E-06,-0.200
-1.370E-06,-0.240
-1.360E-06,-0.080
-1.350E-06,-0.240
-1.340E-06,-0.360
-1.330E-06,-0.480
-1.320E-06,-0.520
-1.310E-06,-0.520
-1.300E-06,-0.400
-1.290E-06,-0.680
-1.280E-06,-0.960
-1.270E-06,-1.040
-1.260E-06,-0.960
-1.250E-06,-1.560
-1.240E-06,-1.720
-1.230E-06,-1.920
-1.220E-06,-2.040
-1.210E-06,-1.600
-1.200E-06,-1.360
-1.190E-06,-1.200
-1.180E-06,-1.120
-1.170E-06,-1.040
-1.160E-06,-1.160
-1.150E-06,-0.880
-1.140E-06,-0.600
-1.130E-06,-0.360
-1.120E-06,-0.320
-1.110E-06,-0.360
-1.100E-06,-0.520
-1.090E-06,-0.680
-1.080E-06,-0.680
-1.070E-06,-0.680
-1.060E-06,-0.680
-1.050E-06,-0.600
-1.040E-06,-0.840
-1.030E-06,-1.080
-1.020E-06,-1.360
-1.010E-06,-2.120
-1.000E-06,-2.560
-9.900E-07,-3.040
-9.800E-07,-3.480
-9.700E-07,-3.720
-9.600E-07,-3.920
-9.500E-07,-3.880
-9.400E-07,-4.040
-9.300E-07,-4.280
-9.200E-07,-4.400
-9.100E-07,-4.560
-9.000E-07,-4.480
-8.900E-07,-4.280
-8.800E-07,-4.120
-8.700E-07,-3.840
-8.600E-07,-3.640
-8.500E-07,-4.040
-8.400E-07,-4.240
-8.300E-07,-4.440
-8.200E-07,-4.720
-8.100E-07,-4.480
-8.000E-07,-4.280
-7.900E-07,-4.240
-7.800E-07,-4.200
-7.700E-07,-4.200
-7.600E-07,-4.720
-7.500E-07,-4.400
-7.400E-07,-4.520
-7.300E-07,-4.680
-7.200E-07,-4.040
-7.100E-07,-4.080
-7.000E-07,-3.880
-6.900E-07,-3.680
-6.800E-07,-3.560
-6.700E-07,-3.400
-6.600E-07,-3.320
-6.500E-07,-3.360
-6.400E-07,-3.280
-6.300E-07,-3.200
-6.200E-07,-3.200
-6.100E-07,-3.000
-6.000E-07,-3.000
-5.900E-07,-2.760
-5.800E-07,-2.920
-5.700E-07,-2.840
-5.600E-07,-2.840
-5.500E-07,-3.160
-5.400E-07,-2.800
-5.300E-07,-2.800
-5.200E-07,-2.760
-5.100E-07,-2.680
-5.000E-07,-2.680
-4.900E-07,-2.680
-4.800E-07,-2.640
-4.700E-07,-2.760
-4.600E-07,-2.720
-4.500E-07,-2.640
-4.400E-07,-2.760
-4.300E-07,-2.640
-4.200E-07,-2.680
-4.100E-07,-2.800
-4.000E-07,-2.800
-3.900E-07,-2.880
-3.800E-07,-2.920
-3.700E-07,-3.040
-3.600E-07,-3.200
-3.500E-07,-3.320
-3.400E-07,-3.400
-3.300E-07,-3.480
-3.200E-07,-3.520
-3.100E-07,-3.600
-3.000E-07,-3.760
-2.900E-07,-3.880
-2.800E-07,-3.920
-2.700E-07,-3.840
-2.600E-07,-3.760
-2.500E-07,-3.640
-2.400E-07,-3.600
-2.300E-07,-3.440
-2.200E-07,-3.240
-2.100E-07,-3.160
-2.000E-07,-3.080
-1.900E-07,-3.080
-1.800E-07,-3.040
-1.700E-07,-3.000
-1.600E-07,-3.040
-1.500E-07,-3.120
-1.400E-07,-3.520
-1.300E-07,-3.560
-1.200E-07,-3.880
-1.100E-07,-3.880
-1.000E-07,-4.120
-9.000E-08,-3.000
-8.000E-08,-3.400
-7.000E-08,-2.840
-6.000E-08,-2.200
-5.000E-08,-1.800
-4.000E-08,-1.360
-3.000E-08,-0.720
-2.000E-08,-0.640
-1.000E-08,-0.960
0.000E+00,-0.400
1.000E-08,-0.520
2.000E-08,0.160
3.000E-08,0.440
4.000E-08,0.480
5.000E-08,0.120
6.000E-08,-0.040
7.000E-08,-0.080
8.000E-08,-0.160
9.000E-08,-0.040
1.000E-07,-0.120
1.100E-07,-0.480
1.200E-07,-0.920
1.300E-07,-1.440
1.400E-07,-2.000
1.500E-07,-2.360
1.600E-07,-2.920
1.700E-07,-3.400
1.800E-07,-3.880
1.900E-07,-4.440
2.000E-07,-4.840
2.100E-07,-5.200
2.200E-07,-5.200
2.300E-07,-5.240
2.400E-07,-5.240
2.500E-07,-5.240
2.600E-07,-5.200
2.700E-07,-5.240
2.800E-07,-5.240
2.900E-07,-5.240
3.000E-07,-5.240
3.100E-07,-5.240
3.200E-07,-5.240
3.300E-07,-5.240
3.400E-07,-5.200
3.500E-07,-4.960
3.600E-07,-4.720
3.700E-07,-4.600
3.800E-07,-4.440
3.900E-07,-4.360
4.000E-07,-4.240
4.100E-07,-4.160
4.200E-07,-4.160
4.300E-07,-4.080
4.400E-07,-4.040
4.500E-07,-4.080
4.600E-07,-4.080
4.700E-07,-4.000
4.800E-07,-4.000
4.900E-07,-3.840
5.000E-07,-3.760
5.100E-07,-3.640
5.200E-07,-3.560
5.300E-07,-3.480
5.400E-07,-3.360
5.500E-07,-3.320
5.600E-07,-3.240
5.700E-07,-3.120
5.800E-07,-3.040
5.900E-07,-3.040
6.000E-07,-2.880
6.100E-07,-2.800
6.200E-07,-2.760
6.300E-07,-2.720
6.400E-07,-2.680
6.500E-07,-2.640
6.600E-07,-2.600
6.700E-07,-2.560
6.800E-07,-2.520
6.900E-07,-2.520
7.000E-07,-2.520
7.100E-07,-2.520
7.200E-07,-2.520
7.300E-07,-2.520
7.400E-07,-2.600
7.500E-07,-2.600
7.600E-07,-2.560
7.700E-07,-2.560
7.800E-07,-2.600
7.900E-07,-2.560
8.000E-07,-2.560
8.100E-07,-2.600
8.200E-07,-2.600
8.300E-07,-2.600
8.400E-07,-2.560
8.500E-07,-2.600
8.600E-07,-2.600
8.700E-07,-2.600
8.800E-07,-2.600
8.900E-07,-2.600
9.000E-07,-2.600
9.100E-07,-2.600
9.200E-07,-2.560
9.300E-07,-2.600
9.400E-07,-2.560
9.500E-07,-2.560
9.600E-07,-2.520
9.700E-07,-2.520
9.800E-07,-2.520
9.900E-07,-2.520
1.000E-06,-2.440
1.010E-06,-2.440
1.020E-06,-2.400
1.030E-06,-2.360
1.040E-06,-2.240
1.050E-06,-2.240
1.060E-06,-2.160
1.070E-06,-2.120
1.080E-06,-2.120
1.090E-06,-2.080
1.100E-06,-2.040
1.110E-06,-1.960
1.120E-06,-2.000
1.130E-06,-2.040
1.140E-06,-2.000
1.150E-06,-2.000
1.160E-06,-2.000
1.170E-06,-2.080
1.180E-06,-2.160
1.190E-06,-2.160
1.200E-06,-2.200
1.210E-06,-2.280
1.220E-06,-2.280
1.230E-06,-2.200
1.240E-06,-2.200
1.250E-06,-2.080
1.260E-06,-2.040
1.270E-06,-2.000
1.280E-06,-1.920
1.290E-06,-1.920
1.300E-06,-1.840
1.310E-06,-1.840
1.320E-06,-1.800
1.330E-06,-1.760
1.340E-06,-1.680
1.350E-06,-1.720
1.360E-06,-1.600
1.370E-06,-1.520
1.380E-06,-1.520
1.390E-06,-1.480
1.400E-06,-1.440
1.410E-06,-1.360
1.420E-06,-1.360
1.430E-06,-1.360
1.440E-06,-1.320
1.450E-06,-1.240
1.460E-06,-1.200
1.470E-06,-1.200
1.480E-06,-1.120
1.490E-06,-1.080
1.500E-06,-1.120
1.510E-06,-1.160
1.520E-06,-1.160
1.530E-06,-1.200
1.540E-06,-1.200
1.550E-06,-1.280
1.560E-06,-1.240
1.570E-06,-1.240
1.580E-06,-1.320
1.590E-06,-1.320
1.600E-06,-1.320
1.610E-06,-1.400
1.620E-06,-1.440
1.630E-06,-1.480
1.640E-06,-1.560
1.650E-06,-1.640
1.660E-06,-1.680
1.670E-06,-1.680
1.680E-06,-1.680
1.690E-06,-1.640
1.700E-06,-1.600
1.710E-06,-1.520
1.720E-06,-1.520
1.730E-06,-1.560
1.740E-06,-1.520
1.750E-06,-1.600
1.760E-06,-1.560
1.770E-06,-1.520
1.780E-06,-1.440
1.790E-06,-1.400
1.800E-06,-1.360
1.810E-06,-1.360
1.820E-06,-1.360
1.830E-06,-1.360
1.840E-06,-1.440
1.850E-06,-1.480
1.860E-06,-1.560
1.870E-06,-1.640
1.880E-06,-1.720
1.890E-06,-1.840
1.900E-06,-1.840
1.910E-06,-1.720
1.920E-06,-1.560
1.930E-06,-1.280
1.940E-06,-1.000
1.950E-06,-0.640
1.960E-06,-0.400
1.970E-06,-0.280
1.980E-06,-0.120
1.990E-06,-0.080
2.000E-06,-0.040
2.010E-06,-0.040
2.020E-06,-0.040
2.030E-06,-0.080
2.040E-06,-0.160
2.050E-06,-0.200
2.060E-06,-0.320
2.070E-06,-0.440
2.080E-06,-0.560
2.090E-06,-0.680
2.100E-06,-0.760
2.110E-06,-0.840
2.120E-06,-0.920
2.130E-06,-1.000
2.140E-06,-1.080
2.150E-06,-1.160
2.160E-06,-1.200
2.170E-06,-1.160
2.180E-06,-1.240
2.190E-06,-1.240
2.200E-06,-1.160
2.210E-06,-1.200
2.220E-06,-1.160
2.230E-06,-1.080
2.240E-06,-1.040
2.250E-06,-1.000
2.260E-06,-0.960
2.270E-06,-0.840
2.280E-06,-0.800
2.290E-06,-0.800
2.300E-06,-0.800
2.310E-06,-0.800
2.320E-06,-0.800
2.330E-06,-0.840
2.340E-06,-0.840
2.350E-06,-0.840
2.360E-06,-0.840
2.370E-06,-0.840
2.380E-06,-0.880
2.390E-06,-0.880
2.400E-06,-0.960
2.410E-06,-0.920
2.420E-06,-0.880
2.430E-06,-0.800
2.440E-06,-0.680
2.450E-06,-0.640
2.460E-06,-0.520
2.470E-06,-0.480
2.480E-06,-0.440
2.490E-06,-0.400
2.500E-06,-0.320
2.510E-06,-0.200
2.520E-06,-0.160
2.530E-06,-0.120
2.540E-06,-0.080
2.550E-06,0.000
2.560E-06,-0.040
2.570E-06,-0.040
2.580E-06,-0.040
2.590E-06,-0.040
2.600E-06,-0.120
2.610E-06,-0.160
2.620E-06,-0.200
2.630E-06,-0.240
2.640E-06,-0.280
2.650E-06,-0.360
2.660E-06,-0.440
2.670E-06,-0.480
2.680E-06,-0.480
2.690E-06,-0.480
2.700E-06,-0.480
2.710E-06,-0.480
2.720E-06,-0.520
2.730E-06,-0.480
2.740E-06,-0.400
2.750E-06,-0.440
2.760E-06,-0.360
2.770E-06,-0.360
2.780E-06,-0.360
2.790E-06,-0.320
2.800E-06,-0.360
2.810E-06,-0.240
2.820E-06,-0.200
2.830E-06,-0.200
2.840E-06,-0.280
2.850E-06,-0.280
2.860E-06,-0.240
2.870E-06,-0.280
2.880E-06,-0.240
2.890E-06,-0.320
2.900E-06,-0.360
2.910E-06,-0.440
2.920E-06,-0.400
2.930E-06,-0.440
2.940E-06,-0.480
2.950E-06,-0.520
2.960E-06,-0.640
2.970E-06,-0.680
2.980E-06,-0.680
2.990E-06,-0.760
